<?xml version="1.0" encoding="UTF-8" standalone="no"?>
<!-- Created with Inkscape (http://www.inkscape.org/) -->

<svg
   xmlns:dc="http://purl.org/dc/elements/1.1/"
   xmlns:cc="http://creativecommons.org/ns#"
   xmlns:rdf="http://www.w3.org/1999/02/22-rdf-syntax-ns#"
   xmlns:svg="http://www.w3.org/2000/svg"
   xmlns="http://www.w3.org/2000/svg"
   xmlns:xlink="http://www.w3.org/1999/xlink"
   xmlns:sodipodi="http://sodipodi.sourceforge.net/DTD/sodipodi-0.dtd"
   xmlns:inkscape="http://www.inkscape.org/namespaces/inkscape"
   id="svg2"
   version="1.1"
   inkscape:version="0.92.2 (5c3e80d, 2017-08-06)"
   width="2481"
   height="3503"
   sodipodi:docname="Pepper-and-Carrot_by-David-Revoy_E17P06.svg"
   inkscape:export-filename="E:\Users\jamesmichael\Downloads\Compressed\eps\peppercarrot_ep17_translation-master\peppercarrot_ep17_translation-master\ph\Pepper-and-Carrot_by-David-Revoy_E17P06.png"
   inkscape:export-xdpi="98.181801"
   inkscape:export-ydpi="98.181801">
  <metadata
     id="metadata8">
    <rdf:RDF>
      <cc:Work
         rdf:about="">
        <dc:format>image/svg+xml</dc:format>
        <dc:type
           rdf:resource="http://purl.org/dc/dcmitype/StillImage" />
        <dc:title />
      </cc:Work>
    </rdf:RDF>
  </metadata>
  <defs
     id="defs6">
    <inkscape:path-effect
       effect="simplify"
       id="path-effect8295"
       is_visible="true"
       steps="1"
       threshold="0.00317343"
       smooth_angles="360"
       helper_size="0"
       simplify_individual_paths="false"
       simplify_just_coalesce="false"
       simplifyindividualpaths="false"
       simplifyJustCoalesce="false" />
    <inkscape:path-effect
       effect="simplify"
       id="path-effect8291"
       is_visible="true"
       steps="1"
       threshold="0.00317343"
       smooth_angles="360"
       helper_size="0"
       simplify_individual_paths="false"
       simplify_just_coalesce="false"
       simplifyindividualpaths="false"
       simplifyJustCoalesce="false" />
    <inkscape:path-effect
       effect="simplify"
       id="path-effect8283"
       is_visible="true"
       steps="1"
       threshold="0.00317343"
       smooth_angles="360"
       helper_size="0"
       simplify_individual_paths="false"
       simplify_just_coalesce="false"
       simplifyindividualpaths="false"
       simplifyJustCoalesce="false" />
    <inkscape:path-effect
       effect="simplify"
       id="path-effect8279"
       is_visible="true"
       steps="1"
       threshold="0.00317343"
       smooth_angles="360"
       helper_size="0"
       simplify_individual_paths="false"
       simplify_just_coalesce="false"
       simplifyindividualpaths="false"
       simplifyJustCoalesce="false" />
    <clipPath
       clipPathUnits="userSpaceOnUse"
       id="clipPath4810">
      <path
         sodipodi:nodetypes="csssssc"
         inkscape:connector-curvature="0"
         id="path4812"
         d="m 1906.8935,1771.9256 c -1.6289,-111.2127 45.6236,-217.9124 184.133,-197.1013 160.414,24.1024 167.1666,35.3433 167.6544,247.092 0.3702,160.6875 -46.988,206.2862 -67.3834,224.5851 -20.3957,18.2992 -53.2459,28.9632 -112.9178,29.7261 -59.0696,0.7554 -111.9778,-42.4567 -136.5006,-88.4859 -19.8798,-37.3139 -34.9039,-88.4034 -34.9856,-215.816 z"
         style="color:#000000;display:inline;overflow:visible;visibility:visible;fill:#ffffff;fill-opacity:1;fill-rule:nonzero;stroke:none;stroke-width:1.17410004px;marker:none;enable-background:accumulate" />
    </clipPath>
    <inkscape:path-effect
       effect="simplify"
       id="path-effect8295-7"
       is_visible="true"
       steps="1"
       threshold="0.00317343"
       smooth_angles="360"
       helper_size="0"
       simplify_individual_paths="false"
       simplify_just_coalesce="false"
       simplifyindividualpaths="false"
       simplifyJustCoalesce="false" />
    <inkscape:path-effect
       effect="simplify"
       id="path-effect8295-7-6"
       is_visible="true"
       steps="1"
       threshold="0.00317343"
       smooth_angles="360"
       helper_size="0"
       simplify_individual_paths="false"
       simplify_just_coalesce="false"
       simplifyindividualpaths="false"
       simplifyJustCoalesce="false" />
    <inkscape:path-effect
       effect="simplify"
       id="path-effect8295-75"
       is_visible="true"
       steps="1"
       threshold="0.00317343"
       smooth_angles="360"
       helper_size="0"
       simplify_individual_paths="false"
       simplify_just_coalesce="false"
       simplifyindividualpaths="false"
       simplifyJustCoalesce="false" />
    <inkscape:path-effect
       effect="simplify"
       id="path-effect8295-5"
       is_visible="true"
       steps="1"
       threshold="0.00317343"
       smooth_angles="360"
       helper_size="0"
       simplify_individual_paths="false"
       simplify_just_coalesce="false"
       simplifyindividualpaths="false"
       simplifyJustCoalesce="false" />
    <inkscape:path-effect
       effect="simplify"
       id="path-effect8295-7-64"
       is_visible="true"
       steps="1"
       threshold="0.00317343"
       smooth_angles="360"
       helper_size="0"
       simplify_individual_paths="false"
       simplify_just_coalesce="false"
       simplifyindividualpaths="false"
       simplifyJustCoalesce="false" />
    <inkscape:path-effect
       effect="simplify"
       id="path-effect8295-75-5"
       is_visible="true"
       steps="1"
       threshold="0.00317343"
       smooth_angles="360"
       helper_size="0"
       simplify_individual_paths="false"
       simplify_just_coalesce="false"
       simplifyindividualpaths="false"
       simplifyJustCoalesce="false" />
    <inkscape:path-effect
       effect="simplify"
       id="path-effect8295-7-6-8"
       is_visible="true"
       steps="1"
       threshold="0.00317343"
       smooth_angles="360"
       helper_size="0"
       simplify_individual_paths="false"
       simplify_just_coalesce="false"
       simplifyindividualpaths="false"
       simplifyJustCoalesce="false" />
    <inkscape:path-effect
       effect="simplify"
       id="path-effect8295-3"
       is_visible="true"
       steps="1"
       threshold="0.00317343"
       smooth_angles="360"
       helper_size="0"
       simplify_individual_paths="false"
       simplify_just_coalesce="false"
       simplifyindividualpaths="false"
       simplifyJustCoalesce="false" />
    <inkscape:path-effect
       effect="simplify"
       id="path-effect8295-7-4"
       is_visible="true"
       steps="1"
       threshold="0.00317343"
       smooth_angles="360"
       helper_size="0"
       simplify_individual_paths="false"
       simplify_just_coalesce="false"
       simplifyindividualpaths="false"
       simplifyJustCoalesce="false" />
    <inkscape:path-effect
       effect="simplify"
       id="path-effect8295-75-8"
       is_visible="true"
       steps="1"
       threshold="0.00317343"
       smooth_angles="360"
       helper_size="0"
       simplify_individual_paths="false"
       simplify_just_coalesce="false"
       simplifyindividualpaths="false"
       simplifyJustCoalesce="false" />
    <inkscape:path-effect
       effect="simplify"
       id="path-effect8295-7-6-1"
       is_visible="true"
       steps="1"
       threshold="0.00317343"
       smooth_angles="360"
       helper_size="0"
       simplify_individual_paths="false"
       simplify_just_coalesce="false"
       simplifyindividualpaths="false"
       simplifyJustCoalesce="false" />
  </defs>
  <sodipodi:namedview
     pagecolor="#ffffff"
     bordercolor="#666666"
     borderopacity="1"
     objecttolerance="10"
     gridtolerance="10"
     guidetolerance="10"
     inkscape:pageopacity="0"
     inkscape:pageshadow="2"
     inkscape:window-width="1366"
     inkscape:window-height="705"
     id="namedview4"
     showgrid="false"
     inkscape:zoom="0.2287013"
     inkscape:cx="1146.5223"
     inkscape:cy="604.91857"
     inkscape:window-x="-8"
     inkscape:window-y="-8"
     inkscape:window-maximized="1"
     inkscape:current-layer="g8343"
     showguides="true"
     inkscape:guide-bbox="true" />
  <g
     inkscape:groupmode="layer"
     id="layer2"
     inkscape:label="artwork"
     sodipodi:insensitive="true"
     style="display:inline">
    <image
       sodipodi:absref="E:\Users\jamesmichael\Downloads\Compressed\eps\peppercarrot_ep17_translation-master\peppercarrot_ep17_translation-master\ph\../gfx_Pepper-and-Carrot_by-David-Revoy_E17P06.png"
       xlink:href="../gfx_Pepper-and-Carrot_by-David-Revoy_E17P06.png"
       y="0"
       x="0"
       id="image10"
       height="3503"
       width="2481" />
  </g>
  <g
     inkscape:groupmode="layer"
     id="layer3"
     inkscape:label="speechbubbles">
    <path
       style="fill:#ffffff;stroke:none;stroke-width:1.11394382"
       d="m 1190.299,1451.4835 c -26.1093,-91.5539 -177.53,-114.3577 -136.923,-117.2114 31.4921,-2.2134 287.7651,-2.2635 373.9621,-4.0593 86.197,-1.796 308.2132,2.6477 380.8552,7.1499 77.8093,4.8223 101.0704,48.229 106.8154,97.486 7.5405,64.6552 -26.4323,77.8073 -81.3069,99.6199 -55.6734,22.13 -342.3733,30.52 -362.0266,28.7848 -19.6532,-1.7356 -427.0033,5.2809 -444.2547,-0.7946 -17.2517,-6.0755 169.8278,-63.9311 162.8785,-110.9753 z"
       id="path3278-7"
       inkscape:connector-curvature="0"
       sodipodi:nodetypes="csssssssc" />
    <path
       style="color:#000000;display:inline;overflow:visible;visibility:visible;fill:#ffffff;fill-opacity:1;fill-rule:nonzero;stroke:none;stroke-width:1.12331641px;marker:none;enable-background:accumulate"
       d="m 262.84805,2460.3138 c 1.93595,-96.6442 35.05764,-167.7898 122.90547,-150.8278 47.05603,9.0858 100.44911,14.7334 98.15806,156.3025 -2.29111,141.5693 -78.98796,138.9915 -94.78736,142.5201 -15.79943,3.5283 -98.3569,-10.1722 -113.17699,-58.1133 -9.27703,-30.0102 -13.10639,-59.9584 -13.09918,-89.8815 z"
       id="path4546-6"
       inkscape:connector-curvature="0"
       sodipodi:nodetypes="cssssc" />
    <path
       style="color:#000000;display:inline;overflow:visible;visibility:visible;fill:#ffffff;fill-opacity:1;fill-rule:nonzero;stroke:none;stroke-width:1px;marker:none;enable-background:accumulate"
       d="m 732.48575,2666.3472 c -23.62035,-34.1403 -42.50363,-36.5905 -55.96461,-39.6154 -1.87547,3.3952 -6.49852,8.7941 -6.49852,8.7941 0,0 -25.97688,-8.0908 -36.79234,-8.3139 -10.8154,-0.2233 -11.06323,11.4471 -11.06323,11.4471 0,0 50.13669,16.8309 59.91961,23.2139 4.71046,-9.5178 8.40315,-13.5624 8.49056,-17.6813 8.12621,-0.5191 33.14349,10.2991 41.90853,22.1555 z"
       id="path4456"
       inkscape:connector-curvature="0" />
    <path
       style="color:#000000;display:inline;overflow:visible;visibility:visible;fill:#ffffff;fill-opacity:1;fill-rule:nonzero;stroke:none;stroke-width:1.1480751px;marker:none;enable-background:accumulate"
       d="m 473.78071,2495.7432 c 20.32666,-88.5806 130.88533,-81.0186 167.67027,-42.6414 36.78476,38.3772 50.47214,104.471 52.18304,127.9239 1.71083,23.4527 -2.56635,132.188 -21.38653,153.5089 -18.8201,21.3206 -72.71407,31.9808 -91.53424,31.9808 -18.82012,0 -78.89812,-13.5703 -94.10077,-44.7735 -14.54285,-29.8489 -33.15854,-137.4186 -12.83177,-225.9987 z"
       id="path3330"
       inkscape:connector-curvature="0"
       sodipodi:nodetypes="zsssssz" />
    <path
       style="fill:#ffffff;stroke:none"
       d="m 1305.4599,1686.9052 c -61.4509,-16.3887 -30.8533,-65.2702 -45.5225,-67.9315 -14.6694,-2.6615 -27.8562,-6.807 -33.7712,-15.0125 -5.9149,-8.2051 -17.4337,-18.7558 -18.2822,-28.6243 -0.8487,-9.8684 -23.7836,-10.6121 -33.4878,-14.4455 -9.7043,-3.8334 -11.9428,-27.0084 -31.3844,-32.284 5.3237,-14.6209 97.6313,-19.5261 101.1522,-6.625 3.0581,11.2046 -31.3327,8.8903 -26.385,11.6146 4.9478,2.7247 15.8223,5.1341 19.2489,15.2244 3.4267,10.0904 1.9896,20.862 2.9452,28.9403 0.9559,8.0785 12.0525,14.9191 22.8341,19.6159 10.8918,4.7448 13.7129,2.9923 22.8729,15.641 10.2162,14.1071 -25.9903,41.4407 19.7798,73.8866 z"
       id="path3023-2"
       inkscape:connector-curvature="0"
       sodipodi:nodetypes="csssscssssssc" />
    <path
       style="fill:#ffffff;stroke:none;stroke-width:1px;stroke-linecap:butt;stroke-linejoin:miter;stroke-opacity:1"
       d="m 2005.0553,2101.4324 c 0,-23.5087 9.9266,-37.4143 13.1403,-65.5083 0,-19.7568 -3.6716,-23.1888 -12.1741,-30.9184 -8.5026,-7.7296 -15.3836,-20.5053 -26.8797,-0.5934 -12.6571,37.054 2.4445,73.9908 -11.9615,126.5857 -1.7785,6.4932 -141.0049,-186.7216 -102.5928,-524.8777 17.283,-152.149 370.6785,-85.2672 425.4124,-47.0244 149.7181,104.6084 40.345,554.0152 10.1484,575.4468 -47.7435,33.8853 -106.3162,-18.2158 -295.093,-33.1103 z"
       id="path4790"
       inkscape:connector-curvature="0"
       sodipodi:nodetypes="ccccssssc"
       clip-path="url(#clipPath4810)" />
    <path
       style="color:#000000;display:inline;overflow:visible;visibility:visible;fill:#ffffff;fill-opacity:1;fill-rule:nonzero;stroke:none;stroke-width:1.41949785px;marker:none;enable-background:accumulate"
       d="m 2035.0374,2068.425 c 12.9601,19.324 26.1848,39.9627 47.3203,41.978 6.1001,0.3067 12.7047,-0.2548 19.8565,-4.1553 7.8889,-6.843 14.6039,-21.1635 17.862,-33.9453 5.395,-18.6322 7.1057,-37.713 16.2885,-56.1902 6.8069,-13.3332 15.3379,-17.3228 22.6948,-21.7608 18.6663,-10.7067 36.8043,-17.2724 56.1263,-32.8766 -48.771,-22.6803 105.3354,-89.3185 -16.6427,-29.2346 -16.656,18.9834 -31.6496,19.8973 -46.7551,26.3513 -6.9376,3.1292 -14.4762,7.2768 -21.7908,15.859 -10.0134,15.3891 -13.8276,34.8441 -15.967,50.819 -2.4668,16.6373 -4.1934,35.2746 -13.5221,52.8137 -5.8957,12.8755 -12.9546,10.9811 -18.8718,13.4481 -18.1529,3.553 -33.1419,-3.7683 -44.1167,-17.9254 -0.9239,-1.5737 -1.7047,-3.371 -2.4822,-5.1809 z"
       id="path4496"
       inkscape:connector-curvature="0"
       sodipodi:nodetypes="ccccccccccccccc" />
  </g>
  <g
     inkscape:groupmode="layer"
     id="layer1"
     inkscape:label="txt"
     style="opacity:0.93999999">
    <text
       xml:space="preserve"
       style="font-style:normal;font-variant:normal;font-weight:normal;font-stretch:normal;line-height:0%;font-family:Lavi;-inkscape-font-specification:Lavi;text-align:center;letter-spacing:0px;word-spacing:0px;text-anchor:middle;fill:#000000;fill-opacity:1;stroke:none"
       x="1445.2596"
       y="1395.4565"
       id="text4246-1"><tspan
         sodipodi:role="line"
         style="font-style:italic;font-variant:normal;font-weight:normal;font-stretch:normal;font-size:45px;line-height:1.25;font-family:Lavi;-inkscape-font-specification:'Lavi Italic'"
         x="1453.1698"
         y="1395.4565"
         id="tspan4774">&quot;Ni kompass o mapa, di kailangan </tspan><tspan
         sodipodi:role="line"
         style="font-style:italic;font-variant:normal;font-weight:normal;font-stretch:normal;font-size:45px;line-height:1.25;font-family:Lavi;-inkscape-font-specification:'Lavi Italic'"
         x="1445.2596"
         y="1451.7065"
         id="tspan4778">ng isang tunay na Chaosah</tspan><tspan
         sodipodi:role="line"
         style="font-style:italic;font-variant:normal;font-weight:normal;font-stretch:normal;font-size:45px;line-height:1.25;font-family:Lavi;-inkscape-font-specification:'Lavi Italic'"
         x="1445.2596"
         y="1507.9565"
         id="tspan3380">Ang gabing mabituin ay sa sasapat na&quot;</tspan></text>
    <text
       xml:space="preserve"
       style="font-style:normal;font-variant:normal;font-weight:normal;font-stretch:normal;line-height:0%;font-family:Lavi;-inkscape-font-specification:Lavi;text-align:center;letter-spacing:0px;word-spacing:0px;text-anchor:middle;fill:#000000;fill-opacity:1;stroke:none"
       x="366.82053"
       y="2509.0068"
       id="text4246-2-5-8"
       transform="scale(1.0253273,0.97529833)"><tspan
         sodipodi:role="line"
         style="font-size:46.13972855px;line-height:1.25"
         x="366.82053"
         y="2509.0068"
         id="tspan4406-1">Sa wakas</tspan><tspan
         sodipodi:role="line"
         style="font-size:46.13972855px;line-height:1.25"
         x="366.82053"
         y="2566.6814"
         id="tspan4487">Carrot !</tspan></text>
    <text
       xml:space="preserve"
       style="font-style:normal;font-variant:normal;font-weight:normal;font-stretch:normal;line-height:0%;font-family:Lavi;-inkscape-font-specification:Lavi;text-align:center;letter-spacing:0px;word-spacing:0px;text-anchor:middle;fill:#000000;fill-opacity:1;stroke:none"
       x="586.2627"
       y="2543.0266"
       id="text4246-2-5-8-5"><tspan
         sodipodi:role="line"
         style="font-size:45px;line-height:1.25"
         x="586.2627"
         y="2543.0266"
         id="tspan4487-4">Hayun,</tspan><tspan
         sodipodi:role="line"
         style="font-size:45px;line-height:1.25"
         x="594.17285"
         y="2599.2766"
         id="tspan3479">Andito </tspan><tspan
         sodipodi:role="line"
         style="font-size:45px;line-height:1.25"
         x="586.2627"
         y="2655.5266"
         id="tspan4814">na tayo!</tspan></text>
    <flowRoot
       xml:space="preserve"
       id="flowRoot4780"
       style="font-style:normal;font-variant:normal;font-weight:normal;font-stretch:normal;font-size:40px;line-height:1.25;font-family:Lavi;-inkscape-font-specification:Lavi;text-align:center;letter-spacing:0px;word-spacing:0px;text-anchor:middle;fill:#000000;fill-opacity:1;stroke:none"
       transform="translate(-39.883115,-201.64735)"><flowRegion
         id="flowRegion4782"
         style="font-style:normal;font-variant:normal;font-weight:normal;font-stretch:normal;font-family:Lavi;-inkscape-font-specification:Lavi;text-align:center;text-anchor:middle"><rect
           id="rect4784"
           width="299.90802"
           height="442.13242"
           x="1967.9532"
           y="1882.8783"
           style="font-style:normal;font-variant:normal;font-weight:normal;font-stretch:normal;font-family:Lavi;-inkscape-font-specification:Lavi;text-align:center;text-anchor:middle" /></flowRegion><flowPara
         id="flowPara4786">Mas gugustuhin kong matuto ng totoong pagbasa ng mga tala, yung hindi pambata</flowPara></flowRoot>    <text
       id="text4820"
       style="font-style:normal;font-variant:normal;font-weight:normal;font-stretch:normal;font-size:6.07343245px;line-height:0%;font-family:Lavi;-inkscape-font-specification:Lavi;text-align:center;letter-spacing:0px;word-spacing:0px;text-anchor:middle;fill:#800000;fill-opacity:1;stroke:none;stroke-width:0.50611937"
       xml:space="preserve"
       transform="matrix(0.97579216,-0.21869995,0.65979666,0.87693112,-1716.8218,687.48118)"><textPath
         xlink:href="#path4824"
         startOffset="50%"
         id="textPath4826"><tspan
   style="font-size:23.35220909px;line-height:1.25;fill:#800000;stroke-width:0.50611937"
   id="tspan4818">P e e p p p e e e e r r r R !</tspan></textPath></text>
    <path
       style="display:none;fill:none;stroke:#000000;stroke-width:1.54464006px;stroke-linecap:butt;stroke-linejoin:miter;stroke-opacity:1"
       d="m 1555.5049,2766.8402 c 0,0 36.9117,-44.4625 149.4446,-44.4625 112.5329,0 104.1909,-71.8243 111.9316,-68.4041"
       id="path4824"
       inkscape:connector-curvature="0" />
    <g
       id="g8343"
       transform="matrix(0.30172604,0,0,0.30172604,956.87372,331.41391)">
      <g
         id="g8353"
         transform="matrix(0.86986457,1.5494528,-1.5494528,0.86986457,1924.464,-261.17836)"
         style="stroke-width:14.05579948;stroke-miterlimit:4;stroke-dasharray:none">
        <path
           style="fill:none;stroke:#ff0000;stroke-width:14.05579948;stroke-linecap:butt;stroke-linejoin:miter;stroke-miterlimit:4;stroke-dasharray:none;stroke-opacity:1"
           d="m 1218.3034,499.85162 c 12.5697,-2.82761 26.0065,-9.80708 38.5531,-5.38416 9.2819,3.27205 10.0718,15.03306 9.4967,23.32582 -0.4786,6.9012 -1.5228,13.94176 -4.3246,20.31785"
           id="path8293"
           inkscape:connector-curvature="0"
           inkscape:path-effect="#path-effect8295"
           inkscape:original-d="m 1218.3034,499.85162 c 12.2833,-3.12022 31.5612,-9.0573 40.3132,-4.68131 12.4323,6.21618 7.2349,35.29493 3.412,42.94082"
           sodipodi:nodetypes="ccc" />
        <path
           style="opacity:0.93999999;fill:none;stroke:#ff0000;stroke-width:13.61895943;stroke-linecap:butt;stroke-linejoin:miter;stroke-miterlimit:4;stroke-dasharray:none;stroke-opacity:1"
           d="m 1255.0671,414.21405 c 2.2155,12.51027 8.0247,25.91606 3.4869,38.18949 -3.717,10.05345 -16.4165,11.15206 -25.5549,10.48038 -5.3658,-0.39439 -10.8548,-1.09513 -15.8325,-3.24785"
           id="path8293-1"
           inkscape:connector-curvature="0"
           inkscape:path-effect="#path-effect8295-7"
           inkscape:original-d="m 1255.0671,414.21405 c 2.4363,12.10063 7.2409,31.04247 2.7511,39.97806 -6.378,12.69313 -33.5963,8.89268 -40.6516,5.44396"
           sodipodi:nodetypes="ccc" />
        <path
           style="opacity:0.93999999;fill:none;stroke:#ff0000;stroke-width:14.05579948;stroke-linecap:butt;stroke-linejoin:miter;stroke-miterlimit:4;stroke-dasharray:none;stroke-opacity:1"
           d="m 1332.9041,438.15909 c -12.0633,4.52418 -24.4164,13.2799 -37.4509,10.61885 -9.6428,-1.96862 -12.0377,-13.5103 -12.6049,-21.8036 -0.472,-6.90166 -0.4029,-14.01889 1.4982,-20.71889"
           id="path8293-9"
           inkscape:connector-curvature="0"
           inkscape:path-effect="#path-effect8295-75"
           inkscape:original-d="m 1332.9041,438.15909 c -11.7395,4.77476 -30.0214,13.29873 -39.2907,10.16394 -13.1672,-4.45305 -12.0054,-33.96978 -9.2669,-42.06758"
           sodipodi:nodetypes="ccc" />
        <path
           style="opacity:0.93999999;fill:none;stroke:#ff0000;stroke-width:14.05579948;stroke-linecap:butt;stroke-linejoin:miter;stroke-miterlimit:4;stroke-dasharray:none;stroke-opacity:1"
           d="m 1297.0005,529.17693 c -2.5495,-12.629 -9.2307,-26.21665 -4.5319,-38.66257 3.4761,-9.20737 15.2517,-9.73761 23.5298,-8.97953 6.8889,0.63086 13.9047,1.83023 20.2174,4.77204"
           id="path8293-1-6"
           inkscape:connector-curvature="0"
           inkscape:path-effect="#path-effect8295-7-6"
           inkscape:original-d="m 1297.0005,529.17693 c -2.8484,-12.34919 -8.3585,-31.75343 -3.7904,-40.4067 6.4892,-12.29209 35.446,-6.45409 43.0057,-2.46336"
           sodipodi:nodetypes="ccc" />
      </g>
      <g
         id="g8353-0"
         transform="matrix(-0.80798297,2.2151787,-2.2151787,-0.80798297,5554.4326,1882.3081)"
         style="opacity:0.93999999;stroke-width:14.05579948;stroke-miterlimit:4;stroke-dasharray:none">
        <path
           style="fill:none;stroke:#ff0000;stroke-width:14.05579948;stroke-linecap:butt;stroke-linejoin:miter;stroke-miterlimit:4;stroke-dasharray:none;stroke-opacity:1"
           d="m 1221.6876,495.90601 c 11.9692,-2.82605 24.1067,-7.40099 36.572,-5.86453 8.1601,1.00581 11.0928,9.99716 11.4385,17.10896 0.4434,9.12179 -0.7782,18.55208 -4.2853,27.01508"
           id="path8293-0"
           inkscape:connector-curvature="0"
           inkscape:path-effect="#path-effect8295-5"
           inkscape:original-d="m 1221.6876,495.90601 c 12.2833,-3.12022 31.5612,-9.0573 40.3132,-4.68131 12.4323,6.21618 7.2349,35.29493 3.412,42.94082"
           sodipodi:nodetypes="ccc" />
        <path
           style="opacity:0.93999999;fill:none;stroke:#ff0000;stroke-width:14.05579948;stroke-linecap:butt;stroke-linejoin:miter;stroke-miterlimit:4;stroke-dasharray:none;stroke-opacity:1"
           d="m 1259.2914,424.93951 c 2.8645,11.96004 7.4784,24.08285 5.982,36.55298 -0.9796,8.16332 -9.9615,11.12482 -17.0722,11.49335 -9.1203,0.47268 -18.5545,-0.71864 -27.0287,-4.19849"
           id="path8293-1-2"
           inkscape:connector-curvature="0"
           inkscape:path-effect="#path-effect8295-7-64"
           inkscape:original-d="m 1259.2914,424.93951 c 3.1597,12.27319 9.1586,31.53194 4.8108,40.29794 -6.1763,12.45221 -35.2715,7.34822 -42.9297,3.5499"
           sodipodi:nodetypes="ccc" />
        <path
           style="opacity:0.93999999;fill:none;stroke:#ff0000;stroke-width:14.05579948;stroke-linecap:butt;stroke-linejoin:miter;stroke-miterlimit:4;stroke-dasharray:none;stroke-opacity:1"
           d="m 1331.8598,452.25311 c -11.4678,4.4297 -22.8659,10.6361 -35.4226,10.82308 -8.221,0.12242 -12.3586,-8.38197 -13.6761,-15.37923 -1.6898,-8.97487 -1.7725,-18.48358 0.5411,-27.34749"
           id="path8293-9-4"
           inkscape:connector-curvature="0"
           inkscape:path-effect="#path-effect8295-75-5"
           inkscape:original-d="m 1331.8598,452.25311 c -11.7395,4.77476 -30.0214,13.29873 -39.2907,10.16394 -13.1672,-4.45305 -12.0054,-33.96978 -9.2669,-42.06758"
           sodipodi:nodetypes="ccc" />
        <path
           style="opacity:0.93999999;fill:none;stroke:#ff0000;stroke-width:14.05579948;stroke-linecap:butt;stroke-linejoin:miter;stroke-miterlimit:4;stroke-dasharray:none;stroke-opacity:1"
           d="m 1292.9457,528.06967 c -2.5612,-12.02864 -6.8672,-24.26423 -5.0559,-36.69255 1.1857,-8.13594 10.2396,-10.86942 17.3573,-11.05804 9.1294,-0.24193 18.5304,1.18754 26.9139,4.88053"
           id="path8293-1-6-5"
           inkscape:connector-curvature="0"
           inkscape:path-effect="#path-effect8295-7-6-8"
           inkscape:original-d="m 1292.9457,528.06967 c -2.8484,-12.34919 -8.3585,-31.75343 -3.7904,-40.4067 6.4892,-12.29209 35.446,-6.45409 43.0057,-2.46336"
           sodipodi:nodetypes="ccc" />
      </g>
      <text
         xml:space="preserve"
         style="font-style:normal;font-variant:normal;font-weight:normal;font-stretch:normal;font-size:625.89093018px;line-height:1.25;font-family:Lavi;-inkscape-font-specification:Lavi;letter-spacing:0px;word-spacing:0px;fill:#ffffff;fill-opacity:1;stroke:none;stroke-width:15.64727402"
         x="876.1568"
         y="299.42566"
         id="text8396"><tspan
           sodipodi:role="line"
           id="tspan8394"
           x="876.1568"
           y="299.42566"
           style="font-style:normal;font-variant:normal;font-weight:normal;font-stretch:normal;font-family:Lavi;-inkscape-font-specification:Lavi;fill:#ffffff;stroke-width:15.64727402">!</tspan></text>
      <text
         xml:space="preserve"
         style="font-style:normal;font-variant:normal;font-weight:normal;font-stretch:normal;font-size:197.06974792px;line-height:1.25;font-family:Lavi;-inkscape-font-specification:'Lavi, Normal';font-variant-ligatures:normal;font-variant-caps:normal;font-variant-numeric:normal;font-feature-settings:normal;text-align:start;letter-spacing:0px;word-spacing:0px;writing-mode:lr-tb;text-anchor:start;fill:#ff0000;fill-opacity:1;stroke:#d40000;stroke-width:4.92674398;"
         x="2407.2944"
         y="2346.6794"
         id="text8400"><tspan
           sodipodi:role="line"
           id="tspan8398"
           x="2407.2944"
           y="2346.6794"
           style="font-style:normal;font-variant:normal;font-weight:normal;font-stretch:normal;font-size:197.06974792px;font-family:Lavi;-inkscape-font-specification:'Lavi, Normal';font-variant-ligatures:normal;font-variant-caps:normal;font-variant-numeric:normal;font-feature-settings:normal;text-align:start;writing-mode:lr-tb;text-anchor:start;fill:#ff0000;stroke-width:4.92674398;stroke:#d40000;">grrrrrrrr!!!!</tspan></text>
      <g
         id="g8353-9"
         transform="matrix(0.86986456,1.5494528,-1.5494528,0.86986456,3408.2242,82.662041)"
         style="opacity:0.93999999;stroke-width:14.05579948;stroke-miterlimit:4;stroke-dasharray:none">
        <path
           style="fill:none;stroke:#ff0000;stroke-width:14.05579948;stroke-linecap:butt;stroke-linejoin:miter;stroke-miterlimit:4;stroke-dasharray:none;stroke-opacity:1"
           d="m 1256.9252,527.14952 c 5.1037,-11.82982 7.2573,-26.95209 18.3138,-34.35026 8.7187,-5.83388 19.1578,1.30933 25.75,7.11271 4.7758,4.20431 9.3877,8.82049 12.5931,14.36574"
           id="path8293-6"
           inkscape:connector-curvature="0"
           inkscape:path-effect="#path-effect8295-3"
           inkscape:original-d="m 1256.9252,527.14952 c 4.6986,-11.77024 11.2315,-30.85447 19.9172,-35.36066 12.3381,-6.40106 32.803,14.90093 36.7397,22.48885"
           sodipodi:nodetypes="ccc" />
        <path
           style="opacity:0.93999999;fill:none;stroke:#ff0000;stroke-width:14.05579948;stroke-linecap:butt;stroke-linejoin:miter;stroke-miterlimit:4;stroke-dasharray:none;stroke-opacity:1"
           d="m 1248.2808,429.63021 c 6.0043,11.39914 16.4233,22.56896 15.2409,35.81965 -0.9324,10.44895 -13.0461,14.09028 -21.7019,15.57833 -6.2707,1.07802 -12.7592,1.76994 -19.0879,0.7838"
           id="path8293-1-5"
           inkscape:connector-curvature="0"
           inkscape:path-effect="#path-effect8295-7-4"
           inkscape:original-d="m 1248.2808,429.63021 c 6.2122,11.04644 16.9659,28.11231 15.0208,37.70204 -2.7632,13.62236 -32.1918,16.17899 -40.5697,14.47974"
           sodipodi:nodetypes="ccc" />
        <path
           style="opacity:0.93999999;fill:none;stroke:#ff0000;stroke-width:14.05579948;stroke-linecap:butt;stroke-linejoin:miter;stroke-miterlimit:4;stroke-dasharray:none;stroke-opacity:1"
           d="m 1331.8598,452.25311 c -12.0633,4.52418 -24.4164,13.2799 -37.4509,10.61885 -9.6428,-1.96862 -12.0377,-13.5103 -12.6049,-21.8036 -0.472,-6.90166 -0.4029,-14.01889 1.4982,-20.71889"
           id="path8293-9-8"
           inkscape:connector-curvature="0"
           inkscape:path-effect="#path-effect8295-75-8"
           inkscape:original-d="m 1331.8598,452.25311 c -11.7395,4.77476 -30.0214,13.29873 -39.2907,10.16394 -13.1672,-4.45305 -12.0054,-33.96978 -9.2669,-42.06758"
           sodipodi:nodetypes="ccc" />
      </g>
    </g>
  </g>
</svg>
