{
   "id": 25,
   "original-language": "en",
   "supporters": 909,
   "published": "2018-05-17",
   "pluxmlID": 440,
   "background-color": "#FFFFFF",
   "credits": {
      "art":[
         "David Revoy <https://framagit.org/Deevad>"
      ],
      "scenario":[
         "David Revoy <https://framagit.org/Deevad>"
      ],
      "beta-readers":[
         "Craig Maloney <https://framagit.org/craigmaloney>",
         "Jihoon Kim <https://framagit.org/imsesaok>",
         "Midgard <https://framagit.org/Midgard>",
         "Nicolas Artance <https://framagit.org/Nartance>",
         "Valvin <https://framagit.org/valvin>",
         "Nikitin Stanislav <https://framagit.org/Zveryok>",
         "xHire <https://framagit.org/xHire>"
      ]
   },
   "software":[
      {
         "name": "Krita",
         "version": "4.0.0"
      },
      {
         "name": "Inkscape",
         "version": "0.92.3"
      },
      {
         "name": "Kubuntu",
         "version": "17.10"
      }
   ],
   "notes":[
      {
         "author": "David Revoy <https://framagit.org/Deevad>",
         "text":[
            "Every five episodes of Pepper&Carrot, I release a muted episode without text: it's a tough artistic constraint. As if it wasn't constraining enough, it was necessary for me at this point in the story to rebuild the house of Pepper (destroyed in the previous episode), remotivate Pepper to finish her studies and finally showcase the power of the old witches Thyme, Cayenne and Cumin (who never really made any demo of their power before this episode). That wasn't easy to pack all of this together, but it feels good to finally release this 'firework episode'.",
            "Sorry to all the readers of Pepper&Carrot because this episode took me a very long time to produce. It took me time because I wanted to do research on my own painting technique and style.  So, I did freelance works here and there during this period to fund my life and the time streched exponentially. But it was necessary for me to take this time and to study my art again... For me too, 'there are no shortcuts'!",
            "I hope you'll like this episode! Thanks again to all my patrons and to all the contributors around the project who helped me to release this episode."
         ]
      }
   ]
}
