<?xml version="1.0" encoding="UTF-8" standalone="no"?>
<svg
   xmlns:dc="http://purl.org/dc/elements/1.1/"
   xmlns:cc="http://creativecommons.org/ns#"
   xmlns:rdf="http://www.w3.org/1999/02/22-rdf-syntax-ns#"
   xmlns:svg="http://www.w3.org/2000/svg"
   xmlns="http://www.w3.org/2000/svg"
   xmlns:xlink="http://www.w3.org/1999/xlink"
   xmlns:sodipodi="http://sodipodi.sourceforge.net/DTD/sodipodi-0.dtd"
   xmlns:inkscape="http://www.inkscape.org/namespaces/inkscape"
   sodipodi:docname="E37P08.svg"
   height="3503"
   width="2481"
   inkscape:version="1.0 (4035a4fb49, 2020-05-01)"
   version="1.1"
   id="svg2">
  <metadata
     id="metadata8">
    <rdf:RDF>
      <cc:Work
         rdf:about="">
        <dc:format>image/svg+xml</dc:format>
        <dc:type
           rdf:resource="http://purl.org/dc/dcmitype/StillImage" />
        <dc:title />
      </cc:Work>
    </rdf:RDF>
  </metadata>
  <defs
     id="defs6">
    <filter
       height="1.0091468"
       width="1.0021968"
       y="-0.0045733851"
       x="-0.0010983899"
       inkscape:label="deevad outline effect"
       id="filter4375-4-1-1-15-1-3-5"
       style="color-interpolation-filters:sRGB">
      <feFlood
         result="flood"
         flood-color="rgb(0,0,0)"
         flood-opacity="1"
         id="feFlood4377-7-9-0-4-4-4-9" />
      <feComposite
         result="composite1"
         operator="in"
         in="flood"
         in2="SourceGraphic"
         id="feComposite4379-3-8-8-6-0-7-7" />
      <feMorphology
         result="result3"
         radius="0.69999999999999996"
         operator="dilate"
         id="feMorphology4393-1-0-49-8-2-7-7" />
      <feComposite
         result="composite2"
         operator="over"
         in="SourceGraphic"
         in2="result3"
         id="feComposite4385-9-5-7-2-1-2-6" />
    </filter>
    <filter
       height="1.0069673"
       width="1.0035761"
       y="-0.0034836332"
       x="-0.0017880683"
       inkscape:label="deevad outline effect"
       id="filter4375-4-1-1-15-1-3-5-1"
       style="color-interpolation-filters:sRGB">
      <feFlood
         result="flood"
         flood-color="rgb(0,0,0)"
         flood-opacity="1"
         id="feFlood4377-7-9-0-4-4-4-9-2" />
      <feComposite
         result="composite1"
         operator="in"
         in="flood"
         in2="SourceGraphic"
         id="feComposite4379-3-8-8-6-0-7-7-7" />
      <feMorphology
         result="result3"
         radius="0.69999999999999996"
         operator="dilate"
         id="feMorphology4393-1-0-49-8-2-7-7-0" />
      <feComposite
         result="composite2"
         operator="over"
         in="SourceGraphic"
         in2="result3"
         id="feComposite4385-9-5-7-2-1-2-6-9" />
    </filter>
    <filter
       height="1"
       width="1"
       y="0"
       x="0"
       inkscape:label="Roughen"
       id="filter4375-4-1-1-1-9-30-2-7-9"
       style="color-interpolation-filters:sRGB">
      <feFlood
         result="flood"
         flood-color="rgb(0,0,0)"
         flood-opacity="1"
         id="feFlood4377-7-9-0-8-1-78-6-7-8" />
      <feComposite
         result="composite1"
         operator="in"
         in="flood"
         in2="SourceGraphic"
         id="feComposite4379-3-8-8-2-77-68-1-1-4" />
      <feMorphology
         result="result3"
         radius="4"
         operator="dilate"
         id="feMorphology4393-1-0-49-8-9-8-0-1-8" />
      <feComposite
         result="fbSourceGraphic"
         operator="over"
         in="SourceGraphic"
         in2="result3"
         id="feComposite4385-9-5-7-0-8-4-6-5-1" />
      <feColorMatrix
         id="feColorMatrix333-3-1-9-0"
         values="0 0 0 -1 0 0 0 0 -1 0 0 0 0 -1 0 0 0 0 1 0"
         in="fbSourceGraphic"
         result="fbSourceGraphicAlpha" />
      <feTurbulence
         result="turbulence"
         baseFrequency="0.013 0.013"
         seed="1"
         numOctaves="5"
         type="fractalNoise"
         id="feTurbulence335-1-5-7-3" />
      <feDisplacementMap
         result="fbSourceGraphic"
         xChannelSelector="R"
         yChannelSelector="G"
         scale="6.6"
         in="fbSourceGraphic"
         id="feDisplacementMap337-4-9-7-0"
         in2="turbulence" />
      <feColorMatrix
         id="feColorMatrix435-92-4-6-4"
         values="0 0 0 -1 0 0 0 0 -1 0 0 0 0 -1 0 0 0 0 1 0"
         in="fbSourceGraphic"
         result="fbSourceGraphicAlpha" />
      <feTurbulence
         result="turbulence"
         baseFrequency="0.001 0.4414"
         seed="27"
         numOctaves="5"
         type="fractalNoise"
         id="feTurbulence437-06-9-7-4" />
      <feDisplacementMap
         xChannelSelector="R"
         yChannelSelector="G"
         scale="4.27461"
         in="fbSourceGraphic"
         id="feDisplacementMap439-8-0-3-4"
         in2="turbulence" />
    </filter>
  </defs>
  <sodipodi:namedview
     inkscape:document-rotation="0"
     inkscape:deskcolor="#d1d1d1"
     inkscape:showpageshadow="0"
     inkscape:pagecheckerboard="0"
     inkscape:current-layer="layer1"
     inkscape:window-maximized="1"
     inkscape:window-y="-8"
     inkscape:window-x="-8"
     inkscape:cy="44.611967"
     inkscape:cx="1221.7047"
     inkscape:zoom="0.46086259"
     showgrid="false"
     id="namedview4"
     inkscape:window-height="715"
     inkscape:window-width="1366"
     inkscape:pageshadow="2"
     inkscape:pageopacity="0"
     guidetolerance="10"
     gridtolerance="10"
     objecttolerance="10"
     borderopacity="1"
     bordercolor="#666666"
     pagecolor="#ffffff" />
  <g
     sodipodi:insensitive="true"
     inkscape:label="artwork"
     id="layer2"
     inkscape:groupmode="layer">
    <image
       sodipodi:absref="D:\Pepper&amp;Carrot translation\ep37_The-Tears-of-the-Phoenix\lang\gfx_Pepper-and-Carrot_by-David-Revoy_E37P08.png"
       xlink:href="../gfx_Pepper-and-Carrot_by-David-Revoy_E37P08.png"
       y="0"
       x="0"
       id="image10"
       height="3503"
       width="2481" />
  </g>
  <g
     inkscape:label="speechbubbles"
     id="layer3"
     inkscape:groupmode="layer">
    <path
       sodipodi:nodetypes="cscscscscscscscscscscscsc"
       inkscape:connector-curvature="0"
       id="path4040-4-5"
       d="m 143.6158,135.32326 c 3.61636,-3.47216 10.23506,-0.94728 14.93963,-2.67999 4.70465,-1.73323 7.49516,-7.72454 12.2427,-9.00489 16.434,-3.67137 34.23308,2.62188 51.02849,1.31925 16.79557,-1.30213 32.58754,-10.20068 49.401,-10.0798 16.00836,0.3564 30.48675,9.12472 46.44109,11.00113 15.95426,1.87589 33.38456,-3.14118 48.70613,1.68343 7.29045,2.30959 6.83687,10.19444 13.282,14.32648 6.44512,4.13205 19.78885,4.51128 23.91705,11.03383 6.9447,10.63903 2.92843,23.26496 4.09769,35.68237 1.16936,12.41738 7.52409,24.62571 4.45402,36.56479 -2.33391,8.46331 -14.95723,13.33822 -19.64392,21.02335 -4.68659,7.68513 -1.43645,18.18047 -9.3706,22.93296 -7.52008,3.87577 -20.52519,-1.10706 -28.78792,0.69931 -8.26273,1.80638 -11.78307,10.403 -20.10604,11.53444 -20.35133,2.28727 -41.91286,-5.65256 -62.39454,-5.40304 -20.48168,0.25005 -39.88333,8.69 -60.30896,7.42523 -9.80417,-0.84301 -17.0253,-10.01495 -26.83347,-11.3866 -9.80808,-1.37111 -22.20302,5.05806 -31.37023,1.24196 -6.40207,-2.58195 -7.71841,-11.88565 -12.37786,-16.79794 -4.65946,-4.91227 -12.66195,-5.43312 -14.86133,-11.80782 -2.79514,-7.83506 4.85404,-17.55016 3.7837,-25.76029 -1.07042,-8.21065 -10.86025,-14.91633 -11.18589,-23.14202 -0.009,-11.18167 12.98179,-17.28143 17.37647,-27.48937 4.39468,-10.20844 0.19823,-24.52455 7.57079,-32.91677 z"
       style="color:#000000;display:inline;overflow:visible;visibility:visible;fill:#ffffff;fill-opacity:1;fill-rule:nonzero;stroke:none;stroke-width:0.702239px;marker:none;enable-background:accumulate" />
    <path
       sodipodi:nodetypes="cscscscscscscscscscscscsc"
       inkscape:connector-curvature="0"
       id="path4040-4-5-5"
       d="m 222.76315,322.2955 c 2.73211,-1.79355 7.73248,-0.48932 11.28674,-1.38436 3.5543,-0.8953 5.6625,-3.99012 9.24921,-4.65149 12.4157,-1.89644 25.86271,1.35434 38.55145,0.68147 12.68887,-0.67262 24.61953,-5.26917 37.32191,-5.20674 12.09413,0.1841 23.03239,4.7134 35.08572,5.68265 12.05326,0.969 25.22167,-1.62258 36.79694,0.86959 5.50786,1.19301 5.16519,5.26593 10.03439,7.40035 4.86923,2.13441 14.95027,2.33032 18.06907,5.69955 5.24666,5.49559 2.2124,12.01754 3.09576,18.43176 0.88345,6.41422 5.68438,12.72044 3.36497,18.88759 -1.76324,4.37173 -11.30003,6.88988 -14.84076,10.85963 -3.54067,3.96977 -1.08522,9.39115 -7.07938,11.84605 -5.68135,2.00204 -15.50656,-0.57185 -21.74896,0.36124 -6.24241,0.93307 -8.90198,5.37367 -15.18988,5.95812 -15.37522,1.1815 -31.66471,-2.91983 -47.13839,-2.79095 -15.47369,0.12916 -30.13141,4.48883 -45.56275,3.83551 -7.40694,-0.43545 -12.86242,-5.17323 -20.27239,-5.88175 -7.40989,-0.70826 -16.77413,2.61275 -23.69985,0.64153 -4.83669,-1.33371 -5.83117,-6.13954 -9.35134,-8.67699 -3.52016,-2.53744 -9.56596,-2.80648 -11.22757,-6.09935 -2.11169,-4.0472 3.66718,-9.06556 2.85854,-13.30651 -0.80868,-4.24122 -8.20479,-7.70505 -8.45081,-11.95403 -0.007,-5.77592 9.80761,-8.92676 13.12773,-14.19967 3.32014,-5.27318 0.14975,-12.66819 5.71965,-17.0032 z"
       style="color:#000000;display:inline;overflow:visible;visibility:visible;fill:#ffffff;fill-opacity:1;fill-rule:nonzero;stroke:none;stroke-width:0.593384px;marker:none;enable-background:accumulate" />
    <path
       sodipodi:nodetypes="cccccccccccccccccccc"
       inkscape:connector-curvature="0"
       id="path4496-8"
       d="M 248.60156 229.58203 C 244.39892 229.98448 241.3875 233.85856 240.47519 237.75004 C 239.37916 241.79267 241.34033 245.7317 242.02336 249.66032 C 249.14144 280.69184 255.56648 312.03167 266.61848 341.97015 C 270.54885 352.2806 275.2506 362.27439 279.89538 372.27648 C 286.60214 386.36532 293.8784 400.22398 302.4333 413.28668 C 312.21154 425.54126 325.33528 434.57193 338.87446 442.20971 C 347.30329 447.12997 355.71022 452.10469 363.78516 457.59375 C 367.15748 462.3499 366.92193 468.81374 364.63436 473.97432 C 363.20776 478.79123 361.79543 484.10452 363.59389 489.01582 C 367.05325 495.85037 374.7656 499.72306 382.24414 499.86914 C 389.10791 500.39517 396.04583 500.09655 402.84766 501.30664 C 406.74858 503.4322 408.22032 507.89592 410.02468 511.66104 C 413.40285 518.84343 419.15291 525.37394 426.87375 527.8922 C 435.05955 530.69638 444.22435 528.98089 451.63807 524.82257 C 457.91976 521.88721 464.15756 518.8258 470.67383 516.43359 C 459.91483 517.79013 449.73813 522.43753 438.80273 522.60547 C 429.27116 521.61609 421.21593 513.86243 419.00927 504.66886 C 417.80185 500.37952 415.78134 495.82905 411.63821 493.65685 C 406.78201 490.76048 400.87265 491.07377 395.46928 491.72699 C 390.0183 492.26335 384.07323 492.62468 379.17984 489.70927 C 375.67117 487.49889 374.49265 482.84505 375.55219 478.98918 C 376.59113 475.02548 379.28898 471.75457 380.38477 467.80469 C 381.89521 463.30556 382.13682 458.10466 379.70119 453.87495 C 376.86537 448.48729 371.69106 444.8869 366.47298 442.04054 C 353.39351 433.89207 339.60337 426.46274 328.53129 415.56384 C 317.03507 403.43023 309.22498 388.47156 301.64138 373.73051 C 289.09435 349.13379 276.86605 324.12236 269.45508 297.41992 C 266.72368 287.68483 265.19715 277.19384 267.89844 267.27539 C 269.04475 263.06294 271.79926 259.48584 274.98828 256.58984 C 276.26643 254.49474 274.72734 252.1689 273.76973 250.2899 C 271.32404 245.94145 268.03597 242.15398 265.14853 238.10669 C 261.11379 233.15191 255.16362 229.43373 248.60156 229.58203 z "
       style="color:#000000;display:inline;overflow:visible;visibility:visible;fill:#ffffff;fill-opacity:1;fill-rule:nonzero;stroke:none;stroke-width:1px;marker:none;enable-background:accumulate" />
    <path
       sodipodi:nodetypes="cssssc"
       inkscape:connector-curvature="0"
       id="path4546-6-5"
       d="m 1501.6427,441.99837 c 6.3202,-64.24728 80.0731,-111.1409 271.2173,-98.74396 102.3869,6.64014 218.6638,11.07503 210.5929,105.19392 -8.0709,94.11967 -175.2177,91.43029 -209.7378,93.57582 -34.5202,2.14632 -214.2019,-8.01469 -245.4688,-40.08528 -19.5721,-20.07527 -27.2696,-40.04129 -26.6036,-59.9405 z"
       style="color:#000000;display:inline;overflow:visible;visibility:visible;fill:#ffffff;fill-opacity:1;fill-rule:nonzero;stroke:none;stroke-width:1.14512px;marker:none;enable-background:accumulate" />
    <path
       sodipodi:nodetypes="cssssc"
       inkscape:connector-curvature="0"
       id="path4546-6-5-1"
       d="m 1692.8679,149.1611 c -3.6158,-45.42579 -60.7581,-79.370652 -211.7016,-72.80042 -80.8532,3.519146 -172.6092,5.323059 -168.2488,71.85589 4.3605,66.5334 136.1802,66.54213 163.3469,68.4506 27.1668,1.90903 169.0268,-3.21361 194.3568,-25.49622 15.8558,-13.94828 22.3484,-27.95492 22.2467,-42.00985 z"
       style="color:#000000;display:inline;overflow:visible;visibility:visible;fill:#ffffff;fill-opacity:1;fill-rule:nonzero;stroke:none;stroke-width:0.854418px;marker:none;enable-background:accumulate" />
    <path
       sodipodi:nodetypes="cssssc"
       inkscape:connector-curvature="0"
       id="path4546-6-5-1-8"
       d="m 1862.7695,317.93918 c -3.9812,-44.77306 -66.897,-78.23018 -233.0912,-71.75436 -89.0223,3.46859 -190.0489,5.24658 -185.2479,70.82341 4.801,65.57739 149.9392,65.58599 179.8508,67.46704 29.9116,1.88159 186.1046,-3.16744 213.9938,-25.12987 17.4579,-13.74785 24.6064,-27.55324 24.4945,-41.40622 z"
       style="color:#000000;display:inline;overflow:visible;visibility:visible;fill:#ffffff;fill-opacity:1;fill-rule:nonzero;stroke:none;stroke-width:1.123px;marker:none;enable-background:accumulate" />
    <path
       inkscape:connector-curvature="0"
       id="path4456-3"
       d="m 2065.7228,423.66931 c -26.664,47.40057 -47.1029,50.13747 -61.7181,53.89794 -1.9014,-4.87761 -6.6936,-12.6963 -6.6936,-12.6963 0,0 -28.2836,10.44495 -39.9484,10.34235 -11.6648,-0.10257 -11.5197,-16.62775 -11.5197,-16.62775 0,0 54.6319,-21.87925 65.4013,-30.53347 4.7409,13.6515 8.578,19.51752 8.5267,25.35034 8.7401,1.04875 36.086,-13.29344 45.9518,-29.73311 z"
       style="color:#000000;display:inline;overflow:visible;visibility:visible;fill:#ffffff;fill-opacity:1;fill-rule:nonzero;stroke:none;stroke-width:1px;marker:none;enable-background:accumulate" />
    <path
       sodipodi:nodetypes="ccccccccccccccc"
       inkscape:connector-curvature="0"
       id="path3549-3-78-5"
       d="m 656.80169,1592.2113 c -17.89954,-5.2851 -69.512,-47.1466 -6.2117,-44.9601 -46.58732,-17.614 -40.39427,-52.6687 -2.10994,-73.1426 -50.21577,4.1847 -87.48035,-4.552 -61.60552,-40.7324 -74.27761,23.1697 -107.24288,27.8941 -91.80661,-22.9244 -34.21669,41.9338 -67.03679,34.1074 -75.49148,-14.9474 -7.71067,36.5637 -24.17114,56.5467 -73.23744,10.5097 -3.61175,13.4158 -13.85734,55.8724 -119.65946,43.6898 40.09617,25.5724 65.56688,41.9413 -2.66489,52.7596 34.7734,11.5042 56.94892,27.088 2.75341,51.8466 35.11612,7.8196 90.67119,5.5272 23.20801,52.8806 44.47783,-22.3804 118.67177,-6.2099 86.69313,29.8898 87.15795,-40.5626 103.9212,-29.7469 117.08178,-0.6825 32.40697,-42.5575 79.2409,-37.7373 106.48165,-12.9989 -13.24267,-37.7137 56.54683,-31.2038 96.56906,-31.1878 z"
       style="color:#000000;display:inline;overflow:visible;visibility:visible;fill:#ffffff;fill-opacity:1;fill-rule:nonzero;stroke:none;stroke-width:0.979012px;marker:none;enable-background:accumulate" />
    <path
       sodipodi:nodetypes="ccccccccccccccc"
       inkscape:connector-curvature="0"
       id="path3549-3-78-5-2"
       d="m 381.63533,1695.8552 c 17.20909,-5.2851 66.83065,-47.1466 5.97209,-44.9601 44.79027,-17.614 38.83611,-52.6687 2.02855,-73.1426 48.27876,4.1847 84.1059,-4.552 59.22916,-40.7324 71.41244,23.1697 103.10611,27.8941 88.26527,-22.9244 32.89682,41.9338 64.45093,34.1074 72.57949,-14.9474 7.41324,36.5637 23.23876,56.5467 70.41239,10.5097 3.47243,13.4158 13.3228,55.8724 115.04373,43.6898 -38.54951,25.5724 -63.03771,41.9413 2.56209,52.7596 -33.43205,11.5042 -54.75218,27.088 -2.6472,51.8466 -33.76155,7.8196 -87.17365,5.5272 -22.31278,52.8806 -42.76215,-22.3804 -114.09415,-6.2099 -83.34905,29.8898 -83.79593,-40.5626 -99.91255,-29.7469 -112.56548,-0.6825 -31.15691,-42.5575 -76.18427,-37.7373 -102.37424,-12.9989 12.73185,-37.7137 -54.3656,-31.2038 -92.84402,-31.1878 z"
       style="color:#000000;display:inline;overflow:visible;visibility:visible;fill:#ffffff;fill-opacity:1;fill-rule:nonzero;stroke:none;stroke-width:0.959944px;marker:none;enable-background:accumulate" />
    <path
       sodipodi:nodetypes="cccccccc"
       inkscape:connector-curvature="0"
       id="path5066-6"
       d="m 730.6484,1672.3589 c 24.58889,17.0255 58.1857,36.9488 66.10452,35.8831 -8.27321,5.3495 -14.59566,11.5935 -19.61526,16.3705 10.8945,10.2124 55.72892,28.2136 80.79774,39.0726 -45.44587,-1.2883 -99.65783,-22.4232 -118.62671,-35.9648 9.69378,-3.5509 16.76376,-8.3846 19.55366,-12.4141 -5.41715,-10.5354 -45.88559,-24.0982 -46.46956,-23.6682 z"
       style="color:#000000;display:inline;overflow:visible;visibility:visible;fill:#ffffff;fill-opacity:1;fill-rule:nonzero;stroke:none;stroke-width:1px;marker:none;enable-background:accumulate" />
    <path
       sodipodi:nodetypes="cccccccccccccccccccc"
       inkscape:connector-curvature="0"
       id="path3549-3-7-1"
       d="m 1803.8953,1491.9093 c -11.6741,20.7731 -77.518,22.5153 -101.7571,18.293 48.8601,23.2392 47.1569,37.6775 -19.1815,39.92 111.2504,41.883 20.3381,35.5452 2.4062,46.1651 87.3522,14.4345 50.7552,35.5922 35.2036,53.4748 85.1851,-9.1862 40.068,4.2798 25.5895,36.8216 28.371,-11.022 100.685,-45.9689 95.0843,5.0779 54.0822,-28.3462 115.416,-41.1937 152.7518,3.6051 26.7581,-30.5009 54.3492,-47.4117 102.5312,-2.9926 -13.1666,-47.8175 74.7263,-34.3043 134.6573,-20.9312 -14.231,-12.782 9.8545,-45.964 68.4987,-31.0788 -39.8363,-20.9003 10.054,-23.8845 48.8843,-29.662 -51.5992,-8.5503 -61.1087,-17.37 34.6991,-26.8611 -72.9042,-0.9184 -140.8879,-2.7991 -55.3552,-35.1675 -26.8341,-0.7827 -90.5005,26.2253 -60.8167,-52.8161 -46.1425,25.3041 -95.3722,39.2701 -157.1111,-13.7349 -29.2177,26.4805 -79.8958,39.5843 -101.9431,6.5079 -7.9242,14.1006 -40.7823,19.404 -68.6765,20.0474 -10.7868,-5.6017 -21.9121,-13.2094 -33.5217,-23.1766 -18.9752,20.9284 -47.36,35.0637 -101.9431,6.508 z"
       style="color:#000000;display:inline;overflow:visible;visibility:visible;fill:#ffffff;fill-opacity:1;fill-rule:nonzero;stroke:none;stroke-width:1.26078px;marker:none;enable-background:accumulate" />
    <path
       sodipodi:nodetypes="cccccccccc"
       inkscape:connector-curvature="0"
       id="path4448"
       d="m 1794.4066,1665.0799 c -6.0848,-9.0445 -78.053,18.5831 -74.6462,27.8679 0,0 -29.3607,-6.4482 -34.6423,-5.6747 -9.9834,10.8034 -12.9296,25.7173 -12.9296,25.7173 l -58.0107,-10.8388 43.8646,-1.7548 5.4216,-32.5531 48.8388,1.1853 38.3888,-41.3739 z"
       style="color:#000000;display:inline;overflow:visible;visibility:visible;fill:#ffffff;fill-opacity:1;fill-rule:nonzero;stroke:none;stroke-width:2.00053px;marker:none;enable-background:accumulate" />
    <path
       sodipodi:nodetypes="cccccccccccccccccccc"
       inkscape:connector-curvature="0"
       id="path3549-3-7"
       d="m 312.81004,2097.3398 c -8.53421,19.6296 -56.66835,21.2756 -74.38788,17.2855 35.71843,21.9594 34.47321,35.603 -14.02238,37.7214 81.32793,39.5764 14.86785,33.5875 1.75906,43.6231 63.85747,13.6388 70.22016,35.6244 15.85811,54.9407 73.41821,-13.4062 62.99053,4.264 34.80937,27.0645 36.65299,-13.8113 61.50543,-26.1972 63.28407,8.1162 47.7857,-31.1654 83.73017,-2.5727 80.36381,13.8984 19.56096,-28.8207 70.36628,-51.4937 68.86481,-17.1189 48.46595,-44.7087 92.01934,-28.6157 135.83082,-15.9794 11.50685,-13.494 12.84763,-34.225 50.07501,-29.3669 -5.2197,-13.375 7.34981,-22.569 35.736,-28.0288 -37.72072,-8.0794 -44.67252,-16.4134 25.36639,-25.3818 -53.29551,-0.8674 -102.99393,-2.6448 -40.46671,-33.23 -19.61652,-0.7401 -66.1588,24.781 -44.45895,-49.9069 -33.73171,23.9101 -69.72044,37.1069 -114.85351,-12.9791 -21.35928,25.0221 -58.40645,37.4039 -74.52379,6.1495 -5.79291,13.3243 -29.81338,18.3352 -50.20497,18.943 -7.88546,-5.2926 -16.0184,-12.4814 -24.50549,-21.8999 -13.87144,19.7763 -34.62161,33.1322 -74.52377,6.1494 z"
       style="color:#000000;display:inline;overflow:visible;visibility:visible;fill:#ffffff;fill-opacity:1;fill-rule:nonzero;stroke:none;stroke-width:1.12587px;marker:none;enable-background:accumulate" />
    <path
       sodipodi:nodetypes="ccccccccccccccccccc"
       inkscape:connector-curvature="0"
       id="path4582"
       d="m 298.16813,2229.7518 c 54.98574,10.5478 104.68906,17.1056 87.79092,-26.6429 97.32833,59.3951 83.36667,18.7176 98.76479,4.4404 57.86525,41.9566 107.65358,35.9774 150.89064,-8.8809 24.4425,64.7061 75.59101,33.3556 120.71246,23.6826 -0.11021,18.1964 -12.42999,39.0618 120.71262,28.1232 -38.06895,16.4344 -57.35066,29.9626 27.83976,38.5734 -59.17699,13.2138 -86.5944,16.9843 -22.35288,34.1151 -34.12778,24.9554 -11.30177,39.7863 35.66501,50.3256 -109.96889,1.4595 -83.48579,15.1889 -65.84316,28.1232 -93.62686,-26.593 -106.72636,-15.9461 -98.76471,4.4404 -43.57788,-11.6947 -57.63746,-40.257 -135.48397,-3.8808 -23.15245,-12.0727 -62.64402,-26.4 -114.17146,11.2817 -3.63492,-32.8687 -41.30783,-31.6323 -96.02136,-13.3214 -14.43104,-30.8248 -68.61984,-15.174 -126.19947,4.4405 46.99815,-30.0856 50.40383,-55.2198 -41.15198,-69.5679 88.72523,-17.2112 57.66278,-31.2781 9.06963,-38.4382 62.75649,1.3257 67.06352,-22.1739 38.53694,-34.9725 51.84686,3.7581 64.93205,-1.0357 10.00622,-31.8415 z"
       style="fill:#ffffff;fill-rule:evenodd;stroke:none;stroke-width:1.24068px;stroke-linecap:butt;stroke-linejoin:miter;stroke-opacity:1" />
    <path
       sodipodi:nodetypes="cccccccc"
       inkscape:connector-curvature="0"
       id="path4667-2"
       d="m 603.78668,2597.6495 32.7469,-152.6846 -42.63337,18.6917 12.11307,-117.5264 -34.31052,3.6874 3.18735,140.2064 35.4462,-15.7643 z"
       style="display:inline;fill:#ffffff;fill-rule:evenodd;stroke:none;stroke-width:1.2242px;stroke-linecap:butt;stroke-linejoin:miter;stroke-opacity:1" />
  </g>
  <g
     inkscape:label="txt"
     id="layer1"
     inkscape:groupmode="layer">
    <text
       id="text4246-70-2-2-2-7-4-9-9-6-1-2-3-9-2-7-9-3-3-5"
       y="182.00629"
       x="274.01498"
       style="font-style:normal;font-variant:normal;font-weight:normal;font-stretch:normal;font-size:45.3333px;line-height:125%;font-family:'Xiaolai SC';-inkscape-font-specification:'Xiaolai SC';text-align:center;letter-spacing:0px;word-spacing:0px;text-anchor:middle;fill:#000000;fill-opacity:1;stroke:none"
       xml:space="preserve"><tspan
         id="tspan2555"
         y="182.00629"
         x="274.01498"
         style="font-style:normal;font-variant:normal;font-weight:normal;font-stretch:normal;font-size:45.3333px;font-family:'Xiaolai SC';-inkscape-font-specification:'Xiaolai SC'"
         sodipodi:role="line">嗯！</tspan><tspan
         id="tspan94"
         y="238.67291"
         x="274.01498"
         style="font-style:normal;font-variant:normal;font-weight:normal;font-stretch:normal;font-size:45.3333px;font-family:'Xiaolai SC';-inkscape-font-specification:'Xiaolai SC'"
         sodipodi:role="line">你又回来了。</tspan></text>
    <text
       id="text4246-70-2-2-2-7-4-9-9-6-1-2-3-9-2-7-9-3-3-5-36"
       y="369.95883"
       x="311.21136"
       style="font-style:normal;font-variant:normal;font-weight:normal;font-stretch:normal;font-size:34.2589px;line-height:125%;font-family:'Xiaolai SC';-inkscape-font-specification:'Xiaolai SC';text-align:center;letter-spacing:0px;word-spacing:0px;text-anchor:middle;fill:#000000;fill-opacity:1;stroke:none;stroke-width:1"
       xml:space="preserve"><tspan
         id="tspan474"
         y="369.95883"
         x="311.21136"
         style="font-style:normal;font-variant:normal;font-weight:normal;font-stretch:normal;font-size:34.2589px;font-family:'Xiaolai SC';-inkscape-font-specification:'Xiaolai SC';stroke-width:1"
         sodipodi:role="line">到是挺快…</tspan></text>
    <text
       id="text4246-70-2-2-2-7-4-9-9-6-1-2-3-9-2-7-9-3-3-5-3"
       y="165.32866"
       x="1504.2217"
       style="font-style:normal;font-variant:normal;font-weight:normal;font-stretch:normal;font-size:45.3333px;line-height:125%;font-family:'Xiaolai SC';-inkscape-font-specification:'Xiaolai SC';text-align:center;letter-spacing:0px;word-spacing:0px;text-anchor:middle;fill:#000000;fill-opacity:1;stroke:none"
       xml:space="preserve"><tspan
         id="tspan16557"
         y="165.32866"
         x="1504.2217"
         style="font-style:normal;font-variant:normal;font-weight:normal;font-stretch:normal;font-size:45.3333px;font-family:'Xiaolai SC';-inkscape-font-specification:'Xiaolai SC'"
         sodipodi:role="line">冷兵器？</tspan></text>
    <text
       id="text4246-70-2-2-2-7-4-9-9-6-1-2-3-9-2-7-9-3-3-5-3-3"
       y="326.78018"
       x="1655.2874"
       style="font-style:normal;font-variant:normal;font-weight:normal;font-stretch:normal;font-size:45.3333px;line-height:125%;font-family:'Xiaolai SC';-inkscape-font-specification:'Xiaolai SC';text-align:center;letter-spacing:0px;word-spacing:0px;text-anchor:middle;fill:#000000;fill-opacity:1;stroke:none"
       xml:space="preserve"><tspan
         id="tspan16557-6"
         y="326.78018"
         x="1655.2874"
         style="font-style:normal;font-variant:normal;font-weight:normal;font-stretch:normal;font-size:45.3333px;font-family:'Xiaolai SC';-inkscape-font-specification:'Xiaolai SC'"
         sodipodi:role="line">太天真了。</tspan></text>
    <text
       id="text4246-70-2-2-2-7-4-9-9-6-1-2-3-9-2-7-9-3-3-5-3-3-2"
       y="431.96716"
       x="1747.7876"
       style="font-style:normal;font-variant:normal;font-weight:normal;font-stretch:normal;font-size:45.3333px;line-height:125%;font-family:'Xiaolai SC';-inkscape-font-specification:'Xiaolai SC';text-align:center;letter-spacing:0px;word-spacing:0px;text-anchor:middle;fill:#000000;fill-opacity:1;stroke:none"
       xml:space="preserve"><tspan
         id="tspan26906"
         y="431.96716"
         x="1747.7876"
         style="font-style:normal;font-variant:normal;font-weight:normal;font-stretch:normal;font-size:45.3333px;font-family:'Xiaolai SC';-inkscape-font-specification:'Xiaolai SC'"
         sodipodi:role="line">你难道不知道我可以</tspan><tspan
         id="tspan106"
         y="488.63379"
         x="1747.7876"
         style="font-style:normal;font-variant:normal;font-weight:normal;font-stretch:normal;font-size:45.3333px;font-family:'Xiaolai SC';-inkscape-font-specification:'Xiaolai SC'"
         sodipodi:role="line">熔化任何金属和…</tspan></text>
    <text
       transform="matrix(0.76617461,-0.51781655,0.6039947,0.89697771,0,0)"
       id="text1702-3"
       y="1892.3933"
       x="1186.1803"
       style="color:#000000;font-style:normal;font-variant:normal;font-weight:normal;font-stretch:normal;font-size:66.6887px;line-height:0.01%;font-family:'Xiaolai SC';-inkscape-font-specification:'Xiaolai SC';font-variant-ligatures:normal;font-variant-caps:normal;font-variant-numeric:normal;font-feature-settings:normal;text-align:start;letter-spacing:0.0113909px;word-spacing:0px;writing-mode:lr-tb;text-anchor:start;display:inline;overflow:visible;visibility:visible;fill:#ffffff;fill-opacity:1;fill-rule:nonzero;stroke:#000000;stroke-width:12;stroke-linecap:butt;stroke-linejoin:miter;stroke-miterlimit:4;stroke-dasharray:none;stroke-dashoffset:0;stroke-opacity:1;marker:none;paint-order:markers stroke fill;enable-background:accumulate"
       xml:space="preserve"><tspan
         style="font-style:normal;font-variant:normal;font-weight:normal;font-stretch:normal;font-family:'Xiaolai SC';-inkscape-font-specification:'Xiaolai SC';stroke:#000000;stroke-width:12;stroke-miterlimit:4;stroke-dasharray:none;stroke-opacity:1;paint-order:markers stroke fill"
         y="1892.3933"
         x="1186.1803"
         id="tspan1032-6"
         sodipodi:role="line">咕咚</tspan></text>
    <text
       transform="matrix(0.73530329,-0.5395568,0.57965806,0.93463685,0,0)"
       id="text1702-3-0"
       y="1974.2545"
       x="1290.0953"
       style="color:#000000;font-style:normal;font-variant:normal;font-weight:normal;font-stretch:normal;font-size:57.2464px;line-height:0.01%;font-family:'Xiaolai SC';-inkscape-font-specification:'Xiaolai SC';font-variant-ligatures:normal;font-variant-caps:normal;font-variant-numeric:normal;font-feature-settings:normal;text-align:start;letter-spacing:0.00977809px;word-spacing:0px;writing-mode:lr-tb;text-anchor:start;display:inline;overflow:visible;visibility:visible;fill:#ffffff;fill-opacity:1;fill-rule:nonzero;stroke:#000000;stroke-width:12;stroke-linecap:butt;stroke-linejoin:miter;stroke-miterlimit:4;stroke-dasharray:none;stroke-dashoffset:0;stroke-opacity:1;marker:none;paint-order:markers stroke fill;enable-background:accumulate"
       xml:space="preserve"><tspan
         style="font-style:normal;font-variant:normal;font-weight:normal;font-stretch:normal;font-family:'Xiaolai SC';-inkscape-font-specification:'Xiaolai SC';stroke:#000000;stroke-width:12;stroke-miterlimit:4;stroke-dasharray:none;stroke-opacity:1;paint-order:markers stroke fill"
         y="1974.2545"
         x="1290.0953"
         id="tspan1032-6-6"
         sodipodi:role="line">咕咚</tspan></text>
    <text
       transform="matrix(0.7083762,-0.56006666,0.55843076,0.97016465,0,0)"
       id="text1702-3-0-2"
       y="2054.8049"
       x="1383.9742"
       style="color:#000000;font-style:normal;font-variant:normal;font-weight:normal;font-stretch:normal;font-size:49.8591px;line-height:0.01%;font-family:'Xiaolai SC';-inkscape-font-specification:'Xiaolai SC';font-variant-ligatures:normal;font-variant-caps:normal;font-variant-numeric:normal;font-feature-settings:normal;text-align:start;letter-spacing:0.00851629px;word-spacing:0px;writing-mode:lr-tb;text-anchor:start;display:inline;overflow:visible;visibility:visible;fill:#ffffff;fill-opacity:1;fill-rule:nonzero;stroke:#000000;stroke-width:12;stroke-linecap:butt;stroke-linejoin:miter;stroke-miterlimit:4;stroke-dasharray:none;stroke-dashoffset:0;stroke-opacity:1;marker:none;paint-order:markers stroke fill;enable-background:accumulate"
       xml:space="preserve"><tspan
         style="font-style:normal;font-variant:normal;font-weight:normal;font-stretch:normal;font-family:'Xiaolai SC';-inkscape-font-specification:'Xiaolai SC';stroke:#000000;stroke-width:12;stroke-miterlimit:4;stroke-dasharray:none;stroke-opacity:1;paint-order:markers stroke fill"
         y="2054.8049"
         x="1383.9742"
         id="tspan1032-6-6-6"
         sodipodi:role="line">咕咚</tspan></text>
    <text
       id="text4246-70-2-2-2-7-4-9-9-6-1-2-3-9-2-7-9-3-2-3-6-1"
       y="1539.6874"
       x="436.67139"
       style="font-style:normal;font-variant:normal;font-weight:normal;font-stretch:normal;font-size:64.787px;line-height:125%;font-family:'Xiaolai SC';-inkscape-font-specification:'Xiaolai SC';text-align:center;letter-spacing:0px;word-spacing:0px;text-anchor:middle;fill:#000000;fill-opacity:1;stroke:none;stroke-width:1.42912"
       xml:space="preserve"><tspan
         id="tspan37654-7"
         y="1539.6874"
         x="436.67139"
         style="font-style:normal;font-variant:normal;font-weight:normal;font-stretch:normal;font-size:64.787px;font-family:'Xiaolai SC';-inkscape-font-specification:'Xiaolai SC';stroke-width:1.42912"
         sodipodi:role="line">唉！不行！</tspan></text>
    <text
       id="text4246-70-2-2-2-7-4-9-9-6-1-2-3-9-2-7-9-3-2-3-6-1-7"
       y="1649.2494"
       x="596.31439"
       style="font-style:normal;font-variant:normal;font-weight:normal;font-stretch:normal;font-size:64.787px;line-height:125%;font-family:'Xiaolai SC';-inkscape-font-specification:'Xiaolai SC';text-align:center;letter-spacing:0px;word-spacing:0px;text-anchor:middle;fill:#000000;fill-opacity:1;stroke:none;stroke-width:1.42912"
       xml:space="preserve"><tspan
         id="tspan37654-7-9"
         y="1649.2494"
         x="596.31439"
         style="font-style:normal;font-variant:normal;font-weight:normal;font-stretch:normal;font-size:64.787px;font-family:'Xiaolai SC';-inkscape-font-specification:'Xiaolai SC';stroke-width:1.42912"
         sodipodi:role="line">不能这样！</tspan></text>
    <text
       id="text4246-70-2-2-2-7-4-9-9-6-1-2-3-9-2-7-9-3-2-3-6-1-2"
       y="1617.6522"
       x="2021.9653"
       style="font-style:normal;font-variant:normal;font-weight:normal;font-stretch:normal;font-size:68.45px;line-height:125%;font-family:'Xiaolai SC';-inkscape-font-specification:'Xiaolai SC';text-align:center;letter-spacing:0px;word-spacing:0px;text-anchor:middle;fill:#000000;fill-opacity:1;stroke:none;stroke-width:1.50992"
       xml:space="preserve"><tspan
         id="tspan44667"
         y="1617.6522"
         x="2021.9653"
         style="font-style:normal;font-variant:normal;font-weight:normal;font-stretch:normal;font-size:68.45px;font-family:'Xiaolai SC';-inkscape-font-specification:'Xiaolai SC';stroke-width:1.50992"
         sodipodi:role="line">不带这么玩儿的！</tspan></text>
    <text
       id="text4246-70-2-2-2-7-4-9-9-6-1-2-3-9-2-7-9-3-3-5-3-3-2-3"
       y="2212.3533"
       x="484.26337"
       style="font-style:normal;font-variant:normal;font-weight:normal;font-stretch:normal;font-size:56.8632px;line-height:125%;font-family:'Xiaolai SC';-inkscape-font-specification:'Xiaolai SC';text-align:center;letter-spacing:0px;word-spacing:0px;text-anchor:middle;fill:#000000;fill-opacity:1;stroke:none;stroke-width:1.25434"
       xml:space="preserve"><tspan
         id="tspan26906-2"
         y="2212.3533"
         x="484.26337"
         style="font-style:normal;font-variant:normal;font-weight:normal;font-stretch:normal;font-size:56.8632px;font-family:'Xiaolai SC';-inkscape-font-specification:'Xiaolai SC';stroke-width:1.25434"
         sodipodi:role="line">萝卜头！快！</tspan></text>
    <text
       id="text4246-70-2-2-2-7-4-9-9-6-1-2-3-9-2-7-9-3-3-5-3-3-2-3-2"
       y="2336.019"
       x="582.20135"
       style="font-style:normal;font-variant:normal;font-weight:normal;font-stretch:normal;font-size:50.6384px;line-height:125%;font-family:'Xiaolai SC';-inkscape-font-specification:'Xiaolai SC';text-align:center;letter-spacing:0px;word-spacing:0px;text-anchor:middle;fill:#000000;fill-opacity:1;stroke:none;stroke-width:1.11702"
       xml:space="preserve"><tspan
         id="tspan909"
         y="2336.019"
         x="582.20135"
         style="font-style:normal;font-variant:normal;font-weight:normal;font-stretch:normal;font-size:50.6384px;font-family:'Xiaolai SC';-inkscape-font-specification:'Xiaolai SC';stroke-width:1.11702"
         sodipodi:role="line">神凰泪收的越多越好！</tspan></text>
    <text
       transform="matrix(0.93156536,-0.43055488,0.11148381,1.0219359,0,0)"
       id="text4580-9-9-6-3"
       y="3198.8276"
       x="798.03912"
       style="font-style:normal;font-variant:normal;font-weight:normal;font-stretch:normal;font-size:8.2445px;line-height:0%;font-family:'Xiaolai SC';-inkscape-font-specification:'Xiaolai SC';letter-spacing:0px;word-spacing:0px;fill:#000000;fill-opacity:1;stroke:#000000;stroke-width:12;stroke-linecap:square;stroke-miterlimit:4;stroke-dasharray:none;stroke-opacity:1;paint-order:stroke fill markers"
       xml:space="preserve"><tspan
         style="font-style:normal;font-variant:normal;font-weight:normal;font-stretch:normal;font-size:48.0929px;line-height:1.25;font-family:'Xiaolai SC';-inkscape-font-specification:'Xiaolai SC';fill:#ffffff;stroke-width:12;stroke-linecap:square;stroke-miterlimit:4;stroke-dasharray:none;paint-order:stroke fill markers"
         y="3198.8276"
         x="798.03912"
         id="tspan4582-26-1-5-0"
         sodipodi:role="line">切 !</tspan></text>
    <text
       transform="matrix(0.93156536,-0.43055488,0.11148381,1.0219359,0,0)"
       id="text4580-9-9-6-3-3"
       y="3272.8726"
       x="786.51398"
       style="font-style:normal;font-variant:normal;font-weight:normal;font-stretch:normal;font-size:8.2445px;line-height:0%;font-family:'Xiaolai SC';-inkscape-font-specification:'Xiaolai SC';letter-spacing:0px;word-spacing:0px;fill:#000000;fill-opacity:1;stroke:#000000;stroke-width:12;stroke-linecap:square;stroke-miterlimit:4;stroke-dasharray:none;stroke-opacity:1;paint-order:stroke fill markers"
       xml:space="preserve"><tspan
         style="font-style:normal;font-variant:normal;font-weight:normal;font-stretch:normal;font-size:48.0929px;line-height:1.25;font-family:'Xiaolai SC';-inkscape-font-specification:'Xiaolai SC';fill:#ffffff;stroke-width:12;stroke-linecap:square;stroke-miterlimit:4;stroke-dasharray:none;paint-order:stroke fill markers"
         y="3272.8726"
         x="786.51398"
         id="tspan4582-26-1-5-0-6"
         sodipodi:role="line">切 !</tspan></text>
    <text
       transform="matrix(0.93156536,-0.43055488,0.11148381,1.0219359,0,0)"
       id="text4580-9-9-6-3-3-7"
       y="3348.0605"
       x="769.24554"
       style="font-style:normal;font-variant:normal;font-weight:normal;font-stretch:normal;font-size:8.2445px;line-height:0%;font-family:'Xiaolai SC';-inkscape-font-specification:'Xiaolai SC';letter-spacing:0px;word-spacing:0px;fill:#000000;fill-opacity:1;stroke:#000000;stroke-width:12;stroke-linecap:square;stroke-miterlimit:4;stroke-dasharray:none;stroke-opacity:1;paint-order:stroke fill markers"
       xml:space="preserve"><tspan
         style="font-style:normal;font-variant:normal;font-weight:normal;font-stretch:normal;font-size:48.0929px;line-height:1.25;font-family:'Xiaolai SC';-inkscape-font-specification:'Xiaolai SC';fill:#ffffff;stroke-width:12;stroke-linecap:square;stroke-miterlimit:4;stroke-dasharray:none;paint-order:stroke fill markers"
         y="3348.0605"
         x="769.24554"
         id="tspan4582-26-1-5-0-6-5"
         sodipodi:role="line">切!</tspan></text>
    <text
       xml:space="preserve"
       style="font-style:normal;font-variant:normal;font-weight:normal;font-stretch:normal;font-size:10.7631px;line-height:0%;font-family:'Xiaolai SC';-inkscape-font-specification:'Xiaolai SC';text-align:center;letter-spacing:0px;word-spacing:0px;text-anchor:middle;display:inline;fill:#000000;fill-opacity:1;stroke:#000000;stroke-width:0;stroke-miterlimit:4;stroke-dasharray:none;stroke-opacity:1"
       x="2452.6748"
       y="2977.7437"
       id="text4213-7"
       transform="matrix(0.85852879,0,-0.29243083,1.1647833,0,0)"><tspan
         sodipodi:role="line"
         id="tspan3562-5"
         x="2452.6748"
         y="2977.7437"
         style="font-style:normal;font-variant:normal;font-weight:normal;font-stretch:normal;font-size:64.7408px;line-height:1.25;font-family:'Xiaolai SC';-inkscape-font-specification:'Xiaolai SC';fill:#000000;fill-opacity:1;stroke:#000000;stroke-width:0;stroke-miterlimit:4;stroke-dasharray:none;stroke-opacity:1">- 完 -</tspan></text>
  </g>
</svg>
