<?xml version="1.0" encoding="UTF-8" standalone="no"?>
<svg
   xmlns:dc="http://purl.org/dc/elements/1.1/"
   xmlns:cc="http://creativecommons.org/ns#"
   xmlns:rdf="http://www.w3.org/1999/02/22-rdf-syntax-ns#"
   xmlns:svg="http://www.w3.org/2000/svg"
   xmlns="http://www.w3.org/2000/svg"
   xmlns:xlink="http://www.w3.org/1999/xlink"
   xmlns:sodipodi="http://sodipodi.sourceforge.net/DTD/sodipodi-0.dtd"
   xmlns:inkscape="http://www.inkscape.org/namespaces/inkscape"
   id="svg2"
   version="1.1"
   inkscape:version="1.0.2 (1.0.2+r75+1)"
   width="2481"
   height="3503"
   sodipodi:docname="E34P04.svg">
  <metadata
     id="metadata8">
    <rdf:RDF>
      <cc:Work
         rdf:about="">
        <dc:format>image/svg+xml</dc:format>
        <dc:type
           rdf:resource="http://purl.org/dc/dcmitype/StillImage" />
        <dc:title />
      </cc:Work>
    </rdf:RDF>
  </metadata>
  <defs
     id="defs6">
    <filter
       style="color-interpolation-filters:sRGB"
       id="filter4375-4-1-1-1-9-5-8-8-5-5-3-8"
       inkscape:label="soundFX1">
      <feFlood
         id="feFlood4377-7-9-0-8-1-7-3-1-2-7-6-7"
         flood-opacity="1"
         flood-color="rgb(255,255,255)"
         result="flood" />
      <feComposite
         id="feComposite4379-3-8-8-2-77-4-1-0-6-4-7-9"
         in2="SourceGraphic"
         in="flood"
         operator="in"
         result="composite1"
         baseFrequency="0.053999999999999999 0.053999999999999999" />
      <feMorphology
         id="feMorphology4393-1-0-49-8-9-3-0-1-9-9-5-2"
         operator="dilate"
         radius="2.9756367599225957"
         result="result3" />
      <feComposite
         id="feComposite4385-9-5-7-0-8-8-7-5-4-9-3-0"
         in2="result3"
         in="SourceGraphic"
         operator="over"
         result="fbSourceGraphic" />
      <feColorMatrix
         result="fbSourceGraphicAlpha"
         in="fbSourceGraphic"
         values="0 0 0 -1 0 0 0 0 -1 0 0 0 0 -1 0 0 0 0 1 0"
         id="feColorMatrix4544-9-4-4-5-2" />
      <feTurbulence
         id="feTurbulence4546-3-6-5-6-3"
         type="fractalNoise"
         numOctaves="5"
         seed="174"
         baseFrequency="0.053999999999999999 0.054054054054054057"
         result="turbulence" />
      <feDisplacementMap
         id="feDisplacementMap4548-8-0-9-2-7"
         in2="turbulence"
         in="fbSourceGraphic"
         scale="6.6"
         yChannelSelector="G"
         xChannelSelector="R"
         result="fbSourceGraphic" />
      <feColorMatrix
         result="fbSourceGraphicAlpha"
         in="fbSourceGraphic"
         values="0 0 0 -1 0 0 0 0 -1 0 0 0 0 -1 0 0 0 0 1 0"
         id="feColorMatrix4670-7-7-3-9-5" />
      <feFlood
         id="feFlood4672-4-4-5-1-9"
         flood-opacity="1"
         flood-color="rgb(255,255,255)"
         result="flood"
         in="fbSourceGraphic" />
      <feComposite
         id="feComposite4674-8-3-7-2-22"
         in2="fbSourceGraphic"
         in="flood"
         operator="in"
         result="composite1" />
      <feGaussianBlur
         id="feGaussianBlur4676-3-7-08-7-8"
         in="composite1"
         stdDeviation="0"
         result="blur" />
      <feOffset
         id="feOffset4678-6-9-1-0-9"
         dx="-6.3258232761971414"
         dy="6"
         result="offset" />
      <feComposite
         id="feComposite4680-4-0-9-9-7"
         in2="offset"
         in="fbSourceGraphic"
         operator="over"
         result="composite2" />
    </filter>
  </defs>
  <sodipodi:namedview
     pagecolor="#ffffff"
     bordercolor="#666666"
     borderopacity="1"
     objecttolerance="10"
     gridtolerance="10"
     guidetolerance="10"
     inkscape:pageopacity="0"
     inkscape:pageshadow="2"
     inkscape:window-width="2560"
     inkscape:window-height="1390"
     id="namedview4"
     showgrid="false"
     inkscape:zoom="0.80454291"
     inkscape:cx="1020.6189"
     inkscape:cy="2419.8028"
     inkscape:window-x="0"
     inkscape:window-y="24"
     inkscape:window-maximized="1"
     inkscape:current-layer="layer3"
     inkscape:document-rotation="0"
     borderlayer="true"
     inkscape:snap-global="false" />
  <g
     inkscape:groupmode="layer"
     id="layer2"
     inkscape:label="artwork"
     sodipodi:insensitive="true">
    <image
       sodipodi:absref="/home/deevad/peppercarrot/webcomics/new-ep34_The-Knighting-of-Shichimi/lang/gfx_Pepper-and-Carrot_by-David-Revoy_E34P04.png"
       xlink:href="../gfx_Pepper-and-Carrot_by-David-Revoy_E34P04.png"
       y="0"
       x="0"
       id="image10"
       height="3503"
       width="2481" />
  </g>
  <g
     inkscape:groupmode="layer"
     id="layer3"
     inkscape:label="speechbubbles"
     style="display:inline">
    <path
       style="color:#000000;display:inline;overflow:visible;visibility:visible;fill:#ffffff;fill-opacity:1;fill-rule:nonzero;stroke:none;stroke-width:0.778652px;marker:none;enable-background:accumulate"
       d="m 948.70416,166.32726 c -29.60023,0.18395 -59.79612,4.3207 -86.59853,16.6768 -19.99401,9.46959 -34.91594,27.36002 -40.8816,47.55653 -5.8917,17.57342 -6.46372,37.3748 1.74337,54.39309 8.35339,16.32462 25.0423,27.84589 43.17225,33.16846 37.82118,12.98606 78.31267,17.68501 118.40779,18.00231 31.89166,-0.4709 64.27346,-8.04729 90.91036,-24.95613 13.0471,-8.56373 23.2154,-21.26712 27.1518,-35.86262 7.0431,-23.51142 1.5953,-49.8571 -13.6834,-69.52388 -9.9401,-12.49715 -24.3108,-21.74406 -40.2616,-26.03808 -17.2654,-5.28898 -35.2641,-7.98464 -53.16011,-10.60187 -15.50862,-1.93396 -31.15502,-2.8969 -46.80033,-2.81461 z"
       id="path4040-4-5-3-5"
       inkscape:connector-curvature="0"
       sodipodi:nodetypes="zssssz" />
    <path
       style="color:#000000;display:inline;overflow:visible;visibility:visible;fill:#ffffff;fill-opacity:1;fill-rule:nonzero;stroke:none;stroke-width:1.1734px;marker:none;enable-background:accumulate"
       d="M 974.95312 313.87109 C 922.05555 316.58187 868.18778 323.75662 819.72304 346.29881 C 784.75604 365.79595 756.48144 400.73924 751.92899 441.32338 C 749.97603 478.44175 774.09812 513.92906 807.18714 529.53753 C 841.69893 547.54159 881.02384 551.57428 918.9124 557.43257 C 982.14825 565.66266 1047.5615 566.29003 1109.3672 548.80273 C 1143.0862 537.69697 1174.5292 515.54721 1191.3085 483.66291 C 1202.7966 459.44663 1201.1378 429.93381 1188.0328 406.68759 C 1168.5932 366.28327 1128.8438 336.91386 1084.9307 328.68159 C 1053.0563 321.10976 1020.5515 315.7322 987.81342 314.02176 C 983.52834 313.87384 979.24037 313.84909 974.95312 313.87109 z "
       id="path4040-4-5-3"
       inkscape:connector-curvature="0"
       sodipodi:nodetypes="zssssz" />
    <path
       style="color:#000000;display:inline;overflow:visible;visibility:visible;fill:#ffffff;fill-opacity:1;fill-rule:nonzero;stroke:none;stroke-width:1px;marker:none;enable-background:accumulate"
       d="m 907.21667,619.60054 c 72.99905,-2.53565 65.7638,-63.19299 71.48587,-78.47444 l 37.78086,7.15422 c 0,0 -26.16471,95.6219 -109.26673,71.32022 z"
       id="path3072-5-5"
       inkscape:connector-curvature="0"
       sodipodi:nodetypes="cccc" />
    <path
       style="display:inline;fill:#ffffff;fill-rule:evenodd;stroke:none;stroke-width:1.408px;stroke-linecap:butt;stroke-linejoin:miter;stroke-opacity:1"
       d="m 1729.4941,1533.8343 c -263.4619,-188.6648 -719.6026,-198.4778 -988.12534,-169.638 l -8.73311,23.8296 c 289.95695,-44.5653 772.14605,6.8513 996.85845,145.8084 z"
       id="path1094"
       inkscape:connector-curvature="0"
       sodipodi:nodetypes="cccc" />
    <path
       style="color:#000000;display:inline;overflow:visible;visibility:visible;fill:#ffffff;fill-opacity:1;fill-rule:nonzero;stroke:none;stroke-width:1.48321px;marker:none;enable-background:accumulate"
       d="m 1211.9228,1266.2938 c -41.3244,-0.413 -83.1474,5.2155 -121.2708,21.147 -24.2076,10.1932 -46.4152,26.1924 -61.4468,47.9041 -17.8986,25.6578 -22.8237,60.5634 -10.8976,90.1247 11.6488,28.8684 34.4137,52.5226 61.2294,67.9418 22.2956,12.594 47.7871,17.9267 72.9559,19.9819 32.9941,2.9905 66.1669,2.1231 99.0414,-0.8479 17.3002,-1.5675 34.5819,-3.4286 51.7513,-5.9783 26.5523,-4.6104 52.5534,-15.1117 72.5829,-33.2953 18.6282,-16.4958 33.7967,-37.7197 40.1581,-62.0981 5.3717,-22.1678 -0.4566,-46.8517 -15.2726,-64.5203 -22.802,-30.2111 -55.0876,-52.9811 -90.7613,-65.1389 -31.5281,-10.91 -64.9814,-14.9138 -98.0699,-15.2207 z"
       id="path3365-3"
       inkscape:connector-curvature="0"
       sodipodi:nodetypes="cssccc" />
    <path
       style="fill:#ffffff;fill-rule:evenodd;stroke:none;stroke-width:1.04631px;stroke-linecap:butt;stroke-linejoin:miter;stroke-opacity:1"
       d="m 463.84538,1262.0091 c -28.49438,0.3311 -56.94892,2.2844 -85.32,4.8413 -27.98351,3.2262 -56.32948,9.5013 -80.74367,24.1103 -21.27501,12.9299 -39.41221,32.584 -46.75078,56.7339 -6.22994,21.4678 -2.43849,45.0774 8.30115,64.4711 13.66034,27.3037 34.90414,51.4178 62.24698,65.5381 20.79774,10.8015 44.1447,15.2254 67.15034,18.4432 24.35191,3.1394 48.91177,4.2553 73.4328,5.0989 68.35823,1.464 136.67698,-4.3236 204.38316,-13.3644 22.78837,-3.7635 46.10534,-10.226 64.3156,-25.0861 21.09636,-17.2354 34.50214,-42.0461 42.96808,-67.5599 4.84535,-14.5279 6.36569,-30.9073 0.35228,-45.3405 -9.53241,-26.3246 -31.27601,-46.9935 -56.4567,-58.4761 -20.60501,-9.6328 -42.63147,-15.9813 -64.92171,-20.2985 -24.54315,-4.4453 -49.55543,-5.0289 -74.4313,-5.1778 -32.17352,-0.7538 -64.3088,-2.5681 -96.46084,-3.8617 -6.02096,-0.1077 -12.04376,-0.1269 -18.06539,-0.072 z"
       id="path1079"
       inkscape:connector-curvature="0" />
    <path
       id="path5050-5"
       style="color:#000000;display:inline;overflow:visible;visibility:visible;fill:#ffffff;fill-opacity:1;fill-rule:nonzero;stroke:none;stroke-width:1.10542px;marker:none;enable-background:accumulate"
       d="m 1055.3066,2327.9473 c -6.7695,3.1849 -13.5391,6.3698 -20.3086,9.5547 -5.4515,8.7234 -8.4665,18.631 -12.08,28.1855 0.2877,8.9888 4.778,17.1081 7.4112,25.5492 4.8043,13.3509 10.142,27.6669 6.8338,42.0256 -3.4158,16.5674 -11.898,31.5008 -16.4345,47.7397 -0.956,12.8214 5.6959,25.4955 16.2957,32.604 7.6345,5.5383 17.8577,10.6572 22.2668,17.4448 4.4091,6.7876 3.9198,12.9565 3.0275,20.0069 -0.8923,7.0504 -6.8233,13.4216 -10.106,20.1773 -2.5543,5.2297 -6.5724,10.2065 -4.8898,16.3644 0.5485,8.6419 3.5528,16.9498 8.2569,24.18 1.9155,5.167 7.5375,11.5732 1.5157,15.9953 -3.2977,3.3341 -6.6403,6.6236 -10.0035,9.8933 6.6199,-4.2691 13.2848,-8.7213 18.4668,-14.7364 2.2175,-7.1316 -0.2102,-14.5787 -3.3587,-21.0008 -3.3881,-9.4513 -0.8017,-19.8562 4.2602,-28.1901 5.6073,-9.9289 13.8919,-19.3951 13.8982,-31.4245 0.5595,-12.2965 -5.2038,-24.6049 -15.0512,-32.0084 -6.3523,-5.6552 -13.9693,-10.3956 -18.4457,-17.7889 -5.2096,-11.3685 -1.3783,-24.1347 3.0069,-35.0894 5.3982,-14.2627 13.5704,-28.4586 12.1858,-44.2358 -1.3898,-17.7099 -13.4465,-33.5966 -10.8255,-51.7808 1.5634,-10.2967 5.5548,-20.0386 7.2382,-30.3113 -0.044,-1.6098 -1.4268,-3.3809 -3.1602,-3.1543 z"
       sodipodi:nodetypes="ccccccczzcccccccccccccccc" />
    <path
       id="path1086-2"
       style="display:inline;fill:#ffffff;fill-rule:evenodd;stroke:none;stroke-width:1.72192px;stroke-linecap:butt;stroke-linejoin:miter;stroke-opacity:1"
       d="m 969.49288,2362.244 c -22.05887,2.072 -43.10903,11.2864 -65.53602,10.1905 -16.18698,-0.046 -33.37431,-3.2616 -48.52731,4.1788 -11.78466,5.7666 -24.17795,12.7516 -30.91546,24.4734 -7.39475,14.5227 -9.92206,33.1117 -0.76509,47.4824 12.40948,19.6335 35.12294,32.5447 58.45033,32.4581 19.80037,0.1222 39.61778,2.0994 58.81628,7.0853 15.31402,3.5903 31.44686,5.4007 46.8387,1.128 14.92249,-3.5641 30.30029,-7.7909 45.72809,-4.9333 19.4406,2.8709 38.8582,8.7921 58.6981,5.9357 24.4445,-2.8639 48.3035,-12.2598 73.2355,-9.4962 14.712,1.1364 30.902,2.2363 43.5759,-6.8501 20.7512,-13.656 28.7839,-43.783 17.4388,-65.8698 -8.7079,-13.4201 -24.4854,-19.8261 -39.1024,-24.6114 -22.1315,-6.8718 -46.0305,-1.9296 -68.0695,-9.3646 -13.7036,-4.261 -27.8503,-8.1533 -42.3539,-6.9259 -25.8828,1.1429 -52.2063,6.2281 -77.78622,-0.3296 -9.7978,-2.1008 -19.64553,-4.5119 -29.72582,-4.5513 z" />
    <path
       id="path1086"
       style="display:inline;fill:#ffffff;fill-rule:evenodd;stroke:none;stroke-width:1.04175px;stroke-linecap:butt;stroke-linejoin:miter;stroke-opacity:1"
       d="m 942.6518,2287.7817 c 9.43573,-13.0131 25.21825,-20.4085 40.80829,-25.1206 16.10462,-4.8304 33.04111,-6.7484 49.90881,-6.9132 15.5956,-0.3452 31.7246,-1.505 46.7529,3.2629 7.2666,2.5751 13.9645,6.3476 20.7594,9.8373 9.0753,5.0191 18.5489,11.2049 22.1795,20.9226 2.3677,6.2472 0.5836,12.8861 0.6073,19.3176 -0.4302,9.8612 -0.9882,20.7155 -8.2029,28.5913 -6.9875,8.1476 -18.1176,11.2975 -28.3657,14.2544 -16.9301,4.4306 -34.3038,7.4298 -51.7965,9.0531 -11.2633,1.0974 -22.7799,2.1776 -33.9458,-0.2271 -13.39055,-2.6873 -25.42264,-9.3127 -36.57381,-16.513 -8.9826,-6.1764 -17.89253,-13.394 -22.31552,-23.2141 -2.65092,-7.1043 -2.13153,-14.833 -1.56512,-22.2214 0.3801,-3.7008 0.93438,-7.3899 1.74915,-11.0298 z" />
    <path
       style="color:#000000;display:inline;overflow:visible;visibility:visible;fill:#ffffff;fill-opacity:1;fill-rule:nonzero;stroke:none;stroke-width:1.00142px;marker:none;enable-background:accumulate"
       d="m 1538.6111,2866.3551 c -29.2718,23.6335 -49.9774,61.4772 -38.0228,102.9845 11.9549,41.5072 -6.8025,41.4052 -6.8025,41.4052 l -37.425,-15.5296 c 0,0 -6.4717,-90.5725 82.2503,-128.8601 z"
       id="path3072-6"
       inkscape:connector-curvature="0"
       sodipodi:nodetypes="csccc" />
    <path
       style="display:inline;fill:#ffffff;stroke:none;stroke-width:0.690149"
       d="m 1458.5647,3074.2276 c -38.711,0.7695 -77.6955,9.7303 -110.5389,28.4111 -25.7795,15.2249 -45.4421,39.3463 -51.4792,66.6452 -3.5799,17.8792 0.1615,36.0446 4.2434,53.5806 5.2992,22.328 19.1506,43.006 39.0213,57.3764 13.6088,9.8824 29.5772,16.914 46.11,21.9464 20.827,6.2482 42.8369,8.7203 64.7317,9.1027 36.1535,1.3184 72.3514,0.6016 108.5045,-0.3238 30.7976,-1.3087 62.0166,-4.8992 90.6428,-15.6702 29.6374,-11.3164 55.3617,-31.8199 69.1369,-58.091 12.6353,-24.1837 14.5959,-53.1021 3.3729,-78.0121 -9.8632,-20.8766 -28.6507,-37.4229 -49.7472,-49.4672 -20.5181,-11.7041 -43.9698,-18.6965 -67.7872,-22.6507 -26.2805,-4.6673 -52.9279,-7.3715 -79.5143,-10.1966 -22.1553,-1.9799 -44.4326,-2.8563 -66.6967,-2.6508 z"
       id="path3280-5"
       inkscape:connector-curvature="0"
       sodipodi:nodetypes="csssc" />
    <path
       style="fill:#ffffff;stroke:none;stroke-width:0.421573"
       d="M 1475.3789 2970.7129 C 1448.2838 2971.168 1420.9445 2973.0294 1394.7109 2980.2441 C 1381.5191 2984.0693 1368.8627 2990.0345 1357.8715 2998.3136 C 1353.2482 3001.9293 1348.7337 3005.8117 1345.1241 3010.4651 C 1334.8862 3024.3558 1332.5185 3044.044 1340.3611 3059.5901 C 1345.3445 3068.892 1354.3221 3075.2023 1363.5181 3079.9002 C 1380.7922 3089.2279 1400.8431 3092.4784 1420.305 3091.3198 C 1453.2634 3090.6708 1486.2325 3091.9846 1519.1871 3090.9617 C 1531.9028 3090.6042 1544.6266 3090.7528 1557.3433 3090.5548 C 1571.833 3090.0128 1586.7144 3087.6222 1599.4065 3080.2207 C 1610.1782 3074.0131 1619.4307 3064.2394 1622.916 3052.0938 C 1627.228 3037.5496 1623.3016 3020.8722 1612.8244 3009.8727 C 1601.3601 2996.5908 1585.214 2988.0734 1568.4036 2983.6629 C 1549.6526 2978.3383 1530.4293 2974.8027 1511.1156 2972.2744 C 1499.2531 2970.9693 1487.3062 2970.6199 1475.3789 2970.7129 z "
       id="path3280-8-0"
       inkscape:connector-curvature="0"
       sodipodi:nodetypes="csssc" />
  </g>
  <g
     inkscape:groupmode="layer"
     id="layer1"
     inkscape:label="txt">
    <text
       xml:space="preserve"
       style="font-style:normal;font-variant:normal;font-weight:normal;font-stretch:normal;font-size:45px;line-height:1.25;font-family:Lavi;-inkscape-font-specification:Lavi;text-align:center;letter-spacing:0px;word-spacing:0px;text-anchor:middle;fill:#000000;fill-opacity:1;stroke:none"
       x="966.13892"
       y="235.05795"
       id="text4246-3-2-2-6-3-7-9-3"><tspan
         style="font-size:45px"
         sodipodi:role="line"
         x="966.13892"
         y="235.05795"
         id="tspan850">Oui, votre </tspan><tspan
         style="font-size:45px"
         sodipodi:role="line"
         x="966.13892"
         y="291.30795"
         id="tspan68">altesse.</tspan></text>
    <text
       xml:space="preserve"
       style="font-style:normal;font-variant:normal;font-weight:normal;font-stretch:normal;font-size:45px;line-height:1.25;font-family:Lavi;-inkscape-font-specification:Lavi;text-align:center;letter-spacing:0px;word-spacing:0px;text-anchor:middle;fill:#000000;fill-opacity:1;stroke:none"
       x="979.35199"
       y="398.5528"
       id="text4246-3-2-2-6-3-7-9-3-3"><tspan
         style="font-size:45px"
         sodipodi:role="line"
         x="979.35199"
         y="398.5528"
         id="tspan896">Elle s'appelle </tspan><tspan
         style="font-size:45px"
         sodipodi:role="line"
         x="979.35199"
         y="454.8028"
         id="tspan75">Pepper, de l'école </tspan><tspan
         style="font-size:45px"
         sodipodi:role="line"
         x="979.35199"
         y="511.0528"
         id="tspan81">de Chaosah.</tspan></text>
    <text
       xml:space="preserve"
       style="font-style:normal;font-variant:normal;font-weight:normal;font-stretch:normal;font-size:45px;line-height:1.25;font-family:Lavi;-inkscape-font-specification:Lavi;text-align:center;letter-spacing:0px;word-spacing:0px;text-anchor:middle;fill:#000000;fill-opacity:1;stroke:none"
       x="516.85095"
       y="1345.892"
       id="text4246-3-2-2-6-3-7-9-3-3-3"><tspan
         style="font-size:45px"
         sodipodi:role="line"
         x="516.85095"
         y="1345.892"
         id="tspan909">Sa présence ici pollue </tspan><tspan
         style="font-size:45px"
         sodipodi:role="line"
         x="516.85095"
         y="1402.142"
         id="tspan88">la nature sacrée de </tspan><tspan
         style="font-size:45px"
         sodipodi:role="line"
         x="516.85095"
         y="1458.392"
         id="tspan90">notre école.</tspan></text>
    <text
       xml:space="preserve"
       style="font-style:normal;font-variant:normal;font-weight:normal;font-stretch:normal;font-size:45px;line-height:1.25;font-family:Lavi;-inkscape-font-specification:Lavi;text-align:center;letter-spacing:0px;word-spacing:0px;text-anchor:middle;fill:#000000;fill-opacity:1;stroke:none"
       x="1213.9652"
       y="1344.095"
       id="text4246-3-2-2-6-3-7-9-3-3-3-9"><tspan
         style="font-size:45px"
         sodipodi:role="line"
         x="1213.9652"
         y="1344.095"
         id="tspan99">Mets-la </tspan><tspan
         style="font-size:45px"
         sodipodi:role="line"
         x="1213.9652"
         y="1400.345"
         id="tspan101">hors de ma vue,</tspan><tspan
         id="tspan70"
         style="font-size:45px"
         sodipodi:role="line"
         x="1213.9652"
         y="1456.595">immédiatement.</tspan></text>
    <text
       xml:space="preserve"
       style="font-style:normal;font-variant:normal;font-weight:normal;font-stretch:normal;font-size:45px;line-height:1.25;font-family:Lavi;-inkscape-font-specification:Lavi;text-align:center;letter-spacing:0px;word-spacing:0px;text-anchor:middle;fill:#000000;fill-opacity:1;stroke:none"
       x="1041.905"
       y="2320.762"
       id="text4246-3-2-2-6-3-7-9-3-3-3-9-0-0"><tspan
         style="font-size:45px"
         sodipodi:role="line"
         x="1041.905"
         y="2320.762"
         id="tspan1031-6-6">Mais...</tspan></text>
    <text
       xml:space="preserve"
       style="font-style:normal;font-variant:normal;font-weight:normal;font-stretch:normal;font-size:45px;line-height:1.25;font-family:Lavi;-inkscape-font-specification:Lavi;text-align:center;letter-spacing:0px;word-spacing:0px;text-anchor:middle;fill:#000000;fill-opacity:1;stroke:none"
       x="1028.5508"
       y="2444.2068"
       id="text4246-3-2-2-6-3-7-9-3-3-3-9-0"><tspan
         style="font-size:45px"
         sodipodi:role="line"
         x="1028.5508"
         y="2444.2068"
         id="tspan1031-6">Maître Wasabi...</tspan></text>
    <text
       xml:space="preserve"
       style="font-style:normal;font-variant:normal;font-weight:normal;font-stretch:normal;font-size:45px;line-height:1.25;font-family:Lavi;-inkscape-font-specification:Lavi;text-align:center;letter-spacing:0px;word-spacing:0px;text-anchor:middle;fill:#000000;fill-opacity:1;stroke:none"
       x="1478.4738"
       y="3045.5544"
       id="text4246-3-2-2-6-3-7-9-3-3-3-9-0-6"><tspan
         style="font-size:45px"
         sodipodi:role="line"
         x="1478.4738"
         y="3045.5544"
         id="tspan1199">Mais <tspan
   style="font-style:italic;font-variant:normal;font-weight:normal;font-stretch:normal;font-family:Lavi;-inkscape-font-specification:'Lavi Italic'"
   id="tspan92">quoi</tspan> ?</tspan></text>
    <text
       xml:space="preserve"
       style="font-style:normal;font-variant:normal;font-weight:normal;font-stretch:normal;font-size:45px;line-height:1.25;font-family:Lavi;-inkscape-font-specification:Lavi;text-align:center;letter-spacing:0px;word-spacing:0px;text-anchor:middle;fill:#000000;fill-opacity:1;stroke:none"
       x="1512.7719"
       y="3145.7263"
       id="text4246-3-2-2-6-3-7-9-3-3-3-9-0-6-8"><tspan
         style="font-size:45px"
         sodipodi:role="line"
         x="1512.7719"
         y="3145.7263"
         id="tspan108">Préfères-tu</tspan><tspan
         id="tspan69"
         style="font-size:45px"
         sodipodi:role="line"
         x="1512.7719"
         y="3201.9763">qu'on te bannisse </tspan><tspan
         style="font-size:45px"
         sodipodi:role="line"
         x="1512.7719"
         y="3258.2263"
         id="tspan110">de notre école ?</tspan></text>
    <text
       xml:space="preserve"
       style="font-style:normal;font-variant:normal;font-weight:normal;font-stretch:normal;font-size:105.817px;line-height:1.25;font-family:Lavi;-inkscape-font-specification:Lavi;letter-spacing:0px;word-spacing:0px;fill:#000000;fill-opacity:1;stroke:#030303;stroke-width:0.716208;stroke-miterlimit:4;stroke-dasharray:none;stroke-opacity:1;filter:url(#filter4375-4-1-1-1-9-5-8-8-5-5-3-8)"
       x="787.65729"
       y="1584.5073"
       id="text4580-6-0-0-0-9-3-36"
       transform="matrix(0.78722097,-0.19942868,-0.30990333,0.91892591,1994.5561,1995.3356)"><tspan
         style="font-size:195.17px;fill:#000000;fill-opacity:1;stroke:#030303;stroke-width:0.716208;stroke-miterlimit:4;stroke-dasharray:none;stroke-opacity:1"
         sodipodi:role="line"
         id="tspan876-6-1"
         x="787.65729"
         y="1584.5073">!<tspan
   style="font-size:173.821px;fill:#000000;stroke:#030303;stroke-opacity:1"
   id="tspan1317">!</tspan><tspan
   id="tspan1322"
   style="font-size:152.472px;fill:#000000;stroke:#030303;stroke-opacity:1">!</tspan></tspan></text>
  </g>
</svg>
