<?xml version="1.0" encoding="UTF-8" standalone="no"?>
<svg
   xmlns:dc="http://purl.org/dc/elements/1.1/"
   xmlns:cc="http://creativecommons.org/ns#"
   xmlns:rdf="http://www.w3.org/1999/02/22-rdf-syntax-ns#"
   xmlns:svg="http://www.w3.org/2000/svg"
   xmlns="http://www.w3.org/2000/svg"
   xmlns:xlink="http://www.w3.org/1999/xlink"
   xmlns:sodipodi="http://sodipodi.sourceforge.net/DTD/sodipodi-0.dtd"
   xmlns:inkscape="http://www.inkscape.org/namespaces/inkscape"
   id="svg2"
   version="1.1"
   inkscape:version="0.92.4 (5da689c313, 2019-01-14)"
   width="2481"
   height="3503"
   sodipodi:docname="E33P07.svg">
  <metadata
     id="metadata8">
    <rdf:RDF>
      <cc:Work
         rdf:about="">
        <dc:format>image/svg+xml</dc:format>
        <dc:type
           rdf:resource="http://purl.org/dc/dcmitype/StillImage" />
        <dc:title />
      </cc:Work>
    </rdf:RDF>
  </metadata>
  <defs
     id="defs6">
    <filter
       x="-0.14"
       width="1.22"
       height="1.38"
       inkscape:label="magic-numbers_orange"
       id="filter4375-4-1-1-1-9-5-8-8-3-3-3-6-1-6"
       style="color-interpolation-filters:sRGB">
      <feFlood
         radius="5.0999999999999996"
         result="flood"
         flood-color="rgb(216,88,33)"
         flood-opacity="1"
         id="feFlood4377-7-9-0-8-1-7-3-1-6-61-6-2-0-2" />
      <feComposite
         baseFrequency="0.053999999999999999 0.053999999999999999"
         result="composite1"
         operator="in"
         in="flood"
         in2="SourceGraphic"
         id="feComposite4379-3-8-8-2-77-4-1-0-7-2-7-6-6-6" />
      <feMorphology
         result="result3"
         radius="0.96959439099754563"
         operator="dilate"
         id="feMorphology4393-1-0-49-8-9-3-0-1-5-9-5-1-3-1" />
      <feComposite
         numOctaves="4"
         result="fbSourceGraphic"
         operator="over"
         in="SourceGraphic"
         in2="result3"
         id="feComposite4385-9-5-7-0-8-8-7-5-3-3-3-8-2-8" />
      <feColorMatrix
         id="feColorMatrix4544-9-5-1-5-7-0-7"
         values="0 0 0 -1 0 0 0 0 -1 0 0 0 0 -1 0 0 0 0 1 0"
         in="fbSourceGraphic"
         result="fbSourceGraphicAlpha" />
      <feTurbulence
         result="turbulence"
         baseFrequency="0.062 0.054054054054054057"
         seed="172"
         numOctaves="4.4123222748815163"
         type="fractalNoise"
         id="feTurbulence4546-3-6-9-6-9-6-9" />
      <feDisplacementMap
         result="fbSourceGraphic"
         xChannelSelector="R"
         yChannelSelector="G"
         scale="11.642079"
         in="fbSourceGraphic"
         in2="turbulence"
         id="feDisplacementMap4548-8-2-4-2-2-1-20" />
      <feColorMatrix
         scale="10.800000000000001"
         id="feColorMatrix4670-7-9-7-9-0-5-2"
         values="0 0 0 -1 0 0 0 0 -1 0 0 0 0 -1 0 0 0 0 1 0"
         in="fbSourceGraphic"
         result="fbSourceGraphicAlpha" />
      <feComposite
         result="composite1"
         operator="in"
         in="flood"
         in2="fbSourceGraphic"
         id="feComposite4674-8-2-4-1-2-5-3" />
      <feGaussianBlur
         result="blur"
         stdDeviation="0.01"
         in="composite1"
         id="feGaussianBlur4676-3-7-50-2-3-4-7" />
      <feOffset
         result="offset"
         dy="5.2374444725016502"
         dx="-0.42771311737301687"
         id="feOffset4678-6-0-3-7-7-7-5" />
      <feComposite
         result="composite2"
         operator="over"
         in="fbSourceGraphic"
         in2="offset"
         id="feComposite4680-4-9-6-0-5-6-9" />
      <feGaussianBlur
         stdDeviation="0.01"
         id="feGaussianBlur58-9-9-5-2" />
      <feOffset
         dx="0"
         dy="0"
         id="feOffset60-3-2-6-2" />
    </filter>
    <filter
       style="color-interpolation-filters:sRGB"
       id="filter4375-4-1-1-1-9-5-8-8-3-3-7-4-1"
       inkscape:label="magic-numbers_cyan"
       height="1.38"
       width="1.22"
       x="-0.14">
      <feFlood
         id="feFlood4377-7-9-0-8-1-7-3-1-6-61-3-5-4"
         flood-opacity="1"
         flood-color="rgb(15,126,119)"
         result="flood"
         radius="5.0999999999999996" />
      <feComposite
         id="feComposite4379-3-8-8-2-77-4-1-0-7-2-6-2-9"
         in2="SourceGraphic"
         in="flood"
         operator="in"
         result="composite1"
         baseFrequency="0.053999999999999999 0.053999999999999999" />
      <feMorphology
         id="feMorphology4393-1-0-49-8-9-3-0-1-5-9-1-5-2"
         operator="dilate"
         radius="0.96959439099754563"
         result="result3" />
      <feComposite
         id="feComposite4385-9-5-7-0-8-8-7-5-3-3-2-4-0"
         in2="result3"
         in="SourceGraphic"
         operator="over"
         result="fbSourceGraphic"
         numOctaves="4" />
      <feColorMatrix
         result="fbSourceGraphicAlpha"
         in="fbSourceGraphic"
         values="0 0 0 -1 0 0 0 0 -1 0 0 0 0 -1 0 0 0 0 1 0"
         id="feColorMatrix4544-9-5-1-9-7-6" />
      <feTurbulence
         id="feTurbulence4546-3-6-9-3-4-8"
         type="fractalNoise"
         numOctaves="4.4123222748815163"
         seed="172"
         baseFrequency="0.062 0.054054054054054057"
         result="turbulence" />
      <feDisplacementMap
         id="feDisplacementMap4548-8-2-4-1-4-9"
         in2="turbulence"
         in="fbSourceGraphic"
         scale="11.642079"
         yChannelSelector="G"
         xChannelSelector="R"
         result="fbSourceGraphic" />
      <feColorMatrix
         result="fbSourceGraphicAlpha"
         in="fbSourceGraphic"
         values="0 0 0 -1 0 0 0 0 -1 0 0 0 0 -1 0 0 0 0 1 0"
         id="feColorMatrix4670-7-9-7-9-3-2"
         scale="10.800000000000001" />
      <feComposite
         id="feComposite4674-8-2-4-4-0-6"
         in2="fbSourceGraphic"
         in="flood"
         operator="in"
         result="composite1" />
      <feGaussianBlur
         id="feGaussianBlur4676-3-7-50-7-7-6"
         in="composite1"
         stdDeviation="1.5865199271065846"
         result="blur" />
      <feOffset
         id="feOffset4678-6-0-3-8-8-4"
         dx="-0.42771311737301687"
         dy="5.2374444725016502"
         result="offset" />
      <feComposite
         id="feComposite4680-4-9-6-4-6-9"
         in2="offset"
         in="fbSourceGraphic"
         operator="over"
         result="composite2" />
      <feGaussianBlur
         id="feGaussianBlur58-5-8-5"
         stdDeviation="0.01" />
      <feOffset
         id="feOffset60-0-8-0"
         dy="0"
         dx="0" />
    </filter>
  </defs>
  <sodipodi:namedview
     pagecolor="#ffffff"
     bordercolor="#666666"
     borderopacity="1"
     objecttolerance="10"
     gridtolerance="10"
     guidetolerance="10"
     inkscape:pageopacity="0"
     inkscape:pageshadow="2"
     inkscape:window-width="1858"
     inkscape:window-height="1057"
     id="namedview4"
     showgrid="false"
     inkscape:zoom="0.43016842"
     inkscape:cx="1270.2293"
     inkscape:cy="1079.2037"
     inkscape:window-x="54"
     inkscape:window-y="-8"
     inkscape:window-maximized="1"
     inkscape:current-layer="layer3"
     inkscape:document-rotation="0"
     inkscape:snap-global="false" />
  <g
     inkscape:groupmode="layer"
     id="layer2"
     inkscape:label="artwork"
     sodipodi:insensitive="true">
    <image
       sodipodi:absref="D:\Documents\code\webcomics\ep33_Spell-of-War\lang\id\../gfx_Pepper-and-Carrot_by-David-Revoy_E33P07.png"
       xlink:href="../gfx_Pepper-and-Carrot_by-David-Revoy_E33P07.png"
       width="2481"
       height="3503"
       id="image10"
       x="0"
       y="0" />
  </g>
  <g
     inkscape:groupmode="layer"
     id="layer3"
     inkscape:label="speechbubbles">
    <path
       sodipodi:nodetypes="ccssssssc"
       inkscape:connector-curvature="0"
       id="path3278-1"
       d="m 950.37646,1024.3592 c -37.90617,0.3351 -75.64147,5.2271 -113.51255,6.6109 -30.12771,2.1535 -60.50168,9.3799 -87.58647,26.7681 -19.88757,12.2764 -38.7038,29.4529 -50.61661,53.6785 -14.94505,30.1615 -18.95334,69.7744 -8.06905,103.2801 9.48994,29.8543 26.91334,54.1297 45.19489,75.7254 12.64541,14.8132 27.61593,27.471 44.65755,31.6567 16.49,4.6946 33.18007,8.0584 49.79891,11.8598 69.0552,14.5117 139.28619,17.9997 209.01737,13.7565 30.2017,-2.3801 60.2396,-7.0436 90.3574,-10.5783 28.8842,-3.7583 58.201,-6.635 85.8838,-18.4266 12.2397,-5.0786 24.1459,-11.7239 34.7805,-21.0408 20.0223,-16.9852 37.2573,-40.3877 46.8482,-68.8472 9.9431,-30.4343 10.6375,-66.2338 0.3269,-96.8604 -10.1319,-28.7857 -28.3143,-52.0375 -49.0943,-68.5604 -22.0993,-17.1782 -47.756,-25.5234 -73.3202,-27.7502 -45.5446,-7.309 -91.4477,-9.4708 -137.2723,-10.041 -29.1302,-0.697 -58.2626,-0.9492 -87.39404,-1.2311 z"
       style="opacity:1;fill:#ffffff;stroke:none;stroke-width:1.04301357" />
    <path
       sodipodi:nodetypes="cccsscc"
       inkscape:connector-curvature="0"
       id="path3970-36-4-2-3"
       d="m 1854.9195,2622.2701 c -25.8489,1.1983 -51.6435,3.4314 -77.3972,5.825 -43.0918,4.3771 -86.6374,8.4456 -128.1873,20.5903 -18.2975,5.1568 -34.8884,15.2018 -48.1248,28.0123 -12.4108,12.2442 -21.9555,27.7168 -23.8243,44.7228 -3.9025,29.389 9.7491,60.3126 35.1109,78.1938 28.6948,22.6022 65.6693,32.8175 101.8128,39.6322 43.8645,8.3142 88.5436,12.3081 133.2014,14.3962 51.7304,1.423 104.4459,-1.7508 153.7775,-17.3703 26.9475,-9.0635 53.0948,-24.3084 67.6654,-48.0283 17.1761,-27.906 16.708,-64.9376 -2.8537,-91.7138 -17.3851,-25.1941 -45.781,-41.9211 -75.4766,-51.9665 -32.9135,-11.2018 -67.6797,-16.6144 -102.3177,-20.6592 -11.0909,-1.0664 -22.2345,-1.6809 -33.3864,-1.6345 z"
       style="color:#000000;display:inline;overflow:visible;visibility:visible;fill:#ffffff;fill-opacity:1;fill-rule:nonzero;stroke:none;stroke-width:1.27002835px;marker:none;enable-background:accumulate" />
    <path
       sodipodi:nodetypes="ccscc"
       inkscape:connector-curvature="0"
       id="path4440-3"
       d="m 1641.2419,2763.4115 c -108.6283,-52.869 -136.7629,50.9509 -219.7865,3.3934 64.8225,28.9401 124.6197,-90.8503 208.5357,-36.2563 33.5739,21.8425 26.7527,-34.846 26.7527,-34.846 z"
       style="color:#000000;display:inline;overflow:visible;visibility:visible;fill:#ffffff;fill-opacity:1;fill-rule:nonzero;stroke:none;stroke-width:1px;marker:none;enable-background:accumulate" />
    <path
       inkscape:connector-curvature="0"
       id="path1355"
       d="m 1814.4771,1704.6495 c 0.4448,-11.7403 5.7803,-33.2638 13.7838,-37.1773 8.0034,-3.9133 30.2352,-3.9133 34.6816,-1.9563 4.4462,1.9563 11.5605,16.3054 13.3391,22.1757 1.7786,5.87 6.6694,26.741 -1.334,35.2202 -8.0034,8.4791 -16.0069,15.0013 -24.4549,14.349 -8.4482,-0.6523 -25.3444,-5.2181 -29.346,-13.0443 -4.0019,-7.8268 -6.6696,-19.567 -6.6696,-19.567 z"
       style="fill:#ffffff;fill-rule:evenodd;stroke:none;stroke-width:1px;stroke-linecap:butt;stroke-linejoin:miter;stroke-opacity:1" />
    <path
       sodipodi:nodetypes="zssssz"
       inkscape:connector-curvature="0"
       id="path4040-4-5-3-6"
       d="m 214.04236,1891.0092 c 18.52405,-13.457 150.65071,-26.3446 188.1542,8.2519 31.30365,28.8772 29.29508,85.4493 0.62541,106.7119 -29.20801,21.6607 -140.51559,14.0102 -183.53635,3.6371 -40.51199,-9.7679 -39.77899,-33.3786 -38.67399,-74.5334 0.45101,-16.7961 14.90677,-30.6115 33.43073,-44.0675 z"
       style="color:#000000;display:inline;overflow:visible;visibility:visible;fill:#ffffff;fill-opacity:1;fill-rule:nonzero;stroke:none;stroke-width:0.999997px;marker:none;enable-background:accumulate" />
    <path
       sodipodi:nodetypes="ccscc"
       inkscape:connector-curvature="0"
       id="path4248"
       d="m 2188.3092,1563.8723 c 34.6776,75.0182 -2.1391,152.7694 -20.7926,179.1784 15.7673,-13.367 86.6043,-98.9813 59.3653,-176.0012 -19.1833,-54.242 -28.9658,-19.1371 -28.9658,-19.1371 z"
       style="fill:#ffffff;fill-rule:evenodd;stroke:none;stroke-width:0.999999px;stroke-linecap:butt;stroke-linejoin:miter;stroke-opacity:1" />
    <path
       sodipodi:nodetypes="zssssz"
       inkscape:connector-curvature="0"
       id="path4040-4-5-3"
       d="m 456.80078,1991.75 c -42.41514,0.4303 -85.2813,2.1946 -126.53711,12.8906 -16.00036,4.5215 -28.76661,15.66 -42.41538,24.5932 -8.87296,5.7349 -17.75486,11.8474 -24.30775,20.275 -5.16519,6.2581 -8.21981,13.9137 -10.12675,21.7282 -4.71156,18.4744 -2.75976,39.2745 8.12013,55.2849 10.08081,14.9844 26.30166,25.0269 43.55109,29.6966 25.53882,7.93 52.34259,10.0195 78.75768,13.1926 55.34978,5.5491 111.3713,7.2396 166.6953,0.4919 16.69847,-2.422 33.88978,-5.8712 48.18078,-15.3349 16.68173,-11.7606 26.58376,-31.3797 29.16501,-51.3429 2.94028,-21.1035 -2.97982,-43.4524 -16.77145,-59.8128 -13.93712,-17.4575 -33.70521,-29.463 -54.6416,-36.6949 -14.85647,-5.2355 -30.24642,-8.8851 -45.75417,-11.5706 -17.82216,-2.7773 -35.89782,-3.5695 -53.91578,-3.3969 z"
       style="color:#000000;display:inline;overflow:visible;visibility:visible;fill:#ffffff;fill-opacity:1;fill-rule:nonzero;stroke:none;stroke-width:1px;marker:none;enable-background:accumulate" />
    <path
       sodipodi:nodetypes="ccszc"
       inkscape:connector-curvature="0"
       id="path4064-3"
       d="m 350.69972,1902.0737 c 41.26622,-10.6222 105.42769,-33.765 58.36397,-103.5756 17.39224,9.6109 81.79336,86.4471 -32.06947,127.1196 -33.03955,11.8021 -26.40006,-1.4387 -31.37798,-6.8202 -4.97793,-5.3817 5.08348,-16.7238 5.08348,-16.7238 z"
       style="color:#000000;display:inline;overflow:visible;visibility:visible;opacity:1;fill:#ffffff;fill-opacity:1;fill-rule:nonzero;stroke:none;stroke-width:0.999997px;marker:none;enable-background:accumulate" />
    <path
       sodipodi:nodetypes="ccccccsscc"
       inkscape:connector-curvature="0"
       id="path1081"
       d="m 974.50752,1309.2692 c -35.82187,19.2298 -42.44405,25.0497 -51.67218,35.2517 -9.22809,10.2021 -10.71719,34.223 0.007,47.9588 10.72379,13.7357 7.97474,36.1368 -5.93755,41.9385 -13.91228,5.8017 -68.6801,26.3291 -30.10548,69.6789 -31.80797,-48.4001 27.22562,-50.2412 37.26612,-53.8355 20.96554,-7.326 32.38767,-21.6624 25.23114,-50.6365 -7.15657,-28.9741 -13.26827,-47.0437 37.16901,-61.4862 50.43712,-14.4425 -11.9577,-28.8697 -11.9577,-28.8697 z"
       style="fill:#ffffff;fill-rule:evenodd;stroke:none;stroke-width:0.999996px;stroke-linecap:butt;stroke-linejoin:miter;stroke-opacity:1" />
    <path
       sodipodi:nodetypes="ccscscc"
       inkscape:connector-curvature="0"
       id="path3992-0"
       d="m 1937.9737,988.58203 c -51.3107,0.42536 -103.216,-1.65618 -153.7734,8.50618 -12.9242,2.54587 -25.6444,6.95459 -36.3012,14.65169 -18.7154,12.8427 -33.2653,30.8144 -43.8188,50.4141 -20.2433,38.6933 -23.4545,85.805 -7.1709,126.3597 14.835,33.7954 47.4529,58.9784 84.0739,67.4686 57.8247,15.8001 118.4137,17.5618 178.1131,17.3321 41.1498,-0.2057 82.305,-1.1353 123.4517,-0.179 47.5082,0.3667 94.9395,-3.1141 142.1738,-7.7608 23.9408,-2.1701 48.1209,-3.6253 71.5354,-9.2429 16.6905,-4.3929 32.4794,-13.0408 43.5278,-26.1259 23.1311,-25.6357 32.8364,-60.2541 33.6653,-93.7561 0.6596,-27.1584 -5.6823,-54.9925 -21.3112,-77.8228 -20.2277,-30.0766 -54.582,-50.9396 -91.4545,-54.8898 -39.3376,-5.96276 -79.1544,-7.75822 -118.8058,-10.7228 -54.2349,-3.51117 -108.6181,-4.04645 -162.956,-4.214 -13.6498,-0.0207 -27.2994,-0.0253 -40.9492,-0.0183 z"
       style="color:#000000;display:inline;overflow:visible;visibility:visible;opacity:1;vector-effect:none;fill:#ffffff;fill-opacity:1;fill-rule:nonzero;stroke:none;stroke-width:1.15289164;stroke-linecap:butt;stroke-linejoin:miter;stroke-miterlimit:4;stroke-dasharray:none;stroke-dashoffset:0;stroke-opacity:1;marker:none;paint-order:stroke fill markers;enable-background:accumulate" />
    <path
       sodipodi:nodetypes="csssc"
       inkscape:connector-curvature="0"
       id="path3280-8-0-3"
       d="m 2156.3759,1217.5249 c -99.03,2.4158 -197.7606,10.0948 -296.5093,16.7692 -15.0489,1.2079 -30.1227,5.2783 -42.2771,13.5175 -16.9357,10.8403 -28.7744,27.3043 -34.4592,45.0985 -9.2261,25.2206 -11.4182,52.6269 -5.3306,78.6455 6.1659,22.7459 22.275,42.8763 43.3611,56.5597 25.8292,17.8364 57.3619,27.9877 89.3169,32.804 32.3124,5.2357 65.103,7.5587 97.8377,9.4542 32.02,0.9743 64.0854,1.012 96.1003,-0.102 20.6518,-1.0443 41.0512,-4.5615 61.0038,-9.3359 24.2638,-5.0021 48.9596,-8.5761 73.8602,-9.5478 28.3077,-2.2415 57.0538,-7.3419 81.9348,-20.153 35.9411,-18.9361 59.8126,-55.5208 59.0396,-92.9741 -0.828,-29.9639 -17.7026,-58.6194 -42.8783,-78.05 -24.5216,-19.0638 -55.6673,-29.9437 -87.1852,-35.7581 -30.805,-5.7793 -62.4197,-7.0802 -93.8147,-6.9277 z"
       style="fill:#ffffff;stroke:none;stroke-width:1.06283212" />
    <path
       sodipodi:nodetypes="csssc"
       inkscape:connector-curvature="0"
       id="path3280-8-3"
       d="m 2075.6509,1508.2907 c -1.1199,-18.5967 18.9603,-65.1514 116.9112,-61.6496 97.9509,3.5018 128.608,23.9568 131.4784,57.0125 4.5408,52.2927 -46.9911,66.2669 -120.9862,70.1404 -76.2809,3.9927 -128.5872,-31.9025 -127.4034,-65.5033 z"
       style="display:inline;fill:#ffffff;stroke:none;stroke-width:1.00947797" />
    <path
       sodipodi:nodetypes="zssssz"
       inkscape:connector-curvature="0"
       id="path4040-4-5-3-6-9"
       d="M 665.01953 2329.8574 C 632.86755 2330.7825 600.24052 2331.3395 569.03125 2339.9941 C 545.47886 2347.025 526.00387 2364.8466 514.70766 2386.4215 C 508.41521 2398.1509 507.47912 2411.7926 507.80261 2424.8498 C 508.34923 2438.3614 508.90865 2452.1411 513.49735 2465.006 C 518.14998 2479.0047 527.65823 2491.3001 540.12487 2499.207 C 551.26377 2506.5226 564.15966 2510.5942 577.15576 2513.1 C 591.43553 2516.3146 605.80573 2519.203 620.35716 2520.8836 C 639.50789 2523.0982 658.77197 2524.4019 678.04593 2524.7863 C 708.31178 2525.1924 739.33007 2522.1736 767.32604 2509.9317 C 785.80761 2501.8301 803.17171 2489.8945 814.91211 2473.2422 C 823.85608 2460.1083 828.25163 2443.8028 826.31055 2427.9648 C 824.6773 2409.654 817.76755 2392.0659 807.93552 2376.6424 C 794.12921 2356.8633 772.10522 2343.4958 748.5584 2338.8927 C 723.52023 2332.8043 697.71635 2330.3738 671.99751 2329.8478 C 669.67159 2329.8162 667.34553 2329.8529 665.01953 2329.8574 z "
       style="color:#000000;display:inline;overflow:visible;visibility:visible;fill:#ffffff;fill-opacity:1;fill-rule:nonzero;stroke:none;stroke-width:0.999999px;marker:none;enable-background:accumulate" />
    <path
       inkscape:transform-center-y="-44.934884"
       inkscape:transform-center-x="2.8585098"
       inkscape:connector-curvature="0"
       id="path4496-9"
       d="m 703.25853,2604.1619 c 5.74791,-18.2394 15.11069,-23.7603 -2.63313,-35.0414 -23.03586,-18.9893 -49.6494,-13.1342 -53.36056,-71.625 3.60381,-16.905 6.37301,-34.8451 22.50989,-40.1615 10.4995,-2.3974 21.75171,4.8293 22.24702,16.1202 0.34778,5.946 -3.23944,11.606 -7.58281,15.6001 -6.82528,8.7682 -8.75807,20.6527 -5.8829,30.4945 7.45665,22.1143 23.5538,29.0237 41.10442,37.1506 9.41557,9.8401 11.78207,17.5562 5.80293,30.6148 -26.3563,44.5568 16.67184,58.2897 35.27406,70.5123 -19.70092,-4.8478 -67.11382,-28.0517 -57.47892,-53.6646 z"
       style="color:#000000;display:inline;overflow:visible;visibility:visible;fill:#ffffff;fill-opacity:1;fill-rule:nonzero;stroke:none;stroke-width:1px;marker:none;enable-background:accumulate"
       sodipodi:nodetypes="ccccccccccc" />
    <path
       sodipodi:nodetypes="cccsscc"
       inkscape:connector-curvature="0"
       id="path3970-36-4"
       d="m 1444.5423,2511.2556 c -143.6583,-1.4482 -204.3293,-18.5233 -239.7598,-44.0236 -35.4305,-25.5011 -6.0025,-66.671 56.2448,-81.2488 62.2472,-14.578 146.4656,-16.0552 243.9504,-14.1261 176.1495,3.4884 298.1568,14.4781 311.9492,54.0223 13.6949,39.2626 2.7021,60.0931 -126.7815,78.7911 -121.8934,10.7602 -245.6031,6.5851 -245.6031,6.5851 z"
       style="color:#000000;display:inline;overflow:visible;visibility:visible;fill:#ffffff;fill-opacity:1;fill-rule:nonzero;stroke:none;stroke-width:1.46541882px;marker:none;enable-background:accumulate" />
    <path
       style="color:#000000;display:inline;overflow:visible;visibility:visible;fill:#ffffff;fill-opacity:1;fill-rule:nonzero;stroke:none;stroke-width:1.35450447px;marker:none;enable-background:accumulate"
       d="m 1673.1571,2482.8694 c -37.7614,1.1705 -75.53,2.3885 -113.2486,4.3406 -31.4015,1.5964 -62.7321,4.0038 -94.0759,6.2222 -18.1205,1.1847 -35.9897,4.7437 -52.9296,10.2165 -16.1403,5.3706 -31.5462,12.7386 -44.2393,22.7171 -18.0634,15.2593 -25.0528,38.9335 -17.8748,59.4934 3.9316,10.4989 11.0946,20.0549 19.856,28.2168 13.5912,12.5325 31.5734,21.2745 50.6143,26.7279 30.989,9.5519 63.4791,14.9248 95.5074,21.3948 37.1799,6.6793 75.408,8.0703 113.3288,7.1697 30.4545,-0.4522 60.9122,-1.5455 91.2601,-3.747 36.231,-2.9898 72.46,-8.0778 106.939,-18.0658 22.9515,-6.8676 45.324,-16.379 62.9088,-30.7086 13.3065,-11.9129 18.6609,-28.5749 19.0047,-44.5392 0.2413,-14.5806 -5.3562,-29.4648 -17.154,-40.406 -15.0805,-14.5502 -36.2611,-23.586 -57.8035,-29.6489 -32.143,-8.8882 -66.0522,-11.4675 -99.419,-15.2959 -20.782,-2.2658 -41.6802,-4.3076 -62.6744,-4.0876 z"
       id="path3970-36-4-2"
       inkscape:connector-curvature="0"
       sodipodi:nodetypes="cccsscc" />
    <path
       inkscape:connector-curvature="0"
       id="path3072-5-5"
       d="m 1869.3292,1763.0277 c -14.8181,-0.6595 -18.7264,-9.2129 -18.2181,-35.4706 0.5083,-26.2571 -6.2661,-24.362 -6.2661,-24.362 l -6.9729,16.6564 c 0,0 1.6221,55.3263 31.4571,43.1762 z"
       style="color:#000000;display:inline;overflow:visible;visibility:visible;fill:#ffffff;fill-opacity:1;fill-rule:nonzero;stroke:none;stroke-width:1px;marker:none;enable-background:accumulate"
       sodipodi:nodetypes="csccc" />
    <path
       sodipodi:nodetypes="cscsc"
       inkscape:connector-curvature="0"
       id="path912"
       d="m 908.19707,140.73428 c -23.27565,0.55056 -46.99555,0.87351 -69.41715,7.88874 -23.4538,7.34338 -44.8221,22.73166 -57.32193,44.11788 -13.00868,23.28208 -9.52548,54.15162 7.28144,74.63258 14.5161,17.54579 35.34829,29.06129 57.2524,34.58214 22.01365,5.74466 44.6452,9.69907 67.45675,9.61655 13.92648,0.043 27.83179,-1.54052 41.43298,-4.50964 17.72195,-3.50772 35.43285,-7.30564 52.68184,-12.72464 16.3677,-5.48131 32.4562,-13.56643 44.1239,-26.59384 11.079,-12.60043 16.2795,-30.23087 13.3196,-46.7977 -1.8137,-12.38081 -7.702,-24.45207 -17.5791,-32.36276 -25.7954,-23.48509 -58.75009,-38.45485 -92.95511,-44.58852 -15.25272,-2.7632 -30.8032,-3.399 -46.27562,-3.26079 z"
       style="fill:#ffffff;fill-rule:evenodd;stroke:none;stroke-width:0.977214px;stroke-linecap:butt;stroke-linejoin:miter;stroke-opacity:1" />
    <path
       d="m 796.38806,253.26629 c 0.0845,2.25192 3.22337,4.74593 5.59632,5.05268 0,0 2.54222,0.45596 4.60197,-0.0294 0.37769,0.0596 6.63382,-1.0982 6.49266,-8.21406 l -1.65193,-8.61638 c 0.8799,-0.15078 3.72125,-1.41287 4.59537,-1.88482 2.3984,-1.29588 3.40148,-3.09481 4.30471,-4.43007 0.99554,-1.99533 1.57431,-3.35461 1.49404,-5.49299 -0.20284,-5.40684 -5.56053,-9.6374 -11.96606,-9.44893 -0.92327,0.027 -1.81711,0.14337 -2.67218,0.34364 l -1.40556,-6.91288 c 4.18255,-4.19405 8.3894,-9.32211 9.69316,-13.94593 1.21966,-6.09324 0.37438,-10.16016 -3.52844,-11.79857 -3.5483,-0.58638 -7.67202,3.59985 -9.96921,9.539 -1.51792,3.17978 0.78995,9.10039 1.81806,11.52923 -6.68582,5.78015 -13.39541,9.98158 -13.74544,19.66914 0.28405,7.56986 7.78449,13.49206 16.75142,13.22833 0.85685,-0.0249 2.27271,-0.0503 3.87625,-0.27383 l 1.08192,8.62187 c 0,0 0.52789,6.31387 -5.14256,7.33829 -2.25047,0.4063 -4.41852,0.8642 -3.83799,-0.41876 1.73468,-0.82673 3.74257,-2.12294 3.66654,-4.15005 -0.0947,-2.52304 -2.4222,-4.50235 -5.1974,-4.42088 -2.7763,0.0816 -4.95043,2.1931 -4.85567,4.71688 z m 8.74333,-38.9876 1.31155,6.45899 c -4.6851,1.37342 -7.98364,5.19713 -7.81852,9.59637 0.1868,4.97811 7.3278,7.09238 7.09231,5.9165 -2.7876,-0.92016 -3.84883,-2.01554 -3.94967,-4.70289 -0.11403,-3.03841 2.25091,-5.66275 5.55369,-6.48738 l 3.11976,15.37696 c -0.56636,0.14694 -1.17858,0.27596 -1.84324,0.38361 -9.67167,0.12035 -14.37777,-4.08648 -14.66181,-11.65558 -0.15887,-4.2402 5.57542,-9.30577 11.19542,-14.88578 z m 6.04423,25.9464 -3.11013,-15.31735 c 0.3857,-0.0614 0.7833,-0.1022 1.18863,-0.11285 4.26961,-0.12605 7.84143,2.69482 7.97671,6.29862 0.0233,2.90225 0.0216,7.22552 -6.05512,9.13233 z m -6.60186,-32.24768 c -1.92855,-4.90906 -0.4462,-7.42733 0.50502,-9.35807 2.24834,-4.55803 4.3132,-6.25199 6.42367,-7.77212 2.8504,0.84884 1.829,7.52972 1.40618,7.54153 -1.1787,3.9583 -5.81842,7.21394 -8.33494,9.58867 z"
       inkscape:connector-curvature="0"
       style="clip-rule:evenodd;display:inline;fill:#000000;fill-rule:evenodd;stroke:none;stroke-width:0.138542"
       id="path11-7" />
    <path
       d="m 867.44282,251.78696 -1.0588,-0.0939 -2.7066,30.53809 c -0.6054,-0.3952 -1.6456,-0.70076 -2.6197,-0.78713 -3.4733,-0.30785 -7.57906,2.18835 -7.84556,5.19554 -0.1838,2.07546 1.71276,3.31074 3.66126,3.48342 4.0237,0.35663 7.9989,-2.10847 8.3891,-6.51344 l 1.8846,-21.26227 c 4.3186,1.36458 7.3192,5.55784 6.8838,10.47105 -0.3003,3.3884 -2.3527,6.79216 -3.4567,8.6581 l 1.1012,0.0975 c 2.3222,-3.08121 4.1586,-6.46151 4.4738,-10.01936 0.3529,-3.98136 -2.2343,-7.54033 -4.6193,-10.01419 -2.3846,-2.47374 -4.4475,-5.68748 -4.0872,-9.75356 z"
       style="font-style:normal;font-variant:normal;font-weight:normal;font-stretch:normal;font-size:45px;line-height:1.2;font-family:Lavi;-inkscape-font-specification:Lavi;text-align:center;letter-spacing:0px;word-spacing:0px;text-anchor:middle;fill:#000000;fill-opacity:1;stroke:#000000;stroke-width:0.5;stroke-miterlimit:4;stroke-dasharray:none;stroke-opacity:1"
       id="path44-7-5-6" />
    <path
       id="path46-3-5"
       style="font-style:normal;font-variant:normal;font-weight:normal;font-stretch:normal;font-size:45px;line-height:1.2;font-family:Lavi;-inkscape-font-specification:Lavi;text-align:center;letter-spacing:0px;word-spacing:0px;text-anchor:middle;fill:#000000;fill-opacity:1;stroke:#000000;stroke-width:0.5;stroke-miterlimit:4;stroke-dasharray:none;stroke-opacity:1"
       d="m 944.83322,290.08712 1.43255,-25.29947 -20.61273,2.21295 -1.36752,24.14772 c -0.50308,-0.39137 -1.36039,-0.71262 -2.15949,-0.8255 -2.84902,-0.40241 -6.16135,1.81205 -6.32103,4.63193 -0.11014,1.94614 1.46659,3.16967 3.06469,3.3954 3.30066,0.46622 6.50653,-1.72324 6.74039,-5.85377 l 1.12471,-19.85835 17.79266,-1.89059 -1.01879,17.9916 c -0.50316,-0.39133 -1.36039,-0.71261 -2.15964,-0.82546 -2.84887,-0.40241 -6.16129,1.81204 -6.32089,4.63191 -0.11014,1.94611 1.46643,3.16969 3.06463,3.39544 3.30058,0.46619 6.50642,-1.72325 6.74046,-5.85381 z" />
    <path
       d="m 863.25007,180.81942 1.43255,-25.29947 -20.61273,2.21295 -1.36752,24.14772 c -0.50308,-0.39137 -1.36039,-0.71262 -2.15949,-0.8255 -2.84902,-0.40241 -6.16135,1.81205 -6.32103,4.63193 -0.11014,1.94614 1.46659,3.16967 3.06469,3.3954 3.30066,0.46622 6.50653,-1.72324 6.74039,-5.85377 l 1.12471,-19.85835 17.79266,-1.89059 -1.01879,17.9916 c -0.50316,-0.39133 -1.36039,-0.71261 -2.15964,-0.82546 -2.84887,-0.40241 -6.16129,1.81204 -6.32089,4.63191 -0.11014,1.94611 1.46643,3.16969 3.06463,3.39544 3.30058,0.46619 6.50642,-1.72325 6.74046,-5.85381 z"
       style="font-style:normal;font-variant:normal;font-weight:normal;font-stretch:normal;font-size:45px;line-height:1.2;font-family:Lavi;-inkscape-font-specification:Lavi;text-align:center;letter-spacing:0px;word-spacing:0px;text-anchor:middle;fill:#000000;fill-opacity:1;stroke:#000000;stroke-width:0.5;stroke-miterlimit:4;stroke-dasharray:none;stroke-opacity:1"
       id="path46-3" />
    <path
       id="path44-7-5"
       style="font-style:normal;font-variant:normal;font-weight:normal;font-stretch:normal;font-size:45px;line-height:1.2;font-family:Lavi;-inkscape-font-specification:Lavi;text-align:center;letter-spacing:0px;word-spacing:0px;text-anchor:middle;fill:#000000;fill-opacity:1;stroke:#000000;stroke-width:0.5;stroke-miterlimit:4;stroke-dasharray:none;stroke-opacity:1"
       d="m 977.69881,154.87962 -1.0588,-0.0939 -2.7066,30.53809 c -0.6054,-0.3952 -1.6456,-0.70076 -2.6197,-0.78713 -3.4733,-0.30785 -7.5791,2.18835 -7.8456,5.19554 -0.1838,2.07546 1.7128,3.31074 3.6613,3.48342 4.0237,0.35663 7.9989,-2.10847 8.3891,-6.51344 l 1.8846,-21.26227 c 4.3186,1.36458 7.3192,5.55784 6.8838,10.47105 -0.3003,3.3884 -2.3527,6.79216 -3.4567,8.6581 l 1.1012,0.0975 c 2.3222,-3.08121 4.1586,-6.46151 4.4738,-10.01936 0.3529,-3.98136 -2.2343,-7.54033 -4.6193,-10.01419 -2.3846,-2.47374 -4.4475,-5.68748 -4.0872,-9.75356 z" />
    <path
       id="path46"
       style="font-style:normal;font-variant:normal;font-weight:normal;font-stretch:normal;font-size:45px;line-height:1.2;font-family:Lavi;-inkscape-font-specification:Lavi;text-align:center;letter-spacing:0px;word-spacing:0px;text-anchor:middle;fill:#000000;fill-opacity:1;stroke:#000000;stroke-width:0.5;stroke-miterlimit:4;stroke-dasharray:none;stroke-opacity:1"
       d="m 1043.226,240.93061 6.7692,-26.06469 -21.9412,-1.99287 -6.4611,24.87807 c -0.4426,-0.51273 -1.269,-1.02631 -2.0782,-1.31058 -2.8849,-1.0135 -6.7984,0.60328 -7.5529,3.50845 -0.5207,2.00499 0.8673,3.60883 2.4855,4.17736 3.3423,1.17417 7.1395,-0.43876 8.2447,-4.69422 l 5.3135,-20.45896 18.9353,1.74064 -4.8139,18.53579 c -0.4427,-0.51274 -1.269,-1.0263 -2.0783,-1.31058 -2.8847,-1.01349 -6.7983,0.60328 -7.5527,3.50845 -0.5207,2.00499 0.867,3.60883 2.4854,4.17738 3.3421,1.17415 7.1394,-0.43878 8.2447,-4.69424 z" />
    <path
       id="path44"
       style="font-style:normal;font-variant:normal;font-weight:normal;font-stretch:normal;font-size:45px;line-height:1.2;font-family:Lavi;-inkscape-font-specification:Lavi;text-align:center;letter-spacing:0px;word-spacing:0px;text-anchor:middle;fill:#000000;fill-opacity:1;stroke:#000000;stroke-width:0.5;stroke-miterlimit:4;stroke-dasharray:none;stroke-opacity:1"
       d="m 913.37793,149.3325 -1.12498,0.006 0.18516,32.44447 c -0.67705,-0.35614 -1.80332,-0.57472 -2.83829,-0.56881 -3.68994,0.0211 -7.76768,3.05937 -7.74944,6.25432 0.0126,2.20497 2.13396,3.31788 4.20394,3.30606 4.27493,-0.0244 8.21791,-3.01694 8.1912,-7.69687 l -0.12891,-22.5892 c 4.68583,1.00828 8.2644,5.12792 8.29419,10.34784 0.0205,3.59994 -1.80286,7.39041 -2.78103,9.46603 l 1.16998,-0.007 c 2.14019,-3.47727 3.73886,-7.22145 3.71728,-11.00139 -0.0241,-4.22992 -3.10412,-7.72241 -5.86268,-10.09171 -2.75858,-2.36929 -5.25176,-5.55012 -5.27642,-9.87005 z" />
    <path
       sodipodi:nodetypes="cscsscsccc"
       inkscape:connector-curvature="0"
       id="path4394-0"
       d="m 1113.2744,299.96481 c 0,0 3.063,-27.90595 -7.6203,-31.63419 -10.683,-3.7287 -32.8407,17.06726 -32.8407,17.06726 0,0 -4.2328,-35.76702 -33.0758,-39.94975 -28.8426,-4.18265 -50.06515,23.26878 -30.3165,23.73344 19.7488,0.46469 56.2297,-14.41714 53.5208,44.24271 30.2691,-35.37 30.9702,-30.37823 35.0639,-28.35596 4.0941,2.02189 7.6203,31.63418 8.1122,40.77952 20.8668,-26.16134 35.3887,-43.19442 63.4331,2.60979 -8.928,-28.53739 -32.8004,-52.752 -56.2767,-28.49282 z"
       style="display:inline;fill:#ffffff;fill-rule:evenodd;stroke:none;stroke-width:0.999994px;stroke-linecap:butt;stroke-linejoin:miter;stroke-opacity:1" />
  </g>
  <g
     inkscape:groupmode="layer"
     id="layer1"
     inkscape:label="txt">
    <text
       inkscape:label="pepperI"
       id="text4246-7-6-1-7-6-3-5-6-4"
       y="2455.2273"
       x="1510.0343"
       style="font-style:normal;font-variant:normal;font-weight:normal;font-stretch:normal;line-height:0%;font-family:Lavi;-inkscape-font-specification:Lavi;text-align:center;letter-spacing:0px;word-spacing:0px;text-anchor:middle;display:inline;fill:#000000;fill-opacity:1;stroke:none"
       xml:space="preserve"><tspan
         id="tspan990"
         y="2455.2273"
         x="1510.0343"
         style="font-size:45px;line-height:1.25"
         sodipodi:role="line">Tidak ada lagi kematian!</tspan></text>
    <text
       inkscape:label="pepperA"
       id="text4246-3-5-0"
       y="238.8701"
       x="909.37677"
       style="font-style:normal;font-variant:normal;font-weight:normal;font-stretch:normal;line-height:0%;font-family:Lavi;-inkscape-font-specification:Lavi;text-align:center;letter-spacing:0px;word-spacing:0px;text-anchor:middle;fill:#000000;fill-opacity:1;stroke:none"
       xml:space="preserve"><tspan
         id="tspan854"
         y="238.8701"
         x="916.40802"
         style="font-size:45px;line-height:1.2"
         sodipodi:role="line"> Tadaaa ! </tspan></text>
    <text
       inkscape:label="pepperB"
       xml:space="preserve"
       style="font-style:normal;font-variant:normal;font-weight:normal;font-stretch:normal;font-size:18.21629906px;line-height:0%;font-family:Lavi;-inkscape-font-specification:Lavi;text-align:center;letter-spacing:0px;word-spacing:0px;text-anchor:middle;fill:#000000;fill-opacity:1;stroke:none;stroke-width:1"
       x="299.1268"
       y="1969.3291"
       id="text4178-1"><tspan
         id="tspan4239-3"
         sodipodi:role="line"
         style="font-size:61.74840164px;line-height:1.25;stroke-width:1"
         x="299.1268"
         y="1969.3291">“Ini&quot;</tspan></text>
    <text
       inkscape:label="pepperC"
       xml:space="preserve"
       style="font-style:normal;font-variant:normal;font-weight:normal;font-stretch:normal;font-size:47.49520111px;line-height:0%;font-family:Lavi;-inkscape-font-specification:Lavi;text-align:center;letter-spacing:0px;word-spacing:0px;text-anchor:middle;fill:#000000;fill-opacity:1;stroke:none;stroke-width:1"
       x="447.29425"
       y="2064.4534"
       id="text4178"><tspan
         id="tspan4245-6"
         sodipodi:role="line"
         style="font-size:47.49520111px;line-height:1.25;stroke-width:1"
         x="454.85452"
         y="2064.4534">...adalah </tspan><tspan
         sodipodi:role="line"
         style="font-size:47.49520111px;line-height:1.25;stroke-width:1"
         x="447.29425"
         y="2123.8223"
         id="tspan155">karya besarku!</tspan></text>
    <text
       inkscape:label="pepperD"
       id="text4246-3-2"
       y="1078.245"
       x="988.77228"
       style="font-style:normal;font-variant:normal;font-weight:normal;font-stretch:normal;line-height:0%;font-family:Lavi;-inkscape-font-specification:Lavi;text-align:center;letter-spacing:0px;word-spacing:0px;text-anchor:middle;fill:#000000;fill-opacity:1;stroke:none"
       xml:space="preserve"><tspan
         y="1078.245"
         x="988.77228"
         style="font-size:45px;line-height:1.25"
         sodipodi:role="line"
         id="tspan116">	Ini adalah</tspan><tspan
         y="1134.495"
         x="988.77228"
         style="font-size:45px;line-height:1.25"
         sodipodi:role="line"
         id="tspan138">mantra kompleks yang</tspan><tspan
         y="1190.745"
         x="988.77228"
         style="font-size:45px;line-height:1.25"
         sodipodi:role="line"
         id="tspan120">mengubah kenyataan dan</tspan><tspan
         y="1246.995"
         x="988.77228"
         style="font-size:45px;line-height:1.25"
         sodipodi:role="line"
         id="tspan134">menunjukkan sisa</tspan><tspan
         y="1303.245"
         x="988.77228"
         style="font-size:45px;line-height:1.25"
         sodipodi:role="line"
         id="tspan124">nyawa dari lawan.</tspan><tspan
         y="1322.7977"
         x="988.77228"
         style="font-size:45px;line-height:1.25"
         sodipodi:role="line"
         id="tspan260" /></text>
    <text
       inkscape:label="scoreA"
       xml:space="preserve"
       style="font-style:normal;font-variant:normal;font-weight:normal;font-stretch:normal;line-height:0%;font-family:Lavi;-inkscape-font-specification:Lavi;letter-spacing:3.03024px;word-spacing:0px;opacity:0.801401;fill:#fff4b7;fill-opacity:1;stroke:#aa7640;stroke-width:0.647169;stroke-miterlimit:4;stroke-dasharray:none;stroke-opacity:1;filter:url(#filter4375-4-1-1-1-9-5-8-8-3-3-3-6-1-6)"
       x="787.65729"
       y="1584.5073"
       id="text4580-6-0-0-3-3-8"
       transform="matrix(2.0001217,0.03992834,-0.03002348,1.9644063,-221.92656,-1785.196)"><tspan
         sodipodi:role="line"
         id="tspan4582-1-1-0-6-9-9"
         x="787.65729"
         y="1584.5073"
         style="font-style:normal;font-variant:normal;font-weight:bold;font-stretch:normal;font-size:64.9472px;line-height:1.25;font-family:Drukah;-inkscape-font-specification:'Drukah Bold';fill:#fff4b7;fill-opacity:1;stroke:#aa7640;stroke-width:0.647169;stroke-miterlimit:4;stroke-dasharray:none;stroke-opacity:1">33</tspan></text>
    <text
       inkscape:label="pepperE"
       xml:space="preserve"
       style="font-style:normal;font-variant:normal;font-weight:normal;font-stretch:normal;line-height:0%;font-family:Lavi;-inkscape-font-specification:Lavi;text-align:center;letter-spacing:0px;word-spacing:0px;text-anchor:middle;fill:#000000;fill-opacity:1;stroke:none"
       x="2032.9225"
       y="1061.8715"
       id="text4246-3-2-2"><tspan
         sodipodi:role="line"
         style="font-size:45px;line-height:1.25"
         x="2032.9225"
         y="1061.8715"
         id="tspan338">Ketika nyawamu habis,</tspan><tspan
         sodipodi:role="line"
         style="font-size:45px;line-height:1.25"
         x="2032.9225"
         y="1118.1215"
         id="tspan145">kamu harus keluar medan</tspan><tspan
         sodipodi:role="line"
         style="font-size:45px;line-height:1.25"
         x="2032.9225"
         y="1174.3715"
         id="tspan147">tempur sampai pertempuran</tspan><tspan
         sodipodi:role="line"
         style="font-size:45px;line-height:1.25"
         x="2032.9225"
         y="1230.6215"
         id="tspan149">selesai.</tspan></text>
    <text
       inkscape:label="pepperF"
       id="text4246-3-2-2-9"
       y="1301.2434"
       x="2078.6101"
       style="font-style:normal;font-variant:normal;font-weight:normal;font-stretch:normal;line-height:0%;font-family:Lavi;-inkscape-font-specification:Lavi;text-align:center;letter-spacing:0px;word-spacing:0px;text-anchor:middle;fill:#000000;fill-opacity:1;stroke:none"
       xml:space="preserve"><tspan
         y="1301.2434"
         x="2078.6101"
         style="font-size:45px;line-height:1.25"
         sodipodi:role="line"
         id="tspan371">Pihak yang pertama</tspan><tspan
         y="1357.4934"
         x="2078.6101"
         style="font-size:45px;line-height:1.25"
         sodipodi:role="line"
         id="tspan156">mengeluarkan semua</tspan><tspan
         y="1413.7434"
         x="2078.6101"
         style="font-size:45px;line-height:1.25"
         sodipodi:role="line"
         id="tspan158">tentara lawan menang!</tspan></text>
    <text
       inkscape:label="pepperG"
       xml:space="preserve"
       style="font-style:normal;font-variant:normal;font-weight:normal;font-stretch:normal;line-height:0%;font-family:Lavi;-inkscape-font-specification:Lavi;text-align:center;letter-spacing:0px;word-spacing:0px;text-anchor:middle;fill:#000000;fill-opacity:1;stroke:none"
       x="2205.7058"
       y="1525.3315"
       id="text4246-3-2-2-9-6"><tspan
         id="tspan371-1"
         sodipodi:role="line"
         style="font-size:45px;line-height:1.25"
         x="2205.7058"
         y="1525.3315">Praktis.</tspan></text>
    <text
       inkscape:label="scoreB"
       xml:space="preserve"
       style="font-style:normal;font-variant:normal;font-weight:normal;font-stretch:normal;line-height:0%;font-family:Lavi;-inkscape-font-specification:Lavi;letter-spacing:2.67495px;word-spacing:0px;fill:#b5ffe1;fill-opacity:1;stroke:#316983;stroke-width:1.28309;stroke-miterlimit:4;stroke-dasharray:none;stroke-opacity:1;filter:url(#filter4375-4-1-1-1-9-5-8-8-3-3-7-4-1)"
       x="787.65729"
       y="1584.5073"
       id="text4580-6-0-0-3-36-4-4"
       transform="matrix(0.95527462,-0.04371269,-0.01433947,1.0473354,1179.3925,26.934268)"><tspan
         sodipodi:role="line"
         id="tspan4582-1-1-0-6-1-3-8"
         x="787.65729"
         y="1584.5073"
         style="font-style:normal;font-variant:normal;font-weight:bold;font-stretch:normal;font-size:69.5991px;line-height:1.25;font-family:Lavi;-inkscape-font-specification:'Lavi Bold';fill:#b5ffe1;fill-opacity:1;stroke:#316983;stroke-width:1.28309;stroke-miterlimit:4;stroke-dasharray:none;stroke-opacity:1">0</tspan></text>
    <text
       inkscape:label="warrior"
       id="text4246-3-7-7-6-7-2-9-6-1-4"
       y="1747.6428"
       x="1813.559"
       style="font-style:normal;font-variant:normal;font-weight:normal;font-stretch:normal;font-size:11.2438px;line-height:0%;font-family:Lavi;-inkscape-font-specification:Lavi;text-align:center;letter-spacing:0px;word-spacing:0px;text-anchor:middle;fill:#000000;fill-opacity:1;stroke:none;stroke-width:0.999999"
       xml:space="preserve"
       transform="scale(1.0185461,0.98179161)"><tspan
         id="tspan1183-0"
         y="1747.6428"
         x="1813.559"
         style="font-style:normal;font-variant:normal;font-weight:normal;font-stretch:normal;font-size:42.1643px;line-height:1.2;font-family:Lavi;-inkscape-font-specification:Lavi;stroke-width:0.999999"
         sodipodi:role="line">?</tspan></text>
    <text
       inkscape:label="pepperH"
       id="text4178-1-8"
       y="2412.4695"
       x="660.45648"
       style="font-style:normal;font-variant:normal;font-weight:normal;font-stretch:normal;font-size:53.33330154px;line-height:0%;font-family:Lavi;-inkscape-font-specification:Lavi;text-align:center;letter-spacing:0px;word-spacing:0px;text-anchor:middle;fill:#000000;fill-opacity:1;stroke:none;stroke-width:1"
       xml:space="preserve"><tspan
         y="2412.4695"
         x="660.45648"
         style="font-size:53.33330154px;line-height:1.25;stroke-width:1"
         sodipodi:role="line"
         id="tspan450">Hebat</tspan><tspan
         y="2479.1362"
         x="660.45648"
         style="font-size:53.33330154px;line-height:1.25;stroke-width:1"
         sodipodi:role="line"
         id="tspan162">kan?</tspan></text>
    <text
       inkscape:label="pepperJ"
       xml:space="preserve"
       style="font-style:normal;font-variant:normal;font-weight:normal;font-stretch:normal;line-height:0%;font-family:Lavi;-inkscape-font-specification:Lavi;text-align:center;letter-spacing:0px;word-spacing:0px;text-anchor:middle;display:inline;fill:#000000;fill-opacity:1;stroke:none"
       x="1636.9469"
       y="2566.5688"
       id="text4246-7-6-1-7-6-3-5-6-4-2"><tspan
         sodipodi:role="line"
         style="font-size:45px;line-height:1.25"
         x="1636.9469"
         y="2566.5688"
         id="tspan1350">Tidak ada lagi tentara</tspan><tspan
         sodipodi:role="line"
         style="font-size:45px;line-height:1.25"
         x="1636.9469"
         y="2622.8188"
         id="tspan1354">yang terluka!</tspan></text>
    <text
       inkscape:label="pepperK"
       id="text4246-7-6-1-7-6-3-5-6-4-2-7"
       y="2705.7588"
       x="1827.9139"
       style="font-style:normal;font-variant:normal;font-weight:normal;font-stretch:normal;line-height:0%;font-family:Lavi;-inkscape-font-specification:Lavi;text-align:center;letter-spacing:0px;word-spacing:0px;text-anchor:middle;display:inline;fill:#000000;fill-opacity:1;stroke:none"
       xml:space="preserve"><tspan
         id="tspan946"
         y="2705.7588"
         x="1827.9139"
         style="font-style:normal;font-variant:normal;font-weight:normal;font-stretch:normal;font-size:45px;line-height:1.25;font-family:Lavi;-inkscape-font-specification:Lavi"
         sodipodi:role="line">Ini akan mengubah</tspan><tspan
         y="2762.0088"
         x="1827.9139"
         style="font-style:normal;font-variant:normal;font-weight:normal;font-stretch:normal;font-size:45px;line-height:1.25;font-family:Lavi;-inkscape-font-specification:Lavi"
         sodipodi:role="line"
         id="tspan173">konsep perang kita</tspan><tspan
         y="2818.2588"
         x="1827.9139"
         style="font-style:normal;font-variant:normal;font-weight:normal;font-stretch:normal;font-size:45px;line-height:1.25;font-family:Lavi;-inkscape-font-specification:Lavi"
         sodipodi:role="line"
         id="tspan175">selama ini!</tspan></text>
  </g>
</svg>
