<?xml version="1.0" encoding="UTF-8" standalone="no"?>
<!-- Created with Inkscape (http://www.inkscape.org/) -->

<svg
   xmlns:dc="http://purl.org/dc/elements/1.1/"
   xmlns:cc="http://creativecommons.org/ns#"
   xmlns:rdf="http://www.w3.org/1999/02/22-rdf-syntax-ns#"
   xmlns:svg="http://www.w3.org/2000/svg"
   xmlns="http://www.w3.org/2000/svg"
   xmlns:xlink="http://www.w3.org/1999/xlink"
   xmlns:sodipodi="http://sodipodi.sourceforge.net/DTD/sodipodi-0.dtd"
   xmlns:inkscape="http://www.inkscape.org/namespaces/inkscape"
   id="svg2"
   version="1.1"
   inkscape:version="0.92.2 (5c3e80d, 2017-08-06)"
   width="2481"
   height="3503"
   sodipodi:docname="Pepper-and-Carrot_by-David-Revoy_E16P02.svg"
   enable-background="new"
   inkscape:export-filename="E:\Users\jamesmichael\Downloads\Compressed\eps\peppercarrot_ep16_translation-master\peppercarrot_ep16_translation-master\ph\Pepper-and-Carrot_by-David-Revoy_E16P02.png"
   inkscape:export-xdpi="98.181801"
   inkscape:export-ydpi="98.181801">
  <metadata
     id="metadata8">
    <rdf:RDF>
      <cc:Work
         rdf:about="">
        <dc:format>image/svg+xml</dc:format>
        <dc:type
           rdf:resource="http://purl.org/dc/dcmitype/StillImage" />
        <dc:title />
      </cc:Work>
    </rdf:RDF>
  </metadata>
  <defs
     id="defs6">
    <linearGradient
       id="linearGradient1380"
       inkscape:collect="always">
      <stop
         id="stop1376"
         offset="0"
         style="stop-color:#ffffff;stop-opacity:1" />
      <stop
         id="stop1378"
         offset="1"
         style="stop-color:#000000;stop-opacity:1" />
    </linearGradient>
    <linearGradient
       inkscape:collect="always"
       id="linearGradient1318">
      <stop
         style="stop-color:#ffffff;stop-opacity:1"
         offset="0"
         id="stop1314" />
      <stop
         style="stop-color:#ffffff;stop-opacity:0;"
         offset="1"
         id="stop1316" />
    </linearGradient>
    <filter
       inkscape:collect="always"
       style="color-interpolation-filters:sRGB"
       id="filter1237"
       x="-0.0027384602"
       width="1.0054769"
       y="-0.0021360008"
       height="1.004272">
      <feGaussianBlur
         inkscape:collect="always"
         stdDeviation="0.78783366"
         id="feGaussianBlur1239" />
    </filter>
    <mask
       maskUnits="userSpaceOnUse"
       id="mask1241">
      <path
         inkscape:connector-curvature="0"
         id="path1243"
         d="m 2272.4863,82.470703 c -177.3103,-0.06422 -448.5742,0.964844 -448.5742,0.964844 l -16.3027,191.302733 c 0,0 40.9223,10.63797 92.1386,25.30274 51.9296,13.90672 72.3027,30.45623 70.9043,56.76367 -1.0647,20.02779 -10.9161,33.30724 -20.6445,44.73242 -15.0678,17.69591 -29.7266,30.83482 -63.0508,35.70117 17.1726,17.57783 64.5688,38.44009 -23.914,115.21875 -40.2174,39.13044 -104.8907,11.41211 -104.8907,11.41211 0,0 -5.6186,4.48453 -18.1328,11.26172 -3.6555,9.46777 -1.9685,18.05057 -1.2148,25.69922 2.8229,6.93827 20.4611,15.47413 30.6133,7.56054 12.7555,-9.94285 -0.4829,-22.55276 -7.4649,-22.04296 14.4498,-9.14867 28.5529,2.06395 18.4063,30.5957 -5.971,16.79038 -36.6094,26.27344 -36.6094,26.27344 27.7616,6.10366 45.2181,17.14991 67.3906,27.44531 31.3543,2.89676 63.6708,-6.51317 65.7032,2.03516 24.0562,10.86957 8.4816,68.88952 50.873,122.15039 12.1864,21.68205 28.9393,40.52085 41.4922,58.85351 9.044,15.65016 19.3769,21.03711 19.3769,21.03711 l 5.5723,0.4082 c -4.8113,-8.48423 -8.0282,-19.91731 -3.2617,-23.77734 3.2748,4.58361 6.5876,9.97466 11.2773,12.5 13.2693,7.77959 12.5451,-13.04297 35.5977,-28.66797 -2.1589,-0.43903 -10.9147,-53.63649 8.1523,-89.26562 13.0206,-24.33048 17.1689,-9.06321 22.334,-3.6543 14.7391,15.43463 32.7073,31.58641 51.3067,64.79492 12.0234,-0.20969 55.5704,2.55322 110.5996,37.5 42.6193,-32.63635 52.6484,-29.2357 78.5312,-37.77148 13.8352,-4.16893 14.3939,3.76661 13.4766,18.98828 -1.4046,23.30922 -17.9782,52.71707 -30.8672,69.86914 16.5432,23.3613 1.6282,50.48334 30.4336,48.64258 23.9628,-1.53131 0,10.86914 0,10.86914 4.3479,5.07246 15.3239,-1.91809 14.1308,8.69531 l 77.7188,3.80469 -17.9356,-92.93555 c 0,-8.69565 49.9991,-789.12882 26.086,-791.302733 -7.4728,-0.679348 -68.6564,-0.935653 -149.252,-0.964844 z M 1842.7051,454.75586 c -14.2094,7.8707 -14.7588,33.37147 -13.834,45.3457 -6.6543,-5.58738 -9.7999,-21.02955 -6.1504,-38.81445 -8.1919,2.30578 -17.2207,5.38172 -23.4414,7.6875 15.4622,21.72015 9.6256,36.08805 7.3008,46.11523 14.1709,2.70562 30.2779,2.02443 43.4258,-0.38476 9.9191,-15.32981 23.2711,-29.18744 19.5996,-50.3418 -7.5572,-8.13662 -17.3755,-8.35785 -26.9004,-9.60742 z"
         style="fill:#ffffff;stroke:none;stroke-width:1px;stroke-linecap:butt;stroke-linejoin:miter;stroke-opacity:1;filter:url(#filter1237)" />
    </mask>
    <filter
       inkscape:collect="always"
       style="color-interpolation-filters:sRGB"
       id="filter1249"
       x="-0.015778313"
       width="1.0315566"
       y="-0.0096816167"
       height="1.0193632">
      <feGaussianBlur
         inkscape:collect="always"
         stdDeviation="2.8151591"
         id="feGaussianBlur1251" />
    </filter>
    <linearGradient
       inkscape:collect="always"
       xlink:href="#linearGradient1318"
       id="linearGradient1320"
       x1="2104.1665"
       y1="605.08331"
       x2="2264.5833"
       y2="675.91663"
       gradientUnits="userSpaceOnUse" />
    <filter
       inkscape:collect="always"
       style="color-interpolation-filters:sRGB"
       id="filter1360">
      <feBlend
         inkscape:collect="always"
         mode="overlay"
         in2="BackgroundImage"
         id="feBlend1362" />
    </filter>
    <linearGradient
       inkscape:collect="always"
       xlink:href="#linearGradient1380"
       id="linearGradient1409"
       gradientUnits="userSpaceOnUse"
       x1="2187.5"
       y1="734.25"
       x2="2233.3333"
       y2="850.91669"
       gradientTransform="translate(-344.71456,13.258252)" />
    <filter
       inkscape:collect="always"
       style="color-interpolation-filters:sRGB"
       id="filter1503"
       x="-0.12236799"
       width="1.244736"
       y="-0.092873601"
       height="1.1857472">
      <feGaussianBlur
         inkscape:collect="always"
         stdDeviation="19.930638"
         id="feGaussianBlur1505" />
    </filter>
    <filter
       inkscape:collect="always"
       style="color-interpolation-filters:sRGB"
       id="filter1507"
       x="-0.12236799"
       width="1.244736"
       y="-0.092873601"
       height="1.1857472">
      <feGaussianBlur
         inkscape:collect="always"
         stdDeviation="19.930638"
         id="feGaussianBlur1509" />
    </filter>
    <linearGradient
       inkscape:collect="always"
       xlink:href="#linearGradient1318"
       id="linearGradient5208"
       x1="2229.1667"
       y1="717.58337"
       x2="1999.9999"
       y2="359.25003"
       gradientUnits="userSpaceOnUse" />
    <linearGradient
       inkscape:collect="always"
       xlink:href="#linearGradient1318"
       id="linearGradient5210"
       x1="2229.1667"
       y1="717.58337"
       x2="1999.9999"
       y2="359.25003"
       gradientUnits="userSpaceOnUse" />
    <linearGradient
       inkscape:collect="always"
       xlink:href="#linearGradient1318"
       id="linearGradient5216"
       gradientUnits="userSpaceOnUse"
       x1="1941.6667"
       y1="125.91666"
       x2="2110.4167"
       y2="378" />
    <filter
       inkscape:collect="always"
       style="color-interpolation-filters:sRGB"
       id="filter5280"
       x="-0.015778313"
       width="1.0315566"
       y="-0.0096816167"
       height="1.0193632">
      <feGaussianBlur
         inkscape:collect="always"
         stdDeviation="2.8151591"
         id="feGaussianBlur5282" />
    </filter>
    <filter
       inkscape:collect="always"
       style="color-interpolation-filters:sRGB"
       id="filter5292"
       x="-0.015778311"
       width="1.0315566"
       y="-0.0096816155"
       height="1.0193632">
      <feGaussianBlur
         inkscape:collect="always"
         stdDeviation="2.8151588"
         id="feGaussianBlur5294" />
    </filter>
    <filter
       inkscape:collect="always"
       style="color-interpolation-filters:sRGB"
       id="filter5625"
       x="-0.035912391"
       width="1.0718248"
       y="-0.027901363"
       height="1.0558027">
      <feGaussianBlur
         inkscape:collect="always"
         stdDeviation="3.0517376"
         id="feGaussianBlur5627" />
    </filter>
    <filter
       inkscape:collect="always"
       style="color-interpolation-filters:sRGB"
       id="filter5629"
       x="-0.030300875"
       width="1.0606018"
       y="-0.02354162"
       height="1.0470832">
      <feGaussianBlur
         inkscape:collect="always"
         stdDeviation="3.0517376"
         id="feGaussianBlur5631" />
    </filter>
    <filter
       inkscape:collect="always"
       style="color-interpolation-filters:sRGB"
       id="filter5633"
       x="-0.01781491"
       width="1.0356298"
       y="-0.019559243"
       height="1.0391185">
      <feGaussianBlur
         inkscape:collect="always"
         stdDeviation="3.0517376"
         id="feGaussianBlur5635" />
    </filter>
    <filter
       inkscape:collect="always"
       style="color-interpolation-filters:sRGB"
       id="filter5649"
       x="-0.028280887"
       width="1.0565618"
       y="-0.020844727"
       height="1.0416895">
      <feGaussianBlur
         inkscape:collect="always"
         stdDeviation="3.0559932"
         id="feGaussianBlur5651" />
    </filter>
    <filter
       inkscape:collect="always"
       style="color-interpolation-filters:sRGB"
       id="filter5744"
       x="-0.023005401"
       width="1.0460108"
       y="-0.025084485"
       height="1.050169">
      <feGaussianBlur
         inkscape:collect="always"
         stdDeviation="2.9046941"
         id="feGaussianBlur5746" />
    </filter>
    <filter
       inkscape:collect="always"
       style="color-interpolation-filters:sRGB"
       id="filter5748"
       x="-0.023005401"
       width="1.0460108"
       y="-0.025084485"
       height="1.050169">
      <feGaussianBlur
         inkscape:collect="always"
         stdDeviation="2.9046941"
         id="feGaussianBlur5750" />
    </filter>
    <filter
       inkscape:collect="always"
       style="color-interpolation-filters:sRGB"
       id="filter5752"
       x="-0.023005401"
       width="1.0460108"
       y="-0.025084485"
       height="1.050169">
      <feGaussianBlur
         inkscape:collect="always"
         stdDeviation="2.9046941"
         id="feGaussianBlur5754" />
    </filter>
    <filter
       inkscape:collect="always"
       style="color-interpolation-filters:sRGB"
       id="filter5768"
       x="-0.047600174"
       width="1.0952003"
       y="-0.0484066"
       height="1.0968132">
      <feGaussianBlur
         inkscape:collect="always"
         stdDeviation="3.395608"
         id="feGaussianBlur5770" />
    </filter>
    <filter
       inkscape:collect="always"
       style="color-interpolation-filters:sRGB"
       id="filter5797"
       x="-0.059346164"
       width="1.1186923"
       y="-0.060668404"
       height="1.1213368">
      <feGaussianBlur
         inkscape:collect="always"
         stdDeviation="4.26297"
         id="feGaussianBlur5799" />
    </filter>
    <filter
       inkscape:collect="always"
       style="color-interpolation-filters:sRGB"
       id="filter5801"
       x="-0.059346164"
       width="1.1186923"
       y="-0.060668404"
       height="1.1213368">
      <feGaussianBlur
         inkscape:collect="always"
         stdDeviation="4.26297"
         id="feGaussianBlur5803" />
    </filter>
    <filter
       inkscape:collect="always"
       style="color-interpolation-filters:sRGB"
       id="filter5805"
       x="-0.059346164"
       width="1.1186923"
       y="-0.060668404"
       height="1.1213368">
      <feGaussianBlur
         inkscape:collect="always"
         stdDeviation="4.26297"
         id="feGaussianBlur5807" />
    </filter>
    <filter
       inkscape:collect="always"
       style="color-interpolation-filters:sRGB"
       id="filter5829"
       x="-0.058702641"
       width="1.1174053"
       y="-0.042603189"
       height="1.0852064">
      <feGaussianBlur
         inkscape:collect="always"
         stdDeviation="3.4056895"
         id="feGaussianBlur5831" />
    </filter>
    <filter
       inkscape:collect="always"
       style="color-interpolation-filters:sRGB"
       id="filter5833"
       x="-0.058702641"
       width="1.1174053"
       y="-0.042603189"
       height="1.0852064">
      <feGaussianBlur
         inkscape:collect="always"
         stdDeviation="3.4056895"
         id="feGaussianBlur5835" />
    </filter>
    <filter
       inkscape:collect="always"
       style="color-interpolation-filters:sRGB"
       id="filter5837"
       x="-0.058702641"
       width="1.1174053"
       y="-0.042603189"
       height="1.0852064">
      <feGaussianBlur
         inkscape:collect="always"
         stdDeviation="3.4056895"
         id="feGaussianBlur5839" />
    </filter>
    <filter
       inkscape:collect="always"
       style="color-interpolation-filters:sRGB"
       id="filter5857">
      <feGaussianBlur
         inkscape:collect="always"
         stdDeviation="3.1064675"
         id="feGaussianBlur5859" />
    </filter>
    <filter
       inkscape:collect="always"
       style="color-interpolation-filters:sRGB"
       id="filter5861"
       x="-0.046574271"
       width="1.0931485"
       y="-0.041116192"
       height="1.0822324">
      <feGaussianBlur
         inkscape:collect="always"
         stdDeviation="3.1064675"
         id="feGaussianBlur5863" />
    </filter>
    <filter
       inkscape:collect="always"
       style="color-interpolation-filters:sRGB"
       id="filter5865"
       x="-0.046574271"
       width="1.0931485"
       y="-0.041116192"
       height="1.0822324">
      <feGaussianBlur
         inkscape:collect="always"
         stdDeviation="3.1064675"
         id="feGaussianBlur5867" />
    </filter>
    <filter
       inkscape:collect="always"
       style="color-interpolation-filters:sRGB"
       id="filter5869"
       x="-0.046574271"
       width="1.0931485"
       y="-0.041116192"
       height="1.0822324">
      <feGaussianBlur
         inkscape:collect="always"
         stdDeviation="3.1064675"
         id="feGaussianBlur5871" />
    </filter>
    <filter
       inkscape:collect="always"
       style="color-interpolation-filters:sRGB"
       id="filter6051"
       x="-0.031182215"
       width="1.0623644"
       y="-0.019474678"
       height="1.0389494">
      <feGaussianBlur
         inkscape:collect="always"
         stdDeviation="3.7445565"
         id="feGaussianBlur6053" />
    </filter>
    <filter
       inkscape:collect="always"
       style="color-interpolation-filters:sRGB"
       id="filter5035"
       x="-0.019115142"
       width="1.0382303"
       y="-0.013176866"
       height="1.0263537">
      <feGaussianBlur
         inkscape:collect="always"
         stdDeviation="2.7492189"
         id="feGaussianBlur5037" />
    </filter>
    <filter
       inkscape:collect="always"
       style="color-interpolation-filters:sRGB"
       id="filter5055"
       x="-0.026687923"
       width="1.0533758"
       y="-0.021803973"
       height="1.0436079">
      <feGaussianBlur
         inkscape:collect="always"
         stdDeviation="2.4079879"
         id="feGaussianBlur5057" />
    </filter>
  </defs>
  <sodipodi:namedview
     pagecolor="#ffffff"
     bordercolor="#666666"
     borderopacity="1"
     objecttolerance="10"
     gridtolerance="10"
     guidetolerance="10"
     inkscape:pageopacity="0"
     inkscape:pageshadow="2"
     inkscape:window-width="1366"
     inkscape:window-height="705"
     id="namedview4"
     showgrid="false"
     inkscape:zoom="0.33941125"
     inkscape:cx="1179.0736"
     inkscape:cy="557.15441"
     inkscape:window-x="-8"
     inkscape:window-y="-8"
     inkscape:window-maximized="1"
     inkscape:current-layer="layer1" />
  <g
     inkscape:groupmode="layer"
     id="layer2"
     inkscape:label="artwork"
     sodipodi:insensitive="true">
    <image
       sodipodi:absref="E:\Users\jamesmichael\Downloads\Compressed\eps\peppercarrot_ep16_translation-master\peppercarrot_ep16_translation-master\ph\../gfx_Pepper-and-Carrot_by-David-Revoy_E16P02.png"
       xlink:href="../gfx_Pepper-and-Carrot_by-David-Revoy_E16P02.png"
       width="2481"
       height="3503"
       id="image10"
       x="0"
       y="0" />
  </g>
  <g
     inkscape:groupmode="layer"
     id="layer3"
     inkscape:label="speechbubbles"
     style="display:inline">
    <path
       style="fill:#ffffff;fill-rule:evenodd;stroke:none;stroke-width:0.85624135px;stroke-linecap:butt;stroke-linejoin:miter;stroke-opacity:1"
       d="m 96.097568,2044.3397 17.263422,16.5657 4.23519,-21.4719 10.23744,6.4871 -6.14247,-75.0437 22.52238,69.1176 2.04748,-17.9728 9.2137,24.3675 26.70636,-12.4014 5.0297,-60.1338 11.26118,50.8644 8.18995,-21.4922 5.78638,27.5955 c 0,0 1.37983,5.8508 11.61727,3.444 10.23745,-2.4068 103.95761,8.1107 122.84928,27.4464 l 10.42039,3.7647 22.9744,-8.6343 -11.15898,18.933 41.1516,-37.5834 -24.0926,51.9177 17.23438,-4.5955 -11.06831,13.8623 c 71.7659,68.5821 47.61879,137.7911 60.20832,211.7443 l 22.52237,-4.0456 -15.35616,14.463 c 6.70134,6.8815 30.78895,17.939 81.61849,-11.0639 0,0 -47.03471,46.875 -79.62721,42.3299 -7.01362,5.363 28.84682,16.1258 28.84682,16.1258 l -39.06274,7.0224 -4.28387,101.8886 25.1581,23.0552 -28.66861,-4.5523 27.05663,27.1515 -31.39339,-0.7033 -6.46202,17.6458 -5.63348,10.0525 c -11.81938,12.0575 -28.83992,38.6664 -44.6656,44.5464 0,4.4469 17.14505,49.1163 17.14505,49.1163 l -38.13447,-29.4904 17.65958,35.7863 -41.25601,-30.2588 -10.53739,-0.407 -6.14247,3.5193 c -31.73607,26.5831 -105.1619,11.3479 -117.44682,8.0103 -1.02375,0.093 -13.30867,42.707 -13.30867,42.707 l -5.63926,-37.5036 -8.69315,15.0808 -5.10138,-10.1598 -37.44689,69.2495 13.07415,-82.0028 -26.39115,34.0016 3.93644,-46.4598 -20.50004,33.5054 3.62067,-42.7868 -11.81062,4.9859 z"
       id="path4603"
       inkscape:connector-curvature="0"
       sodipodi:nodetypes="cccccccccccccssccccccccccccccccccccccccccccccccccccccccc" />
    <path
       style="color:#000000;display:inline;overflow:visible;visibility:visible;opacity:1;fill:#ffffff;fill-opacity:1;fill-rule:nonzero;stroke:none;stroke-width:0.89548582px;marker:none;enable-background:accumulate;filter:url(#filter6051)"
       d="m 1107.5162,2999.3457 c 2.5061,-72.5516 -14.4547,-106.5042 17.6529,-131.0902 32.1077,-24.5858 141.8357,-38.4691 152.3461,-32.049 10.5101,6.42 82.9757,-1.5961 95.6523,33.8411 12.6767,35.4369 9.2057,114.6144 13.0746,161.0079 3.8691,46.3936 7.1265,153.1352 -4.4244,178.9208 -11.5509,25.7851 -37.8725,80.5825 -68.871,86.0964 -6.2016,1.1032 29.5053,-21.4162 23.8433,-61.6112 -2.3765,-16.8708 -17.2871,-32.3256 -38.4122,-44.3777 -6.4473,-3.6783 -19.1413,-1.1357 -25.047,-5.7066 -14.9126,-11.5422 -9.2274,-15.1147 -25.708,-14.1542 3.9186,-8.7957 -3.294,-12.2064 -6.8863,-12.078 -3.7533,0.1342 -6.1231,0.7295 -6.5341,13.1019 -10.9111,-0.061 -28.0639,9.7263 -25.8657,22.9035 -7.5806,-1.6201 -17.9342,-2.7666 -23.7187,2.601 -8.7337,8.1042 -10.384,24.3931 -2.8152,23.3876 18.4573,-2.452 -22.6329,0.7431 -31.28,-1.5214 -9.8625,-2.5829 38.1453,66.8986 30.277,63.8855 -7.7058,-2.9509 -14.054,-5.9964 -18.2583,-8.9181 -20.6252,-14.3327 -42.4819,-32.9426 -49.1931,-83.4781 -6.7115,-50.5356 -19.1454,-116.6511 -5.8322,-190.7612 z"
       id="path3533"
       inkscape:connector-curvature="0"
       sodipodi:nodetypes="cccccccssscsccssssccc"
       transform="matrix(1,0,0,0.99114025,0,25.114227)" />
    <path
       style="fill:#ffffff;stroke:none;stroke-width:0.73788762"
       d="m 1520.8571,3043.0677 c -18.6378,20.4387 -28.7433,14.6206 -40.1438,7.0296 -11.4007,-7.5909 -21.4969,-15.723 -27.7259,-13.9087 -6.229,1.8141 -11.2852,8.9175 -14.1674,15.1186 -2.8823,6.2014 -10.0327,2.2758 -18.0489,-1.3289 -8.0161,-3.6047 -49.6892,-11.3803 -49.6892,-11.3803 0,0 29.2967,28.2733 39.5818,34.402 10.285,6.1287 14.0378,8.4219 18.3011,9.7335 4.2633,1.3113 14.5666,2.812 19.3963,-1.887 4.8296,-4.6991 6.237,-12.9836 8.7887,-17.8925 2.5516,-4.909 11.477,-5.3009 20.5046,-1.3457 9.0276,3.9552 29.4646,9.6451 36.1558,0.7085 6.6913,-8.9366 7.0469,-19.2491 7.0469,-19.2491 z"
       id="path3023"
       inkscape:connector-curvature="0"
       sodipodi:nodetypes="csssscssssssc" />
    <path
       style="color:#000000;display:inline;overflow:visible;visibility:visible;opacity:0.16499999;fill:url(#linearGradient5216);fill-opacity:1;fill-rule:nonzero;stroke:none;stroke-width:1.2086333px;marker:none;filter:url(#filter5292);enable-background:accumulate"
       d="m 2329.2757,446.75447 c -1.5372,128.54923 -15.5457,241.27398 -61.5105,310.33208 -17.1474,23.74534 -42.6621,42.96624 -73.0313,60.6326 -22.6402,8.75442 -48.9027,12.51419 -79.3214,10.51661 -29.9531,-1.96701 -56.7661,-7.72938 -80.4394,-18.24092 -5.4963,-2.51345 -18.8691,-9.41443 -26.0966,-14.41102 -71.5089,-48.25843 -107.4354,-154.53149 -107.8017,-355.21264 -0.6452,-353.574039 149.8155,-307.44984 226.8057,-307.53736 55.4338,5.94392 200.8585,-20.71155 201.3991,313.92065 z"
       id="path5212"
       inkscape:connector-curvature="0"
       sodipodi:nodetypes="cccsccsccc"
       mask="url(#mask1241)" />
  </g>
  <g
     inkscape:groupmode="layer"
     id="layer4"
     inkscape:label="speechbubbles 2"
     style="display:inline;">
    <g
       id="g970"
       style="display:inline;opacity:0.857;filter:url(#filter5035)">
      <path
         sodipodi:nodetypes="csscc"
         inkscape:connector-curvature="0"
         id="path4546"
         d="M 586.65684,381.58923 C 589.45548,228.79828 616.31227,138.25134 746.2884,144.54784 853.72743,149.75255 906.53025,189.58058 901.28789,386.0168 893.34344,683.70275 868.09302,592.41662 739.84897,629.3005 698.03263,625.6708 588.00493,660.14975 586.65684,381.58923 Z"
         style="color:#000000;display:inline;overflow:visible;visibility:visible;fill:#ffffff;fill-opacity:1;fill-rule:nonzero;stroke:none;stroke-width:1.07269657px;marker:none;enable-background:accumulate" />
      <path
         sodipodi:nodetypes="cscc"
         inkscape:connector-curvature="0"
         id="path5002"
         d="m 931.83478,575.22804 c -38.2737,57.44988 -86.6543,84.02932 -109.3468,62.08778 -22.6925,-21.94154 8.1472,-48.66707 8.1472,-48.66707 0,0 44.0142,59.7052 101.1996,-13.42071 z"
         style="color:#000000;display:inline;overflow:visible;visibility:visible;fill:#ffffff;fill-opacity:1;fill-rule:nonzero;stroke:none;stroke-width:0.75433785px;marker:none;enable-background:accumulate" />
    </g>
    <path
       style="color:#000000;display:inline;overflow:visible;visibility:visible;opacity:0.67299996;fill:url(#linearGradient1320);fill-opacity:1;fill-rule:nonzero;stroke:none;stroke-width:1.2086333px;marker:none;filter:url(#filter5280);enable-background:accumulate"
       d="m 2329.2757,446.75447 c -1.5372,128.54923 -15.5457,241.27398 -61.5105,310.33208 -17.1474,23.74534 -42.6621,42.96624 -73.0313,60.6326 -22.6402,8.75442 -48.9027,12.51419 -79.3214,10.51661 -29.9531,-1.96701 -56.7661,-7.72938 -80.4394,-18.24092 -5.4963,-2.51345 -18.8691,-9.41443 -26.0966,-14.41102 -36.6744,-24.75003 -63.9895,-64.75964 -81.9484,-124.93825 -2.2946,-7.68892 -44.0197,-13.62376 -85.5922,-50.10643 31.9312,9.52335 75.5512,13.3259 72.5268,-6.31966 -7.4038,-48.09211 -12.663,-105.39602 -12.7879,-173.8483 -0.6454,-353.574039 149.8155,-307.44984 226.8057,-307.53736 55.4338,5.94392 200.8585,-20.71155 201.3991,313.92065 z"
       id="path4546-3"
       inkscape:connector-curvature="0"
       sodipodi:nodetypes="cccsccscssccc"
       mask="url(#mask1241)" />
    <g
       id="g1275"
       style="display:inline;opacity:0.891;filter:url(#filter5055)">
      <path
         inkscape:connector-curvature="0"
         id="path4365"
         d="m 281.21096,1341.3538 c 12.63943,-124.591 76.76493,-139.3084 122.63165,-127.3379 51.58502,-28.5245 131.12368,123.177 74.27245,226.1577 -54.40361,53.9996 -121.4489,43.7892 -174.17112,-14.2829 -12.17974,-19.0516 -22.00931,-49.431 -22.73298,-84.5369 z"
         style="fill:#ffffff;fill-rule:evenodd;stroke:none;stroke-width:1.06073666px;stroke-linecap:butt;stroke-linejoin:miter;stroke-opacity:1" />
      <path
         sodipodi:nodetypes="csssscssssssc"
         inkscape:connector-curvature="0"
         id="path3023-2"
         d="m 490.86131,1446.5373 c -17.8323,9.6028 -19.1744,3.8282 -18.8132,-6.2084 0.36099,-10.0365 1.98717,-20.4134 -3.34042,-19.6012 -5.32739,0.8123 -14.86979,7.4177 -22.30365,13.4557 -7.43389,6.038 -3.21827,-5.4861 -4.57007,-10.7132 -1.35189,-5.2272 -23.30349,-14.7112 -23.30349,-14.7112 0,0 -9.05199,35.0493 -8.71089,43.3439 0.34093,8.2945 0.41263,11.3813 1.69268,13.5218 1.28028,2.1403 5.92074,5.5509 13.10251,1.4442 7.18177,-4.1066 15.68308,-12.6061 21.72574,-17.3381 6.04278,-4.7323 7.04571,1.8535 8.66484,7.6301 1.61905,5.7765 4.22012,9.6933 16.63833,4.7348 10.64466,-4.2501 19.21762,-15.5584 19.21762,-15.5584 z"
         style="fill:#ffffff;stroke:none;stroke-width:0.94711953" />
    </g>
    <g
       style="display:inline;opacity:0.935"
       id="g5452">
      <path
         sodipodi:nodetypes="cssccc"
         inkscape:connector-curvature="0"
         id="path3280-8"
         d="m 2145.8092,1479.9935 c -1.1664,-54.5548 19.7481,-191.1275 121.7677,-180.8549 102.0199,10.2725 133.9504,70.281 136.94,167.2524 3.2579,105.673 -5.6499,152.0616 -61.9211,184.0564 -48.1149,-19.8626 -91.6678,-18.0538 -143.439,-10.2148 -33.9672,-36.9942 -54.1027,-99.8786 -53.3476,-160.2391 z"
         style="fill:#ffffff;stroke:none;stroke-width:0.81695199;filter:url(#filter5649)"
         transform="matrix(1.0485035,0,0,1.0441235,-116.99561,-73.16316)" />
      <path
         style="fill:#ffffff;stroke:none;stroke-width:1.02919674;filter:url(#filter5633)"
         d="m 1770.8357,1288.3268 c -1.8512,-54.5548 31.3422,-191.1275 193.2573,-180.8549 161.9156,10.2725 212.5924,70.281 217.3372,167.2524 7.5062,153.4058 -77.6773,194.4011 -199.9932,205.7636 -126.0943,11.714 -212.5583,-93.589 -210.6013,-192.1611 z"
         id="path5442"
         inkscape:connector-curvature="0"
         sodipodi:nodetypes="csssc"
         transform="matrix(1.077474,0,0,1,-169.03971,0)" />
      <path
         sodipodi:nodetypes="csssc"
         inkscape:connector-curvature="0"
         id="path5444"
         d="m 1536.5771,1285.6296 c -1.0884,-45.3261 18.4271,-158.7958 113.6225,-150.2609 95.1957,8.5348 124.9903,58.392 127.7799,138.9594 4.4132,127.4552 -45.6691,161.5156 -117.5828,170.956 -74.1351,9.7324 -124.9702,-77.7572 -123.8196,-159.6545 z"
         style="fill:#ffffff;stroke:none;stroke-width:0.71931738;filter:url(#filter5629)" />
      <path
         style="fill:#ffffff;stroke:none;stroke-width:0.60692;filter:url(#filter5625)"
         d="m 1335.6912,1272.3912 c -0.9183,-38.2437 15.5478,-133.9831 95.8684,-126.7818 80.3208,7.2012 105.4598,49.2679 107.8135,117.2462 3.7236,107.5396 -38.533,136.2779 -99.2098,144.2432 -62.5511,8.2116 -105.4429,-65.6072 -104.4721,-134.7076 z"
         id="path5446"
         inkscape:connector-curvature="0"
         sodipodi:nodetypes="csssc"
         transform="matrix(1.0698118,0,0,1,-93.244535,0)" />
    </g>
    <path
       style="color:#000000;display:inline;overflow:visible;visibility:visible;fill:#ffffff;fill-opacity:1;fill-rule:nonzero;stroke:none;stroke-width:1px;marker:none;filter:url(#filter5768);enable-background:accumulate"
       d="m 1171.8529,1402.4439 c 11.1145,-52.0341 49.4885,-48.0105 61.0024,-50.7043 11.5139,-2.6938 53.2465,-12.1003 59.6337,-55.0276 6.3873,-42.9274 50.5704,-62.6224 50.5704,-62.6224 l -8.1471,64.4127 c 0,0 -26.1867,43.4877 -51.8954,55.4317 -25.7088,11.9439 -66.72,11.6091 -78.3208,20.0382 -11.601,8.429 -26.2997,13.0823 -32.8432,28.4717 z"
       id="path4018"
       inkscape:connector-curvature="0" />
  </g>
  <g
     style="display:inline;opacity:0.68599997;filter:url(#filter1360)"
     inkscape:label="speechbubbles 2 copy"
     id="g1372"
     inkscape:groupmode="layer">
    <path
       mask="url(#mask1241)"
       sodipodi:nodetypes="cccsccssscssccc"
       inkscape:connector-curvature="0"
       id="path1370"
       d="m 2329.2757,446.75447 c -1.5372,128.54923 -15.5457,241.27398 -61.5105,310.33208 -17.1474,23.74534 -42.6621,42.96624 -73.0313,60.6326 -22.6402,8.75442 -48.9027,12.51419 -79.3214,10.51661 -29.9531,-1.96701 -56.7661,-7.72938 -80.4394,-18.24092 -5.4963,-2.51345 -18.8691,-9.41443 -26.0966,-14.41102 -26.4663,-17.86104 -48.0585,-43.6691 -64.7775,-79.2693 -3.2134,-6.84237 -6.2468,-14.04646 -9.1002,-21.62539 -2.8176,-7.48381 -5.4597,-15.33311 -7.9262,-23.56049 -3.0669,-10.22991 -47.5291,-3.33604 -88.595,-51.21763 50.3264,6.08538 81.1947,15.58913 72.8132,-21.5218 -9.9384,-44.00422 -10.1045,-96.94306 -10.216,-158.01803 -0.6452,-353.574039 149.8155,-307.44984 226.8057,-307.53736 55.4338,5.94392 200.8585,-20.71155 201.3991,313.92065 z"
       style="color:#000000;display:inline;overflow:visible;visibility:visible;opacity:0.71600001;fill:url(#linearGradient1320);fill-opacity:1;fill-rule:nonzero;stroke:none;stroke-width:1.2086333px;marker:none;filter:url(#filter1249);enable-background:accumulate" />
  </g>
  <g
     inkscape:groupmode="layer"
     id="layer1"
     inkscape:label="txt"
     style="display:inline">
    <text
       xml:space="preserve"
       style="font-style:normal;font-variant:normal;font-weight:normal;font-stretch:normal;line-height:1;font-family:Lavi;-inkscape-font-specification:Lavi;text-align:center;letter-spacing:0px;word-spacing:0px;text-anchor:middle;fill:#000000;fill-opacity:1;stroke:none"
       x="753.13934"
       y="243.17488"
       id="text4246-42"><tspan
         sodipodi:role="line"
         style="font-size:45px;line-height:1;fill:#000000"
         x="761.0495"
         y="243.17488"
         id="tspan879">May mga </tspan><tspan
         sodipodi:role="line"
         style="font-size:45px;line-height:1;fill:#000000"
         x="761.0495"
         y="288.17487"
         id="tspan1106">bagay na </tspan><tspan
         sodipodi:role="line"
         style="font-size:45px;line-height:1;fill:#000000"
         x="761.0495"
         y="333.17487"
         id="tspan1118">ikaw ang </tspan><tspan
         sodipodi:role="line"
         style="font-size:45px;line-height:1;fill:#000000"
         x="761.0495"
         y="378.17487"
         id="tspan1088">dapat </tspan><tspan
         sodipodi:role="line"
         style="font-size:45px;line-height:1;fill:#000000"
         x="753.13934"
         y="423.17487"
         id="tspan1130">gumawa</tspan><tspan
         sodipodi:role="line"
         style="font-size:45px;line-height:1;fill:#000000"
         x="753.13934"
         y="468.1749"
         id="tspan1128">...</tspan><tspan
         sodipodi:role="line"
         style="font-size:45px;line-height:1;fill:#000000"
         x="761.0495"
         y="513.17493"
         id="tspan1126">Ayusin mo to </tspan><tspan
         sodipodi:role="line"
         style="font-size:45px;line-height:1;fill:#000000"
         x="761.0495"
         y="558.17493"
         id="tspan1108">ng mag-isa. </tspan></text>
    <text
       xml:space="preserve"
       style="font-style:normal;font-variant:normal;font-weight:normal;font-stretch:normal;line-height:0%;font-family:Lavi;-inkscape-font-specification:Lavi;text-align:center;letter-spacing:0px;word-spacing:0px;text-anchor:middle;display:inline;fill:#ffffff;fill-opacity:1;stroke:none;filter:url(#filter5805)"
       x="390.59958"
       y="1275.6954"
       id="text4246-4-3"><tspan
         sodipodi:role="line"
         style="font-size:45px;line-height:1.25;fill:#ffffff"
         x="398.50974"
         y="1275.6954"
         id="tspan4253-3"> </tspan><tspan
         sodipodi:role="line"
         style="font-size:45px;line-height:1.25;fill:#ffffff"
         x="390.59958"
         y="1331.9454"
         id="tspan4261-5">P-please</tspan><tspan
         sodipodi:role="line"
         style="font-size:45px;line-height:1.25;fill:#ffffff"
         x="390.59958"
         y="1388.1954"
         id="tspan4324">Saffron</tspan><tspan
         sodipodi:role="line"
         style="font-size:45px;line-height:1.25;fill:#ffffff"
         x="390.59958"
         y="1444.4454"
         id="tspan1267">...</tspan></text>
    <text
       xml:space="preserve"
       style="font-style:normal;font-variant:normal;font-weight:normal;font-stretch:normal;font-size:12.67523861px;line-height:1;font-family:Lavi;-inkscape-font-specification:Lavi;text-align:center;letter-spacing:0px;word-spacing:0px;text-anchor:middle;display:inline;fill:#000000;fill-opacity:1;stroke:none;stroke-width:1.05626988"
       x="259.87146"
       y="2109.4907"
       id="text4246-4-3-4"><tspan
         sodipodi:role="line"
         style="font-size:47.53214645px;line-height:1;stroke-width:1.05626988"
         x="268.22672"
         y="2109.4907"
         id="tspan4253-3-4"> </tspan><tspan
         sodipodi:role="line"
         style="font-size:47.53214645px;line-height:1;stroke-width:1.05626988"
         x="259.87146"
         y="2157.0229"
         id="tspan4356">Pepper,</tspan><tspan
         sodipodi:role="line"
         style="font-size:47.53214645px;line-height:1;stroke-width:1.05626988"
         x="259.87146"
         y="2204.5549"
         id="tspan3516">isa kang <tspan
   style="fill:#800000"
   id="tspan5875">W</tspan><tspan
   style="font-style:italic;font-weight:bold;line-height:1;fill:#501616;stroke-width:1.05626988"
   id="tspan3503">itch</tspan>,</tspan><tspan
         sodipodi:role="line"
         style="font-size:47.53214645px;line-height:1;stroke-width:1.05626988"
         x="259.87146"
         y="2252.0872"
         id="tspan3514">umayos ka!</tspan></text>
    <text
       xml:space="preserve"
       style="font-style:normal;font-variant:normal;font-weight:normal;font-stretch:normal;font-size:17.95721626px;line-height:1;font-family:Lavi;-inkscape-font-specification:Lavi;text-align:center;letter-spacing:0px;word-spacing:0px;text-anchor:middle;display:inline;fill:#d40000;fill-opacity:1;stroke:none;stroke-width:1.49643469;stroke-miterlimit:4;stroke-dasharray:none"
       x="1189.4167"
       y="2493.2717"
       id="text4246-4-3-4-7"
       transform="skewX(-20.464334)"><tspan
         sodipodi:role="line"
         style="font-size:67.33956146px;line-height:1;fill:#d40000;stroke:#d40000;stroke-width:1.49643469;stroke-miterlimit:4;stroke-dasharray:none;stroke-opacity:1"
         x="1201.2538"
         y="2493.2717"
         id="tspan1271">BIG GIRL </tspan><tspan
         sodipodi:role="line"
         style="font-size:67.33956146px;line-height:1;fill:#d40000;stroke:#d40000;stroke-width:1.49643469;stroke-miterlimit:4;stroke-dasharray:none;stroke-opacity:1"
         x="1189.4167"
         y="2560.6113"
         id="tspan5655">KA NA!</tspan></text>
    <text
       xml:space="preserve"
       style="font-style:normal;font-variant:normal;font-weight:normal;font-stretch:normal;font-size:17.95721626px;line-height:0.89999998;font-family:Lavi;-inkscape-font-specification:Lavi;text-align:center;letter-spacing:0px;word-spacing:0px;text-anchor:middle;display:inline;fill:#000000;fill-opacity:1;stroke:none;stroke-width:1.49643469"
       x="255.97197"
       y="2337.1545"
       id="text4246-4-3-4-7-0"><tspan
         sodipodi:role="line"
         style="font-size:67.33956146px;line-height:0.89999998;stroke-width:1.49643469"
         x="267.80899"
         y="2337.1545"
         id="tspan4434">Diretsuhin </tspan><tspan
         sodipodi:role="line"
         style="font-size:67.33956146px;line-height:0.89999998;stroke-width:1.49643469"
         x="255.97197"
         y="2397.7603"
         id="tspan1269">mo sila!</tspan></text>
    <text
       xml:space="preserve"
       style="font-style:normal;font-variant:normal;font-weight:normal;font-stretch:normal;line-height:1;font-family:Lavi;-inkscape-font-specification:Lavi;text-align:center;letter-spacing:0px;word-spacing:0px;text-anchor:middle;display:inline;fill:#000000;fill-opacity:1;stroke:none"
       x="2268.0613"
       y="1399.6528"
       id="text4246-4-3-5-1"><tspan
         sodipodi:role="line"
         style="font-size:45px;line-height:1"
         x="2275.9714"
         y="1399.6528"
         id="tspan3499">Hindi mo </tspan><tspan
         sodipodi:role="line"
         style="font-size:45px;line-height:1"
         x="2275.9714"
         y="1444.6528"
         id="tspan5412">ba talaga </tspan><tspan
         sodipodi:role="line"
         style="font-size:45px;line-height:1"
         x="2268.0613"
         y="1489.6528"
         id="tspan5414">ako tu-</tspan><tspan
         sodipodi:role="line"
         style="font-size:45px;line-height:1"
         x="2275.9714"
         y="1534.6528"
         id="tspan5416">tulungan  </tspan><tspan
         sodipodi:role="line"
         style="font-size:45px;line-height:1"
         x="2268.0613"
         y="1579.6528"
         id="tspan5430">please?</tspan></text>
    <text
       xml:space="preserve"
       style="font-style:normal;font-variant:normal;font-weight:normal;font-stretch:normal;line-height:0%;font-family:Lavi;-inkscape-font-specification:Lavi;text-align:center;letter-spacing:0px;word-spacing:0px;text-anchor:middle;display:inline;fill:#1a1a1a;fill-opacity:1;stroke:none"
       x="1243.7258"
       y="2921.5386"
       id="text4246-4-3-5-1-7"><tspan
         sodipodi:role="line"
         style="font-size:45px;line-height:1;fill:#1a1a1a"
         x="1243.7258"
         y="2921.5386"
         id="tspan4482-9">Oo na po!</tspan><tspan
         sodipodi:role="line"
         style="font-size:16px;line-height:1;fill:#ffffff"
         x="1243.7258"
         y="2943.6096"
         id="tspan5674">.</tspan><tspan
         sodipodi:role="line"
         style="font-size:16px;line-height:1;fill:#1a1a1a"
         x="1243.7258"
         y="2950.447"
         id="tspan5676" /><tspan
         sodipodi:role="line"
         style="font-size:45px;line-height:1;fill:#1a1a1a"
         x="1251.636"
         y="2982.5386"
         id="tspan5661">Sasamahan </tspan><tspan
         sodipodi:role="line"
         style="font-size:45px;line-height:1;fill:#1a1a1a"
         x="1251.636"
         y="3027.5386"
         id="tspan5663">na kita para </tspan><tspan
         sodipodi:role="line"
         style="font-size:45px;line-height:1;fill:#1a1a1a"
         x="1251.636"
         y="3072.5386"
         id="tspan5672">matapos </tspan><tspan
         sodipodi:role="line"
         style="font-size:45px;line-height:1;fill:#1a1a1a"
         x="1243.7258"
         y="3117.5386"
         id="tspan5665">na.</tspan></text>
    <text
       id="text1453"
       y="207.11946"
       x="2110.4771"
       style="font-style:normal;font-variant:normal;font-weight:normal;font-stretch:normal;line-height:0%;font-family:Lavi;-inkscape-font-specification:Lavi;text-align:center;letter-spacing:0px;word-spacing:0px;text-anchor:middle;display:inline;fill:url(#linearGradient5208);fill-opacity:1;stroke:none;filter:url(#filter1503)"
       xml:space="preserve"><tspan
         id="tspan1431"
         y="207.11946"
         x="2118.3872"
         style="font-size:45px;line-height:1.25;fill:url(#linearGradient5208);fill-opacity:1"
         sodipodi:role="line"> </tspan><tspan
         id="tspan1433"
         y="263.36945"
         x="2118.3872"
         style="font-size:45px;line-height:1.25;fill:url(#linearGradient5208);fill-opacity:1"
         sodipodi:role="line">Personally, </tspan><tspan
         id="tspan1435"
         y="319.61945"
         x="2118.3872"
         style="font-size:45px;line-height:1.25;fill:url(#linearGradient5208);fill-opacity:1"
         sodipodi:role="line">hindi ako </tspan><tspan
         id="tspan1437"
         y="375.86945"
         x="2118.3872"
         style="font-size:45px;line-height:1.25;fill:url(#linearGradient5208);fill-opacity:1"
         sodipodi:role="line">puma-pagitna </tspan><tspan
         id="tspan1439"
         y="432.11945"
         x="2118.3872"
         style="font-size:45px;line-height:1.25;fill:url(#linearGradient5208);fill-opacity:1"
         sodipodi:role="line">at nakikialam sa </tspan><tspan
         id="tspan1441"
         y="488.36945"
         x="2110.4771"
         style="font-size:45px;line-height:1.25;fill:url(#linearGradient5208);fill-opacity:1"
         sodipodi:role="line">mga problema,</tspan><tspan
         id="tspan1443"
         y="544.61945"
         x="2110.4771"
         style="font-size:45px;line-height:1.25;fill:url(#linearGradient5208);fill-opacity:1"
         sodipodi:role="line">kahit pa sa kaibigan</tspan><tspan
         id="tspan1445"
         y="600.86945"
         x="2118.3872"
         style="font-size:45px;line-height:1.25;fill:url(#linearGradient5208);fill-opacity:1"
         sodipodi:role="line">lalo lang lalala </tspan><tspan
         id="tspan1447"
         y="657.11945"
         x="2118.3872"
         style="font-size:45px;line-height:1.25;fill:url(#linearGradient5208);fill-opacity:1"
         sodipodi:role="line">yan pag may </tspan><tspan
         id="tspan1449"
         y="675.65302"
         x="2110.4771"
         style="font-size:45px;line-height:1.25;fill:url(#linearGradient5208);fill-opacity:1"
         sodipodi:role="line" /><tspan
         id="tspan1451"
         y="713.36945"
         x="2110.4771"
         style="font-size:45px;line-height:1.25;fill:url(#linearGradient5208);fill-opacity:1"
         sodipodi:role="line">taga-sabat</tspan></text>
    <text
       xml:space="preserve"
       style="font-style:normal;font-variant:normal;font-weight:normal;font-stretch:normal;line-height:0%;font-family:Lavi;-inkscape-font-specification:Lavi;text-align:center;letter-spacing:0px;word-spacing:0px;text-anchor:middle;fill:url(#linearGradient5210);fill-opacity:1;stroke:none;filter:url(#filter1507)"
       x="2110.4771"
       y="207.11946"
       id="text4246-4"><tspan
         sodipodi:role="line"
         style="font-size:45px;line-height:1.25;fill:url(#linearGradient5210);fill-opacity:1"
         x="2118.3872"
         y="207.11946"
         id="tspan4253"> </tspan><tspan
         sodipodi:role="line"
         style="font-size:45px;line-height:1.25;fill:url(#linearGradient5210);fill-opacity:1"
         x="2118.3872"
         y="263.36945"
         id="tspan3455">Personally, </tspan><tspan
         sodipodi:role="line"
         style="font-size:45px;line-height:1.25;fill:url(#linearGradient5210);fill-opacity:1"
         x="2118.3872"
         y="319.61945"
         id="tspan883">hindi ako </tspan><tspan
         sodipodi:role="line"
         style="font-size:45px;line-height:1.25;fill:url(#linearGradient5210);fill-opacity:1"
         x="2118.3872"
         y="375.86945"
         id="tspan885">puma-pagitna </tspan><tspan
         sodipodi:role="line"
         style="font-size:45px;line-height:1.25;fill:url(#linearGradient5210);fill-opacity:1"
         x="2118.3872"
         y="432.11945"
         id="tspan887">at nakikialam sa </tspan><tspan
         sodipodi:role="line"
         style="font-size:45px;line-height:1.25;fill:url(#linearGradient5210);fill-opacity:1"
         x="2110.4771"
         y="488.36945"
         id="tspan889">mga problema,</tspan><tspan
         sodipodi:role="line"
         style="font-size:45px;line-height:1.25;fill:url(#linearGradient5210);fill-opacity:1"
         x="2110.4771"
         y="544.61945"
         id="tspan3461">kahit pa sa kaibigan</tspan><tspan
         sodipodi:role="line"
         style="font-size:45px;line-height:1.25;fill:url(#linearGradient5210);fill-opacity:1"
         x="2118.3872"
         y="600.86945"
         id="tspan3465">lalo lang lalala </tspan><tspan
         sodipodi:role="line"
         style="font-size:45px;line-height:1.25;fill:url(#linearGradient5210);fill-opacity:1"
         x="2118.3872"
         y="657.11945"
         id="tspan895">yan pag may </tspan><tspan
         sodipodi:role="line"
         style="font-size:45px;line-height:1.25;fill:url(#linearGradient5210);fill-opacity:1"
         x="2110.4771"
         y="675.65302"
         id="tspan899" /><tspan
         sodipodi:role="line"
         style="font-size:45px;line-height:1.25;fill:url(#linearGradient5210);fill-opacity:1"
         x="2110.4771"
         y="713.36945"
         id="tspan901">taga-sabat</tspan></text>
    <text
       id="text5326"
       y="1275.6954"
       x="390.59958"
       style="font-style:normal;font-variant:normal;font-weight:normal;font-stretch:normal;line-height:0%;font-family:Lavi;-inkscape-font-specification:Lavi;text-align:center;letter-spacing:0px;word-spacing:0px;text-anchor:middle;display:inline;fill:#ffffff;fill-opacity:1;stroke:none;filter:url(#filter5801)"
       xml:space="preserve"><tspan
         id="tspan5318"
         y="1275.6954"
         x="398.50974"
         style="font-size:45px;line-height:1.25;fill:#ffffff"
         sodipodi:role="line"> </tspan><tspan
         id="tspan5320"
         y="1331.9454"
         x="390.59958"
         style="font-size:45px;line-height:1.25;fill:#ffffff"
         sodipodi:role="line">P-please</tspan><tspan
         id="tspan5322"
         y="1388.1954"
         x="390.59958"
         style="font-size:45px;line-height:1.25;fill:#ffffff"
         sodipodi:role="line">Saffron</tspan><tspan
         id="tspan5324"
         y="1444.4454"
         x="390.59958"
         style="font-size:45px;line-height:1.25;fill:#ffffff"
         sodipodi:role="line">...</tspan></text>
    <text
       xml:space="preserve"
       style="font-style:normal;font-variant:normal;font-weight:normal;font-stretch:normal;line-height:0%;font-family:Lavi;-inkscape-font-specification:Lavi;text-align:center;letter-spacing:0px;word-spacing:0px;text-anchor:middle;display:inline;fill:#ffffff;fill-opacity:1;stroke:none;filter:url(#filter5797)"
       x="390.59958"
       y="1275.6954"
       id="text5336"><tspan
         sodipodi:role="line"
         style="font-size:45px;line-height:1.25;fill:#ffffff"
         x="398.50974"
         y="1275.6954"
         id="tspan5328"> </tspan><tspan
         sodipodi:role="line"
         style="font-size:45px;line-height:1.25;fill:#ffffff"
         x="390.59958"
         y="1331.9454"
         id="tspan5330">P-please</tspan><tspan
         sodipodi:role="line"
         style="font-size:45px;line-height:1.25;fill:#ffffff"
         x="390.59958"
         y="1388.1954"
         id="tspan5332">Saffron</tspan><tspan
         sodipodi:role="line"
         style="font-size:45px;line-height:1.25;fill:#ffffff"
         x="390.59958"
         y="1444.4454"
         id="tspan5334">...</tspan></text>
    <text
       id="text5304"
       y="1275.1033"
       x="390.94165"
       style="font-style:normal;font-variant:normal;font-weight:normal;font-stretch:normal;line-height:0%;font-family:Lavi;-inkscape-font-specification:Lavi;text-align:center;letter-spacing:0px;word-spacing:0px;text-anchor:middle;display:inline;fill:#000000;fill-opacity:1;stroke:none"
       xml:space="preserve"><tspan
         id="tspan5296"
         y="1275.1033"
         x="398.85181"
         style="font-size:45px;line-height:1.25;fill:#000000"
         sodipodi:role="line"> </tspan><tspan
         id="tspan5298"
         y="1331.3533"
         x="390.94165"
         style="font-size:45px;line-height:1.25;fill:#000000"
         sodipodi:role="line">P-please</tspan><tspan
         id="tspan5300"
         y="1387.6033"
         x="390.94165"
         style="font-size:45px;line-height:1.25;fill:#000000"
         sodipodi:role="line">Saffron</tspan><tspan
         id="tspan5302"
         y="1443.8533"
         x="390.94165"
         style="font-size:45px;line-height:1.25;fill:#000000"
         sodipodi:role="line">...</tspan></text>
    <flowRoot
       xml:space="preserve"
       id="flowRoot5357"
       style="font-style:normal;font-variant:normal;font-weight:normal;font-stretch:normal;font-size:42.66666794px;line-height:1.25;font-family:Lavi;-inkscape-font-specification:Lavi;letter-spacing:0px;word-spacing:0px;fill:#000000;fill-opacity:1;stroke:none"
       transform="translate(538.54386,-128.40533)"><flowRegion
         id="flowRegion5359"
         style="font-style:normal;font-variant:normal;font-weight:normal;font-stretch:normal;font-size:42.66666794px;font-family:Lavi;-inkscape-font-specification:Lavi"><rect
           id="rect5361"
           width="302.08337"
           height="283.33328"
           x="1366.6666"
           y="1459.25"
           style="font-style:normal;font-variant:normal;font-weight:normal;font-stretch:normal;font-size:42.66666794px;font-family:Lavi;-inkscape-font-specification:Lavi" /></flowRegion><flowPara
         id="flowPara5363"
         style="font-style:normal;font-variant:normal;font-weight:normal;font-stretch:normal;font-size:42.66666794px;font-family:Lavi;-inkscape-font-specification:Lavi;text-align:center;text-anchor:middle" /></flowRoot>    <flowRoot
       transform="translate(-33.078403,-282.56456)"
       style="font-style:normal;font-variant:normal;font-weight:normal;font-stretch:normal;font-size:40px;line-height:1;font-family:Lavi;-inkscape-font-specification:Lavi;text-align:center;letter-spacing:0px;word-spacing:0px;text-anchor:middle;fill:#ffffff;fill-opacity:1;stroke:none;filter:url(#filter5837)"
       id="flowRoot5371"
       xml:space="preserve"><flowRegion
         id="flowRegion5367"
         style="font-style:normal;font-variant:normal;font-weight:normal;font-stretch:normal;font-size:40px;line-height:1;font-family:Lavi;-inkscape-font-specification:Lavi;text-align:center;text-anchor:middle;fill:#ffffff;fill-opacity:1"><rect
           y="1459.25"
           x="1366.6666"
           height="287.49991"
           width="210.41667"
           id="rect5365"
           style="font-style:normal;font-variant:normal;font-weight:normal;font-stretch:normal;font-size:40px;line-height:1;font-family:Lavi;-inkscape-font-specification:Lavi;text-align:center;text-anchor:middle;fill:#ffffff;fill-opacity:1" /></flowRegion><flowPara
         id="flowPara5369">wala </flowPara><flowPara
         id="flowPara5440">naman silang tinuturo sakin</flowPara></flowRoot>    <flowRoot
       transform="translate(448.86326,-298.93203)"
       style="font-style:normal;font-variant:normal;font-weight:normal;font-stretch:normal;font-size:40px;line-height:1;font-family:Lavi;-inkscape-font-specification:Lavi;letter-spacing:0px;word-spacing:0px;fill:#ffffff;fill-opacity:1;stroke:none;filter:url(#filter5752)"
       id="flowRoot5379"
       xml:space="preserve"><flowRegion
         id="flowRegion5375"
         style="font-style:normal;font-variant:normal;font-weight:normal;font-stretch:normal;font-size:40px;line-height:1;font-family:Lavi;-inkscape-font-specification:Lavi;fill:#ffffff"><rect
           y="1459.25"
           x="1366.6666"
           height="493.74991"
           width="314.58337"
           id="rect5373"
           style="font-style:normal;font-variant:normal;font-weight:normal;font-stretch:normal;font-size:40px;line-height:1;font-family:Lavi;-inkscape-font-specification:Lavi;fill:#ffffff" /></flowRegion><flowPara
         style="font-style:normal;font-variant:normal;font-weight:normal;font-stretch:normal;font-size:38.66666794px;line-height:1;font-family:Lavi;-inkscape-font-specification:Lavi;text-align:center;text-anchor:middle;fill:#ffffff"
         id="flowPara5377">Magdamag lang silang reklamo ng reklamo tungkol sa rayuma nila</flowPara><flowPara
         style="font-style:normal;font-variant:normal;font-weight:normal;font-stretch:normal;font-size:38.66666794px;line-height:1;font-family:Lavi;-inkscape-font-specification:Lavi;text-align:center;text-anchor:middle;fill:#ffffff"
         id="flowPara5381">at bungangaan ako sa anumang gawin ko</flowPara></flowRoot>    <flowRoot
       xml:space="preserve"
       id="flowRoot5391"
       style="font-style:normal;font-variant:normal;font-weight:normal;font-stretch:normal;font-size:40px;line-height:1;font-family:Lavi;-inkscape-font-specification:Lavi;letter-spacing:0px;word-spacing:0px;fill:#ffffff;fill-opacity:1;stroke:none;filter:url(#filter5869)"
       transform="translate(136.89725,-271.22362)"><flowRegion
         id="flowRegion5385"
         style="font-style:normal;font-variant:normal;font-weight:normal;font-stretch:normal;font-size:40px;line-height:1;font-family:Lavi;-inkscape-font-specification:Lavi;fill:#ffffff"><rect
           id="rect5383"
           width="302.08337"
           height="283.33328"
           x="1366.6666"
           y="1459.25"
           style="font-style:normal;font-variant:normal;font-weight:normal;font-stretch:normal;font-size:40px;line-height:1;font-family:Lavi;-inkscape-font-specification:Lavi;fill:#ffffff" /></flowRegion><flowPara
         id="flowPara5389"
         style="font-style:normal;font-variant:normal;font-weight:normal;font-stretch:normal;font-size:40px;line-height:1;font-family:Lavi;-inkscape-font-specification:Lavi;text-align:center;text-anchor:middle;fill:#ffffff">nanggu</flowPara><flowPara
         style="font-style:normal;font-variant:normal;font-weight:normal;font-stretch:normal;font-size:40px;line-height:1;font-family:Lavi;-inkscape-font-specification:Lavi;text-align:center;text-anchor:middle;fill:#ffffff"
         id="flowPara5432">gulo lang </flowPara><flowPara
         style="font-style:normal;font-variant:normal;font-weight:normal;font-stretch:normal;font-size:40px;line-height:1;font-family:Lavi;-inkscape-font-specification:Lavi;text-align:center;text-anchor:middle;fill:#ffffff"
         id="flowPara5434">sila sa </flowPara><flowPara
         style="font-style:normal;font-variant:normal;font-weight:normal;font-stretch:normal;font-size:40px;line-height:1;font-family:Lavi;-inkscape-font-specification:Lavi;text-align:center;text-anchor:middle;fill:#ffffff"
         id="flowPara5436">bahay </flowPara><flowPara
         style="font-style:normal;font-variant:normal;font-weight:normal;font-stretch:normal;font-size:40px;line-height:1;font-family:Lavi;-inkscape-font-specification:Lavi;text-align:center;text-anchor:middle;fill:#ffffff"
         id="flowPara5438">ko</flowPara></flowRoot>    <flowRoot
       xml:space="preserve"
       id="flowRoot5395"
       style="font-style:normal;font-weight:normal;font-size:40px;line-height:1.25;font-family:sans-serif;letter-spacing:0px;word-spacing:0px;fill:#000000;fill-opacity:1;stroke:none"><flowRegion
         id="flowRegion5397"><rect
           id="rect5399"
           width="116.66666"
           height="112.5"
           x="1935.4166"
           y="1825.9166" /></flowRegion><flowPara
         id="flowPara5401" /></flowRoot>    <flowRoot
       xml:space="preserve"
       id="flowRoot5477"
       style="font-style:normal;font-variant:normal;font-weight:normal;font-stretch:normal;font-size:40px;line-height:1;font-family:Lavi;-inkscape-font-specification:Lavi;text-align:center;letter-spacing:0px;word-spacing:0px;text-anchor:middle;fill:#ffffff;fill-opacity:1;stroke:none;filter:url(#filter5833)"
       transform="translate(-33.078403,-282.56456)"><flowRegion
         style="font-style:normal;font-variant:normal;font-weight:normal;font-stretch:normal;font-size:40px;line-height:1;font-family:Lavi;-inkscape-font-specification:Lavi;text-align:center;text-anchor:middle;fill:#ffffff;fill-opacity:1"
         id="flowRegion5471"><rect
           style="font-style:normal;font-variant:normal;font-weight:normal;font-stretch:normal;font-size:40px;line-height:1;font-family:Lavi;-inkscape-font-specification:Lavi;text-align:center;text-anchor:middle;fill:#ffffff;fill-opacity:1"
           id="rect5469"
           width="210.41667"
           height="287.49991"
           x="1366.6666"
           y="1459.25" /></flowRegion><flowPara
         id="flowPara5473">wala </flowPara><flowPara
         id="flowPara5475">naman silang tinuturo sakin</flowPara></flowRoot>    <flowRoot
       transform="translate(-33.078403,-282.56456)"
       style="font-style:normal;font-variant:normal;font-weight:normal;font-stretch:normal;font-size:40px;line-height:1;font-family:Lavi;-inkscape-font-specification:Lavi;text-align:center;letter-spacing:0px;word-spacing:0px;text-anchor:middle;fill:#ffffff;fill-opacity:1;stroke:none;filter:url(#filter5829)"
       id="flowRoot5519"
       xml:space="preserve"><flowRegion
         id="flowRegion5513"
         style="font-style:normal;font-variant:normal;font-weight:normal;font-stretch:normal;font-size:40px;line-height:1;font-family:Lavi;-inkscape-font-specification:Lavi;text-align:center;text-anchor:middle;fill:#ffffff;fill-opacity:1"><rect
           y="1459.25"
           x="1366.6666"
           height="287.49991"
           width="210.41667"
           id="rect5511"
           style="font-style:normal;font-variant:normal;font-weight:normal;font-stretch:normal;font-size:40px;line-height:1;font-family:Lavi;-inkscape-font-specification:Lavi;text-align:center;text-anchor:middle;fill:#ffffff;fill-opacity:1" /></flowRegion><flowPara
         id="flowPara5515">wala </flowPara><flowPara
         id="flowPara5517">naman silang tinuturo sakin</flowPara></flowRoot>    <flowRoot
       xml:space="preserve"
       id="flowRoot5467"
       style="font-style:normal;font-variant:normal;font-weight:normal;font-stretch:normal;font-size:40px;line-height:1;font-family:Lavi;-inkscape-font-specification:Lavi;text-align:center;letter-spacing:0px;word-spacing:0px;text-anchor:middle;fill:#000000;fill-opacity:1;stroke:none"
       transform="translate(-32.388157,-281.62431)"><flowRegion
         style="font-style:normal;font-variant:normal;font-weight:normal;font-stretch:normal;font-size:40px;line-height:1;font-family:Lavi;-inkscape-font-specification:Lavi;text-align:center;text-anchor:middle"
         id="flowRegion5461"><rect
           style="font-style:normal;font-variant:normal;font-weight:normal;font-stretch:normal;font-size:40px;line-height:1;font-family:Lavi;-inkscape-font-specification:Lavi;text-align:center;text-anchor:middle"
           id="rect5459"
           width="210.41667"
           height="287.49991"
           x="1366.6666"
           y="1459.25" /></flowRegion><flowPara
         id="flowPara5463">wala </flowPara><flowPara
         id="flowPara5465">naman silang tinuturo sakin</flowPara></flowRoot>    <flowRoot
       transform="translate(136.89725,-271.22362)"
       style="font-style:normal;font-variant:normal;font-weight:normal;font-stretch:normal;font-size:40px;line-height:1;font-family:Lavi;-inkscape-font-specification:Lavi;letter-spacing:0px;word-spacing:0px;fill:#ffffff;fill-opacity:1;stroke:none;filter:url(#filter5865)"
       id="flowRoot5547"
       xml:space="preserve"><flowRegion
         style="font-style:normal;font-variant:normal;font-weight:normal;font-stretch:normal;font-size:40px;line-height:1;font-family:Lavi;-inkscape-font-specification:Lavi;fill:#ffffff"
         id="flowRegion5535"><rect
           style="font-style:normal;font-variant:normal;font-weight:normal;font-stretch:normal;font-size:40px;line-height:1;font-family:Lavi;-inkscape-font-specification:Lavi;fill:#ffffff"
           y="1459.25"
           x="1366.6666"
           height="283.33328"
           width="302.08337"
           id="rect5533" /></flowRegion><flowPara
         style="font-style:normal;font-variant:normal;font-weight:normal;font-stretch:normal;font-size:40px;line-height:1;font-family:Lavi;-inkscape-font-specification:Lavi;text-align:center;text-anchor:middle;fill:#ffffff"
         id="flowPara5537">nanggu</flowPara><flowPara
         id="flowPara5539"
         style="font-style:normal;font-variant:normal;font-weight:normal;font-stretch:normal;font-size:40px;line-height:1;font-family:Lavi;-inkscape-font-specification:Lavi;text-align:center;text-anchor:middle;fill:#ffffff">gulo lang </flowPara><flowPara
         id="flowPara5541"
         style="font-style:normal;font-variant:normal;font-weight:normal;font-stretch:normal;font-size:40px;line-height:1;font-family:Lavi;-inkscape-font-specification:Lavi;text-align:center;text-anchor:middle;fill:#ffffff">sila sa </flowPara><flowPara
         id="flowPara5543"
         style="font-style:normal;font-variant:normal;font-weight:normal;font-stretch:normal;font-size:40px;line-height:1;font-family:Lavi;-inkscape-font-specification:Lavi;text-align:center;text-anchor:middle;fill:#ffffff">bahay </flowPara><flowPara
         id="flowPara5545"
         style="font-style:normal;font-variant:normal;font-weight:normal;font-stretch:normal;font-size:40px;line-height:1;font-family:Lavi;-inkscape-font-specification:Lavi;text-align:center;text-anchor:middle;fill:#ffffff">ko</flowPara></flowRoot>    <flowRoot
       xml:space="preserve"
       id="flowRoot5563"
       style="font-style:normal;font-variant:normal;font-weight:normal;font-stretch:normal;font-size:40px;line-height:1;font-family:Lavi;-inkscape-font-specification:Lavi;letter-spacing:0px;word-spacing:0px;fill:#ffffff;fill-opacity:1;stroke:none;filter:url(#filter5861)"
       transform="translate(136.89725,-271.22362)"><flowRegion
         id="flowRegion5551"
         style="font-style:normal;font-variant:normal;font-weight:normal;font-stretch:normal;font-size:40px;line-height:1;font-family:Lavi;-inkscape-font-specification:Lavi;fill:#ffffff"><rect
           id="rect5549"
           width="302.08337"
           height="283.33328"
           x="1366.6666"
           y="1459.25"
           style="font-style:normal;font-variant:normal;font-weight:normal;font-stretch:normal;font-size:40px;line-height:1;font-family:Lavi;-inkscape-font-specification:Lavi;fill:#ffffff" /></flowRegion><flowPara
         id="flowPara5553"
         style="font-style:normal;font-variant:normal;font-weight:normal;font-stretch:normal;font-size:40px;line-height:1;font-family:Lavi;-inkscape-font-specification:Lavi;text-align:center;text-anchor:middle;fill:#ffffff">nanggu</flowPara><flowPara
         style="font-style:normal;font-variant:normal;font-weight:normal;font-stretch:normal;font-size:40px;line-height:1;font-family:Lavi;-inkscape-font-specification:Lavi;text-align:center;text-anchor:middle;fill:#ffffff"
         id="flowPara5555">gulo lang </flowPara><flowPara
         style="font-style:normal;font-variant:normal;font-weight:normal;font-stretch:normal;font-size:40px;line-height:1;font-family:Lavi;-inkscape-font-specification:Lavi;text-align:center;text-anchor:middle;fill:#ffffff"
         id="flowPara5557">sila sa </flowPara><flowPara
         style="font-style:normal;font-variant:normal;font-weight:normal;font-stretch:normal;font-size:40px;line-height:1;font-family:Lavi;-inkscape-font-specification:Lavi;text-align:center;text-anchor:middle;fill:#ffffff"
         id="flowPara5559">bahay </flowPara><flowPara
         style="font-style:normal;font-variant:normal;font-weight:normal;font-stretch:normal;font-size:40px;line-height:1;font-family:Lavi;-inkscape-font-specification:Lavi;text-align:center;text-anchor:middle;fill:#ffffff"
         id="flowPara5561">ko</flowPara></flowRoot>    <flowRoot
       transform="translate(136.37642,-272.61945)"
       style="font-style:normal;font-variant:normal;font-weight:normal;font-stretch:normal;font-size:40px;line-height:1;font-family:Lavi;-inkscape-font-specification:Lavi;letter-spacing:0px;word-spacing:0px;fill:#000000;fill-opacity:1;stroke:none"
       id="flowRoot5579"
       xml:space="preserve"><flowRegion
         style="font-style:normal;font-variant:normal;font-weight:normal;font-stretch:normal;font-size:40px;line-height:1;font-family:Lavi;-inkscape-font-specification:Lavi"
         id="flowRegion5567"><rect
           style="font-style:normal;font-variant:normal;font-weight:normal;font-stretch:normal;font-size:40px;line-height:1;font-family:Lavi;-inkscape-font-specification:Lavi"
           y="1459.25"
           x="1366.6666"
           height="283.33328"
           width="302.08337"
           id="rect5565" /></flowRegion><flowPara
         style="font-style:normal;font-variant:normal;font-weight:normal;font-stretch:normal;font-size:40px;line-height:1;font-family:Lavi;-inkscape-font-specification:Lavi;text-align:center;text-anchor:middle"
         id="flowPara5569"><flowSpan
   style="font-size:42.66666667px;fill:#d38d5f"
   id="flowSpan1088">.</flowSpan>nanggu-</flowPara><flowPara
         id="flowPara5571"
         style="font-style:normal;font-variant:normal;font-weight:normal;font-stretch:normal;font-size:40px;line-height:1;font-family:Lavi;-inkscape-font-specification:Lavi;text-align:center;text-anchor:middle">gulo lang </flowPara><flowPara
         id="flowPara5573"
         style="font-style:normal;font-variant:normal;font-weight:normal;font-stretch:normal;font-size:40px;line-height:1;font-family:Lavi;-inkscape-font-specification:Lavi;text-align:center;text-anchor:middle">sila sa </flowPara><flowPara
         id="flowPara5575"
         style="font-style:normal;font-variant:normal;font-weight:normal;font-stretch:normal;font-size:40px;line-height:1;font-family:Lavi;-inkscape-font-specification:Lavi;text-align:center;text-anchor:middle">bahay </flowPara><flowPara
         id="flowPara5577"
         style="font-style:normal;font-variant:normal;font-weight:normal;font-stretch:normal;font-size:40px;line-height:1;font-family:Lavi;-inkscape-font-specification:Lavi;text-align:center;text-anchor:middle">ko</flowPara></flowRoot>    <text
       xml:space="preserve"
       style="font-style:normal;font-weight:normal;font-size:40px;line-height:1.25;font-family:sans-serif;letter-spacing:0px;word-spacing:0px;fill:#000000;fill-opacity:1;stroke:none;filter:url(#filter5857)"
       x="1546.3542"
       y="1181.6458"
       id="text5611"><tspan
         sodipodi:role="line"
         id="tspan5609"
         x="1546.3542"
         y="1181.6458" /></text>
    <flowRoot
       xml:space="preserve"
       id="flowRoot5686"
       style="font-style:normal;font-variant:normal;font-weight:normal;font-stretch:normal;font-size:40px;line-height:1;font-family:Lavi;-inkscape-font-specification:Lavi;letter-spacing:0px;word-spacing:0px;fill:#ffffff;fill-opacity:1;stroke:none;filter:url(#filter5748)"
       transform="translate(448.86326,-298.93203)"><flowRegion
         style="font-style:normal;font-variant:normal;font-weight:normal;font-stretch:normal;font-size:40px;line-height:1;font-family:Lavi;-inkscape-font-specification:Lavi;fill:#ffffff"
         id="flowRegion5680"><rect
           style="font-style:normal;font-variant:normal;font-weight:normal;font-stretch:normal;font-size:40px;line-height:1;font-family:Lavi;-inkscape-font-specification:Lavi;fill:#ffffff"
           id="rect5678"
           width="314.58337"
           height="493.74991"
           x="1366.6666"
           y="1459.25" /></flowRegion><flowPara
         id="flowPara5682"
         style="font-style:normal;font-variant:normal;font-weight:normal;font-stretch:normal;font-size:38.66666794px;line-height:1;font-family:Lavi;-inkscape-font-specification:Lavi;text-align:center;text-anchor:middle;fill:#ffffff">Magdamag lang silang reklamo ng reklamo tungkol sa rayuma nila</flowPara><flowPara
         id="flowPara5684"
         style="font-style:normal;font-variant:normal;font-weight:normal;font-stretch:normal;font-size:38.66666794px;line-height:1;font-family:Lavi;-inkscape-font-specification:Lavi;text-align:center;text-anchor:middle;fill:#ffffff">at bungangaan ako sa anumang gawin ko</flowPara></flowRoot>    <flowRoot
       transform="translate(448.86326,-298.93203)"
       style="font-style:normal;font-variant:normal;font-weight:normal;font-stretch:normal;font-size:40px;line-height:1;font-family:Lavi;-inkscape-font-specification:Lavi;letter-spacing:0px;word-spacing:0px;fill:#ffffff;fill-opacity:1;stroke:none;filter:url(#filter5744)"
       id="flowRoot5696"
       xml:space="preserve"><flowRegion
         id="flowRegion5690"
         style="font-style:normal;font-variant:normal;font-weight:normal;font-stretch:normal;font-size:40px;line-height:1;font-family:Lavi;-inkscape-font-specification:Lavi;fill:#ffffff"><rect
           y="1459.25"
           x="1366.6666"
           height="493.74991"
           width="314.58337"
           id="rect5688"
           style="font-style:normal;font-variant:normal;font-weight:normal;font-stretch:normal;font-size:40px;line-height:1;font-family:Lavi;-inkscape-font-specification:Lavi;fill:#ffffff" /></flowRegion><flowPara
         style="font-style:normal;font-variant:normal;font-weight:normal;font-stretch:normal;font-size:38.66666794px;line-height:1;font-family:Lavi;-inkscape-font-specification:Lavi;text-align:center;text-anchor:middle;fill:#ffffff"
         id="flowPara5692">Magdamag lang silang reklamo ng reklamo tungkol sa rayuma nila</flowPara><flowPara
         style="font-style:normal;font-variant:normal;font-weight:normal;font-stretch:normal;font-size:38.66666794px;line-height:1;font-family:Lavi;-inkscape-font-specification:Lavi;text-align:center;text-anchor:middle;fill:#ffffff"
         id="flowPara5694">at bungangaan ako sa anumang gawin ko</flowPara></flowRoot>    <flowRoot
       xml:space="preserve"
       id="flowRoot5706"
       style="font-style:normal;font-variant:normal;font-weight:normal;font-stretch:normal;font-size:40px;line-height:1;font-family:Lavi;-inkscape-font-specification:Lavi;letter-spacing:0px;word-spacing:0px;fill:#000000;fill-opacity:1;stroke:none"
       transform="translate(448.94659,-299.09869)"><flowRegion
         style="font-style:normal;font-variant:normal;font-weight:normal;font-stretch:normal;font-size:40px;line-height:1;font-family:Lavi;-inkscape-font-specification:Lavi"
         id="flowRegion5700"><rect
           style="font-style:normal;font-variant:normal;font-weight:normal;font-stretch:normal;font-size:40px;line-height:1;font-family:Lavi;-inkscape-font-specification:Lavi"
           id="rect5698"
           width="314.58337"
           height="493.74991"
           x="1366.6666"
           y="1459.25" /></flowRegion><flowPara
         id="flowPara5702"
         style="font-style:normal;font-variant:normal;font-weight:normal;font-stretch:normal;font-size:38.66666794px;line-height:1;font-family:Lavi;-inkscape-font-specification:Lavi;text-align:center;text-anchor:middle">Magdamag lang silang reklamo ng reklamo tungkol sa rayuma nila</flowPara><flowPara
         id="flowPara5704"
         style="font-style:normal;font-variant:normal;font-weight:normal;font-stretch:normal;font-size:38.66666794px;line-height:1;font-family:Lavi;-inkscape-font-specification:Lavi;text-align:center;text-anchor:middle">puro  bunganga sa anumang </flowPara><flowPara
         style="font-style:normal;font-variant:normal;font-weight:normal;font-stretch:normal;font-size:38.66666794px;line-height:1;font-family:Lavi;-inkscape-font-specification:Lavi;text-align:center;text-anchor:middle"
         id="flowPara5023">gawin ko</flowPara></flowRoot>    <text
       id="text5917"
       y="207.11946"
       x="2110.4771"
       style="font-style:normal;font-variant:normal;font-weight:normal;font-stretch:normal;line-height:0%;font-family:Lavi;-inkscape-font-specification:Lavi;text-align:center;letter-spacing:0px;word-spacing:0px;text-anchor:middle;fill:url(#linearGradient5210);fill-opacity:1;stroke:none;filter:url(#filter1507)"
       xml:space="preserve"><tspan
         id="tspan5895"
         y="207.11946"
         x="2118.3872"
         style="font-size:45px;line-height:1.25;fill:url(#linearGradient5210);fill-opacity:1"
         sodipodi:role="line"> </tspan><tspan
         id="tspan5897"
         y="263.36945"
         x="2118.3872"
         style="font-size:45px;line-height:1.25;fill:url(#linearGradient5210);fill-opacity:1"
         sodipodi:role="line">Personally, </tspan><tspan
         id="tspan5899"
         y="319.61945"
         x="2118.3872"
         style="font-size:45px;line-height:1.25;fill:url(#linearGradient5210);fill-opacity:1"
         sodipodi:role="line">hindi ako </tspan><tspan
         id="tspan5901"
         y="375.86945"
         x="2118.3872"
         style="font-size:45px;line-height:1.25;fill:url(#linearGradient5210);fill-opacity:1"
         sodipodi:role="line">puma-pagitna </tspan><tspan
         id="tspan5903"
         y="432.11945"
         x="2118.3872"
         style="font-size:45px;line-height:1.25;fill:url(#linearGradient5210);fill-opacity:1"
         sodipodi:role="line">at nakikialam sa </tspan><tspan
         id="tspan5905"
         y="488.36945"
         x="2110.4771"
         style="font-size:45px;line-height:1.25;fill:url(#linearGradient5210);fill-opacity:1"
         sodipodi:role="line">mga problema,</tspan><tspan
         id="tspan5907"
         y="544.61945"
         x="2110.4771"
         style="font-size:45px;line-height:1.25;fill:url(#linearGradient5210);fill-opacity:1"
         sodipodi:role="line">kahit pa sa kaibigan</tspan><tspan
         id="tspan5909"
         y="600.86945"
         x="2118.3872"
         style="font-size:45px;line-height:1.25;fill:url(#linearGradient5210);fill-opacity:1"
         sodipodi:role="line">lalo lang lalala </tspan><tspan
         id="tspan5911"
         y="657.11945"
         x="2118.3872"
         style="font-size:45px;line-height:1.25;fill:url(#linearGradient5210);fill-opacity:1"
         sodipodi:role="line">yan pag may </tspan><tspan
         id="tspan5913"
         y="675.65302"
         x="2110.4771"
         style="font-size:45px;line-height:1.25;fill:url(#linearGradient5210);fill-opacity:1"
         sodipodi:role="line" /><tspan
         id="tspan5915"
         y="713.36945"
         x="2110.4771"
         style="font-size:45px;line-height:1.25;fill:url(#linearGradient5210);fill-opacity:1"
         sodipodi:role="line">taga-sabat</tspan></text>
    <text
       id="text1407"
       y="210.59261"
       x="2114.1436"
       style="font-style:normal;font-variant:normal;font-weight:normal;font-stretch:normal;line-height:0%;font-family:Lavi;-inkscape-font-specification:Lavi;text-align:center;letter-spacing:0px;word-spacing:0px;text-anchor:middle;fill:#000000;fill-opacity:1;stroke:none"
       xml:space="preserve"><tspan
         id="tspan1385"
         y="210.59261"
         x="2122.0537"
         style="font-size:45px;line-height:1.25;fill:#000000;fill-opacity:1"
         sodipodi:role="line"> </tspan><tspan
         id="tspan1387"
         y="266.84259"
         x="2122.0537"
         style="font-size:45px;line-height:1.25;fill:#000000;fill-opacity:1"
         sodipodi:role="line">Personally, </tspan><tspan
         id="tspan1389"
         y="323.09259"
         x="2122.0537"
         style="font-size:45px;line-height:1.25;fill:#000000;fill-opacity:1"
         sodipodi:role="line">hindi ako </tspan><tspan
         id="tspan1391"
         y="379.34259"
         x="2122.0537"
         style="font-size:45px;line-height:1.25;fill:#000000;fill-opacity:1"
         sodipodi:role="line">puma-pagitna </tspan><tspan
         id="tspan1393"
         y="435.59259"
         x="2122.0537"
         style="font-size:45px;line-height:1.25;fill:#000000;fill-opacity:1"
         sodipodi:role="line">at nakikialam sa </tspan><tspan
         id="tspan1395"
         y="491.84259"
         x="2114.1436"
         style="font-size:45px;line-height:1.25;fill:#000000;fill-opacity:1"
         sodipodi:role="line">mga paliwanagan,</tspan><tspan
         id="tspan1397"
         y="548.09259"
         x="2114.1436"
         style="font-size:45px;line-height:1.25;fill:#000000;fill-opacity:1"
         sodipodi:role="line">kahit pa sa kaibigan</tspan><tspan
         id="tspan1399"
         y="604.34259"
         x="2122.0537"
         style="font-size:45px;line-height:1.25;fill:#000000;fill-opacity:1"
         sodipodi:role="line">lalo lang lalala </tspan><tspan
         id="tspan1401"
         y="660.59259"
         x="2122.0537"
         style="font-size:45px;line-height:1.25;fill:#000000;fill-opacity:1"
         sodipodi:role="line">yan pag may </tspan><tspan
         id="tspan1403"
         y="679.12616"
         x="2114.1436"
         style="font-size:45px;line-height:1.25;fill:#000000;fill-opacity:1"
         sodipodi:role="line" /><tspan
         id="tspan1405"
         y="716.84259"
         x="2114.1436"
         style="font-size:45px;line-height:1.25;fill:#000000;fill-opacity:1"
         sodipodi:role="line">taga-sabat</tspan></text>
  </g>
</svg>
