<?xml version="1.0" encoding="UTF-8" standalone="no"?>
<svg
   xmlns:dc="http://purl.org/dc/elements/1.1/"
   xmlns:cc="http://creativecommons.org/ns#"
   xmlns:rdf="http://www.w3.org/1999/02/22-rdf-syntax-ns#"
   xmlns:svg="http://www.w3.org/2000/svg"
   xmlns="http://www.w3.org/2000/svg"
   xmlns:xlink="http://www.w3.org/1999/xlink"
   xmlns:sodipodi="http://sodipodi.sourceforge.net/DTD/sodipodi-0.dtd"
   xmlns:inkscape="http://www.inkscape.org/namespaces/inkscape"
   id="svg2"
   version="1.1"
   inkscape:version="1.0.2-2 (e86c870879, 2021-01-15)"
   width="2481"
   height="3503"
   sodipodi:docname="E35P07.svg">
  <metadata
     id="metadata8">
    <rdf:RDF>
      <cc:Work
         rdf:about="">
        <dc:format>image/svg+xml</dc:format>
        <dc:type
           rdf:resource="http://purl.org/dc/dcmitype/StillImage" />
        <dc:title />
      </cc:Work>
    </rdf:RDF>
  </metadata>
  <defs
     id="defs6">
    <filter
       style="color-interpolation-filters:sRGB"
       id="filter4375-4-1-1-1-9-5-8-8-5-5-3-8"
       inkscape:label="soundFX1"
       x="-0.044353127"
       y="-0.0023842071"
       width="1.0467294"
       height="1.0447156">
      <feFlood
         id="feFlood4377-7-9-0-8-1-7-3-1-2-7-6-7"
         flood-opacity="1"
         flood-color="rgb(255,255,255)"
         result="flood" />
      <feComposite
         id="feComposite4379-3-8-8-2-77-4-1-0-6-4-7-9"
         in2="SourceGraphic"
         in="flood"
         operator="in"
         result="composite1"
         baseFrequency="0.053999999999999999 0.053999999999999999" />
      <feMorphology
         id="feMorphology4393-1-0-49-8-9-3-0-1-9-9-5-2"
         operator="dilate"
         radius="2.9756367599225957"
         result="result3" />
      <feComposite
         id="feComposite4385-9-5-7-0-8-8-7-5-4-9-3-0"
         in2="result3"
         in="SourceGraphic"
         operator="over"
         result="fbSourceGraphic" />
      <feColorMatrix
         result="fbSourceGraphicAlpha"
         in="fbSourceGraphic"
         values="0 0 0 -1 0 0 0 0 -1 0 0 0 0 -1 0 0 0 0 1 0"
         id="feColorMatrix4544-9-4-4-5-2" />
      <feTurbulence
         id="feTurbulence4546-3-6-5-6-3"
         type="fractalNoise"
         numOctaves="5"
         seed="174"
         baseFrequency="0.053999999999999999 0.054054054054054057"
         result="turbulence" />
      <feDisplacementMap
         id="feDisplacementMap4548-8-0-9-2-7"
         in2="turbulence"
         in="fbSourceGraphic"
         scale="6.6"
         yChannelSelector="G"
         xChannelSelector="R"
         result="fbSourceGraphic" />
      <feColorMatrix
         result="fbSourceGraphicAlpha"
         in="fbSourceGraphic"
         values="0 0 0 -1 0 0 0 0 -1 0 0 0 0 -1 0 0 0 0 1 0"
         id="feColorMatrix4670-7-7-3-9-5" />
      <feFlood
         id="feFlood4672-4-4-5-1-9"
         flood-opacity="1"
         flood-color="rgb(255,255,255)"
         result="flood"
         in="fbSourceGraphic" />
      <feComposite
         id="feComposite4674-8-3-7-2-22"
         in2="fbSourceGraphic"
         in="flood"
         operator="in"
         result="composite1" />
      <feGaussianBlur
         id="feGaussianBlur4676-3-7-08-7-8"
         in="composite1"
         stdDeviation="0"
         result="blur" />
      <feOffset
         id="feOffset4678-6-9-1-0-9"
         dx="-6.3258232761971414"
         dy="6"
         result="offset" />
      <feComposite
         id="feComposite4680-4-0-9-9-7"
         in2="offset"
         in="fbSourceGraphic"
         operator="over"
         result="composite2" />
    </filter>
  </defs>
  <sodipodi:namedview
     pagecolor="#ffffff"
     bordercolor="#666666"
     borderopacity="1"
     objecttolerance="10"
     gridtolerance="10"
     guidetolerance="10"
     inkscape:pageopacity="0"
     inkscape:pageshadow="2"
     inkscape:window-width="1366"
     inkscape:window-height="745"
     id="namedview4"
     showgrid="false"
     inkscape:zoom="0.32711619"
     inkscape:cx="1746.6685"
     inkscape:cy="2794.4116"
     inkscape:window-x="-8"
     inkscape:window-y="-8"
     inkscape:window-maximized="1"
     inkscape:current-layer="layer1"
     inkscape:document-rotation="0"
     inkscape:snap-global="false"
     inkscape:pagecheckerboard="0" />
  <g
     inkscape:groupmode="layer"
     id="layer2"
     inkscape:label="artwork"
     sodipodi:insensitive="true">
    <image
       sodipodi:absref="C:\Users\quentinlipeck\gfx_Pepper-and-Carrot_by-David-Revoy_E35P07.png"
       xlink:href="../gfx_Pepper-and-Carrot_by-David-Revoy_E35P07.png"
       width="2481"
       height="3503"
       id="image10"
       x="0"
       y="0" />
  </g>
  <g
     inkscape:groupmode="layer"
     id="layer3"
     inkscape:label="speechbubbles">
    <path
       style="fill:#ffffff;stroke:none;stroke-width:1.01104"
       d="m 1995.7988,275.33564 c -30.9642,0.59836 -62.3487,10.63478 -85.1855,30.65405 -21.9428,19.49634 -35.5187,45.97196 -42.6526,73.23368 -4.8293,18.01928 -7.428,37.3484 -1.7178,55.473 6.8729,21.07383 23.9106,38.15096 43.8863,49.17096 29.5827,16.65292 64.7496,22.80497 98.9349,21.77632 35.8115,-0.81203 71.9202,-3.66379 106.457,-13.04496 17.7643,-5.41833 34.9904,-15.09548 44.929,-30.34922 9.3021,-14.18188 11.6248,-31.36844 10.4255,-47.71928 -1.0411,-27.5332 -9.8341,-54.69499 -25.0083,-78.26708 -10.9443,-17.3751 -24.5586,-34.09101 -43.2883,-44.59608 -16.1487,-9.25557 -35.2021,-12.20424 -53.7238,-14.0506 -17.6049,-1.89575 -35.349,-2.32835 -53.0564,-2.28079 z"
       id="path3280-8"
       inkscape:connector-curvature="0"
       sodipodi:nodetypes="csssc" />
    <path
       style="fill:#ffffff;fill-rule:evenodd;stroke:none;stroke-width:0.934796px;stroke-linecap:butt;stroke-linejoin:miter;stroke-opacity:1"
       d="m 1937.2471,432.07438 c -6.2176,11.12141 -85.6078,33.31577 -108.1931,83.17757 30.1276,-36.25015 118.0705,-48.01797 132.9745,-62.07815 51.3058,-16.19189 -3.5494,-23.72277 -24.7814,-21.09942 z"
       id="path4186"
       inkscape:connector-curvature="0"
       sodipodi:nodetypes="cccc" />
    <path
       style="fill:#ffffff;fill-rule:evenodd;stroke:none;stroke-width:1px;stroke-linecap:butt;stroke-linejoin:miter;stroke-opacity:1"
       d="m 1557.7613,1692.8906 134.1326,-31.6108 -24.0947,-23.8017 91.2177,-24.1969 -16.3502,-24.7111 -106.501,38.013 26.5589,28.0558 z"
       id="path4667"
       inkscape:connector-curvature="0" />
    <path
       style="color:#000000;display:inline;overflow:visible;visibility:visible;fill:#ffffff;fill-opacity:1;fill-rule:nonzero;stroke:none;stroke-width:1.16761px;marker:none;enable-background:accumulate"
       d="m 366.8956,3167.8318 c -7.74947,18.6619 -55.73563,10.3174 -71.82586,6.0688 32.43416,21.9362 31.3034,35.0172 -12.73303,35.9167 71.3707,33.4978 17.94861,34.0668 -4.68437,28.9926 36.59369,17.7527 38.76634,33.9683 1.54683,42.1393 66.64907,2.2759 50.5143,15.2452 25.28105,33.8563 29.50944,-11.85 75.03075,-19.7446 76.64589,13.2682 42.75685,-27.7008 64.81731,-26.571 80.27896,6.3976 12.91531,-27.7524 56.89263,-32.0237 73.70862,-1.3015 14.48591,-40.6183 66.17328,-33.5147 96.94091,-12.8552 -17.27152,-14.4659 -5.49393,-37.249 53.39081,-31.0622 -4.73968,-12.9748 2.71393,-29.0046 32.45007,-26.096 -34.25235,-8.6461 -40.56486,-16.8174 23.03396,-23.7957 -48.39499,-2.0802 -93.52369,-4.9518 -36.74583,-32.8773 -17.81275,-1.1704 -62.81599,30.7099 -43.1115,-40.548 -52.16976,19.8167 -104.24946,20.7746 -101.55232,-23.6066 -19.3953,23.5432 -53.03601,34.5732 -67.67147,4.1646 -12.08155,27.7421 -48.77784,15.049 -67.84092,-4.5901 -12.59593,18.6771 -20.87861,52.7905 -57.1118,25.9285 z"
       id="path3549-3-7-8"
       inkscape:connector-curvature="0"
       sodipodi:nodetypes="ccccccccccccccccccc" />
    <path
       style="color:#000000;display:inline;overflow:visible;visibility:visible;fill:#ffffff;fill-opacity:1;fill-rule:nonzero;stroke:none;stroke-width:1.09607px;marker:none;enable-background:accumulate"
       d="m 399.13538,2971.7241 c 46.32515,46.6958 -46.64465,30.4543 -64.47731,24.0162 46.60885,16.4345 36.15885,43.8191 -12.15421,52.4096 83.41343,44.9742 17.99328,59.9513 1.52468,60.609 55.34989,18.9496 43.23007,33.4731 33.37585,56.9499 108.22594,-26.8552 32.7357,46.2035 32.8367,77.4707 5.39337,-14.0641 88.24141,-146.4956 32.55749,-9.2072 42.08041,-45.484 92.76518,-74.8643 96.78971,4.7328 16.9549,-40.0433 33.85891,-56.9669 32.55748,-9.2073 42.00893,-62.1175 102.93902,-45.7552 140.9136,-28.1985 -49.30569,-47.1673 -19.25749,-43.654 35.52013,-30.5302 -63.73259,-32.3441 -58.32111,-47.1121 15.67921,-43.2174 -32.69525,-11.2255 -38.7209,-22.8046 21.98688,-35.2653 -46.65392,-2.0316 -97.89403,-19.2028 -35.07541,-46.1693 -23.6592,2.3658 -112.10967,-3.2773 -38.53577,-69.3398 -57.74393,24.8605 -117.18724,34.9112 -99.55184,-18.0328 -49.22387,32.1536 -54.3857,51.6485 -64.59512,8.5439 -17.41005,37.4088 -40.02277,14.2383 -64.75692,-4.1082 17.99826,29.2486 -22.20424,46.494 -64.59515,8.5439 z"
       id="path3549-3-7"
       inkscape:connector-curvature="0"
       sodipodi:nodetypes="ccccccccccccccccccc" />
    <path
       style="fill:#ffffff;fill-rule:evenodd;stroke:none;stroke-width:1.61403px;stroke-linecap:butt;stroke-linejoin:miter;stroke-opacity:1"
       d="m 559.65143,2966.4499 c 7.81388,-49.8207 8.23157,-62.9667 6.02019,-75.0728 -2.2114,-12.106 -16.03862,-8.1385 -26.02653,-3.643 -6.53887,2.9161 -28.34548,24.9309 -13.34891,-11.2886 14.99673,-36.2194 33.04009,-86.6247 37.65555,-102.5126 -15.5946,27.8024 -42.45502,71.0937 -50.25242,84.9947 -7.79723,13.9012 -19.54665,39.459 -22.39666,47.151 -3.46707,9.3577 -1.1372,19.0591 14.63013,17.8664 24.66487,-3.6362 41.86312,-37.8298 13.23772,21.5203 -28.62567,59.3501 4.95095,150.5651 4.95095,150.5651 z"
       id="path1089"
       inkscape:connector-curvature="0"
       sodipodi:nodetypes="csccccscccc" />
    <path
       style="color:#000000;display:inline;overflow:visible;visibility:visible;fill:#ffffff;fill-opacity:1;fill-rule:nonzero;stroke:none;stroke-width:1.1687px;marker:none;enable-background:accumulate"
       d="m 1768.3079,1475.4618 c -2.6977,39.3562 -53.8111,13.8841 -78.0834,3.8653 28.9299,22.1753 50.8906,51.777 -12.8624,49.9172 71.5917,39.3017 23.7309,37.3789 12.1915,47.3439 56.2127,13.5445 40.0575,30.8892 3.9762,40.3253 64.6109,0.5764 48.9696,14.4096 24.5079,34.3158 28.6072,-13.0326 72.7364,-22.4042 74.3022,11.6703 41.4494,-29.767 62.8353,-29.1872 77.8241,4.4729 12.5204,-29.0252 55.1529,-34.6113 71.4547,-3.3088 14.043,-42.3636 64.1498,-36.3993 93.9765,-15.8681 -16.7433,-14.49 -5.3258,-38.3493 51.7584,-33.5242 -4.5948,-13.2829 2.6309,-30.0478 31.4577,-27.834 -33.205,-8.0229 -39.3244,-16.2995 22.3296,-25.2057 -46.9151,-0.8606 -90.6639,-2.626 -35.6222,-32.9988 -17.268,-0.7349 -58.2385,24.609 -39.1365,-49.5587 -50.5745,21.8696 -103.7183,33.0497 -101.1037,-12.8888 -18.8022,24.8479 -51.4142,37.1432 -65.6021,6.1069 -11.7122,28.9924 -47.2864,16.8521 -65.7665,-2.9362 -12.2107,19.6377 -30.4768,32.9013 -65.602,6.1057 z"
       id="path3549-3-7-8-6"
       inkscape:connector-curvature="0"
       sodipodi:nodetypes="ccccccccccccccccccc" />
  </g>
  <g
     inkscape:groupmode="layer"
     id="layer1"
     inkscape:label="txt">
    <text
       xml:space="preserve"
       style="font-style:normal;font-variant:normal;font-weight:normal;font-stretch:normal;font-size:45px;line-height:1.25;font-family:Lavi;-inkscape-font-specification:Lavi;text-align:center;letter-spacing:0px;word-spacing:0px;text-anchor:middle;fill:#000000;fill-opacity:1;stroke:none"
       x="2020.3785"
       y="352.14099"
       id="text4246-3-2-2"><tspan
         style="font-size:45px"
         sodipodi:role="line"
         x="2020.3785"
         y="352.14099"
         id="tspan873">pona a! </tspan><tspan
         style="font-size:45px"
         sodipodi:role="line"
         x="2020.3785"
         y="408.39099"
         id="tspan886">ona li lon </tspan><tspan
         style="font-size:45px"
         sodipodi:role="line"
         x="2020.3785"
         y="464.64099"
         id="tspan73">monsi mi!</tspan></text>
    <text
       xml:space="preserve"
       style="font-style:normal;font-variant:normal;font-weight:normal;font-stretch:normal;font-size:45px;line-height:1.25;font-family:Lavi;-inkscape-font-specification:Lavi;text-align:center;letter-spacing:0px;word-spacing:0px;text-anchor:middle;fill:#000000;fill-opacity:1;stroke:none"
       x="1895.5864"
       y="1551.5004"
       id="text4246-3-2-2-3"><tspan
         style="font-size:45px"
         sodipodi:role="line"
         x="1895.5864"
         y="1551.5004"
         id="tspan922">mi weka e ona </tspan><tspan
         style="font-size:45px"
         sodipodi:role="line"
         x="1895.5864"
         y="1607.7504"
         id="tspan77">lon tenpo lili.</tspan></text>
    <text
       xml:space="preserve"
       style="font-style:normal;font-variant:normal;font-weight:normal;font-stretch:normal;font-size:50.2786px;line-height:1.25;font-family:Lavi;-inkscape-font-specification:Lavi;text-align:center;letter-spacing:0px;word-spacing:0px;text-anchor:middle;fill:#000000;fill-opacity:1;stroke:none;stroke-width:1.1173"
       x="531.13611"
       y="3075.8477"
       id="text4246-3-2-2-3-3"><tspan
         style="font-style:normal;font-variant:normal;font-weight:bold;font-stretch:normal;font-size:50.2786px;font-family:Lavi;-inkscape-font-specification:'Lavi Bold';stroke-width:1.1173"
         sodipodi:role="line"
         x="531.13611"
         y="3075.8477"
         id="tspan896">mi wile lukin </tspan><tspan
         style="font-style:normal;font-variant:normal;font-weight:bold;font-stretch:normal;font-size:50.2786px;font-family:Lavi;-inkscape-font-specification:'Lavi Bold';stroke-width:1.1173"
         sodipodi:role="line"
         x="531.13611"
         y="3138.6958"
         id="tspan81">e ni a!</tspan></text>
    <text
       xml:space="preserve"
       style="font-style:normal;font-variant:normal;font-weight:normal;font-stretch:normal;font-size:57.3248px;line-height:1.25;font-family:Lavi;-inkscape-font-specification:Lavi;text-align:center;letter-spacing:0px;word-spacing:0px;text-anchor:middle;fill:#000000;fill-opacity:1;stroke:none;stroke-width:1.27388"
       x="497.26379"
       y="3264.7009"
       id="text4246-3-2-2-3-3-3"><tspan
         style="font-style:normal;font-variant:normal;font-weight:bold;font-stretch:normal;font-size:57.3248px;font-family:Lavi;-inkscape-font-specification:'Lavi Bold';stroke-width:1.27388"
         sodipodi:role="line"
         x="497.26379"
         y="3264.7009"
         id="tspan1015">aaa a a a a!</tspan></text>
    <text
       xml:space="preserve"
       style="font-style:normal;font-variant:normal;font-weight:normal;font-stretch:normal;font-size:105.817px;line-height:1.25;font-family:Lavi;-inkscape-font-specification:Lavi;letter-spacing:0px;word-spacing:0px;fill:#000000;fill-opacity:1;stroke:#030303;stroke-width:0.716208;stroke-miterlimit:4;stroke-dasharray:none;stroke-opacity:1;filter:url(#filter4375-4-1-1-1-9-5-8-8-5-5-3-8)"
       x="787.65729"
       y="1584.5073"
       id="text4580-6-0-0-0-9-3-36"
       transform="matrix(1.0545214,-0.26714456,-0.41513081,1.2309466,1890.7199,857.1408)"><tspan
         style="font-size:195.17px;fill:#000000;fill-opacity:1;stroke:#030303;stroke-width:0.716208;stroke-miterlimit:4;stroke-dasharray:none;stroke-opacity:1"
         sodipodi:role="line"
         id="tspan876-6-1"
         x="787.65729"
         y="1584.5073">!<tspan
   style="font-size:173.821px;fill:#000000;stroke:#030303;stroke-opacity:1"
   id="tspan1317">!</tspan><tspan
   id="tspan1322"
   style="font-size:152.472px;fill:#000000;stroke:#030303;stroke-opacity:1">!</tspan></tspan></text>
  </g>
</svg>
