<?xml version="1.0" encoding="UTF-8" standalone="no"?>
<svg
   xmlns:dc="http://purl.org/dc/elements/1.1/"
   xmlns:cc="http://creativecommons.org/ns#"
   xmlns:rdf="http://www.w3.org/1999/02/22-rdf-syntax-ns#"
   xmlns:svg="http://www.w3.org/2000/svg"
   xmlns="http://www.w3.org/2000/svg"
   xmlns:xlink="http://www.w3.org/1999/xlink"
   xmlns:sodipodi="http://sodipodi.sourceforge.net/DTD/sodipodi-0.dtd"
   xmlns:inkscape="http://www.inkscape.org/namespaces/inkscape"
   sodipodi:docname="E17P00.svg"
   height="663"
   width="2481"
   inkscape:version="1.0 (1.0+r73+1)"
   version="1.1"
   id="svg2">
  <sodipodi:namedview
     inkscape:window-maximized="0"
     inkscape:window-y="282"
     inkscape:window-x="466"
     inkscape:document-rotation="0"
     inkscape:current-layer="layer1"
     inkscape:cy="280.58275"
     inkscape:cx="1109.7931"
     inkscape:zoom="0.529"
     showgrid="false"
     id="namedview70"
     inkscape:window-height="955"
     inkscape:window-width="1813"
     inkscape:pageshadow="2"
     inkscape:pageopacity="0"
     bordercolor="#666666"
     pagecolor="#ffffff" />
  <metadata
     id="metadata8">
    <rdf:RDF>
      <cc:Work
         rdf:about="">
        <dc:format>image/svg+xml</dc:format>
        <dc:type
           rdf:resource="http://purl.org/dc/dcmitype/StillImage" />
        <dc:title />
      </cc:Work>
    </rdf:RDF>
  </metadata>
  <defs
     id="defs6" />
  <sodipodi:namedview
     inkscape:current-layer="layer1"
     inkscape:window-maximized="0"
     inkscape:window-y="26"
     inkscape:window-x="0"
     inkscape:cy="-212.92616"
     inkscape:cx="1206.8601"
     inkscape:zoom="0.28335072"
     showgrid="false"
     id="namedview4"
     inkscape:window-height="752"
     inkscape:window-width="1280"
     inkscape:pageshadow="2"
     inkscape:pageopacity="0"
     guidetolerance="10"
     gridtolerance="10"
     objecttolerance="10"
     borderopacity="1"
     bordercolor="#666666"
     pagecolor="#ffffff" />
  <g
     sodipodi:insensitive="true"
     inkscape:label="artwork"
     id="layer2"
     inkscape:groupmode="layer">
    <image
       sodipodi:absref="/home/deevad/peppercarrot/webcomics/ep17_A-Fresh-Start/lang/gfx_Pepper-and-Carrot_by-David-Revoy_E17P00.png"
       xlink:href="../gfx_Pepper-and-Carrot_by-David-Revoy_E17P00.png"
       y="0"
       x="0"
       id="image10"
       height="663"
       width="2481" />
  </g>
  <g
     style="display:inline"
     inkscape:label="txt"
     id="layer1"
     inkscape:groupmode="layer">
    <text
       id="episode-title"
       y="582.47577"
       x="1242.6901"
       style="font-style:normal;font-variant:normal;font-weight:normal;font-stretch:normal;line-height:0%;font-family:ComicSpice;-inkscape-font-specification:ComicSpice;text-align:center;letter-spacing:0px;word-spacing:0px;text-anchor:middle;display:inline;fill:#2b1100;fill-opacity:1;stroke:#000000;stroke-width:2;stroke-miterlimit:4;stroke-dasharray:none;stroke-opacity:1"
       xml:space="preserve"><tspan
         y="582.47577"
         x="1242.6901"
         style="font-style:normal;font-variant:normal;font-weight:normal;font-stretch:normal;font-size:72.5px;line-height:1.25;font-family:ComicSpice;-inkscape-font-specification:ComicSpice;text-align:center;text-anchor:middle;fill:#2b1100;stroke:none"
         id="tspan4180"
         sodipodi:role="line">Tập 17: Bắt Đầu Mới</tspan></text>
    <g
       style="color:#000000;fill:#301b0b;fill-opacity:1;fill-rule:nonzero;stroke:none;stroke-width:3;marker:none;visibility:visible;display:inline;overflow:visible;enable-background:accumulate"
       transform="matrix(2.9476891,0,0,2.9476891,-412.16032,-2164.4858)"
       id="g3077-8">
      <path
         style="color:#000000;fill:#301b0b;fill-opacity:1;fill-rule:nonzero;stroke:none;stroke-width:3;marker:none;visibility:visible;display:inline;overflow:visible;enable-background:accumulate"
         d="m 578.55799,856.8439 c 0,0 -8.55795,-12.41685 -12.82062,-18.05609 -0.39611,-0.52403 -0.75437,-1.16896 -0.75437,-2.12601 0,-1.24108 1.20927,-2.00232 2.09498,-2.00232 9.00521,0 21.95157,0 31.354,0 1.08836,0 2.03754,0.72278 2.03754,1.81114 0,2.60167 0,9.06604 0,10.8648 0,1.30261 -1.04226,2.48191 -2.31262,2.50846 -1.13763,0.0238 -2.06159,-0.41732 -2.49823,-1.26331 l -1.39204,-2.67184 c -0.20857,-0.40032 -0.49064,-0.83724 -1.0976,-0.83724 l -15.16897,0 c -0.81199,0 -0.70145,0.69294 -0.22639,1.35836 l 9.60509,13.45376 c 0.99984,1.40046 0.009,2.09264 -1.0844,2.35334 -1.84909,0.44075 -18.93475,2.24618 -18.93475,19.35639 0,12.30189 8.72871,19.46503 17.95973,19.85 8.69833,0.36275 20.07421,-3.9111 20.07421,-16.85 0,-7.16253 -4.4875,-11.11414 -9.56208,-11.24759 -2.77382,-0.073 -6.342,2.23065 -6.342,5.00543 0,1.9012 1.1222,2.85934 1.77013,3.40586 2.33373,1.96845 0.22433,4.57667 -1.94892,3.55171 -1.61491,-0.76164 -3.83967,-3.90556 -3.83967,-6.73118 0,-10.82274 8.30659,-18.29731 19.16153,-18.29731 11.63533,0 15.16965,6.38611 19.16569,6.13521 4.48167,-0.28139 6.95399,-4.38228 6.95399,-7.31426 0,-0.81625 -0.28541,-1.65042 -0.5442,-2.08776 -1.51716,-2.5639 1.93243,-4.28574 3.43983,-2.08736 1.00665,1.4681 1.17944,3.13609 1.17944,4.66226 0,7.42347 -5.22562,14.86219 -14.13203,14.86219 -12.5437,0 -15.78225,-6.89885 -22.75657,-5.3572 0,0 12.73481,0.95872 12.73481,16.54762 0,11.23316 -8.26618,22.0167 -25.8132,22.0167 -20.4735,0 -29.40435,-13.9782 -29.40435,-24.70732 0,-18.45318 16.24207,-26.10644 23.10204,-26.10644 z"
         id="path5462-6"
         inkscape:connector-curvature="0"
         sodipodi:nodetypes="cssssssssssssssssssssssssssssscsssc" />
      <path
         transform="translate(215.99784,749.59334)"
         sodipodi:type="arc"
         style="opacity:0.98999999;color:#000000;fill:#301b0b;fill-opacity:1;fill-rule:nonzero;stroke:none;stroke-width:3;marker:none;visibility:visible;display:inline;overflow:visible;enable-background:accumulate"
         id="path5464-3"
         sodipodi:cx="236.28346"
         sodipodi:cy="74.355247"
         sodipodi:rx="5.1226764"
         sodipodi:ry="5.1226764"
         d="m 241.40614,74.355247 a 5.1226764,5.1226764 0 0 1 -5.12268,5.122677 5.1226764,5.1226764 0 0 1 -5.12267,-5.122677 5.1226764,5.1226764 0 0 1 5.12267,-5.122676 5.1226764,5.1226764 0 0 1 5.12268,5.122676 z" />
      <path
         style="color:#000000;fill:#301b0b;fill-opacity:1;fill-rule:nonzero;stroke:none;stroke-width:3;marker:none;visibility:visible;display:inline;overflow:visible;enable-background:accumulate"
         d="m 675.10434,866.80517 c 10.19213,0 22.88643,-4.3893 26.98727,-11.35923 1.60209,-2.72297 -1.7288,-4.66214 -3.50909,-2.66012 -4.06778,4.5744 -12.15182,9.03871 -22.12118,9.03871 -12.95809,0 -22.62793,-9.46898 -22.62793,-29.87419 0,-20.40521 11.6517,-29.54286 23.62793,-29.54286 15.66386,0 17.14364,9.80891 19.43921,15.19048 0.49634,1.16357 4.02249,0.69334 4.02249,-1.05192 0,-2.87779 0,-6.82267 0,-10.64044 0,-1.40372 -2.13578,-1.87183 -3.39589,-2.49032 -6.13223,-3.00987 -12.32782,-5.65981 -21.42281,-5.65981 -16.18202,0 -34.60797,8.69238 -34.60797,34.19487 0,25.50248 16.88713,34.85483 33.60797,34.85483 z"
         id="path5466-0"
         inkscape:connector-curvature="0"
         sodipodi:nodetypes="sssszsssssszs" />
      <path
         sodipodi:nodetypes="sssssssss"
         inkscape:connector-curvature="0"
         id="path5670-4"
         d="m 482.65977,824.20461 8.72456,5.64852 c 1.75156,1.13401 3.69715,-0.78847 2.32121,-2.40125 l -9.7651,-11.44598 c -0.61715,-0.72338 -3.1796,-0.71953 -3.79346,0 l -9.7651,11.44598 c -1.37594,1.61278 0.56965,3.53526 2.32121,2.40125 l 8.72456,-5.64852 c 0.38671,-0.25036 0.92791,-0.19695 1.23212,0 z"
         style="color:#000000;fill:#301b0b;fill-opacity:1;fill-rule:nonzero;stroke:none;stroke-width:3;marker:none;visibility:visible;display:inline;overflow:visible;enable-background:accumulate" />
      <path
         style="color:#000000;fill:#301b0b;fill-opacity:1;fill-rule:nonzero;stroke:none;stroke-width:3;marker:none;visibility:visible;display:inline;overflow:visible;enable-background:accumulate"
         d="m 476.92684,847.09334 c 4.80459,0 11.16107,0 16.63222,0 0.49052,0 0.87727,-0.36174 0.87727,-0.88989 0,-3.28488 -5.33859,-9.73487 -10.61215,-9.73487 -6.99085,0 -12.0749,5.72934 -12.112,13.12476 -0.0371,7.39542 6.93209,12.96696 12.111,12.96696 4.84225,0 8.61511,-1.66717 10.75465,-3.22609 2.31589,-1.68742 5.15322,1.50231 2.99969,3.39589 -2.92806,2.57462 -8.26348,4.86744 -13.75434,4.86744 -13.05118,0 -19.69514,-9.49775 -19.69514,-18.0042 0,-8.50645 5.91122,-16.86024 20.03573,-16.86024 12.08531,0 18.1114,8.80026 18.1114,16.63985 0,1.01946 -1.69725,1.92039 -2.71671,1.92039 -7.53474,0 -16.7185,0 -22.63162,0 -1.21843,0 -1.79492,-1.19318 -1.81877,-2.1 -0.0267,-1.01492 0.68363,-2.1 1.81877,-2.1 z"
         id="path5674-4"
         inkscape:connector-curvature="0"
         sodipodi:nodetypes="sssszsssszssssss" />
      <path
         style="color:#000000;fill:#301b0b;fill-opacity:1;fill-rule:nonzero;stroke:none;stroke-width:3;marker:none;visibility:visible;display:inline;overflow:visible;enable-background:accumulate"
         d="m 518.12535,856.73639 c 0,-6.28947 0,-12.96013 0,-20.26781 0,-0.9433 -1.32062,-1.69795 -2.26392,-1.69795 -1.34075,0 -2.94176,0.79238 -4.13167,0.79238 -2.05288,0 -3.5508,-0.56598 -4.52784,-0.56598 -1.69795,0 -2.88651,0.50311 -2.88651,1.81114 0,1.53067 2.12172,1.97141 3.79207,2.54691 0.83282,0.28694 2.32053,1.26986 2.32053,2.15073 0,5.47951 0,10.68162 0,16.21384 0,5.89917 5.28888,9.37148 10.46768,9.37148 3.71028,0 7.84492,-1.84123 9.68506,-4.08213 1.51725,-1.84768 -0.86486,-3.90836 -2.24117,-2.56134 -1.55743,1.52429 -3.0403,2.16113 -5.52289,2.16113 -2.4399,0 -4.69134,-2.94854 -4.69134,-5.8724 z"
         id="path5678-3"
         inkscape:connector-curvature="0"
         sodipodi:nodetypes="ssssssssssssss" />
      <path
         sodipodi:nodetypes="sssssssssssssss"
         inkscape:connector-curvature="0"
         id="path5680-1"
         d="m 540.42578,857.59334 c 0,-1.93214 0,-13.81708 0,-21.12476 0,-0.9433 -1.32062,-1.69795 -2.26392,-1.69795 -1.34075,0 -2.94176,0.79238 -4.13167,0.79238 -2.05288,0 -3.5508,-0.56598 -4.52784,-0.56598 -1.69795,0 -2.88651,0.50311 -2.88651,1.81114 0,1.53067 2.12172,1.97141 3.79207,2.54691 0.83282,0.28694 2.32053,1.26986 2.32053,2.15073 0,5.47951 0,15.53895 0,22.0548 0,1.68734 0.96748,2.40994 2.01449,2.40994 1.84245,0 2.92743,-0.21073 4.48234,-0.16008 1.43355,0.0467 2.96798,0.4002 4.4023,0.4002 1.62597,0 3.12163,-0.13088 3.12163,-1.52079 0,-1.34598 -1.89288,-2.01193 -3.12163,-2.56134 -1.77511,-0.79371 -3.20179,-0.53311 -3.20179,-4.5352 z"
         style="color:#000000;fill:#301b0b;fill-opacity:1;fill-rule:nonzero;stroke:none;stroke-width:3;marker:none;visibility:visible;display:inline;overflow:visible;enable-background:accumulate" />
      <path
         sodipodi:nodetypes="ssssssssssssssssss"
         inkscape:connector-curvature="0"
         id="path5686-8"
         d="m 449.52477,865.81047 c -1.43431,0 -2.96798,0.4002 -4.4023,0.4002 -1.62597,0 -3.12163,-0.13088 -3.12163,-1.52079 0,-1.34598 1.89288,-2.01193 3.12163,-2.56134 1.77511,-0.79371 3.2005,-0.53311 3.19638,-4.5352 -0.007,-6.51585 -0.005,-10.60802 -0.005,-16.08753 0,-0.88087 -1.48771,-1.86379 -2.32053,-2.15073 -1.67035,-0.5755 -3.79207,-1.01624 -3.79207,-2.54691 0,-1.30803 1.18856,-1.81114 2.88651,-1.81114 0.97704,0 2.47496,0.56598 4.52784,0.56598 1.18991,0 2.79092,-0.79238 4.13167,-0.79238 0.9433,0 2.26392,0.75465 2.26392,1.69795 0,7.30768 0,19.19262 0,21.12476 0,4.00209 1.42668,3.74149 3.20179,4.5352 1.22875,0.54941 3.12163,1.21536 3.12163,2.56134 0,1.38991 -1.49566,1.52079 -3.12163,1.52079 -1.43432,0 -2.96799,-0.4002 -4.4023,-0.4002 z"
         style="color:#000000;fill:#301b0b;fill-opacity:1;fill-rule:nonzero;stroke:none;stroke-width:3;marker:none;visibility:visible;display:inline;overflow:visible;enable-background:accumulate" />
      <path
         style="color:#000000;fill:#301b0b;fill-opacity:1;fill-rule:nonzero;stroke:none;stroke-width:3;marker:none;visibility:visible;display:inline;overflow:visible;enable-background:accumulate"
         d="m 405.25585,799.793 c -1.1213,0 -2.11391,0.98721 -2.26392,2.15642 -0.32936,2.56713 -0.26664,6.37885 -0.45279,8.82361 -0.1746,2.29311 3.0374,2.62549 3.27583,0.24699 0.24771,-2.47109 0.82233,-6.72668 3.17636,-6.72668 2.15771,0 6.22394,0 7.31302,0 1.27516,0 2.61601,1.17901 2.61601,2.3 0,5.47951 -0.002,44.48415 0.005,51 0.004,4.00209 -1.42127,3.74149 -3.19638,4.5352 -1.22875,0.54941 -3.12163,1.21536 -3.12163,2.56134 0,1.38991 1.49566,1.52079 3.12163,1.52079 1.43432,0 2.96799,-0.4002 4.4023,-0.4002 l 7.9999,0 c 1.43431,0 2.96798,0.4002 4.4023,0.4002 1.62597,0 3.12163,-0.13088 3.12163,-1.52079 0,-1.34598 -1.89288,-2.01193 -3.12163,-2.56134 -1.77511,-0.79371 -3.20179,-0.53311 -3.20179,-4.5352 0,-1.93214 1.2e-4,-43.69231 -1.8e-4,-51 -5e-5,-1.12099 1.34068,-2.3 2.61584,-2.3 1.08908,0 5.15531,0 7.31302,0 2.35403,0 2.92865,4.25559 3.17636,6.72668 0.23843,2.3785 3.45043,2.04612 3.27583,-0.24699 -0.18615,-2.44476 -0.12343,-6.25648 -0.45279,-8.82361 -0.15001,-1.16921 -1.14262,-2.15642 -2.26392,-2.15642 z"
         id="path5688-8"
         inkscape:connector-curvature="0"
         sodipodi:nodetypes="sssssssssssssssssssssssss" />
      <path
         sodipodi:nodetypes="ssssssssssssszscssszsss"
         inkscape:connector-curvature="0"
         id="path5690-6"
         d="m 379.53434,833.29334 c -0.29779,0 -0.58702,-0.13976 -0.58702,-0.6 0,0 0,-12.09865 0,-17.1 0,-1.03665 -1.02101,-1.9904 -2.15098,-1.9904 -1.12997,0 -2.262,0.87692 -2.262,1.9904 0,2.71357 0,2.28444 0,5.00932 0,7.81075 -4.73728,12.47003 -6.23152,12.47003 -1.69795,0 -3.16548,1.40868 -3.16548,2.71671 0,1.53068 1.87947,2.29589 3.54982,2.75819 0.84895,0.23496 2.56278,1.39885 2.56278,2.27972 0,5.47951 0,11.36012 0,16.89234 0,5.89917 3.25135,9.03189 8.43015,9.03189 4.51777,0 8.31356,-4.00855 9.49831,-7.54936 0.75862,-2.26726 -1.94402,-3.7713 -3.33995,-1.72214 -1.39594,2.04916 -2.65434,2.86483 -4.23136,2.86483 -0.96835,0 -2.65981,-0.91101 -2.65981,-3.60848 0,-6.28947 -0.0129,-11.53536 -0.0129,-18.84305 0,-0.4378 0.35931,-0.6 0.6,-0.6 2.32758,0 5.14612,0 7.3,0 0.91363,0 1.87414,-0.84625 1.87414,-2 0,-1.15375 -0.96051,-2 -1.87414,-2 -2.07444,0 -5.07132,0 -7.3,0 z"
         style="color:#000000;fill:#301b0b;fill-opacity:1;fill-rule:nonzero;stroke:none;stroke-width:3;marker:none;visibility:visible;display:inline;overflow:visible;enable-background:accumulate" />
      <path
         sodipodi:nodetypes="cssssssssssssssssssssc"
         inkscape:connector-curvature="0"
         id="path5692-3"
         d="m 276.90369,857.59334 c 0,4.00209 1.42668,3.74149 3.20179,4.5352 1.22875,0.54941 3.12163,1.21536 3.12163,2.56134 0,1.38991 -1.49566,1.52079 -3.12163,1.52079 -1.43432,0 -2.96799,-0.4002 -4.4023,-0.4002 l -7.9999,0 c -1.43431,0 -2.96798,0.4002 -4.4023,0.4002 -1.62597,0 -3.12163,-0.13088 -3.12163,-1.52079 0,-1.34598 1.89288,-2.01193 3.12163,-2.56134 1.77511,-0.79371 3.2005,-0.53311 3.19638,-4.5352 -0.007,-6.51585 -0.008,-43.92049 -0.002,-49.4 0.004,-4.00209 -1.41877,-3.72416 -3.19388,-4.51787 -1.22875,-0.54941 -3.12163,-1.21536 -3.12163,-2.56134 0,-1.38991 1.49566,-1.52079 3.12163,-1.52079 1.43432,0 2.96799,0.4002 4.4023,0.4002 l 7.9999,0 c 1.43431,0 2.96798,-0.4002 4.4023,-0.4002 1.62597,0 3.12163,0.13088 3.12163,1.52079 0,1.34598 -1.89288,2.01193 -3.12163,2.56134 -1.77511,0.79371 -3.20179,0.51578 -3.20179,4.51787 0,7.30769 0,47.46786 0,49.4 z"
         style="color:#000000;fill:#301b0b;fill-opacity:1;fill-rule:nonzero;stroke:none;stroke-width:3;marker:none;visibility:visible;display:inline;overflow:visible;enable-background:accumulate" />
      <path
         d="m 241.40614,74.355247 a 5.1226764,5.1226764 0 0 1 -5.12268,5.122677 5.1226764,5.1226764 0 0 1 -5.12267,-5.122677 5.1226764,5.1226764 0 0 1 5.12267,-5.122676 5.1226764,5.1226764 0 0 1 5.12268,5.122676 z"
         sodipodi:ry="5.1226764"
         sodipodi:rx="5.1226764"
         sodipodi:cy="74.355247"
         sodipodi:cx="236.28346"
         id="path5700-3"
         style="opacity:0.98999999;color:#000000;fill:#301b0b;fill-opacity:1;fill-rule:nonzero;stroke:none;stroke-width:3;marker:none;visibility:visible;display:inline;overflow:visible;enable-background:accumulate"
         sodipodi:type="arc"
         transform="translate(110.04617,802.56918)" />
      <path
         sodipodi:nodetypes="ssssssssssssss"
         inkscape:connector-curvature="0"
         id="path5702-6"
         d="m 718.37385,856.73639 c 0,-6.28947 0,-12.96013 0,-20.26781 0,-0.9433 -1.32062,-1.69795 -2.26392,-1.69795 -1.34075,0 -2.94176,0.79238 -4.13167,0.79238 -2.05288,0 -3.5508,-0.56598 -4.52784,-0.56598 -1.69795,0 -2.88651,0.50311 -2.88651,1.81114 0,1.53067 2.12172,1.97141 3.79207,2.54691 0.83282,0.28694 2.32053,1.26986 2.32053,2.15073 0,5.47951 0,10.68162 0,16.21384 0,5.89917 5.28888,9.37148 10.46768,9.37148 3.71028,0 7.84492,-1.84123 9.68506,-4.08213 1.51725,-1.84768 -0.86486,-3.90836 -2.24117,-2.56134 -1.55743,1.52429 -3.0403,2.16113 -5.52289,2.16113 -2.4399,0 -4.69134,-2.94854 -4.69134,-5.8724 z"
         style="color:#000000;fill:#301b0b;fill-opacity:1;fill-rule:nonzero;stroke:none;stroke-width:3;marker:none;visibility:visible;display:inline;overflow:visible;enable-background:accumulate" />
      <path
         style="color:#000000;fill:#301b0b;fill-opacity:1;fill-rule:nonzero;stroke:none;stroke-width:3;marker:none;visibility:visible;display:inline;overflow:visible;enable-background:accumulate"
         d="m 740.67428,857.59334 c 0,-1.93214 0,-13.81708 0,-21.12476 0,-0.9433 -1.32062,-1.69795 -2.26392,-1.69795 -1.34075,0 -2.94176,0.79238 -4.13167,0.79238 -2.05288,0 -3.5508,-0.56598 -4.52784,-0.56598 -1.69795,0 -2.88651,0.50311 -2.88651,1.81114 0,1.53067 2.12172,1.97141 3.79207,2.54691 0.83282,0.28694 2.32053,1.26986 2.32053,2.15073 0,5.47951 0,15.53895 0,22.0548 0,1.68734 0.96748,2.40994 2.01449,2.40994 1.84245,0 2.92743,-0.21073 4.48234,-0.16008 1.43355,0.0467 2.96798,0.4002 4.4023,0.4002 1.62597,0 3.12163,-0.13088 3.12163,-1.52079 0,-1.34598 -1.89288,-2.01193 -3.12163,-2.56134 -1.77511,-0.79371 -3.20179,-0.53311 -3.20179,-4.5352 z"
         id="path5704-0"
         inkscape:connector-curvature="0"
         sodipodi:nodetypes="sssssssssssssss" />
      <path
         sodipodi:nodetypes="ssssscsssssssszsssszscs"
         inkscape:connector-curvature="0"
         id="path5721-3"
         d="m 354.70638,866.21034 c 1.50908,0 4.16637,-0.39987 4.16637,-0.39987 1.42775,-0.13703 2.96798,0.4002 4.4023,0.4002 1.62597,0 3.12163,-0.13088 3.12163,-1.52079 0,-1.34598 -1.89288,-2.01193 -3.12163,-2.56134 -1.77511,-0.79371 -3.20179,-0.53311 -3.20186,-4.5352 0,0 -7e-5,-10.43384 -7e-5,-16.5158 0,-5.59275 -7.31197,-8.32435 -13.21061,-8.32435 -5.16517,0 -9.36079,1.1474 -12.72294,4.16218 -1.92394,1.72516 0.88627,5.29116 3.18225,3.44665 1.85298,-1.48862 4.81424,-2.89038 7.53365,-2.89038 3.669,0 7.51437,2.55489 7.51437,5.36682 0,4.64243 0,9.81473 0,13.92728 0,3.86713 -5.05019,7.0425 -9.25687,7.02426 -5.21173,-0.0226 -8.9734,-3.38374 -8.9734,-8.03971 0,-4.65597 3.29393,-8.58957 7.89432,-8.58957 2.78758,0 4.19456,0.17862 6.06043,1.4796 1.20874,0.8428 3.99637,-0.98827 2.2137,-2.92035 -1.84461,-1.99921 -6.34702,-3.12732 -9.31901,-3.12732 -6.7546,0 -14.69354,4.07041 -14.69354,12.50069 0,8.43028 6.19489,13.51859 16.16845,13.51859 4.95579,0 10.08527,-3.84201 10.08527,-3.84201 0.23951,0.87974 0.76127,1.44042 2.15719,1.44042 z"
         style="color:#000000;fill:#301b0b;fill-opacity:1;fill-rule:nonzero;stroke:none;stroke-width:3;marker:none;visibility:visible;display:inline;overflow:visible;enable-background:accumulate" />
      <path
         sodipodi:nodetypes="csssssssssssssssssssssssssssc"
         inkscape:connector-curvature="0"
         id="path5723-4"
         d="m 306.17976,825.93739 c -5.93784,0 -18.7185,0 -24.63162,0 -1.21842,0 -1.79491,-1.19318 -1.81876,-2.1 -0.0267,-1.01492 0.68363,-2.1 1.81876,-2.1 4.80459,0 19.21103,0 24.63222,0 1.16016,0 2.02535,-0.97948 2.02535,-1.80005 0,-4.25419 -0.056,-10.09156 0.003,-11.744 0.14304,-3.99954 -1.41877,-3.72416 -3.19388,-4.51787 -1.2287,-0.54941 -3.12158,-1.21536 -3.12158,-2.56134 0,-1.38991 1.49566,-1.52079 3.12163,-1.52079 1.43432,0 2.96799,0.4002 4.4023,0.4002 l 7.9999,0 c 1.43431,0 2.96798,-0.4002 4.4023,-0.4002 1.62597,0 3.12163,0.13088 3.12163,1.52079 0,1.34598 -1.89288,2.01193 -3.12163,2.56134 -1.77511,0.79371 -3.20179,0.51578 -3.20179,4.51787 0,7.30769 0,47.46786 0,49.4 0,4.00209 1.42668,3.74149 3.20179,4.5352 1.22875,0.54941 3.12163,1.21536 3.12163,2.56134 0,1.38991 -1.49566,1.52079 -3.12163,1.52079 -1.43432,0 -2.96799,-0.4002 -4.4023,-0.4002 l -7.9999,0 c -1.43431,0 -2.96798,0.4002 -4.4023,0.4002 -1.62597,0 -3.12163,-0.13088 -3.12163,-1.52079 0,-1.34598 1.89288,-2.01193 3.12163,-2.56134 1.77511,-0.79371 3.20068,-0.53311 3.19638,-4.5352 -0.004,-3.71381 -0.006,-17.50371 -0.006,-29.656 0,-0.9069 -2.98435,-1.99995 -2.0257,-1.99995 z"
         style="color:#000000;fill:#301b0b;fill-opacity:1;fill-rule:nonzero;stroke:none;stroke-width:3;marker:none;visibility:visible;display:inline;overflow:visible;enable-background:accumulate" />
      <path
         style="color:#000000;fill:#301b0b;fill-opacity:1;fill-rule:nonzero;stroke:none;stroke-width:3;marker:none;visibility:visible;display:inline;overflow:visible;enable-background:accumulate"
         d="m 769.05034,827.93734 c -9.2e-4,13.01593 -0.004,25.48108 0,29.656 0.004,4.00209 -1.44364,3.73754 -3.21875,4.53125 -1.22875,0.54941 -3.09375,1.21652 -3.09375,2.5625 0,1.38991 1.46778,1.53125 3.09375,1.53125 8.43791,0 19.20887,0.20557 27.68274,0 10.19472,-0.24732 32.107,-6.51401 32.107,-32.75 0,-26.23599 -21.69227,-33.875 -31.20075,-33.875 -8.61165,0 -20.21269,0.0695 -28.58899,0 -1.62591,-0.0135 -3.09375,0.14134 -3.09375,1.53125 0,1.34598 1.865,2.01309 3.09375,2.5625 1.77511,0.79371 3.22255,0.49791 3.21875,4.5 -10e-4,1.50418 6.5e-4,6.54527 0,11.56225 -1.5e-4,1.20063 -0.91647,2.00025 -2,2.00025 l -2.71875,0 c -1.13514,0 -1.8392,1.07883 -1.8125,2.09375 0.0239,0.90682 0.59407,2.09375 1.8125,2.09375 l 2.71875,0 c 1.08056,0 2.00008,0.91895 2,2.00025 z m 10.40149,-8.188 c 2e-5,-5.35424 0,-9.59723 0,-11.56225 0,-4.00209 1.24302,-4.5 3.1875,-4.5 l 8.25,0 c 11.9988,0 24.21203,11.03374 24.125,30.03125 -0.087,18.99751 -14.84291,28.40625 -24.125,28.40625 l -8.25,0 c -1.94448,0 -3.18725,-0.53289 -3.1875,-3.5 -1.6e-4,-1.92293 -5e-5,-16.58714 0,-30.68725 0,-1.24644 0.7954,-1.99997 1.9995,-2 l 11.78175,-2.5e-4 c 1.21843,-3e-5 1.78865,-1.18693 1.8125,-2.09375 0.0267,-1.01492 -0.67736,-2.09375 -1.8125,-2.09375 l -11.78175,0 c -1.12422,0 -1.9995,-0.91877 -1.9995,-2.00025 z"
         id="path5725-7"
         inkscape:connector-curvature="0"
         sodipodi:nodetypes="scsssszsssscssssssssssssssscssssss" />
      <path
         style="color:#000000;fill:#301b0b;fill-opacity:1;fill-rule:nonzero;stroke:none;stroke-width:3;marker:none;visibility:visible;display:inline;overflow:visible;enable-background:accumulate"
         d="m 725.98332,831.69082 c 4.57762,-2.83365 9.21502,-7.44424 9.21502,-11.26527 0,-5.60477 -3.53304,-8.83812 -9.737,-8.83812 -2.85847,0 -5.94892,0.57435 -8.46213,4.54781 -2.16705,3.42616 2.44402,5.9906 4.64243,3.04159 1.15412,-1.54818 2.62953,-2.09766 3.8197,-1.77399 1.47954,0.40237 2.37358,1.94124 2.26347,3.583 -0.23141,3.45031 -2.52048,5.58652 -4.48234,7.796 -1.70877,1.92445 0.6047,4.2313 2.74085,2.90898 z"
         id="path5743-9"
         inkscape:connector-curvature="0"
         sodipodi:nodetypes="sssssssss" />
      <path
         sodipodi:nodetypes="sssssssss"
         inkscape:connector-curvature="0"
         id="path5745-2"
         d="m 843.41132,831.69082 c 4.57762,-2.83365 9.21502,-7.44424 9.21502,-11.26527 0,-5.60477 -3.53304,-8.83812 -9.737,-8.83812 -2.85847,0 -5.94892,0.57435 -8.46213,4.54781 -2.16705,3.42616 2.44402,5.9906 4.64243,3.04159 1.15412,-1.54818 2.62953,-2.09766 3.8197,-1.77399 1.47954,0.40237 2.37358,1.94124 2.26347,3.583 -0.23141,3.45031 -2.52048,5.58652 -4.48234,7.796 -1.70877,1.92445 0.6047,4.2313 2.74085,2.90898 z"
         style="color:#000000;fill:#301b0b;fill-opacity:1;fill-rule:nonzero;stroke:none;stroke-width:3;marker:none;visibility:visible;display:inline;overflow:visible;enable-background:accumulate" />
      <path
         style="color:#000000;fill:#301b0b;fill-opacity:1;fill-rule:nonzero;stroke:none;stroke-width:3;marker:none;visibility:visible;display:inline;overflow:visible;enable-background:accumulate"
         d="m 843.63934,835.09334 c -10.93705,0 -17.75,6.97815 -17.75,16 0,9.02185 7.21727,16 17.75,16 10.53273,0 17.75,-6.97815 17.75,-16 0,-9.02185 -6.81295,-16 -17.75,-16 z m 0,4 c 5.30501,0 10.25,6.70427 10.25,12 0,5.29573 -4.48044,12 -10.25,12 -5.76956,0 -10.25,-6.70427 -10.25,-12 0,-5.29573 4.94499,-12 10.25,-12 z"
         id="path5754-8"
         inkscape:connector-curvature="0" />
    </g>
  </g>
</svg>
