<?xml version="1.0" encoding="UTF-8" standalone="no"?>
<!-- Created with Inkscape (http://www.inkscape.org/) -->

<svg
   xmlns:dc="http://purl.org/dc/elements/1.1/"
   xmlns:cc="http://creativecommons.org/ns#"
   xmlns:rdf="http://www.w3.org/1999/02/22-rdf-syntax-ns#"
   xmlns:svg="http://www.w3.org/2000/svg"
   xmlns="http://www.w3.org/2000/svg"
   xmlns:xlink="http://www.w3.org/1999/xlink"
   xmlns:sodipodi="http://sodipodi.sourceforge.net/DTD/sodipodi-0.dtd"
   xmlns:inkscape="http://www.inkscape.org/namespaces/inkscape"
   id="svg2"
   version="1.1"
   inkscape:version="0.92.2 (5c3e80d, 2017-08-06)"
   width="2481"
   height="3503"
   sodipodi:docname="Pepper-and-Carrot_by-David-Revoy_E19P05.svg"
   inkscape:export-filename="E:\Users\jamesmichael\Downloads\Compressed\eps\peppercarrot_ep19_translation-master\peppercarrot_ep19_translation-master\ph\Pepper-and-Carrot_by-David-Revoy_E19P05.png"
   inkscape:export-xdpi="98.181801"
   inkscape:export-ydpi="98.181801">
  <metadata
     id="metadata8">
    <rdf:RDF>
      <cc:Work
         rdf:about="">
        <dc:format>image/svg+xml</dc:format>
        <dc:type
           rdf:resource="http://purl.org/dc/dcmitype/StillImage" />
        <dc:title />
      </cc:Work>
    </rdf:RDF>
  </metadata>
  <defs
     id="defs6">
    <filter
       style="color-interpolation-filters:sRGB"
       id="filter4375-4-1-1-1-9"
       inkscape:label="deevad outline effect">
      <feFlood
         id="feFlood4377-7-9-0-8-1"
         flood-opacity="1"
         flood-color="rgb(0,0,0)"
         result="flood" />
      <feComposite
         id="feComposite4379-3-8-8-2-77"
         in2="SourceGraphic"
         in="flood"
         operator="in"
         result="composite1" />
      <feMorphology
         id="feMorphology4393-1-0-49-8-9"
         operator="dilate"
         radius="4"
         result="result3" />
      <feComposite
         id="feComposite4385-9-5-7-0-8"
         in2="result3"
         in="SourceGraphic"
         operator="over"
         result="composite2" />
    </filter>
    <filter
       inkscape:collect="always"
       style="color-interpolation-filters:sRGB"
       id="filter4827"
       x="-0.011355984"
       width="1.022712"
       y="-0.012582873"
       height="1.0251657">
      <feGaussianBlur
         inkscape:collect="always"
         stdDeviation="1.0041024"
         id="feGaussianBlur4829" />
    </filter>
    <filter
       style="color-interpolation-filters:sRGB;"
       inkscape:label="Drop Shadow"
       id="filter5583">
      <feFlood
         flood-opacity="1"
         flood-color="rgb(0,0,0)"
         result="flood"
         id="feFlood5573" />
      <feComposite
         in="flood"
         in2="SourceGraphic"
         operator="in"
         result="composite1"
         id="feComposite5575" />
      <feGaussianBlur
         in="composite1"
         stdDeviation="0.01"
         result="blur"
         id="feGaussianBlur5577" />
      <feOffset
         dx="-5"
         dy="-5"
         result="offset"
         id="feOffset5579" />
      <feComposite
         in="SourceGraphic"
         in2="offset"
         operator="over"
         result="fbSourceGraphic"
         id="feComposite5581" />
      <feColorMatrix
         result="fbSourceGraphicAlpha"
         in="fbSourceGraphic"
         values="0 0 0 -1 0 0 0 0 -1 0 0 0 0 -1 0 0 0 0 1 0"
         id="feColorMatrix5585" />
      <feFlood
         id="feFlood5587"
         flood-opacity="1"
         flood-color="rgb(0,0,0)"
         result="flood"
         in="fbSourceGraphic" />
      <feComposite
         in2="fbSourceGraphic"
         id="feComposite5589"
         in="flood"
         operator="in"
         result="composite1" />
      <feGaussianBlur
         id="feGaussianBlur5591"
         in="composite1"
         stdDeviation="0.01"
         result="blur" />
      <feOffset
         id="feOffset5593"
         dx="5"
         dy="5"
         result="offset" />
      <feComposite
         in2="offset"
         id="feComposite5595"
         in="fbSourceGraphic"
         operator="over"
         result="fbSourceGraphic" />
      <feColorMatrix
         result="fbSourceGraphicAlpha"
         in="fbSourceGraphic"
         values="0 0 0 -1 0 0 0 0 -1 0 0 0 0 -1 0 0 0 0 1 0"
         id="feColorMatrix5609" />
      <feFlood
         id="feFlood5611"
         flood-opacity="1"
         flood-color="rgb(0,0,0)"
         result="flood"
         in="fbSourceGraphic" />
      <feComposite
         in2="fbSourceGraphic"
         id="feComposite5613"
         in="flood"
         operator="in"
         result="composite1" />
      <feGaussianBlur
         id="feGaussianBlur5615"
         in="composite1"
         stdDeviation="0"
         result="blur" />
      <feOffset
         id="feOffset5617"
         dx="5"
         dy="-5"
         result="offset" />
      <feComposite
         in2="offset"
         id="feComposite5619"
         in="fbSourceGraphic"
         operator="over"
         result="fbSourceGraphic" />
      <feColorMatrix
         result="fbSourceGraphicAlpha"
         in="fbSourceGraphic"
         values="0 0 0 -1 0 0 0 0 -1 0 0 0 0 -1 0 0 0 0 1 0"
         id="feColorMatrix5621" />
      <feFlood
         id="feFlood5623"
         flood-opacity="1"
         flood-color="rgb(0,0,0)"
         result="flood"
         in="fbSourceGraphic" />
      <feComposite
         in2="fbSourceGraphic"
         id="feComposite5625"
         in="flood"
         operator="in"
         result="composite1" />
      <feGaussianBlur
         id="feGaussianBlur5627"
         in="composite1"
         stdDeviation="0"
         result="blur" />
      <feOffset
         id="feOffset5629"
         dx="-5"
         dy="5"
         result="offset" />
      <feComposite
         in2="offset"
         id="feComposite5631"
         in="fbSourceGraphic"
         operator="over"
         result="composite2" />
    </filter>
  </defs>
  <sodipodi:namedview
     pagecolor="#ffffff"
     bordercolor="#666666"
     borderopacity="1"
     objecttolerance="10"
     gridtolerance="10"
     guidetolerance="10"
     inkscape:pageopacity="0"
     inkscape:pageshadow="2"
     inkscape:window-width="1366"
     inkscape:window-height="705"
     id="namedview4"
     showgrid="false"
     inkscape:zoom="0.34350662"
     inkscape:cx="1276.8076"
     inkscape:cy="394.28228"
     inkscape:window-x="-8"
     inkscape:window-y="-8"
     inkscape:window-maximized="1"
     inkscape:current-layer="layer1" />
  <g
     inkscape:groupmode="layer"
     id="layer2"
     inkscape:label="artwork"
     sodipodi:insensitive="true">
    <image
       sodipodi:absref="E:\Users\jamesmichael\Downloads\Compressed\eps\peppercarrot_ep19_translation-master\peppercarrot_ep19_translation-master\ph\../gfx_Pepper-and-Carrot_by-David-Revoy_E19P05.png"
       xlink:href="../gfx_Pepper-and-Carrot_by-David-Revoy_E19P05.png"
       width="2481"
       height="3503"
       id="image10"
       x="0"
       y="0" />
  </g>
  <g
     inkscape:groupmode="layer"
     id="layer3"
     inkscape:label="speechbubbles">
    <path
       style="color:#000000;display:inline;overflow:visible;visibility:visible;fill:#ffffff;fill-opacity:1;fill-rule:nonzero;stroke:none;stroke-width:1.08141351px;marker:none;enable-background:accumulate"
       d="m 190.05318,267.71735 c 4.55604,-99.6967 50.27077,-172.699234 167.3294,-154.11535 62.70291,9.95445 133.94501,16.43953 127.99926,162.4871 -5.94582,146.0474 -108.39475,142.44307 -129.58174,145.88919 -21.18699,3.4463 -131.24178,-11.7074 -150.07148,-61.35714 -11.78695,-31.07939 -16.29461,-62.02837 -15.67544,-92.9038 z"
       id="path4546"
       inkscape:connector-curvature="0"
       sodipodi:nodetypes="cssssc" />
    <path
       style="color:#000000;display:inline;overflow:visible;visibility:visible;fill:#ffffff;fill-opacity:1;fill-rule:nonzero;stroke:none;stroke-width:1.24978435px;marker:none;filter:url(#filter4386);enable-background:accumulate"
       d="m 459.20039,389.99249 c 2.39859,-193.90702 63.48384,-207.93839 85.58996,-211.34876 10.91188,1.00583 73.64799,-17.68392 126.75543,-7.20779 53.10742,10.47611 97.00424,37.75605 99.88188,179.14949 4.96725,244.06763 -33.6472,202.88933 -80.10687,221.45227 -46.45968,18.56295 -100.19245,3.13003 -124.8897,6.11495 -48.70951,5.88701 -110.82664,16.94877 -107.2307,-188.16016 z"
       id="path3145"
       inkscape:connector-curvature="0"
       sodipodi:nodetypes="ccssssc" />
    <path
       style="color:#000000;display:inline;overflow:visible;visibility:visible;fill:#ffffff;fill-opacity:1;fill-rule:nonzero;stroke:none;stroke-width:1.28949845px;marker:none;enable-background:accumulate"
       d="m 1775.3948,362.77479 c 6.4538,-141.53704 39.1051,-194.39148 142.8735,-186.60713 133.2984,9.9996 205.9386,-30.12765 207.3276,236.34716 1.0871,208.54816 -137.9952,192.03016 -162.735,194.47044 -24.7397,2.44053 -154.2028,-10.05346 -172.9209,-81.31305 -12.4376,-47.34983 -15.6209,-118.97193 -14.5452,-162.89742 z"
       id="path4546-6"
       inkscape:connector-curvature="0"
       sodipodi:nodetypes="cssssc" />
    <path
       style="color:#000000;display:inline;overflow:visible;visibility:visible;fill:#ffffff;fill-opacity:1;fill-rule:nonzero;stroke:none;stroke-width:1px;marker:none;enable-background:accumulate"
       d="m 1718.3278,465.52749 c 34.2355,-19.71173 54.3987,3.34417 62.5308,8.32687 8.132,4.9827 37.4163,23.21994 64.0425,5.43127 26.6264,-17.78869 62.8269,-3.31025 62.8269,-3.31025 l -39.1174,27.48072 c 0,0 -38.4369,7.20044 -59.7592,-0.984 -21.3223,-8.18441 -44.9876,-30.85789 -56.2316,-33.04337 -11.2438,-2.1855 -22.2733,-7.94404 -34.292,-3.90124 z"
       id="path4018"
       inkscape:connector-curvature="0" />
    <path
       style="fill:#ffffff;fill-rule:evenodd;stroke:none;stroke-width:1.86704195px;stroke-linecap:butt;stroke-linejoin:miter;stroke-opacity:1"
       d="m 576.05279,893.38946 c 4.42254,-34.3593 16.33198,-60.42869 29.29356,-77.83165 6.16835,-8.40194 13.21887,-14.55905 20.43366,-12.93949 7.16745,0.96773 14.16831,6.74526 21.41506,4.73851 8.81185,-0.66283 17.77841,-3.55465 26.48907,0.5775 7.74348,4.50877 15.72147,6.8439 23.71218,6.9793 5.63722,-2.86191 10.79563,4.76597 15.82999,9.32828 4.51957,4.92814 9.13595,10.09853 12.93212,17.72156 3.49742,10.70108 7.68514,20.01079 11.2234,30.61661 2.31517,5.79815 2.09272,13.80692 1.98607,21.21886 -0.30069,15.17814 -0.80988,30.5958 -2.69986,45.21862 -1.131,9.28352 -5.3114,12.35582 -8.52354,16.62181 -7.6004,9.00539 -15.67105,15.83445 -22.92468,26.43199 -7.18628,5.42632 -14.82331,2.8882 -22.19315,2.06814 -6.17545,-1.61527 -12.38762,-3.86773 -18.61614,-1.9893 -7.92741,1.37461 -15.83077,4.93387 -23.78655,4.47796 -9.96642,-3.12845 -19.51153,-10.83143 -29.16982,-17.01061 -8.66525,-5.44637 -16.56289,-15.6877 -24.14089,-26.64339 -4.04789,-6.22133 -8.33305,-13.45267 -9.76162,-24.91781 -1.17107,-7.89471 -1.44699,-16.34804 -1.49886,-24.66689 z"
       id="path4365"
       inkscape:connector-curvature="0" />
    <path
       style="fill:#ffffff;stroke:none"
       d="m 585.80257,1016.9897 c 25.0585,-22.43253 22.34002,-27.88279 18.28192,-33.62356 -4.05789,-5.74087 -9.0117,-10.26487 -5.47683,-15.76954 3.53471,-5.50448 11.83641,-12.20928 18.64507,-16.88605 6.80865,-4.67676 -0.15106,-6.98609 -1.33267,-11.71084 -1.18153,-4.72486 8.47495,-35.26533 8.47495,-35.26533 0,0 18.8861,11.27031 21.85273,16.73523 2.96681,5.46474 4.10423,7.43623 4.14842,10.18949 0.044,2.75343 -1.45956,10.07055 -7.37678,15.64632 -5.91727,5.57568 -12.97777,12.61891 -18.44474,16.52839 -5.46711,3.90944 -14.50851,8.27169 -13.27858,13.63411 1.23003,5.36237 10.23798,8.00805 0.82597,18.96164 -8.0678,9.38924 -26.31946,21.56014 -26.31946,21.56014 z"
       id="path3023-2"
       inkscape:connector-curvature="0"
       sodipodi:nodetypes="csssscssssssc" />
    <path
       style="fill:#ffffff;stroke:none;stroke-width:1.25683582"
       d="m 939.13131,873.40599 c -0.50065,-29.34779 15.65685,-110.54068 84.90829,-101.19924 69.2514,9.34144 90.6222,42.77162 92.1344,94.97167 2.3924,82.57902 -34.2889,102.58801 -86.7057,105.80303 -54.0362,3.31441 -87.38178,-25.34549 -90.33699,-99.57546 z"
       id="path3280"
       inkscape:connector-curvature="0"
       sodipodi:nodetypes="csssc" />
    <path
       style="color:#000000;display:inline;overflow:visible;visibility:visible;fill:#ffffff;fill-opacity:1;fill-rule:nonzero;stroke:none;stroke-width:0.83855915px;marker:none;enable-background:accumulate"
       d="m 1195.9465,854.98829 c 39.3547,2.31429 80.2815,16.39715 90.7174,45.39509 21.1446,58.75339 11.4262,162.87732 -11.2102,195.52382 -22.6364,32.6466 -95.8517,43.3178 -127.2275,31.2923 -28.6538,-10.9825 -55.0772,-42.6378 -57.4968,-136.80687 6.4728,-165.08549 75.6263,-136.88323 105.2171,-135.40434 z"
       id="path4040-6"
       inkscape:connector-curvature="0"
       sodipodi:nodetypes="cssscc" />
    <path
       style="color:#000000;display:inline;overflow:visible;visibility:visible;fill:#ffffff;fill-opacity:1;fill-rule:nonzero;stroke:none;stroke-width:1px;marker:none;enable-background:accumulate"
       d="m 1290.3321,1173.7871 c 19.4758,-56.0536 -15.5086,-73.6442 -35.8993,-79.8259 -46.2488,-14.0212 -31.454,-39.2745 -31.454,-39.2745 l 33.7545,-1.1746 c 0,0 85.1517,57.8008 33.5988,120.275 z"
       id="path3072"
       inkscape:connector-curvature="0"
       sodipodi:nodetypes="csccc" />
    <path
       inkscape:connector-curvature="0"
       style="color:#000000;display:inline;overflow:visible;visibility:visible;fill:#ffffff;fill-opacity:1;fill-rule:nonzero;stroke:none;stroke-width:1.21836662px;marker:none;enable-background:accumulate"
       d="m 2281.0781,2381.883 -69.4073,-65.1948 23.6172,-1.0281 -16.9746,-21.3281 c 27.9235,-86.6777 29.4532,-198.0523 17.9056,-285.5991 l 17.8434,-23.7486 -22.1038,-4.1822 c -0.6975,-3.9965 -1.4139,-7.9497 -2.1658,-11.801 l 21.9275,-25.7076 -27.0005,2.491 c -0.1172,-0.4804 -0.2353,-0.9531 -0.3531,-1.4302 l 24.6138,-35.8247 -33.3728,5.7601 c -0.594,-1.725 -1.1928,-3.4142 -1.7992,-5.0614 l 51.8401,-45.2911 -65.3063,16.9913 c -1.8331,-2.8142 -3.6928,-5.2517 -5.5749,-7.3334 l 21.5108,-27.2455 -36.5393,14.6125 c -3.5658,-2.7637 -7.0547,-5.3785 -10.4907,-7.8878 l 6.2204,-21.4302 -19.6118,10.2394 c -33.3839,-20.7902 -69.4334,-31.787 -103.4063,-31.3655 -6.8191,0.084 -13.4403,0.4278 -19.886,0.9984 l -7.2181,-12.715 -16.1591,15.9594 c -7.6484,1.4671 -31.8983,4.7192 -38.9986,6.8973 l -12.9545,-16.2357 -14.5263,19.3911 -22.3499,-21.7171 9.6961,45.398 c -0.8794,0.6311 -1.744,1.2798 -2.6127,1.9247 l -47.199,-55.6587 15.2174,73.7326 -49.787,-36.1686 26.5496,71.8934 -32.4154,-20.5296 11.6315,54.5948 -0.147,4.1167 c -6.759,12.1945 -7.0326,27.3695 -13.0219,40.5319 -11.7119,89.5207 -26.8369,198.7975 -3.1279,293.4125 l -29.0511,45.5797 36.4883,-18.7576 c 0.3117,1.0007 1.995,6.6847 2.3093,7.6717 l -43.2121,47.3726 33.5197,-9.4038 -30.8788,45.9012 58.1249,-27.7449 -17.9413,25.4753 29.4593,-17.4537 c 1.5438,2.1919 3.1667,4.376 4.8656,6.5511 l -9.1389,23.795 17.0236,-14.4027 c 3.2599,3.6301 6.7195,7.2053 10.3823,10.6955 l -15.1568,37.0221 36.3882,-19.4185 c 2.9661,2.1387 6.007,4.2204 9.1292,6.2238 l -1.6113,28.3791 32.8391,-12.0378 c 48.2515,19.9365 107.8321,21.2828 167.1435,-18.7086 l 49.1642,-20.0962 -4.3617,-18.6974 36.2489,16.5956 -16.8654,-30.9118 41.6289,11.3271 L 2204.5092,2348 Z"
       id="path4040-0"
       sodipodi:nodetypes="ccccccccccccccccccccccccccccccccccccccccccccccccccccccccccccccccccc" />
    <path
       style="fill:#ffffff;fill-rule:evenodd;stroke:none;stroke-width:1px;stroke-linecap:butt;stroke-linejoin:miter;stroke-opacity:1"
       d="m 1731.8549,2318.594 120.8192,-66.2832 -29.5759,-16.5028 85.742,-43.3793 -33.6402,-26.9702 -85.496,68.298 33.0867,19.9442 z"
       id="path4667"
       inkscape:connector-curvature="0"
       sodipodi:nodetypes="cccccccc" />
    <path
       style="color:#000000;display:inline;overflow:visible;visibility:visible;fill:#ffffff;fill-opacity:1;fill-rule:nonzero;stroke:none;stroke-width:1px;marker:none;enable-background:accumulate"
       d="m 314.01779,3001.9259 c -3.83833,-24.6348 6.39721,-90.0708 85.0833,-84.6819 78.68602,5.3888 91.48056,36.1822 93.39969,45.4202 1.9192,9.2381 18.55201,61.5869 -42.86148,75.444 -61.41355,13.857 -116.42977,-0.7699 -135.62151,-36.1823 z"
       id="path3525-3"
       inkscape:connector-curvature="0" />
    <path
       style="color:#000000;display:inline;overflow:visible;visibility:visible;fill:#ffffff;fill-opacity:1;fill-rule:nonzero;stroke:none;stroke-width:1.65143847px;marker:none;enable-background:accumulate"
       d="m 418.42375,3197.9172 c -5.6772,-64.5264 9.46198,-235.9247 125.845,-221.8093 116.38293,14.1149 135.30707,94.773 138.14562,118.9702 2.83865,24.1975 27.43991,161.3163 -63.39556,197.6124 -90.83555,36.2961 -172.20894,-2.0165 -200.59506,-94.7733 z"
       id="path3525"
       inkscape:connector-curvature="0" />
    <path
       style="fill:#ffffff;stroke:none"
       d="m 666.21256,3190.3917 c -44.62498,5.3378 -48.87324,-16.857 -54.0967,-32.1561 -5.22349,-15.2991 -11.0824,-20.5456 -20.74361,-24.9442 -9.6612,-4.3986 -33.88162,-7.782 -44.47409,-6.2556 -10.5926,1.5264 -4.87351,-12.4886 -10.52472,-22.0949 -5.65131,-9.6062 -47.54922,-52.2623 -47.54922,-52.2623 0,0 3.4134,45.1382 8.94731,58.4623 5.5339,13.3241 7.48813,18.2238 11.18512,22.9303 3.69708,4.7066 14.53763,14.9729 25.78771,16.1963 11.25004,1.2234 22.42429,-3.0138 31.13833,-3.9792 8.71399,-0.9656 20.03664,6.8038 26.52017,17.5528 6.48353,10.749 24.88779,32.9147 43.24472,32.9979 18.35692,0.083 30.56498,-6.4473 30.56498,-6.4473 z"
       id="path3023"
       inkscape:connector-curvature="0"
       sodipodi:nodetypes="csssscssssssc" />
    <path
       style="color:#000000;display:inline;overflow:visible;visibility:visible;fill:#ffffff;fill-opacity:1;fill-rule:nonzero;stroke:none;stroke-width:1.34064424px;marker:none;enable-background:accumulate"
       d="m 1815.3716,2939.9782 c 22.9636,-70.6825 215.6153,-141.5342 282.9314,8.1402 67.3161,149.674 25.8843,325.0061 -13.0575,379.8918 -38.9416,54.8863 -153.3071,112.4897 -205.3208,62.4559 -52.0139,-50.0337 -92.4516,-123.5183 -94.769,-271.1683 -0.9458,-60.2616 7.2523,-108.6364 30.2159,-179.3196 z"
       id="path4040"
       inkscape:connector-curvature="0"
       sodipodi:nodetypes="zssssz" />
  </g>
  <g
     inkscape:groupmode="layer"
     id="layer1"
     inkscape:label="txt">
    <text
       xml:space="preserve"
       style="font-style:normal;font-variant:normal;font-weight:normal;font-stretch:normal;line-height:0%;font-family:Lavi;-inkscape-font-specification:Lavi;text-align:center;letter-spacing:0px;word-spacing:0px;text-anchor:middle;fill:#000000;fill-opacity:1;stroke:none"
       x="345.85849"
       y="204.27539"
       id="text4246-3-3-2"><tspan
         sodipodi:role="line"
         style="font-size:45px;line-height:1.25"
         x="353.76865"
         y="204.27539"
         id="tspan3752">Lahat </tspan><tspan
         sodipodi:role="line"
         style="font-size:45px;line-height:1.25"
         x="353.76865"
         y="260.52539"
         id="tspan4843">tayo </tspan><tspan
         sodipodi:role="line"
         style="font-size:45px;line-height:1.25"
         x="345.85849"
         y="316.77539"
         id="tspan4860">nagkaka-</tspan><tspan
         sodipodi:role="line"
         style="font-size:45px;line-height:1.25"
         x="345.85849"
         y="373.02539"
         id="tspan4857">mali</tspan></text>
    <text
       xml:space="preserve"
       style="font-style:normal;font-variant:normal;font-weight:normal;font-stretch:normal;line-height:0%;font-family:Lavi;-inkscape-font-specification:Lavi;text-align:center;letter-spacing:0px;word-spacing:0px;text-anchor:middle;fill:#000000;fill-opacity:1;stroke:none"
       x="620.38367"
       y="301.89743"
       id="text4246-3-3-2-3"><tspan
         sodipodi:role="line"
         style="font-size:45px;line-height:1.25"
         x="628.29382"
         y="301.89743"
         id="tspan4847">Hindi na </tspan><tspan
         sodipodi:role="line"
         style="font-size:45px;line-height:1.25"
         x="620.38367"
         y="358.14743"
         id="tspan4851">ako ang</tspan><tspan
         sodipodi:role="line"
         style="font-size:45px;line-height:1.25"
         x="620.38367"
         y="376.68097"
         id="tspan4845" /><tspan
         sodipodi:role="line"
         style="font-size:45px;line-height:1.25"
         x="628.29382"
         y="414.39743"
         id="tspan4173">Cayenne </tspan><tspan
         sodipodi:role="line"
         style="font-size:45px;line-height:1.25"
         x="628.29382"
         y="470.64743"
         id="tspan4853">na nagsulat </tspan><tspan
         sodipodi:role="line"
         style="font-size:45px;line-height:1.25"
         x="620.38367"
         y="526.89746"
         id="tspan4855">niyan.</tspan></text>
    <text
       xml:space="preserve"
       style="font-style:normal;font-variant:normal;font-weight:normal;font-stretch:normal;line-height:0%;font-family:Lavi;-inkscape-font-specification:Lavi;text-align:center;letter-spacing:0px;word-spacing:0px;text-anchor:middle;fill:#000000;fill-opacity:1;stroke:none"
       x="1948.8109"
       y="307.46765"
       id="text4246-3-3-2-3-5"><tspan
         sodipodi:role="line"
         style="font-size:45px;line-height:1.25"
         x="1956.7211"
         y="307.46765"
         id="tspan3742">May ibang </tspan><tspan
         sodipodi:role="line"
         style="font-size:45px;line-height:1.25"
         x="1956.7211"
         y="363.71765"
         id="tspan4864">rason kung </tspan><tspan
         sodipodi:role="line"
         style="font-size:45px;line-height:1.25"
         x="1956.7211"
         y="419.96765"
         id="tspan4874">bakit nakabaon </tspan><tspan
         sodipodi:role="line"
         style="font-size:45px;line-height:1.25"
         x="1956.7211"
         y="476.21765"
         id="tspan4866">ang journal </tspan><tspan
         sodipodi:role="line"
         style="font-size:45px;line-height:1.25"
         x="1948.8109"
         y="532.46765"
         id="tspan4868">na yan.</tspan></text>
    <text
       xml:space="preserve"
       style="font-style:normal;font-variant:normal;font-weight:normal;font-stretch:normal;line-height:0%;font-family:Lavi;-inkscape-font-specification:Lavi;text-align:center;letter-spacing:0px;word-spacing:0px;text-anchor:middle;fill:#000000;fill-opacity:1;stroke:none"
       x="649.6814"
       y="918.87958"
       id="text4246-3-3-2-3-5-6"><tspan
         sodipodi:role="line"
         style="font-size:45px;line-height:1.25"
         x="649.6814"
         y="918.87958"
         id="tspan4208-1">...</tspan></text>
    <text
       xml:space="preserve"
       style="font-style:normal;font-variant:normal;font-weight:normal;font-stretch:normal;line-height:0%;font-family:Lavi;-inkscape-font-specification:Lavi;text-align:center;letter-spacing:0px;word-spacing:0px;text-anchor:middle;fill:#000000;fill-opacity:1;stroke:none"
       x="1024.4091"
       y="875.97186"
       id="text4246-3-3-2-3-5-6-2"><tspan
         sodipodi:role="line"
         style="font-size:45px;line-height:1.25"
         x="1024.4091"
         y="875.97186"
         id="tspan4208-1-7">OK</tspan><tspan
         sodipodi:role="line"
         style="font-size:45px;line-height:1.25"
         x="1024.4091"
         y="932.22186"
         id="tspan4880">...?</tspan></text>
    <text
       xml:space="preserve"
       style="font-style:normal;font-variant:normal;font-weight:normal;font-stretch:normal;line-height:0%;font-family:Lavi;-inkscape-font-specification:Lavi;text-align:center;letter-spacing:0px;word-spacing:0px;text-anchor:middle;fill:#000000;fill-opacity:1;stroke:none"
       x="1191.9766"
       y="989.34692"
       id="text4246-3-3-2-3-5-6-2-0"><tspan
         sodipodi:role="line"
         style="font-size:45px;line-height:1.25"
         x="1191.9766"
         y="989.34692"
         id="tspan3735">Eh eto?</tspan><tspan
         sodipodi:role="line"
         style="font-size:45px;line-height:1.25"
         x="1191.9766"
         y="1045.5969"
         id="tspan4878">Anu to!?</tspan></text>
    <text
       id="text4178-6-5-9-0-7-0-4"
       style="font-style:normal;font-variant:normal;font-weight:normal;font-stretch:normal;line-height:0%;font-family:Lavi;-inkscape-font-specification:Lavi;text-align:center;letter-spacing:0px;word-spacing:0px;text-anchor:middle;opacity:1;fill:#ffffff;fill-opacity:1;stroke:none;filter:url(#filter4827)"
       xml:space="preserve"
       y="3129.8394"
       x="1318.7137"
       transform="matrix(0.68323005,-0.18026525,0.27547669,0.60843919,-261.43744,-182.58505)"><tspan
         y="3129.8394"
         x="1318.7137"
         style="font-style:normal;font-variant:normal;font-weight:normal;font-stretch:normal;font-size:40.67671585px;line-height:1.25;font-family:Fondamento;-inkscape-font-specification:Fondamento;fill:#ffffff;fill-opacity:1;"
         sodipodi:role="line"
         id="tspan4293-1-6-3-5-0-2">CHAOSAH</tspan><tspan
         y="3180.6853"
         x="1318.7137"
         style="font-style:normal;font-variant:normal;font-weight:normal;font-stretch:normal;font-size:40.67671585px;line-height:1.25;font-family:Fondamento;-inkscape-font-specification:Fondamento;fill:#ffffff;fill-opacity:1;"
         sodipodi:role="line"
         id="tspan4422">SUTRA</tspan><tspan
         y="3224.1907"
         x="1318.7137"
         style="font-style:normal;font-variant:normal;font-weight:normal;font-stretch:normal;font-size:32.06008911px;line-height:1.25;font-family:Fondamento;-inkscape-font-specification:Fondamento;fill:#ffffff;fill-opacity:1;"
         sodipodi:role="line"
         id="tspan4426">by</tspan><tspan
         y="3264.2659"
         x="1318.7137"
         style="font-style:normal;font-variant:normal;font-weight:normal;font-stretch:normal;font-size:32.06008911px;line-height:1.25;font-family:Fondamento;-inkscape-font-specification:Fondamento;fill:#ffffff;fill-opacity:1;"
         sodipodi:role="line"
         id="tspan4430">Thyme</tspan></text>
    <text
       xml:space="preserve"
       style="font-style:normal;font-variant:normal;font-weight:normal;font-stretch:normal;line-height:0%;font-family:Lavi;-inkscape-font-specification:Lavi;text-align:center;letter-spacing:0px;word-spacing:0px;text-anchor:middle;fill:#000000;fill-opacity:1;stroke:none"
       x="2040.7048"
       y="1937.1752"
       id="text4246-3-3-2-3-5-6-2-0-3"><tspan
         sodipodi:role="line"
         style="font-size:45px;line-height:1.25"
         x="2040.7048"
         y="1940.663"
         id="tspan3721" /><tspan
         sodipodi:role="line"
         style="font-size:45px;line-height:1.25"
         x="2040.7048"
         y="1940.663"
         id="tspan4882" /><tspan
         sodipodi:role="line"
         style="font-size:45px;line-height:1.25"
         x="2040.7048"
         y="1978.3794"
         id="tspan4907">Produkto lang</tspan><tspan
         sodipodi:role="line"
         style="font-size:45px;line-height:1.25"
         x="2048.615"
         y="2034.6295"
         id="tspan4886">'to ng aking </tspan><tspan
         sodipodi:role="line"
         style="font-size:45px;line-height:1.25"
         x="2048.615"
         y="2090.8794"
         id="tspan4890">kamangmangan, </tspan><tspan
         sodipodi:role="line"
         style="font-size:45px;line-height:1.25"
         x="2040.7048"
         y="2109.4128"
         id="tspan5637" /><tspan
         sodipodi:role="line"
         style="font-size:45px;line-height:1.25"
         x="2040.7048"
         y="2109.4128"
         id="tspan5639" /><tspan
         sodipodi:role="line"
         style="font-size:45px;line-height:1.25"
         x="2048.615"
         y="2147.1294"
         id="tspan5641" /><tspan
         sodipodi:role="line"
         style="font-size:45px;line-height:1.25"
         x="2040.7048"
         y="2165.6628"
         id="tspan4896" /><tspan
         sodipodi:role="line"
         style="font-size:45px;line-height:1.25"
         x="2040.7048"
         y="2165.6628"
         id="tspan5633" /><tspan
         sodipodi:role="line"
         style="font-size:45px;line-height:1.25"
         x="2048.615"
         y="2203.3794"
         id="tspan5635">Isa pa, </tspan><tspan
         sodipodi:role="line"
         style="font-size:45px;line-height:1.25"
         x="2048.615"
         y="2259.6294"
         id="tspan4884">Hindi to para </tspan><tspan
         sodipodi:role="line"
         style="font-size:45px;line-height:1.25"
         x="2040.7048"
         y="2315.8794"
         id="tspan4888">sa mga <tspan
   style="stroke:#000000"
   id="tspan5643">NENE</tspan>!</tspan></text>
    <use
       x="0"
       y="0"
       xlink:href="#text4178-6-5-9-0-7-0-4"
       id="use4440"
       transform="matrix(1.7191858,0.78546962,-0.89078499,2.0163672,807.20751,-1621.7765)"
       width="100%"
       height="100%" />
    <text
       xml:space="preserve"
       style="font-style:normal;font-variant:normal;font-weight:normal;font-stretch:normal;line-height:0%;font-family:Lavi;-inkscape-font-specification:Lavi;text-align:center;letter-spacing:0px;word-spacing:0px;text-anchor:middle;fill:#000000;fill-opacity:1;stroke:none"
       x="410.89767"
       y="2992.5725"
       id="text4246-3-3-2-3-5-6-2-0-3-6"><tspan
         sodipodi:role="line"
         style="font-size:45px;line-height:1.25"
         x="410.89767"
         y="2992.5725"
         id="tspan4328-8">So...</tspan></text>
    <text
       xml:space="preserve"
       style="font-style:normal;font-variant:normal;font-weight:normal;font-stretch:normal;line-height:0%;font-family:Lavi;-inkscape-font-specification:Lavi;text-align:center;letter-spacing:0px;word-spacing:0px;text-anchor:middle;fill:#000000;fill-opacity:1;stroke:none"
       x="538.89435"
       y="3099.8921"
       id="text4246-3-3-2-3-5-6-2-0-3-6-7"><tspan
         sodipodi:role="line"
         style="font-size:45px;line-height:1.25"
         x="546.8045"
         y="3099.8921"
         id="tspan4328-8-9">Ganun </tspan><tspan
         sodipodi:role="line"
         style="font-size:45px;line-height:1.25"
         x="538.89435"
         y="3156.1421"
         id="tspan5670">na nga</tspan><tspan
         sodipodi:role="line"
         style="font-size:45px;line-height:1.25"
         x="538.89435"
         y="3212.3921"
         id="tspan5672">...</tspan></text>
    <text
       xml:space="preserve"
       style="font-style:normal;font-variant:normal;font-weight:normal;font-stretch:normal;line-height:0%;font-family:Lavi;-inkscape-font-specification:Lavi;text-align:center;letter-spacing:0px;word-spacing:0px;text-anchor:middle;fill:#000000;fill-opacity:1;stroke:none"
       x="1956.076"
       y="2998.4731"
       id="text4246-3-3-2-3-5-6-2-0-3-6-7-2"><tspan
         sodipodi:role="line"
         style="font-size:45px;line-height:1.25"
         x="1963.9862"
         y="2998.4731"
         id="tspan3702">Hindi </tspan><tspan
         sodipodi:role="line"
         style="font-size:45px;line-height:1.25"
         x="1963.9862"
         y="3054.7231"
         id="tspan5652">talaga kayo </tspan><tspan
         sodipodi:role="line"
         style="font-size:45px;line-height:1.25"
         x="1956.076"
         y="3110.9731"
         id="tspan5660">nahihiya</tspan><tspan
         sodipodi:role="line"
         style="font-size:45px;line-height:1.25"
         x="1956.076"
         y="3129.5066"
         id="tspan5650" /><tspan
         sodipodi:role="line"
         style="font-size:45px;line-height:1.25"
         x="1956.076"
         y="3167.2231"
         id="tspan5654">o</tspan><tspan
         sodipodi:role="line"
         style="font-size:45px;line-height:1.25"
         x="1956.076"
         y="3223.4731"
         id="tspan5662">concerned</tspan><tspan
         sodipodi:role="line"
         style="font-size:45px;line-height:1.25"
         x="1956.076"
         y="3279.7231"
         id="tspan5664">man lang...</tspan></text>
    <text
       xml:space="preserve"
       style="font-style:normal;font-variant:normal;font-weight:normal;font-stretch:normal;font-size:54.66514587px;line-height:1.25;font-family:Lavi;-inkscape-font-specification:Lavi;letter-spacing:0px;word-spacing:0px;fill:#ffffff;fill-opacity:1;stroke:#ffffff;stroke-width:1.36662865;filter:url(#filter5583)"
       x="1595.5952"
       y="2154.6536"
       id="text4911"
       transform="matrix(1.2486546,0.40190471,-0.99026386,1.0592792,1232.4173,-343.04917)"><tspan
         sodipodi:role="line"
         id="tspan4909"
         x="1595.5952"
         y="2154.6536"
         style="fill:#ffffff;stroke:#ffffff;stroke-width:1.36662865">AKIN NA YAN!!!</tspan></text>
    <text
       xml:space="preserve"
       style="font-style:normal;font-weight:normal;font-size:40px;line-height:1.25;font-family:sans-serif;letter-spacing:0px;word-spacing:0px;fill:#000000;fill-opacity:1;stroke:none"
       x="2087.2959"
       y="3398.1985"
       id="text5668"><tspan
         sodipodi:role="line"
         id="tspan5666"
         x="2087.2959"
         y="3434.6917" /></text>
  </g>
</svg>
