<?xml version="1.0" encoding="UTF-8" standalone="no"?>
<!-- Created with Inkscape (http://www.inkscape.org/) -->

<svg
   id="svg2"
   version="1.1"
   inkscape:version="1.2 (dc2aedaf03, 2022-05-15)"
   width="2481"
   height="3503"
   sodipodi:docname="E37P06.svg"
   xmlns:inkscape="http://www.inkscape.org/namespaces/inkscape"
   xmlns:sodipodi="http://sodipodi.sourceforge.net/DTD/sodipodi-0.dtd"
   xmlns:xlink="http://www.w3.org/1999/xlink"
   xmlns="http://www.w3.org/2000/svg"
   xmlns:svg="http://www.w3.org/2000/svg"
   xmlns:rdf="http://www.w3.org/1999/02/22-rdf-syntax-ns#"
   xmlns:cc="http://creativecommons.org/ns#"
   xmlns:dc="http://purl.org/dc/elements/1.1/">
  <metadata
     id="metadata8">
    <rdf:RDF>
      <cc:Work
         rdf:about="">
        <dc:format>image/svg+xml</dc:format>
        <dc:type
           rdf:resource="http://purl.org/dc/dcmitype/StillImage" />
        <dc:title />
      </cc:Work>
    </rdf:RDF>
  </metadata>
  <defs
     id="defs6" />
  <sodipodi:namedview
     pagecolor="#ffffff"
     bordercolor="#666666"
     borderopacity="1"
     objecttolerance="10"
     gridtolerance="10"
     guidetolerance="10"
     inkscape:pageopacity="0"
     inkscape:pageshadow="2"
     inkscape:window-width="1920"
     inkscape:window-height="1056"
     id="namedview4"
     showgrid="false"
     inkscape:zoom="0.69960253"
     inkscape:cx="1136.3595"
     inkscape:cy="574.61199"
     inkscape:window-x="1920"
     inkscape:window-y="0"
     inkscape:window-maximized="1"
     inkscape:current-layer="layer3"
     inkscape:pagecheckerboard="0"
     inkscape:showpageshadow="0"
     inkscape:deskcolor="#d1d1d1" />
  <g
     inkscape:groupmode="layer"
     id="layer2"
     inkscape:label="artwork"
     sodipodi:insensitive="true">
    <image
       xlink:href="../gfx_Pepper-and-Carrot_by-David-Revoy_E37P06.png"
       y="0"
       x="0"
       id="image10"
       height="3503"
       width="2481" />
  </g>
  <g
     inkscape:groupmode="layer"
     id="layer3"
     inkscape:label="speechbubbles">
    <path
       style="fill:#ffffff;fill-rule:evenodd;stroke:none;stroke-width:1.66364px;stroke-linecap:butt;stroke-linejoin:miter;stroke-opacity:1"
       d="m 129.095,234.6388 c -1.62857,-66.38441 40.71746,-78.0979 63.51907,-82.00397 22.8018,-3.90372 117.26601,-23.42938 153.0973,7.80977 35.83129,31.23917 45.60361,83.95585 29.31655,103.4815 -16.28686,19.52329 -68.40523,48.81059 -100.97914,50.76245 C 241.47505,316.64039 171.44105,304.9269 148.63944,277.59144 125.83763,250.25839 129.095,234.6388 129.095,234.6388 Z"
       id="path1365"
       inkscape:connector-curvature="0" />
    <path
       style="fill:#ffffff;fill-rule:evenodd;stroke:none;stroke-width:1.18625px;stroke-linecap:butt;stroke-linejoin:miter;stroke-opacity:1"
       d="m 276.57128,286.65867 c 0,0 -8.31854,14.71485 -3.94644,34.32306 4.3721,19.60821 13.90542,39.57744 34.7933,54.14841 -41.89702,-20.22752 -65.69947,-37.55159 -66.67128,-74.5854 -0.97218,-37.03494 35.82442,-13.88607 35.82442,-13.88607 z"
       id="path1357"
       inkscape:connector-curvature="0" />
    <path
       style="fill:#ffffff;fill-rule:evenodd;stroke:none;stroke-width:0.785069px;stroke-linecap:butt;stroke-linejoin:miter;stroke-opacity:1"
       d="m 993.26171,186.69449 c -40.63103,1.19933 -81.73707,1.06407 -121.60006,7.17005 -17.92906,3.00488 -36.14035,7.33198 -49.90747,15.91505 -14.81571,9.96483 -22.77784,23.4875 -27.43469,36.97735 -8.87885,25.3834 -8.20968,52.74566 6.14029,77.18691 6.96681,11.80298 17.70936,23.15357 33.85608,30.17922 16.64296,7.03635 35.65567,10.91293 54.40237,14.57496 32.00518,5.31467 65.28633,4.83621 97.98087,3.84562 29.1145,-0.93525 58.7033,-3.13143 85.8474,-10.68482 15.013,-4.07172 29.8947,-9.24132 41.0504,-17.2826 11.9221,-9.16557 17.9964,-21.02196 21.4554,-32.78302 5.6692,-20.11772 3.7795,-40.79732 -0.5528,-60.94206 -1.9382,-10.05474 -3.4905,-20.58654 -11.3687,-29.48613 -7.8118,-8.41882 -20.8665,-13.75329 -33.7782,-18.10981 -29.6592,-10.12528 -62.5692,-16.84501 -96.09089,-16.56072 z"
       id="path1353"
       inkscape:connector-curvature="0"
       sodipodi:nodetypes="csssscscsscsc" />
    <path
       style="color:#000000;display:inline;overflow:visible;visibility:visible;fill:#ffffff;fill-opacity:1;fill-rule:nonzero;stroke:none;stroke-width:0.861851px;marker:none;enable-background:accumulate"
       d="m 953.70508,340.64258 c -7.89156,5.93196 -11.59104,16.28682 -10.73276,25.94957 0.42223,4.4898 2.07058,8.76171 2.48862,13.25746 1.01197,7.55227 1.05293,15.42171 -1.40821,22.71484 -1.20442,1.72882 -3.79048,1.05453 -5.01568,-0.29626 -10.07465,-6.60916 -20.06188,-13.83162 -31.69135,-17.45527 -3.79347,-0.92218 -7.49599,1.78526 -9.23632,5.00153 -1.4402,2.77657 -2.01316,5.92993 -2.32924,9.01606 -0.55273,6.5806 1.28554,13.1049 3.96106,19.05818 3.14714,8.05533 6.31422,16.4571 5.93458,25.25193 -0.84545,6.13098 -8.24835,10.22802 -13.88693,7.6472 -6.28697,-1.87961 -10.73205,-6.98767 -15.56562,-11.11151 -8.86497,-7.84865 -17.5953,-16.18188 -28.30526,-21.49467 -7.38254,-2.49937 -15.71863,0.24411 -21.23633,5.4668 -3.28278,2.9805 -6.07223,6.44058 -8.94141,9.80664 5.8814,-4.02407 11.87998,-8.29236 18.92579,-9.9668 5.92728,0.27474 10.83062,3.99283 15.65346,7.04174 9.22342,6.01627 16.39972,14.65414 22.20637,23.90936 3.76567,5.4691 7.51953,11.12941 12.67093,15.3981 3.2658,1.63675 6.90342,2.34098 10.46142,3.03947 5.33481,0.86184 10.93374,1.00049 16.1436,-0.58041 5.05084,-2.68449 7.63974,-8.48655 7.90731,-14.00736 1.31557,-10.50648 -1.34041,-20.96489 -4.32747,-30.9597 -1.34044,-4.77497 -2.55206,-9.60437 -3.14531,-14.53651 1.14339,-2.41987 4.68319,-2.64674 6.56055,-0.98047 7.59492,3.4498 13.00439,10.01681 19.08789,15.47852 8.59672,6.12612 21.82202,3.74033 27.89071,-4.84806 5.2193,-6.70376 6.94821,-15.35423 7.43486,-23.65494 0.82894,-10.02392 1.61175,-20.28559 5.5879,-29.65192 1.16442,-3.02572 2.64205,-5.92432 4.30918,-8.70251 -0.35144,-1.98682 -2.65366,-2.40619 -4.00685,-3.52799 -9.0205,-5.41384 -18.041,-10.82769 -27.06151,-16.24154 l -0.16601,-0.0293 z m 33.15039,19.79687 c -0.62158,0.68067 0.23902,-0.002 0,0 z"
       id="path5058-2"
       inkscape:connector-curvature="0"
       sodipodi:nodetypes="cscsssssscssssccscccc" />
    <path
       style="display:inline;fill:#ffffff;fill-rule:evenodd;stroke:none;stroke-width:1.00035px;stroke-linecap:butt;stroke-linejoin:miter;stroke-opacity:1"
       d="m 1173.1445,85.397215 c 44.9453,-0.463414 60.0909,0.344733 70.4996,1.354983 -1.9326,-2.470478 61.5065,-1.417509 132.8018,0.05891 -21.2124,-1.809131 35.3248,-1.928643 105.7041,-0.916818 -7.9601,-0.872767 10.223,58.90568 85.2118,22.77656 -22.6559,45.96681 -57.6548,76.28253 105.0693,21.06561 -47.6435,30.80918 -122.6459,69.74115 -18.6835,97.02039 -93.6198,12.02554 -117.5557,68.3397 -93.1353,95.0235 -44.6019,-54.00492 -83.2814,-45.12274 -65.899,41.03095 -44.8638,-40.90446 -81.6297,-68.53391 -90.1741,-21.98864 -17.6878,-26.16528 -59.5979,-27.42913 -80.4616,29.64513 -31.7772,-54.69918 -66.4919,-67.60153 -101.526,1.96349 -0.4956,-44.63382 -17.7092,-76.51256 -50.8253,-53.59717 z"
       id="path1100"
       inkscape:connector-curvature="0"
       sodipodi:nodetypes="cccccccccccccc" />
    <path
       style="display:inline;fill:#ffffff;fill-rule:evenodd;stroke:none;stroke-width:1.02035px;stroke-linecap:butt;stroke-linejoin:miter;stroke-opacity:1"
       d="m 2394.4792,802.66902 c -42.3914,0.57491 -56.6763,-0.42767 -66.4936,-1.68097 1.8228,3.06484 -58.0116,1.75854 -125.2556,-0.0731 20.0069,2.24438 -97.0198,12.60536 -163.3999,11.35011 6.0023,-10.18279 -47.7931,-10.17152 -73.0835,-0.15757 72.6255,-32.45072 98.2079,-98.5348 7.6797,-124.01874 64.3462,-4.85589 79.7958,-55.87849 -8.9939,-87.15318 81.6144,7.45346 77.8782,-15.36555 18.6475,-63.01035 69.4585,29.93175 127.1999,4.51295 86.8406,-58.17298 53.0056,35.31915 133.3928,77.20862 100.9827,-24.06269 56.3922,74.78739 76.8707,84.93972 96.549,14.13424 29.9715,67.85899 70.9604,59.05285 88.0025,15.25449 -3.1588,45.57622 10.5614,72.74359 41.7957,44.31509 z"
       id="path1100-1"
       inkscape:connector-curvature="0"
       sodipodi:nodetypes="cccccccccccccc" />
    <path
       style="display:inline;fill:#ffffff;fill-rule:evenodd;stroke:none;stroke-width:1.21129px;stroke-linecap:butt;stroke-linejoin:miter;stroke-opacity:1"
       d="m 1418.7386,299.99278 c 32.8791,33.53516 56.7879,77.06946 103.0231,108.5417 l -39.4041,4.85315 c 33.1236,33.29864 86.1701,72.49084 86.1701,72.49084 0,0 -36.1582,-9.1905 -137.95,-87.08512 l 35.6661,-4.58596 c -28.5603,-35.78999 -82.3648,-65.49689 -123.704,-98.20746 z"
       id="path957"
       sodipodi:nodetypes="cccccccc" />
    <path
       style="display:inline;fill:#ffffff;fill-rule:evenodd;stroke:none;stroke-width:1.15094px;stroke-linecap:butt;stroke-linejoin:miter;stroke-opacity:1"
       d="m 2135.3316,677.94435 c -94.5252,-53.78313 -255.9511,-97.55437 -255.9511,-97.55437 0,0 30.8361,-7.14437 136.3682,19.77436 l 147.9944,28.48852 c 276.9342,105.20644 -79.315,87.53799 -28.4115,49.29149 z"
       id="path957-2"
       sodipodi:nodetypes="ccccc" />
    <path
       style="fill:#ffffff;fill-rule:evenodd;stroke:none;stroke-width:1.9934px;stroke-linecap:butt;stroke-linejoin:miter;stroke-opacity:1"
       d="m 1344.4209,982.24085 c 8.1424,-54.88618 42.7478,-82.32837 89.5671,-88.21 46.8192,-5.87982 248.3452,-1.95873 274.8081,11.76145 26.4633,13.722 81.4247,45.08528 56.9975,109.7723 -24.4276,64.6872 -109.9235,54.8863 -152.6715,54.8863 -42.7478,0 -205.5971,5.8816 -232.06,-19.6018 -26.4631,-25.4835 -34.6054,-5.8799 -36.6412,-68.60825 z"
       id="path1297"
       inkscape:connector-curvature="0" />
    <path
       style="fill:#ffffff;fill-rule:evenodd;stroke:none;stroke-width:0.989485px;stroke-linecap:butt;stroke-linejoin:miter;stroke-opacity:1"
       d="m 1763.2585,1028.0138 c -44.1943,0.4776 -88.2501,4.4721 -132.3793,6.3997 -17.8399,3.2608 -35.7582,8.5253 -50.9365,18.6533 -11.9275,11.8857 -18.883,27.5524 -25.3416,42.7933 -5.6704,17.9917 -1.6704,37.0434 2.1145,54.9799 3.101,13.4516 9.4876,26.4406 19.9623,35.7311 9.0462,9.0827 20.2489,17.1447 33.4249,18.3904 12.4726,1.7647 25.0699,2.5188 37.517,4.482 25.5943,2.9413 51.3275,7.2967 77.1671,5.3437 35.2311,-3.4753 70.2482,-9.046 104.9202,-16.1266 9.1978,-2.1013 18.5013,-6.6801 23.2064,-15.2103 5.0168,-7.7973 9.4563,-16.0168 13.1648,-24.4921 4.4491,-13.6935 2.3424,-28.2568 2.8118,-42.3754 -0.1919,-11.669 0.2171,-24.209 -6.2762,-34.4855 -6.335,-10.6355 -15.5998,-19.1342 -24.5975,-27.5061 -9.7617,-8.49 -21.5607,-14.2286 -33.7611,-18.3694 -13.0771,-4.9184 -26.9082,-8.5816 -40.9968,-8.208 z"
       id="path1299"
       inkscape:connector-curvature="0"
       sodipodi:nodetypes="ccssssssscscc" />
    <path
       style="display:inline;fill:#ffffff;fill-rule:evenodd;stroke:none;stroke-width:1.41701px;stroke-linecap:butt;stroke-linejoin:miter;stroke-opacity:1"
       d="m 1664.9293,1117.0506 c 34.2196,26.7075 65.7646,19.7454 65.1772,-39.6058 16.326,64.6794 27.6554,79.4106 34.3745,48.0532 21.6146,27.8998 35.1147,20.7498 45.8328,1.5849 3.995,25.2625 12.5621,15.4205 19.9765,14.4285 2.442,5.7695 -5.9452,19.6011 27.9395,1.9574 2.195,7.5991 5.1517,14.1808 24.9996,-1.8135 5.1422,30.7158 21.64,-0.9446 38.5413,-34.8196 -10.53,42.0008 -6.1637,48.1362 7.2916,32.388 -6.1517,17.2334 -9.831,30.6118 13.5415,1.8067 -8.0016,31.9255 12.9904,10.5482 46.8743,-34.5313 -25.3159,38.1584 -48.1978,95.6848 9.9014,76.4166 -16.238,13.1987 -43.5563,54.7231 0.2976,72.1924 -8.1869,6.5569 -33.1814,-4.3023 -12.3314,25.3768 2.7934,3.4816 -6.5584,5.2255 11.2898,14.7569 -10.536,-0.9713 -16.9974,0.9723 -7.2916,14.4759 -19.2321,-1.3764 -27.7192,30.0889 -13.5995,48.2378 -27.8509,-23.6177 -29.3835,-15.437 -30.2081,-6.3999 -34.9052,-32.0934 -36.9542,-22.4398 -41.666,-16.1697 -17.0137,-0.3477 -34.0274,-4.825 -51.0411,29.0312 -4.4557,-21.5776 -13.3888,-38.3774 -51.041,-24.5271 16.5322,-26.6838 -6.987,-10.1324 -24.9996,0.474 9.864,-33.707 -15.1696,-12.2271 -46.8744,19.8026 17.7545,-36.9846 -2.4105,-24.1001 -32.2913,1.5613 22.7734,-66.8582 1.67,-78.1859 -51.041,-58.0023 21.0331,-12.5955 34.5399,-61.9501 12.6998,-92.8682 24.6201,9.7324 33.2731,-17.1386 5.4321,-34.501 36.8782,13.3182 24.6231,-32.0489 -1.7845,-59.3058 z"
       id="path4508-2"
       inkscape:connector-curvature="0"
       sodipodi:nodetypes="cccccccccccccccccccccccccccc" />
    <path
       style="display:inline;fill:#ffffff;fill-rule:evenodd;stroke:none;stroke-width:1.41701px;stroke-linecap:butt;stroke-linejoin:miter;stroke-opacity:1"
       d="m 1715.9751,1228.435 c 47.6698,27.5102 91.6137,20.3389 90.7954,-40.7962 22.7432,66.6234 38.5256,81.7973 47.8857,49.4975 30.1104,28.7383 48.9167,21.3734 63.8477,1.6325 5.5652,26.0218 17.4996,15.884 27.8283,14.8622 3.4019,5.9429 -8.2819,20.1902 38.9213,2.0162 3.0577,7.8275 7.1766,14.607 34.8258,-1.868 7.1634,31.639 30.1457,-0.973 53.6902,-35.8661 -14.6689,43.2631 -8.5864,49.5829 10.1576,33.3614 -8.5697,17.7514 -13.6951,31.5319 18.8641,1.861 -11.1467,32.885 18.0963,10.8652 65.2985,-35.5691 -35.2664,39.3052 -67.1422,98.5606 13.7932,78.7133 -22.6204,13.5954 -60.6764,56.3678 0.4145,74.3621 -11.4047,6.754 -46.2235,-4.4316 -17.1783,26.1396 3.8914,3.5862 -9.1361,5.3825 15.7274,15.2004 -14.6773,-1.0005 -23.6784,1.0015 -10.1577,14.911 -26.7914,-1.4178 -38.6144,30.9932 -18.9448,49.6875 -38.7979,-24.3275 -40.9329,-15.9009 -42.0816,-6.5922 -48.6249,-33.058 -51.4792,-23.1142 -58.043,-16.6557 -23.7011,-0.3581 -47.4021,-4.97 -71.1032,29.9038 -6.2069,-22.2262 -18.6513,-39.5309 -71.1029,-25.2643 23.0303,-27.4858 -9.7333,-10.4369 -34.8258,0.4882 13.7411,-34.72 -21.1322,-12.5946 -65.2987,20.3978 24.7331,-38.0962 -3.3579,-24.8244 -44.9836,1.6082 31.7247,-68.8676 2.3264,-80.5358 -71.103,-59.7455 29.3004,-12.9741 48.1161,-63.8121 17.6916,-95.6594 34.2971,10.0249 46.3513,-17.6537 7.5672,-35.5379 51.3734,13.7184 34.3014,-33.0122 -2.4859,-61.0883 z"
       id="path4508-2-3"
       inkscape:connector-curvature="0"
       sodipodi:nodetypes="cccccccccccccccccccccccccccc" />
    <path
       style="color:#000000;display:inline;overflow:visible;visibility:visible;fill:#ffffff;fill-opacity:1;fill-rule:nonzero;stroke:none;stroke-width:0.969926px;marker:none;enable-background:accumulate"
       d="m 1246.2312,1001.9329 c 22.2211,-34.14103 39.9857,-36.59103 52.6492,-39.61603 1.7643,3.396 6.1135,8.794 6.1135,8.794 1.3611,-5.44434 56.7367,-23.68633 64.0338,-12.39927 10.1747,-0.224 10.4078,17.98503 10.4078,17.98503 -1.59,-7.94978 -77.0372,12.13063 -85.791,20.76224 -4.4313,-9.518 -7.9052,-13.563 -7.9875,-17.682 -7.6447,-0.519 -31.1799,10.299 -39.4258,22.15603 z"
       id="path4456-5"
       inkscape:connector-curvature="0"
       sodipodi:nodetypes="cccccccc" />
    <path
       style="display:inline;fill:#ffffff;fill-rule:evenodd;stroke:none;stroke-width:0.82688px;stroke-linecap:butt;stroke-linejoin:miter;stroke-opacity:1"
       d="m 223.03839,2049.9977 c 44.40963,1.9562 108.39666,5.8779 57.9817,-1.6857 32.66257,1.8313 74.4298,5.4214 86.29409,2.504 11.54755,1.0885 18.41219,0.7184 12.62143,-1.5634 31.52989,2.8416 47.3862,1.7361 66.08925,1.3475 21.2963,2.0346 36.6284,1.6171 46.39705,-1.0877 -7.1015,5.6406 50.2879,1.5728 95.63051,-0.7951 -3.07518,1.2879 -30.40238,4.8783 16.18142,1.4514 -4.39723,1.8574 -3.94257,3.3811 100.135,-2.2207 -45.96467,5.0275 -24.28187,3.8873 -0.012,2.5113 -38.82049,5.4257 29.77888,9.4415 55.83106,8.9116 -77.90021,15.1943 -113.62842,42.3338 12.24418,88.4165 -49.05016,0.2837 -123.65447,-22.422 -98.99442,77.9462 -73.57472,-54.7599 -108.93439,-5.4464 -93.80044,40.6583 -43.95744,-62.393 -71.64944,-62.0197 -80.92629,9.4158 -25.33646,-60.767 -52.20379,-72.9244 -81.34293,-12.945 10.95777,-89.6863 -56.59211,-63.2022 -89.46096,-23.7851 25.74854,-41.6566 -20.31954,-48.5646 -72.57645,-9.3964 63.90502,-63.2583 18.53891,-58.536 -56.43499,-35.3941 89.38703,-46.0158 76.25662,-65.3801 -14.79036,-64.4883 111.07935,-6.0948 89.32452,-76.0106 38.93318,-79.8011 z"
       id="path740849"
       sodipodi:nodetypes="cccccccccccccccccccccc" />
    <path
       style="color:#000000;display:inline;overflow:visible;visibility:visible;fill:#ffffff;fill-opacity:1;fill-rule:nonzero;stroke:none;stroke-width:1px;marker:none;enable-background:accumulate"
       d="m 625.17576,2198.464 c 32.4119,11.8493 68.59806,43.3077 68.15392,52.5243 2.57923,-9.5085 6.6039,-17.4308 9.62749,-23.6657 13.04254,7.2714 43.8298,44.5047 61.80037,65.0819 -15.05247,-42.9 -51.67758,-88.1131 -70.34793,-102.0634 -0.43359,10.3146 -2.88747,18.5199 -5.87724,22.4034 -19.74556,7.9495 -28.17774,-60.2326 -25.11612,-64.3964 z"
       id="path5066-6"
       inkscape:connector-curvature="0"
       sodipodi:nodetypes="cccccccc" />
    <path
       style="color:#000000;display:inline;overflow:visible;visibility:visible;fill:#ffffff;fill-opacity:1;fill-rule:nonzero;stroke:none;stroke-width:1.71778px;marker:none;enable-background:accumulate"
       d="m 1876.7755,2268.1362 c 11.7561,76.7939 -80.6656,46.5565 -111.8121,31.507 63.0292,40.8155 94.4663,69.9248 -22.5914,68.0358 115.6097,58.0789 20.6766,60.3091 0.7095,78.5943 93.9627,11.6338 52.5463,93.5064 34.9161,96.2133 109.5495,0.03 72.5004,2.1424 76.1711,3.8204 9.7338,-0.789 55.2188,-3.1932 56.3665,-0.5235 73.9154,-2.5576 162.1416,-4.2154 166.5562,0.2415 30.4686,-2.2467 98.0865,0.9233 56.3667,-0.5235 74.3184,-3.4891 138.6314,-2.246 203.4819,-1.2719 17.7712,-1.0525 20.6837,-2.6659 76.0465,-2.2956 -7.2048,-1.0397 -12.7199,-66.3049 -7.9448,-76.2806 -6.2698,-14.3738 -7.3916,-29.3556 4.3679,-45.8568 -8.9105,-1.3044 -17.2147,-4.2642 -6.6052,-59.6777 -14.6023,2.9472 -104.9075,10.7526 -20.6806,-87.0778 -63.7337,45.3282 -187.9919,81.096 -170.8929,-22.8262 -35.6174,61.4705 -92.1787,88.3576 -111.5259,11.4433 -37.6563,69.8993 -84.0492,43.9845 -111.404,-4.9652 -21.7717,36.7737 -58.586,89.9323 -111.5255,11.4432 z"
       id="path3549-3-7-5"
       inkscape:connector-curvature="0"
       sodipodi:nodetypes="ccccccccccccccccccc" />
    <path
       style="display:inline;fill:#ffffff;fill-rule:evenodd;stroke:none;stroke-width:1.21419px;stroke-linecap:butt;stroke-linejoin:miter;stroke-opacity:1"
       d="m 1636.5226,2851.0879 c 21.774,-17.5421 20.3717,-56.2808 -6.3018,-68.6302 57.8746,-6.8043 13.0235,-36.2852 -16.4355,-70.6616 44.0346,20.9428 97.9946,59.1249 75.3907,-44.1382 31.2374,29.3266 56.7506,54.8915 76.3203,10.9689 9.9324,20.5299 30.3058,39.644 52.668,5.748 7.843,16.8092 16.7725,10.2693 26.8401,-20.7305 9.1423,38.2507 30.873,37.7324 53.5479,-3.0234 15.8866,41.8271 33.3992,76.5636 72.0236,19.2446 -5.9374,42.8166 14.0697,40.9106 45.8036,18.7903 -4.7817,18.5992 0.5687,24.7809 37.9905,9.9228 -9.9509,17.9945 -23.4241,28.8096 12.6562,23.41 -16.0334,16.3572 -33.626,52.5399 21.0054,43.5697 -42.861,27.6514 -18.4657,38.7879 -17.5436,54.8278 -30.6711,-9.6423 -44.8693,-5.4783 -14.1469,36.3353 -15.9289,-0.6819 -57.9551,-46.4501 -38.8072,13.4668 -24.3772,-33.6181 -51.7536,6.8157 -37.847,8.3712 l -57.9095,11.8883 -90.5652,-11.5149 -64.474,-0.1188 -54.1069,7.2007 c 8.8514,-26.0708 -9.8166,-17.0264 -24.373,-13.2285 -4.3063,-7.7029 6.753,-26.1596 -24.9519,-14.6865 1.7327,-18.9066 -13.662,-16.5481 -26.7838,-17.0118 z"
       id="path1058"
       sodipodi:nodetypes="cccccccccccccccccccccccc" />
    <path
       style="display:inline;fill:#ffffff;fill-rule:evenodd;stroke:none;stroke-width:1.71488px;stroke-linecap:butt;stroke-linejoin:miter;stroke-opacity:1"
       d="m 1718.6503,2964.7212 c 56.466,-0.5825 48.9848,25.1211 28.6499,56.1081 15.6433,-2.5793 52.2298,-31.8994 30.5356,13.1946 47.369,-17.7526 18.1863,15.8546 14.3371,32.3774 19.0943,-4.1122 30.7833,10.3273 7.56,66.3481 23.4509,-13.8076 59.2864,-63.8358 56.616,-1.2467 18.9848,-8.4161 43.9285,-39.1703 47.0942,11.7153 31.6837,-44.3356 60.6845,-49.506 66.9564,29.9854 23.3221,-52.0871 43.6308,-62.3489 59.5814,-12.1101 22.2099,-34.4734 53.8964,-44.3548 81.8167,19.1568 -8.151,-50.7943 4.2227,-82.9111 95.5628,-43.1701 -0.6625,-44.9451 18.3971,-65.7223 94.5671,-16.5146 -16.1887,-29.367 -55.3287,-75.659 35.7848,-25.8987 -47.9186,-62.0503 4.0731,-103.0987 43.9727,-146.6891 -48.5845,31.1181 -53.7307,19.8062 -35.4254,-14.4129 -77.2578,42.0069 -69.155,-17.995 -48.5975,-92.8809 -56.5723,41.2157 -48.4569,18.0913 -34.8942,-3.2564 -100.5483,44.738 -58.6128,-22.0051 -49.3283,-47.7773 -72.8371,116.8676 -51.4222,45.5195 -43.3818,0.8802 -41.3506,69.5897 -58.7814,70.1223 -50.8909,2.8224 -69.3445,84.2327 -38.6496,6.6372 -61.289,10.4049 l -283.7927,82.0931 -31.3237,32.4733 c 29.0765,10.0402 27.7461,37.6944 -24.1112,46.3972 z"
       id="path961"
       sodipodi:nodetypes="cccccccccccccccccccccccc" />
    <path
       style="display:inline;fill:#ffffff;fill-rule:evenodd;stroke:none;stroke-width:1px;stroke-linecap:butt;stroke-linejoin:miter;stroke-opacity:1"
       d="m 1487.7373,2719.1203 100.518,94.2706 6.505,-33.2379 70.6075,62.6158 11.5455,-27.2884 -90.5705,-67.709 -8.6863,37.6437 z"
       id="path4667-2"
       inkscape:connector-curvature="0" />
  </g>
  <g
     inkscape:groupmode="layer"
     id="layer1"
     inkscape:label="txt"
     style="display:inline">
    <text
       xml:space="preserve"
       style="font-style:normal;font-variant:normal;font-weight:normal;font-stretch:normal;font-size:45.3333px;line-height:125%;font-family:Lavi;-inkscape-font-specification:Lavi;text-align:center;letter-spacing:0px;word-spacing:0px;text-anchor:middle;fill:#000000;fill-opacity:1;stroke:none"
       x="248.18468"
       y="212.4789"
       id="text4246-70-2-2-2-7-4-9-9-6-1-2-3-9-2-7-9"><tspan
         sodipodi:role="line"
         style="font-size:45.3333px"
         x="248.18468"
         y="212.4789"
         id="tspan1003">So, how</tspan><tspan
         sodipodi:role="line"
         style="font-size:45.3333px"
         x="248.18468"
         y="269.14554"
         id="tspan1721"> about it?</tspan></text>
    <text
       xml:space="preserve"
       style="font-style:normal;font-variant:normal;font-weight:normal;font-stretch:normal;font-size:45.3333px;line-height:125%;font-family:Lavi;-inkscape-font-specification:Lavi;text-align:center;letter-spacing:0px;word-spacing:0px;text-anchor:middle;fill:#000000;fill-opacity:1;stroke:none"
       x="971.63519"
       y="258.15771"
       id="text4246-70-2-2-2-7-4-9-9-6-1-2-3-9-2-7-9-3"><tspan
         sodipodi:role="line"
         style="font-size:45.3333px"
         x="971.63519"
         y="258.15771"
         id="tspan1010">Doesn't it </tspan><tspan
         sodipodi:role="line"
         style="font-size:45.3333px"
         x="971.63519"
         y="314.82434"
         id="tspan1018">make you cry?</tspan></text>
    <text
       xml:space="preserve"
       style="font-style:normal;font-variant:normal;font-weight:normal;font-stretch:normal;font-size:62.7287px;line-height:125%;font-family:Lavi;-inkscape-font-specification:Lavi;text-align:center;letter-spacing:0px;word-spacing:0px;text-anchor:middle;fill:#000000;fill-opacity:1;stroke:none;stroke-width:0.807928"
       x="1378.2051"
       y="189.3369"
       id="text4246-70-2-2-2-7-4-9-9-6-1-2-3-9-2-7-9-3-7"><tspan
         sodipodi:role="line"
         style="font-style:normal;font-variant:normal;font-weight:bold;font-stretch:normal;font-size:62.7287px;font-family:Lavi;-inkscape-font-specification:'Lavi Bold';stroke-width:0.807928"
         x="1378.2051"
         y="189.3369"
         id="tspan15564">ARE YOU </tspan><tspan
         sodipodi:role="line"
         style="font-style:normal;font-variant:normal;font-weight:bold;font-stretch:normal;font-size:62.7287px;font-family:Lavi;-inkscape-font-specification:'Lavi Bold';stroke-width:0.807928"
         x="1378.2051"
         y="267.74777"
         id="tspan1088">SERIOUS?!</tspan></text>
    <text
       xml:space="preserve"
       style="font-style:normal;font-variant:normal;font-weight:normal;font-stretch:normal;font-size:62.2419px;line-height:125%;font-family:Lavi;-inkscape-font-specification:Lavi;text-align:center;letter-spacing:0px;word-spacing:0px;text-anchor:middle;fill:#000000;fill-opacity:1;stroke:none;stroke-width:0.83075"
       x="2216.9949"
       y="619.21252"
       id="text4246-70-2-2-2-7-4-9-9-6-1-2-3-9-2-7-9-3-7-6"><tspan
         sodipodi:role="line"
         style="font-style:normal;font-variant:normal;font-weight:bold;font-stretch:normal;font-size:62.2419px;font-family:Lavi;-inkscape-font-specification:'Lavi Bold';stroke-width:0.83075"
         x="2216.9949"
         y="619.21252"
         id="tspan19636">IS THAT </tspan><tspan
         sodipodi:role="line"
         style="font-style:normal;font-variant:normal;font-weight:bold;font-stretch:normal;font-size:62.2419px;font-family:Lavi;-inkscape-font-specification:'Lavi Bold';stroke-width:0.83075"
         x="2216.9949"
         y="697.01489"
         id="tspan1159">ALL YOU</tspan><tspan
         sodipodi:role="line"
         style="font-style:normal;font-variant:normal;font-weight:bold;font-stretch:normal;font-size:62.2419px;font-family:Lavi;-inkscape-font-specification:'Lavi Bold';stroke-width:0.83075"
         x="2216.9949"
         y="774.81726"
         id="tspan1163">HAVE?!</tspan></text>
    <text
       xml:space="preserve"
       style="font-style:normal;font-variant:normal;font-weight:normal;font-stretch:normal;font-size:49.902px;line-height:125%;font-family:Lavi;-inkscape-font-specification:Lavi;text-align:center;letter-spacing:0px;word-spacing:0px;text-anchor:middle;fill:#000000;fill-opacity:1;stroke:none;stroke-width:1.10078"
       x="1559.5663"
       y="964.03656"
       id="text4246-70-2-2-2-7-4-9-9-6-1-2-3-9-2-7-9-3-2"><tspan
         sodipodi:role="line"
         style="font-style:normal;font-variant:normal;font-weight:normal;font-stretch:normal;font-size:49.902px;font-family:Lavi;-inkscape-font-specification:Lavi;stroke-width:1.10078"
         x="1559.5663"
         y="964.03656"
         id="tspan24188">They at least</tspan><tspan
         sodipodi:role="line"
         style="font-style:normal;font-variant:normal;font-weight:normal;font-stretch:normal;font-size:49.902px;font-family:Lavi;-inkscape-font-specification:Lavi;stroke-width:1.10078"
         x="1559.5663"
         y="1026.4141"
         id="tspan1229">tried poetry!</tspan></text>
    <text
       xml:space="preserve"
       style="font-style:normal;font-variant:normal;font-weight:normal;font-stretch:normal;font-size:49.902px;line-height:125%;font-family:Lavi;-inkscape-font-specification:Lavi;text-align:center;letter-spacing:0px;word-spacing:0px;text-anchor:middle;fill:#000000;fill-opacity:1;stroke:none;stroke-width:1.10078"
       x="1722.0437"
       y="1101.7063"
       id="text4246-70-2-2-2-7-4-9-9-6-1-2-3-9-2-7-9-3-2-3"><tspan
         sodipodi:role="line"
         style="font-style:normal;font-variant:normal;font-weight:normal;font-stretch:normal;font-size:49.902px;font-family:Lavi;-inkscape-font-specification:Lavi;stroke-width:1.10078"
         x="1722.0437"
         y="1101.7063"
         id="tspan1233">Writing </tspan><tspan
         sodipodi:role="line"
         style="font-style:normal;font-variant:normal;font-weight:normal;font-stretch:normal;font-size:49.902px;font-family:Lavi;-inkscape-font-specification:Lavi;stroke-width:1.10078"
         x="1722.0437"
         y="1164.0837"
         id="tspan1237">tragedies!</tspan></text>
    <text
       xml:space="preserve"
       style="font-style:normal;font-variant:normal;font-weight:normal;font-stretch:normal;font-size:83.9231px;line-height:125%;font-family:Lavi;-inkscape-font-specification:Lavi;text-align:center;letter-spacing:0px;word-spacing:0px;text-anchor:middle;fill:#000000;fill-opacity:1;stroke:none;stroke-width:1.5433"
       x="1838.3158"
       y="1268.1646"
       id="text4246-70-2-2-2-7-4-9-9-6-1-2-3-9-2-7-9-3-2-3-6-1"><tspan
         sodipodi:role="line"
         style="font-style:normal;font-variant:normal;font-weight:bold;font-stretch:normal;font-size:83.9231px;font-family:Lavi;-inkscape-font-specification:'Lavi Bold';stroke-width:1.5433"
         x="1838.3158"
         y="1268.1646"
         id="tspan37654-7">ART!</tspan></text>
    <text
       xml:space="preserve"
       style="font-style:normal;font-variant:normal;font-weight:normal;font-stretch:normal;font-size:85.7143px;line-height:125%;font-family:Lavi;-inkscape-font-specification:Lavi;text-align:center;letter-spacing:0px;word-spacing:0px;text-anchor:middle;fill:#000000;fill-opacity:1;stroke:none;stroke-width:1.57622"
       x="1949.1381"
       y="1391.4756"
       id="text4246-70-2-2-2-7-4-9-9-6-1-2-3-9-2-7-9-3-2-3-6-1-9"><tspan
         sodipodi:role="line"
         style="font-style:normal;font-variant:normal;font-weight:bold;font-stretch:normal;font-size:85.7143px;font-family:Lavi;-inkscape-font-specification:'Lavi Bold';stroke-width:1.57622"
         x="1949.1381"
         y="1391.4756"
         id="tspan37654-7-2">DRAMA!</tspan></text>
    <text
       xml:space="preserve"
       style="font-style:normal;font-variant:normal;font-weight:normal;font-stretch:normal;font-size:63.2403px;line-height:125%;font-family:Lavi;-inkscape-font-specification:Lavi;text-align:center;letter-spacing:0px;word-spacing:0px;text-anchor:middle;fill:#000000;fill-opacity:1;stroke:none;stroke-width:1.39501"
       x="483.78723"
       y="2154.6296"
       id="text4246-70-2-2-2-7-4-9-9-6-1-2-3-9-2-7-9-3-2-3-0-7"><tspan
         sodipodi:role="line"
         style="font-style:normal;font-variant:normal;font-weight:bold;font-stretch:normal;font-size:63.2403px;font-family:Lavi;-inkscape-font-specification:'Lavi Bold';stroke-width:1.39501"
         x="483.78723"
         y="2154.6296"
         id="tspan100735-9">BUT YOU?!</tspan></text>
    <text
       xml:space="preserve"
       style="font-style:normal;font-variant:normal;font-weight:normal;font-stretch:normal;font-size:63.2403px;line-height:125%;font-family:Lavi;-inkscape-font-specification:Lavi;text-align:center;letter-spacing:0px;word-spacing:0px;text-anchor:middle;fill:#000000;fill-opacity:1;stroke:none;stroke-width:1.39501"
       x="2081.9277"
       y="2395.3088"
       id="text4246-70-2-2-2-7-4-9-9-6-1-2-3-9-2-7-9-3-2-3-0"><tspan
         sodipodi:role="line"
         style="font-style:normal;font-variant:normal;font-weight:bold;font-stretch:normal;font-size:63.2403px;font-family:Lavi;-inkscape-font-specification:'Lavi Bold';stroke-width:1.39501"
         x="2081.9277"
         y="2395.3088"
         id="tspan100735">YOU COME </tspan><tspan
         sodipodi:role="line"
         style="font-style:normal;font-variant:normal;font-weight:bold;font-stretch:normal;font-size:63.2403px;font-family:Lavi;-inkscape-font-specification:'Lavi Bold';stroke-width:1.39501"
         x="2081.9277"
         y="2474.3591"
         id="tspan1360">UNPREPARED!</tspan></text>
    <text
       xml:space="preserve"
       style="font-style:normal;font-variant:normal;font-weight:normal;font-stretch:normal;font-size:51.0809px;line-height:125%;font-family:Lavi;-inkscape-font-specification:Lavi;text-align:center;letter-spacing:0px;word-spacing:0px;text-anchor:middle;fill:#000000;fill-opacity:1;stroke:none;stroke-width:1.01681"
       x="1853.8928"
       y="2779.1357"
       id="text4246-70-2-2-2-7-4-9-9-6-1-2-3-9-2-7-9-3-2-3-0-2"><tspan
         sodipodi:role="line"
         style="font-style:normal;font-variant:normal;font-weight:bold;font-stretch:normal;font-size:51.0809px;font-family:Lavi;-inkscape-font-specification:'Lavi Bold';stroke-width:1.01681"
         x="1853.8928"
         y="2779.1357"
         id="tspan1426">YES, THAT'S</tspan><tspan
         sodipodi:role="line"
         style="font-style:normal;font-variant:normal;font-weight:bold;font-stretch:normal;font-size:51.0809px;font-family:Lavi;-inkscape-font-specification:'Lavi Bold';stroke-width:1.01681"
         x="1853.8928"
         y="2842.9868"
         id="tspan1430"> IT; SHOO!</tspan></text>
    <text
       xml:space="preserve"
       style="font-style:normal;font-variant:normal;font-weight:normal;font-stretch:normal;font-size:49.6865px;line-height:125%;font-family:Lavi;-inkscape-font-specification:Lavi;text-align:center;letter-spacing:0px;word-spacing:0px;text-anchor:middle;fill:#000000;fill-opacity:1;stroke:none;stroke-width:0.946337"
       x="2042.4871"
       y="2936.5046"
       id="text4246-70-2-2-2-7-4-9-9-6-1-2-3-9-2-7-9-3-2-3-0-2-9"><tspan
         sodipodi:role="line"
         style="font-style:normal;font-variant:normal;font-weight:bold;font-stretch:normal;font-size:49.6865px;font-family:Lavi;-inkscape-font-specification:'Lavi Bold';stroke-width:0.946337"
         x="2042.4871"
         y="2936.5046"
         id="tspan571">GO HOME AND</tspan><tspan
         sodipodi:role="line"
         style="font-style:normal;font-variant:normal;font-weight:bold;font-stretch:normal;font-size:49.6865px;font-family:Lavi;-inkscape-font-specification:'Lavi Bold';stroke-width:0.946337"
         x="2042.4871"
         y="2998.6128"
         id="tspan1503"> COME BACK WHEN</tspan><tspan
         sodipodi:role="line"
         style="font-style:normal;font-variant:normal;font-weight:bold;font-stretch:normal;font-size:49.6865px;font-family:Lavi;-inkscape-font-specification:'Lavi Bold';stroke-width:0.946337"
         x="2042.4871"
         y="3060.7209"
         id="tspan1505"> YOU'RE READY!</tspan></text>
  </g>
</svg>
