<?xml version="1.0" encoding="UTF-8" standalone="no"?>
<svg
   xmlns:dc="http://purl.org/dc/elements/1.1/"
   xmlns:cc="http://creativecommons.org/ns#"
   xmlns:rdf="http://www.w3.org/1999/02/22-rdf-syntax-ns#"
   xmlns:svg="http://www.w3.org/2000/svg"
   xmlns="http://www.w3.org/2000/svg"
   xmlns:xlink="http://www.w3.org/1999/xlink"
   xmlns:sodipodi="http://sodipodi.sourceforge.net/DTD/sodipodi-0.dtd"
   xmlns:inkscape="http://www.inkscape.org/namespaces/inkscape"
   id="svg2"
   version="1.1"
   inkscape:version="0.48.5 r10040"
   width="2481"
   height="663"
   sodipodi:docname="E34P00.svg">
  <metadata
     id="metadata8">
    <rdf:RDF>
      <cc:Work
         rdf:about="">
        <dc:format>image/svg+xml</dc:format>
        <dc:type
           rdf:resource="http://purl.org/dc/dcmitype/StillImage" />
        <dc:title />
      </cc:Work>
    </rdf:RDF>
  </metadata>
  <defs
     id="defs6">
    <linearGradient
       inkscape:collect="always"
       xlink:href="#linearGradient4290"
       id="linearGradient12447"
       gradientUnits="userSpaceOnUse"
       x1="915.52393"
       y1="444.10339"
       x2="915.52393"
       y2="183.96524" />
    <linearGradient
       id="linearGradient4290">
      <stop
         style="stop-color:#5d98c5;stop-opacity:1;"
         offset="0"
         id="stop4292-7" />
      <stop
         id="stop4298"
         offset="0.5"
         style="stop-color:#215ec8;stop-opacity:1;" />
      <stop
         style="stop-color:#0c182f;stop-opacity:1;"
         offset="1"
         id="stop4294" />
    </linearGradient>
    <linearGradient
       inkscape:collect="always"
       xlink:href="#linearGradient4290"
       id="linearGradient5117"
       x1="236.98547"
       y1="82.592781"
       x2="236.98547"
       y2="-5.9878397"
       gradientUnits="userSpaceOnUse" />
    <linearGradient
       id="linearGradient27178">
      <stop
         style="stop-color:#762d37;stop-opacity:1;"
         offset="0"
         id="stop27180" />
      <stop
         id="stop3908"
         offset="0.5"
         style="stop-color:#ff3641;stop-opacity:1;" />
      <stop
         style="stop-color:#ffe100;stop-opacity:1;"
         offset="1"
         id="stop27182" />
    </linearGradient>
    <linearGradient
       y2="907.30249"
       x2="587.82135"
       y1="841.7359"
       x1="587.82135"
       gradientTransform="matrix(2.9476891,0,0,2.9476891,-402.16032,-2164.4858)"
       gradientUnits="userSpaceOnUse"
       id="linearGradient4475"
       xlink:href="#linearGradient27178"
       inkscape:collect="always" />
    <linearGradient
       y2="183.96524"
       x2="915.52393"
       y1="444.10339"
       x1="915.52393"
       gradientUnits="userSpaceOnUse"
       id="linearGradient4477"
       xlink:href="#linearGradient4290"
       inkscape:collect="always" />
    <linearGradient
       y2="183.96524"
       x2="915.52393"
       y1="444.10339"
       x1="915.52393"
       gradientUnits="userSpaceOnUse"
       id="linearGradient4479"
       xlink:href="#linearGradient4290"
       inkscape:collect="always" />
    <linearGradient
       y2="183.96524"
       x2="915.52393"
       y1="444.10339"
       x1="915.52393"
       gradientUnits="userSpaceOnUse"
       id="linearGradient4481"
       xlink:href="#linearGradient4290"
       inkscape:collect="always" />
    <linearGradient
       y2="183.96524"
       x2="915.52393"
       y1="444.10339"
       x1="915.52393"
       gradientUnits="userSpaceOnUse"
       id="linearGradient4483"
       xlink:href="#linearGradient4290"
       inkscape:collect="always" />
    <linearGradient
       y2="183.96524"
       x2="915.52393"
       y1="444.10339"
       x1="915.52393"
       gradientUnits="userSpaceOnUse"
       id="linearGradient4485"
       xlink:href="#linearGradient4290"
       inkscape:collect="always" />
    <linearGradient
       y2="183.96524"
       x2="915.52393"
       y1="444.10339"
       x1="915.52393"
       gradientUnits="userSpaceOnUse"
       id="linearGradient4487"
       xlink:href="#linearGradient4290"
       inkscape:collect="always" />
    <linearGradient
       y2="183.96524"
       x2="915.52393"
       y1="444.10339"
       x1="915.52393"
       gradientUnits="userSpaceOnUse"
       id="linearGradient4489"
       xlink:href="#linearGradient4290"
       inkscape:collect="always" />
    <linearGradient
       y2="183.96524"
       x2="915.52393"
       y1="444.10339"
       x1="915.52393"
       gradientUnits="userSpaceOnUse"
       id="linearGradient4491"
       xlink:href="#linearGradient4290"
       inkscape:collect="always" />
    <linearGradient
       y2="183.96524"
       x2="915.52393"
       y1="444.10339"
       x1="915.52393"
       gradientUnits="userSpaceOnUse"
       id="linearGradient4493"
       xlink:href="#linearGradient4290"
       inkscape:collect="always" />
    <linearGradient
       y2="183.96524"
       x2="915.52393"
       y1="444.10339"
       x1="915.52393"
       gradientUnits="userSpaceOnUse"
       id="linearGradient4495"
       xlink:href="#linearGradient4290"
       inkscape:collect="always" />
    <linearGradient
       y2="183.96524"
       x2="915.52393"
       y1="444.10339"
       x1="915.52393"
       gradientUnits="userSpaceOnUse"
       id="linearGradient4497"
       xlink:href="#linearGradient4290"
       inkscape:collect="always" />
    <linearGradient
       y2="183.96524"
       x2="915.52393"
       y1="444.10339"
       x1="915.52393"
       gradientUnits="userSpaceOnUse"
       id="linearGradient4499"
       xlink:href="#linearGradient4290"
       inkscape:collect="always" />
    <linearGradient
       y2="183.96524"
       x2="915.52393"
       y1="444.10339"
       x1="915.52393"
       gradientUnits="userSpaceOnUse"
       id="linearGradient4501"
       xlink:href="#linearGradient4290"
       inkscape:collect="always" />
    <linearGradient
       y2="183.96524"
       x2="915.52393"
       y1="444.10339"
       x1="915.52393"
       gradientUnits="userSpaceOnUse"
       id="linearGradient4503"
       xlink:href="#linearGradient4290"
       inkscape:collect="always" />
    <linearGradient
       y2="183.96524"
       x2="915.52393"
       y1="444.10339"
       x1="915.52393"
       gradientUnits="userSpaceOnUse"
       id="linearGradient4505"
       xlink:href="#linearGradient4290"
       inkscape:collect="always" />
    <linearGradient
       y2="183.96524"
       x2="915.52393"
       y1="444.10339"
       x1="915.52393"
       gradientUnits="userSpaceOnUse"
       id="linearGradient4507"
       xlink:href="#linearGradient4290"
       inkscape:collect="always" />
    <linearGradient
       y2="183.96524"
       x2="915.52393"
       y1="444.10339"
       x1="915.52393"
       gradientUnits="userSpaceOnUse"
       id="linearGradient4509"
       xlink:href="#linearGradient4290"
       inkscape:collect="always" />
    <linearGradient
       inkscape:collect="always"
       xlink:href="#linearGradient4290"
       id="linearGradient3916"
       x1="242.08464"
       y1="136.30183"
       x2="242.08464"
       y2="47.005249"
       gradientUnits="userSpaceOnUse" />
  </defs>
  <sodipodi:namedview
     pagecolor="#ffffff"
     bordercolor="#666666"
     borderopacity="1"
     objecttolerance="10"
     gridtolerance="10"
     guidetolerance="10"
     inkscape:pageopacity="0"
     inkscape:pageshadow="2"
     inkscape:window-width="1261"
     inkscape:window-height="676"
     id="namedview4"
     showgrid="false"
     inkscape:zoom="0.44754742"
     inkscape:cx="1821.1936"
     inkscape:cy="101.08921"
     inkscape:window-x="387"
     inkscape:window-y="82"
     inkscape:window-maximized="0"
     inkscape:current-layer="layer1"
     inkscape:document-rotation="0" />
  <g
     inkscape:groupmode="layer"
     id="layer2"
     inkscape:label="artwork"
     sodipodi:insensitive="true">
    <image
       sodipodi:absref="/Users/su_huynh/Downloads/lang 6/vi/../gfx_Pepper-and-Carrot_by-David-Revoy_E34P00.png"
       xlink:href="../gfx_Pepper-and-Carrot_by-David-Revoy_E34P00.png"
       width="2481"
       height="663"
       id="image10"
       x="0"
       y="0" />
  </g>
  <g
     inkscape:groupmode="layer"
     id="layer1"
     inkscape:label="txt"
     style="display:inline">
    <text
       xml:space="preserve"
       style="font-size:72.5px;font-style:normal;font-variant:normal;font-weight:normal;font-stretch:normal;text-align:center;line-height:1.25;letter-spacing:0px;word-spacing:0px;writing-mode:lr-tb;text-anchor:middle;fill:#2b1100;fill-opacity:1;stroke:none;display:inline;font-family:ComicSpice;-inkscape-font-specification:ComicSpice"
       x="1239.4911"
       y="582.47577"
       id="episode-title"><tspan
         sodipodi:role="line"
         id="tspan4180"
         x="1239.4911"
         y="582.47577">Tập 34: Thất Vị Nhậm Chức Hiệp Sĩ</tspan></text>
    <path
       sodipodi:nodetypes="cssssssssssssssssssssssssssssscsssc"
       inkscape:connector-curvature="0"
       id="path1023"
       d="m 1303.2488,361.22362 c 0,0 -25.2262,-36.60101 -37.7912,-53.22374 -1.1677,-1.54467 -2.2237,-3.44573 -2.2237,-6.26681 0,-3.65832 3.5646,-5.90222 6.1754,-5.90222 26.5445,0 64.7064,0 92.4218,0 3.2082,0 6.006,2.13053 6.006,5.33868 0,7.66891 0,26.72387 0,32.02605 0,3.83969 -3.0722,7.3159 -6.8168,7.39416 -3.3534,0.0702 -6.077,-1.23013 -7.3641,-3.72384 l -4.1033,-7.87576 c -0.6148,-1.18002 -1.4462,-2.46792 -3.2353,-2.46792 h -44.7134 c -2.3935,0 -2.0677,2.04257 -0.6674,4.00402 l 28.3128,39.6575 c 2.9473,4.12813 0.027,6.16846 -3.1964,6.93692 -5.4506,1.29919 -55.8138,6.62104 -55.8138,57.05662 0,36.26215 25.7295,57.37686 52.9397,58.51163 25.64,1.06927 59.1725,-11.52871 59.1725,-49.66856 0,-21.11292 -13.2277,-32.76103 -28.186,-33.1544 -8.1763,-0.21518 -18.6942,6.57526 -18.6942,14.75445 0,5.60415 3.3079,8.42844 5.2178,10.03942 6.8791,5.80237 0.6612,13.4906 -5.7449,10.46933 -4.7602,-2.24508 -11.3181,-11.51237 -11.3181,-19.84142 0,-31.90208 24.4852,-53.93478 56.4822,-53.93478 34.2974,0 44.7154,18.82426 56.4945,18.08469 13.2106,-0.82945 20.4982,-12.9176 20.4982,-21.56017 0,-2.40605 -0.8413,-4.86492 -1.6041,-6.15406 -4.4721,-7.55758 5.6962,-12.63303 10.1395,-6.15289 2.9673,4.3275 3.4767,9.24422 3.4767,13.74289 0,21.88208 -15.4035,43.80912 -41.6569,43.80912 -36.9749,0 -46.5211,-20.33567 -67.0793,-15.79136 0,0 37.5383,2.826 37.5383,48.77723 0,33.11187 -24.3661,64.89839 -76.0893,64.89839 -60.3495,0 -86.6749,-41.20339 -86.6749,-72.8295 0,-54.39423 47.8766,-76.95367 68.0977,-76.95367 z"
       style="color:#000000;fill:url(#linearGradient4475);fill-opacity:1;fill-rule:nonzero;stroke:#000000;stroke-width:4;stroke-linecap:round;stroke-linejoin:round;stroke-miterlimit:4;stroke-opacity:1;stroke-dasharray:none;stroke-dashoffset:0;marker:none;visibility:visible;display:inline;overflow:visible;enable-background:accumulate" />
    <g
       id="g27450"
       style="fill:url(#linearGradient12447);fill-opacity:1;stroke:#000000;stroke-linecap:round;stroke-linejoin:round;stroke-opacity:1;display:inline">
      <circle
         sodipodi:ry="5.1226764"
         sodipodi:rx="5.1226764"
         sodipodi:cy="74.355247"
         sodipodi:cx="236.28346"
         transform="matrix(2.9476891,0,0,2.9476891,234.53416,45.082318)"
         style="opacity:0.98999999000000005;color:#000000;fill:url(#linearGradient3916);fill-opacity:1;fill-rule:nonzero;stroke:#000000;stroke-width:1.35699521999999995;stroke-linecap:round;stroke-linejoin:round;stroke-miterlimit:4;stroke-opacity:1;stroke-dasharray:none;stroke-dashoffset:0;marker:none;visibility:visible;display:inline;overflow:visible;enable-background:accumulate"
         id="circle1025"
         cx="236.28346"
         cy="74.355247"
         r="5.1226764"
         d="m 241.40614,74.355247 c 0,2.829177 -2.2935,5.122677 -5.12268,5.122677 -2.82917,0 -5.12267,-2.2935 -5.12267,-5.122677 0,-2.829176 2.2935,-5.122676 5.12267,-5.122676 2.82918,0 5.12268,2.2935 5.12268,5.122676 z" />
      <path
         style="color:#000000;fill:url(#linearGradient4477);fill-opacity:1;fill-rule:nonzero;stroke:#000000;stroke-width:4;stroke-linecap:round;stroke-linejoin:round;stroke-miterlimit:4;stroke-opacity:1;stroke-dasharray:none;stroke-dashoffset:0;marker:none;visibility:visible;display:inline;overflow:visible;enable-background:accumulate"
         d="m 1587.8374,390.58635 c 30.0432,0 67.4621,-12.93829 79.5501,-33.48348 4.7224,-8.02647 -5.096,-13.74254 -10.3437,-7.8412 -11.9906,13.48391 -35.8198,26.6433 -65.2064,26.6433 -38.1964,0 -66.7001,-27.91161 -66.7001,-88.05982 0,-60.14822 34.3456,-87.08317 69.6478,-87.08317 46.1722,0 50.5341,28.91362 57.3007,44.77681 1.4631,3.42985 11.8571,2.04376 11.8571,-3.10073 0,-8.48283 0,-20.11111 0,-31.36471 0,-4.13773 -6.2956,-5.51757 -10.01,-7.34069 -18.076,-8.87216 -36.3386,-16.68336 -63.1478,-16.68336 -47.6996,0 -102.0136,25.62244 -102.0136,100.79585 0,75.17338 49.778,102.7412 99.0659,102.7412 z"
         id="path1027"
         inkscape:connector-curvature="0"
         sodipodi:nodetypes="sssszsssssszs" />
      <path
         sodipodi:nodetypes="sssssssss"
         inkscape:connector-curvature="0"
         id="path1029"
         d="m 1020.5706,265.01315 25.7173,16.65008 c 5.1631,3.3427 10.8981,-2.32417 6.8422,-7.07814 l -28.7845,-33.73919 c -1.8191,-2.1323 -9.3724,-2.12095 -11.1819,0 l -28.78448,33.73919 c -4.05584,4.75397 1.67915,10.42084 6.84221,7.07814 l 25.71727,-16.65008 c 1.1399,-0.73799 2.7352,-0.58055 3.6319,0 z"
         style="color:#000000;fill:url(#linearGradient4479);fill-opacity:1;fill-rule:nonzero;stroke:#000000;stroke-width:4;stroke-linecap:round;stroke-linejoin:round;stroke-miterlimit:4;stroke-opacity:1;stroke-dasharray:none;stroke-dashoffset:0;marker:none;visibility:visible;display:inline;overflow:visible;enable-background:accumulate" />
      <path
         style="color:#000000;fill:url(#linearGradient4481);fill-opacity:1;fill-rule:nonzero;stroke:#000000;stroke-width:4;stroke-linecap:round;stroke-linejoin:round;stroke-miterlimit:4;stroke-opacity:1;stroke-dasharray:none;stroke-dashoffset:0;marker:none;visibility:visible;display:inline;overflow:visible;enable-background:accumulate"
         d="m 1003.6717,332.48201 c 14.1625,0 32.8994,0 49.0266,0 1.4459,0 2.586,-1.0663 2.586,-2.62312 0,-9.68281 -15.7365,-28.69537 -31.2814,-28.69537 -20.6068,0 -35.59301,16.88831 -35.70237,38.68771 -0.10936,21.7994 20.43367,38.22256 35.69947,38.22256 14.2734,0 25.3947,-4.91429 31.7014,-9.50951 6.8265,-4.97399 15.19,4.42835 8.8421,10.01003 -8.631,7.58918 -24.3582,14.3477 -40.5435,14.3477 -38.47083,0 -58.05516,-27.99641 -58.05516,-53.07078 0,-25.07437 17.42444,-49.69875 59.05906,-49.69875 35.6238,0 53.3868,25.94043 53.3868,49.04911 0,3.00505 -5.0029,5.66071 -8.008,5.66071 -22.2101,0 -49.2809,0 -66.711,0 -3.5915,0 -5.29084,-3.51712 -5.36114,-6.19015 -0.0787,-2.99167 2.01514,-6.19014 5.36114,-6.19014 z"
         id="path1031"
         inkscape:connector-curvature="0"
         sodipodi:nodetypes="sssszsssszssssss" />
      <path
         style="color:#000000;fill:url(#linearGradient4483);fill-opacity:1;fill-rule:nonzero;stroke:#000000;stroke-width:4;stroke-linecap:round;stroke-linejoin:round;stroke-miterlimit:4;stroke-opacity:1;stroke-dasharray:none;stroke-dashoffset:0;marker:none;visibility:visible;display:inline;overflow:visible;enable-background:accumulate"
         d="m 1125.1121,360.90672 c 0,-18.5394 0,-38.20244 0,-59.7432 0,-2.78056 -3.8928,-5.00503 -6.6733,-5.00503 -3.9521,0 -8.6714,2.33569 -12.1789,2.33569 -6.0512,0 -10.4666,-1.66834 -13.3466,-1.66834 -5.0051,0 -8.5086,1.48302 -8.5086,5.33868 0,4.51194 6.2542,5.81111 11.1779,7.5075 2.4549,0.84581 6.8402,3.74315 6.8402,6.33968 0,16.1519 0,31.4861 0,47.79336 0,17.38892 15.5899,27.62421 30.8554,27.62421 10.9368,0 23.1244,-5.42737 28.5486,-12.03285 4.4724,-5.44638 -2.5494,-11.52063 -6.6063,-7.55003 -4.5908,4.49313 -8.9619,6.37034 -16.2798,6.37034 -7.192,0 -13.8286,-8.69138 -13.8286,-17.31001 z"
         id="path1033"
         inkscape:connector-curvature="0"
         sodipodi:nodetypes="ssssssssssssss" />
      <path
         sodipodi:nodetypes="sssssssssssssss"
         inkscape:connector-curvature="0"
         id="path1035"
         d="m 1190.8469,363.43274 c 0,-5.69535 0,-40.72846 0,-62.26922 0,-2.78056 -3.8928,-5.00503 -6.6734,-5.00503 -3.9521,0 -8.6714,2.33569 -12.1788,2.33569 -6.0513,0 -10.4667,-1.66834 -13.3467,-1.66834 -5.005,0 -8.5085,1.48302 -8.5085,5.33868 0,4.51194 6.2541,5.81111 11.1778,7.5075 2.4549,0.84581 6.8402,3.74315 6.8402,6.33968 0,16.1519 0,45.804 0,65.0107 0,4.97375 2.8518,7.10375 5.9381,7.10375 5.431,0 8.6291,-0.62117 13.2125,-0.47186 4.2257,0.13765 8.7487,1.17966 12.9766,1.17966 4.7929,0 9.2016,-0.38579 9.2016,-4.48282 0,-3.96753 -5.5796,-5.93054 -9.2016,-7.55003 -5.2324,-2.33961 -9.4378,-1.57144 -9.4378,-13.36836 z"
         style="color:#000000;fill:url(#linearGradient4485);fill-opacity:1;fill-rule:nonzero;stroke:#000000;stroke-width:4;stroke-linecap:round;stroke-linejoin:round;stroke-miterlimit:4;stroke-opacity:1;stroke-dasharray:none;stroke-dashoffset:0;marker:none;visibility:visible;display:inline;overflow:visible;enable-background:accumulate" />
      <path
         sodipodi:nodetypes="ssssssssssssssssss"
         inkscape:connector-curvature="0"
         id="path1037"
         d="m 922.89894,387.65429 c -4.2279,0 -8.74868,1.17966 -12.97661,1.17966 -4.79285,0 -9.20159,-0.38579 -9.20159,-4.48282 0,-3.96753 5.57962,-5.93054 9.20159,-7.55003 5.23248,-2.33961 9.43408,-1.57144 9.42194,-13.36836 -0.0206,-19.2067 -0.0147,-31.26914 -0.0147,-47.42104 0,-2.59653 -4.38531,-5.49387 -6.8402,-6.33968 -4.92367,-1.69639 -11.17785,-2.99556 -11.17785,-7.5075 0,-3.85566 3.50351,-5.33868 8.50854,-5.33868 2.88001,0 7.29541,1.66834 13.34666,1.66834 3.50749,0 8.22677,-2.33569 12.17888,-2.33569 2.78056,0 6.67333,2.22447 6.67333,5.00503 0,21.54076 0,56.57387 0,62.26922 0,11.79692 4.20541,11.02875 9.43789,13.36836 3.62197,1.61949 9.20159,3.5825 9.20159,7.55003 0,4.09703 -4.40874,4.48282 -9.20159,4.48282 -4.22793,0 -8.74872,-1.17966 -12.97662,-1.17966 z"
         style="color:#000000;fill:url(#linearGradient4487);fill-opacity:1;fill-rule:nonzero;stroke:#000000;stroke-width:4;stroke-linecap:round;stroke-linejoin:round;stroke-miterlimit:4;stroke-opacity:1;stroke-dasharray:none;stroke-dashoffset:0;marker:none;visibility:visible;display:inline;overflow:visible;enable-background:accumulate" />
      <path
         style="color:#000000;fill:url(#linearGradient4489);fill-opacity:1;fill-rule:nonzero;stroke:#000000;stroke-width:4;stroke-linecap:round;stroke-linejoin:round;stroke-miterlimit:4;stroke-opacity:1;stroke-dasharray:none;stroke-dashoffset:0;marker:none;visibility:visible;display:inline;overflow:visible;enable-background:accumulate"
         d="m 768.40791,193.05531 c -3.30525,0 -6.23115,2.90999 -6.67334,6.35645 -0.97085,7.56711 -0.78597,18.80287 -1.33468,26.00926 -0.51467,6.75938 8.95331,7.73913 9.65613,0.72805 0.73017,-7.284 2.42397,-15.82814 9.36292,-15.82814 6.36026,0 42.34627,0 45.55653,0 3.75878,0 7.71119,3.47535 7.71119,6.77968 0,16.15189 -0.006,127.12543 0.0147,146.33213 0.0118,11.79692 -4.18946,11.02875 -9.42194,13.36836 -3.62197,1.61949 -9.20159,3.5825 -9.20159,7.55003 0,4.09703 4.40874,4.48282 9.20159,4.48282 4.22793,0 8.74871,-1.17966 12.97661,-1.17966 h 23.58122 c 4.2279,0 8.74868,1.17966 12.97661,1.17966 4.79286,0 9.2016,-0.38579 9.2016,-4.48282 0,-3.96753 -5.57962,-5.93054 -9.2016,-7.55003 -5.23247,-2.33961 -9.43788,-1.57144 -9.43788,-13.36836 0,-5.69535 3.6e-4,-124.79133 -5.3e-4,-146.33213 -1.5e-4,-3.30433 3.95191,-6.77968 7.71069,-6.77968 3.21026,0 39.19627,0 45.55653,0 6.93895,0 8.63275,8.54414 9.36292,15.82814 0.70282,7.01108 10.1708,6.03133 9.65613,-0.72805 -0.54871,-7.20639 -0.36383,-18.44215 -1.33468,-26.00926 -0.44219,-3.44646 -3.36809,-6.35645 -6.67334,-6.35645 z"
         id="path1039"
         inkscape:connector-curvature="0"
         sodipodi:nodetypes="sssssssssssssssssssssssss" />
      <path
         sodipodi:nodetypes="ssssssssssssszscssszsss"
         inkscape:connector-curvature="0"
         id="path1041"
         d="m 686.58881,291.8039 c -0.87779,0 -1.73035,-0.41197 -1.73035,-1.76862 0,0 0,-35.66306 0,-50.40548 0,-3.05572 -3.00962,-5.86708 -6.34042,-5.86708 -3.3308,0 -6.66767,2.58489 -6.66767,5.86708 0,7.99876 0,22.73382 0,30.76592 0,23.02366 -13.96403,20.75777 -18.36859,20.75777 -5.00503,0 -9.33085,4.15235 -9.33085,8.00801 0,4.51197 5.54009,6.76757 10.46377,8.13029 2.50244,0.69259 7.55428,4.12338 7.55428,6.71991 0,16.15189 0,33.4861 0,49.79336 0,17.38892 9.58396,26.62321 24.84946,26.62321 13.31698,0 24.50579,-11.81596 27.99806,-22.25317 2.23618,-6.68318 -5.73036,-11.11662 -9.84513,-5.07633 -4.1148,6.04028 -7.82417,8.44463 -12.47274,8.44463 -2.85439,0 -7.84029,-2.68538 -7.84029,-10.63668 0,-18.5394 -0.038,-34.00266 -0.038,-55.54345 0,-1.2905 1.05913,-1.76862 1.76861,-1.76862 6.86098,0 15.16916,0 21.51813,0 2.6931,0 5.52438,-2.49448 5.52438,-5.89538 0,-3.40089 -2.83128,-5.89537 -5.52438,-5.89537 -6.1148,0 -14.94868,0 -21.51813,0 z"
         style="color:#000000;fill:url(#linearGradient4491);fill-opacity:1;fill-rule:nonzero;stroke:#000000;stroke-width:4;stroke-linecap:round;stroke-linejoin:round;stroke-miterlimit:4;stroke-opacity:1;stroke-dasharray:none;stroke-dashoffset:0;marker:none;visibility:visible;display:inline;overflow:visible;enable-background:accumulate" />
      <path
         sodipodi:nodetypes="cssssssssssssssssssssc"
         inkscape:connector-curvature="0"
         id="path1043"
         d="m 394.0656,363.43274 c 0,11.79692 4.20541,11.02875 9.43788,13.36836 3.62197,1.61949 9.20159,3.5825 9.20159,7.55003 0,4.09703 -4.40874,4.48282 -9.20159,4.48282 -4.22793,0 -8.74871,-1.17966 -12.97661,-1.17966 h -23.58122 c -4.2279,0 -8.74868,1.17966 -12.97661,1.17966 -4.79286,0 -9.2016,-0.38579 -9.2016,-4.48282 0,-3.96753 5.57963,-5.93054 9.2016,-7.55003 5.23247,-2.33961 9.43408,-1.57144 9.42193,-13.36836 -0.0206,-19.2067 -0.0236,-129.46395 -0.006,-145.61584 0.0118,-11.79692 -4.1821,-10.97767 -9.41457,-13.31728 -3.62197,-1.61949 -9.20159,-3.5825 -9.20159,-7.55003 0,-4.09702 4.40874,-4.48282 9.20159,-4.48282 4.22793,0 8.74871,1.17967 12.97661,1.17967 h 23.58122 c 4.2279,0 8.74868,-1.17967 12.97661,-1.17967 4.79286,0 9.2016,0.3858 9.2016,4.48282 0,3.96753 -5.57962,5.93054 -9.2016,7.55003 -5.23247,2.33961 -9.43788,1.52036 -9.43788,13.31728 0,21.5408 0,139.92049 0,145.61584 z"
         style="color:#000000;fill:url(#linearGradient4493);fill-opacity:1;fill-rule:nonzero;stroke:#000000;stroke-width:4;stroke-linecap:round;stroke-linejoin:round;stroke-miterlimit:4;stroke-opacity:1;stroke-dasharray:none;stroke-dashoffset:0;marker:none;visibility:visible;display:inline;overflow:visible;enable-background:accumulate" />
      <circle
         sodipodi:ry="5.1226764"
         sodipodi:rx="5.1226764"
         sodipodi:cy="74.355247"
         sodipodi:cx="236.28346"
         id="circle1045"
         style="opacity:0.98999999;color:#000000;fill:url(#linearGradient5117);fill-opacity:1;fill-rule:nonzero;stroke:#000000;stroke-width:1.35699522;stroke-linecap:round;stroke-linejoin:round;stroke-miterlimit:4;stroke-opacity:1;stroke-dasharray:none;stroke-dashoffset:0;marker:none;visibility:visible;display:inline;overflow:visible;enable-background:accumulate"
         transform="matrix(2.9476891,0,0,2.9476891,-107.77852,201.23862)"
         cx="236.28346"
         cy="74.355247"
         r="5.1226764"
         d="m 241.40614,74.355247 c 0,2.829177 -2.2935,5.122677 -5.12268,5.122677 -2.82917,0 -5.12267,-2.2935 -5.12267,-5.122677 0,-2.829176 2.2935,-5.122676 5.12267,-5.122676 2.82918,0 5.12268,2.2935 5.12268,5.122676 z" />
      <path
         sodipodi:nodetypes="ssssssssssssss"
         inkscape:connector-curvature="0"
         id="path1047"
         d="m 1715.3824,360.90672 c 0,-18.5394 0,-38.20244 0,-59.7432 0,-2.78056 -3.8927,-5.00503 -6.6733,-5.00503 -3.9521,0 -8.6714,2.33569 -12.1789,2.33569 -6.0512,0 -10.4666,-1.66834 -13.3466,-1.66834 -5.0051,0 -8.5086,1.48302 -8.5086,5.33868 0,4.51194 6.2542,5.81111 11.1779,7.5075 2.4549,0.84581 6.8402,3.74315 6.8402,6.33968 0,16.1519 0,31.4861 0,47.79336 0,17.38892 15.59,27.62421 30.8554,27.62421 10.9368,0 23.1244,-5.42737 28.5486,-12.03285 4.4724,-5.44638 -2.5493,-11.52063 -6.6063,-7.55003 -4.5908,4.49313 -8.9618,6.37034 -16.2797,6.37034 -7.1921,0 -13.8287,-8.69138 -13.8287,-17.31001 z"
         style="color:#000000;fill:url(#linearGradient4495);fill-opacity:1;fill-rule:nonzero;stroke:#000000;stroke-width:4;stroke-linecap:round;stroke-linejoin:round;stroke-miterlimit:4;stroke-opacity:1;stroke-dasharray:none;stroke-dashoffset:0;marker:none;visibility:visible;display:inline;overflow:visible;enable-background:accumulate" />
      <path
         style="color:#000000;fill:url(#linearGradient4497);fill-opacity:1;fill-rule:nonzero;stroke:#000000;stroke-width:4;stroke-linecap:round;stroke-linejoin:round;stroke-miterlimit:4;stroke-opacity:1;stroke-dasharray:none;stroke-dashoffset:0;marker:none;visibility:visible;display:inline;overflow:visible;enable-background:accumulate"
         d="m 1781.1172,363.43274 c 0,-5.69535 0,-40.72846 0,-62.26922 0,-2.78056 -3.8928,-5.00503 -6.6734,-5.00503 -3.9521,0 -8.6713,2.33569 -12.1788,2.33569 -6.0513,0 -10.4667,-1.66834 -13.3467,-1.66834 -5.005,0 -8.5085,1.48302 -8.5085,5.33868 0,4.51194 6.2541,5.81111 11.1778,7.5075 2.4549,0.84581 6.8402,3.74315 6.8402,6.33968 0,16.1519 0,45.804 0,65.0107 0,4.97375 2.8518,7.10375 5.9381,7.10375 5.431,0 8.6292,-0.62117 13.2126,-0.47186 4.2256,0.13765 8.7486,1.17966 12.9766,1.17966 4.7928,0 9.2016,-0.38579 9.2016,-4.48282 0,-3.96753 -5.5797,-5.93054 -9.2016,-7.55003 -5.2325,-2.33961 -9.4379,-1.57144 -9.4379,-13.36836 z"
         id="path1049"
         inkscape:connector-curvature="0"
         sodipodi:nodetypes="sssssssssssssss" />
      <path
         sodipodi:nodetypes="ssssscsssssssszsssszscs"
         inkscape:connector-curvature="0"
         id="path1051"
         d="m 613.4037,388.83298 c 4.4483,0 12.28117,-1.17869 12.28117,-1.17869 4.20856,-0.40393 8.74868,1.17966 12.97661,1.17966 4.79285,0 9.20159,-0.38579 9.20159,-4.48282 0,-3.96753 -5.57962,-5.93054 -9.20159,-7.55003 -5.23247,-2.33961 -9.43788,-1.57144 -9.43809,-13.36836 0,0 -2e-4,-30.75572 -2e-4,-48.68344 0,-16.48569 -21.55342,-24.5376 -38.94078,-24.5376 -15.22531,0 -27.59269,3.38218 -37.50327,12.26881 -5.67117,5.08524 2.61245,15.5967 9.38029,10.15966 5.46201,-4.38799 14.19088,-8.51995 22.20685,-8.51995 10.81508,0 22.15003,7.53103 22.15003,15.81972 0,13.68444 0,28.93077 0,41.05329 0,11.3991 -14.88639,20.7591 -27.28637,20.70534 -15.36256,-0.0666 -26.4508,-9.97422 -26.4508,-23.69857 0,-13.72435 9.70948,-25.31938 23.27,-25.31938 8.21692,0 12.36426,0.52652 17.86427,4.3614 3.56299,2.48431 11.78005,-2.91311 6.5253,-8.60828 -5.43734,-5.89305 -18.70905,-9.21837 -27.46955,-9.21837 -19.91046,0 -43.31199,11.9983 -43.31199,36.84815 0,24.84984 18.26061,39.8486 47.65957,39.8486 14.60813,0 29.72824,-11.32505 29.72824,-11.32505 0.706,2.5932 2.24399,4.24591 6.35872,4.24591 z"
         style="color:#000000;fill:url(#linearGradient4499);fill-opacity:1;fill-rule:nonzero;stroke:#000000;stroke-width:4;stroke-linecap:round;stroke-linejoin:round;stroke-miterlimit:4;stroke-opacity:1;stroke-dasharray:none;stroke-dashoffset:0;marker:none;visibility:visible;display:inline;overflow:visible;enable-background:accumulate" />
      <path
         sodipodi:nodetypes="ssssssssssssssssssssssssssss"
         inkscape:connector-curvature="0"
         id="path1053"
         d="m 470.36232,270.12084 h -68.60635 c -3.59152,0 -5.29083,-3.51712 -5.36114,-6.19015 -0.0787,-2.99166 2.01513,-6.19014 5.36114,-6.19014 h 68.60811 c 3.41979,0 5.97011,-2.8872 5.97011,-5.30599 0,-12.54003 -0.16507,-29.74678 0.009,-34.61766 0.42164,-11.7894 -4.18209,-10.97767 -9.41457,-13.31728 -3.62182,-1.61949 -9.20144,-3.5825 -9.20144,-7.55003 0,-4.09702 4.40874,-4.48282 9.20159,-4.48282 4.22793,0 8.74871,1.17967 12.97661,1.17967 h 23.58122 c 4.2279,0 8.74868,-1.17967 12.97661,-1.17967 4.79286,0 9.2016,0.3858 9.2016,4.48282 0,3.96753 -5.57962,5.93054 -9.2016,7.55003 -5.23247,2.33961 -9.43788,1.52036 -9.43788,13.31728 v 145.61584 c 0,11.79692 4.20541,11.02875 9.43788,13.36836 3.62198,1.61949 9.2016,3.5825 9.2016,7.55003 0,4.09703 -4.40874,4.48282 -9.2016,4.48282 -4.22793,0 -8.74871,-1.17966 -12.97661,-1.17966 h -23.58122 c -4.2279,0 -8.74868,1.17966 -12.97661,1.17966 -4.79285,0 -9.20159,-0.38579 -9.20159,-4.48282 0,-3.96753 5.57962,-5.93054 9.20159,-7.55003 5.23247,-2.33961 9.43461,-1.57144 9.42194,-13.36836 -0.0118,-10.94716 -0.0177,-51.59549 -0.0177,-87.41667 0,-2.10391 -2.2992,-5.89523 -5.97054,-5.89523 z"
         style="color:#000000;fill:url(#linearGradient4501);fill-opacity:1;fill-rule:nonzero;stroke:#000000;stroke-width:4;stroke-linecap:round;stroke-linejoin:round;stroke-miterlimit:4;stroke-opacity:1;stroke-dasharray:none;stroke-dashoffset:0;marker:none;visibility:visible;display:inline;overflow:visible;enable-background:accumulate" />
      <path
         style="color:#000000;fill:url(#linearGradient4503);fill-opacity:1;fill-rule:nonzero;stroke:#000000;stroke-width:4;stroke-linecap:round;stroke-linejoin:round;stroke-miterlimit:4;stroke-opacity:1;stroke-dasharray:none;stroke-dashoffset:0;marker:none;visibility:visible;display:inline;overflow:visible;enable-background:accumulate"
         d="m 1864.761,276.01607 c 0,38.36692 -0.012,75.1103 0,87.41667 0.012,11.79692 -4.2554,11.01711 -9.4879,13.35672 -3.622,1.61949 -9.1194,3.58592 -9.1194,7.55345 0,4.09702 4.3266,4.51365 9.1194,4.51365 24.8723,0 56.6218,0.60596 81.6001,0 30.0509,-0.72902 94.6415,-19.20128 94.6415,-96.53682 0,-77.33554 -63.9421,-99.85297 -91.9701,-99.85297 -25.3845,0 -59.5808,0.20487 -84.2715,0 -4.7927,-0.0398 -9.1194,0.41663 -9.1194,4.51365 0,3.96753 5.4974,5.93397 9.1194,7.55346 5.2325,2.33961 9.4991,1.46768 9.4879,13.2646 0,4.43385 0,19.29342 0,34.08191 -5e-4,3.53909 -2.7015,5.89612 -5.8954,5.89612 h -8.014 c -3.3461,0 -5.4214,3.18005 -5.3427,6.17172 0.07,2.67303 1.7511,6.17173 5.3427,6.17173 h 8.014 c 3.1852,0 5.8956,2.70878 5.8954,5.89611 z m 30.6603,-24.13568 c 10e-5,-15.78263 0,-28.28965 0,-34.08191 0,-11.79692 3.6641,-13.2646 9.3958,-13.2646 h 24.3184 c 35.3688,0 71.3696,32.52403 71.113,88.52278 -0.2564,55.99876 -43.7522,83.7328 -71.113,83.7328 h -24.3184 c -5.7317,0 -9.395,-1.5708 -9.3958,-10.31692 -4e-4,-5.66819 -10e-5,-48.89373 0,-90.45647 0,-3.67412 2.3446,-5.89529 5.8939,-5.89538 l 34.729,-7.3e-4 c 3.5915,-9e-5 5.2724,-3.4987 5.3427,-6.17173 0.079,-2.99167 -1.9967,-6.17172 -5.3427,-6.17172 h -34.729 c -3.3138,0 -5.8939,-2.70825 -5.8939,-5.89612 z"
         id="path1055"
         inkscape:connector-curvature="0"
         sodipodi:nodetypes="scsssszsssscssssssssssssssscssssss" />
      <path
         style="color:#000000;fill:url(#linearGradient4505);fill-opacity:1;fill-rule:nonzero;stroke:#000000;stroke-width:4;stroke-linecap:round;stroke-linejoin:round;stroke-miterlimit:4;stroke-opacity:1;stroke-dasharray:none;stroke-dashoffset:0;marker:none;visibility:visible;display:inline;overflow:visible;enable-background:accumulate"
         d="m 1737.8128,287.08016 c 13.4934,-8.35271 27.163,-21.9433 27.163,-33.20651 0,-16.52112 -10.4143,-26.05203 -28.7016,-26.05203 -8.4259,0 -17.5356,1.69301 -24.9438,13.40553 -6.3878,10.09926 7.2042,17.65843 13.6845,8.96566 3.402,-4.56355 7.751,-6.18325 11.2593,-5.22917 4.3612,1.18606 6.9965,5.72217 6.672,10.56157 -0.6822,10.17044 -7.4296,16.46733 -13.2126,22.98019 -5.0369,5.67268 1.7825,12.47255 8.0792,8.57476 z"
         id="path1057"
         inkscape:connector-curvature="0"
         sodipodi:nodetypes="sssssssss" />
      <path
         sodipodi:nodetypes="sssssssss"
         inkscape:connector-curvature="0"
         id="path1059"
         d="m 2093.954,287.08016 c 13.4934,-8.35271 27.163,-21.9433 27.163,-33.20651 0,-16.52112 -10.4143,-26.05203 -28.7016,-26.05203 -8.4259,0 -17.5356,1.69301 -24.9438,13.40553 -6.3877,10.09926 7.2043,17.65843 13.6845,8.96566 3.402,-4.56355 7.751,-6.18325 11.2593,-5.22917 4.3612,1.18606 6.9966,5.72217 6.672,10.56157 -0.6821,10.17044 -7.4296,16.46733 -13.2126,22.98019 -5.0369,5.67268 1.7825,12.47255 8.0792,8.57476 z"
         style="color:#000000;fill:url(#linearGradient4507);fill-opacity:1;fill-rule:nonzero;stroke:#000000;stroke-width:4;stroke-linecap:round;stroke-linejoin:round;stroke-miterlimit:4;stroke-opacity:1;stroke-dasharray:none;stroke-dashoffset:0;marker:none;visibility:visible;display:inline;overflow:visible;enable-background:accumulate" />
      <path
         sodipodi:nodetypes="ssssssssss"
         style="color:#000000;fill:url(#linearGradient4509);fill-opacity:1;fill-rule:nonzero;stroke:#000000;stroke-width:4;stroke-linecap:round;stroke-linejoin:round;stroke-miterlimit:4;stroke-opacity:1;stroke-dasharray:none;stroke-dashoffset:0;marker:none;visibility:visible;display:inline;overflow:visible;enable-background:accumulate"
         d="m 2094.6261,297.10974 c -32.239,0 -52.3214,20.56941 -52.3214,47.16302 0,26.59361 21.2742,47.16303 52.3214,47.16303 31.0473,0 52.3215,-20.56942 52.3215,-47.16303 0,-26.59361 -20.0824,-47.16302 -52.3215,-47.16302 z m 0,11.79075 c 15.6376,0 30.2139,19.76211 30.2139,35.37227 0,15.61017 -13.207,35.37227 -30.2139,35.37227 -17.0068,0 -30.2138,-19.7621 -30.2138,-35.37227 0,-15.61016 14.5763,-35.37227 30.2138,-35.37227 z"
         id="path1061"
         inkscape:connector-curvature="0" />
    </g>
    <path
       style="color:#000000;fill:#ffffff;fill-opacity:1;stroke:none;stroke-width:3;marker:none;visibility:visible;display:inline;overflow:visible;enable-background:accumulate"
       d="m 1331.2001,406.03851 c 12.437,-25.24778 32.5751,-31.51631 52.6278,-30.95637 8.7874,0.24538 3.1535,2.01893 -0.4949,2.4145 -23.4138,2.53862 -35.3573,9.61615 -49.7009,28.80206 -4.0233,5.38156 -2.8193,0.52593 -2.432,-0.26019 z"
       id="path27186"
       inkscape:connector-curvature="0"
       sodipodi:nodetypes="sssss" />
    <path
       style="color:#000000;fill:#000000;fill-opacity:0.35968401;fill-rule:nonzero;stroke:none;stroke-width:3;marker:none;visibility:visible;display:inline;overflow:visible;enable-background:accumulate"
       d="m 1393.9992,430.90269 c 6.7937,41.24921 -23.2477,76.52049 -68.4027,75.47879 -16.8209,-0.38804 -32.9792,-1.17636 -62.2701,-16.03924 20.2284,15.01498 38.7308,21.74227 61.7983,20.28493 46.5588,-2.94145 85.3651,-33.76012 68.8745,-79.72448 z"
       id="path27188"
       inkscape:connector-curvature="0"
       sodipodi:nodetypes="cscsc" />
    <path
       style="color:#000000;fill:#ffffff;fill-opacity:1;fill-rule:nonzero;stroke:none;stroke-width:3;marker:none;visibility:visible;display:inline;overflow:visible;enable-background:accumulate"
       d="m 1383.8567,459.91485 c -8.3206,25.08399 -31.4293,37.89278 -62.1521,36.56004 -2.9749,-0.12905 -2.1882,1.71326 1.5231,1.71668 36.6644,0.0337 54.3969,-13.24985 62.5866,-37.40058 1.227,-3.61828 0.085,-7.03464 -1.9576,-0.87614 z"
       id="path27190"
       inkscape:connector-curvature="0"
       sodipodi:nodetypes="sssss" />
    <path
       style="color:#000000;fill:#ffffff;fill-opacity:1;fill-rule:nonzero;stroke:none;stroke-width:3;marker:none;visibility:visible;display:inline;overflow:visible;enable-background:accumulate"
       d="m 1307.2795,365.27324 c -19.4256,-1.94412 -46.989,15.40331 -55.6657,33.02198 -4.5654,9.27024 1.1433,4.1242 2.9517,1.84978 13.2084,-16.6121 29.6255,-28.739 49.8572,-32.39698 5.9043,-1.06752 4.9443,-2.26586 2.8568,-2.47478 z"
       id="path27271"
       inkscape:connector-curvature="0"
       sodipodi:nodetypes="sssss" />
    <path
       style="color:#000000;fill:#ffffff;fill-opacity:1;fill-rule:nonzero;stroke:none;stroke-width:3;marker:none;visibility:visible;display:inline;overflow:visible;enable-background:accumulate"
       d="m 1455.5447,381.56512 c -3.4745,6.74251 -14.1558,11.66646 -20.4418,11.56955 -2.614,-0.0403 0.6706,1.357 2.7899,1.30668 11.8954,-0.28243 16.2017,-6.30693 19.1792,-12.60479 1.3347,-2.82316 0.4706,-4.14852 -1.5273,-0.27144 z"
       id="path27279"
       inkscape:connector-curvature="0"
       sodipodi:nodetypes="sssss" />
    <path
       style="color:#000000;fill:#000000;fill-opacity:0.35968401;fill-rule:nonzero;stroke:none;stroke-width:3;marker:none;visibility:visible;display:inline;overflow:visible;enable-background:accumulate"
       d="m 1360.2863,396.24637 c 21.2481,-4.12547 29.4389,4.55608 44.9537,8.79141 25.1073,6.85399 45.6527,2.96885 57.1212,-19.96812 3.0185,-6.03687 3.3329,-12.41141 3.8145,-17.85221 5.4195,24.04005 -17.0742,45.66654 -39.1533,45.6033 -24.844,-0.0711 -43.8659,-15.01217 -66.7361,-16.57438 z"
       id="path27298"
       inkscape:connector-curvature="0"
       sodipodi:nodetypes="csscsc" />
    <path
       style="color:#000000;fill:#ffffff;fill-opacity:1;fill-rule:nonzero;stroke:none;stroke-width:3;marker:none;visibility:visible;display:inline;overflow:visible;enable-background:accumulate"
       d="m 1360.7413,299.75827 -89.3952,-0.23587 c -2.2996,-0.006 -5.3094,0.62205 -4.2457,2.83045 2.0813,4.32111 3.7308,4.49529 7.0761,1.6511 1.9423,-1.65141 5.556,-1.30588 7.0761,-1.30395 23.6366,0.0301 47.9477,-0.14867 75.9506,-0.05 1.7668,0.006 7.7118,-2.88072 3.5381,-2.89173 z"
       id="path27479"
       inkscape:connector-curvature="0"
       sodipodi:nodetypes="sssssss" />
    <path
       style="color:#000000;fill:#000000;fill-opacity:0.35968401;fill-rule:nonzero;stroke:none;stroke-width:3;marker:none;visibility:visible;display:inline;overflow:visible;enable-background:accumulate"
       d="m 1296.9648,327.12487 c -1.1816,-2.90077 0.6899,-5.70964 4.5612,-5.70964 l 47.4405,0 c 2.9626,0 0.2134,4.32009 -2.048,4.32009 l -46.0851,0 c -2.761,0 -2.3127,2.11237 -1.5783,3.58498 1.0238,2.05289 -1.3442,0.12701 -2.2903,-2.19543 z"
       id="path28670"
       inkscape:connector-curvature="0"
       sodipodi:nodetypes="sssssss" />
    <path
       style="color:#000000;fill:#000000;fill-opacity:0.35968401;fill-rule:nonzero;stroke:none;stroke-width:3;marker:none;visibility:visible;display:inline;overflow:visible;enable-background:accumulate"
       d="m 1335.29,421.16006 c 2.7889,-12.02645 13.2338,-17.32848 21.6822,-16.01147 14.286,2.22703 27.3552,11.52067 25.018,30.35508 -1.9939,-14.62866 -15.6796,-27.27732 -28.3537,-26.35221 -13.4632,0.98271 -17.5394,9.99082 -18.3465,12.0086 z"
       id="path28723"
       inkscape:connector-curvature="0"
       sodipodi:nodetypes="cscsc" />
    <path
       style="color:#000000;fill:#000000;fill-opacity:0.35968401;fill-rule:nonzero;stroke:none;stroke-width:3;marker:none;visibility:visible;display:inline;overflow:visible;enable-background:accumulate"
       d="m 1323.6924,373.18287 c 2.3399,-0.24781 4.0667,-0.80147 5.2598,-2.39223 3.5061,2.66608 0.4416,5.9583 -2.416,5.8089 -27.6603,-1.44611 -58.3135,23.60337 -55.9592,68.9113 -16.5243,-47.09121 28.1079,-69.67953 53.1154,-72.32797 z"
       id="path28788"
       inkscape:connector-curvature="0"
       sodipodi:nodetypes="scscs" />
    <path
       style="color:#000000;fill:#000000;fill-opacity:0.35968401;fill-rule:nonzero;stroke:none;stroke-width:3;marker:none;visibility:visible;display:inline;overflow:visible;enable-background:accumulate"
       d="m 1366.8739,299.99413 c -2.0459,7.31719 -2.6202,27.95215 -2.571,30.12533 0.1363,6.01994 -3.8333,8.74363 -10.7557,5.0195 1.2431,3.51539 4.5909,5.49848 7.7838,4.83535 3.6372,-0.75542 5.4072,-4.39305 5.8592,-7.95139 0.3147,-2.47819 0.1079,-25.32079 -0.3163,-32.02879 z"
       id="path28796"
       inkscape:connector-curvature="0"
       sodipodi:nodetypes="cscssc" />
    <path
       style="color:#000000;fill:#ffffff;fill-opacity:1;fill-rule:nonzero;stroke:none;stroke-width:3;marker:none;visibility:visible;display:inline;overflow:visible;enable-background:accumulate"
       d="m 1458.7812,358.53125 c 0.1283,-0.723 0.5381,-1.6314 1.1563,-2.0625 0.5989,-0.41766 0.6192,-1.27909 -0.2813,-1.09375 -1.722,0.35444 -2.9448,2.52459 -1.9687,3.875 0.56,0.77481 0.9907,-0.13809 1.0937,-0.71875 z"
       id="path28821"
       inkscape:connector-curvature="0"
       sodipodi:nodetypes="sssss" />
    <path
       style="color:#000000;fill:#edf4ff;fill-opacity:1;fill-rule:nonzero;stroke:none;stroke-width:3;marker:none;visibility:visible;display:inline;overflow:visible;enable-background:accumulate"
       d="m 919.94592,264.54533 c 0.24647,-6.0657 5.94707,-12.10656 12.55114,-11.49049 1.95269,0.18216 1.75256,1.53522 0.17678,2.12133 -4.05573,1.50853 -8.00615,4.47605 -9.89949,9.01561 -1.10472,2.64873 -2.9755,3.97292 -2.82843,0.35355 z"
       id="path28829"
       inkscape:connector-curvature="0"
       sodipodi:nodetypes="sssss" />
    <path
       style="color:#000000;fill:#edf4ff;fill-opacity:1;fill-rule:nonzero;stroke:none;stroke-width:3;marker:none;visibility:visible;display:inline;overflow:visible;enable-background:accumulate"
       d="m 1020.4461,244.23746 c -1.0878,-1.37152 -3.2237,-0.17559 -4.864,1.56954 -9.5804,10.19277 -17.43392,19.37905 -25.98617,28.8146 -1.11903,1.23461 3.95835,-1.91392 4.77298,-2.65164 9.36029,-8.47668 15.73459,-15.92645 23.59969,-24.04164 2.2708,-2.34298 3.6853,-2.16805 2.4775,-3.69086 z"
       id="path28842"
       inkscape:connector-curvature="0"
       sodipodi:nodetypes="ssssss" />
    <path
       style="color:#000000;fill:#edf4ff;fill-opacity:1;fill-rule:nonzero;stroke:none;stroke-width:3;marker:none;visibility:visible;display:inline;overflow:visible;enable-background:accumulate"
       d="m 971.56471,331.36692 c 2.04896,-17.64097 22.06056,-36.80421 50.65559,-37.7483 8.0727,-0.26653 1.8973,1.33068 0.047,1.48376 -26.40775,2.18431 -40.27658,16.77877 -46.8131,35.20388 -1.88689,5.31877 -4.61531,7.31323 -3.88909,1.06066 z"
       id="path28861"
       inkscape:connector-curvature="0"
       sodipodi:nodetypes="sssss" />
    <path
       style="color:#000000;fill:#edf4ff;fill-opacity:1;fill-rule:nonzero;stroke:none;stroke-width:3;marker:none;visibility:visible;display:inline;overflow:visible;enable-background:accumulate"
       d="m 921.22625,375.46014 c -1.37566,2.56742 -10.50262,4.8067 -14.62697,6.90686 -1.00605,0.51229 -1.24271,2.13063 0.0723,1.98046 5.7182,-2.92519 16.3147,-4.22894 17.91603,-9.05153 0.77175,-2.32422 -1.66121,-3.00881 -3.36136,0.16421 z"
       id="path28877"
       inkscape:connector-curvature="0"
       sodipodi:nodetypes="sscss" />
    <path
       style="color:#000000;fill:#f7efff;fill-opacity:1;fill-rule:nonzero;stroke:none;stroke-width:3;marker:none;visibility:visible;display:inline;overflow:visible;enable-background:accumulate"
       d="m 1027.0273,382.49632 c 14.4652,-1.11982 25.0114,-6.47017 30.3728,-9.75888 1.1242,-0.68957 1.8946,0.61764 1.091,1.21967 -6.3738,4.77483 -14.7555,9.99976 -31.3174,11.22487 -2.3276,0.17217 -5.4687,-2.27364 -0.1464,-2.68566 z"
       id="path28885"
       inkscape:connector-curvature="0"
       sodipodi:nodetypes="sssss" />
    <path
       style="color:#000000;fill:#edf4ff;fill-opacity:1;fill-rule:nonzero;stroke:none;stroke-width:3;marker:none;visibility:visible;display:inline;overflow:visible;enable-background:accumulate"
       d="m 1053.7659,336.13989 -47.9065,0 c -2.8472,0 -2.1442,1.76777 0.3535,1.76777 l 49.8511,0 c 2.9303,0 7.1879,-2.46748 6.0266,-6.16054 -0.3021,-0.96059 -2.5633,-0.47192 -3.1362,0.83608 -0.9313,2.12636 -2.8923,3.55669 -5.1885,3.55669 z"
       id="path28893"
       inkscape:connector-curvature="0"
       sodipodi:nodetypes="sssssss" />
    <path
       sodipodi:nodetypes="sssss"
       inkscape:connector-curvature="0"
       id="path3574"
       d="m 577.19592,420.54533 c 0.24647,-6.0657 5.94707,-12.10656 12.55114,-11.49049 1.95269,0.18216 1.75256,1.53522 0.17678,2.12133 -4.05573,1.50853 -8.00615,4.47605 -9.89949,9.01561 -1.10472,2.64873 -2.9755,3.97292 -2.82843,0.35355 z"
       style="color:#000000;fill:#edf4ff;fill-opacity:1;fill-rule:nonzero;stroke:none;stroke-width:3;marker:none;visibility:visible;display:inline;overflow:visible;enable-background:accumulate" />
    <path
       style="color:#000000;fill:#191e2b;fill-opacity:0.55319148;fill-rule:nonzero;stroke:none;stroke-width:3;marker:none;visibility:visible;display:inline;overflow:visible;enable-background:accumulate"
       d="m 579.03467,432.17253 c 7.55543,0.86033 13.83278,-2.20392 17.01345,-7.3462 3.30217,-5.33871 3.98462,-9.07683 2.51777,-15.67767 6.16922,7.39608 6.94333,14.90511 1.41422,20.85965 -4.33665,4.67032 -13.26762,5.47349 -20.94544,2.16422 z"
       id="path3587"
       inkscape:connector-curvature="0"
       sodipodi:nodetypes="cscsc" />
    <path
       style="color:#000000;fill:#edf4ff;fill-opacity:1;fill-rule:nonzero;stroke:none;stroke-width:3;marker:none;visibility:visible;display:inline;overflow:visible;enable-background:accumulate"
       d="m 535.5,347 c 2.92816,-11.75707 16.18676,-21.5902 27.75,-23.25 2.63494,-0.37822 1.15355,2.08075 -0.75,2.75 -15.71327,5.52445 -22.1542,16.91193 -24.75,23.25 -3.31319,8.08971 -3.76118,3.31767 -2.25,-2.75 z"
       id="path4391"
       inkscape:connector-curvature="0"
       sodipodi:nodetypes="sssss" />
    <path
       style="color:#000000;fill:#edf4ff;fill-opacity:1;fill-rule:nonzero;stroke:none;stroke-width:3;marker:none;visibility:visible;display:inline;overflow:visible;enable-background:accumulate"
       d="m 587.5,384.5 c 9.70359,-2.96026 14.84072,-5.74423 19.125,-13 1.97111,-3.33823 1.05302,2.10334 -0.5,4.125 -4.53638,5.90527 -8.92907,8.02849 -16.125,10.25 -3.07085,0.94802 -4.97751,-0.61919 -2.5,-1.375 z"
       id="path4399"
       inkscape:connector-curvature="0"
       sodipodi:nodetypes="sssss" />
    <path
       style="color:#000000;fill:#edf4ff;fill-opacity:1;fill-rule:nonzero;stroke:none;stroke-width:3;marker:none;visibility:visible;display:inline;overflow:visible;enable-background:accumulate"
       d="m 708.08579,364.92938 c -2.92977,4.12813 -5.08036,7.35406 -9.96079,9.57062 -3.80385,1.7276 -0.29397,3.37825 1.8295,2.41161 4.81467,-2.19172 7.70984,-7.44307 9.53033,-11.42049 0.60876,-1.33001 0.0696,-2.63107 -1.39904,-0.56174 z"
       id="path4407"
       inkscape:connector-curvature="0"
       sodipodi:nodetypes="sssss" />
    <path
       style="color:#000000;fill:#edf4ff;fill-opacity:1;fill-rule:nonzero;stroke:none;stroke-width:3;marker:none;visibility:visible;display:inline;overflow:visible;enable-background:accumulate"
       d="m 1718,246.25 c 4.2804,-6.59175 8.8367,-12.19447 17.7275,-13.45083 2.9368,-0.415 6.1895,-1.49038 0.2803,-1.68305 -8.9846,-0.29294 -17.5296,7.1767 -20.2578,10.88388 -2.9437,3.99994 1.2591,5.77591 2.25,4.25 z"
       id="path4415"
       inkscape:connector-curvature="0"
       sodipodi:nodetypes="sssss" />
    <path
       sodipodi:nodetypes="sssss"
       inkscape:connector-curvature="0"
       id="path4423"
       d="m 2074,246.25 c 4.2804,-6.59175 7.6876,-11.75253 19.3185,-13.80438 2.9209,-0.51529 3.1932,-1.09053 0.015,-1.24112 -11.1639,-0.52895 -18.8554,7.08832 -21.5836,10.7955 -2.9437,3.99994 1.2591,5.77591 2.25,4.25 z"
       style="color:#000000;fill:#edf4ff;fill-opacity:1;fill-rule:nonzero;stroke:none;stroke-width:3;marker:none;visibility:visible;display:inline;overflow:visible;enable-background:accumulate" />
    <path
       style="color:#000000;fill:#edf4ff;fill-opacity:1;fill-rule:nonzero;stroke:none;stroke-width:3;marker:none;visibility:visible;display:inline;overflow:visible;enable-background:accumulate"
       d="m 2049.0187,332.2508 c -2.2497,6.45415 4.4333,6.63521 5.1265,3.00521 1.5634,-8.18745 12.5703,-29.49511 34.4883,-32.95217 6.3105,-0.99534 5.8751,-2.49243 3.3055,-2.26777 -23.8546,2.08565 -37.1435,15.64207 -42.9203,32.21473 z"
       id="path4425"
       inkscape:connector-curvature="0"
       sodipodi:nodetypes="sssss" />
    <path
       style="color:#000000;fill:#edf4ff;fill-opacity:1;fill-rule:nonzero;stroke:none;stroke-width:3;marker:none;visibility:visible;display:inline;overflow:visible;enable-background:accumulate"
       d="m 1901.375,260.625 33.5,0 c 2.3573,0 2.8227,2.625 0.875,2.625 l -33.625,0 c -2.3352,0 -3.1497,-2.625 -0.75,-2.625 z"
       id="path4433"
       inkscape:connector-curvature="0"
       sodipodi:nodetypes="sssss" />
    <path
       sodipodi:nodetypes="sssssss"
       inkscape:connector-curvature="0"
       id="path4441"
       d="m 1866.2392,262.08759 c -1.1036,1.22423 -2.8062,1.66241 -4.6142,1.66241 l -9.625,0 c -2.3352,0 -3.1497,-2.625 -0.75,-2.625 0,0 6.3333,0 9.5,0 1.6087,0 2.9059,-0.79458 4.1784,-1.58651 2.2733,-1.41482 2.3483,1.39823 1.3108,2.5491 z"
       style="color:#000000;fill:#edf4ff;fill-opacity:1;fill-rule:nonzero;stroke:none;stroke-width:3;marker:none;visibility:visible;display:inline;overflow:visible;enable-background:accumulate" />
    <path
       style="color:#000000;fill:#edf4ff;fill-opacity:1;fill-rule:nonzero;stroke:none;stroke-width:3;marker:none;visibility:visible;display:inline;overflow:visible;enable-background:accumulate"
       d="m 1933.375,195.5 c -27.375,0 -77.9439,0 -79.6027,0 -3.8485,0 -1.6811,2.875 -0.022,2.875 l 81.625,0 c 2.2003,0 3.224,-2.875 -2,-2.875 z"
       id="path4443"
       inkscape:connector-curvature="0"
       sodipodi:nodetypes="sssss" />
    <path
       style="color:#000000;fill:#edf4ff;fill-opacity:1;fill-rule:nonzero;stroke:none;stroke-width:3;marker:none;visibility:visible;display:inline;overflow:visible;enable-background:accumulate"
       d="m 1956.5644,374.14688 c 16.4967,-9.04359 41.7169,-24.27301 47.3762,-67.88225 0.9751,-7.5141 5.6513,-1.67346 4.6569,4.28553 -5.2776,31.62641 -21.1153,53.2487 -47.7904,64.65738 -4.0557,1.73456 -8.0742,1.03978 -4.2427,-1.06066 z"
       id="path4455"
       inkscape:connector-curvature="0"
       sodipodi:nodetypes="sssss" />
    <path
       style="color:#000000;fill:#edf4ff;fill-opacity:1;fill-rule:nonzero;stroke:none;stroke-width:3;marker:none;visibility:visible;display:inline;overflow:visible;enable-background:accumulate"
       d="m 2102.9356,264.89888 c -2.9137,6.82737 -5.948,10.07707 -10.637,15.44912 -3.1474,3.60593 -4.3209,1.13283 -3.1516,0.0126 4.8162,-4.61408 10.2507,-11.32291 11.844,-15.46168 1.523,-3.95627 3.4669,-3.56699 1.9446,0 z"
       id="path4463"
       inkscape:connector-curvature="0"
       sodipodi:nodetypes="sssss" />
    <path
       style="color:#000000;fill:#edf4ff;fill-opacity:1;fill-rule:nonzero;stroke:none;stroke-width:3;marker:none;visibility:visible;display:inline;overflow:visible;enable-background:accumulate"
       d="m 2129.4521,350.81236 c 0.9218,-3.72627 6.5181,-6.19852 4.0659,2.47487 -3.838,13.57509 -14.2844,24.0183 -22.8043,27.93072 -5.5086,2.52959 -2.0815,-0.75519 -0.7071,-1.76777 13.9317,-10.26401 16.9761,-18.65586 19.4455,-28.63782 z"
       id="path4471"
       inkscape:connector-curvature="0"
       sodipodi:nodetypes="sssss" />
    <path
       style="color:#000000;fill:#edf4ff;fill-opacity:1;fill-rule:nonzero;stroke:none;stroke-width:3;marker:none;visibility:visible;display:inline;overflow:visible;enable-background:accumulate"
       d="m 1868.3456,375.9726 c -2.3705,2.93981 -7.3707,4.45567 -13.5956,7.1524 -2.1428,0.92829 -3.7729,-0.17986 -1.625,-1.25 5.5352,-2.75779 11.0877,-3.54569 13.2423,-7.02671 1.9623,-3.17023 3.9461,-1.31612 1.9783,1.12431 z"
       id="path4481"
       inkscape:connector-curvature="0"
       sodipodi:nodetypes="sssss" />
    <path
       style="color:#000000;fill:#edf4ff;fill-opacity:1;fill-rule:nonzero;stroke:none;stroke-width:3;marker:none;visibility:visible;display:inline;overflow:visible;enable-background:accumulate"
       d="m 1495.1773,259.24203 c -1.1482,3.28451 5.0354,6.97721 6.7175,1.06066 9.9899,-35.13835 33.4327,-64.01649 89.3563,-68.28606 4.2329,-0.32317 4.6738,-1.44243 0.8017,-1.47487 -33.5943,-0.28149 -76.5988,10.69585 -96.8755,68.70027 z"
       id="path4483"
       inkscape:connector-curvature="0"
       sodipodi:nodetypes="sssss" />
    <path
       style="color:#000000;fill:#edf4ff;fill-opacity:1;fill-rule:nonzero;stroke:none;stroke-width:3;marker:none;visibility:visible;display:inline;overflow:visible;enable-background:accumulate"
       d="m 1622.2797,377.68241 c 14.4541,-4.47849 29.5474,-13.10983 39.5981,-25.36745 1.8311,-2.2332 -0.1597,-2.20963 -1.1492,-1.14905 -11.6482,12.48523 -24.8125,19.70934 -38.4489,23.86485 -6.097,1.85799 -5.4046,4.32623 0,2.65165 z"
       id="path4491"
       inkscape:connector-curvature="0"
       sodipodi:nodetypes="sssss" />
    <path
       style="color:#000000;fill:#edf4ff;fill-opacity:1;fill-rule:nonzero;stroke:none;stroke-width:3;marker:none;visibility:visible;display:inline;overflow:visible;enable-background:accumulate"
       d="m 1696.2797,304.27666 c -5.0695,0.0104 -7.0891,-2.05434 -12.3672,-1.74911 -1.2519,0.0724 -4.3829,1.039 -4.5375,-0.0276 -0.1708,-1.17845 1.1993,-2.03879 2.7955,-2.08839 4.0385,-0.12551 9.9974,1.87943 14.1036,1.98238 3.9978,0.10024 8.4131,-1.5288 11.9191,-2.40492 2.6588,-0.66441 3.1223,1.44719 0.5303,1.94454 -3.6219,0.69498 -8.7844,2.33554 -12.4438,2.34305 z"
       id="path4499"
       inkscape:connector-curvature="0"
       sodipodi:nodetypes="csssssssc" />
    <path
       sodipodi:nodetypes="sssss"
       inkscape:connector-curvature="0"
       id="path4519"
       d="m 1746.9356,264.89888 c -2.9137,6.82737 -4.7213,9.47063 -11.137,17.32412 -1.4071,1.72248 -3.8209,-0.11717 -2.6516,-1.23744 4.8162,-4.61408 10.2507,-11.94791 11.844,-16.08668 1.523,-3.95627 3.4669,-3.56699 1.9446,0 z"
       style="color:#000000;fill:#edf4ff;fill-opacity:1;fill-rule:nonzero;stroke:none;stroke-width:3;marker:none;visibility:visible;display:inline;overflow:visible;enable-background:accumulate" />
    <path
       style="color:#000000;fill:#edf4ff;fill-opacity:1;fill-rule:nonzero;stroke:none;stroke-width:3;marker:none;visibility:visible;display:inline;overflow:visible;enable-background:accumulate"
       d="m 1748.8125,374.0625 c -0.642,-0.24423 -1.889,0.38742 -2.3621,1.22188 -0.1687,0.29758 -5.6201,4.11667 -9.8914,4.95025 -2.5905,0.50557 -2.7418,2.45085 0.3389,1.77762 6.2696,-1.37011 10.3308,-5.2489 10.7203,-5.64773 0.7715,-0.79002 1.9687,-2.0074 1.1943,-2.30202 z"
       id="path4521"
       inkscape:connector-curvature="0"
       sodipodi:nodetypes="ssssss" />
    <path
       style="color:#000000;fill:#edf4ff;fill-opacity:1;fill-rule:nonzero;stroke:none;stroke-width:3;marker:none;visibility:visible;display:inline;overflow:visible;enable-background:accumulate"
       d="m 556.25,304.25 c -2.81633,2.55892 -1.18854,5.01357 2.625,1.625 6.30756,-5.60467 19.92783,-10.2782 31.04226,-10.5655 2.00516,-0.0518 0.28471,-1.3541 -0.375,-1.375 -14.39838,-0.45618 -28.67446,6.11976 -33.29226,10.3155 z"
       id="path4539"
       inkscape:connector-curvature="0"
       sodipodi:nodetypes="sssss" />
    <path
       style="color:#000000;fill:#edf4ff;fill-opacity:1;fill-rule:nonzero;stroke:none;stroke-width:3;marker:none;visibility:visible;display:inline;overflow:visible;enable-background:accumulate"
       d="m 648.24015,298.22129 c 1.40995,-2.33107 2.32413,-3.09359 5.65685,-3.09359 l 7.42462,0 c 4.91439,0 9.43132,-4.79065 11.84404,-9.36917 0.93287,-1.77027 1.77207,-0.98746 1.30438,1.06954 -1.05316,4.63199 -6.73177,11.65493 -11.50565,11.65493 l -7.13173,0 c -2.33521,0 -3.85603,0.0752 -4.94087,1.1525 -1.22512,1.21663 -3.49019,-0.0278 -2.65164,-1.41421 z"
       id="path4547"
       inkscape:connector-curvature="0"
       sodipodi:nodetypes="sssssssss" />
    <path
       style="color:#000000;fill:#f7efff;fill-opacity:1;fill-rule:nonzero;stroke:none;stroke-width:3;marker:none;visibility:visible;display:inline;overflow:visible;enable-background:accumulate"
       d="m 677.5,238 c -1.44415,-0.17468 -1.98813,0.79573 -1.875,2.125 0.1374,1.61451 1.73003,2.0037 2.625,1 1.29291,-1.44998 1.03238,-2.9094 -0.75,-3.125 z"
       id="path4555"
       inkscape:connector-curvature="0"
       sodipodi:nodetypes="ssss" />
    <path
       style="color:#000000;fill:#edf4ff;fill-opacity:1;fill-rule:nonzero;stroke:none;stroke-width:3;marker:none;visibility:visible;display:inline;overflow:visible;enable-background:accumulate"
       d="m 822.01164,381.39472 c 6.93142,-2.55341 11.91261,-5.03725 13.08147,-9.19238 1.08957,-3.87328 3.02558,-1.10693 2.65165,0.53033 -1.22299,5.35499 -7.82444,7.35802 -12.46275,9.10399 -3.84863,1.44872 -6.95829,0.91662 -3.27037,-0.44194 z"
       id="path4563"
       inkscape:connector-curvature="0"
       sodipodi:nodetypes="sssss" />
    <path
       sodipodi:nodetypes="sscss"
       inkscape:connector-curvature="0"
       id="path4704"
       d="m 477.2263,375.46014 c -1.37566,2.56742 -10.50262,4.8067 -14.62697,6.90686 -1.00605,0.51229 -1.24271,2.13063 0.0723,1.98046 5.7182,-2.92519 16.3147,-4.22894 17.91603,-9.05153 0.77175,-2.32422 -1.66121,-3.00881 -3.36136,0.16421 z"
       style="color:#000000;fill:#edf4ff;fill-opacity:1;fill-rule:nonzero;stroke:none;stroke-width:3;marker:none;visibility:visible;display:inline;overflow:visible;enable-background:accumulate" />
    <path
       style="color:#000000;fill:#edf4ff;fill-opacity:1;fill-rule:nonzero;stroke:none;stroke-width:3;marker:none;visibility:visible;display:inline;overflow:visible;enable-background:accumulate"
       d="m 363.2263,375.46014 c -1.37566,2.56742 -10.50262,4.8067 -14.62697,6.90686 -1.00605,0.51229 -1.24271,2.13063 0.0723,1.98046 5.7182,-2.92519 16.3147,-4.22894 17.91603,-9.05153 0.77175,-2.32422 -1.66121,-3.00881 -3.36136,0.16421 z"
       id="path4706"
       inkscape:connector-curvature="0"
       sodipodi:nodetypes="sscss" />
    <path
       style="color:#000000;fill:#edf4ff;fill-opacity:1;fill-rule:nonzero;stroke:none;stroke-width:3;marker:none;visibility:visible;display:inline;overflow:visible;enable-background:accumulate"
       d="m 707.125,297.6 c 0,0 -12.91667,0 -19.375,0 -1.51278,0 -1.64089,-2.225 -0.075,-2.225 l 19.075,0 c 1.84601,0 2.04978,2.225 0.375,2.225 z"
       id="path4708"
       inkscape:connector-curvature="0"
       sodipodi:nodetypes="sssss" />
    <path
       sodipodi:nodetypes="sssssss"
       inkscape:connector-curvature="0"
       id="path4716"
       d="m 472.60121,261.375 -69.92595,0 c -1.56589,0 -1.43778,2.225 0.075,2.225 6.45833,0 70.40273,0 70.40273,0 3.22449,0 6.62278,-4.61119 6.86218,-7.02678 0.0653,-0.65853 -0.63623,-1.09168 -1.18699,0.21082 -0.52833,1.24947 -4.12638,4.59096 -6.22697,4.59096 z"
       style="color:#000000;fill:#edf4ff;fill-opacity:1;fill-rule:nonzero;stroke:none;stroke-width:3;marker:none;visibility:visible;display:inline;overflow:visible;enable-background:accumulate" />
    <path
       sodipodi:nodetypes="sssssss"
       inkscape:connector-curvature="0"
       id="path4718"
       d="m 769.75,198.6 c 6.45833,0 157.375,0 157.375,0 1.67478,0 1.47101,-2.225 -0.375,-2.225 l -157.075,0 c -2.00731,0 -3.57253,1.5079 -4.05513,2.98392 -0.85856,2.62584 2.17993,1.92573 2.60746,0.7955 0.32188,-0.85093 0.87874,-1.55442 1.52267,-1.55442 z"
       style="color:#000000;fill:#edf4ff;fill-opacity:1;fill-rule:nonzero;stroke:none;stroke-width:3;marker:none;visibility:visible;display:inline;overflow:visible;enable-background:accumulate" />
    <path
       style="color:#000000;fill:#edf4ff;fill-opacity:1;fill-rule:nonzero;stroke:none;stroke-width:3;marker:none;visibility:visible;display:inline;overflow:visible;enable-background:accumulate"
       d="m 354.1875,196.32453 c -1.86776,0.18071 -5.48826,-0.082 -5.6144,0.37686 -0.18999,0.69112 1.02508,1.43224 1.9269,1.42361 0.3658,-0.004 10.58516,2.1085 15.38395,2.225 3.21994,0.0782 19.55364,0 25.49609,0 4.78296,0 12.11876,-2.25969 15.99496,-4.1 1.07461,-0.51019 -1.91241,-0.51801 -3.62365,-0.34153 -3.07649,0.3173 -7.62374,1.3967 -13.15135,1.39106 -8.05609,-0.008 -17.47569,0.25945 -24.71781,0 -6.60137,-0.2365 -11.39354,-1.00414 -11.69469,-0.975 z"
       id="path4720"
       inkscape:connector-curvature="0"
       sodipodi:nodetypes="ssssssssss" />
    <path
       style="color:#000000;fill:#191e2b;fill-opacity:0.55319148;fill-rule:nonzero;stroke:none;stroke-width:3;marker:none;visibility:visible;display:inline;overflow:visible;enable-background:accumulate"
       d="m 576.61612,328.04289 c 3.89018,-0.0611 9.92355,1.93398 13.55607,3.73872 3.16341,1.57168 5.02535,3.68625 5.82781,3.71839 3.34093,0.13382 5.625,-2.5 6,-3.375 0.37512,3.0644 -3.99284,5.375 -5.75,5.375 -1.46765,0 -4.17965,-2.17762 -8.10997,-3.42245 -3.92016,-1.24162 -9.05557,-1.55077 -12.89003,-1.32755 -13.36041,0.77775 -22.31871,13.01167 -22.31871,21.95388 0,7.094 1.47539,14.04382 3.56871,17.29612 -2.78335,-3.3205 -8.96315,-8.09593 -8.70519,-15.6464 0.58525,-17.13015 15.75176,-28.10531 28.82131,-28.31071 z"
       id="path4773"
       inkscape:connector-curvature="0"
       sodipodi:nodetypes="ssscsssscss" />
    <path
       style="color:#000000;fill:#191e2b;fill-opacity:0.55319148;fill-rule:nonzero;stroke:none;stroke-width:3;marker:none;visibility:visible;display:inline;overflow:visible;enable-background:accumulate"
       d="m 608.26517,384.83839 c -0.22102,-1.47928 0.20845,-3.36066 0.19194,-4.94194 -0.019,-1.81537 -3.18143,0.88631 -3.92938,1.55805 C 594.92018,390.08323 578.81295,393.7187 555,392 c 19.53921,9.27118 44.61821,-2.35774 53.26517,-7.16161 z"
       id="path4781"
       inkscape:connector-curvature="0"
       sodipodi:nodetypes="csscc" />
    <path
       style="color:#000000;fill:#191e2b;fill-opacity:0.55319148;fill-rule:nonzero;stroke:none;stroke-width:3;marker:none;visibility:visible;display:inline;overflow:visible;enable-background:accumulate"
       d="m 644.5,380.75 c -1.226,6.19412 -11.72152,3.49181 -16.25,3.25 -6.05141,-0.32313 -9.03315,2.5 -15.5,4 4.60889,0.67473 9.69501,0.70815 14.25,0.25 6.56194,-0.66001 19.37412,3.37763 21.75,-3.75 -1.47347,-1.82254 -2.56349,-2.69594 -4.25,-3.75 z"
       id="path4816"
       inkscape:connector-curvature="0"
       sodipodi:nodetypes="cscscc" />
    <path
       style="color:#000000;fill:#191e2b;fill-opacity:0.55319148;fill-rule:nonzero;stroke:none;stroke-width:3;marker:none;visibility:visible;display:inline;overflow:visible;enable-background:accumulate"
       d="m 554,311.25 c 3.00712,0.7487 6.20166,-1.78118 8,-3.25 6.04953,-4.94105 15.12728,-7.75 21.375,-7.75 11.03233,0 21.32813,4.53124 22.625,13.5 -5.75761,-6.33618 -12.93552,-8.78049 -21.5,-9.5 -10.73228,-0.90163 -17.5523,5.38413 -24.75,8.75 -2.4938,1.16618 -4.02073,-0.0207 -5.75,-1.75 z"
       id="path4824"
       inkscape:connector-curvature="0"
       sodipodi:nodetypes="csscssc" />
    <path
       style="color:#000000;fill:#191e2b;fill-opacity:0.55319148;fill-rule:nonzero;stroke:none;stroke-width:3;marker:none;visibility:visible;display:inline;overflow:visible;enable-background:accumulate"
       d="m 624.036,365.30804 0,-51.97234 c 0,-5.67997 -1.71722,-10.72595 -3.5498,-14.84925 5.49902,3.73409 8.13173,8.29389 8.13173,14.84925 l 0,54.09366 c 0,3.48913 1.79354,4.63056 3.18198,7.07107 -5.18057,-1.86558 -7.76391,-4.7688 -7.76391,-9.19239 z"
       id="path4832"
       inkscape:connector-curvature="0"
       sodipodi:nodetypes="sscsscs" />
    <path
       style="color:#000000;fill:#191e2b;fill-opacity:0.55319148;fill-rule:nonzero;stroke:none;stroke-width:3;marker:none;visibility:visible;display:inline;overflow:visible;enable-background:accumulate"
       d="m 680.5,287.90901 c 0,-9.63457 2.3255,-41.03853 3,-48.15901 l 0,52 c -0.97227,-0.44194 -3,-1.89645 -3,-3.84099 z"
       id="path4840"
       inkscape:connector-curvature="0"
       sodipodi:nodetypes="sccs" />
    <path
       style="color:#000000;fill:#191e2b;fill-opacity:0.55319148;fill-rule:nonzero;stroke:none;stroke-width:3;marker:none;visibility:visible;display:inline;overflow:visible;enable-background:accumulate"
       d="m 685,362.75 0,-59 23.5,0 c 1.68511,0 4.56957,-2.38572 4.25,-4.75 -1.43197,1.23308 -1.7184,1 -3.5,1 l -24,0 c -3.57538,0 -5,2.71645 -5,5.5 l 0,54.70558 c 0,4.37664 3.45318,10.0164 10.25,11.29442 -3.19396,-2.07719 -5.5,-5.36893 -5.5,-8.75 z"
       id="path4852"
       inkscape:connector-curvature="0"
       sodipodi:nodetypes="scscsssscs" />
    <path
       sodipodi:nodetypes="cscsc"
       inkscape:connector-curvature="0"
       id="path4876"
       d="m 921.03467,276.17253 c 7.55543,0.86033 13.83278,-2.20392 17.01345,-7.3462 3.30217,-5.33871 3.98462,-9.07683 2.51777,-15.67767 6.16922,7.39608 6.94333,14.90511 1.41422,20.85965 -4.33665,4.67032 -13.26762,5.47349 -20.94544,2.16422 z"
       style="color:#000000;fill:#191e2b;fill-opacity:0.55319148;fill-rule:nonzero;stroke:none;stroke-width:3;marker:none;visibility:visible;display:inline;overflow:visible;enable-background:accumulate" />
    <path
       style="color:#000000;fill:#191e2b;fill-opacity:0.55319148;fill-rule:nonzero;stroke:none;stroke-width:3;marker:none;visibility:visible;display:inline;overflow:visible;enable-background:accumulate"
       d="m 711.5262,361.59573 c -0.23175,0.9917 0.83377,3.21905 0.4932,4.13247 -5.13252,13.7653 -14.99758,22.67252 -34.96466,22.20726 15.30186,10.25733 38.69639,-4.68401 38.36055,-22.09708 -0.0642,-3.32989 -1.87667,-2.73333 -3.88909,-4.24265 z"
       id="path4878"
       inkscape:connector-curvature="0"
       sodipodi:nodetypes="cscsc" />
    <path
       style="color:#000000;fill:#191e2b;fill-opacity:0.55319148;fill-rule:nonzero;stroke:none;stroke-width:3;marker:none;visibility:visible;display:inline;overflow:visible;enable-background:accumulate"
       d="m 506.70275,365.2763 0,-149.16779 c 0,-3.79173 -0.0592,-8.04913 4.24264,-9.54594 4.5318,-1.57681 10.38062,-4.38025 12.89614,-7.36129 0.75855,-0.89892 -0.60523,-2.23035 -0.16822,-3.43465 -0.96931,0.0319 -1.15877,1.20596 -3.10676,2.60234 -3.37757,2.42115 -7.95616,3.16973 -12.3638,4.77939 -4.74881,1.73425 -6.44975,7.68611 -6.44975,12.6066 0,28.99138 0,144.83459 0,149.97413 0,3.9122 4.25909,9.14991 10.24708,11.52091 -1.86191,-1.81683 -5.29733,-8.99712 -5.29733,-11.9737 z"
       id="path4886"
       inkscape:connector-curvature="0"
       sodipodi:nodetypes="sssscsssscs" />
    <path
       style="color:#000000;fill:#191e2b;fill-opacity:0.55319148;fill-rule:nonzero;stroke:none;stroke-width:3;marker:none;visibility:visible;display:inline;overflow:visible;enable-background:accumulate"
       d="m 462.62461,387.05158 c 6.2349,0 11.3916,-3.81046 17.32412,-3.81046 9.69472,0 21.07958,-0.0994 25.04175,0 7.0443,0.17677 10.27407,1.73847 15.02208,0.91421 1.07415,-0.18647 2.3748,-2.17274 1.86244,-3.53033 3.17987,-0.024 5.08087,3.34406 3.5,5.5 -4.55926,6.21778 -12.62732,2.125 -18.5,2.125 l -25.86561,0 c -6.47116,0 -12.57347,1.38437 -18.38478,-1.19842 z"
       id="path4894"
       inkscape:connector-curvature="0"
       sodipodi:nodetypes="cssscsssc" />
    <path
       sodipodi:nodetypes="cssscsssc"
       inkscape:connector-curvature="0"
       id="path4902"
       d="m 348.62461,387.05158 c 6.2349,0 11.3916,-3.81046 17.32412,-3.81046 9.69472,0 21.07958,-0.0994 25.04175,0 7.0443,0.17677 10.27407,1.73847 15.02208,0.91421 1.07415,-0.18647 2.3748,-2.17274 1.86244,-3.53033 3.17987,-0.024 5.08087,3.34406 3.5,5.5 -4.55926,6.21778 -12.62732,2.125 -18.5,2.125 l -25.86561,0 c -6.47116,0 -12.57347,1.38437 -18.38478,-1.19842 z"
       style="color:#000000;fill:#191e2b;fill-opacity:0.55319148;fill-rule:nonzero;stroke:none;stroke-width:3;marker:none;visibility:visible;display:inline;overflow:visible;enable-background:accumulate" />
    <path
       sodipodi:nodetypes="sssscsssscs"
       inkscape:connector-curvature="0"
       id="path4904"
       d="m 393.70267,365.2763 0,-149.16779 c 0,-3.79173 -0.0592,-8.04913 4.24264,-9.54594 4.5318,-1.57681 10.38062,-4.38025 12.89614,-7.36129 0.75855,-0.89892 -0.60523,-2.23035 -0.16822,-3.43465 -0.96931,0.0319 -1.15877,1.20596 -3.10676,2.60234 -3.37757,2.42115 -7.95616,3.16973 -12.3638,4.77939 -4.74881,1.73425 -6.44975,7.68611 -6.44975,12.6066 0,28.99138 0,144.83459 0,149.97413 0,3.9122 4.25909,9.14991 10.24708,11.52091 -1.86191,-1.81683 -5.29733,-8.99712 -5.29733,-11.9737 z"
       style="color:#000000;fill:#191e2b;fill-opacity:0.55319148;fill-rule:nonzero;stroke:none;stroke-width:3;marker:none;visibility:visible;display:inline;overflow:visible;enable-background:accumulate" />
    <path
       style="color:#000000;fill:#191e2b;fill-opacity:0.55319148;fill-rule:nonzero;stroke:none;stroke-width:3;marker:none;visibility:visible;display:inline;overflow:visible;enable-background:accumulate"
       d="m 398.25,263.5 c 0.20688,3.16409 2.76915,2.5 5.75,2.5 22,0 63.26257,-0.71166 66,0 3.6566,0.95062 5.63339,2.46726 6,6.5 -1.96345,-1.51199 -3.62559,-2.75 -5.75,-2.75 l -68.75,0 c -3.48422,-0.59161 -3.25,-3.20478 -3.25,-6.25 z"
       id="path4906"
       inkscape:connector-curvature="0"
       sodipodi:nodetypes="csscscc" />
    <path
       style="color:#000000;fill:#191e2b;fill-opacity:0.55319148;fill-rule:nonzero;stroke:none;stroke-width:3;marker:none;visibility:visible;display:inline;overflow:visible;enable-background:accumulate"
       d="m 898.625,387.05158 c 6.2349,0 11.3916,-3.81046 17.32412,-3.81046 9.69472,0 21.07958,-0.0994 25.04175,0 7.0443,0.17677 10.27407,1.73847 15.02208,0.91421 1.07415,-0.18647 2.3748,-2.17274 1.86244,-3.53033 3.17987,-0.024 5.08087,3.34406 3.5,5.5 -4.55926,6.21778 -12.62732,2.125 -18.5,2.125 l -25.86561,0 c -6.47116,0 -12.57347,1.38437 -18.38478,-1.19842 z"
       id="path4916"
       inkscape:connector-curvature="0"
       sodipodi:nodetypes="cssscsssc" />
    <path
       style="color:#000000;fill:#191e2b;fill-opacity:0.55319148;fill-rule:nonzero;stroke:none;stroke-width:3;marker:none;visibility:visible;display:inline;overflow:visible;enable-background:accumulate"
       d="m 2117.0777,320.76032 c -1.5479,-10.08531 -13.8958,-16.61701 -19.799,-16.61701 -21.9728,0 -35.4724,18.56188 -37.8302,38.53732 -2.1111,17.88482 12.0417,32.17963 27.2236,35.35534 -9.4348,-8.4353 -26.3905,-22.86993 -22.6274,-36.76956 4.1299,-15.25454 17.0256,-31.43466 31.4663,-32.52691 7.5168,-0.56854 18.3959,9.33493 21.5667,12.02082 z"
       id="path4918"
       inkscape:connector-curvature="0"
       sodipodi:nodetypes="csscssc" />
    <path
       style="color:#000000;fill:#191e2b;fill-opacity:0.55319148;fill-rule:nonzero;stroke:none;stroke-width:3;marker:none;visibility:visible;display:inline;overflow:visible;enable-background:accumulate"
       d="m 2072.8835,386.8748 c 7.9575,1.17223 15.2677,1.56303 21.9085,1.19854 28.1198,-1.54335 44.2383,-16.62883 46.6809,-43.27139 1.1967,-13.0532 -2.9073,-26.07815 -10.2531,-34.64823 8.979,9.04137 17.0088,22.73083 15.2028,35.00178 -3.4809,23.65116 -18.9961,47.60065 -51.9723,47.0226 -7.4053,-0.12981 -15.4205,-2.57165 -21.5668,-5.3033 z"
       id="path4926"
       inkscape:connector-curvature="0"
       sodipodi:nodetypes="csscssc" />
    <path
       style="color:#000000;fill:#191e2b;fill-opacity:0.55319148;fill-rule:nonzero;stroke:none;stroke-width:3;marker:none;visibility:visible;display:inline;overflow:visible;enable-background:accumulate"
       d="m 2085.84,283.92642 c 0.3159,0 3.9041,1.89528 6.6569,0.125 12.9202,-8.30871 23.7473,-21.20944 24.9344,-34.35533 0.434,-4.80595 -2.992,-11.42641 -4.8928,-15.22793 6.8203,6.63207 9.9482,14.68109 8.7818,20.88478 -2.8657,15.24092 -15.0929,27.10688 -26.5165,32.52691 -4.7277,2.24312 -6.2461,-0.78274 -8.9638,-3.95343 z"
       id="path4934"
       inkscape:connector-curvature="0"
       sodipodi:nodetypes="csscssc" />
    <path
       style="color:#000000;fill:#191e2b;fill-opacity:0.55319148;fill-rule:nonzero;stroke:none;stroke-width:3;marker:none;visibility:visible;display:inline;overflow:visible;enable-background:accumulate"
       d="m 2068.6409,250.04964 c 3.5499,1.00818 6.4766,0.46284 8.6621,-1.94455 4.7833,-5.26899 6.4644,-7.42462 13.7885,-7.42462 3.5005,0 8.9568,4.86168 8.4853,9.54594 -3.0399,-2.86755 -5.9333,-4.32737 -9.5459,-4.94974 -7.2353,-1.24648 -9.1665,7.2542 -14.6725,8.3085 -4.0123,0.76829 -5.9561,-0.10901 -6.7175,-3.53553 z"
       id="path4942"
       inkscape:connector-curvature="0"
       sodipodi:nodetypes="csscssc" />
    <path
       style="color:#000000;fill:#191e2b;fill-opacity:0.55319148;fill-rule:nonzero;stroke:none;stroke-width:3;marker:none;visibility:visible;display:inline;overflow:visible;enable-background:accumulate"
       d="m 1865.878,212.74976 c 0.3566,-3.26332 -1.279,-9.26485 -3.9774,-9.98789 -4.3883,-1.17583 -8.5933,-1.79071 -12.4628,-2.47487 4.4921,2.06401 7.9748,3.84069 11.3137,6.27557 1.7954,1.30927 3.3294,4.64684 5.1265,6.18719 z"
       id="path4950"
       inkscape:connector-curvature="0"
       sodipodi:nodetypes="cscsc" />
    <path
       style="color:#000000;fill:#191e2b;fill-opacity:0.55319148;fill-rule:nonzero;stroke:none;stroke-width:3;marker:none;visibility:visible;display:inline;overflow:visible;enable-background:accumulate"
       d="m 1890.804,249 0,-34.65925 c 0,-8.82355 5.2449,-13.78175 10.2526,-13.78175 l 28.3501,0 c 34.1444,0 58.7601,29.30792 67.4629,64.33988 -14.2141,-38.63759 -37.6108,-60.10408 -61.5183,-60.10408 l -33.3554,0 c -4.454,1.78385 -5.9959,5.07092 -5.9959,9.4552 l 0,40.75 c 0,1.95596 1.8112,1.64655 2.75,2.5 -5.3893,-0.19173 -7.946,-3.41186 -7.946,-8.5 z"
       id="path4958"
       inkscape:connector-curvature="0"
       sodipodi:nodetypes="ssssssssscs" />
    <path
       style="color:#000000;fill:#191e2b;fill-opacity:0.55319148;fill-rule:nonzero;stroke:none;stroke-width:3;marker:none;visibility:visible;display:inline;overflow:visible;enable-background:accumulate"
       d="m 1938.7759,384.75348 -72.7211,0 c -4.3646,0 -8.9517,-0.6535 -12.0208,2.47487 l 83.085,0 c 43.2388,0 80.4094,-26.97476 93.3381,-65.76093 3.2806,-9.8417 -3.1415,-53.43788 -3.7123,-63.46283 15.3796,90.69431 -48.5188,126.74889 -87.9689,126.74889 z"
       id="path4966"
       inkscape:connector-curvature="0"
       sodipodi:nodetypes="sscsscs" />
    <path
       sodipodi:nodetypes="csscssc"
       inkscape:connector-curvature="0"
       id="path4974"
       d="m 1729.84,283.92642 c 0.3159,0 3.9041,1.89528 6.6569,0.125 12.9202,-8.30871 23.7473,-21.20944 24.9344,-34.35533 0.434,-4.80595 -2.992,-11.42641 -4.8928,-15.22793 6.8203,6.63207 9.9482,14.68109 8.7818,20.88478 -2.8657,15.24092 -15.0929,27.10688 -26.5165,32.52691 -4.7277,2.24312 -6.2461,-0.78274 -8.9638,-3.95343 z"
       style="color:#000000;fill:#191e2b;fill-opacity:0.55319148;fill-rule:nonzero;stroke:none;stroke-width:3;marker:none;visibility:visible;display:inline;overflow:visible;enable-background:accumulate" />
    <path
       style="color:#000000;fill:#191e2b;fill-opacity:0.55319148;fill-rule:nonzero;stroke:none;stroke-width:3;marker:none;visibility:visible;display:inline;overflow:visible;enable-background:accumulate"
       d="m 1750,372 c 0.5665,0.27955 1.0929,3.64737 -0.375,5 -7.4595,6.87356 -14.7832,9.33107 -24.8752,10.74832 -6.6267,0.9306 -12.9676,-0.41362 -17.2498,-0.87332 4.882,0.68953 10.7967,4.68318 16.626,4.5428 12.5081,-0.3012 25.074,-6.57095 29.374,-13.4178 1.8536,-2.9515 -0.9511,-4.40697 -3.5,-6 z"
       id="path4984"
       inkscape:connector-curvature="0"
       sodipodi:nodetypes="csscssc" />
    <path
       style="color:#000000;fill:#191e2b;fill-opacity:0.55319148;fill-rule:nonzero;stroke:none;stroke-width:3;marker:none;visibility:visible;display:inline;overflow:visible;enable-background:accumulate"
       d="m 1896.8139,374.50043 c -1.2718,-0.2579 -6.0104,-3.61891 -6.0104,-10.6066 l 5e-4,-88.7419 c 0,-5.32933 3.5837,-9.48493 8.8384,-9.48493 l 35.3553,0 c 3.8379,0 4.2635,-0.62256 4.5962,-3.9501 2.7749,4.3948 1.5073,8.13173 -2.1213,8.13173 0,0 -23.8059,0 -35.7089,0 -4.7261,0 -6.0104,3.59529 -6.0104,7.42462 l 0,88.03479 c 0,3.15496 0.3866,6.15924 1.0606,9.19239 z"
       id="path4992"
       inkscape:connector-curvature="0"
       sodipodi:nodetypes="csssscssssc" />
    <path
       style="color:#000000;fill:#191e2b;fill-opacity:0.55319148;fill-rule:nonzero;stroke:none;stroke-width:3;marker:none;visibility:visible;display:inline;overflow:visible;enable-background:accumulate"
       d="m 1652.25,241.75 c 3.2421,0.56309 7.25,2.33694 7.25,-1 l 0,-26.25 c 0,-2.58523 2.3067,-5.01288 3.75,-6.25 l 0,34.25 c 0,4.3384 -6.0645,6.90378 -9.25,3.75 -1.4951,-1.48021 -1.1158,-2.59749 -1.75,-4.5 z"
       id="path5000"
       inkscape:connector-curvature="0"
       sodipodi:nodetypes="csscssc" />
    <path
       style="color:#000000;fill:#191e2b;fill-opacity:0.55319148;fill-rule:nonzero;stroke:none;stroke-width:3;marker:none;visibility:visible;display:inline;overflow:visible;enable-background:accumulate"
       d="m 1646.5,228.5 c -4.7641,-20.07893 -26.2476,-32.80475 -47,-33 -56.5617,-0.53216 -78.5,45.48906 -78.5,90.5 0,10.31323 3.3925,19.38322 7,27.5 -6.1736,-56.34958 14.5692,-112.5 70,-112.5 26.4406,0 34.9275,15.86642 48.5,27.5 z"
       id="path5008"
       inkscape:connector-curvature="0"
       sodipodi:nodetypes="csscsc" />
    <path
       style="color:#000000;fill:#191e2b;fill-opacity:0.55319148;fill-rule:nonzero;stroke:none;stroke-width:3;marker:none;visibility:visible;display:inline;overflow:visible;enable-background:accumulate"
       d="m 1528.7649,373.43977 c 48.9696,19.46822 105.1118,16.98913 135.7645,-19.09188 1.7835,-2.09936 0.2792,-4.63194 0,-7.42462 3.7036,2.15253 6.4715,4.82473 4.5962,8.48528 -17.3049,33.77808 -100.0423,49.06412 -140.3607,18.03122 z"
       id="path5016"
       inkscape:connector-curvature="0"
       sodipodi:nodetypes="cscsc" />
    <path
       style="color:#000000;fill:#191e2b;fill-opacity:0.55319148;fill-rule:nonzero;stroke:none;stroke-width:3;marker:none;visibility:visible;display:inline;overflow:visible;enable-background:accumulate"
       d="m 1735.5936,376.97531 c -9.7631,6.10194 -24.3952,-0.0347 -24.3952,-16.16727 1.9768,-13.18518 -1.3153,-33.14272 3.182,-59.84671 l 0,60.10407 c 0,10.20032 9.4801,19.82094 21.2132,15.90991 z"
       id="path5024"
       inkscape:connector-curvature="0"
       sodipodi:nodetypes="cccsc" />
    <path
       sodipodi:nodetypes="csscssc"
       inkscape:connector-curvature="0"
       id="path5032"
       d="m 1208.0868,381.83927 c 1.3486,5.18509 -1.8158,7.83285 -6.2176,7.86396 -6.211,0.0439 -11.9294,-2.23514 -17.3241,-2.82843 -5.2961,-0.58245 -9.7963,0.50529 -14.8492,0 5.5596,-1.74542 10.7674,-3.25796 17.0741,-3.22487 6.6105,0.0347 12.2731,1.68751 15.2849,1.02144 1.5988,-0.35357 4.6085,-0.74264 6.0319,-2.8321 z"
       style="color:#000000;fill:#191e2b;fill-opacity:0.55319148;fill-rule:nonzero;stroke:none;stroke-width:3;marker:none;visibility:visible;display:inline;overflow:visible;enable-background:accumulate" />
    <path
       sodipodi:nodetypes="csscssc"
       inkscape:connector-curvature="0"
       id="path5034"
       d="m 1159,372 c 0.5665,0.27955 1.0929,3.64737 -0.375,5 -7.4595,6.87356 -14.7832,9.33107 -24.8752,10.74832 -6.6267,0.9306 -12.9676,-0.41362 -17.2498,-0.87332 4.882,0.68953 10.7967,4.68318 16.626,4.5428 12.5081,-0.3012 25.074,-6.57095 29.374,-13.4178 1.8536,-2.9515 -0.9511,-4.40697 -3.5,-6 z"
       style="color:#000000;fill:#191e2b;fill-opacity:0.55319148;fill-rule:nonzero;stroke:none;stroke-width:3;marker:none;visibility:visible;display:inline;overflow:visible;enable-background:accumulate" />
    <path
       sodipodi:nodetypes="cccsc"
       inkscape:connector-curvature="0"
       id="path5036"
       d="m 1144.5936,376.97531 c -9.7631,6.10194 -24.3952,-0.0347 -24.3952,-16.16727 1.9768,-13.18518 1.1492,-46.88105 3.182,-59.84671 l 0,60.10407 c 0,10.20032 9.4801,19.82094 21.2132,15.90991 z"
       style="color:#000000;fill:#191e2b;fill-opacity:0.55319148;fill-rule:nonzero;stroke:none;stroke-width:3;marker:none;visibility:visible;display:inline;overflow:visible;enable-background:accumulate" />
    <path
       style="color:#000000;fill:#191e2b;fill-opacity:0.55319148;fill-rule:nonzero;stroke:none;stroke-width:3;marker:none;visibility:visible;display:inline;overflow:visible;enable-background:accumulate"
       d="m 1002.5007,345.2 c 1.8439,-1.20432 3.759,-4.58 7.2478,-4.58 19.9168,0 54.3565,0 57.4524,0 3.5335,0 8.4373,-0.8925 10.6066,-4.83367 0.8541,4.48535 -3.6908,9.46127 -8.3085,9.41367 -22.8631,-0.2357 -66.9983,0 -66.9983,0 z"
       id="path5042"
       inkscape:connector-curvature="0"
       sodipodi:nodetypes="csscsc" />
    <path
       style="color:#000000;fill:#191e2b;fill-opacity:0.55319148;fill-rule:nonzero;stroke:none;stroke-width:3;marker:none;visibility:visible;display:inline;overflow:visible;enable-background:accumulate"
       d="m 1009.5717,389.1729 c 18.2028,1.8905 39.3359,-3.02471 52.326,-13.78858 1.9001,-1.57452 1.7592,-1.28793 3.3587,-4.41942 1.9682,2.49079 0.7888,5.71736 -1.2374,7.07107 -15.1491,10.12111 -41.9354,22.27172 -59.7506,12.37436 1.9957,0.21501 3.5262,-0.52658 5.3033,-1.23743 z"
       id="path5050"
       inkscape:connector-curvature="0"
       sodipodi:nodetypes="cscscc" />
    <path
       style="color:#000000;fill:#191e2b;fill-opacity:0.55319148;fill-rule:nonzero;stroke:none;stroke-width:3;marker:none;visibility:visible;display:inline;overflow:visible;enable-background:accumulate"
       d="m 989.25,349 c -2.47953,-27.07329 14.7312,-52.7581 37.25,-47.25 5.7628,1.40959 15.8743,7.03075 20.5,10.5 -0.8205,-6.39108 -12.7093,-14.5 -22.25,-14.5 -26.11616,0 -39.5,18.89179 -39.5,36.75 0,9.27395 0.78519,10.74938 4,14.5 z"
       id="path5058"
       inkscape:connector-curvature="0"
       sodipodi:nodetypes="cscssc" />
    <path
       style="color:#000000;fill:#191e2b;fill-opacity:0.55319148;fill-rule:nonzero;stroke:none;stroke-width:3;marker:none;visibility:visible;display:inline;overflow:visible;enable-background:accumulate"
       d="m 984.29264,281.16234 c 2.90032,1.74374 4.07183,1.60688 7.07107,0.7071 l 28.28429,-17.67767 27.9307,18.38478 c 5.3537,0.50984 5.3922,-1.63764 6.364,-6.01041 -1.9984,1.55523 -4.436,0.70711 -5.6569,0.70711 l -25.8094,-17.32412 c -3.1423,-1.0584 -4.2176,0.77457 -5.6568,1.41422 l -27.57721,17.67767 c -2.03418,0.59081 -4.66933,-0.48766 -5.65685,-0.70711"
       id="path5066"
       inkscape:connector-curvature="0" />
    <path
       style="color:#000000;fill:#191e2b;fill-opacity:0.55319148;fill-rule:nonzero;stroke:none;stroke-width:3;marker:none;visibility:visible;display:inline;overflow:visible;enable-background:accumulate"
       d="m 1798.0869,381.83927 c 1.3486,5.18509 -1.8158,7.83285 -6.2176,7.86396 -6.211,0.0439 -11.9294,-2.23514 -17.3241,-2.82843 -5.2961,-0.58245 -9.7963,0.50529 -14.8492,0 5.5596,-1.74542 10.7674,-3.25796 17.0741,-3.22487 6.6105,0.0347 12.2731,1.68751 15.2849,1.02144 1.5988,-0.35357 4.6085,-0.74264 6.0319,-2.8321 z"
       id="path5108"
       inkscape:connector-curvature="0"
       sodipodi:nodetypes="csscssc" />
    <path
       sodipodi:nodetypes="ssscsssscss"
       inkscape:connector-curvature="0"
       id="path5110"
       d="m 870.94539,209.5 c -4.5548,0 -8.24264,4.81678 -8.24264,8.60851 l 0,147.16779 c 0,2.97658 3.43542,10.15687 5.29733,11.9737 -5.98799,-2.371 -10.24708,-7.60871 -10.24708,-11.52091 0,-5.13954 0,-118.98275 0,-147.97413 0,-4.92049 2.70092,-12.1066 9.69975,-12.1066 l 48.29725,0 c 4.14168,0 6.34138,3.26284 7.25,7.35164 -3.06857,-2.02835 -4.9891,-3.5 -8,-3.5 z"
       style="color:#000000;fill:#191e2b;fill-opacity:0.55319148;fill-rule:nonzero;stroke:none;stroke-width:3;marker:none;visibility:visible;display:inline;overflow:visible;enable-background:accumulate" />
    <path
       sodipodi:nodetypes="cssscsssc"
       inkscape:connector-curvature="0"
       id="path5112"
       d="m 818.62461,387.05158 c 6.2349,0 11.3916,-3.81046 17.32412,-3.81046 9.69472,0 21.07958,-0.0994 25.04175,0 7.0443,0.17677 10.27407,1.73847 15.02208,0.91421 1.07415,-0.18647 2.3748,-2.17274 1.86244,-3.53033 3.17987,-0.024 5.08087,3.34406 3.5,5.5 -4.55926,6.21778 -12.62732,2.125 -18.5,2.125 l -25.86561,0 c -6.47116,0 -12.57347,1.38437 -18.38478,-1.19842 z"
       style="color:#000000;fill:#191e2b;fill-opacity:0.55319148;fill-rule:nonzero;stroke:none;stroke-width:3;marker:none;visibility:visible;display:inline;overflow:visible;enable-background:accumulate" />
    <path
       style="color:#000000;fill:#191e2b;fill-opacity:0.55319148;fill-rule:nonzero;stroke:none;stroke-width:3;marker:none;visibility:visible;display:inline;overflow:visible;enable-background:accumulate"
       d="m 824.13296,211.15877 -48.43682,0 c -3.22455,5.15928 -5.10817,8.73448 -6.01041,15.9099 -1.33257,2.99828 -2.019,4.14327 -6.36396,3.18198 1.75711,-0.24513 2.60221,-1.2487 3.18198,-6.01041 0.72294,-5.93757 1.35757,-9.82715 3.71231,-14.67246 1.57654,-3.24401 6.59493,-4.06587 10.42983,-4.06587 l 41.60839,0 c 4.55539,0 10.36478,3.80438 10.89429,9.72272 -2.78251,-3.35425 -6.47822,-4.06586 -9.01561,-4.06586 z"
       id="path5149"
       inkscape:connector-curvature="0"
       sodipodi:nodetypes="sssssssscs" />
    <path
       style="color:#000000;fill:#191e2b;fill-opacity:0.55319148;fill-rule:nonzero;stroke:none;stroke-width:3;marker:none;visibility:visible;display:inline;overflow:visible;enable-background:accumulate"
       d="M 940.75,302 937,369 c -0.23161,4.13804 4.31433,4.10477 7.75,5.25 -1.61854,-1.80529 -2.18474,-3.78874 -2.25,-6.25 z"
       id="path5161"
       inkscape:connector-curvature="0"
       sodipodi:nodetypes="cscsc" />
    <path
       style="color:#000000;fill:#191e2b;fill-opacity:0.55319148;fill-rule:nonzero;stroke:none;stroke-width:3;marker:none;visibility:visible;display:inline;overflow:visible;enable-background:accumulate"
       d="m 1784.384,375.56109 c -4.2424,-1.06089 -7.6738,-2.92779 -7.4247,-8.13173 l 3.182,-66.46803 0,66.46803 c 0,3.2373 2.945,5.21207 4.2427,8.13173 z"
       id="path5169"
       inkscape:connector-curvature="0"
       sodipodi:nodetypes="cscsc" />
    <path
       sodipodi:nodetypes="cscsc"
       inkscape:connector-curvature="0"
       id="path5179"
       d="m 1193.3845,375.56109 c -4.2424,-1.06089 -7.9384,-1.67851 -7.6747,-6.88173 l 3.432,-67.71803 0,66.46803 c 0,3.2373 2.945,5.21207 4.2427,8.13173 z"
       style="color:#000000;fill:#191e2b;fill-opacity:0.55319148;fill-rule:nonzero;stroke:none;stroke-width:3;marker:none;visibility:visible;display:inline;overflow:visible;enable-background:accumulate" />
    <path
       sodipodi:nodetypes="ssssssssss"
       inkscape:connector-curvature="0"
       id="path16244"
       d="m 468.1875,196.32453 c -1.86776,0.18071 -5.48826,-0.082 -5.6144,0.37686 -0.18999,0.69112 1.02508,1.43224 1.9269,1.42361 0.3658,-0.004 10.58516,2.1085 15.38395,2.225 3.21994,0.0782 19.55364,0 25.49609,0 4.78296,0 12.11876,-2.25969 15.99496,-4.1 1.07461,-0.51019 -1.91241,-0.51801 -3.62365,-0.34153 -3.07649,0.3173 -7.62374,1.3967 -13.15135,1.39106 -8.05609,-0.008 -17.47569,0.25945 -24.71781,0 -6.60137,-0.2365 -11.39354,-1.00414 -11.69469,-0.975 z"
       style="color:#000000;fill:#edf4ff;fill-opacity:1;fill-rule:nonzero;stroke:none;stroke-width:3;marker:none;visibility:visible;display:inline;overflow:visible;enable-background:accumulate" />
    <path
       sodipodi:nodetypes="csssssssc"
       inkscape:connector-curvature="0"
       id="path16246"
       d="m 1762.2797,304.27666 c -5.0695,0.0104 -7.0891,-2.05434 -12.3672,-1.74911 -1.2519,0.0724 -4.3829,1.039 -4.5375,-0.0276 -0.1708,-1.17845 1.1993,-2.03879 2.7955,-2.08839 4.0385,-0.12551 9.9974,1.87943 14.1036,1.98238 3.9978,0.10024 8.4131,-1.5288 11.9191,-2.40492 2.6588,-0.66441 3.1223,1.44719 0.5303,1.94454 -3.6219,0.69498 -8.7844,2.33554 -12.4438,2.34305 z"
       style="color:#000000;fill:#edf4ff;fill-opacity:1;fill-rule:nonzero;stroke:none;stroke-width:3;marker:none;visibility:visible;display:inline;overflow:visible;enable-background:accumulate" />
    <path
       sodipodi:nodetypes="csssssssc"
       inkscape:connector-curvature="0"
       id="path16248"
       d="m 1105.2801,304.27666 c -5.0695,0.0104 -7.0891,-2.05434 -12.3672,-1.74911 -1.2519,0.0724 -4.3829,1.039 -4.5375,-0.0276 -0.1708,-1.17845 1.1993,-2.03879 2.7955,-2.08839 4.0385,-0.12551 9.9974,1.87943 14.1036,1.98238 3.9978,0.10024 8.4131,-1.5288 11.9191,-2.40492 2.6588,-0.66441 3.1223,1.44719 0.5303,1.94454 -3.6219,0.69498 -8.7844,2.33554 -12.4438,2.34305 z"
       style="color:#000000;fill:#edf4ff;fill-opacity:1;fill-rule:nonzero;stroke:none;stroke-width:3;marker:none;visibility:visible;display:inline;overflow:visible;enable-background:accumulate" />
    <path
       style="color:#000000;fill:#edf4ff;fill-opacity:1;fill-rule:nonzero;stroke:none;stroke-width:3;marker:none;visibility:visible;display:inline;overflow:visible;enable-background:accumulate"
       d="m 1171.2801,304.27666 c -5.0695,0.0104 -7.0891,-2.05434 -12.3672,-1.74911 -1.2519,0.0724 -4.3829,1.039 -4.5375,-0.0276 -0.1708,-1.17845 1.1993,-2.03879 2.7955,-2.08839 4.0385,-0.12551 9.9974,1.87943 14.1036,1.98238 3.9978,0.10024 8.4131,-1.5288 11.9191,-2.40492 2.6588,-0.66441 3.1223,1.44719 0.5303,1.94454 -3.6219,0.69498 -8.7844,2.33554 -12.4438,2.34305 z"
       id="path16250"
       inkscape:connector-curvature="0"
       sodipodi:nodetypes="csssssssc" />
    <path
       sodipodi:nodetypes="ssssss"
       inkscape:connector-curvature="0"
       id="path16252"
       d="m 1158.8123,374.0625 c -0.642,-0.24423 -1.889,0.38742 -2.3621,1.22188 -0.1687,0.29758 -5.6201,4.11667 -9.8914,4.95025 -2.5905,0.50557 -2.7418,2.45085 0.3389,1.77762 6.2696,-1.37011 10.3308,-5.2489 10.7203,-5.64773 0.7715,-0.79002 1.9687,-2.0074 1.1943,-2.30202 z"
       style="color:#000000;fill:#edf4ff;fill-opacity:1;fill-rule:nonzero;stroke:none;stroke-width:3;marker:none;visibility:visible;display:inline;overflow:visible;enable-background:accumulate" />
    <path
       style="color:#000000;fill:#edf4ff;fill-opacity:1;fill-rule:nonzero;stroke:none;stroke-width:3;marker:none;visibility:visible;display:inline;overflow:visible;enable-background:accumulate"
       d="m 923.2801,304.27666 c -5.0695,0.0104 -7.0891,-2.05434 -12.3672,-1.74911 -1.2519,0.0724 -4.3829,1.039 -4.5375,-0.0276 -0.1708,-1.17845 1.1993,-2.03879 2.7955,-2.08839 4.0385,-0.12551 9.9974,1.87943 14.1036,1.98238 3.9978,0.10024 8.4131,-1.5288 11.9191,-2.40492 2.6588,-0.66441 3.1223,1.44719 0.5303,1.94454 -3.6219,0.69498 -8.7844,2.33554 -12.4438,2.34305 z"
       id="path16254"
       inkscape:connector-curvature="0"
       sodipodi:nodetypes="csssssssc" />
  </g>
</svg>
