<?xml version="1.0" encoding="UTF-8" standalone="no"?>
<svg
   xmlns:dc="http://purl.org/dc/elements/1.1/"
   xmlns:cc="http://creativecommons.org/ns#"
   xmlns:rdf="http://www.w3.org/1999/02/22-rdf-syntax-ns#"
   xmlns:svg="http://www.w3.org/2000/svg"
   xmlns="http://www.w3.org/2000/svg"
   xmlns:xlink="http://www.w3.org/1999/xlink"
   xmlns:sodipodi="http://sodipodi.sourceforge.net/DTD/sodipodi-0.dtd"
   xmlns:inkscape="http://www.inkscape.org/namespaces/inkscape"
   sodipodi:docname="E07P06.svg"
   height="2479"
   width="2481"
   inkscape:version="1.0 (4035a4f, 2020-05-01)"
   version="1.1"
   id="svg2">
  <sodipodi:namedview
     inkscape:window-maximized="0"
     inkscape:window-y="23"
     inkscape:window-x="0"
     inkscape:document-rotation="0"
     inkscape:current-layer="layer2"
     inkscape:cy="541.09133"
     inkscape:cx="1245.615"
     inkscape:zoom="0.38651685"
     showgrid="false"
     id="namedview70"
     inkscape:window-height="790"
     inkscape:window-width="1440"
     inkscape:pageshadow="2"
     inkscape:pageopacity="0"
     bordercolor="#666666"
     pagecolor="#ffffff" />
  <metadata
     id="metadata8">
    <rdf:RDF>
      <cc:Work
         rdf:about="">
        <dc:format>image/svg+xml</dc:format>
        <dc:type
           rdf:resource="http://purl.org/dc/dcmitype/StillImage" />
        <dc:title />
      </cc:Work>
    </rdf:RDF>
  </metadata>
  <defs
     id="defs6" />
  <sodipodi:namedview
     inkscape:object-nodes="true"
     inkscape:current-layer="layer2"
     inkscape:window-maximized="1"
     inkscape:window-y="26"
     inkscape:window-x="0"
     inkscape:cy="1337.3173"
     inkscape:cx="1218.4496"
     inkscape:zoom="0.30245747"
     showgrid="false"
     id="namedview4"
     inkscape:window-height="1025"
     inkscape:window-width="1920"
     inkscape:pageshadow="2"
     inkscape:pageopacity="0"
     guidetolerance="10"
     gridtolerance="10"
     objecttolerance="10"
     borderopacity="1"
     bordercolor="#666666"
     pagecolor="#ffffff" />
  <g
     sodipodi:insensitive="true"
     style="display:inline"
     inkscape:label="artwork"
     id="layer1"
     inkscape:groupmode="layer">
    <image
       sodipodi:absref="/Users/julienj-mauduit/Downloads/lang-5/gfx_Pepper-and-Carrot_by-David-Revoy_E07P06.png"
       xlink:href="../gfx_Pepper-and-Carrot_by-David-Revoy_E07P06.png"
       y="0"
       x="0"
       id="image10"
       height="2479"
       width="2481" />
  </g>
  <g
     style="display:inline"
     inkscape:label="speechbubbles"
     id="layer3"
     inkscape:groupmode="layer">
    <path
       inkscape:connector-curvature="0"
       id="path4279"
       d="m -2021.8885,646.19917 c 1.0628,-51.0158 26.5707,-103.09442 170.0526,-112.65988 143.4819,-9.56546 203.0004,48.89014 207.2517,90.34047 4.2513,41.45033 -82.9007,96.71744 -162.6129,97.78027 -79.7121,1.06282 -214.6914,-11.69112 -214.6914,-75.46086 z"
       style="fill:#ffffff;stroke:none" />
    <path
       sodipodi:nodetypes="csccc"
       inkscape:connector-curvature="0"
       id="path4281"
       d="m -1788.0661,898.08964 c 70.1467,-44.63882 88.2148,-124.35099 45.7016,-190.24639 -42.5132,-65.8954 -82.9007,-54.20428 -82.9007,-54.20428 l 35.0734,41.45033 c 0,0 97.7803,97.78027 2.1257,203.00034 z"
       style="fill:#ffffff;stroke:none" />
  </g>
  <g
     style="display:inline"
     inkscape:label="text"
     id="layer2"
     inkscape:groupmode="layer">
    <flowRoot
       transform="matrix(1.2334095,0,0,1.2851851,-454.16129,-191.16449)"
       style="font-style:normal;font-variant:normal;font-weight:normal;font-stretch:normal;line-height:0.01%;font-family:Arial;-inkscape-font-specification:Arial;text-align:center;letter-spacing:0px;word-spacing:0px;text-anchor:middle;display:inline;fill:#000000;fill-opacity:1;stroke:none"
       id="flowRoot3027"
       xml:space="preserve"><flowRegion
         id="flowRegion3029"><rect
           style="text-align:center;text-anchor:middle"
           y="219.33444"
           x="135.21135"
           height="241.27675"
           width="2475.8752"
           id="rect3031" /></flowRegion><flowPara
         style="font-size:12px;line-height:1.25"
         id="flowPara3033"> </flowPara><flowPara
         style="font-style:normal;font-variant:normal;font-weight:normal;font-stretch:normal;font-size:48px;line-height:1.25;font-family:Lavi;-inkscape-font-specification:Lavi;text-align:center;text-anchor:middle"
         id="flowPara3035">Pepper&amp;Carrot est entyirment libe, &quot;open-source&quot; et finaé</flowPara><flowPara
         id="flowPara3044"
         style="font-style:normal;font-variant:normal;font-weight:normal;font-stretch:normal;font-size:48px;line-height:1.25;font-family:Lavi;-inkscape-font-specification:Lavi;text-align:center;text-anchor:middle">pa lé méchènat dés luuseux. Pouor ch't histouère, merchi aux 273 Méchènes :</flowPara></flowRoot>
    <flowRoot
       transform="matrix(1.2234224,0,0,1.2506407,-289.19377,1682.5299)"
       style="font-style:normal;font-variant:normal;font-weight:normal;font-stretch:normal;line-height:0.01%;font-family:Arial;-inkscape-font-specification:Arial;text-align:center;letter-spacing:0px;word-spacing:0px;text-anchor:middle;display:inline;fill:#a72f14;fill-opacity:1;stroke:none"
       id="flowRoot3027-8-8"
       xml:space="preserve"><flowRegion
         id="flowRegion3029-9-3"><rect
           style="text-align:center;text-anchor:middle;fill:#a72f14;fill-opacity:1"
           y="219.33444"
           x="135.21135"
           height="376.21677"
           width="2230.314"
           id="rect3031-9-1" /></flowRegion><flowPara
         style="font-size:12px;line-height:1.25"
         id="flowPara3033-3-0"> </flowPara><flowPara
         id="flowPara3067-4"
         style="font-style:normal;font-variant:normal;font-weight:normal;font-stretch:normal;font-size:48px;line-height:1.25;font-family:Lavi;-inkscape-font-specification:Lavi;text-align:center;text-anchor:middle;fill:#a72f14;fill-opacity:1">https://www.patreon.com/davidrevoy</flowPara></flowRoot>
    <flowRoot
       transform="matrix(0.91226779,0,0,0.94129239,100.20803,1725.1068)"
       style="font-style:normal;font-variant:normal;font-weight:normal;font-stretch:normal;line-height:0.01%;font-family:Arial;-inkscape-font-specification:Arial;text-align:center;letter-spacing:0px;word-spacing:0px;text-anchor:middle;display:inline;fill:#000000;fill-opacity:1;stroke:none"
       id="flowRoot3027-8-8-2"
       xml:space="preserve"><flowRegion
         id="flowRegion3029-9-3-5"><rect
           style="text-align:center;text-anchor:middle"
           y="219.33444"
           x="135.21135"
           height="376.21677"
           width="2230.314"
           id="rect3031-9-1-6" /></flowRegion><flowPara
         id="flowPara3055"
         style="font-style:normal;font-variant:normal;font-weight:normal;font-stretch:normal;font-size:48px;line-height:1.25;font-family:Lavi;-inkscape-font-specification:Lavi;text-align:center;text-anchor:middle">Vos itou, dévenaez méchène dé Pepper&amp;Carrot pouor la préchaine histouère :</flowPara></flowRoot>
    <flowRoot
       transform="matrix(0.78840156,0,0,0.8341601,254.1111,2049.1031)"
       style="font-style:normal;font-variant:normal;font-weight:normal;font-stretch:normal;line-height:0.01%;font-family:Arial;-inkscape-font-specification:Arial;text-align:center;letter-spacing:0px;word-spacing:0px;text-anchor:middle;display:inline;fill:#000000;fill-opacity:1;stroke:none"
       id="flowRoot3027-8-8-2-8"
       xml:space="preserve"><flowRegion
         id="flowRegion3029-9-3-5-1"><rect
           style="text-align:center;text-anchor:middle"
           y="219.33444"
           x="135.21135"
           height="376.21677"
           width="2230.314"
           id="rect3031-9-1-6-8" /></flowRegion><flowPara
         style="font-size:12px;line-height:1.25"
         id="flowPara3033-3-0-2-4"> </flowPara><flowPara
         id="flowPara3231-9"
         style="font-style:normal;font-variant:normal;font-weight:normal;font-stretch:normal;font-size:48px;line-height:1.25;font-family:Lavi;-inkscape-font-specification:Lavi;text-align:center;text-anchor:middle">Tools : Cet épisode a été dessiné a 100% avec des logiciels libres </flowPara><flowPara
         id="flowPara3279"
         style="font-style:normal;font-variant:normal;font-weight:normal;font-stretch:normal;font-size:48px;line-height:1.25;font-family:Lavi;-inkscape-font-specification:Lavi;text-align:center;text-anchor:middle">Krita sur Linux Mint</flowPara><flowPara
         id="flowPara3233-6"
         style="font-style:normal;font-variant:normal;font-weight:normal;font-stretch:normal;font-size:48px;line-height:1.25;font-family:Lavi;-inkscape-font-specification:Lavi;text-align:center;text-anchor:middle"> </flowPara></flowRoot>
    <flowRoot
       transform="matrix(0.78840156,0,0,0.81820527,254.19425,1955.3339)"
       style="font-style:normal;font-variant:normal;font-weight:normal;font-stretch:normal;line-height:0.01%;font-family:Arial;-inkscape-font-specification:Arial;text-align:center;letter-spacing:0px;word-spacing:0px;text-anchor:middle;display:inline;fill:#000000;fill-opacity:1;stroke:none"
       id="flowRoot3027-8-8-2-8-6"
       xml:space="preserve"><flowRegion
         id="flowRegion3029-9-3-5-1-2"><rect
           style="text-align:center;text-anchor:middle"
           y="219.33444"
           x="135.21135"
           height="376.21677"
           width="2230.314"
           id="rect3031-9-1-6-8-7" /></flowRegion><flowPara
         style="font-size:12px;line-height:1.25"
         id="flowPara3033-3-0-2-4-3"> </flowPara><flowPara
         id="flowPara3279-7"
         style="font-style:normal;font-variant:normal;font-weight:normal;font-stretch:normal;font-size:48px;line-height:1.25;font-family:Lavi;-inkscape-font-specification:Lavi;text-align:center;text-anchor:middle">Open-source : toutes les sources, polices d'écritures, fichiers avec calques</flowPara><flowPara
         id="flowPara3278"
         style="font-style:normal;font-variant:normal;font-weight:normal;font-stretch:normal;font-size:48px;line-height:1.25;font-family:Lavi;-inkscape-font-specification:Lavi;text-align:center;text-anchor:middle">sont disponibles sur le site officiel au téléchargement.</flowPara><flowPara
         id="flowPara3233-6-14"
         style="font-style:normal;font-variant:normal;font-weight:normal;font-stretch:normal;font-size:48px;line-height:1.25;font-family:Lavi;-inkscape-font-specification:Lavi;text-align:center;text-anchor:middle"> </flowPara></flowRoot>
    <flowRoot
       transform="matrix(0.78840156,0,0,0.83353067,254.68392,1855.5952)"
       style="font-style:normal;font-variant:normal;font-weight:normal;font-stretch:normal;line-height:0.01%;font-family:Arial;-inkscape-font-specification:Arial;text-align:center;letter-spacing:0px;word-spacing:0px;text-anchor:middle;display:inline;fill:#000000;fill-opacity:1;stroke:none"
       id="flowRoot3027-8-8-2-8-6-3"
       xml:space="preserve"><flowRegion
         id="flowRegion3029-9-3-5-1-2-8"><rect
           style="text-align:center;text-anchor:middle"
           y="219.33444"
           x="135.21135"
           height="376.21677"
           width="2230.314"
           id="rect3031-9-1-6-8-7-4" /></flowRegion><flowPara
         style="font-size:12px;line-height:1.25"
         id="flowPara3033-3-0-2-4-3-2"> </flowPara><flowPara
         id="flowPara3278-7"
         style="font-style:normal;font-variant:normal;font-weight:normal;font-stretch:normal;font-size:48px;line-height:1.25;font-family:Lavi;-inkscape-font-specification:Lavi;text-align:center;text-anchor:middle">License : Creative Commons Attribution</flowPara><flowPara
         id="flowPara3318"
         style="font-style:normal;font-variant:normal;font-weight:normal;font-stretch:normal;font-size:48px;line-height:1.25;font-family:Lavi;-inkscape-font-specification:Lavi;text-align:center;text-anchor:middle">vous pouvez modifier, repartager, vendre, etc...</flowPara><flowPara
         id="flowPara3233-6-14-6"
         style="font-style:normal;font-variant:normal;font-weight:normal;font-stretch:normal;font-size:48px;line-height:1.25;font-family:Lavi;-inkscape-font-specification:Lavi;text-align:center;text-anchor:middle"> </flowPara></flowRoot>
    <flowRoot
       transform="matrix(0.77545721,0,0,0.80077696,188.5295,-46.434387)"
       style="font-style:normal;font-variant:normal;font-weight:normal;font-stretch:normal;line-height:0.01%;font-family:Arial;-inkscape-font-specification:Arial;text-align:justify;letter-spacing:0px;word-spacing:0px;text-anchor:start;display:inline;fill:#000000;fill-opacity:1;stroke:none"
       id="flowRoot2987"
       xml:space="preserve"><flowRegion
         id="flowRegion2989"><rect
           style="text-align:justify;text-anchor:start"
           y="266.68515"
           x="-141.0901"
           height="2440.8586"
           width="2996.0627"
           id="rect2991" /></flowRegion><flowPara
         id="flowPara3241"
         style="font-style:normal;font-variant:normal;font-weight:normal;font-stretch:normal;font-size:47.1126px;line-height:150%;font-family:Lavi;-inkscape-font-specification:Lavi;text-align:justify;writing-mode:lr-tb;text-anchor:start"> </flowPara><flowPara
         id="flowPara3095"
         style="font-style:normal;font-variant:normal;font-weight:normal;font-stretch:normal;font-size:47.1126px;line-height:120%;font-family:Lavi;-inkscape-font-specification:Lavi;text-align:justify;writing-mode:lr-tb;text-anchor:start"> </flowPara><flowPara
         id="flowPara3111"
         style="font-style:normal;font-variant:normal;font-weight:normal;font-stretch:normal;font-size:47.1126px;line-height:120%;font-family:Lavi;-inkscape-font-specification:Lavi;text-align:center;writing-mode:lr-tb;text-anchor:middle">Addison Lewis ❀ A Distinguished Robot ❀ Adrian Lord ❀ Ahmad Ali ❀ Aina Reich ❀ Alandran ❀ Alan Hardman ❀ Albert Westra ❀ Alcide</flowPara><flowPara
         id="flowPara3034"
         style="font-style:normal;font-variant:normal;font-weight:normal;font-stretch:normal;font-size:47.1126px;line-height:120%;font-family:Lavi;-inkscape-font-specification:Lavi;text-align:center;writing-mode:lr-tb;text-anchor:middle">Alex ❀ Alexander Bülow Tomassen ❀ Alexander Sopicki ❀ Alexandra Jordan ❀ Alexey Golubev ❀ Alex Flores ❀ Alex Lusco ❀ Alex Silver</flowPara><flowPara
         id="flowPara3036"
         style="font-style:normal;font-variant:normal;font-weight:normal;font-stretch:normal;font-size:47.1126px;line-height:120%;font-family:Lavi;-inkscape-font-specification:Lavi;text-align:center;writing-mode:lr-tb;text-anchor:middle">Alex Vandiver ❀ Alfredo ❀ Ali Poulton (Aunty Pol) ❀ Allan Zieser ❀ Andreas Rieger ❀ Andreas Ulmer ❀ Andrej Kwadrin ❀ Andrew</flowPara><flowPara
         id="flowPara3038"
         style="font-style:normal;font-variant:normal;font-weight:normal;font-stretch:normal;font-size:47.1126px;line-height:120%;font-family:Lavi;-inkscape-font-specification:Lavi;text-align:center;writing-mode:lr-tb;text-anchor:middle">Andrew Godfrey ❀ Andrey Alekseenko ❀ Angela K ❀ Anna Orlova ❀ anonymous ❀ Antan Karmola ❀ Anthony Edlin ❀ Antoine</flowPara><flowPara
         id="flowPara3040"
         style="font-style:normal;font-variant:normal;font-weight:normal;font-stretch:normal;font-size:47.1126px;line-height:120%;font-family:Lavi;-inkscape-font-specification:Lavi;text-align:center;writing-mode:lr-tb;text-anchor:middle">Antonio Mendoza ❀ Antonio Parisi ❀ Ardash Crowfoot ❀ Arjun Chennu ❀ Arne Brix ❀ Arturo J. Pérez ❀ Aslak Kjølås-Sæverud </flowPara><flowPara
         id="flowPara3042"
         style="font-style:normal;font-variant:normal;font-weight:normal;font-stretch:normal;font-size:47.1126px;line-height:120%;font-family:Lavi;-inkscape-font-specification:Lavi;text-align:center;writing-mode:lr-tb;text-anchor:middle">Axel Bordelon ❀ Axel Philipsenburg ❀ barbix ❀ BataMoth ❀ Ben Evans ❀ Bernd ❀ Betsy Luntao ❀ Birger Tuer Thorvaldsen</flowPara><flowPara
         id="flowPara3044-7"
         style="font-style:normal;font-variant:normal;font-weight:normal;font-stretch:normal;font-size:47.1126px;line-height:120%;font-family:Lavi;-inkscape-font-specification:Lavi;text-align:center;writing-mode:lr-tb;text-anchor:middle">Boonsak Watanavisit ❀ Boris Fauret ❀ Boudewijn Rempt ❀ BoxBoy ❀ Brent Houghton ❀ Brett Smith ❀ Brian Behnke ❀ Bryan Butler</flowPara><flowPara
         id="flowPara3046"
         style="font-style:normal;font-variant:normal;font-weight:normal;font-stretch:normal;font-size:47.1126px;line-height:120%;font-family:Lavi;-inkscape-font-specification:Lavi;text-align:center;writing-mode:lr-tb;text-anchor:middle">BS ❀ Bui Dang Hai Trieu ❀ BXS ❀ carlos levischi ❀ Carola Hänggi ❀ Cedric Wohlleber ❀ Charlotte Lacombe-bar ❀ Chris Radcliff</flowPara><flowPara
         id="flowPara3048"
         style="font-style:normal;font-variant:normal;font-weight:normal;font-stretch:normal;font-size:47.1126px;line-height:120%;font-family:Lavi;-inkscape-font-specification:Lavi;text-align:center;writing-mode:lr-tb;text-anchor:middle">Chris Sakkas ❀ Christian Gruenwaldner ❀ Christophe Carré ❀ Christopher Bates ❀ Clara Dexter ❀ codl ❀ Colby Driedger</flowPara><flowPara
         id="flowPara3050"
         style="font-style:normal;font-variant:normal;font-weight:normal;font-stretch:normal;font-size:47.1126px;line-height:120%;font-family:Lavi;-inkscape-font-specification:Lavi;text-align:center;writing-mode:lr-tb;text-anchor:middle">Conway Scott Smith ❀ Coppin Olivier ❀ Cuthbert Williams ❀ Cyol ❀ Cyrille Largillier ❀ Cyril Paciullo ❀ Damien ❀ Daniel</flowPara><flowPara
         id="flowPara3052"
         style="font-style:normal;font-variant:normal;font-weight:normal;font-stretch:normal;font-size:47.1126px;line-height:120%;font-family:Lavi;-inkscape-font-specification:Lavi;text-align:center;writing-mode:lr-tb;text-anchor:middle">Daniel Björkman ❀ Danny Grimm ❀ David ❀ David Tang ❀ DiCola Jamn ❀ Dmitry ❀ Donald Hayward ❀ Duke ❀ Eitan Goldshtrom</flowPara><flowPara
         id="flowPara3054"
         style="font-style:normal;font-variant:normal;font-weight:normal;font-stretch:normal;font-size:47.1126px;line-height:120%;font-family:Lavi;-inkscape-font-specification:Lavi;text-align:center;writing-mode:lr-tb;text-anchor:middle">Enrico Billich ❀ epsilon ❀ Eric Schulz ❀ Faolan Grady ❀ Francois Schnell ❀ freecultureftw ❀ Garret Patterson ❀ Ginny Hendricks</flowPara><flowPara
         id="flowPara3056"
         style="font-style:normal;font-variant:normal;font-weight:normal;font-stretch:normal;font-size:47.1126px;line-height:120%;font-family:Lavi;-inkscape-font-specification:Lavi;text-align:center;writing-mode:lr-tb;text-anchor:middle">GreenAngel5 ❀ Grigory Petrov ❀ G. S. Davis ❀ Guillaume ❀ Guillaume Ballue ❀ Gustav Strömbom ❀ Happy Mimic ❀ Helmar Suschka</flowPara><flowPara
         id="flowPara3058"
         style="font-style:normal;font-variant:normal;font-weight:normal;font-stretch:normal;font-size:47.1126px;line-height:120%;font-family:Lavi;-inkscape-font-specification:Lavi;text-align:center;writing-mode:lr-tb;text-anchor:middle">Henning Döscher ❀ Henry Ståhle ❀ Ilyas ❀ Irina Rempt ❀ Ivan Korotkov ❀ James Frazier ❀ Jamie Sutherland ❀ Janusz ❀ Jared Tritsch</flowPara><flowPara
         id="flowPara3060"
         style="font-style:normal;font-variant:normal;font-weight:normal;font-stretch:normal;font-size:47.1126px;line-height:120%;font-family:Lavi;-inkscape-font-specification:Lavi;text-align:center;writing-mode:lr-tb;text-anchor:middle">JDB ❀ Jean-Baptiste Hebbrecht ❀ Jean-Gabriel LOQUET ❀ Jeffrey Schneider ❀ Jessey Wright ❀ Jim ❀ Jim Street ❀ Jiska</flowPara><flowPara
         id="flowPara3062"
         style="font-style:normal;font-variant:normal;font-weight:normal;font-stretch:normal;font-size:47.1126px;line-height:120%;font-family:Lavi;-inkscape-font-specification:Lavi;text-align:center;writing-mode:lr-tb;text-anchor:middle">JoÃ£o Luiz Machado Junior ❀ Joerg Raidt ❀ Joern Konopka ❀ joe rutledge ❀ John ❀ John ❀ John Urquhart Ferguson ❀ Jónatan Nilsson</flowPara><flowPara
         id="flowPara3064"
         style="font-style:normal;font-variant:normal;font-weight:normal;font-stretch:normal;font-size:47.1126px;line-height:120%;font-family:Lavi;-inkscape-font-specification:Lavi;text-align:center;writing-mode:lr-tb;text-anchor:middle">Jonathan Leroy ❀ Jonathan Ringstad ❀ Jon Brake ❀ Jorge Bernal ❀ Joseph Bowman ❀ Juju Mendivil ❀ Julien Duroure ❀ Justus Kat</flowPara><flowPara
         id="flowPara3066"
         style="font-style:normal;font-variant:normal;font-weight:normal;font-stretch:normal;font-size:47.1126px;line-height:120%;font-family:Lavi;-inkscape-font-specification:Lavi;text-align:center;writing-mode:lr-tb;text-anchor:middle">Kai-Ting (Danil) Ko ❀ Kasper Hansen ❀ Kate ❀ Kathryn Wuerstl ❀ Ken Mingyuan Xia ❀ Kingsquee ❀ Kroet ❀ Lars Ivar Igesund</flowPara><flowPara
         id="flowPara3068"
         style="font-style:normal;font-variant:normal;font-weight:normal;font-stretch:normal;font-size:47.1126px;line-height:120%;font-family:Lavi;-inkscape-font-specification:Lavi;text-align:center;writing-mode:lr-tb;text-anchor:middle">Levi Kornelsen ❀ Liang ❀ Liselle ❀ Lise-Lotte Pesonen ❀ Lorentz Grip ❀ Louis Yung ❀ L S ❀ Luc Stepniewski ❀ Luke Hochrein ❀ MacCoy</flowPara><flowPara
         id="flowPara3070"
         style="font-style:normal;font-variant:normal;font-weight:normal;font-stretch:normal;font-size:47.1126px;line-height:120%;font-family:Lavi;-inkscape-font-specification:Lavi;text-align:center;writing-mode:lr-tb;text-anchor:middle">Magnus Kronnäs ❀ Manuel ❀ Manu Järvinen ❀ Marc &amp; Rick ❀ marcus ❀ Martin Owens ❀ Mary Brownlee ❀ Masked Admirer</flowPara><flowPara
         id="flowPara3072"
         style="font-style:normal;font-variant:normal;font-weight:normal;font-stretch:normal;font-size:47.1126px;line-height:120%;font-family:Lavi;-inkscape-font-specification:Lavi;text-align:center;writing-mode:lr-tb;text-anchor:middle">Mathias Stærk ❀ mefflin ross bullis-bates ❀ Michael ❀ Michael Gill ❀ Michael Pureka ❀ Michelle Pereira Garcia ❀ Mike Mosher</flowPara><flowPara
         id="flowPara3074"
         style="font-style:normal;font-variant:normal;font-weight:normal;font-stretch:normal;font-size:47.1126px;line-height:120%;font-family:Lavi;-inkscape-font-specification:Lavi;text-align:center;writing-mode:lr-tb;text-anchor:middle">Miroslav ❀ mjkj ❀ Nazhif ❀ Nicholas DeLateur ❀ Nicholas Terranova ❀ Nicki Aya ❀ Nicola Angel ❀ Nicolae Berbece ❀ Nicole Heersema</flowPara><flowPara
         id="flowPara3076"
         style="font-style:normal;font-variant:normal;font-weight:normal;font-stretch:normal;font-size:47.1126px;line-height:120%;font-family:Lavi;-inkscape-font-specification:Lavi;text-align:center;writing-mode:lr-tb;text-anchor:middle">Nielas Sinclair ❀ NinjaKnight Comics ❀ Noble Hays ❀ Noelia Calles Marcos ❀ Nora Czaykowski ❀ No Reward ❀ Nyx ❀ Olivier Amrein</flowPara><flowPara
         id="flowPara3078"
         style="font-style:normal;font-variant:normal;font-weight:normal;font-stretch:normal;font-size:47.1126px;line-height:120%;font-family:Lavi;-inkscape-font-specification:Lavi;text-align:center;writing-mode:lr-tb;text-anchor:middle">Olivier Brun ❀ Olivier Gavrois ❀ Omar Willey ❀ Oscar Moreno ❀ Öykü Su Gürler ❀ Ozone S. ❀ Pablo Lopez Soriano ❀ Pat David</flowPara><flowPara
         id="flowPara3080"
         style="font-style:normal;font-variant:normal;font-weight:normal;font-stretch:normal;font-size:47.1126px;line-height:120%;font-family:Lavi;-inkscape-font-specification:Lavi;text-align:center;writing-mode:lr-tb;text-anchor:middle">Patrick Gamblin ❀ Paul ❀ Paul ❀ Pavel Semenov ❀ Pet0r ❀ Peter ❀ Peter Moonen ❀ Petr Vlašic ❀ Philippe Jean Edward Bateman</flowPara><flowPara
         id="flowPara3082"
         style="font-style:normal;font-variant:normal;font-weight:normal;font-stretch:normal;font-size:47.1126px;line-height:120%;font-family:Lavi;-inkscape-font-specification:Lavi;text-align:center;writing-mode:lr-tb;text-anchor:middle">Pierre Geier ❀ Pierre Vuillemin ❀ Pranab Shenoy ❀ Pyves &amp; Ran ❀ Raghavendra Kamath ❀ Rajul Gupta ❀ Reorx Meng ❀ Ret Samys</flowPara><flowPara
         id="flowPara3084"
         style="font-style:normal;font-variant:normal;font-weight:normal;font-stretch:normal;font-size:47.1126px;line-height:120%;font-family:Lavi;-inkscape-font-specification:Lavi;text-align:center;writing-mode:lr-tb;text-anchor:middle">rictic ❀ RJ van der Weide ❀ Roberto Zaghis ❀ Robin Moussu ❀ Roman  Burdun ❀ Rumiko Hoshino ❀ Rustin Simons ❀ Sally Bridgewater</flowPara><flowPara
         id="flowPara3086"
         style="font-style:normal;font-variant:normal;font-weight:normal;font-stretch:normal;font-size:47.1126px;line-height:120%;font-family:Lavi;-inkscape-font-specification:Lavi;text-align:center;writing-mode:lr-tb;text-anchor:middle">Sami T ❀ Samuel Mitson ❀ Scott Petrovic ❀ Sean Adams ❀ Shadefalcon ❀ ShadowMist ❀ shafak ❀ Shawn Meyer ❀ Simon Forster</flowPara><flowPara
         id="flowPara3088"
         style="font-style:normal;font-variant:normal;font-weight:normal;font-stretch:normal;font-size:47.1126px;line-height:120%;font-family:Lavi;-inkscape-font-specification:Lavi;text-align:center;writing-mode:lr-tb;text-anchor:middle">Simon Isenberg ❀ Sonja Reimann-Klieber ❀ Sonny W. ❀ Soriac ❀ Stanislav Vodetskyi ❀ Stephanie Cheshire ❀ Stephen Bates</flowPara><flowPara
         id="flowPara3090"
         style="font-style:normal;font-variant:normal;font-weight:normal;font-stretch:normal;font-size:47.1126px;line-height:120%;font-family:Lavi;-inkscape-font-specification:Lavi;text-align:center;writing-mode:lr-tb;text-anchor:middle">Stephen Smoogen ❀ Steven Bennett ❀ Stuart Dickson ❀ surt ❀ Sybille Marchetto ❀ TamaskanLEM ❀ tar8156 ❀ Terry Hancock</flowPara><flowPara
         id="flowPara3092"
         style="font-style:normal;font-variant:normal;font-weight:normal;font-stretch:normal;font-size:47.1126px;line-height:120%;font-family:Lavi;-inkscape-font-specification:Lavi;text-align:center;writing-mode:lr-tb;text-anchor:middle">TheFaico ❀ thibhul ❀ Thomas Citharel ❀ Thomas Courbon ❀ Thomas Schwery ❀ Thornae ❀ Tim Burbank ❀ Tim J. ❀ Tomas Hajek</flowPara><flowPara
         id="flowPara3094"
         style="font-style:normal;font-variant:normal;font-weight:normal;font-stretch:normal;font-size:47.1126px;line-height:120%;font-family:Lavi;-inkscape-font-specification:Lavi;text-align:center;writing-mode:lr-tb;text-anchor:middle">Tom Demian ❀ Tom Savage ❀ Tracey Reuben ❀ Travis Humble ❀ tree ❀ Tyson Tan ❀ Urm ❀ Victoria ❀ Victoria White</flowPara><flowPara
         id="flowPara3097"
         style="font-style:normal;font-variant:normal;font-weight:normal;font-stretch:normal;font-size:47.1126px;line-height:120%;font-family:Lavi;-inkscape-font-specification:Lavi;text-align:center;writing-mode:lr-tb;text-anchor:middle">Vladislav Kurdyukov ❀ Vlad Tomash ❀ WakoTabacco ❀ Wander ❀ Westen Curry ❀ Witt N. Vest ❀ WoodChi ❀ Xavier Claude</flowPara><flowPara
         id="flowPara3099"
         style="font-style:normal;font-variant:normal;font-weight:normal;font-stretch:normal;font-size:47.1126px;line-height:120%;font-family:Lavi;-inkscape-font-specification:Lavi;text-align:center;writing-mode:lr-tb;text-anchor:middle">Yalyn Vinkindo ❀ Yaroslav ❀ Zeni Pong ❀ Źmicier Kušnaroŭ ❀ Глеб Бузало ❀ 獨孤欣 &amp; 獨弧悦</flowPara><flowPara
         id="flowPara3113"
         style="font-style:normal;font-variant:normal;font-weight:normal;font-stretch:normal;font-size:47.1126px;line-height:120%;font-family:Lavi;-inkscape-font-specification:Lavi;text-align:justify;writing-mode:lr-tb;text-anchor:start"> </flowPara></flowRoot>
  </g>
</svg>
