<?xml version="1.0" encoding="UTF-8" standalone="no"?>
<!-- Created with Inkscape (http://www.inkscape.org/) -->

<svg
   xmlns:dc="http://purl.org/dc/elements/1.1/"
   xmlns:cc="http://creativecommons.org/ns#"
   xmlns:rdf="http://www.w3.org/1999/02/22-rdf-syntax-ns#"
   xmlns:svg="http://www.w3.org/2000/svg"
   xmlns="http://www.w3.org/2000/svg"
   xmlns:xlink="http://www.w3.org/1999/xlink"
   xmlns:sodipodi="http://sodipodi.sourceforge.net/DTD/sodipodi-0.dtd"
   xmlns:inkscape="http://www.inkscape.org/namespaces/inkscape"
   id="svg2"
   version="1.1"
   inkscape:version="0.92.2 (5c3e80d, 2017-08-06)"
   width="2481"
   height="3503"
   sodipodi:docname="E21P07.svg"
   inkscape:export-filename="E:\Users\jamesmichael\Downloads\Compressed\eps\ep21_The-Magic-Contest_lang-pack\lang\ph\E21P07.png"
   inkscape:export-xdpi="90"
   inkscape:export-ydpi="90">
  <sodipodi:namedview
     pagecolor="#ffffff"
     bordercolor="#666666"
     inkscape:pageopacity="0"
     inkscape:pageshadow="2"
     inkscape:window-width="1813"
     inkscape:window-height="955"
     id="namedview70"
     showgrid="false"
     inkscape:zoom="0.25273594"
     inkscape:cx="1358.7279"
     inkscape:cy="2068.2818"
     inkscape:current-layer="layer1"
     inkscape:window-x="0"
     inkscape:window-y="26"
     inkscape:window-maximized="0"
     inkscape:snap-grids="false"
     inkscape:snap-to-guides="false"
     inkscape:snap-others="false"
     inkscape:object-nodes="false"
     inkscape:object-paths="true"
     inkscape:snap-nodes="false"
     inkscape:snap-global="false" />
  <metadata
     id="metadata8">
    <rdf:RDF>
      <cc:Work
         rdf:about="">
        <dc:format>image/svg+xml</dc:format>
        <dc:type
           rdf:resource="http://purl.org/dc/dcmitype/StillImage" />
        <dc:title />
      </cc:Work>
    </rdf:RDF>
  </metadata>
  <defs
     id="defs6">
    <inkscape:perspective
       sodipodi:type="inkscape:persp3d"
       inkscape:vp_x="0 : 1751.5 : 1"
       inkscape:vp_y="0 : 1000 : 0"
       inkscape:vp_z="2481 : 1751.5 : 1"
       inkscape:persp3d-origin="1240.5 : 1167.6667 : 1"
       id="perspective4318" />
    <filter
       style="color-interpolation-filters:sRGB"
       inkscape:label="Drop Shadow"
       id="filter5558-7">
      <feFlood
         flood-opacity="1"
         flood-color="rgb(0,0,0)"
         result="flood"
         id="feFlood5560-45" />
      <feComposite
         in="flood"
         in2="SourceGraphic"
         operator="in"
         result="composite1"
         id="feComposite5562-2" />
      <feGaussianBlur
         in="composite1"
         stdDeviation="1"
         result="blur"
         id="feGaussianBlur5564-5" />
      <feOffset
         dx="2.5"
         dy="2.5"
         result="offset"
         id="feOffset5566-47" />
      <feComposite
         in="SourceGraphic"
         in2="offset"
         operator="over"
         result="composite2"
         id="feComposite5568-4" />
    </filter>
    <filter
       style="color-interpolation-filters:sRGB"
       inkscape:label="Drop Shadow"
       id="filter5546">
      <feFlood
         flood-opacity="1"
         flood-color="rgb(0,0,0)"
         result="flood"
         id="feFlood5548" />
      <feComposite
         in="flood"
         in2="SourceGraphic"
         operator="in"
         result="composite1"
         id="feComposite5550" />
      <feGaussianBlur
         in="composite1"
         stdDeviation="1"
         result="blur"
         id="feGaussianBlur5552" />
      <feOffset
         dx="2.5"
         dy="2.5"
         result="offset"
         id="feOffset5554" />
      <feComposite
         in="SourceGraphic"
         in2="offset"
         operator="over"
         result="composite2"
         id="feComposite5556" />
    </filter>
    <filter
       style="color-interpolation-filters:sRGB"
       inkscape:label="Drop Shadow"
       id="filter5522-4">
      <feFlood
         flood-opacity="1"
         flood-color="rgb(0,0,0)"
         result="flood"
         id="feFlood5524-3" />
      <feComposite
         in="flood"
         in2="SourceGraphic"
         operator="in"
         result="composite1"
         id="feComposite5526-14" />
      <feGaussianBlur
         in="composite1"
         stdDeviation="1"
         result="blur"
         id="feGaussianBlur5528-92" />
      <feOffset
         dx="2.5"
         dy="2.5"
         result="offset"
         id="feOffset5530-0" />
      <feComposite
         in="SourceGraphic"
         in2="offset"
         operator="over"
         result="composite2"
         id="feComposite5532-6" />
    </filter>
    <filter
       style="color-interpolation-filters:sRGB"
       inkscape:label="Drop Shadow"
       id="filter5534-8">
      <feFlood
         flood-opacity="1"
         flood-color="rgb(0,0,0)"
         result="flood"
         id="feFlood5536-9" />
      <feComposite
         in="flood"
         in2="SourceGraphic"
         operator="in"
         result="composite1"
         id="feComposite5538-26" />
      <feGaussianBlur
         in="composite1"
         stdDeviation="1"
         result="blur"
         id="feGaussianBlur5540-64" />
      <feOffset
         dx="2.5"
         dy="2.5"
         result="offset"
         id="feOffset5542-95" />
      <feComposite
         in="SourceGraphic"
         in2="offset"
         operator="over"
         result="composite2"
         id="feComposite5544-0" />
    </filter>
    <filter
       style="color-interpolation-filters:sRGB"
       inkscape:label="Drop Shadow"
       id="filter5558-7-2">
      <feFlood
         flood-opacity="1"
         flood-color="rgb(0,0,0)"
         result="flood"
         id="feFlood5560-45-6" />
      <feComposite
         in="flood"
         in2="SourceGraphic"
         operator="in"
         result="composite1"
         id="feComposite5562-2-1" />
      <feGaussianBlur
         in="composite1"
         stdDeviation="1"
         result="blur"
         id="feGaussianBlur5564-5-8" />
      <feOffset
         dx="2.5"
         dy="2.5"
         result="offset"
         id="feOffset5566-47-7" />
      <feComposite
         in="SourceGraphic"
         in2="offset"
         operator="over"
         result="composite2"
         id="feComposite5568-4-9" />
    </filter>
    <filter
       style="color-interpolation-filters:sRGB"
       inkscape:label="Drop Shadow"
       id="filter5546-2">
      <feFlood
         flood-opacity="1"
         flood-color="rgb(0,0,0)"
         result="flood"
         id="feFlood5548-0" />
      <feComposite
         in="flood"
         in2="SourceGraphic"
         operator="in"
         result="composite1"
         id="feComposite5550-2" />
      <feGaussianBlur
         in="composite1"
         stdDeviation="1"
         result="blur"
         id="feGaussianBlur5552-3" />
      <feOffset
         dx="2.5"
         dy="2.5"
         result="offset"
         id="feOffset5554-7" />
      <feComposite
         in="SourceGraphic"
         in2="offset"
         operator="over"
         result="composite2"
         id="feComposite5556-5" />
    </filter>
    <filter
       style="color-interpolation-filters:sRGB"
       inkscape:label="Drop Shadow"
       id="filter5546-3-4">
      <feFlood
         flood-opacity="1"
         flood-color="rgb(0,0,0)"
         result="flood"
         id="feFlood5548-6-3" />
      <feComposite
         in="flood"
         in2="SourceGraphic"
         operator="in"
         result="composite1"
         id="feComposite5550-7-0" />
      <feGaussianBlur
         in="composite1"
         stdDeviation="1"
         result="blur"
         id="feGaussianBlur5552-5-78" />
      <feOffset
         dx="2.5"
         dy="2.5"
         result="offset"
         id="feOffset5554-3-68" />
      <feComposite
         in="SourceGraphic"
         in2="offset"
         operator="over"
         result="composite2"
         id="feComposite5556-5-8" />
    </filter>
    <filter
       style="color-interpolation-filters:sRGB"
       inkscape:label="Drop Shadow"
       id="filter5522-4-9">
      <feFlood
         flood-opacity="1"
         flood-color="rgb(0,0,0)"
         result="flood"
         id="feFlood5524-3-2" />
      <feComposite
         in="flood"
         in2="SourceGraphic"
         operator="in"
         result="composite1"
         id="feComposite5526-14-2" />
      <feGaussianBlur
         in="composite1"
         stdDeviation="1"
         result="blur"
         id="feGaussianBlur5528-92-8" />
      <feOffset
         dx="2.5"
         dy="2.5"
         result="offset"
         id="feOffset5530-0-9" />
      <feComposite
         in="SourceGraphic"
         in2="offset"
         operator="over"
         result="composite2"
         id="feComposite5532-6-7" />
    </filter>
    <filter
       style="color-interpolation-filters:sRGB"
       inkscape:label="Drop Shadow"
       id="filter5534-8-3">
      <feFlood
         flood-opacity="1"
         flood-color="rgb(0,0,0)"
         result="flood"
         id="feFlood5536-9-6" />
      <feComposite
         in="flood"
         in2="SourceGraphic"
         operator="in"
         result="composite1"
         id="feComposite5538-26-1" />
      <feGaussianBlur
         in="composite1"
         stdDeviation="1"
         result="blur"
         id="feGaussianBlur5540-64-2" />
      <feOffset
         dx="2.5"
         dy="2.5"
         result="offset"
         id="feOffset5542-95-9" />
      <feComposite
         in="SourceGraphic"
         in2="offset"
         operator="over"
         result="composite2"
         id="feComposite5544-0-3" />
    </filter>
    <filter
       style="color-interpolation-filters:sRGB"
       id="filter4375-4-1-1-1-9"
       inkscape:label="deevad outline effect">
      <feFlood
         id="feFlood4377-7-9-0-8-1"
         flood-opacity="1"
         flood-color="rgb(0,0,0)"
         result="flood" />
      <feComposite
         id="feComposite4379-3-8-8-2-77"
         in2="SourceGraphic"
         in="flood"
         operator="in"
         result="composite1" />
      <feMorphology
         id="feMorphology4393-1-0-49-8-9"
         operator="dilate"
         radius="4"
         result="result3" />
      <feComposite
         id="feComposite4385-9-5-7-0-8"
         in2="result3"
         in="SourceGraphic"
         operator="over"
         result="composite2" />
    </filter>
    <filter
       style="color-interpolation-filters:sRGB"
       id="filter4375-4-1-1-1-9-6"
       inkscape:label="deevad outline effect">
      <feFlood
         id="feFlood4377-7-9-0-8-1-0"
         flood-opacity="1"
         flood-color="rgb(0,0,0)"
         result="flood" />
      <feComposite
         id="feComposite4379-3-8-8-2-77-6"
         in2="SourceGraphic"
         in="flood"
         operator="in"
         result="composite1" />
      <feMorphology
         id="feMorphology4393-1-0-49-8-9-2"
         operator="dilate"
         radius="4"
         result="result3" />
      <feComposite
         id="feComposite4385-9-5-7-0-8-6"
         in2="result3"
         in="SourceGraphic"
         operator="over"
         result="composite2" />
    </filter>
    <filter
       style="color-interpolation-filters:sRGB"
       id="filter4375-4-1-1-1-9-6-9"
       inkscape:label="deevad outline effect">
      <feFlood
         id="feFlood4377-7-9-0-8-1-0-2"
         flood-opacity="1"
         flood-color="rgb(0,0,0)"
         result="flood" />
      <feComposite
         id="feComposite4379-3-8-8-2-77-6-0"
         in2="SourceGraphic"
         in="flood"
         operator="in"
         result="composite1" />
      <feMorphology
         id="feMorphology4393-1-0-49-8-9-2-2"
         operator="dilate"
         radius="4"
         result="result3" />
      <feComposite
         id="feComposite4385-9-5-7-0-8-6-3"
         in2="result3"
         in="SourceGraphic"
         operator="over"
         result="composite2" />
    </filter>
    <filter
       style="color-interpolation-filters:sRGB"
       id="filter4375-4-1-1-1-9-6-9-2"
       inkscape:label="deevad outline effect">
      <feFlood
         id="feFlood4377-7-9-0-8-1-0-2-2"
         flood-opacity="1"
         flood-color="rgb(0,0,0)"
         result="flood" />
      <feComposite
         id="feComposite4379-3-8-8-2-77-6-0-8"
         in2="SourceGraphic"
         in="flood"
         operator="in"
         result="composite1" />
      <feMorphology
         id="feMorphology4393-1-0-49-8-9-2-2-9"
         operator="dilate"
         radius="4"
         result="result3" />
      <feComposite
         id="feComposite4385-9-5-7-0-8-6-3-7"
         in2="result3"
         in="SourceGraphic"
         operator="over"
         result="composite2" />
    </filter>
    <filter
       style="color-interpolation-filters:sRGB"
       id="filter4375-4-1-1-1-9-6-9-2-2"
       inkscape:label="deevad outline effect">
      <feFlood
         id="feFlood4377-7-9-0-8-1-0-2-2-0"
         flood-opacity="1"
         flood-color="rgb(0,0,0)"
         result="flood" />
      <feComposite
         id="feComposite4379-3-8-8-2-77-6-0-8-6"
         in2="SourceGraphic"
         in="flood"
         operator="in"
         result="composite1" />
      <feMorphology
         id="feMorphology4393-1-0-49-8-9-2-2-9-1"
         operator="dilate"
         radius="4"
         result="result3" />
      <feComposite
         id="feComposite4385-9-5-7-0-8-6-3-7-5"
         in2="result3"
         in="SourceGraphic"
         operator="over"
         result="composite2" />
    </filter>
    <filter
       x="-0.3"
       width="1.6"
       y="-0.3"
       height="1.6"
       style="color-interpolation-filters:sRGB;"
       inkscape:label="speaker"
       id="filter5869">
      <feGaussianBlur
         stdDeviation="0.31 0.31"
         result="blur"
         id="feGaussianBlur5871" />
      <feComposite
         in="SourceGraphic"
         in2="blur"
         operator="atop"
         result="composite1"
         id="feComposite5873" />
      <feComposite
         in2="composite1"
         operator="in"
         result="composite2"
         id="feComposite5875" />
      <feComposite
         in2="composite2"
         operator="in"
         result="composite3"
         id="feComposite5877" />
      <feTurbulence
         type="fractalNoise"
         numOctaves="1"
         seed="12"
         baseFrequency="0.0060000000000000001 0"
         result="turbulence"
         id="feTurbulence5879" />
      <feDisplacementMap
         in="blur"
         in2="turbulence"
         xChannelSelector="R"
         scale="62.4"
         yChannelSelector="G"
         result="map"
         id="feDisplacementMap5881" />
      <feColorMatrix
         values="1 0 0 0 0 0 1 0 0 0 0 0 1 0 0 0 0 0 10.53 -0 "
         result="colormatrix"
         id="feColorMatrix5883" />
      <feComposite
         in="composite3"
         in2="colormatrix"
         operator="over"
         result="composite4"
         id="feComposite5885" />
    </filter>
    <filter
       style="color-interpolation-filters:sRGB"
       id="filter4375-4-1-1-1-9-6-9-2-2-3"
       inkscape:label="deevad outline effect">
      <feFlood
         id="feFlood4377-7-9-0-8-1-0-2-2-0-6"
         flood-opacity="1"
         flood-color="rgb(0,0,0)"
         result="flood" />
      <feComposite
         id="feComposite4379-3-8-8-2-77-6-0-8-6-7"
         in2="SourceGraphic"
         in="flood"
         operator="in"
         result="composite1" />
      <feMorphology
         id="feMorphology4393-1-0-49-8-9-2-2-9-1-5"
         operator="dilate"
         radius="4"
         result="result3" />
      <feComposite
         id="feComposite4385-9-5-7-0-8-6-3-7-5-3"
         in2="result3"
         in="SourceGraphic"
         operator="over"
         result="composite2" />
    </filter>
    <filter
       inkscape:collect="always"
       style="color-interpolation-filters:sRGB"
       id="filter4312"
       x="-0.0015646424"
       width="1.0031292"
       y="-0.0054591582"
       height="1.0109183">
      <feGaussianBlur
         inkscape:collect="always"
         stdDeviation="0.22677911"
         id="feGaussianBlur4314" />
    </filter>
    <filter
       inkscape:collect="always"
       style="color-interpolation-filters:sRGB"
       id="filter4348"
       x="-0.0014468089"
       width="1.0028936"
       y="-0.0075239502"
       height="1.0150479">
      <feGaussianBlur
         inkscape:collect="always"
         stdDeviation="0.11691531"
         id="feGaussianBlur4350" />
    </filter>
    <filter
       inkscape:collect="always"
       style="color-interpolation-filters:sRGB"
       id="filter4328"
       x="-0.0014189417"
       width="1.0028379"
       y="-0.0084152343"
       height="1.0168304">
      <feGaussianBlur
         inkscape:collect="always"
         stdDeviation="0.12139503"
         id="feGaussianBlur4330" />
    </filter>
    <filter
       inkscape:collect="always"
       style="color-interpolation-filters:sRGB"
       id="filter4320"
       x="-0.0015717377"
       width="1.0031435"
       y="-0.0049304236"
       height="1.0098608">
      <feGaussianBlur
         inkscape:collect="always"
         stdDeviation="0.083000097"
         id="feGaussianBlur4322" />
    </filter>
    <filter
       inkscape:collect="always"
       style="color-interpolation-filters:sRGB"
       id="filter5099"
       x="-0.0042653081"
       width="1.0085306"
       y="-0.0031142373"
       height="1.0062285">
      <feGaussianBlur
         inkscape:collect="always"
         stdDeviation="0.75355119"
         id="feGaussianBlur5101" />
    </filter>
    <clipPath
       clipPathUnits="userSpaceOnUse"
       id="clipPath5115">
      <rect
         rx="22.852646"
         style="color:#000000;clip-rule:nonzero;display:inline;overflow:visible;visibility:visible;opacity:0.42100004;isolation:auto;mix-blend-mode:normal;color-interpolation:sRGB;color-interpolation-filters:linearRGB;solid-color:#000000;solid-opacity:1;fill:#550000;fill-opacity:1;fill-rule:nonzero;stroke:none;stroke-width:2.35786438;stroke-linecap:butt;stroke-linejoin:miter;stroke-miterlimit:4;stroke-dasharray:none;stroke-dashoffset:0;stroke-opacity:1;marker:none;color-rendering:auto;image-rendering:auto;shape-rendering:auto;text-rendering:auto;enable-background:accumulate"
         id="rect5117"
         width="542.36694"
         height="338.67465"
         x="593.35754"
         y="-1487.7006"
         ry="28.229788"
         transform="rotate(90)" />
    </clipPath>
  </defs>
  <sodipodi:namedview
     pagecolor="#ffffff"
     bordercolor="#666666"
     borderopacity="1"
     objecttolerance="10"
     gridtolerance="10"
     guidetolerance="10"
     inkscape:pageopacity="0"
     inkscape:pageshadow="2"
     inkscape:window-width="1411"
     inkscape:window-height="807"
     id="namedview4"
     showgrid="false"
     inkscape:zoom="0.23744509"
     inkscape:cx="1015.4368"
     inkscape:cy="2201.4372"
     inkscape:window-x="2246"
     inkscape:window-y="105"
     inkscape:window-maximized="0"
     inkscape:current-layer="layer1"
     showguides="false" />
  <g
     inkscape:groupmode="layer"
     id="layer2"
     inkscape:label="artwork"
     sodipodi:insensitive="true"
     style="display:inline">
    <image
       sodipodi:absref="E:\Users\jamesmichael\Downloads\Compressed\eps\ep21_The-Magic-Contest_lang-pack\lang\ph\../gfx_Pepper-and-Carrot_by-David-Revoy_E21P07.png"
       xlink:href="../gfx_Pepper-and-Carrot_by-David-Revoy_E21P07.png"
       width="2481"
       height="3503"
       id="image10"
       x="0"
       y="0" />
  </g>
  <g
     inkscape:groupmode="layer"
     id="layer3"
     inkscape:label="speechbubbles"
     style="display:inline">
    <path
       style="color:#000000;display:inline;overflow:visible;visibility:visible;fill:#fff6d5;fill-opacity:1;fill-rule:nonzero;stroke:none;stroke-width:1px;marker:none;enable-background:accumulate"
       d="m 1195.1096,-105.47519 c 21.9228,4.66052 32.1243,10.562165 39.2232,16.062365 -3.2091,1.34059 -15.1662,10.82335 -15.1662,10.82335 0,0 27.1796,11.69458 29.6607,17.43659 2.4812,5.74204 -15.3972,13.86141 -15.3972,13.86141 0,0 -25.4451,-23.5558 -37.038,-29.60484 2.5511,-2.98474 10.101,-8.54022 15.3959,-12.16686 0,0 -2.2938,-12.931165 -16.6784,-16.412015 z"
       id="path4456-3-7-5"
       inkscape:connector-curvature="0"
       sodipodi:nodetypes="cccscccc" />
    <path
       style="color:#000000;display:inline;overflow:visible;visibility:visible;fill:#fff6d5;fill-opacity:1;fill-rule:nonzero;stroke:none;stroke-width:1px;marker:none;enable-background:accumulate"
       d="m 1202.5937,486.55218 c 21.9228,4.66052 28.1369,10.56216 35.2358,16.06236 -3.2091,1.34059 -13.6455,9.73711 -13.6455,9.73711 0,0 29.1477,16.58945 31.6288,22.33146 2.4812,5.74204 -14.8986,10.05278 -14.8986,10.05278 0,0 -25.4451,-23.5558 -37.038,-29.60484 2.5511,-2.98474 10.101,-8.54022 15.3959,-12.16686 0,0 -2.2938,-12.93116 -16.6784,-16.41201 z"
       id="path4456-3-7-5-3"
       inkscape:connector-curvature="0"
       sodipodi:nodetypes="cccscccc" />
    <path
       style="color:#000000;clip-rule:nonzero;display:inline;overflow:visible;visibility:visible;opacity:1;isolation:auto;mix-blend-mode:normal;color-interpolation:sRGB;color-interpolation-filters:linearRGB;solid-color:#000000;solid-opacity:1;fill:#550000;fill-opacity:1;fill-rule:nonzero;stroke:none;stroke-width:2.5999999;stroke-linecap:butt;stroke-linejoin:miter;stroke-miterlimit:4;stroke-dasharray:none;stroke-dashoffset:0;stroke-opacity:1;marker:none;color-rendering:auto;image-rendering:auto;shape-rendering:auto;text-rendering:auto;enable-background:accumulate"
       d="m 641.8418,1320.9015 c -5.07073,0 -9.15235,6.6271 -9.15235,14.8574 v 362.2637 c 0,8.2304 4.08162,14.8555 9.15235,14.8555 h 220.42773 c 5.07073,0 9.1543,-6.6251 9.1543,-14.8555 v -362.2637 c 0,-8.2303 -4.08357,-14.8574 -9.1543,-14.8574 z m 119.66523,313.8089 -2.82618,19.6875 28.03907,-0.01 -39.06446,13.3457 1.76953,-17.3828 -22.46289,1.8594 z"
       id="rect4632-7"
       inkscape:connector-curvature="0"
       sodipodi:nodetypes="sssssssssccccccc" />
    <path
       style="color:#000000;display:inline;overflow:visible;visibility:visible;fill:#550000;fill-opacity:1;fill-rule:nonzero;stroke:none;stroke-width:1.1783272px;marker:none;enable-background:accumulate"
       d="m 1573.7737,579.62496 c 8.0465,-18.05496 53.4305,-19.56892 70.1375,-15.899 -33.6777,-20.1978 -32.5035,-32.74698 13.2211,-34.69552 -76.6809,-36.40178 -14.0183,-30.89334 -1.6584,-40.12376 -60.2088,-12.54484 -33.2708,-28.1572 -22.5517,-43.69902 -69.204,-0.5339 -46.5565,-25.44698 -49.4734,-45.28862 -5.8668,9.31062 -33.7385,37.65612 -35.4156,6.0953 -45.7743,30.11072 -100.9084,49.56084 -105.2864,-3.13314 -18.4431,26.50888 -36.8311,37.71264 -35.4154,6.0953 -45.6968,41.12238 -86.7616,26.32024 -128.0698,14.69748 -10.8492,12.4117 -12.1134,31.47964 -47.2137,27.0112 4.9214,12.30226 -6.9299,20.75874 -33.6942,25.78054 35.5655,7.43138 42.1201,15.0968 -23.9169,23.34584 50.2503,0.79796 97.109,2.4327 38.1545,30.56444 18.4958,0.68072 62.3786,-22.79314 41.9187,45.90382 31.8043,-21.99238 65.7366,-34.13058 108.2909,11.93776 20.1388,-23.01482 55.0691,-34.40343 70.2657,-5.65616 5.4618,-12.25542 28.1099,-16.86458 47.3362,-17.4235 7.4348,4.86808 15.1031,11.48026 23.1053,20.14318 13.0788,-18.18988 32.6435,-30.47456 70.2656,-5.65614 z"
       id="path3549-3-7"
       inkscape:connector-curvature="0"
       sodipodi:nodetypes="cccccccccccccccccccc" />
    <rect
       rx="0"
       style="color:#000000;clip-rule:nonzero;display:inline;overflow:visible;visibility:visible;opacity:1;isolation:auto;mix-blend-mode:normal;color-interpolation:sRGB;color-interpolation-filters:linearRGB;solid-color:#000000;solid-opacity:1;fill:#550000;fill-opacity:1;fill-rule:nonzero;stroke:none;stroke-width:2.51217985;stroke-linecap:butt;stroke-linejoin:miter;stroke-miterlimit:4;stroke-dasharray:none;stroke-dashoffset:0;stroke-opacity:1;marker:none;color-rendering:auto;image-rendering:auto;shape-rendering:auto;text-rendering:auto;enable-background:accumulate"
       id="rect4632"
       width="492.61475"
       height="293.96619"
       x="50.540672"
       y="-1569.5363"
       ry="0"
       transform="rotate(90)" />
    <path
       style="display:inline;fill:#ffffff;fill-rule:evenodd;stroke:none;stroke-width:0.86750954"
       d="m 669.53367,626.03268 c 0,0 63.95457,-42.61428 101.9018,11.01025 18.41999,-19.16714 16.47023,-50.35498 79.28005,-21.01286 -33.96101,-38.99362 1.93071,-110.09122 61.54533,-140.71317 -64.02407,17.22538 -92.84659,23.69779 -57.77583,-1.09862 -25.26478,-4.83846 -24.06873,-11.35395 -7.39656,-48.22879 -34.14327,25.54875 -55.00551,-5.21651 -41.2308,-42.20246 -42.46194,26.51379 -128.86116,3.64921 -128.86116,3.64921 z"
       id="path4519"
       inkscape:connector-curvature="0"
       sodipodi:nodetypes="ccccccccc" />
    <path
       style="color:#000000;display:inline;overflow:visible;visibility:visible;fill:#ffffff;fill-opacity:1;fill-rule:nonzero;stroke:none;stroke-width:1px;marker:none;enable-background:accumulate"
       d="m 279.21661,331.69196 c -17.89496,13.4838 -14.9399,40.88726 -5.8528,60.48693 -10.79523,-7.26829 -41.56822,-38.45159 -17.52982,-69.80029 31.24478,-40.74661 33.87904,-1.92254 33.87904,-1.92254 z"
       id="path4035"
       inkscape:connector-curvature="0"
       sodipodi:nodetypes="ccscc" />
    <path
       style="color:#000000;display:inline;overflow:visible;visibility:visible;fill:#ffffff;fill-opacity:1;fill-rule:nonzero;stroke:none;stroke-width:1px;marker:none;enable-background:accumulate"
       d="m 337.99407,139.8089 c 16.28258,22.53817 34.31592,174.98332 9.6577,259.93006 -18.46136,14.90218 -30.00881,21.0125 -37.90084,30.88698 -13.86776,17.35133 -15.18667,26.20539 -23.90787,42.46092 -49.21365,19.70795 -98.2411,-16.54545 -115.97925,-49.86043 C 146.8431,379.99 132.93658,242.19188 153.86688,184.88877 c 20.93031,-57.30323 41.39288,-90.532106 103.254,-92.558136 25.24797,-0.8269 61.54457,20.723796 80.87319,47.478266 z"
       id="path4040"
       inkscape:connector-curvature="0"
       sodipodi:nodetypes="scscssss" />
    <path
       style="color:#000000;display:inline;overflow:visible;visibility:visible;fill:#ffffff;fill-opacity:1;fill-rule:nonzero;stroke:none;stroke-width:1px;marker:none;enable-background:accumulate"
       d="m 1036.4006,2731.8697 c -1.0576,91.6084 -46.07511,119.9209 -63.76001,119.0289 -23.7151,-1.1961 -56.80641,-32.4826 -60.50221,-52.0006 -3.4124,-18.0215 -7.8137,-74.2224 -5.0351,-102.4794 2.3175,-23.5683 24.41591,-71.7604 62.93651,-75.5627 38.52051,-3.8024 66.67031,71.3502 66.36081,111.0138 z"
       id="path3365"
       inkscape:connector-curvature="0"
       sodipodi:nodetypes="cssszc" />
    <path
       sodipodi:nodetypes="ccccccccccccc"
       inkscape:connector-curvature="0"
       id="path4968"
       d="m 657.55682,431.60553 c 27.13752,-42.87847 48.81739,3.30603 59.28595,18.2338 21.09102,-19.56832 42.15877,-39.23627 76.96863,0 13.55848,-16.29685 9.66967,-40.54614 62.8976,-22.06445 -30.48857,-28.07864 -6.56263,-86.22476 39.63839,-114.40589 -50.77521,18.01878 -73.72803,25.12793 -47.04932,3.24608 -20.89611,-1.98836 -20.40508,-7.16823 -9.57549,-37.18771 -25.86915,22.40424 -45.1014,-0.17081 -36.63548,-30.0713 -32.56042,23.74994 -43.75394,24.57446 -59.60482,4.70727 -13.61291,17.88607 -31.25026,20.47194 -58.70976,4.11643 0.69039,23.96034 -15.64696,27.53332 -32.40684,13.58349 0,0 16.8711,74.0904 0.33659,101.41225 29.9865,11.68193 4.80012,38.52368 4.85455,58.43003 z"
       style="display:inline;fill:#ffffff;fill-rule:evenodd;stroke:none;stroke-width:0.69451612" />
    <path
       style="fill:#550000;stroke:none;stroke-width:1px;stroke-linecap:butt;stroke-linejoin:miter;stroke-opacity:1;filter:url(#filter5099)"
       d="m 1488.1138,1075.9092 c 1.1515,2.0728 -13.0471,-8.453 -13.5734,-13.702 0.3361,-3.6967 -0.8775,-1.7572 -0.8775,-1.7572 -1.6084,3.9909 -2.1072,11.0332 -2.1028,19.4593 -1.9591,-1.0884 -7.5538,-18.342 -3.188,-21.7791 -2.9245,-0.3288 -12.4672,5.4476 -12.4672,6.754 0.5412,-7.9132 1.8317,-12.213 6.8905,-17.273 0.7826,-12.4374 4.163,-10.9594 7.5068,-19.0878 -10.5821,-2.0287 -28.701,8.2114 -34.9512,15.7953 2.969,-12.4483 14.0958,-23.3987 30.5823,-26.2134 0.3578,-2.4645 2.1876,-4.929 5.3771,-7.3935 -17.0981,-2.9692 -29.949,4.1778 -39.4276,10.2874 5.3106,-11.8987 13.8022,-20.0426 19.1771,-22.50496 3.3903,-0.67806 9.9474,3.44026 20.143,-2.76546 4.7561,-17.75038 15.8302,-32.03128 16.2388,-31.73061 -3.7108,0.98226 -4.0734,-43.95787 9.746,-58.13995 3.9876,-5.13118 29.4568,15.44894 37.2113,23.38903 1.087,1.11301 1.5257,2.51498 2.1088,2.48829 4.0349,-0.18464 6.5498,0.65181 8.6845,-1.81216 6.2001,-8.61461 9.368,-15.77184 18.4602,-19.03571 13.1067,-4.70497 9.1507,-367.98404 9.1507,-367.98404 l -415.3813,14.78704 -8.0657,559.21893 326.6592,6.7214 37.6397,-2.6886 z"
       id="path5089"
       inkscape:connector-curvature="0"
       sodipodi:nodetypes="ccccccccccccccccsscscccccc"
       clip-path="url(#clipPath5115)" />
    <rect
       style="opacity:1;fill:#ffffff;fill-opacity:1;fill-rule:nonzero;stroke:#ffffff;stroke-width:3;stroke-linecap:round;stroke-miterlimit:4;stroke-dasharray:none;stroke-opacity:1"
       id="rect5074"
       width="30.918354"
       height="598.20294"
       x="1135.9135"
       y="550.9693"
       rx="9.4099302"
       ry="13.4427" />
    <rect
       style="opacity:1;fill:#ffffff;fill-opacity:1;fill-rule:nonzero;stroke:#ffffff;stroke-width:3;stroke-linecap:round;stroke-miterlimit:4;stroke-dasharray:none;stroke-opacity:1"
       id="rect5076"
       width="459.74249"
       height="38.984013"
       x="1109.028"
       y="1110.1882"
       rx="9.4099302"
       ry="13.4427" />
    <path
       style="color:#000000;display:inline;overflow:visible;visibility:visible;fill:#550000;fill-opacity:1;fill-rule:nonzero;stroke:none;stroke-width:1px;marker:none;enable-background:accumulate"
       d="m 1192.198,192.63257 34.5445,-17.4998 -2.8269,19.687 28.0395,-0.01 -39.064,13.3463 1.7691,-17.3833 z"
       id="path4456-3-7-5-3-6"
       inkscape:connector-curvature="0"
       sodipodi:nodetypes="ccccccc" />
    <rect
       rx="10.98324"
       style="color:#000000;clip-rule:nonzero;display:inline;overflow:visible;visibility:visible;opacity:1;isolation:auto;mix-blend-mode:normal;color-interpolation:sRGB;color-interpolation-filters:linearRGB;solid-color:#000000;solid-opacity:1;fill:#550000;fill-opacity:1;fill-rule:nonzero;stroke:none;stroke-width:2.5999999;stroke-linecap:butt;stroke-linejoin:miter;stroke-miterlimit:4;stroke-dasharray:none;stroke-dashoffset:0;stroke-opacity:1;marker:none;color-rendering:auto;image-rendering:auto;shape-rendering:auto;text-rendering:auto;enable-background:accumulate"
       id="rect4632-8-5"
       width="363.51117"
       height="181.00175"
       x="1203.6079"
       y="-342.49249"
       ry="13.950764"
       transform="rotate(90)" />
    <path
       sodipodi:nodetypes="ccccccc"
       inkscape:connector-curvature="0"
       id="path5119"
       d="m 1182.3063,564.56226 34.5445,-17.4998 -2.8269,19.687 28.0395,-0.01 -39.064,13.3463 1.7691,-17.3833 z"
       style="color:#000000;display:inline;overflow:visible;visibility:visible;fill:#550000;fill-opacity:1;fill-rule:nonzero;stroke:none;stroke-width:1px;marker:none;enable-background:accumulate" />
    <path
       sodipodi:nodetypes="ccccccc"
       inkscape:connector-curvature="0"
       id="path5135"
       d="m 225.13779,1588.7993 29.42701,-25.1718 1.90833,19.7972 27.24201,-6.6398 -34.80046,22.2047 -2.39142,-17.3087 z"
       style="color:#000000;display:inline;overflow:visible;visibility:visible;fill:#550000;fill-opacity:1;fill-rule:nonzero;stroke:none;stroke-width:1px;marker:none;enable-background:accumulate" />
  </g>
  <g
     inkscape:groupmode="layer"
     id="layer1"
     inkscape:label="txt"
     style="display:inline">
    <text
       xml:space="preserve"
       style="font-style:normal;font-variant:normal;font-weight:normal;font-stretch:normal;line-height:0%;font-family:Lavi;-inkscape-font-specification:Lavi;text-align:center;letter-spacing:0px;word-spacing:0px;text-anchor:middle;fill:#000000;fill-opacity:1;stroke:none"
       x="254.1154"
       y="194.47266"
       id="text4246-2-3-1-3-9-3-7-60"><tspan
         sodipodi:role="line"
         style="font-size:45px;line-height:1.25"
         x="254.1154"
         y="194.47266"
         id="tspan4440">Ha-ha!</tspan><tspan
         sodipodi:role="line"
         style="font-size:45px;line-height:1.25"
         x="262.02554"
         y="250.72266"
         id="tspan4448">Thanks </tspan><tspan
         sodipodi:role="line"
         style="font-size:45px;line-height:1.25"
         x="254.1154"
         y="306.97269"
         id="tspan5166">Spirulina!</tspan><tspan
         sodipodi:role="line"
         style="font-size:45px;line-height:1.25"
         x="262.02554"
         y="363.22269"
         id="tspan4438">Sorry </tspan><tspan
         sodipodi:role="line"
         style="font-size:45px;line-height:1.25"
         x="254.1154"
         y="419.47269"
         id="tspan4955">din...</tspan></text>
    <text
       xml:space="preserve"
       style="font-style:normal;font-variant:normal;font-weight:normal;font-stretch:normal;line-height:0%;font-family:Lavi;-inkscape-font-specification:Lavi;text-align:center;letter-spacing:0px;word-spacing:0px;text-anchor:middle;fill:#000000;fill-opacity:1;stroke:none"
       x="750.21277"
       y="331.34869"
       id="text4246-2-3-1-3-9-3-7-60-9"><tspan
         sodipodi:role="line"
         style="font-size:44.23333359px;line-height:1"
         x="757.98816"
         y="331.34869"
         id="tspan3979">San ka </tspan><tspan
         sodipodi:role="line"
         style="font-size:44.23333359px;line-height:1"
         x="757.98816"
         y="375.582"
         id="tspan4960">pupunta </tspan><tspan
         sodipodi:role="line"
         style="font-size:44.23333359px;line-height:1"
         x="750.21277"
         y="419.81534"
         id="tspan4962">ha?!?</tspan></text>
    <text
       xml:space="preserve"
       style="font-style:normal;font-variant:normal;font-weight:normal;font-stretch:normal;line-height:0%;font-family:Lavi;-inkscape-font-specification:Lavi;text-align:center;letter-spacing:0px;word-spacing:0px;text-anchor:middle;fill:#000000;fill-opacity:1;stroke:#000000;stroke-width:2.23461556;stroke-miterlimit:4;stroke-dasharray:none;stroke-opacity:1"
       x="894.32306"
       y="466.54129"
       id="text4246-2-3-1-3-9-3-7-9-3"
       transform="matrix(0.91065665,0,-0.11970024,1.0981087,0,0)"><tspan
         sodipodi:role="line"
         style="font-size:38.67604446px;line-height:0.89999998;stroke:#000000;stroke-width:2.23461556;stroke-miterlimit:4;stroke-dasharray:none;stroke-opacity:1"
         x="901.12158"
         y="466.54129"
         id="tspan3983">BUMALIK </tspan><tspan
         sodipodi:role="line"
         style="font-size:38.67604446px;line-height:0.89999998;stroke:#000000;stroke-width:2.23461556;stroke-miterlimit:4;stroke-dasharray:none;stroke-opacity:1"
         x="894.32306"
         y="501.34973"
         id="tspan4966">KA DITO!</tspan></text>
    <text
       xml:space="preserve"
       style="font-style:normal;font-variant:normal;font-weight:normal;font-stretch:normal;line-height:0%;font-family:Lavi;-inkscape-font-specification:Lavi;text-align:center;letter-spacing:0px;word-spacing:0px;text-anchor:middle;fill:#ffffff;fill-opacity:1;stroke:none"
       x="1424.7644"
       y="185.28146"
       id="text4246-2-3-1-3-9-3-7-6"><tspan
         sodipodi:role="line"
         style="font-size:45px;line-height:0.89999998;fill:#ffffff"
         x="1432.6746"
         y="185.28146"
         id="tspan3991">Ahem! </tspan><tspan
         sodipodi:role="line"
         style="font-size:45px;line-height:0.89999998;fill:#ffffff"
         x="1432.6746"
         y="225.78146"
         id="tspan4990">Heto na ang </tspan><tspan
         sodipodi:role="line"
         style="font-size:45px;line-height:0.89999998;fill:#ffffff"
         x="1432.6746"
         y="266.28146"
         id="tspan4982">huli nating </tspan><tspan
         sodipodi:role="line"
         style="font-size:45px;line-height:0.89999998;fill:#ffffff"
         x="1424.7644"
         y="306.78146"
         id="tspan4994">participant</tspan><tspan
         sodipodi:role="line"
         style="font-size:45px;line-height:0.89999998;fill:#ffffff"
         x="1432.6746"
         y="347.28146"
         id="tspan4984">na may </tspan><tspan
         sodipodi:role="line"
         style="font-size:45px;line-height:0.89999998;fill:#ffffff"
         x="1424.7644"
         y="387.78146"
         id="tspan4998">&quot;kakaibang&quot;</tspan><tspan
         sodipodi:role="line"
         style="font-size:45px;line-height:0.89999998;fill:#ffffff"
         x="1432.6746"
         y="428.28146"
         id="tspan4986">mahika ng </tspan><tspan
         sodipodi:role="line"
         style="font-size:45px;line-height:0.89999998;fill:#ffffff"
         x="1424.7644"
         y="468.78146"
         id="tspan5000">Chaosah ...</tspan><tspan
         sodipodi:role="line"
         style="font-size:45px;line-height:0.89999998;fill:#ffffff"
         x="1432.6746"
         y="509.28146"
         id="tspan4988">Ms.                </tspan></text>
    <text
       xml:space="preserve"
       style="font-style:normal;font-variant:normal;font-weight:normal;font-stretch:normal;line-height:0%;font-family:Lavi;-inkscape-font-specification:Lavi;text-align:center;letter-spacing:0px;word-spacing:0px;text-anchor:middle;fill:#ffffff;fill-opacity:1;stroke:#ffffff;stroke-width:3.5321846;stroke-miterlimit:4;stroke-dasharray:none;stroke-opacity:1"
       x="1609.0955"
       y="495.65439"
       id="text4246-2-3-1-3-9-3-7-9"
       transform="matrix(0.93835319,0,-0.12334078,1.0656968,0,0)"><tspan
         sodipodi:role="line"
         style="font-size:61.13397217px;line-height:1.25;fill:#ffffff;stroke:#ffffff;stroke-width:3.5321846;stroke-miterlimit:4;stroke-dasharray:none;stroke-opacity:1"
         x="1609.0955"
         y="495.65439"
         id="tspan4814-3"> PEPPER!</tspan></text>
    <text
       xml:space="preserve"
       style="font-style:normal;font-variant:normal;font-weight:normal;font-stretch:normal;line-height:0%;font-family:Lavi;-inkscape-font-specification:Lavi;text-align:center;letter-spacing:0px;word-spacing:0px;text-anchor:middle;fill:#ffffff;fill-opacity:1;stroke:none"
       x="1323.2605"
       y="667.42279"
       id="text4246-2-3-1-3-9-3-7"><tspan
         sodipodi:role="line"
         style="font-size:45px;line-height:1;fill:#ffffff"
         x="1331.1707"
         y="667.42279"
         id="tspan4004">Bilang </tspan><tspan
         sodipodi:role="line"
         style="font-size:45px;line-height:1;fill:#ffffff"
         x="1331.1707"
         y="712.42279"
         id="tspan5030">prize winner </tspan><tspan
         sodipodi:role="line"
         style="font-size:45px;line-height:1;fill:#ffffff"
         x="1331.1707"
         y="757.42279"
         id="tspan5062">ng nakaraang </tspan><tspan
         sodipodi:role="line"
         style="font-size:45px;line-height:1;fill:#ffffff"
         x="1331.1707"
         y="802.42279"
         id="tspan5028">potions </tspan><tspan
         sodipodi:role="line"
         style="font-size:45px;line-height:1;fill:#ffffff"
         x="1323.2605"
         y="847.42279"
         id="tspan5058">contest,</tspan><tspan
         sodipodi:role="line"
         style="font-size:45px;line-height:1;fill:#ffffff"
         x="1331.1707"
         y="892.42279"
         id="tspan5020">aalukin </tspan><tspan
         sodipodi:role="line"
         style="font-size:45px;line-height:1;fill:#ffffff"
         x="1331.1707"
         y="937.42279"
         id="tspan5022">namin siya </tspan><tspan
         sodipodi:role="line"
         style="font-size:45px;line-height:1;fill:#ffffff"
         x="1331.1707"
         y="982.42279"
         id="tspan5056">sa isang </tspan><tspan
         sodipodi:role="line"
         style="font-size:45px;line-height:1;fill:#ffffff"
         x="1331.1707"
         y="1027.4229"
         id="tspan5024">special </tspan><tspan
         sodipodi:role="line"
         style="font-size:45px;line-height:1;fill:#ffffff"
         x="1323.2605"
         y="1072.4227"
         id="tspan5050">posisyon!</tspan></text>
    <text
       xml:space="preserve"
       style="font-style:normal;font-variant:normal;font-weight:normal;font-stretch:normal;font-size:30.73951149px;line-height:0%;font-family:Lavi;-inkscape-font-specification:Lavi;text-align:center;letter-spacing:0px;word-spacing:0px;text-anchor:middle;fill:#ffffff;fill-opacity:1;stroke:none;stroke-width:6.14790249;stroke-miterlimit:4;stroke-dasharray:none"
       x="1852.0568"
       y="369.05206"
       id="text4246-2-3-1-3-9-3-7-0"
       transform="scale(0.96398523,1.0373603)"><tspan
         sodipodi:role="line"
         style="font-size:115.27317047px;line-height:1.25;fill:#ffffff;stroke-width:6.14790249;stroke-miterlimit:4;stroke-dasharray:none"
         x="1852.0568"
         y="369.05206"
         id="tspan4418-43">?!</tspan><tspan
         sodipodi:role="line"
         style="font-size:85.33333301px;line-height:1.25;fill:#ffffff;stroke-width:6.14790249;stroke-miterlimit:4;stroke-dasharray:none"
         x="1852.0568"
         y="513.14355"
         id="tspan5221">...</tspan></text>
    <text
       xml:space="preserve"
       style="font-style:normal;font-variant:normal;font-weight:normal;font-stretch:normal;line-height:0%;font-family:Lavi;-inkscape-font-specification:Lavi;text-align:center;letter-spacing:0px;word-spacing:0px;text-anchor:middle;fill:#ffffff;fill-opacity:1;stroke:none"
       x="258.42041"
       y="1314.4507"
       id="text4246-2-3-1-3-9-3-7-8"><tspan
         sodipodi:role="line"
         style="font-size:45px;line-height:0;fill:#ffffff"
         x="266.33057"
         y="1314.4507"
         id="tspan4012">Ms.     </tspan><tspan
         sodipodi:role="line"
         style="font-size:45px;line-height:1.25;fill:#ffffff"
         x="258.42041"
         y="1352.1671"
         id="tspan5131">Pepper</tspan><tspan
         sodipodi:role="line"
         style="font-size:45px;line-height:1.25;fill:#ffffff"
         x="266.33057"
         y="1408.4171"
         id="tspan5083">ikaw </tspan><tspan
         sodipodi:role="line"
         style="font-size:45px;line-height:1.25;fill:#ffffff"
         x="266.33057"
         y="1464.6671"
         id="tspan5085">ngayon </tspan><tspan
         sodipodi:role="line"
         style="font-size:45px;line-height:1.25;fill:#ffffff"
         x="266.33057"
         y="1520.9171"
         id="tspan5087">ay... </tspan></text>
    <text
       xml:space="preserve"
       style="font-style:normal;font-variant:normal;font-weight:normal;font-stretch:normal;line-height:0%;font-family:Lavi;-inkscape-font-specification:Lavi;text-align:center;letter-spacing:0px;word-spacing:0px;text-anchor:middle;fill:#ffffff;fill-opacity:1;stroke:none;stroke-width:3;stroke-miterlimit:4;stroke-dasharray:none"
       x="750.74365"
       y="1374.4572"
       id="text4246-2-3-1-3-9-3"><tspan
         sodipodi:role="line"
         style="font-size:45px;line-height:1.25;fill:#ffffff;stroke-width:3;stroke-miterlimit:4;stroke-dasharray:none"
         x="750.74365"
         y="1377.9449"
         id="tspan3476" /><tspan
         sodipodi:role="line"
         style="font-size:45px;line-height:1.25;fill:#ffffff;stroke-width:3;stroke-miterlimit:4;stroke-dasharray:none"
         x="750.74365"
         y="1415.6614"
         id="tspan5123">...</tspan><tspan
         sodipodi:role="line"
         style="font-size:45px;line-height:1.25;fill:#ffffff;stroke-width:3;stroke-miterlimit:4;stroke-dasharray:none"
         x="758.65381"
         y="1471.9114"
         id="tspan5129">Kabilang </tspan><tspan
         sodipodi:role="line"
         style="font-size:45px;line-height:1.25;fill:#ffffff;stroke-width:3;stroke-miterlimit:4;stroke-dasharray:none"
         x="758.65381"
         y="1528.1614"
         id="tspan5125">na ng mga </tspan><tspan
         sodipodi:role="line"
         style="font-size:45px;line-height:1.25;fill:#ffffff;stroke:#ffffff;stroke-width:3;stroke-miterlimit:4;stroke-dasharray:none;stroke-opacity:1"
         x="750.74365"
         y="1546.6949"
         id="tspan5127" /></text>
    <text
       xml:space="preserve"
       style="font-style:normal;font-variant:normal;font-weight:normal;font-stretch:normal;line-height:0%;font-family:Lavi;-inkscape-font-specification:Lavi;letter-spacing:0px;word-spacing:0px;fill:#000000;fill-opacity:1;stroke:#000000;stroke-width:0.99236238;stroke-miterlimit:4;stroke-dasharray:none;stroke-opacity:1;filter:url(#filter4375-4-1-1-1-9-6-9-2-2-3)"
       x="787.65729"
       y="1584.5073"
       id="text4580-1-7-3-5-5"
       transform="matrix(0.38168385,-0.18570307,-0.01961658,0.54485753,937.50786,710.54866)"><tspan
         sodipodi:role="line"
         id="tspan4582-8-5-6-4-6"
         x="787.65729"
         y="1584.5073"
         style="font-size:70px;line-height:1.25;letter-spacing:8.44860268px;fill:#ffffff">Bam</tspan></text>
    <text
       xml:space="preserve"
       style="font-style:normal;font-variant:normal;font-weight:normal;font-stretch:normal;line-height:0%;font-family:Lavi;-inkscape-font-specification:Lavi;letter-spacing:0px;word-spacing:0px;fill:#000000;fill-opacity:1;stroke:#ffffff;stroke-width:0.99236238;stroke-miterlimit:4;stroke-dasharray:none;stroke-opacity:1;filter:url(#filter4375-4-1-1-1-9-6);"
       x="787.65729"
       y="1584.5073"
       id="text4580-1"
       transform="matrix(0.76268723,-0.38265658,-0.14080331,1.0139688,1620.7121,-35.004103)"><tspan
         sodipodi:role="line"
         id="tspan4582-8"
         x="787.65729"
         y="1584.5073"
         style="font-size:70px;line-height:1.25;fill:#ffffff;stroke:#ffffff;stroke-opacity:1;">Clap<tspan
   style="font-size:80.40014648px;stroke:#ffffff;stroke-opacity:1;"
   id="tspan4617-7" /></tspan></text>
    <text
       xml:space="preserve"
       style="font-style:normal;font-variant:normal;font-weight:normal;font-stretch:normal;line-height:0%;font-family:Lavi;-inkscape-font-specification:Lavi;text-align:center;letter-spacing:0px;word-spacing:0px;text-anchor:middle;display:inline;opacity:0.6;fill:#000000;fill-opacity:1;stroke:none;filter:url(#filter4312)"
       x="1170.1934"
       y="2020.8383"
       id="text4246"
       transform="matrix(0.83018334,0.00799514,0.01889419,0.78469023,222.7135,402.05875)"><tspan
         sodipodi:role="line"
         style="font-style:normal;font-variant:normal;font-weight:normal;font-stretch:normal;font-size:41.73017502px;line-height:1.26999998;font-family:Fondamento;-inkscape-font-specification:Fondamento;stroke:#000000;stroke-width:0.69550294;stroke-opacity:1"
         x="1170.1934"
         y="2020.8383"
         id="tspan4172">Magic Contest</tspan><tspan
         sodipodi:role="line"
         style="font-style:normal;font-variant:normal;font-weight:normal;font-stretch:normal;font-size:41.73017502px;line-height:1.26999998;font-family:Fondamento;-inkscape-font-specification:Fondamento;stroke:#000000;stroke-width:0.69550294;stroke-opacity:1"
         x="1170.1934"
         y="2073.8357"
         id="tspan4321">Official Jury</tspan></text>
    <text
       xml:space="preserve"
       style="font-style:normal;font-variant:normal;font-weight:normal;font-stretch:normal;line-height:0%;font-family:Lavi;-inkscape-font-specification:Lavi;text-align:center;letter-spacing:0px;word-spacing:0px;text-anchor:middle;fill:#000000;fill-opacity:1;stroke:none"
       x="969.44531"
       y="2754.0452"
       id="text4246-2-3-1-3-9"><tspan
         sodipodi:role="line"
         style="font-size:45px;line-height:1.25"
         x="969.44531"
         y="2754.0452"
         id="tspan3445">Yay.</tspan></text>
    <text
       xml:space="preserve"
       style="font-style:normal;font-variant:normal;font-weight:normal;font-stretch:normal;line-height:0%;font-family:Lavi;-inkscape-font-specification:Lavi;text-align:center;letter-spacing:0px;word-spacing:0px;text-anchor:middle;display:inline;opacity:0.6;fill:#000000;fill-opacity:1;stroke:none;filter:url(#filter4348)"
       x="1041.0745"
       y="3267.8125"
       id="text4246-3-2-1"
       transform="matrix(0.95811116,-0.02724761,0.08440435,0.8567817,-682.3706,408.94595)"><tspan
         sodipodi:role="line"
         style="font-style:normal;font-variant:normal;font-weight:normal;font-stretch:normal;font-size:39.51785278px;line-height:1.26999998;font-family:Fondamento;-inkscape-font-specification:Fondamento;stroke:#000000;stroke-width:0.65863091;stroke-opacity:1"
         x="1045.8984"
         y="3267.8125"
         id="tspan4321-6-9-2">Queen Aiel </tspan></text>
    <text
       xml:space="preserve"
       style="font-style:normal;font-variant:normal;font-weight:normal;font-stretch:normal;line-height:0%;font-family:Lavi;-inkscape-font-specification:Lavi;text-align:center;letter-spacing:0px;word-spacing:0px;text-anchor:middle;display:inline;opacity:0.6;fill:#000000;fill-opacity:1;stroke:none;filter:url(#filter4320)"
       x="706.49316"
       y="3289.8411"
       id="text4246-3"
       transform="matrix(1.0242285,-0.10439088,-0.043955,0.98082457,953.23565,44.98305)"><tspan
         sodipodi:role="line"
         style="font-style:normal;font-variant:normal;font-weight:normal;font-stretch:normal;font-size:39.51785278px;line-height:1.26999998;font-family:Fondamento;-inkscape-font-specification:Fondamento;stroke:#000000;stroke-width:0.65863091;stroke-opacity:1"
         x="706.49316"
         y="3289.8411"
         id="tspan4321-6">Pepper</tspan></text>
    <text
       xml:space="preserve"
       style="font-style:normal;font-variant:normal;font-weight:normal;font-stretch:normal;line-height:0%;font-family:Lavi;-inkscape-font-specification:Lavi;text-align:center;letter-spacing:0px;word-spacing:0px;text-anchor:middle;display:inline;opacity:0.6;fill:#000000;fill-opacity:1;stroke:none;filter:url(#filter4328)"
       x="1600.3759"
       y="3276.0305"
       id="text4246-3-2"
       transform="matrix(0.91400549,-0.03630287,0.173692,0.85100893,98.290871,460.90615)"><tspan
         sodipodi:role="line"
         style="font-style:normal;font-variant:normal;font-weight:normal;font-stretch:normal;font-size:39.51785278px;line-height:1.26999998;font-family:Fondamento;-inkscape-font-specification:Fondamento;stroke:#000000;stroke-width:0.65863091;stroke-opacity:1"
         x="1605.1998"
         y="3276.0305"
         id="tspan4321-6-9">Lord Azeirf </tspan></text>
    <text
       xml:space="preserve"
       style="font-style:normal;font-variant:normal;font-weight:normal;font-stretch:normal;line-height:0%;font-family:Lavi;-inkscape-font-specification:Lavi;text-align:center;letter-spacing:0px;word-spacing:0px;text-anchor:middle;fill:#241c1c;fill-opacity:1;stroke:#000000;stroke-width:0.82200003;stroke-miterlimit:4;stroke-dasharray:none;stroke-opacity:1"
       x="3392.3933"
       y="3319.1055"
       id="text4213"
       transform="matrix(0.96049651,0,-0.32716292,1.0411282,0,0)"><tspan
         sodipodi:role="line"
         id="tspan3562"
         x="3392.3933"
         y="3319.1055"
         style="font-size:43.85788345px;line-height:1.25;stroke-width:0.82200003">Itutuloy...</tspan></text>
    <use
       x="0"
       y="0"
       xlink:href="#text4580-1"
       id="use4931"
       transform="matrix(0.92194902,0,0,0.86579287,205.52534,243.30552)"
       width="100%"
       height="100%" />
    <use
       x="0"
       y="0"
       xlink:href="#use4931"
       id="use4933"
       transform="matrix(0.93360582,0,0,0.96226884,275.2847,-10.050354)"
       width="100%"
       height="100%" />
    <text
       transform="matrix(0.52004839,-0.24845877,-0.0960086,0.65836956,1610.057,474.36523)"
       id="use4937"
       y="1584.5073"
       x="787.65729"
       style="font-style:normal;font-variant:normal;font-weight:normal;font-stretch:normal;line-height:0%;font-family:Lavi;-inkscape-font-specification:Lavi;letter-spacing:0px;word-spacing:0px;fill:#000000;fill-opacity:1;stroke:#ffffff;stroke-width:0.99236238;stroke-miterlimit:4;stroke-dasharray:none;stroke-opacity:1;filter:url(#filter4375-4-1-1-1-9-6)"
       xml:space="preserve"><tspan
         style="font-size:70px;line-height:1.25;fill:#ffffff;stroke:#ffffff;stroke-opacity:1"
         y="1584.5073"
         x="787.65729"
         id="tspan4949"
         sodipodi:role="line">Clap<tspan
   id="tspan4947"
   style="font-size:80.40014648px;stroke:#ffffff;stroke-opacity:1" /></tspan></text>
    <use
       x="0"
       y="0"
       xlink:href="#use4937"
       id="use4939"
       transform="matrix(0.74101436,0,0,0.78301215,370.22056,254.48141)"
       width="100%"
       height="100%" />
    <use
       x="0"
       y="0"
       xlink:href="#use4939"
       id="use4941"
       transform="translate(155.93605,-44.361117)"
       width="100%"
       height="100%" />
    <use
       x="0"
       y="0"
       xlink:href="#use4941"
       id="use4943"
       transform="translate(220.46131,17.475592)"
       width="100%"
       height="100%" />
    <use
       x="0"
       y="0"
       xlink:href="#use4943"
       id="use4945"
       transform="translate(-98.132168,135.7719)"
       width="100%"
       height="100%" />
    <use
       x="0"
       y="0"
       xlink:href="#use4931"
       id="use4953"
       transform="translate(-126.36197,22.852697)"
       width="100%"
       height="100%" />
    <text
       id="text5150"
       y="1387.355"
       x="1312.0029"
       style="font-style:normal;font-variant:normal;font-weight:normal;font-stretch:normal;font-size:13.82260036px;line-height:0%;font-family:Lavi;-inkscape-font-specification:Lavi;text-align:center;letter-spacing:0px;word-spacing:0px;text-anchor:middle;fill:#ffffff;fill-opacity:1;stroke:none;stroke-width:3.45565009;stroke-miterlimit:4;stroke-dasharray:none"
       xml:space="preserve"
       transform="matrix(0.86814349,0,-0.28373988,1.1518833,0,0)"><tspan
         id="tspan5148"
         y="1387.355"
         x="1312.0029"
         style="font-size:51.83475113px;line-height:1.25;fill:#ffffff;stroke:#ffffff;stroke-width:3.45565009;stroke-miterlimit:4;stroke-dasharray:none;stroke-opacity:1"
         sodipodi:role="line">HURADO!</tspan></text>
    <text
       xml:space="preserve"
       style="font-style:normal;font-variant:normal;font-weight:normal;font-stretch:normal;font-size:101.05051422px;line-height:1.25;font-family:Lavi;-inkscape-font-specification:Lavi;letter-spacing:0px;word-spacing:0px;fill:#ffffff;fill-opacity:1;stroke:none;stroke-width:1.63942027"
       x="175.64256"
       y="2199.1028"
       id="text5170"
       transform="scale(0.93518844,1.0693032)"><tspan
         sodipodi:role="line"
         id="tspan5168"
         x="175.64256"
         y="2199.1028"
         style="font-style:normal;font-variant:normal;font-weight:normal;font-stretch:normal;font-size:101.05051422px;font-family:Lavi;-inkscape-font-specification:Lavi;stroke-width:1.63942027">...</tspan></text>
    <text
       transform="scale(0.96327728,1.0381227)"
       id="text5174"
       y="2244.0791"
       x="600.0697"
       style="font-style:normal;font-variant:normal;font-weight:normal;font-stretch:normal;font-size:94.19335938px;line-height:1.25;font-family:Lavi;-inkscape-font-specification:Lavi;letter-spacing:0px;word-spacing:0px;fill:#ffffff;fill-opacity:1;stroke:none;stroke-width:1.52817142"
       xml:space="preserve"><tspan
         style="font-style:normal;font-variant:normal;font-weight:normal;font-stretch:normal;font-size:94.19335938px;font-family:Lavi;-inkscape-font-specification:Lavi;stroke-width:1.52817142"
         y="2244.0791"
         x="600.0697"
         id="tspan5172"
         sodipodi:role="line">...</tspan></text>
    <text
       xml:space="preserve"
       style="font-style:normal;font-variant:normal;font-weight:normal;font-stretch:normal;font-size:89.68825531px;line-height:1.25;font-family:Lavi;-inkscape-font-specification:Lavi;letter-spacing:0px;word-spacing:0px;display:inline;fill:#784421;fill-opacity:1;stroke:none;stroke-width:1.8594116"
       x="2029.5597"
       y="2244.7795"
       id="text5170-6"
       transform="scale(0.94143296,1.0622105)"><tspan
         sodipodi:role="line"
         id="tspan5168-2"
         x="2029.5597"
         y="2244.7795"
         style="font-style:normal;font-variant:normal;font-weight:normal;font-stretch:normal;font-size:89.68825531px;font-family:Lavi;-inkscape-font-specification:Lavi;fill:#784421;stroke-width:1.8594116">...</tspan></text>
    <text
       transform="scale(0.93995784,1.0638775)"
       id="text5174-3"
       y="2221.7544"
       x="2294.8213"
       style="font-style:normal;font-variant:normal;font-weight:normal;font-stretch:normal;font-size:94.14317322px;line-height:1.25;font-family:Lavi;-inkscape-font-specification:Lavi;letter-spacing:0px;word-spacing:0px;display:inline;fill:#784421;fill-opacity:1;stroke:none;stroke-width:1.95177102"
       xml:space="preserve"><tspan
         style="font-style:normal;font-variant:normal;font-weight:normal;font-stretch:normal;font-size:94.14317322px;font-family:Lavi;-inkscape-font-specification:Lavi;fill:#784421;stroke-width:1.95177102"
         y="2221.7544"
         x="2294.8213"
         id="tspan5172-3"
         sodipodi:role="line">...</tspan></text>
    <path
       style="font-style:normal;font-weight:normal;font-size:40px;line-height:1.25;font-family:sans-serif;letter-spacing:0px;word-spacing:0px;fill:#ffffff;fill-opacity:1;stroke:none"
       d="m 1704.1635,2962.0385 c -5.2352,-3.7309 -9.0733,-0.4378 -10.0179,-0.1894 1.2759,-4.4429 -2.4968,-7.1538 -4.7498,-8.5857 -16.1461,-5.2459 -13.1541,23.7614 -5.9017,28.5248 7.7659,2.3747 32.7455,-9.3074 20.6694,-19.7497 z"
       id="text5214"
       inkscape:connector-curvature="0"
       sodipodi:nodetypes="ccccc" />
    <path
       sodipodi:nodetypes="ccccc"
       inkscape:connector-curvature="0"
       id="path5217"
       d="m 1383.6229,2896.3146 c -5.948,2.4389 -5.2091,7.4419 -5.5027,8.3734 -3.0779,-3.4487 -7.3831,-1.703 -9.7959,-0.5607 -13.0483,10.8608 13.0854,23.7993 20.9826,20.2046 6.1503,-5.303 9.5896,-32.664 -5.684,-28.0173 z"
       style="font-style:normal;font-weight:normal;font-size:40px;line-height:1.25;font-family:sans-serif;letter-spacing:0px;word-spacing:0px;fill:#ffffff;fill-opacity:1;stroke:none" />
  </g>
</svg>
