<?xml version="1.0" encoding="UTF-8" standalone="no"?>
<svg
   xmlns:dc="http://purl.org/dc/elements/1.1/"
   xmlns:cc="http://creativecommons.org/ns#"
   xmlns:rdf="http://www.w3.org/1999/02/22-rdf-syntax-ns#"
   xmlns:svg="http://www.w3.org/2000/svg"
   xmlns="http://www.w3.org/2000/svg"
   xmlns:xlink="http://www.w3.org/1999/xlink"
   xmlns:sodipodi="http://sodipodi.sourceforge.net/DTD/sodipodi-0.dtd"
   xmlns:inkscape="http://www.inkscape.org/namespaces/inkscape"
   sodipodi:docname="E04P02.svg"
   height="3503"
   width="2481"
   inkscape:version="1.0 (4035a4f, 2020-05-01)"
   version="1.1"
   id="svg2">
  <sodipodi:namedview
     inkscape:window-maximized="0"
     inkscape:window-y="23"
     inkscape:window-x="0"
     inkscape:document-rotation="0"
     inkscape:current-layer="layer1"
     inkscape:cy="375.73776"
     inkscape:cx="1364.419"
     inkscape:zoom="0.40461675"
     showgrid="false"
     id="namedview70"
     inkscape:window-height="786"
     inkscape:window-width="1440"
     inkscape:pageshadow="2"
     inkscape:pageopacity="0"
     bordercolor="#666666"
     pagecolor="#ffffff" />
  <metadata
     id="metadata8">
    <rdf:RDF>
      <cc:Work
         rdf:about="">
        <dc:format>image/svg+xml</dc:format>
        <dc:type
           rdf:resource="http://purl.org/dc/dcmitype/StillImage" />
        <dc:title></dc:title>
      </cc:Work>
    </rdf:RDF>
  </metadata>
  <defs
     id="defs6">
    <filter
       inkscape:label="deevad outline effect"
       style="color-interpolation-filters:sRGB;"
       id="filter4375">
      <feFlood
         result="flood"
         flood-color="rgb(255,255,255)"
         flood-opacity="1"
         id="feFlood4377" />
      <feComposite
         result="composite1"
         operator="in"
         in="flood"
         in2="SourceGraphic"
         id="feComposite4379" />
      <feMorphology
         result="result3"
         radius="4"
         operator="dilate"
         id="feMorphology4393" />
      <feComposite
         result="composite2"
         operator="over"
         in="SourceGraphic"
         in2="result3"
         id="feComposite4385" />
    </filter>
    <filter
       inkscape:label="deevad outline effect"
       id="filter4375-9"
       color-interpolation-filters="sRGB">
      <feFlood
         result="flood"
         flood-color="rgb(255,255,255)"
         flood-opacity="1"
         id="feFlood4377-1" />
      <feComposite
         result="composite1"
         operator="in"
         in="flood"
         in2="SourceGraphic"
         id="feComposite4379-4" />
      <feMorphology
         result="result3"
         radius="4"
         operator="dilate"
         id="feMorphology4393-4" />
      <feComposite
         result="composite2"
         operator="over"
         in="SourceGraphic"
         in2="result3"
         id="feComposite4385-8" />
    </filter>
    <filter
       inkscape:label="deevad outline effect"
       id="filter4375-5"
       color-interpolation-filters="sRGB">
      <feFlood
         result="flood"
         flood-color="rgb(255,255,255)"
         flood-opacity="1"
         id="feFlood4377-0" />
      <feComposite
         result="composite1"
         operator="in"
         in="flood"
         in2="SourceGraphic"
         id="feComposite4379-6" />
      <feMorphology
         result="result3"
         radius="4"
         operator="dilate"
         id="feMorphology4393-0" />
      <feComposite
         result="composite2"
         operator="over"
         in="SourceGraphic"
         in2="result3"
         id="feComposite4385-7" />
    </filter>
    <filter
       inkscape:label="deevad outline effect"
       id="filter4375-4"
       color-interpolation-filters="sRGB">
      <feFlood
         result="flood"
         flood-color="rgb(255,255,255)"
         flood-opacity="1"
         id="feFlood4377-7" />
      <feComposite
         result="composite1"
         operator="in"
         in="flood"
         in2="SourceGraphic"
         id="feComposite4379-3" />
      <feMorphology
         result="result3"
         radius="4"
         operator="dilate"
         id="feMorphology4393-1" />
      <feComposite
         result="composite2"
         operator="over"
         in="SourceGraphic"
         in2="result3"
         id="feComposite4385-9" />
    </filter>
    <filter
       inkscape:label="deevad outline effect"
       id="filter4375-51"
       color-interpolation-filters="sRGB">
      <feFlood
         result="flood"
         flood-color="rgb(255,255,255)"
         flood-opacity="1"
         id="feFlood4377-8" />
      <feComposite
         result="composite1"
         operator="in"
         in="flood"
         in2="SourceGraphic"
         id="feComposite4379-67" />
      <feMorphology
         result="result3"
         radius="4"
         operator="dilate"
         id="feMorphology4393-47" />
      <feComposite
         result="composite2"
         operator="over"
         in="SourceGraphic"
         in2="result3"
         id="feComposite4385-80" />
    </filter>
    <filter
       inkscape:label="deevad outline effect"
       id="filter4375-5-4"
       color-interpolation-filters="sRGB">
      <feFlood
         result="flood"
         flood-color="rgb(255,255,255)"
         flood-opacity="1"
         id="feFlood4377-0-3" />
      <feComposite
         result="composite1"
         operator="in"
         in="flood"
         in2="SourceGraphic"
         id="feComposite4379-6-6" />
      <feMorphology
         result="result3"
         radius="4"
         operator="dilate"
         id="feMorphology4393-0-9" />
      <feComposite
         result="composite2"
         operator="over"
         in="SourceGraphic"
         in2="result3"
         id="feComposite4385-7-5" />
    </filter>
    <filter
       inkscape:label="deevad outline effect"
       id="filter4375-5-4-8"
       color-interpolation-filters="sRGB">
      <feFlood
         result="flood"
         flood-color="rgb(255,255,255)"
         flood-opacity="1"
         id="feFlood4377-0-3-4" />
      <feComposite
         result="composite1"
         operator="in"
         in="flood"
         in2="SourceGraphic"
         id="feComposite4379-6-6-3" />
      <feMorphology
         result="result3"
         radius="4"
         operator="dilate"
         id="feMorphology4393-0-9-3" />
      <feComposite
         result="composite2"
         operator="over"
         in="SourceGraphic"
         in2="result3"
         id="feComposite4385-7-5-5" />
    </filter>
    <filter
       inkscape:label="deevad outline effect"
       id="filter4375-5-4-3"
       color-interpolation-filters="sRGB">
      <feFlood
         result="flood"
         flood-color="rgb(255,255,255)"
         flood-opacity="1"
         id="feFlood4377-0-3-1" />
      <feComposite
         result="composite1"
         operator="in"
         in="flood"
         in2="SourceGraphic"
         id="feComposite4379-6-6-1" />
      <feMorphology
         result="result3"
         radius="4"
         operator="dilate"
         id="feMorphology4393-0-9-7" />
      <feComposite
         result="composite2"
         operator="over"
         in="SourceGraphic"
         in2="result3"
         id="feComposite4385-7-5-8" />
    </filter>
    <filter
       inkscape:label="deevad outline effect"
       id="filter4375-5-4-81"
       color-interpolation-filters="sRGB">
      <feFlood
         result="flood"
         flood-color="rgb(255,255,255)"
         flood-opacity="1"
         id="feFlood4377-0-3-3" />
      <feComposite
         result="composite1"
         operator="in"
         in="flood"
         in2="SourceGraphic"
         id="feComposite4379-6-6-36" />
      <feMorphology
         result="result3"
         radius="4"
         operator="dilate"
         id="feMorphology4393-0-9-1" />
      <feComposite
         result="composite2"
         operator="over"
         in="SourceGraphic"
         in2="result3"
         id="feComposite4385-7-5-4" />
    </filter>
    <filter
       inkscape:label="deevad outline effect"
       id="filter4375-5-4-9"
       color-interpolation-filters="sRGB">
      <feFlood
         result="flood"
         flood-color="rgb(255,255,255)"
         flood-opacity="1"
         id="feFlood4377-0-3-0" />
      <feComposite
         result="composite1"
         operator="in"
         in="flood"
         in2="SourceGraphic"
         id="feComposite4379-6-6-2" />
      <feMorphology
         result="result3"
         radius="4"
         operator="dilate"
         id="feMorphology4393-0-9-2" />
      <feComposite
         result="composite2"
         operator="over"
         in="SourceGraphic"
         in2="result3"
         id="feComposite4385-7-5-85" />
    </filter>
    <filter
       inkscape:label="deevad outline effect"
       id="filter4375-5-4-2"
       color-interpolation-filters="sRGB">
      <feFlood
         result="flood"
         flood-color="rgb(255,255,255)"
         flood-opacity="1"
         id="feFlood4377-0-3-47" />
      <feComposite
         result="composite1"
         operator="in"
         in="flood"
         in2="SourceGraphic"
         id="feComposite4379-6-6-35" />
      <feMorphology
         result="result3"
         radius="6"
         operator="dilate"
         id="feMorphology4393-0-9-76" />
      <feComposite
         result="composite2"
         operator="over"
         in="SourceGraphic"
         in2="result3"
         id="feComposite4385-7-5-9" />
    </filter>
    <filter
       inkscape:label="deevad outline effect"
       id="filter4375-5-4-2-8"
       color-interpolation-filters="sRGB">
      <feFlood
         result="flood"
         flood-color="rgb(255,255,255)"
         flood-opacity="1"
         id="feFlood4377-0-3-47-4" />
      <feComposite
         result="composite1"
         operator="in"
         in="flood"
         in2="SourceGraphic"
         id="feComposite4379-6-6-35-0" />
      <feMorphology
         result="result3"
         radius="6"
         operator="dilate"
         id="feMorphology4393-0-9-76-6" />
      <feComposite
         result="composite2"
         operator="over"
         in="SourceGraphic"
         in2="result3"
         id="feComposite4385-7-5-9-5" />
    </filter>
    <filter
       inkscape:label="deevad outline effect"
       id="filter4375-5-4-2-8-9"
       color-interpolation-filters="sRGB">
      <feFlood
         result="flood"
         flood-color="rgb(255,255,255)"
         flood-opacity="1"
         id="feFlood4377-0-3-47-4-9" />
      <feComposite
         result="composite1"
         operator="in"
         in="flood"
         in2="SourceGraphic"
         id="feComposite4379-6-6-35-0-8" />
      <feMorphology
         result="result3"
         radius="6"
         operator="dilate"
         id="feMorphology4393-0-9-76-6-6" />
      <feComposite
         result="composite2"
         operator="over"
         in="SourceGraphic"
         in2="result3"
         id="feComposite4385-7-5-9-5-0" />
    </filter>
    <filter
       inkscape:label="deevad outline effect"
       id="filter4375-5-4-2-7"
       color-interpolation-filters="sRGB">
      <feFlood
         result="flood"
         flood-color="rgb(255,255,255)"
         flood-opacity="1"
         id="feFlood4377-0-3-47-3" />
      <feComposite
         result="composite1"
         operator="in"
         in="flood"
         in2="SourceGraphic"
         id="feComposite4379-6-6-35-5" />
      <feMorphology
         result="result3"
         radius="6"
         operator="dilate"
         id="feMorphology4393-0-9-76-4" />
      <feComposite
         result="composite2"
         operator="over"
         in="SourceGraphic"
         in2="result3"
         id="feComposite4385-7-5-9-2" />
    </filter>
    <filter
       id="filter4968-5"
       inkscape:collect="always"
       color-interpolation-filters="sRGB">
      <feGaussianBlur
         id="feGaussianBlur4970-0"
         stdDeviation="1.0497573"
         inkscape:collect="always" />
    </filter>
  </defs>
  <sodipodi:namedview
     inkscape:current-layer="layer1"
     inkscape:window-maximized="1"
     inkscape:window-y="26"
     inkscape:window-x="0"
     inkscape:cy="1706.8383"
     inkscape:cx="1692.8936"
     inkscape:zoom="0.2060889"
     showgrid="false"
     id="namedview4"
     inkscape:window-height="1025"
     inkscape:window-width="1920"
     inkscape:pageshadow="2"
     inkscape:pageopacity="0"
     guidetolerance="10"
     gridtolerance="10"
     objecttolerance="10"
     borderopacity="1"
     bordercolor="#666666"
     pagecolor="#ffffff" />
  <g
     sodipodi:insensitive="true"
     inkscape:label="artwork"
     id="layer2"
     inkscape:groupmode="layer">
    <image
       sodipodi:absref="/Users/julienj-mauduit/Downloads/lang/gfx_Pepper-and-Carrot_by-David-Revoy_E04P02.png"
       xlink:href="../gfx_Pepper-and-Carrot_by-David-Revoy_E04P02.png"
       width="2481"
       height="3503"
       id="image10"
       x="0"
       y="0" />
  </g>
  <g
     inkscape:label="speechbubbles"
     id="layer3"
     inkscape:groupmode="layer">
    <path
       sodipodi:nodetypes="csssssssssssssc"
       inkscape:connector-curvature="0"
       id="path4972"
       d="m 516.94719,947.28565 c 1.81385,-41.71854 13.36569,-63.10176 19.04542,-71.64707 5.79383,-8.71697 55.29793,-36.30149 65.29859,-38.09084 9.32056,-1.66766 39.9047,-14.5108 50.7878,-14.5108 10.8831,0 83.43709,-4.53462 87.06479,-6.34847 3.6277,-1.81385 56.20167,-2.56134 66.20552,-0.90693 9.06924,1.49985 65.60717,6.1594 73.46091,9.97617 3.3468,1.62648 81.58884,12.62815 87.06479,13.60388 4.55272,0.81123 43.53249,-6.34848 48.06709,-6.34848 4.5346,0 38.0908,9.97618 41.7185,20.85928 3.6277,10.8831 25.3939,39.90469 19.9524,72.55399 -5.4416,32.64929 -22.6731,65.29859 -50.7878,68.92629 -28.11474,3.62768 -193.17507,15.41773 -240.33517,17.23163 -47.16009,1.8138 -239.42817,-16.32471 -247.59049,-27.2078 -8.16233,-10.8831 -19.95235,-38.09085 -19.95235,-38.09085 z"
       style="fill:#ffffff;stroke:none" />
    <path
       inkscape:connector-curvature="0"
       id="path4974"
       d="m 79.160939,141.0589 c 0,-41.97929 83.958571,-59.970413 153.524251,-62.369229 69.56567,-2.398817 169.11655,3.598224 171.51536,33.583429 2.39882,29.9852 -15.5923,58.771 -33.58343,64.76804 -17.99112,5.99704 -113.94377,17.99112 -142.72957,19.19053 -28.78579,1.19941 -143.928978,21.58935 -148.726611,-55.17277 z"
       style="color:#000000;fill:#ffffff;fill-opacity:1;fill-rule:nonzero;stroke:none;stroke-width:1px;marker:none;visibility:visible;display:inline;overflow:visible;enable-background:accumulate" />
    <path
       inkscape:connector-curvature="0"
       id="path5002"
       d="m 334.65357,273.73019 c -67.89078,-18.51567 -87.09222,-32.23098 -97.3787,-90.52105 -10.28648,-58.29007 10.97225,-58.97583 10.97225,-58.97583 0,0 -8.22919,111.09401 86.40645,149.49688 z"
       style="color:#000000;fill:#ffffff;fill-opacity:1;fill-rule:nonzero;stroke:none;stroke-width:1px;marker:none;visibility:visible;display:inline;overflow:visible;enable-background:accumulate" />
    <path
       inkscape:connector-curvature="0"
       id="path5010"
       d="m 740.05071,833.92004 c 6.34848,-35.37007 4.53463,-68.01937 -28.11467,-81.62324 54.41549,10.8831 61.67089,77.99554 61.67089,98.85481 0,20.85927 -33.55622,-17.23157 -33.55622,-17.23157 z"
       style="color:#000000;fill:#ffffff;fill-opacity:1;fill-rule:nonzero;stroke:none;stroke-width:1px;marker:none;visibility:visible;display:inline;overflow:visible;enable-background:accumulate" />
    <path
       inkscape:connector-curvature="0"
       id="path5018"
       d="m 1070.1714,134.75981 c 0.7886,-43.37467 64.6677,-49.683712 120.6604,-47.317821 55.9928,2.365891 156.9375,-14.195346 147.4739,68.610841 -9.4636,82.80618 -188.4827,44.95193 -194.0031,45.74056 -5.5204,0.78863 -85.1721,-14.98398 -74.1312,-67.03358 z"
       style="color:#000000;fill:#ffffff;fill-opacity:1;fill-rule:nonzero;stroke:none;stroke-width:1px;marker:none;visibility:visible;display:inline;overflow:visible;enable-background:accumulate" />
    <path
       inkscape:connector-curvature="0"
       id="path5026"
       d="m 1375.3713,403.68276 c 2.3659,-40.22015 18.9271,-85.96071 143.5307,-72.554 124.6036,13.40672 119.0832,22.87028 118.2946,76.49715 -0.7886,53.62686 -56.7814,63.09042 -132.4899,49.68371 -75.7085,-13.40672 -126.9695,4.73178 -129.3354,-53.62686 z"
       style="color:#000000;fill:#ffffff;fill-opacity:1;fill-rule:nonzero;stroke:none;stroke-width:1px;marker:none;visibility:visible;display:inline;overflow:visible;enable-background:accumulate" />
    <path
       inkscape:connector-curvature="0"
       id="path5034"
       d="m 1072.5373,525.92046 c 2.3659,-46.52919 32.3338,-56.78139 63.879,-59.14728 31.5452,-2.36589 44.1633,4.73179 52.8383,6.30905 8.6749,1.57726 89.9038,-4.73179 100.9446,-3.15453 11.0409,1.57727 63.0905,22.87028 60.7246,59.93591 -2.3659,37.06563 -37.8543,52.83823 -74.1313,55.20412 -36.277,2.3659 -110.4082,0 -128.5467,4.73179 -18.1385,4.73178 -70.1881,-3.15452 -75.7085,-63.87906 z"
       style="color:#000000;fill:#ffffff;fill-opacity:1;fill-rule:nonzero;stroke:none;stroke-width:1px;marker:none;visibility:visible;display:inline;overflow:visible;enable-background:accumulate" />
    <path
       inkscape:connector-curvature="0"
       id="path5042"
       d="m 1225.5316,890.26768 c 0,-33.91111 33.1224,-71.76536 67.8222,-74.13126 34.6997,-2.36589 79.6516,3.15453 123.0263,9.46357 43.3747,6.30904 59.9359,-8.67493 83.5948,-3.15452 23.6589,5.52041 42.586,22.87028 42.586,44.95193 0,22.08165 -13.4067,22.87028 -14.1953,23.65891 -0.7886,0.78863 4.7318,16.56123 -3.9431,22.87028 -8.675,6.30904 -55.2042,14.19534 -60.7246,15.7726 -5.5204,1.57726 -50.4723,6.30905 -65.4563,5.52042 -14.984,-0.78863 -91.4811,0.78863 -97.7902,-1.57726 -6.309,-2.3659 -53.6268,-1.57726 -74.9198,-43.37467 z"
       style="color:#000000;fill:#ffffff;fill-opacity:1;fill-rule:nonzero;stroke:none;stroke-width:1px;marker:none;visibility:visible;display:inline;overflow:visible;enable-background:accumulate" />
    <path
       inkscape:connector-curvature="0"
       id="path5050"
       d="m 1183.6909,183.29859 c 14.3116,13.11899 28.6233,30.41221 29.8159,34.58644 1.1926,4.17422 -10.1374,27.43062 -5.9632,32.20116 4.1742,4.77054 19.6785,5.36686 21.4675,8.94477 1.7889,3.5779 -3.5779,22.06376 0,25.64166 3.5779,3.57791 28.6232,13.119 29.8159,16.10058 1.1926,2.98159 7.7521,19.08218 19.6784,31.60485 -11.33,-31.60485 -7.7521,-38.16434 -11.9263,-42.93488 -4.1742,-4.77055 -20.8711,-8.94477 -23.2564,-14.31163 -2.3853,-5.36686 2.3853,-23.2564 -2.3853,-28.02694 -4.7705,-4.77054 -16.1006,-6.5595 -16.1006,-6.5595 4.1743,-4.77054 22.0638,-32.79748 2.3853,-60.82442 -19.6785,-28.02693 -43.5312,3.57791 -43.5312,3.57791 z"
       style="color:#000000;fill:#ffffff;fill-opacity:1;fill-rule:nonzero;stroke:none;stroke-width:1px;marker:none;visibility:visible;display:inline;overflow:visible;enable-background:accumulate" />
    <path
       sodipodi:nodetypes="cscsssssscssssccscccc"
       inkscape:connector-curvature="0"
       id="path5058"
       d="m 1480.9424,434.81508 c 4.6668,19.70442 14.519,30.07516 19.1859,32.14931 4.6668,2.07415 16.2199,7.77924 21.2588,11.33459 4.1495,2.9624 11.1881,5.84802 8.0769,9.47778 -3.1112,3.62976 -29.8543,18.07793 -27.7801,31.5599 2.0741,13.48196 9.3337,15.55611 21.26,16.59319 11.9264,1.03707 27.4825,2.59268 30.0752,12.44489 2.5927,9.85221 -5.1854,18.66734 -10.3708,21.77857 -5.1854,3.11122 -38.8903,17.63026 -45.6313,24.88978 -6.7409,7.25953 -22.8156,32.14931 -13.4819,42.00152 4.6668,-17.11173 7.7353,-25.24497 14.9948,-30.43034 7.2596,-5.18538 19.7472,-15.71947 30.1179,-17.27508 10.3708,-1.55562 31.1123,-3.11123 36.2976,-10.37075 5.1854,-7.25952 12.9635,-26.96394 8.2966,-36.81614 -4.6668,-9.85221 -15.0376,-18.14881 -33.1864,-18.14881 -11.9263,-1.03707 -17.6302,-2.59268 -18.1488,-5.70391 -0.5185,-3.11122 7.2596,-11.92636 18.1488,-16.07465 10.8893,-4.1483 18.1488,-11.40782 16.0747,-17.63027 -2.0742,-6.22245 -16.8105,-17.48379 -19.9218,-22.66917 -3.1112,-5.18537 -24.1539,-32.81432 -24.1539,-32.81432 z"
       style="color:#000000;fill:#ffffff;fill-opacity:1;fill-rule:nonzero;stroke:none;stroke-width:1px;marker:none;visibility:visible;display:inline;overflow:visible;enable-background:accumulate" />
    <path
       inkscape:connector-curvature="0"
       id="path5066"
       d="m 1169.82,569.11623 c 6.2225,27.48248 16.5932,59.11325 19.7045,66.37277 6.2224,-7.25952 12.9634,-12.44489 18.1488,-16.59319 4.6668,14.0005 22.8156,80.37327 20.7414,97.485 6.741,-42.00152 -3.6297,-93.3367 -12.9634,-115.63381 -7.778,4.1483 -11.9263,7.77806 -16.0746,9.85221 -5.1854,-10.88928 -14.5191,-49.77957 -14.5191,-49.77957 z"
       style="color:#000000;fill:#ffffff;fill-opacity:1;fill-rule:nonzero;stroke:none;stroke-width:1px;marker:none;visibility:visible;display:inline;overflow:visible;enable-background:accumulate" />
    <path
       sodipodi:nodetypes="ccccsccc"
       inkscape:connector-curvature="0"
       id="path5074"
       d="m 1429.6072,851.71903 c 36.8161,-34.22345 74.1508,-91.78109 5.1854,-131.18992 -1.5556,-37.85322 -7.1179,-66.37345 -64.8172,-94.89232 38.3718,29.03809 56.002,49.26104 53.9279,105.26306 32.6678,24.88979 31.1122,70.52107 -21.26,104.22599 -52.3723,33.70492 -40.9645,20.74149 -40.9645,20.74149 l 52.8908,6.22245 z"
       style="color:#000000;fill:#ffffff;fill-opacity:1;fill-rule:nonzero;stroke:none;stroke-width:1px;marker:none;visibility:visible;display:inline;overflow:visible;enable-background:accumulate" />
    <path
       inkscape:connector-curvature="0"
       id="path5082"
       d="m 2012.9616,725.71448 c 12.9634,-10.88928 33.7049,-7.25952 33.7049,-7.25952 0,0 4.6669,-15.55612 39.4089,-20.22295 34.742,-4.66684 48.7425,12.44489 48.7425,12.44489 0,0 8.2966,-10.37074 23.8527,-9.33367 15.5561,1.03708 25.9268,13.48197 25.9268,13.48197 0,0 6.741,-9.85221 20.223,-8.81513 13.482,1.03707 21.7786,8.81513 21.7786,8.81513 0,0 9.3336,-12.44489 22.2971,-11.40782 12.9634,1.03707 30.0751,18.1488 30.0751,18.1488 0,0 9.3337,-13.48196 28.001,-12.44489 18.6674,1.03707 36.2976,14.00051 40.9645,17.63027 4.6668,3.62976 10.3707,11.92635 10.3707,11.92635 0,0 15.5561,1.03708 21.26,7.77806 5.704,6.74099 4.6669,25.92686 4.6669,25.92686 0,0 19.1859,9.33368 21.7785,23.33418 2.5927,14.00051 -9.8522,30.5937 -9.8522,30.5937 0,0 19.7045,16.07465 16.0747,32.14931 -3.6298,16.07465 -22.2971,18.1488 -22.2971,18.1488 0,0 20.7415,18.66734 16.0746,32.14931 -4.6668,13.48197 -25.4083,22.2971 -25.4083,22.2971 0,0 8.2966,12.4449 3.6298,15.55612 -4.6669,3.11122 -13.482,4.1483 -13.482,4.1483 0,0 -4.1483,12.44489 -14.0005,17.11173 -9.8522,4.66683 -36.2976,1.03707 -36.2976,1.03707 0,0 1.5556,9.85221 -9.8522,14.51905 -11.4078,4.66683 -29.5566,-3.62976 -29.5566,-3.62976 0,0 0,9.8522 -12.9635,15.03758 -12.9634,5.18538 -25.4083,-10.37075 -25.4083,-10.37075 0,0 -4.1483,10.88928 -21.7786,11.40782 -17.6302,0.51854 -23.8527,-19.18588 -23.8527,-19.18588 0,0 -3.6297,17.63027 -17.1117,18.66734 -13.482,1.03708 -24.3712,-17.63026 -24.3712,-17.63026 0,0 -6.2225,17.63026 -19.1859,16.07465 -12.9635,-1.55561 -19.1859,-16.59319 -19.1859,-16.59319 0,0 -15.5561,10.37074 -25.4083,5.70391 -9.8522,-4.66684 -10.3708,-10.88928 -10.3708,-10.88928 0,0 -39.9273,3.62976 -56.002,-15.03758 -16.0747,-18.66734 -7.2595,-23.85272 -7.2595,-23.85272 0,0 -18.1488,1.03708 -24.8898,-12.96343 -6.741,-14.0005 3.6298,-26.96394 3.6298,-26.96394 0,0 -22.8157,-10.88928 -23.8528,-23.85271 -1.037,-12.96343 14.0005,-26.4454 14.0005,-26.4454 0,0 -16.5931,-8.81513 -15.0375,-19.18588 1.5556,-10.37074 11.4078,-20.22295 11.4078,-20.22295 0,0 -10.8893,-9.33367 -2.5927,-27.48247 8.2966,-18.14881 21.26,-26.96394 21.26,-26.96394 0,0 -6.741,-6.22245 10.8893,-23.33418 z"
       style="color:#000000;fill:#ffffff;fill-opacity:1;fill-rule:nonzero;stroke:none;stroke-width:1px;marker:none;visibility:visible;display:inline;overflow:visible;enable-background:accumulate" />
    <path
       inkscape:connector-curvature="0"
       id="path5090"
       d="m 2236.4512,645.85975 c 6.7409,-17.11173 21.7785,-18.14881 21.7785,-18.14881 0,0 -0.5185,-12.96343 9.8522,-20.22295 10.3708,-7.25952 22.8157,0.51854 22.8157,0.51854 0,0 17.1117,-2.59269 25.4083,13.48196 8.2966,16.07466 14.0005,23.85272 6.2224,39.92737 5.704,8.81514 0,27.48248 -8.2965,31.11224 -8.2966,3.62976 -28.5196,9.85221 -39.9274,-8.81514 -9.3337,3.11123 -37.8532,5.18538 -37.8532,-37.85321 z"
       style="color:#000000;fill:#ffffff;fill-opacity:1;fill-rule:nonzero;stroke:none;stroke-width:1px;marker:none;visibility:visible;display:inline;overflow:visible;enable-background:accumulate" />
    <path
       inkscape:connector-curvature="0"
       id="path5098"
       d="m 2222.4507,545.78206 c -1.5557,-11.40782 8.2966,-17.11173 8.2966,-17.11173 0,0 -9.8523,-8.81514 1.5556,-17.63027 11.4078,-8.81513 21.7785,2.07415 21.7785,2.07415 0,0 14.5191,-17.11173 28.001,2.59269 13.482,19.70441 0,30.59369 0,30.59369 0,0 7.7781,20.74149 -12.9634,25.40833 -20.7415,4.66683 -26.4454,1.55561 -31.6308,-10.88928 -14.519,-4.1483 -15.0375,-15.03758 -15.0375,-15.03758 z"
       style="color:#000000;fill:#ffffff;fill-opacity:1;fill-rule:nonzero;stroke:none;stroke-width:1px;marker:none;visibility:visible;display:inline;overflow:visible;enable-background:accumulate" />
    <path
       inkscape:connector-curvature="0"
       id="path5106"
       d="m 2172.6711,455.03804 c -7.2595,-9.85221 -2.5927,-20.22296 3.6297,-22.2971 6.2225,-2.07415 19.1859,-0.51854 22.8157,9.8522 10.3707,-4.66683 17.1117,4.66684 17.6302,8.81514 0.5186,4.14829 -0.5185,12.44489 -0.5185,12.44489 0,0 8.2966,25.40833 -5.1854,32.66785 -13.4819,7.25952 -26.4454,-5.18538 -26.4454,-17.63027 -9.8522,5.18537 -19.7044,-1.03707 -18.6673,-8.2966 1.0371,-7.25952 6.741,-15.55611 6.741,-15.55611 z"
       style="color:#000000;fill:#ffffff;fill-opacity:1;fill-rule:nonzero;stroke:none;stroke-width:1px;marker:none;visibility:visible;display:inline;overflow:visible;enable-background:accumulate" />
    <path
       inkscape:connector-curvature="0"
       id="path5114"
       d="m 1106.5134,1407.2077 c -0.4509,-15.3307 -19.8397,-30.6613 -18.9379,-45.5411 0.9018,-14.8798 19.3888,-27.9559 31.1123,-6.7635 9.4689,-9.469 21.6433,-10.8217 29.3086,-2.7054 7.6653,8.1162 15.7816,14.8797 5.4108,28.8577 -10.3707,13.9779 -41.0321,15.7816 -46.8938,26.1523 z"
       style="color:#000000;fill:#ffffff;fill-opacity:1;fill-rule:nonzero;stroke:none;stroke-width:1px;marker:none;visibility:visible;display:inline;overflow:visible;enable-background:accumulate" />
    <path
       inkscape:connector-curvature="0"
       id="path5122"
       d="m 624.59723,1243.001 c 0,0 6.27342,-19.2124 24.70159,-17.644 18.42817,1.5683 36.46424,25.4857 -14.50728,71.7522 -8.62595,-9.018 -43.12975,-26.662 -44.69811,-41.1693 -1.56835,-14.5073 13.33102,-37.2484 34.5038,-12.9389 z"
       style="color:#000000;fill:#ffffff;fill-opacity:1;fill-rule:nonzero;stroke:none;stroke-width:1px;marker:none;visibility:visible;display:inline;overflow:visible;enable-background:accumulate" />
    <path
       inkscape:connector-curvature="0"
       id="path5130"
       d="m 853.92715,1278.7345 c 0,0 50.09069,-86.4661 118.07093,-76.925 67.98022,9.541 103.16302,51.2833 92.42922,133.5752 -10.7337,82.2918 -116.28194,166.969 -131.18988,180.6843 -14.90795,13.7153 -19.67849,16.1005 -21.46744,26.2379 -47.10911,-9.541 -180.08799,-36.3753 -226.00447,-121.0525 -45.91647,-84.6771 -31.00852,-134.1715 14.31163,-165.7763 45.32016,-31.6049 103.16299,-56.0539 153.85001,23.2564 z"
       style="color:#000000;fill:#ffffff;fill-opacity:1;fill-rule:nonzero;stroke:none;stroke-width:1px;marker:none;visibility:visible;display:inline;overflow:visible;enable-background:accumulate" />
    <path
       inkscape:connector-curvature="0"
       id="path5138"
       d="m 1075.4012,1487.9192 c -57.7155,3.6072 -92.43493,-15.7816 -115.88183,-32.465 -23.44691,-16.6834 -18.93789,-50.9519 -18.93789,-50.9519 l 52.75553,0.4509 c 0,0 13.52709,51.8537 28.40679,61.3227 14.8798,9.4689 36.5231,22.996 53.6574,21.6433 z"
       style="color:#000000;fill:#ffffff;fill-opacity:1;fill-rule:nonzero;stroke:none;stroke-width:1px;marker:none;visibility:visible;display:inline;overflow:visible;enable-background:accumulate" />
    <path
       inkscape:connector-curvature="0"
       id="path5146"
       d="m 795.7695,1586.5388 c 0,-9.8874 11.93314,-36.1403 9.88746,-43.3002 -2.04568,-7.1599 -10.2284,-22.8434 -21.47964,-19.7749 -11.25124,3.0685 -13.29692,8.5237 -12.95598,14.3198 -7.15988,-6.819 -27.95762,-12.2741 -33.41277,-2.7276 -5.45514,9.5465 -6.13704,21.8206 13.97881,31.0261 20.11586,9.2056 35.45846,8.5237 43.98212,20.4568 z"
       style="color:#000000;fill:#ffffff;fill-opacity:1;fill-rule:nonzero;stroke:none;stroke-width:1px;marker:none;visibility:visible;display:inline;overflow:visible;enable-background:accumulate" />
    <path
       inkscape:connector-curvature="0"
       id="path5154"
       d="m 926.0816,1956.7478 c -9.54108,-38.7606 6.5595,-56.6502 21.46745,-62.017 14.90794,-5.3669 21.46744,-8.9448 18.48585,-15.5043 -2.98159,-6.5595 -36.97171,-8.9447 -37.56802,-18.4858 -0.59632,-9.5411 14.90794,-38.7607 33.39379,-39.357 18.48586,-0.5963 28.02694,-10.7337 34.58644,-11.9264 6.55949,-1.1926 51.87969,0 59.03549,-4.1742 7.1558,-4.1742 73.9434,-29.2196 95.4108,-75.136 21.4675,-45.9165 -4.1742,-7.7522 -42.9349,10.7337 -38.7606,18.4858 -77.5213,13.7153 -90.6403,20.2748 -13.119,6.5595 -24.449,26.8343 -38.16431,29.2196 -13.71531,2.3852 -49.49438,-5.3669 -66.19128,6.5595 -16.6969,11.9263 -40.54961,36.9717 -34.58643,53.6686 5.96318,16.6969 36.9717,20.2748 41.74225,23.8527 -8.34845,12.5227 -20.87113,31.0085 -19.08218,42.9349 1.78896,11.9263 4.17423,28.6232 25.04535,39.3569 z"
       style="color:#000000;fill:#ffffff;fill-opacity:1;fill-rule:nonzero;stroke:none;stroke-width:1px;marker:none;visibility:visible;display:inline;overflow:visible;enable-background:accumulate" />
    <flowRoot
       transform="matrix(0.56421638,-0.28299338,0.40834508,0.9532616,1627.0886,1315.3263)"
       style="font-style:normal;font-variant:normal;font-weight:normal;font-stretch:normal;line-height:0.01%;font-family:Lavi;-inkscape-font-specification:Lavi;letter-spacing:0px;word-spacing:0px;fill:#ffffff;fill-opacity:1;stroke:#d85e10;stroke-opacity:1;filter:url(#filter4968-5)"
       id="flowRoot2987-7-9-9-8"
       xml:space="preserve"><flowRegion
         id="flowRegion2989-4-5-8-4"><rect
           style="font-style:normal;font-variant:normal;font-weight:normal;font-stretch:normal;font-family:Lavi;-inkscape-font-specification:Lavi;fill:#ffffff;fill-opacity:1;stroke:#d85e10;stroke-opacity:1"
           y="265.53046"
           x="120.55251"
           height="141.89404"
           width="417.15793"
           id="rect2991-45-1-3-5" /></flowRegion><flowPara
         style="font-size:48px;line-height:1.25;fill:#ffffff;fill-opacity:1;stroke:#d85e10;stroke-width:3.93893;stroke-miterlimit:4;stroke-dasharray:none;stroke-opacity:1"
         id="flowPara2995-4-1-5-2">CAT FOOD</flowPara></flowRoot>
    <path
       sodipodi:nodetypes="cccssccccccccccccc"
       inkscape:connector-curvature="0"
       id="path5162"
       d="m 1924.9438,1496.4501 c -4.8004,54.1755 -0.6858,78.863 4.8004,91.8926 19.1524,-4.4576 31.0358,-5.7603 34.2882,-13.7153 -8.2292,13.0295 -12.3437,32.9167 -19.8872,37.0313 -7.5434,4.1146 -71.3196,35.6598 -79.5488,40.4602 -8.2292,4.8003 6.8577,8.2292 6.8577,8.2292 l 50.0609,-6.8577 -37.7171,27.4306 26.0591,4.8004 130.2954,-41.1459 -2.7431,-10.2865 -17.1441,-2.0573 20.573,-4.8004 -5.4862,-10.2865 -64.4619,-4.8003 c 0,0 20.573,-41.8317 26.7448,-56.2328 -19.9985,-8.5809 -45.2605,6.8577 -51.4324,7.5434 -12.1474,-13.2081 -10.4793,-38.4181 -21.2587,-67.205 z"
       style="color:#000000;fill:#ffffff;fill-opacity:1;fill-rule:nonzero;stroke:none;stroke-width:1px;marker:none;visibility:visible;display:inline;overflow:visible;enable-background:accumulate" />
    <path
       inkscape:connector-curvature="0"
       id="path5219"
       d="m 260.5909,2649.2219 c -37.03134,-20.5729 -124.12356,-17.1441 -120.69473,16.4584 3.42882,33.6025 52.11817,-15.0868 79.54879,-3.4288 27.43063,11.658 -3.42882,30.1737 -13.02954,43.889 -9.60072,13.7153 41.8317,5.4861 43.20323,18.5156 1.37153,13.0296 -4.80036,33.6026 -33.60251,39.0887 -28.80215,5.4861 -15.08684,30.1737 -15.08684,30.1737 0,0 2.05729,-15.7726 12.34378,-18.5157 10.28648,-2.7431 53.48971,-14.4011 55.547,-37.0313 2.0573,-22.6303 -16.45837,-38.4029 -36.34557,-37.0314 -1.37153,-0.6858 40.46016,-12.3438 28.11639,-52.1182 z"
       style="fill:#ffffff;stroke:none;stroke-width:1px;stroke-linecap:butt;stroke-linejoin:miter;stroke-opacity:1;color:#000000;fill-opacity:1;fill-rule:nonzero;stroke-miterlimit:4;stroke-dasharray:none;stroke-dashoffset:0;marker:none;visibility:visible;display:inline;overflow:visible;enable-background:accumulate" />
    <path
       sodipodi:nodetypes="csssscsscssssssscsssssc"
       inkscape:connector-curvature="0"
       id="path5255"
       d="m 1212.1248,2823.9893 c 20.5044,-10.2522 42.5861,-30.7566 41.7974,-42.5861 -0.7886,-11.8294 -5.5204,-38.6428 -32.3338,-36.277 -26.8134,2.3659 -67.0336,13.4068 -77.2858,18.9272 -10.2522,5.5204 -31.5452,19.7157 -46.5292,5.5204 -14.9839,-14.1954 -9.4635,-26.8134 -5.5204,-33.1225 3.9432,-6.309 17.3499,-27.6021 12.6181,-31.5452 -4.7318,-3.9432 -26.8134,11.8294 -32.3338,18.1385 -5.5204,6.309 -43.3747,34.6997 -52.0496,35.4884 -8.675,0.7886 -52.83827,7.8863 -67.82225,-1.5773 -14.98397,-9.4636 -40.22014,-24.4475 -22.08165,-54.4155 18.1385,-29.968 46.52919,-11.0408 51.26098,-3.9431 4.73178,7.0976 -0.78863,27.602 5.52041,29.9679 6.30904,2.3659 53.62691,-0.7886 60.72451,-16.5612 7.0977,-15.7726 60.7246,-43.3747 74.9199,-41.0088 14.1954,2.3659 32.3339,7.8863 29.968,32.3338 -2.3659,24.4476 -11.8295,20.5044 -7.8863,28.3907 13.4067,-8.6749 85.9607,-27.602 97.7901,-22.8703 11.8295,4.7318 41.0088,11.8295 46.5292,42.5861 5.5204,30.7566 -9.4636,48.8951 -27.6021,63.0904 -18.1385,14.1954 -40.7066,24.7826 -56.4792,27.9371 -15.7727,3.1545 -62.679,6.2874 -62.1606,0.1403 0.5602,-6.6423 50.029,-16.2479 68.9561,-18.6138 z"
       style="color:#000000;fill:#ffffff;fill-opacity:1;fill-rule:nonzero;stroke:none;stroke-width:1px;marker:none;visibility:visible;display:inline;overflow:visible;enable-background:accumulate" />
    <g
       style="fill:#ffffff"
       transform="matrix(1.0032789,0,0,1,-3.973648,0)"
       id="g5381">
      <path
         style="color:#000000;fill:#ffffff;fill-opacity:1;fill-rule:nonzero;stroke:none;stroke-width:1px;marker:none;visibility:visible;display:inline;overflow:visible;enable-background:accumulate"
         d="m 1225.2771,3157.962 c -4.7051,-6.6655 -4.7051,-15.2915 -4.7051,-16.8598 0,-1.5684 0.3921,-7.4497 0.3921,-7.4497 l -3.1367,-1.1763 2.7446,-5.0971 -3.1367,0.3921 c 0,0 7.4497,-9.0181 9.018,-11.7627 1.5684,-2.7446 4.313,-9.018 4.313,-9.018 0,0 14.5073,-1.9605 17.644,-3.1368 3.1367,-1.1762 12.5468,-11.3705 12.5468,-11.3705 0,0 11.3706,5.4892 15.6836,6.2734 4.3129,0.7842 24.3095,1.9604 27.8383,0 3.5288,-1.9605 7.0576,-4.7051 7.0576,-4.7051 0,0 9.018,-0.7841 11.3705,-1.9604 2.3526,-1.1763 6.6655,-3.9209 6.6655,-3.9209 0,0 7.4497,0.7842 10.5864,0.3921 3.1367,-0.3921 17.644,0 19.2124,0 1.5683,0 12.5468,6.6655 12.5468,6.6655 l 7.0576,6.6655 c 0,0 5.8813,-0.3921 8.626,-1.1763 2.7446,-0.7841 5.0971,3.1367 5.0971,3.1367 0,0 10.5864,23.9175 12.1548,28.6225 1.5683,4.7051 2.3525,14.1152 2.3525,14.1152 0,0 -4.313,7.4497 -6.6655,10.5864 -2.3525,3.1367 -9.018,10.5864 -12.5468,13.331 -3.5288,2.7446 -7.8418,7.0576 -12.1548,4.313 -4.313,-2.7446 -8.6259,-2.3525 -10.1943,-0.3921 -1.5684,1.9604 -12.9389,15.6836 -16.8598,14.1152 -3.9209,-1.5684 -17.2519,-3.9209 -21.1728,-7.4497 -3.9209,-3.5288 -10.1943,4.7051 -12.9389,2.3525 -2.7446,-2.3525 -6.6655,-6.6655 -9.4102,-6.6655 -2.7446,0 -35.68,9.8023 -39.6009,8.2339 -3.9209,-1.5684 -24.7016,-14.5073 -27.0541,-16.0756 -2.3526,-1.5684 -8.2339,-10.9785 -8.2339,-10.9785 z"
         id="path5263"
         inkscape:connector-curvature="0" />
      <path
         style="font-size:medium;font-style:normal;font-variant:normal;font-weight:normal;font-stretch:normal;text-indent:0;text-align:start;text-decoration:none;line-height:normal;letter-spacing:normal;word-spacing:normal;text-transform:none;direction:ltr;block-progression:tb;writing-mode:lr-tb;text-anchor:start;baseline-shift:baseline;color:#000000;fill:#ffffff;fill-opacity:1;fill-rule:nonzero;stroke:none;stroke-width:1px;marker:none;visibility:visible;display:inline;overflow:visible;enable-background:accumulate;font-family:Sans;-inkscape-font-specification:Sans"
         d="m 1236.8125,3095.4062 a 2.20022,2.20022 0 0 0 -0.1563,0.031 l -9.875,1.375 a 2.20022,2.20022 0 0 0 -1.4374,0.8125 l -12.9688,16.3438 a 2.2133161,2.2133161 0 1 0 3.4688,2.75 l 12.375,-15.6876 9.0312,-1.25 a 2.20022,2.20022 0 0 0 -0.4375,-4.375 z"
         id="path5271"
         inkscape:connector-curvature="0" />
      <path
         style="font-size:medium;font-style:normal;font-variant:normal;font-weight:normal;font-stretch:normal;text-indent:0;text-align:start;text-decoration:none;line-height:normal;letter-spacing:normal;word-spacing:normal;text-transform:none;direction:ltr;block-progression:tb;writing-mode:lr-tb;text-anchor:start;baseline-shift:baseline;color:#000000;fill:#ffffff;fill-opacity:1;fill-rule:nonzero;stroke:none;stroke-width:1px;marker:none;visibility:visible;display:inline;overflow:visible;enable-background:accumulate;font-family:Sans;-inkscape-font-specification:Sans"
         d="m 1252.1562,3077.3125 a 2.20022,2.20022 0 0 0 -1.625,0.9063 l -7.8124,10.5312 -11.3438,-5.0625 a 2.20022,2.20022 0 0 0 -2.3125,0.3125 l -14.6563,12.2812 a 2.20022,2.20022 0 1 0 2.8126,3.375 l 13.5937,-11.4062 11.7187,5.25 a 2.20022,2.20022 0 0 0 2.6563,-0.7188 l 8.875,-11.9374 a 2.20022,2.20022 0 0 0 -1.9063,-3.5313 z"
         id="path5273"
         inkscape:connector-curvature="0" />
      <path
         style="font-size:medium;font-style:normal;font-variant:normal;font-weight:normal;font-stretch:normal;text-indent:0;text-align:start;text-decoration:none;line-height:normal;letter-spacing:normal;word-spacing:normal;text-transform:none;direction:ltr;block-progression:tb;writing-mode:lr-tb;text-anchor:start;baseline-shift:baseline;color:#000000;fill:#ffffff;fill-opacity:1;fill-rule:nonzero;stroke:none;stroke-width:1px;marker:none;visibility:visible;display:inline;overflow:visible;enable-background:accumulate;font-family:Sans;-inkscape-font-specification:Sans"
         d="m 1267.9375,3079.7188 a 2.20022,2.20022 0 0 0 -1,0.2812 l -10.2187,5.4375 a 2.20022,2.20022 0 1 0 2.0624,3.875 l 8.8126,-4.6563 6.3437,6.3438 a 2.20022,2.20022 0 0 0 1.2187,0.625 l 2.4063,0.3125 a 2.20022,2.20022 0 1 0 0.625,-4.3437 l -1.6875,-0.25 -6.9688,-6.9688 a 2.20022,2.20022 0 0 0 -1.5937,-0.6562 z"
         id="path5275"
         inkscape:connector-curvature="0" />
      <path
         style="font-size:medium;font-style:normal;font-variant:normal;font-weight:normal;font-stretch:normal;text-indent:0;text-align:start;text-decoration:none;line-height:normal;letter-spacing:normal;word-spacing:normal;text-transform:none;direction:ltr;block-progression:tb;writing-mode:lr-tb;text-anchor:start;baseline-shift:baseline;color:#000000;fill:#ffffff;fill-opacity:1;fill-rule:nonzero;stroke:none;stroke-width:1px;marker:none;visibility:visible;display:inline;overflow:visible;enable-background:accumulate;font-family:Sans;-inkscape-font-specification:Sans"
         d="m 1265.2812,3072.9062 a 2.20022,2.20022 0 0 0 -0.25,4.3438 l 14.375,3.8438 4.6876,9.3124 a 2.2010735,2.2010735 0 0 0 3.9374,-1.9687 l -5.125,-10.2187 a 2.20022,2.20022 0 0 0 -1.4062,-1.1563 L 1266.1562,3073 a 2.20022,2.20022 0 0 0 -0.875,-0.094 z"
         id="path5277"
         inkscape:connector-curvature="0" />
      <path
         style="font-size:medium;font-style:normal;font-variant:normal;font-weight:normal;font-stretch:normal;text-indent:0;text-align:start;text-decoration:none;line-height:normal;letter-spacing:normal;word-spacing:normal;text-transform:none;direction:ltr;block-progression:tb;writing-mode:lr-tb;text-anchor:start;baseline-shift:baseline;color:#000000;fill:#ffffff;fill-opacity:1;fill-rule:nonzero;stroke:none;stroke-width:1px;marker:none;visibility:visible;display:inline;overflow:visible;enable-background:accumulate;font-family:Sans;-inkscape-font-specification:Sans"
         d="m 1343.875,3078.6875 a 2.20022,2.20022 0 0 0 -0.7812,0.2187 l -4.4376,2.0626 a 2.20022,2.20022 0 1 0 1.8438,3.9687 l 4.4375,-2.0313 a 2.20022,2.20022 0 0 0 -1.0625,-4.2187 z"
         id="path5279"
         inkscape:connector-curvature="0" />
      <path
         style="font-size:medium;font-style:normal;font-variant:normal;font-weight:normal;font-stretch:normal;text-indent:0;text-align:start;text-decoration:none;line-height:normal;letter-spacing:normal;word-spacing:normal;text-transform:none;direction:ltr;block-progression:tb;writing-mode:lr-tb;text-anchor:start;baseline-shift:baseline;color:#000000;fill:#ffffff;fill-opacity:1;fill-rule:nonzero;stroke:none;stroke-width:1px;marker:none;visibility:visible;display:inline;overflow:visible;enable-background:accumulate;font-family:Sans;-inkscape-font-specification:Sans"
         d="m 1353.5625,3079.375 a 2.2031,2.2031 0 1 0 0,4.4062 l 16.5313,0 8.9374,7.9688 a 2.2020313,2.2020313 0 1 0 2.9376,-3.2812 l -9.5626,-8.5313 a 2.20022,2.20022 0 0 0 -1.4687,-0.5625 l -17.375,0 z"
         id="path5281"
         inkscape:connector-curvature="0" />
      <path
         style="font-size:medium;font-style:normal;font-variant:normal;font-weight:normal;font-stretch:normal;text-indent:0;text-align:start;text-decoration:none;line-height:normal;letter-spacing:normal;word-spacing:normal;text-transform:none;direction:ltr;block-progression:tb;writing-mode:lr-tb;text-anchor:start;baseline-shift:baseline;color:#000000;fill:#ffffff;fill-opacity:1;fill-rule:nonzero;stroke:none;stroke-width:1px;marker:none;visibility:visible;display:inline;overflow:visible;enable-background:accumulate;font-family:Sans;-inkscape-font-specification:Sans"
         d="m 1365,3069.8438 a 2.2036013,2.2036013 0 1 0 0.094,4.4062 l 10,0.3125 4.8124,5.125 a 2.20022,2.20022 0 1 0 3.2188,-3 l -5.4688,-5.8125 a 2.20022,2.20022 0 0 0 -1.5312,-0.6875 l -10.9062,-0.3437 a 2.20022,2.20022 0 0 0 -0.2188,0 z"
         id="path5283"
         inkscape:connector-curvature="0" />
      <path
         style="font-size:medium;font-style:normal;font-variant:normal;font-weight:normal;font-stretch:normal;text-indent:0;text-align:start;text-decoration:none;line-height:normal;letter-spacing:normal;word-spacing:normal;text-transform:none;direction:ltr;block-progression:tb;writing-mode:lr-tb;text-anchor:start;baseline-shift:baseline;color:#000000;fill:#ffffff;fill-opacity:1;fill-rule:nonzero;stroke:none;stroke-width:1px;marker:none;visibility:visible;display:inline;overflow:visible;enable-background:accumulate;font-family:Sans;-inkscape-font-specification:Sans"
         d="m 1397.4375,3095.0625 a 2.20022,2.20022 0 0 0 -0.25,4.375 l 15.5,2.5 2.125,12.0937 a 2.2066945,2.2066945 0 0 0 4.3437,-0.7812 l -2.4062,-13.625 a 2.20022,2.20022 0 0 0 -1.8125,-1.7812 l -17.0625,-2.75 a 2.20022,2.20022 0 0 0 -0.4375,-0.031 z"
         id="path5285"
         inkscape:connector-curvature="0" />
      <path
         style="font-size:medium;font-style:normal;font-variant:normal;font-weight:normal;font-stretch:normal;text-indent:0;text-align:start;text-decoration:none;line-height:normal;letter-spacing:normal;word-spacing:normal;text-transform:none;direction:ltr;block-progression:tb;writing-mode:lr-tb;text-anchor:start;baseline-shift:baseline;color:#000000;fill:#ffffff;fill-opacity:1;fill-rule:nonzero;stroke:none;stroke-width:1px;marker:none;visibility:visible;display:inline;overflow:visible;enable-background:accumulate;font-family:Sans;-inkscape-font-specification:Sans"
         d="m 1397.875,3101.1875 a 2.20022,2.20022 0 0 0 -1.0312,4.1563 l 3.5937,1.9062 5.875,22.9688 a 2.2094076,2.2094076 0 1 0 4.2813,-1.0938 l -6.1563,-23.875 a 2.20022,2.20022 0 0 0 -1.0937,-1.375 l -4.4063,-2.4062 a 2.20022,2.20022 0 0 0 -1.0625,-0.2813 z"
         id="path5287"
         inkscape:connector-curvature="0" />
      <path
         style="font-size:medium;font-style:normal;font-variant:normal;font-weight:normal;font-stretch:normal;text-indent:0;text-align:start;text-decoration:none;line-height:normal;letter-spacing:normal;word-spacing:normal;text-transform:none;direction:ltr;block-progression:tb;writing-mode:lr-tb;text-anchor:start;baseline-shift:baseline;color:#000000;fill:#ffffff;fill-opacity:1;fill-rule:nonzero;stroke:none;stroke-width:1px;marker:none;visibility:visible;display:inline;overflow:visible;enable-background:accumulate;font-family:Sans;-inkscape-font-specification:Sans"
         d="m 1412.125,3144.4688 a 2.20022,2.20022 0 0 0 -2.0312,1.625 l -2.9688,10.1874 -3.875,5.5313 a 2.20022,2.20022 0 1 0 3.5938,2.5313 l 4.0937,-5.7813 a 2.20022,2.20022 0 0 0 0.3125,-0.6563 l 3.0625,-10.5937 a 2.20022,2.20022 0 0 0 -2.1875,-2.8437 z"
         id="path5289"
         inkscape:connector-curvature="0" />
      <path
         style="font-size:medium;font-style:normal;font-variant:normal;font-weight:normal;font-stretch:normal;text-indent:0;text-align:start;text-decoration:none;line-height:normal;letter-spacing:normal;word-spacing:normal;text-transform:none;direction:ltr;block-progression:tb;writing-mode:lr-tb;text-anchor:start;baseline-shift:baseline;color:#000000;fill:#ffffff;fill-opacity:1;fill-rule:nonzero;stroke:none;stroke-width:1px;marker:none;visibility:visible;display:inline;overflow:visible;enable-background:accumulate;font-family:Sans;-inkscape-font-specification:Sans"
         d="m 1417.4062,3142.0938 a 2.20022,2.20022 0 0 0 -1.9374,2 l -1,9.5624 -3.2813,7.9063 a 2.20022,2.20022 0 1 0 4.0625,1.6875 l 3.4062,-8.1875 a 2.20022,2.20022 0 0 0 0.1563,-0.625 l 1.0313,-9.875 a 2.20022,2.20022 0 0 0 -2.4376,-2.4687 z"
         id="path5291"
         inkscape:connector-curvature="0" />
      <path
         style="font-size:medium;font-style:normal;font-variant:normal;font-weight:normal;font-stretch:normal;text-indent:0;text-align:start;text-decoration:none;line-height:normal;letter-spacing:normal;word-spacing:normal;text-transform:none;direction:ltr;block-progression:tb;writing-mode:lr-tb;text-anchor:start;baseline-shift:baseline;color:#000000;fill:#ffffff;fill-opacity:1;fill-rule:nonzero;stroke:none;stroke-width:1px;marker:none;visibility:visible;display:inline;overflow:visible;enable-background:accumulate;font-family:Sans;-inkscape-font-specification:Sans"
         d="m 1390.3125,3173.8125 a 2.20022,2.20022 0 0 0 -1,0.2813 l -7.125,3.875 -7.3437,0.6562 a 2.20022,2.20022 0 1 0 0.375,4.375 l 7.8437,-0.6875 a 2.20022,2.20022 0 0 0 0.875,-0.25 l 7.5,-4.0937 a 2.20022,2.20022 0 0 0 -1.125,-4.1563 z"
         id="path5293"
         inkscape:connector-curvature="0" />
      <path
         style="font-size:medium;font-style:normal;font-variant:normal;font-weight:normal;font-stretch:normal;text-indent:0;text-align:start;text-decoration:none;line-height:normal;letter-spacing:normal;word-spacing:normal;text-transform:none;direction:ltr;block-progression:tb;writing-mode:lr-tb;text-anchor:start;baseline-shift:baseline;color:#000000;fill:#ffffff;fill-opacity:1;fill-rule:nonzero;stroke:none;stroke-width:1px;marker:none;visibility:visible;display:inline;overflow:visible;enable-background:accumulate;font-family:Sans;-inkscape-font-specification:Sans"
         d="m 1360.875,3185.4062 a 2.20022,2.20022 0 0 0 -1.4688,0.75 l -6.7812,7.6876 -12.2812,-1.1876 -8.0626,-5.5 a 2.205845,2.205845 0 1 0 -2.4687,3.6563 l 8.5313,5.7813 a 2.20022,2.20022 0 0 0 1.0312,0.375 l 13.9688,1.375 a 2.20022,2.20022 0 0 0 1.875,-0.75 l 7.5,-8.5313 a 2.20022,2.20022 0 0 0 -1.8438,-3.6563 z"
         id="path5295"
         inkscape:connector-curvature="0" />
      <path
         style="font-size:medium;font-style:normal;font-variant:normal;font-weight:normal;font-stretch:normal;text-indent:0;text-align:start;text-decoration:none;line-height:normal;letter-spacing:normal;word-spacing:normal;text-transform:none;direction:ltr;block-progression:tb;writing-mode:lr-tb;text-anchor:start;baseline-shift:baseline;color:#000000;fill:#ffffff;fill-opacity:1;fill-rule:nonzero;stroke:none;stroke-width:1px;marker:none;visibility:visible;display:inline;overflow:visible;enable-background:accumulate;font-family:Sans;-inkscape-font-specification:Sans"
         d="m 1299.0938,3181.6562 a 2.20022,2.20022 0 0 0 -1.125,3.9376 l 11.9374,9.5312 a 2.20022,2.20022 0 0 0 1.5,0.5 l 5.4688,-0.3438 a 2.20022,2.20022 0 0 0 1.5312,-0.75 l 2.375,-2.7187 a 2.2033255,2.2033255 0 1 0 -3.3124,-2.9063 l -1.7813,2.0313 -3.6875,0.2187 -11.2812,-9 a 2.20022,2.20022 0 0 0 -1.625,-0.5 z"
         id="path5297"
         inkscape:connector-curvature="0" />
      <path
         style="font-size:medium;font-style:normal;font-variant:normal;font-weight:normal;font-stretch:normal;text-indent:0;text-align:start;text-decoration:none;line-height:normal;letter-spacing:normal;word-spacing:normal;text-transform:none;direction:ltr;block-progression:tb;writing-mode:lr-tb;text-anchor:start;baseline-shift:baseline;color:#000000;fill:#ffffff;fill-opacity:1;fill-rule:nonzero;stroke:none;stroke-width:1px;marker:none;visibility:visible;display:inline;overflow:visible;enable-background:accumulate;font-family:Sans;-inkscape-font-specification:Sans"
         d="m 1243.5,3178.25 a 2.20022,2.20022 0 0 0 -0.75,4.1562 l 16.375,8.5313 a 2.20022,2.20022 0 0 0 0.2812,0.125 l 8.875,3.0625 a 2.20022,2.20022 0 0 0 1.5,0 l 8.5938,-3.3438 0.094,-0.031 7.0624,-1.6562 a 2.20022,2.20022 0 1 0 -1,-4.2813 l -7.1874,1.6875 a 2.20022,2.20022 0 0 0 -0.25,0.094 l -8.125,3.125 -7.8126,-2.6876 -0.094,-0.062 -16.2813,-8.4688 a 2.20022,2.20022 0 0 0 -1.2812,-0.25 z"
         id="path5299"
         inkscape:connector-curvature="0" />
      <path
         style="font-size:medium;font-style:normal;font-variant:normal;font-weight:normal;font-stretch:normal;text-indent:0;text-align:start;text-decoration:none;line-height:normal;letter-spacing:normal;word-spacing:normal;text-transform:none;direction:ltr;block-progression:tb;writing-mode:lr-tb;text-anchor:start;baseline-shift:baseline;color:#000000;fill:#ffffff;fill-opacity:1;fill-rule:nonzero;stroke:none;stroke-width:1px;marker:none;visibility:visible;display:inline;overflow:visible;enable-background:accumulate;font-family:Sans;-inkscape-font-specification:Sans"
         d="m 1229.0625,3164.9375 a 2.20022,2.20022 0 0 0 -1.3125,3.9375 l 3.4062,2.75 a 2.201074,2.201074 0 1 0 2.75,-3.4375 l -3.4062,-2.75 a 2.20022,2.20022 0 0 0 -1.4375,-0.5 z"
         id="path5301"
         inkscape:connector-curvature="0" />
    </g>
    <path
       inkscape:connector-curvature="0"
       id="path5303"
       d="m 1225.3623,3138.528 c -1.3638,0.341 -96.4879,38.186 -125.1274,42.2774 64.7798,-1.0228 139.4472,-29.3214 139.4472,-29.3214 z"
       style="fill:#ffffff;stroke:none;stroke-width:1px;stroke-linecap:butt;stroke-linejoin:miter;stroke-opacity:1;color:#000000;fill-opacity:1;fill-rule:nonzero;marker:none;visibility:visible;display:inline;overflow:visible;enable-background:accumulate" />
    <path
       inkscape:connector-curvature="0"
       id="path5400"
       d="m 1170.7767,2814.8844 3.1367,-5.8813 -2.3525,0 c 0,0 4.7051,-14.5073 12.5468,-10.9785 7.8418,3.5288 -3.1367,14.8994 -13.331,16.8598 z"
       style="fill:#ffffff;stroke:none;stroke-width:1px;stroke-linecap:butt;stroke-linejoin:miter;stroke-opacity:1;color:#000000;fill-opacity:1;fill-rule:nonzero;marker:none;visibility:visible;display:inline;overflow:visible;enable-background:accumulate" />
    <path
       inkscape:connector-curvature="0"
       id="path5408"
       d="m 1170.7767,2862.3271 c 0,0 12.5469,-0.7841 11.3706,1.9605 -1.1763,2.7446 -5.4892,1.5683 -5.4892,1.5683 0,0 6.2734,7.0576 3.5288,7.0576 -2.7447,0 -7.8418,-2.7446 -9.4102,-10.5864 z"
       style="fill:#ffffff;stroke:none;stroke-width:1px;stroke-linecap:butt;stroke-linejoin:miter;stroke-opacity:1;color:#000000;fill-opacity:1;fill-rule:nonzero;marker:none;visibility:visible;display:inline;overflow:visible;enable-background:accumulate" />
  </g>
  <g
     inkscape:label="txt"
     id="layer1"
     inkscape:groupmode="layer">
    <flowRoot
       transform="translate(24.606088,-155.08281)"
       style="font-style:normal;font-variant:normal;font-weight:normal;font-stretch:normal;line-height:0.01%;font-family:Lavi;-inkscape-font-specification:Lavi;letter-spacing:0px;word-spacing:0px;fill:#000000;fill-opacity:1;stroke:none"
       id="flowRoot2987"
       xml:space="preserve"><flowRegion
         id="flowRegion2989"><rect
           style="font-style:normal;font-variant:normal;font-weight:normal;font-stretch:normal;font-family:Lavi;-inkscape-font-specification:Lavi"
           y="265.53046"
           x="120.55251"
           height="141.89404"
           width="417.15793"
           id="rect2991" /></flowRegion><flowPara
         style="font-size:48px;line-height:1.25"
         id="flowPara2995">Carrot ?</flowPara></flowRoot>
    <flowRoot
       transform="translate(442.92828,592.66331)"
       style="font-style:normal;font-variant:normal;font-weight:normal;font-stretch:normal;line-height:0.01%;font-family:Lavi;-inkscape-font-specification:Lavi;letter-spacing:0px;word-spacing:0px;fill:#000000;fill-opacity:1;stroke:none"
       id="flowRoot2987-8"
       xml:space="preserve"><flowRegion
         id="flowRegion2989-3"><rect
           style="font-style:normal;font-variant:normal;font-weight:normal;font-stretch:normal;font-family:Lavi;-inkscape-font-specification:Lavi"
           y="265.53046"
           x="120.55251"
           height="183.84949"
           width="459.11337"
           id="rect2991-4" /></flowRegion><flowPara
         style="font-size:48px;line-height:1.25;text-align:center;text-anchor:middle"
         id="flowPara2995-5">Incriyablle ! Pin même souos l'lyit ?</flowPara><flowPara
         id="flowPara3812"
         style="font-size:48px;line-height:1.25;text-align:center;text-anchor:middle" /></flowRoot>
    <flowRoot
       transform="translate(1291.3959,102.20492)"
       style="font-style:normal;font-variant:normal;font-weight:normal;font-stretch:normal;line-height:0.01%;font-family:Lavi;-inkscape-font-specification:Lavi;letter-spacing:0px;word-spacing:0px;fill:#000000;fill-opacity:1;stroke:none"
       id="flowRoot2987-7"
       xml:space="preserve"><flowRegion
         id="flowRegion2989-4"><rect
           style="font-style:normal;font-variant:normal;font-weight:normal;font-stretch:normal;font-family:Lavi;-inkscape-font-specification:Lavi"
           y="265.53046"
           x="120.55251"
           height="141.89404"
           width="417.15793"
           id="rect2991-45" /></flowRegion><flowPara
         style="font-size:48px;line-height:1.25"
         id="flowPara2995-4">Carrot ?</flowPara></flowRoot>
    <flowRoot
       transform="translate(991.99737,231.48163)"
       style="font-style:normal;font-variant:normal;font-weight:normal;font-stretch:normal;line-height:0.01%;font-family:Lavi;-inkscape-font-specification:Lavi;letter-spacing:0px;word-spacing:0px;fill:#000000;fill-opacity:1;stroke:none"
       id="flowRoot2987-1"
       xml:space="preserve"><flowRegion
         id="flowRegion2989-1"><rect
           style="font-style:normal;font-variant:normal;font-weight:normal;font-stretch:normal;font-family:Lavi;-inkscape-font-specification:Lavi"
           y="265.53046"
           x="120.55251"
           height="141.89404"
           width="417.15793"
           id="rect2991-1" /></flowRegion><flowPara
         style="font-size:48px;line-height:1.25"
         id="flowPara2995-3">Carrot ?!</flowPara></flowRoot>
    <flowRoot
       transform="translate(1140.7689,580.57395)"
       style="font-style:normal;font-variant:normal;font-weight:normal;font-stretch:normal;line-height:0.01%;font-family:Lavi;-inkscape-font-specification:Lavi;letter-spacing:0px;word-spacing:0px;fill:#000000;fill-opacity:1;stroke:none"
       id="flowRoot2987-1-6"
       xml:space="preserve"><flowRegion
         id="flowRegion2989-1-0"><rect
           style="font-style:normal;font-variant:normal;font-weight:normal;font-stretch:normal;font-family:Lavi;-inkscape-font-specification:Lavi"
           y="265.53046"
           x="120.55251"
           height="141.89404"
           width="417.15793"
           id="rect2991-1-2" /></flowRegion><flowPara
         style="font-size:48px;line-height:1.25"
         id="flowPara2995-3-2">Carrot ?!!!</flowPara></flowRoot>
    <flowRoot
       transform="translate(1001.1181,-142.4691)"
       style="font-style:normal;font-variant:normal;font-weight:normal;font-stretch:normal;line-height:0.01%;font-family:Lavi;-inkscape-font-specification:Lavi;letter-spacing:0px;word-spacing:0px;fill:#000000;fill-opacity:1;stroke:none"
       id="flowRoot2987-7-9"
       xml:space="preserve"><flowRegion
         id="flowRegion2989-4-5"><rect
           style="font-style:normal;font-variant:normal;font-weight:normal;font-stretch:normal;font-family:Lavi;-inkscape-font-specification:Lavi"
           y="265.53046"
           x="120.55251"
           height="141.89404"
           width="417.15793"
           id="rect2991-45-1" /></flowRegion><flowPara
         style="font-size:48px;line-height:1.25"
         id="flowPara2995-4-1">Carrot !</flowPara></flowRoot>
    <flowRoot
       transform="translate(1789.8534,462.08352)"
       style="font-style:normal;font-variant:normal;font-weight:normal;font-stretch:normal;line-height:0.01%;font-family:Lavi;-inkscape-font-specification:Lavi;letter-spacing:0px;word-spacing:0px;fill:#000000;fill-opacity:1;stroke:none"
       id="flowRoot2987-1-6-5"
       xml:space="preserve"><flowRegion
         id="flowRegion2989-1-0-4"><rect
           style="font-style:normal;font-variant:normal;font-weight:normal;font-stretch:normal;font-family:Lavi;-inkscape-font-specification:Lavi;stroke-width:1"
           y="265.53046"
           x="120.55252"
           height="370.30939"
           width="564.67615"
           id="rect2991-1-2-3" /></flowRegion><flowPara
         id="flowPara3937"
         style="font-size:48px;line-height:1.25;text-align:center;text-anchor:middle">J'apensais pin </flowPara><flowPara
         id="flowPara893"
         style="font-size:48px;line-height:1.25;text-align:center;text-anchor:middle">qué j'devais én </flowPara><flowPara
         id="flowPara891"
         style="font-size:48px;line-height:1.25;text-align:center;text-anchor:middle">arrivaer lò</flowPara><flowPara
         id="flowPara3939"
         style="font-size:48px;line-height:1.25;text-align:center;text-anchor:middle"> ...</flowPara></flowRoot>
    <flowRoot
       transform="matrix(1.5562254,0,0,1.72406,543.99647,854.59899)"
       style="font-style:normal;font-variant:normal;font-weight:normal;font-stretch:normal;line-height:0.01%;font-family:Lavi;-inkscape-font-specification:Lavi;letter-spacing:0px;word-spacing:0px;fill:#000000;fill-opacity:1;stroke:none"
       id="flowRoot2987-7-9-9"
       xml:space="preserve"><flowRegion
         id="flowRegion2989-4-5-8"><rect
           style="font-style:normal;font-variant:normal;font-weight:normal;font-stretch:normal;font-family:Lavi;-inkscape-font-specification:Lavi"
           y="265.53046"
           x="120.55251"
           height="141.89404"
           width="417.15793"
           id="rect2991-45-1-3" /></flowRegion><flowPara
         style="font-size:48px;line-height:1.25"
         id="flowPara2995-4-1-5">Carrot !</flowPara></flowRoot>
    <flowRoot
       transform="matrix(0.87546097,-0.19155085,0,0.93952354,751.40484,1552.7456)"
       style="font-style:normal;font-variant:normal;font-weight:normal;font-stretch:normal;line-height:0.01%;font-family:Lavi;-inkscape-font-specification:Lavi;letter-spacing:0px;word-spacing:0px;fill:#000000;fill-opacity:1;stroke:#000000;stroke-width:0.992362;stroke-miterlimit:4;stroke-dasharray:none;stroke-opacity:1;filter:url(#filter4375)"
       id="flowRoot2987-7-9-9-7"
       xml:space="preserve"><flowRegion
         style="stroke-width:5.40286"
         id="flowRegion2989-4-5-8-7"><rect
           style="font-style:normal;font-variant:normal;font-weight:normal;font-stretch:normal;font-family:Lavi;-inkscape-font-specification:Lavi;fill:#000000;fill-opacity:1;stroke:#000000;stroke-width:0.99236238;stroke-miterlimit:4;stroke-dasharray:none;stroke-opacity:1"
           y="265.53046"
           x="120.55251"
           height="56.089447"
           width="319.66232"
           id="rect2991-45-1-3-3" /></flowRegion><flowPara
         style="font-weight:normal;font-size:48px;line-height:1.25;-inkscape-font-specification:Lavi;fill:#000000;fill-opacity:1;stroke:#000000;stroke-width:0.992362;stroke-linejoin:miter;stroke-miterlimit:4;stroke-dasharray:none;stroke-opacity:1"
         id="flowPara2995-4-1-5-0">Crrr</flowPara></flowRoot>
    <flowRoot
       transform="matrix(0.87546097,-0.19155085,0,0.93952354,859.6372,1520.2311)"
       style="font-style:normal;font-variant:normal;font-weight:normal;font-stretch:normal;line-height:0.01%;font-family:Lavi;-inkscape-font-specification:Lavi;letter-spacing:0px;word-spacing:0px;fill:#000000;fill-opacity:1;stroke:#000000;stroke-width:0.992362;stroke-miterlimit:4;stroke-dasharray:none;stroke-opacity:1;filter:url(#filter4375-9)"
       id="flowRoot2987-7-9-9-7-1"
       xml:space="preserve"><flowRegion
         style="stroke-width:5.40286"
         id="flowRegion2989-4-5-8-7-4"><rect
           style="font-style:normal;font-variant:normal;font-weight:normal;font-stretch:normal;font-family:Lavi;-inkscape-font-specification:Lavi;fill:#000000;fill-opacity:1;stroke:#000000;stroke-width:0.99236238;stroke-miterlimit:4;stroke-dasharray:none;stroke-opacity:1"
           y="265.53046"
           x="120.55251"
           height="56.089447"
           width="319.66232"
           id="rect2991-45-1-3-3-6" /></flowRegion><flowPara
         style="font-weight:normal;font-size:48px;line-height:1.25;-inkscape-font-specification:Lavi;fill:#000000;fill-opacity:1;stroke:#000000;stroke-width:0.992362;stroke-linejoin:miter;stroke-miterlimit:4;stroke-dasharray:none;stroke-opacity:1"
         id="flowPara2995-4-1-5-0-0">Crrr</flowPara></flowRoot>
    <flowRoot
       transform="matrix(0.87546097,-0.19155085,0,0.93952354,972.78852,1490.7432)"
       style="font-style:normal;font-variant:normal;font-weight:normal;font-stretch:normal;line-height:0.01%;font-family:Lavi;-inkscape-font-specification:Lavi;letter-spacing:0px;word-spacing:0px;fill:#000000;fill-opacity:1;stroke:#000000;stroke-width:0.992362;stroke-miterlimit:4;stroke-dasharray:none;stroke-opacity:1;filter:url(#filter4375-5)"
       id="flowRoot2987-7-9-9-7-4"
       xml:space="preserve"><flowRegion
         style="stroke-width:5.40286"
         id="flowRegion2989-4-5-8-7-8"><rect
           style="font-style:normal;font-variant:normal;font-weight:normal;font-stretch:normal;font-family:Lavi;-inkscape-font-specification:Lavi;fill:#000000;fill-opacity:1;stroke:#000000;stroke-width:0.99236238;stroke-miterlimit:4;stroke-dasharray:none;stroke-opacity:1"
           y="265.53046"
           x="120.55251"
           height="56.089447"
           width="319.66232"
           id="rect2991-45-1-3-3-4" /></flowRegion><flowPara
         style="font-weight:normal;font-size:48px;line-height:1.25;-inkscape-font-specification:Lavi;fill:#000000;fill-opacity:1;stroke:#000000;stroke-width:0.992362;stroke-linejoin:miter;stroke-miterlimit:4;stroke-dasharray:none;stroke-opacity:1"
         id="flowPara2995-4-1-5-0-07">Crrr</flowPara></flowRoot>
    <flowRoot
       transform="matrix(0.87546097,-0.19155085,0,0.93952354,804.77596,1590.865)"
       style="font-style:normal;font-variant:normal;font-weight:normal;font-stretch:normal;line-height:0.01%;font-family:Lavi;-inkscape-font-specification:Lavi;letter-spacing:0px;word-spacing:0px;fill:#000000;fill-opacity:1;stroke:#000000;stroke-width:0.992362;stroke-miterlimit:4;stroke-dasharray:none;stroke-opacity:1;filter:url(#filter4375-4)"
       id="flowRoot2987-7-9-9-7-0"
       xml:space="preserve"><flowRegion
         style="stroke-width:5.40286"
         id="flowRegion2989-4-5-8-7-41"><rect
           style="font-style:normal;font-variant:normal;font-weight:normal;font-stretch:normal;font-family:Lavi;-inkscape-font-specification:Lavi;fill:#000000;fill-opacity:1;stroke:#000000;stroke-width:0.99236238;stroke-miterlimit:4;stroke-dasharray:none;stroke-opacity:1"
           y="265.53046"
           x="120.55251"
           height="56.089447"
           width="319.66232"
           id="rect2991-45-1-3-3-8" /></flowRegion><flowPara
         style="font-weight:normal;font-size:48px;line-height:1.25;-inkscape-font-specification:Lavi;fill:#000000;fill-opacity:1;stroke:#000000;stroke-width:0.992362;stroke-linejoin:miter;stroke-miterlimit:4;stroke-dasharray:none;stroke-opacity:1"
         id="flowPara2995-4-1-5-0-7">Crrr</flowPara></flowRoot>
    <flowRoot
       transform="matrix(0.87546097,-0.19155085,0,0.93952354,918.61304,1556.5766)"
       style="font-style:normal;font-variant:normal;font-weight:normal;font-stretch:normal;line-height:0.01%;font-family:Lavi;-inkscape-font-specification:Lavi;letter-spacing:0px;word-spacing:0px;fill:#000000;fill-opacity:1;stroke:#000000;stroke-width:0.992362;stroke-miterlimit:4;stroke-dasharray:none;stroke-opacity:1;filter:url(#filter4375-51)"
       id="flowRoot2987-7-9-9-7-3"
       xml:space="preserve"><flowRegion
         style="stroke-width:5.40286"
         id="flowRegion2989-4-5-8-7-85"><rect
           style="font-style:normal;font-variant:normal;font-weight:normal;font-stretch:normal;font-family:Lavi;-inkscape-font-specification:Lavi;fill:#000000;fill-opacity:1;stroke:#000000;stroke-width:0.99236238;stroke-miterlimit:4;stroke-dasharray:none;stroke-opacity:1"
           y="265.53046"
           x="120.55251"
           height="56.089447"
           width="319.66232"
           id="rect2991-45-1-3-3-5" /></flowRegion><flowPara
         style="font-weight:normal;font-size:48px;line-height:1.25;-inkscape-font-specification:Lavi;fill:#000000;fill-opacity:1;stroke:#000000;stroke-width:0.992362;stroke-linejoin:miter;stroke-miterlimit:4;stroke-dasharray:none;stroke-opacity:1"
         id="flowPara2995-4-1-5-0-78">Crrr</flowPara></flowRoot>
    <flowRoot
       transform="matrix(0.87546097,-0.19155085,0,0.93952354,1699.1715,1411.141)"
       style="font-style:normal;font-variant:normal;font-weight:normal;font-stretch:normal;line-height:0.01%;font-family:Lavi;-inkscape-font-specification:Lavi;letter-spacing:0px;word-spacing:0px;fill:#000000;fill-opacity:1;stroke:#000000;stroke-width:0.992362;stroke-miterlimit:4;stroke-dasharray:none;stroke-opacity:1;filter:url(#filter4375-5-4)"
       id="flowRoot2987-7-9-9-7-4-5"
       xml:space="preserve"><flowRegion
         style="stroke-width:5.40286"
         id="flowRegion2989-4-5-8-7-8-5"><rect
           style="font-style:normal;font-variant:normal;font-weight:normal;font-stretch:normal;font-family:Lavi;-inkscape-font-specification:Lavi;fill:#000000;fill-opacity:1;stroke:#000000;stroke-width:0.99236238;stroke-miterlimit:4;stroke-dasharray:none;stroke-opacity:1"
           y="265.53046"
           x="120.55251"
           height="56.089447"
           width="319.66232"
           id="rect2991-45-1-3-3-4-3" /></flowRegion><flowPara
         style="font-weight:normal;font-size:48px;line-height:1.25;-inkscape-font-specification:Lavi;fill:#000000;fill-opacity:1;stroke:#000000;stroke-width:0.992362;stroke-linejoin:miter;stroke-miterlimit:4;stroke-dasharray:none;stroke-opacity:1"
         id="flowPara2995-4-1-5-0-07-0">Shhh</flowPara></flowRoot>
    <flowRoot
       transform="matrix(0.87546097,-0.19155085,0,0.93952354,1805.8968,1379.729)"
       style="font-style:normal;font-variant:normal;font-weight:normal;font-stretch:normal;line-height:0.01%;font-family:Lavi;-inkscape-font-specification:Lavi;letter-spacing:0px;word-spacing:0px;fill:#000000;fill-opacity:1;stroke:#000000;stroke-width:0.992362;stroke-miterlimit:4;stroke-dasharray:none;stroke-opacity:1;filter:url(#filter4375-5-4-8)"
       id="flowRoot2987-7-9-9-7-4-5-3"
       xml:space="preserve"><flowRegion
         style="stroke-width:5.40286"
         id="flowRegion2989-4-5-8-7-8-5-2"><rect
           style="font-style:normal;font-variant:normal;font-weight:normal;font-stretch:normal;font-family:Lavi;-inkscape-font-specification:Lavi;fill:#000000;fill-opacity:1;stroke:#000000;stroke-width:0.99236238;stroke-miterlimit:4;stroke-dasharray:none;stroke-opacity:1"
           y="265.53046"
           x="120.55251"
           height="56.089447"
           width="319.66232"
           id="rect2991-45-1-3-3-4-3-3" /></flowRegion><flowPara
         style="font-weight:normal;font-size:48px;line-height:1.25;-inkscape-font-specification:Lavi;fill:#000000;fill-opacity:1;stroke:#000000;stroke-width:0.992362;stroke-linejoin:miter;stroke-miterlimit:4;stroke-dasharray:none;stroke-opacity:1"
         id="flowPara2995-4-1-5-0-07-0-4">Shhh</flowPara></flowRoot>
    <flowRoot
       transform="matrix(0.87546097,-0.19155085,0,0.93952354,1907.2357,1352.8947)"
       style="font-style:normal;font-variant:normal;font-weight:normal;font-stretch:normal;line-height:0.01%;font-family:Lavi;-inkscape-font-specification:Lavi;letter-spacing:0px;word-spacing:0px;fill:#000000;fill-opacity:1;stroke:#000000;stroke-width:0.992362;stroke-miterlimit:4;stroke-dasharray:none;stroke-opacity:1;filter:url(#filter4375-5-4-3)"
       id="flowRoot2987-7-9-9-7-4-5-1"
       xml:space="preserve"><flowRegion
         style="stroke-width:5.40286"
         id="flowRegion2989-4-5-8-7-8-5-8"><rect
           style="font-style:normal;font-variant:normal;font-weight:normal;font-stretch:normal;font-family:Lavi;-inkscape-font-specification:Lavi;fill:#000000;fill-opacity:1;stroke:#000000;stroke-width:0.99236238;stroke-miterlimit:4;stroke-dasharray:none;stroke-opacity:1"
           y="265.53046"
           x="120.55251"
           height="56.089447"
           width="319.66232"
           id="rect2991-45-1-3-3-4-3-32" /></flowRegion><flowPara
         style="font-weight:normal;font-size:48px;line-height:1.25;-inkscape-font-specification:Lavi;fill:#000000;fill-opacity:1;stroke:#000000;stroke-width:0.992362;stroke-linejoin:miter;stroke-miterlimit:4;stroke-dasharray:none;stroke-opacity:1"
         id="flowPara2995-4-1-5-0-07-0-5">Shhh</flowPara></flowRoot>
    <flowRoot
       transform="matrix(0.87546097,-0.19155085,0,0.93952354,1752.2282,1445.9203)"
       style="font-style:normal;font-variant:normal;font-weight:normal;font-stretch:normal;line-height:0.01%;font-family:Lavi;-inkscape-font-specification:Lavi;letter-spacing:0px;word-spacing:0px;fill:#000000;fill-opacity:1;stroke:#000000;stroke-width:0.992362;stroke-miterlimit:4;stroke-dasharray:none;stroke-opacity:1;filter:url(#filter4375-5-4-81)"
       id="flowRoot2987-7-9-9-7-4-5-16"
       xml:space="preserve"><flowRegion
         style="stroke-width:5.40286"
         id="flowRegion2989-4-5-8-7-8-5-9"><rect
           style="font-style:normal;font-variant:normal;font-weight:normal;font-stretch:normal;font-family:Lavi;-inkscape-font-specification:Lavi;fill:#000000;fill-opacity:1;stroke:#000000;stroke-width:0.99236238;stroke-miterlimit:4;stroke-dasharray:none;stroke-opacity:1"
           y="265.53046"
           x="120.55251"
           height="56.089447"
           width="319.66232"
           id="rect2991-45-1-3-3-4-3-6" /></flowRegion><flowPara
         style="font-weight:normal;font-size:48px;line-height:1.25;-inkscape-font-specification:Lavi;fill:#000000;fill-opacity:1;stroke:#000000;stroke-width:0.992362;stroke-linejoin:miter;stroke-miterlimit:4;stroke-dasharray:none;stroke-opacity:1"
         id="flowPara2995-4-1-5-0-07-0-9">Shhh</flowPara></flowRoot>
    <flowRoot
       transform="matrix(0.87546097,-0.19155085,0,0.93952354,1857.1801,1419.086)"
       style="font-style:normal;font-variant:normal;font-weight:normal;font-stretch:normal;line-height:0.01%;font-family:Lavi;-inkscape-font-specification:Lavi;letter-spacing:0px;word-spacing:0px;fill:#000000;fill-opacity:1;stroke:#000000;stroke-width:0.992362;stroke-miterlimit:4;stroke-dasharray:none;stroke-opacity:1;filter:url(#filter4375-5-4-9)"
       id="flowRoot2987-7-9-9-7-4-5-7"
       xml:space="preserve"><flowRegion
         style="stroke-width:5.40286"
         id="flowRegion2989-4-5-8-7-8-5-1"><rect
           style="font-style:normal;font-variant:normal;font-weight:normal;font-stretch:normal;font-family:Lavi;-inkscape-font-specification:Lavi;fill:#000000;fill-opacity:1;stroke:#000000;stroke-width:0.99236238;stroke-miterlimit:4;stroke-dasharray:none;stroke-opacity:1"
           y="265.53046"
           x="120.55251"
           height="56.089447"
           width="319.66232"
           id="rect2991-45-1-3-3-4-3-1" /></flowRegion><flowPara
         style="font-weight:normal;font-size:48px;line-height:1.25;-inkscape-font-specification:Lavi;fill:#000000;fill-opacity:1;stroke:#000000;stroke-width:0.992362;stroke-linejoin:miter;stroke-miterlimit:4;stroke-dasharray:none;stroke-opacity:1"
         id="flowPara2995-4-1-5-0-07-0-0">Shhh</flowPara></flowRoot>
    <flowRoot
       transform="matrix(0.51519764,-0.13096801,0.02602001,0.52891141,20.178104,2599.5144)"
       style="font-style:normal;font-variant:normal;font-weight:normal;font-stretch:normal;line-height:0.01%;font-family:Lavi;-inkscape-font-specification:Lavi;letter-spacing:0px;word-spacing:0px;fill:#000000;fill-opacity:1;stroke:#000000;stroke-width:1.71343;stroke-miterlimit:4;stroke-dasharray:none;stroke-opacity:1;filter:url(#filter4375-5-4-2)"
       id="flowRoot2987-7-9-9-7-4-5-35"
       xml:space="preserve"><flowRegion
         style="stroke-width:9.32865"
         id="flowRegion2989-4-5-8-7-8-5-0"><rect
           style="font-style:normal;font-variant:normal;font-weight:normal;font-stretch:normal;font-family:Lavi;-inkscape-font-specification:Lavi;fill:#000000;fill-opacity:1;stroke:#000000;stroke-width:1.71342587;stroke-miterlimit:4;stroke-dasharray:none;stroke-opacity:1"
           y="265.53046"
           x="120.55251"
           height="165.43835"
           width="572.43164"
           id="rect2991-45-1-3-3-4-3-60" /></flowRegion><flowPara
         style="font-weight:normal;font-size:48px;line-height:1.25;-inkscape-font-specification:Lavi;text-align:center;text-anchor:middle;fill:#000000;fill-opacity:1;stroke:#000000;stroke-width:1.71343;stroke-linejoin:miter;stroke-miterlimit:4;stroke-dasharray:none;stroke-opacity:1"
         id="flowPara2995-4-1-5-0-07-0-8">Shhh  Shhh  Shhh</flowPara><flowPara
         id="flowPara4701"
         style="font-weight:normal;font-size:48px;line-height:1.25;-inkscape-font-specification:Lavi;text-align:center;text-anchor:middle;fill:#000000;fill-opacity:1;stroke:#000000;stroke-width:1.71343;stroke-linejoin:miter;stroke-miterlimit:4;stroke-dasharray:none;stroke-opacity:1">Shhh Shhh</flowPara></flowRoot>
    <flowRoot
       transform="matrix(0.51519764,-0.13096801,0.02602001,0.52891141,-0.4074104,2539.5559)"
       style="font-style:normal;font-variant:normal;font-weight:normal;font-stretch:normal;line-height:0.01%;font-family:Lavi;-inkscape-font-specification:Lavi;letter-spacing:0px;word-spacing:0px;fill:#000000;fill-opacity:1;stroke:#000000;stroke-width:1.71343;stroke-miterlimit:4;stroke-dasharray:none;stroke-opacity:1;filter:url(#filter4375-5-4-2-8)"
       id="flowRoot2987-7-9-9-7-4-5-35-8"
       xml:space="preserve"><flowRegion
         style="stroke-width:9.32865"
         id="flowRegion2989-4-5-8-7-8-5-0-7"><rect
           style="font-style:normal;font-variant:normal;font-weight:normal;font-stretch:normal;font-family:Lavi;-inkscape-font-specification:Lavi;fill:#000000;fill-opacity:1;stroke:#000000;stroke-width:1.71342587;stroke-miterlimit:4;stroke-dasharray:none;stroke-opacity:1"
           y="265.53046"
           x="120.55251"
           height="165.43835"
           width="572.43164"
           id="rect2991-45-1-3-3-4-3-60-4" /></flowRegion><flowPara
         id="flowPara4701-1"
         style="font-weight:normal;font-size:48px;line-height:1.25;-inkscape-font-specification:Lavi;text-align:center;text-anchor:middle;fill:#000000;fill-opacity:1;stroke:#000000;stroke-width:1.71343;stroke-linejoin:miter;stroke-miterlimit:4;stroke-dasharray:none;stroke-opacity:1">Crrr Crrr Crrr</flowPara><flowPara
         id="flowPara4750"
         style="font-weight:normal;font-size:48px;line-height:1.25;-inkscape-font-specification:Lavi;text-align:center;text-anchor:middle;fill:#000000;fill-opacity:1;stroke:#000000;stroke-width:1.71343;stroke-linejoin:miter;stroke-miterlimit:4;stroke-dasharray:none;stroke-opacity:1">Crrr Crrr</flowPara></flowRoot>
    <flowRoot
       transform="matrix(0.58514884,-0.16690279,0.02955289,0.67403324,794.64055,2560.7837)"
       style="font-style:normal;font-variant:normal;font-weight:normal;font-stretch:normal;line-height:0.01%;font-family:Lavi;-inkscape-font-specification:Lavi;letter-spacing:0px;word-spacing:0px;fill:#000000;fill-opacity:1;stroke:#000000;stroke-width:1.4242;stroke-miterlimit:4;stroke-dasharray:none;stroke-opacity:1;filter:url(#filter4375-5-4-2-8-9)"
       id="flowRoot2987-7-9-9-7-4-5-35-8-9"
       xml:space="preserve"><flowRegion
         style="stroke-width:7.75396"
         id="flowRegion2989-4-5-8-7-8-5-0-7-8"><rect
           style="font-style:normal;font-variant:normal;font-weight:normal;font-stretch:normal;font-family:Lavi;-inkscape-font-specification:Lavi;fill:#000000;fill-opacity:1;stroke:#000000;stroke-width:1.42419648;stroke-miterlimit:4;stroke-dasharray:none;stroke-opacity:1"
           y="265.53046"
           x="120.55251"
           height="165.43835"
           width="572.43164"
           id="rect2991-45-1-3-3-4-3-60-4-4" /></flowRegion><flowPara
         id="flowPara4701-1-5"
         style="font-weight:normal;font-size:48px;line-height:1.25;-inkscape-font-specification:Lavi;text-align:center;text-anchor:middle;fill:#000000;fill-opacity:1;stroke:#000000;stroke-width:1.4242;stroke-linejoin:miter;stroke-miterlimit:4;stroke-dasharray:none;stroke-opacity:1">Crrr Crrr Crrr</flowPara><flowPara
         id="flowPara4750-7"
         style="font-weight:normal;font-size:48px;line-height:1.25;-inkscape-font-specification:Lavi;text-align:center;text-anchor:middle;fill:#000000;fill-opacity:1;stroke:#000000;stroke-width:1.4242;stroke-linejoin:miter;stroke-miterlimit:4;stroke-dasharray:none;stroke-opacity:1">Crrr Crrr</flowPara></flowRoot>
    <flowRoot
       transform="matrix(0.567614,-0.1430478,0.02866729,0.57769536,962.87231,2603.608)"
       style="font-style:normal;font-variant:normal;font-weight:normal;font-stretch:normal;line-height:0.01%;font-family:Lavi;-inkscape-font-specification:Lavi;letter-spacing:0px;word-spacing:0px;fill:#000000;fill-opacity:1;stroke:#000000;stroke-width:1.56195;stroke-miterlimit:4;stroke-dasharray:none;stroke-opacity:1;filter:url(#filter4375-5-4-2-7)"
       id="flowRoot2987-7-9-9-7-4-5-35-81"
       xml:space="preserve"><flowRegion
         style="stroke-width:8.50396"
         id="flowRegion2989-4-5-8-7-8-5-0-5"><rect
           style="font-style:normal;font-variant:normal;font-weight:normal;font-stretch:normal;font-family:Lavi;-inkscape-font-specification:Lavi;fill:#000000;fill-opacity:1;stroke:#000000;stroke-width:1.56195223;stroke-miterlimit:4;stroke-dasharray:none;stroke-opacity:1"
           y="265.53046"
           x="120.55251"
           height="165.43835"
           width="572.43164"
           id="rect2991-45-1-3-3-4-3-60-6" /></flowRegion><flowPara
         style="font-weight:normal;font-size:48px;line-height:1.25;-inkscape-font-specification:Lavi;text-align:center;text-anchor:middle;fill:#000000;fill-opacity:1;stroke:#000000;stroke-width:1.56195;stroke-linejoin:miter;stroke-miterlimit:4;stroke-dasharray:none;stroke-opacity:1"
         id="flowPara2995-4-1-5-0-07-0-8-1">Shhh  Shhh  Shhh</flowPara><flowPara
         id="flowPara4701-3"
         style="font-weight:normal;font-size:48px;line-height:1.25;-inkscape-font-specification:Lavi;text-align:center;text-anchor:middle;fill:#000000;fill-opacity:1;stroke:#000000;stroke-width:1.56195;stroke-linejoin:miter;stroke-miterlimit:4;stroke-dasharray:none;stroke-opacity:1">Shhh Shhh</flowPara></flowRoot>
    <flowRoot
       transform="matrix(1.0490588,0,0,0.97373943,1110.8904,2850.5155)"
       style="font-style:normal;font-variant:normal;font-weight:normal;font-stretch:normal;line-height:0.01%;font-family:Lavi;-inkscape-font-specification:Lavi;letter-spacing:0px;word-spacing:0px;fill:#000000;fill-opacity:1;stroke:none"
       id="flowRoot2987-7-9-9-6"
       xml:space="preserve"><flowRegion
         id="flowRegion2989-4-5-8-75"><rect
           style="font-style:normal;font-variant:normal;font-weight:normal;font-stretch:normal;font-family:Lavi;-inkscape-font-specification:Lavi"
           y="265.53046"
           x="120.55251"
           height="141.89404"
           width="417.15793"
           id="rect2991-45-1-3-34" /></flowRegion><flowPara
         style="font-size:48px;line-height:1.25"
         id="flowPara2995-4-1-5-4">Grooo</flowPara></flowRoot>
    <flowRoot
       transform="matrix(0.69322557,-0.22010773,0,0.54518538,1625.9378,3064.2286)"
       style="font-style:normal;font-variant:normal;font-weight:normal;font-stretch:normal;line-height:0.01%;font-family:Lavi;-inkscape-font-specification:Lavi;letter-spacing:0px;word-spacing:0px;fill:#000000;fill-opacity:1;stroke:none"
       id="flowRoot2987-7-9-9-6-2"
       xml:space="preserve"><flowRegion
         id="flowRegion2989-4-5-8-75-8"><rect
           style="font-style:normal;font-variant:normal;font-weight:normal;font-stretch:normal;font-family:Lavi;-inkscape-font-specification:Lavi"
           y="265.53046"
           x="120.55251"
           height="141.89404"
           width="417.15793"
           id="rect2991-45-1-3-34-5" /></flowRegion><flowPara
         style="font-size:48px;line-height:1.25"
         id="flowPara2995-4-1-5-4-4">Pffioooo !</flowPara></flowRoot>
    <flowRoot
       transform="matrix(0.99017359,-0.4318322,0.17414417,0.9011435,94.595755,2519.9311)"
       style="font-style:normal;font-variant:normal;font-weight:normal;font-stretch:normal;line-height:0.01%;font-family:Lavi;-inkscape-font-specification:Lavi;letter-spacing:0px;word-spacing:0px;fill:#000000;fill-opacity:1;stroke:none"
       id="flowRoot2987-7-9-9-9"
       xml:space="preserve"><flowRegion
         id="flowRegion2989-4-5-8-6"><rect
           style="font-style:normal;font-variant:normal;font-weight:normal;font-stretch:normal;font-family:Lavi;-inkscape-font-specification:Lavi"
           y="265.53046"
           x="120.55251"
           height="141.89404"
           width="417.15793"
           id="rect2991-45-1-3-2" /></flowRegion><flowPara
         style="font-size:48px;line-height:1.25;text-align:center;text-anchor:middle;fill:#ffffff"
         id="flowPara2995-4-1-5-7">O Sole</flowPara><flowPara
         id="flowPara4923"
         style="font-size:48px;line-height:1.25;text-align:center;text-anchor:middle;fill:#ffffff">Meowww !</flowPara></flowRoot>
  </g>
</svg>
