<?xml version="1.0" encoding="UTF-8" standalone="no"?>
<svg
   xmlns:dc="http://purl.org/dc/elements/1.1/"
   xmlns:cc="http://creativecommons.org/ns#"
   xmlns:rdf="http://www.w3.org/1999/02/22-rdf-syntax-ns#"
   xmlns:svg="http://www.w3.org/2000/svg"
   xmlns="http://www.w3.org/2000/svg"
   xmlns:xlink="http://www.w3.org/1999/xlink"
   xmlns:sodipodi="http://sodipodi.sourceforge.net/DTD/sodipodi-0.dtd"
   xmlns:inkscape="http://www.inkscape.org/namespaces/inkscape"
   inkscape:export-ydpi="90"
   inkscape:export-xdpi="90"
   inkscape:export-filename="credit.png"
   sodipodi:docname="E29P09.svg"
   height="6200"
   width="2481"
   inkscape:version="1.0 (4035a4fb49, 2020-05-01)"
   version="1.1"
   id="svg2">
  <metadata
     id="metadata8">
    <rdf:RDF>
      <cc:Work
         rdf:about="">
        <dc:format>image/svg+xml</dc:format>
        <dc:type
           rdf:resource="http://purl.org/dc/dcmitype/StillImage" />
        <dc:title />
      </cc:Work>
    </rdf:RDF>
  </metadata>
  <defs
     id="defs6">
    <filter
       style="color-interpolation-filters:sRGB"
       id="filter5546"
       inkscape:label="Drop Shadow">
      <feFlood
         id="feFlood5548"
         result="flood"
         flood-color="rgb(0,0,0)"
         flood-opacity="1" />
      <feComposite
         id="feComposite5550"
         result="composite1"
         operator="in"
         in2="SourceGraphic"
         in="flood" />
      <feGaussianBlur
         id="feGaussianBlur5552"
         result="blur"
         stdDeviation="1"
         in="composite1" />
      <feOffset
         id="feOffset5554"
         result="offset"
         dy="2.5"
         dx="2.5" />
      <feComposite
         id="feComposite5556"
         result="composite2"
         operator="over"
         in2="offset"
         in="SourceGraphic" />
    </filter>
  </defs>
  <sodipodi:namedview
     inkscape:document-rotation="0"
     inkscape:snap-global="false"
     inkscape:guide-bbox="true"
     showguides="true"
     inkscape:object-nodes="true"
     inkscape:current-layer="layer2"
     inkscape:window-maximized="1"
     inkscape:window-y="44"
     inkscape:window-x="0"
     inkscape:cy="1508.5908"
     inkscape:cx="1322.3006"
     inkscape:zoom="0.5656854"
     showgrid="false"
     id="namedview4"
     inkscape:window-height="1004"
     inkscape:window-width="1920"
     inkscape:pageshadow="2"
     inkscape:pageopacity="0"
     guidetolerance="10"
     gridtolerance="10"
     objecttolerance="10"
     borderopacity="1"
     bordercolor="#666666"
     pagecolor="#ffffff">
    <sodipodi:guide
       inkscape:locked="false"
       id="guide171"
       orientation="0,1"
       position="1570,6115" />
  </sodipodi:namedview>
  <g
     sodipodi:insensitive="true"
     transform="translate(0,2224)"
     style="display:inline"
     inkscape:label="artwork"
     id="layer1"
     inkscape:groupmode="layer">
    <image
       sodipodi:absref="/home/cherry/peppercarrot/webcomics/ep29_Destroyer-of-Worlds/lang/gfx_Pepper-and-Carrot_by-David-Revoy_E29P09.png"
       xlink:href="../gfx_Pepper-and-Carrot_by-David-Revoy_E29P09.png"
       y="-2224.0303"
       x="0"
       id="image4223"
       style="image-rendering:optimizeQuality"
       preserveAspectRatio="none"
       height="6200"
       width="2481" />
  </g>
  <g
     transform="translate(0,2224)"
     style="display:inline"
     inkscape:label="speechbubbles"
     id="layer3"
     inkscape:groupmode="layer">
    <path
       sodipodi:nodetypes="cssssc"
       inkscape:connector-curvature="0"
       id="path4546-6"
       d="m 1228.4593,-865.19683 c 5.4203,-101.70673 24.7784,-118.04753 195.4393,-120.75813 93.4778,-1.4847 216.5223,-7.5259 216.3411,154.45746 -0.1913,171.15897 -138.5995,134.08212 -218.4558,132.95914 -92.9105,-1.30655 -156.3927,-5.45605 -176.4752,-37.7503 -18.3773,-29.55202 -17.3786,-97.40666 -16.8494,-128.90817 z"
       style="color:#000000;display:inline;overflow:visible;visibility:visible;opacity:1;fill:#ffffff;fill-opacity:1;fill-rule:nonzero;stroke:none;stroke-width:0.814959px;marker:none;enable-background:accumulate" />
    <path
       sodipodi:nodetypes="cscccc"
       inkscape:connector-curvature="0"
       id="path3365"
       d="m 1603.1095,-744.28229 c -8.4873,-64.22524 -26.7751,-150.29135 225.9772,-140.37165 194.5874,7.63693 237.8682,35.32977 237.4789,146.40598 -1.5884,40.22833 -8.4746,83.93829 -77.8208,112.63954 -45.3703,18.75772 -123.6111,8.09223 -198.8287,14.9621 -80.8946,0.89668 -183.8471,-39.4061 -186.8066,-133.63597 z"
       style="color:#000000;display:inline;overflow:visible;visibility:visible;fill:#ffffff;fill-opacity:1;fill-rule:nonzero;stroke:none;stroke-width:0.982079px;marker:none;enable-background:accumulate" />
    <path
       sodipodi:nodetypes="cscccc"
       inkscape:connector-curvature="0"
       id="path3063"
       d="m 872.55605,-963.13496 c 50.81358,-32.3879 129.46405,-43.64824 168.21135,0.1997 23.4771,26.56752 33.1071,45.02242 33.1071,45.02242 l 23.8879,-32.88042 -23.9282,-31.3954 c 0,0 -88.73129,-64.76174 -201.27815,19.0537 z"
       style="fill:#ffffff;stroke:none;stroke-width:1" />
    <path
       sodipodi:nodetypes="zssssz"
       inkscape:connector-curvature="0"
       id="path4040"
       d="m 496.09639,3324.2052 c 27.36003,-42.0543 239.15329,-81.1855 307.23046,9.9336 68.07714,91.1192 19.49034,243.1661 -24.69901,275.4453 -44.18928,32.2795 -197.37051,44.5104 -252.2021,13.5248 -54.83166,-30.9858 -71.76174,-102.9689 -69.26315,-191.7133 1.01978,-36.22 11.57367,-65.1359 38.9338,-107.1904 z"
       style="color:#000000;display:inline;overflow:visible;visibility:visible;fill:#ffffff;fill-opacity:1;fill-rule:nonzero;stroke:none;stroke-width:0.85592771px;marker:none;enable-background:accumulate" />
    <path
       sodipodi:nodetypes="cccsscc"
       inkscape:connector-curvature="0"
       id="path3517"
       d="m 794.81027,3503.9749 c -3.17177,-84.7363 16.84208,-125.2915 90.24998,-161.5948 69.94832,-26.4599 256.50535,-16.7025 286.17335,19.3703 29.6681,36.0727 53.2608,72.8665 49.8374,105.1423 -3.4232,32.2756 2.4981,66.7726 -55.5273,107.7854 -40.0376,28.299 -160.4481,23.9605 -221.84431,20.5478 -53.02307,-3.4124 -153.45348,-17.2068 -148.88912,-91.251 z"
       style="color:#000000;display:inline;overflow:visible;visibility:visible;fill:#ffffff;fill-opacity:1;fill-rule:nonzero;stroke:none;stroke-width:0.99999994px;marker:none;enable-background:accumulate" />
    <path
       sodipodi:nodetypes="csccc"
       inkscape:connector-curvature="0"
       id="path4974"
       d="m 1145.3735,3513.5873 c -7.2254,-86.4996 153.6283,-99.9551 270.6532,-99.0782 117.0252,0.8766 269.425,30.692 275.8057,94.226 11.562,107.7769 -176.4801,122.3791 -279.8599,123.5749 -48.4081,0.073 -280.6971,-9.562 -266.599,-118.7227 z"
       style="color:#000000;display:inline;overflow:visible;visibility:visible;fill:#ffffff;fill-opacity:1;fill-rule:nonzero;stroke:none;stroke-width:1.06534576px;marker:none;enable-background:accumulate" />
    <path
       sodipodi:nodetypes="cssssc"
       inkscape:connector-curvature="0"
       id="path3659-8"
       d="m 2095.1618,3703.7812 c -2.4947,-24.9075 14.0519,-37.2977 29.1177,-43.1671 19.0937,-7.4386 143.8638,-5.1704 166.97,11.8391 20.3954,15.0141 32.6685,47.784 -13.0403,65.2222 -45.7087,17.4382 -121.9934,7.8865 -134.9788,4.716 -12.9855,-3.1707 -45.4716,-11.6604 -48.0686,-38.6102 z"
       style="fill:#ffffff;fill-opacity:1;stroke:none;stroke-width:0.94239348" />
    <path
       sodipodi:nodetypes="csccc"
       inkscape:connector-curvature="0"
       id="path3072"
       d="m 1815.9787,3458.3614 c -145.0577,-17.8084 -151.3521,38.1867 -173.8389,41.2954 -47.8722,6.6181 -34.2474,16.1578 -34.2474,16.1578 l 14.6011,-30.4558 c 0,0 76.6292,-84.3387 193.4852,-26.9974 z"
       style="color:#000000;display:inline;overflow:visible;visibility:visible;fill:#ffffff;fill-opacity:1;fill-rule:nonzero;stroke:none;stroke-width:1px;marker:none;enable-background:accumulate" />
    <path
       inkscape:connector-curvature="0"
       id="path5010"
       d="m 2144.8841,3684.561 c -34.7278,-9.2362 -63.5331,-24.713 -62.0215,-60.0508 -13.1987,53.9008 44.5176,88.9089 63.4118,97.7471 18.8944,8.8383 -1.3903,-37.6963 -1.3903,-37.6963 z"
       style="color:#000000;display:inline;overflow:visible;visibility:visible;fill:#ffffff;fill-opacity:1;fill-rule:nonzero;stroke:none;stroke-width:1px;marker:none;enable-background:accumulate" />
    <path
       sodipodi:nodetypes="cssssc"
       inkscape:connector-curvature="0"
       id="path4546-6-4"
       d="m 1298.6632,-916.55194 c -4.15,56.05753 -15.9257,64.82543 -118.5005,64.11844 -56.1844,-0.38727 -130.1754,1.35842 -128.6445,-88.03084 1.6175,-94.45276 84.4622,-72.20506 132.4383,-70.55456 55.8189,1.9203 93.9292,5.0296 105.7136,23.11064 10.7836,16.5457 9.5877,53.97882 8.9931,71.35632 z"
       style="color:#000000;display:inline;overflow:visible;visibility:visible;opacity:1;fill:#ffffff;fill-opacity:1;fill-rule:nonzero;stroke:none;stroke-width:1px;marker:none;enable-background:accumulate" />
  </g>
  <g
     transform="translate(0,2224)"
     style="display:inline;opacity:0.85500004"
     inkscape:label="text"
     id="layer2"
     inkscape:groupmode="layer">
    <text
       id="text4246-42"
       y="-504.4682"
       x="1258.3041"
       style="font-style:normal;font-variant:normal;font-weight:normal;font-stretch:normal;line-height:0%;font-family:Lavi;-inkscape-font-specification:Lavi;text-align:center;letter-spacing:0px;word-spacing:0px;text-anchor:middle;fill:#000000;fill-opacity:1;stroke:none"
       xml:space="preserve" />
    <text
       id="text4246-42-4"
       y="-910.79004"
       x="1991.2159"
       style="color:#000000;font-style:normal;font-variant:normal;font-weight:normal;font-stretch:normal;line-height:0%;font-family:Lavi;-inkscape-font-specification:Lavi;text-indent:0;text-align:center;text-decoration:none;text-decoration-line:none;letter-spacing:0px;word-spacing:0px;text-transform:none;writing-mode:lr-tb;direction:ltr;baseline-shift:baseline;text-anchor:middle;display:inline;overflow:visible;visibility:visible;opacity:0.855;fill:#020101;fill-opacity:1;fill-rule:nonzero;stroke:none;enable-background:accumulate"
       xml:space="preserve" />
    <text
       id="text4229"
       y="-551.26312"
       x="1261.562"
       style="font-style:normal;font-variant:normal;font-weight:normal;font-stretch:normal;line-height:0%;font-family:Arial;-inkscape-font-specification:Arial;text-align:center;letter-spacing:0px;word-spacing:0px;text-anchor:middle;display:inline;opacity:0.855;fill:#000000;fill-opacity:1;stroke:none"
       xml:space="preserve" />
    <text
       xml:space="preserve"
       style="font-style:normal;font-variant:normal;font-weight:normal;font-stretch:normal;line-height:0%;font-family:Arial;-inkscape-font-specification:Arial;text-align:center;letter-spacing:0px;word-spacing:0px;text-anchor:middle;display:inline;opacity:0.855;fill:#241c1c;fill-opacity:1;stroke:none"
       x="1280.0332"
       y="-1150.819"
       id="text4179" />
    <g
       style="opacity:0.60700001;stroke-width:0.45386502"
       transform="matrix(2.2032985,0,0,2.2032985,1108.3021,-1191.9944)"
       inkscape:label="Layer 1"
       id="layer1-8">
      <g
         style="stroke-width:0.45386502"
         transform="matrix(0.9937728,0,0,0.9936696,-177.69267,6.25128e-7)"
         id="g260"
         inkscape:export-filename="/mnt/hgfs/Bov/Documents/Work/2007/cc/identity/srr buttons/big/by.png"
         inkscape:export-xdpi="300.23013"
         inkscape:export-ydpi="300.23013">
        <path
           inkscape:connector-curvature="0"
           id="path3817_1_"
           nodetypes="ccccccc"
           d="m 181.96579,0.51074 114.06396,0.20264 c 1.59375,0 3.01758,-0.23633 3.01758,3.18066 l -0.13965,37.56689 H 179.08737 V 3.75439 c 0,-1.68505 0.16309,-3.24365 2.87842,-3.24365 z"
           style="fill:#aab2ab;stroke-width:0.45386502" />
        <path
           style="stroke-width:0.45386502"
           inkscape:connector-curvature="0"
           d="m 297.29636,0 h -116.229 c -1.24658,0 -2.26123,1.01416 -2.26123,2.26074 v 39.49658 c 0,0.28174 0.229,0.51025 0.51074,0.51025 h 119.73047 c 0.28174,0 0.51074,-0.22852 0.51074,-0.51025 V 2.26074 C 299.55807,1.01416 298.54343,0 297.29636,0 Z M 181.06735,1.02148 h 116.229 c 0.68408,0 1.24023,0.55566 1.24023,1.23926 0,0 0,15.94824 0,27.44971 h -83.34424 c -3.04492,5.50586 -8.91113,9.24414 -15.64355,9.24414 -6.73535,0 -12.6001,-3.73486 -15.64355,-9.24414 h -4.07764 c 0,-11.50146 0,-27.44971 0,-27.44971 1e-5,-0.68359 0.55616,-1.23926 1.23975,-1.23926 z"
           id="path263" />
        <g
           style="stroke-width:0.45386502"
           enable-background="new    "
           id="g265">
          <path
             inkscape:connector-curvature="0"
             d="m 253.07761,32.95605 c 0.31738,0 0.60742,0.02832 0.87012,0.08398 0.26172,0.05566 0.48535,0.14746 0.67285,0.27539 0.18652,0.12695 0.33203,0.29688 0.43457,0.50781 0.10254,0.21191 0.1543,0.47266 0.1543,0.78418 0,0.33594 -0.0762,0.61523 -0.22949,0.83887 -0.15234,0.22461 -0.37891,0.40723 -0.67773,0.55078 0.41211,0.11816 0.71973,0.3252 0.92285,0.62109 0.20312,0.29589 0.30469,0.65234 0.30469,1.06934 0,0.33594 -0.0654,0.62695 -0.19629,0.87305 -0.13086,0.24512 -0.30762,0.44629 -0.52832,0.60156 -0.22168,0.15625 -0.47461,0.27148 -0.75781,0.3457 -0.28418,0.0752 -0.5752,0.1123 -0.875,0.1123 H 249.936 v -6.66406 h 3.14161 z m -0.1875,2.69532 c 0.26172,0 0.47656,-0.0625 0.64551,-0.18652 0.16797,-0.12402 0.25195,-0.3252 0.25195,-0.60449 0,-0.15527 -0.0283,-0.2832 -0.084,-0.38184 -0.0566,-0.09961 -0.13086,-0.17676 -0.22461,-0.2334 -0.0937,-0.05566 -0.20117,-0.09473 -0.32227,-0.11621 -0.1211,-0.02148 -0.24805,-0.03223 -0.37793,-0.03223 h -1.37402 v 1.55469 z m 0.0859,2.82812 c 0.14355,0 0.28027,-0.01367 0.41113,-0.04199 0.13086,-0.02832 0.24609,-0.0752 0.34668,-0.13965 0.0996,-0.06543 0.17871,-0.1543 0.23828,-0.2666 0.0596,-0.11133 0.0889,-0.25488 0.0889,-0.42871 0,-0.3418 -0.0967,-0.58594 -0.29004,-0.73242 -0.19336,-0.14551 -0.44922,-0.21875 -0.7666,-0.21875 h -1.59961 v 1.82812 z"
             id="path267"
             style="fill:#ffffff;stroke-width:0.45386502" />
          <path
             inkscape:connector-curvature="0"
             d="m 255.78854,32.95605 h 1.64355 l 1.56055,2.63184 1.55078,-2.63184 h 1.63379 l -2.47363,4.10645 v 2.55762 h -1.46875 v -2.59473 z"
             id="path269"
             style="fill:#ffffff;stroke-width:0.45386502" />
        </g>
        <g
           style="stroke-width:0.45386502"
           id="g5908_1_"
           transform="matrix(0.872921,0,0,0.872921,50.12536,143.2144)">
          <path
             inkscape:connector-curvature="0"
             id="path5906_1_"
             cx="296.35416"
             ry="22.939548"
             cy="264.3577"
             type="arc"
             rx="22.939548"
             d="m 186.90065,-141.46002 c 0.006,8.68079 -7.02786,15.7215 -15.70808,15.72711 -8.68022,0.006 -15.72206,-7.02734 -15.7271,-15.70807 0,-0.006 0,-0.0123 0,-0.019 -0.005,-8.68079 7.02786,-15.7215 15.70808,-15.72656 8.68135,-0.006 15.72206,7.02734 15.7271,15.70813 0,0.006 0,0.0123 0,0.0184 z"
             style="fill:#ffffff;stroke-width:0.45386502" />
          <g
             style="stroke-width:0.45386502"
             id="g5706_1_"
             transform="translate(-289.6157,99.0653)">
            <path
               style="stroke-width:0.45386502"
               inkscape:connector-curvature="0"
               id="path5708_1_"
               d="m 473.57574,-253.32751 c 3.48541,3.48541 5.22839,7.75391 5.22839,12.80219 0,5.04938 -1.71277,9.27203 -5.13831,12.66791 -3.63531,3.5766 -7.93182,5.36432 -12.88947,5.36432 -4.89777,0 -9.11987,-1.77319 -12.66513,-5.31952 -3.54581,-3.54584 -5.31845,-7.78302 -5.31845,-12.71271 0,-4.92859 1.77264,-9.19598 5.31845,-12.80219 3.4552,-3.48651 7.67728,-5.22949 12.66513,-5.22949 5.0483,-10e-6 9.31404,1.74297 12.79939,5.22949 z m -23.11798,2.34484 c -2.94672,2.97638 -4.41953,6.46289 -4.41953,10.46234 0,3.99835 1.45828,7.45526 4.37424,10.37067 2.9165,2.9165 6.38849,4.37421 10.41705,4.37421 4.02856,0 7.53015,-1.47223 10.50653,-4.4184 2.82593,-2.73645 4.23944,-6.17706 4.23944,-10.32648 0,-4.11804 -1.43646,-7.61346 -4.30768,-10.48468 -2.87067,-2.87067 -6.34991,-4.30658 -10.43829,-4.30658 -4.0884,1e-5 -7.54638,1.44318 -10.37176,4.32892 z m 7.75449,8.70319 c -0.45029,-0.98169 -1.1243,-1.47284 -2.02322,-1.47284 -1.58917,0 -2.38345,1.07007 -2.38345,3.20911 0,2.13953 0.79428,3.2085 2.38345,3.2085 1.04938,0 1.79892,-0.52075 2.24866,-1.56451 l 2.20276,1.17297 c -1.04993,1.86548 -2.62509,2.79846 -4.72549,2.79846 -1.6199,0 -2.91763,-0.4967 -3.89206,-1.48901 -0.9761,-0.99341 -1.46274,-2.36273 -1.46274,-4.10852 0,-1.71503 0.50229,-3.07654 1.50748,-4.08502 1.00519,-1.00854 2.25702,-1.51257 3.75781,-1.51257 2.22012,0 3.80981,0.87488 4.77081,2.62286 z m 10.36337,0 c -0.45087,-0.98169 -1.11145,-1.47284 -1.98242,-1.47284 -1.62103,0 -2.43213,1.07007 -2.43213,3.20911 0,2.13953 0.8111,3.2085 2.43213,3.2085 1.05109,0 1.78717,-0.52075 2.20728,-1.56451 l 2.25201,1.17297 c -1.04828,1.86548 -2.62122,2.79846 -4.71771,2.79846 -1.61768,0 -2.9126,-0.4967 -3.88647,-1.48901 -0.97217,-0.99341 -1.45935,-2.36273 -1.45935,-4.10852 0,-1.71503 0.49445,-3.07654 1.48285,-4.08502 0.98785,-1.00854 2.2453,-1.51257 3.7735,-1.51257 2.21619,0 3.80365,0.87488 4.76129,2.62286 z" />
          </g>
        </g>
        <g
           style="stroke-width:0.45386502"
           id="g275">
          <circle
             cx="255.55124"
             cy="15.31348"
             r="10.80664"
             id="circle277"
             style="fill:#ffffff;stroke-width:0.45386502" />
          <g
             style="stroke-width:0.45386502"
             id="g279">
            <path
               style="stroke-width:0.45386502"
               inkscape:connector-curvature="0"
               d="m 258.67819,12.18701 c 0,-0.4165 -0.33789,-0.75391 -0.75293,-0.75391 h -4.77344 c -0.41504,0 -0.75293,0.3374 -0.75293,0.75391 v 4.77295 h 1.33105 v 5.65186 h 3.61719 v -5.65186 h 1.33105 v -4.77295 z"
               id="path281" />
            <circle
               style="stroke-width:0.45386502"
               cx="255.53854"
               cy="9.1723604"
               r="1.63281"
               id="circle283" />
          </g>
          <path
             inkscape:connector-curvature="0"
             d="m 255.5239,3.40723 c -3.23242,0 -5.96875,1.12793 -8.20801,3.38379 -2.29785,2.3335 -3.44629,5.0957 -3.44629,8.28467 0,3.18897 1.14844,5.93164 3.44629,8.22656 2.29785,2.29443 5.03418,3.44189 8.20801,3.44189 3.21289,0 5.99805,-1.15625 8.35352,-3.47119 2.21973,-2.19727 3.33008,-4.92969 3.33008,-8.19727 0,-3.26758 -1.12988,-6.02881 -3.3877,-8.28467 -2.25977,-2.25585 -5.02442,-3.38378 -8.2959,-3.38378 z m 0.0293,2.09961 c 2.64844,0 4.89746,0.93408 6.74707,2.80127 1.86914,1.84717 2.80371,4.10303 2.80371,6.76758 0,2.68359 -0.91504,4.91064 -2.74512,6.68018 -1.92871,1.90625 -4.19629,2.85889 -6.80566,2.85889 -2.61035,0 -4.85938,-0.94287 -6.74707,-2.82959 -1.88965,-1.88672 -2.83301,-4.12305 -2.83301,-6.70947 0,-2.58691 0.9541,-4.84229 2.8623,-6.76758 1.83009,-1.8672 4.06934,-2.80128 6.71778,-2.80128 z"
             id="path285"
             style="clip-rule:evenodd;fill-rule:evenodd;stroke-width:0.45386502" />
        </g>
      </g>
    </g>
    <text
       transform="scale(1.0032295,0.9967809)"
       xml:space="preserve"
       style="color:#000000;font-style:normal;font-variant:normal;font-weight:normal;font-stretch:normal;font-size:18.3026px;line-height:0%;font-family:Lavi;-inkscape-font-specification:Lavi;text-indent:0;text-align:center;text-decoration:none;text-decoration-line:none;letter-spacing:0px;word-spacing:0px;text-transform:none;writing-mode:lr-tb;direction:ltr;baseline-shift:baseline;text-anchor:middle;display:inline;overflow:visible;visibility:visible;opacity:0.855;fill:#060404;fill-opacity:1;fill-rule:nonzero;stroke:none;stroke-width:1.11319;enable-background:accumulate"
       x="524.67108"
       y="-1312.6042"
       id="text4151-0" />
    <flowRoot
       style="font-style:normal;font-variant:normal;font-weight:normal;font-stretch:normal;font-size:0.666667px;line-height:0%;font-family:Lavi;-inkscape-font-specification:Lavi;text-align:center;letter-spacing:0px;word-spacing:-79.64px;writing-mode:lr-tb;text-anchor:middle;fill:#000000;fill-opacity:1;stroke:none;stroke-width:1px;stroke-linecap:butt;stroke-linejoin:miter;stroke-opacity:1"
       id="flowRoot164"
       xml:space="preserve"><flowRegion
         id="flowRegion166"><rect
           y="105.4821"
           x="1103.9697"
           height="5.6710773"
           width="24.574669"
           id="rect168" /></flowRegion><flowPara
         id="flowPara170" /></flowRoot>
    <text
       xml:space="preserve"
       style="font-style:normal;font-variant:normal;font-weight:normal;font-stretch:normal;line-height:100%;font-family:'Nanum Pen Script OTF';-inkscape-font-specification:'Nanum Pen Script OTF';text-align:center;letter-spacing:0px;word-spacing:0px;text-anchor:middle;fill:#000000;fill-opacity:1;stroke:none"
       x="1258.3041"
       y="-504.4682"
       id="text976" />
    <text
       xml:space="preserve"
       style="color:#000000;font-style:normal;font-variant:normal;font-weight:normal;font-stretch:normal;line-height:100%;font-family:'Nanum Pen Script OTF';-inkscape-font-specification:'Nanum Pen Script OTF';text-indent:0;text-align:center;text-decoration:none;text-decoration-line:none;letter-spacing:0px;word-spacing:0px;text-transform:none;writing-mode:lr-tb;direction:ltr;baseline-shift:baseline;text-anchor:middle;display:inline;overflow:visible;visibility:visible;opacity:0.855;fill:#020101;fill-opacity:1;fill-rule:nonzero;stroke:none;enable-background:accumulate"
       x="1991.2159"
       y="-910.79004"
       id="text980" />
    <text
       xml:space="preserve"
       style="font-style:normal;font-variant:normal;font-weight:normal;font-stretch:normal;line-height:100%;font-family:'Nanum Pen Script OTF';-inkscape-font-specification:'Nanum Pen Script OTF';text-align:center;letter-spacing:0px;word-spacing:0px;text-anchor:middle;display:inline;opacity:0.855;fill:#000000;fill-opacity:1;stroke:none"
       x="1261.562"
       y="-551.26312"
       id="text984" />
    <text
       id="text988"
       y="-1150.819"
       x="1280.0332"
       style="font-style:normal;font-variant:normal;font-weight:normal;font-stretch:normal;line-height:100%;font-family:'Nanum Pen Script OTF';-inkscape-font-specification:'Nanum Pen Script OTF';text-align:center;letter-spacing:0px;word-spacing:0px;text-anchor:middle;display:inline;opacity:0.855;fill:#241c1c;fill-opacity:1;stroke:none"
       xml:space="preserve" />
    <g
       id="g1048"
       inkscape:label="Layer 1"
       transform="matrix(2.2032985,0,0,2.2032985,1108.3021,-1191.9944)"
       style="opacity:0.60700001;stroke-width:0.45386502">
      <g
         inkscape:export-ydpi="300.23013"
         inkscape:export-xdpi="300.23013"
         inkscape:export-filename="/mnt/hgfs/Bov/Documents/Work/2007/cc/identity/srr buttons/big/by.png"
         id="g1046"
         transform="matrix(0.9937728,0,0,0.9936696,-177.69267,6.25128e-7)"
         style="stroke-width:0.45386502">
        <path
           style="fill:#aab2ab;stroke-width:0.45386502"
           d="m 181.96579,0.51074 114.06396,0.20264 c 1.59375,0 3.01758,-0.23633 3.01758,3.18066 l -0.13965,37.56689 H 179.08737 V 3.75439 c 0,-1.68505 0.16309,-3.24365 2.87842,-3.24365 z"
           nodetypes="ccccccc"
           id="path1015"
           inkscape:connector-curvature="0" />
        <path
           id="path1017"
           d="m 297.29636,0 h -116.229 c -1.24658,0 -2.26123,1.01416 -2.26123,2.26074 v 39.49658 c 0,0.28174 0.229,0.51025 0.51074,0.51025 h 119.73047 c 0.28174,0 0.51074,-0.22852 0.51074,-0.51025 V 2.26074 C 299.55807,1.01416 298.54343,0 297.29636,0 Z M 181.06735,1.02148 h 116.229 c 0.68408,0 1.24023,0.55566 1.24023,1.23926 0,0 0,15.94824 0,27.44971 h -83.34424 c -3.04492,5.50586 -8.91113,9.24414 -15.64355,9.24414 -6.73535,0 -12.6001,-3.73486 -15.64355,-9.24414 h -4.07764 c 0,-11.50146 0,-27.44971 0,-27.44971 1e-5,-0.68359 0.55616,-1.23926 1.23975,-1.23926 z"
           inkscape:connector-curvature="0"
           style="stroke-width:0.45386502" />
        <g
           id="g1023"
           enable-background="new    "
           style="stroke-width:0.45386502">
          <path
             style="fill:#ffffff;stroke-width:0.45386502"
             id="path1019"
             d="m 253.07761,32.95605 c 0.31738,0 0.60742,0.02832 0.87012,0.08398 0.26172,0.05566 0.48535,0.14746 0.67285,0.27539 0.18652,0.12695 0.33203,0.29688 0.43457,0.50781 0.10254,0.21191 0.1543,0.47266 0.1543,0.78418 0,0.33594 -0.0762,0.61523 -0.22949,0.83887 -0.15234,0.22461 -0.37891,0.40723 -0.67773,0.55078 0.41211,0.11816 0.71973,0.3252 0.92285,0.62109 0.20312,0.29589 0.30469,0.65234 0.30469,1.06934 0,0.33594 -0.0654,0.62695 -0.19629,0.87305 -0.13086,0.24512 -0.30762,0.44629 -0.52832,0.60156 -0.22168,0.15625 -0.47461,0.27148 -0.75781,0.3457 -0.28418,0.0752 -0.5752,0.1123 -0.875,0.1123 H 249.936 v -6.66406 h 3.14161 z m -0.1875,2.69532 c 0.26172,0 0.47656,-0.0625 0.64551,-0.18652 0.16797,-0.12402 0.25195,-0.3252 0.25195,-0.60449 0,-0.15527 -0.0283,-0.2832 -0.084,-0.38184 -0.0566,-0.09961 -0.13086,-0.17676 -0.22461,-0.2334 -0.0937,-0.05566 -0.20117,-0.09473 -0.32227,-0.11621 -0.1211,-0.02148 -0.24805,-0.03223 -0.37793,-0.03223 h -1.37402 v 1.55469 z m 0.0859,2.82812 c 0.14355,0 0.28027,-0.01367 0.41113,-0.04199 0.13086,-0.02832 0.24609,-0.0752 0.34668,-0.13965 0.0996,-0.06543 0.17871,-0.1543 0.23828,-0.2666 0.0596,-0.11133 0.0889,-0.25488 0.0889,-0.42871 0,-0.3418 -0.0967,-0.58594 -0.29004,-0.73242 -0.19336,-0.14551 -0.44922,-0.21875 -0.7666,-0.21875 h -1.59961 v 1.82812 z"
             inkscape:connector-curvature="0" />
          <path
             style="fill:#ffffff;stroke-width:0.45386502"
             id="path1021"
             d="m 255.78854,32.95605 h 1.64355 l 1.56055,2.63184 1.55078,-2.63184 h 1.63379 l -2.47363,4.10645 v 2.55762 h -1.46875 v -2.59473 z"
             inkscape:connector-curvature="0" />
        </g>
        <g
           transform="matrix(0.872921,0,0,0.872921,50.12536,143.2144)"
           id="g1031"
           style="stroke-width:0.45386502">
          <path
             style="fill:#ffffff;stroke-width:0.45386502"
             d="m 186.90065,-141.46002 c 0.006,8.68079 -7.02786,15.7215 -15.70808,15.72711 -8.68022,0.006 -15.72206,-7.02734 -15.7271,-15.70807 0,-0.006 0,-0.0123 0,-0.019 -0.005,-8.68079 7.02786,-15.7215 15.70808,-15.72656 8.68135,-0.006 15.72206,7.02734 15.7271,15.70813 0,0.006 0,0.0123 0,0.0184 z"
             rx="22.939548"
             type="arc"
             cy="264.3577"
             ry="22.939548"
             cx="296.35416"
             id="path1025"
             inkscape:connector-curvature="0" />
          <g
             transform="translate(-289.6157,99.0653)"
             id="g1029"
             style="stroke-width:0.45386502">
            <path
               d="m 473.57574,-253.32751 c 3.48541,3.48541 5.22839,7.75391 5.22839,12.80219 0,5.04938 -1.71277,9.27203 -5.13831,12.66791 -3.63531,3.5766 -7.93182,5.36432 -12.88947,5.36432 -4.89777,0 -9.11987,-1.77319 -12.66513,-5.31952 -3.54581,-3.54584 -5.31845,-7.78302 -5.31845,-12.71271 0,-4.92859 1.77264,-9.19598 5.31845,-12.80219 3.4552,-3.48651 7.67728,-5.22949 12.66513,-5.22949 5.0483,-10e-6 9.31404,1.74297 12.79939,5.22949 z m -23.11798,2.34484 c -2.94672,2.97638 -4.41953,6.46289 -4.41953,10.46234 0,3.99835 1.45828,7.45526 4.37424,10.37067 2.9165,2.9165 6.38849,4.37421 10.41705,4.37421 4.02856,0 7.53015,-1.47223 10.50653,-4.4184 2.82593,-2.73645 4.23944,-6.17706 4.23944,-10.32648 0,-4.11804 -1.43646,-7.61346 -4.30768,-10.48468 -2.87067,-2.87067 -6.34991,-4.30658 -10.43829,-4.30658 -4.0884,1e-5 -7.54638,1.44318 -10.37176,4.32892 z m 7.75449,8.70319 c -0.45029,-0.98169 -1.1243,-1.47284 -2.02322,-1.47284 -1.58917,0 -2.38345,1.07007 -2.38345,3.20911 0,2.13953 0.79428,3.2085 2.38345,3.2085 1.04938,0 1.79892,-0.52075 2.24866,-1.56451 l 2.20276,1.17297 c -1.04993,1.86548 -2.62509,2.79846 -4.72549,2.79846 -1.6199,0 -2.91763,-0.4967 -3.89206,-1.48901 -0.9761,-0.99341 -1.46274,-2.36273 -1.46274,-4.10852 0,-1.71503 0.50229,-3.07654 1.50748,-4.08502 1.00519,-1.00854 2.25702,-1.51257 3.75781,-1.51257 2.22012,0 3.80981,0.87488 4.77081,2.62286 z m 10.36337,0 c -0.45087,-0.98169 -1.11145,-1.47284 -1.98242,-1.47284 -1.62103,0 -2.43213,1.07007 -2.43213,3.20911 0,2.13953 0.8111,3.2085 2.43213,3.2085 1.05109,0 1.78717,-0.52075 2.20728,-1.56451 l 2.25201,1.17297 c -1.04828,1.86548 -2.62122,2.79846 -4.71771,2.79846 -1.61768,0 -2.9126,-0.4967 -3.88647,-1.48901 -0.97217,-0.99341 -1.45935,-2.36273 -1.45935,-4.10852 0,-1.71503 0.49445,-3.07654 1.48285,-4.08502 0.98785,-1.00854 2.2453,-1.51257 3.7735,-1.51257 2.21619,0 3.80365,0.87488 4.76129,2.62286 z"
               id="path1027"
               inkscape:connector-curvature="0"
               style="stroke-width:0.45386502" />
          </g>
        </g>
        <g
           id="g1044"
           style="stroke-width:0.45386502">
          <circle
             style="fill:#ffffff;stroke-width:0.45386502"
             id="circle1033"
             r="10.80664"
             cy="15.31348"
             cx="255.55124" />
          <g
             id="g1039"
             style="stroke-width:0.45386502">
            <path
               id="path1035"
               d="m 258.67819,12.18701 c 0,-0.4165 -0.33789,-0.75391 -0.75293,-0.75391 h -4.77344 c -0.41504,0 -0.75293,0.3374 -0.75293,0.75391 v 4.77295 h 1.33105 v 5.65186 h 3.61719 v -5.65186 h 1.33105 v -4.77295 z"
               inkscape:connector-curvature="0"
               style="stroke-width:0.45386502" />
            <circle
               id="circle1037"
               r="1.63281"
               cy="9.1723604"
               cx="255.53854"
               style="stroke-width:0.45386502" />
          </g>
          <path
             style="clip-rule:evenodd;fill-rule:evenodd;stroke-width:0.45386502"
             id="path1041"
             d="m 255.5239,3.40723 c -3.23242,0 -5.96875,1.12793 -8.20801,3.38379 -2.29785,2.3335 -3.44629,5.0957 -3.44629,8.28467 0,3.18897 1.14844,5.93164 3.44629,8.22656 2.29785,2.29443 5.03418,3.44189 8.20801,3.44189 3.21289,0 5.99805,-1.15625 8.35352,-3.47119 2.21973,-2.19727 3.33008,-4.92969 3.33008,-8.19727 0,-3.26758 -1.12988,-6.02881 -3.3877,-8.28467 -2.25977,-2.25585 -5.02442,-3.38378 -8.2959,-3.38378 z m 0.0293,2.09961 c 2.64844,0 4.89746,0.93408 6.74707,2.80127 1.86914,1.84717 2.80371,4.10303 2.80371,6.76758 0,2.68359 -0.91504,4.91064 -2.74512,6.68018 -1.92871,1.90625 -4.19629,2.85889 -6.80566,2.85889 -2.61035,0 -4.85938,-0.94287 -6.74707,-2.82959 -1.88965,-1.88672 -2.83301,-4.12305 -2.83301,-6.70947 0,-2.58691 0.9541,-4.84229 2.8623,-6.76758 1.83009,-1.8672 4.06934,-2.80128 6.71778,-2.80128 z"
             inkscape:connector-curvature="0" />
        </g>
      </g>
    </g>
    <text
       id="text1057"
       y="-1312.6042"
       x="524.67108"
       style="color:#000000;font-style:normal;font-variant:normal;font-weight:normal;font-stretch:normal;font-size:18.3026px;line-height:100%;font-family:'Nanum Pen Script OTF';-inkscape-font-specification:'Nanum Pen Script OTF';text-indent:0;text-align:center;text-decoration:none;text-decoration-line:none;letter-spacing:0px;word-spacing:0px;text-transform:none;writing-mode:lr-tb;direction:ltr;baseline-shift:baseline;text-anchor:middle;display:inline;overflow:visible;visibility:visible;opacity:0.855;fill:#060404;fill-opacity:1;fill-rule:nonzero;stroke:none;stroke-width:1.11319;enable-background:accumulate"
       xml:space="preserve"
       transform="scale(1.0032295,0.9967809)" />
    <flowRoot
       xml:space="preserve"
       id="flowRoot1176"
       style="font-style:normal;font-variant:normal;font-weight:normal;font-stretch:normal;font-size:0.666667px;line-height:100%;font-family:'Nanum Pen Script OTF';-inkscape-font-specification:'Nanum Pen Script OTF';text-align:center;letter-spacing:0px;word-spacing:-79.64px;writing-mode:lr-tb;text-anchor:middle;fill:#000000;fill-opacity:1;stroke:none;stroke-width:1px;stroke-linecap:butt;stroke-linejoin:miter;stroke-opacity:1"><flowRegion
         style="font-style:normal;font-variant:normal;font-weight:normal;font-stretch:normal;line-height:100%;font-family:'Nanum Pen Script OTF';-inkscape-font-specification:'Nanum Pen Script OTF'"
         id="flowRegion1172"><rect
           style="line-height:100%;-inkscape-font-specification:'Nanum Pen Script OTF';font-family:'Nanum Pen Script OTF';font-weight:normal;font-style:normal;font-stretch:normal;font-variant:normal;"
           id="rect1170"
           width="24.574669"
           height="5.6710773"
           x="1103.9697"
           y="105.4821" /></flowRegion><flowPara
         id="flowPara1174" /></flowRoot>
    <text
       xml:space="preserve"
       style="font-style:normal;font-variant:normal;font-weight:normal;font-stretch:normal;font-size:20.2755px;line-height:100%;font-family:'Nanum Pen Script OTF';-inkscape-font-specification:'Nanum Pen Script OTF';text-align:center;letter-spacing:0px;word-spacing:0px;text-anchor:middle;display:inline;opacity:0.855;fill:#000000;fill-opacity:1;stroke:none;stroke-width:1.18319;filter:url(#filter4155)"
       x="1220.5941"
       y="-904.44073"
       id="text1097"
       transform="scale(0.96265764,1.0387909)"><tspan
         sodipodi:role="line"
         x="1220.5941"
         y="-904.44073"
         style="font-style:normal;font-variant:normal;font-weight:normal;font-stretch:normal;font-size:54.5999px;line-height:100%;font-family:'Nanum Pen Script OTF';-inkscape-font-specification:'Nanum Pen Script OTF';fill:#000000;fill-opacity:1;stroke-width:1.18319"
         id="tspan1095">그거</tspan><tspan
         id="tspan1567"
         sodipodi:role="line"
         x="1220.5941"
         y="-849.84088"
         style="font-style:normal;font-variant:normal;font-weight:normal;font-stretch:normal;font-size:54.5999px;line-height:100%;font-family:'Nanum Pen Script OTF';-inkscape-font-specification:'Nanum Pen Script OTF';fill:#000000;fill-opacity:1;stroke-width:1.18319">아세요?</tspan></text>
    <text
       xml:space="preserve"
       style="font-style:normal;font-variant:normal;font-weight:normal;font-stretch:normal;font-size:53.3333px;line-height:100%;font-family:'Nanum Pen Script OTF';-inkscape-font-specification:'Nanum Pen Script OTF';text-align:center;letter-spacing:0px;word-spacing:0px;text-anchor:middle;display:inline;opacity:0.855;fill:#000000;fill-opacity:1;stroke:none;stroke-width:1.2641;filter:url(#filter4155)"
       x="1488.0829"
       y="-868.94141"
       id="text1013"
       transform="scale(0.96265765,1.0387909)"><tspan
         id="tspan208"
         sodipodi:role="line"
         x="1488.0829"
         y="-868.94141"
         style="font-style:normal;font-variant:normal;font-weight:normal;font-stretch:normal;font-size:53.3333px;line-height:100%;font-family:'Nanum Pen Script OTF';-inkscape-font-specification:'Nanum Pen Script OTF';text-align:center;text-anchor:middle;fill:#000000;fill-opacity:1;stroke-width:1.2641">후추와 당근은 완전히</tspan><tspan
         sodipodi:role="line"
         x="1488.0829"
         y="-815.60809"
         style="font-style:normal;font-variant:normal;font-weight:normal;font-stretch:normal;font-size:53.3333px;line-height:100%;font-family:'Nanum Pen Script OTF';-inkscape-font-specification:'Nanum Pen Script OTF';text-align:center;text-anchor:middle;fill:#000000;fill-opacity:1;stroke-width:1.2641"
         id="tspan187">자유 오픈소스이고</tspan><tspan
         sodipodi:role="line"
         x="1488.0829"
         y="-762.27478"
         style="font-style:normal;font-variant:normal;font-weight:normal;font-stretch:normal;font-size:53.3333px;line-height:100%;font-family:'Nanum Pen Script OTF';-inkscape-font-specification:'Nanum Pen Script OTF';text-align:center;text-anchor:middle;fill:#000000;fill-opacity:1;stroke-width:1.2641"
         id="tspan189">독자들의 후원을 받아</tspan><tspan
         sodipodi:role="line"
         x="1488.0829"
         y="-708.94153"
         style="font-style:normal;font-variant:normal;font-weight:normal;font-stretch:normal;font-size:53.3333px;line-height:100%;font-family:'Nanum Pen Script OTF';-inkscape-font-specification:'Nanum Pen Script OTF';text-align:center;text-anchor:middle;fill:#000000;fill-opacity:1;stroke-width:1.2641"
         id="tspan191">운영하고 있습니다.</tspan></text>
    <text
       xml:space="preserve"
       style="font-style:normal;font-variant:normal;font-weight:normal;font-stretch:normal;font-size:21.5502px;line-height:100%;font-family:'Nanum Pen Script OTF';-inkscape-font-specification:'Nanum Pen Script OTF';text-align:center;letter-spacing:0px;word-spacing:0px;text-anchor:middle;display:inline;opacity:0.855;fill:#000000;fill-opacity:1;stroke:none;stroke-width:1.17049;filter:url(#filter4155)"
       x="1873.0996"
       y="-769.00507"
       id="text1065"
       transform="scale(0.97948259,1.0209472)"><tspan
         sodipodi:role="line"
         x="1873.0996"
         y="-769.00507"
         style="font-style:normal;font-variant:normal;font-weight:normal;font-stretch:normal;font-size:58.0326px;line-height:100%;font-family:'Nanum Pen Script OTF';-inkscape-font-specification:'Nanum Pen Script OTF';fill:#000000;fill-opacity:1;stroke-width:1.17049"
         id="tspan1063">이번 화에 도움을 주신</tspan><tspan
         id="tspan1596"
         sodipodi:role="line"
         x="1873.0996"
         y="-710.97247"
         style="font-style:normal;font-variant:normal;font-weight:normal;font-stretch:normal;font-size:58.0326px;line-height:100%;font-family:'Nanum Pen Script OTF';-inkscape-font-specification:'Nanum Pen Script OTF';fill:#000000;fill-opacity:1;stroke-width:1.17049">960명의 후원자에게</tspan><tspan
         id="tspan1598"
         sodipodi:role="line"
         x="1873.0996"
         y="-652.93988"
         style="font-style:normal;font-variant:normal;font-weight:normal;font-stretch:normal;font-size:58.0326px;line-height:100%;font-family:'Nanum Pen Script OTF';-inkscape-font-specification:'Nanum Pen Script OTF';fill:#000000;fill-opacity:1;stroke-width:1.17049">감사드립니다!</tspan></text>
    <text
       id="text1170"
       y="-2088.5088"
       x="1254.8606"
       style="color:#000000;font-style:normal;font-variant:normal;font-weight:normal;font-stretch:normal;font-size:15.3633px;line-height:100%;font-family:'Nanum Pen Script OTF';-inkscape-font-specification:'Nanum Pen Script OTF';text-indent:0;text-align:center;text-decoration:none;text-decoration-line:none;letter-spacing:0px;word-spacing:0px;text-transform:none;writing-mode:lr-tb;direction:ltr;baseline-shift:baseline;text-anchor:middle;display:inline;overflow:visible;visibility:visible;opacity:0.855;fill:#060404;fill-opacity:1;fill-rule:nonzero;stroke:none;stroke-width:1.33752;enable-background:accumulate"
       xml:space="preserve"
       transform="scale(0.99514974,1.0048739)"><tspan
         y="-2088.5088"
         x="1254.8606"
         style="color:#000000;font-style:normal;font-variant:normal;font-weight:normal;font-stretch:normal;font-size:44.8567px;line-height:100%;font-family:'Nanum Pen Script OTF';-inkscape-font-specification:'Nanum Pen Script OTF';text-indent:0;text-align:center;text-decoration:none;text-decoration-line:none;letter-spacing:0px;word-spacing:0px;text-transform:none;writing-mode:lr-tb;direction:ltr;baseline-shift:baseline;text-anchor:middle;display:inline;overflow:visible;visibility:visible;fill:#060404;fill-opacity:1;fill-rule:nonzero;stroke:#000000;stroke-width:1.33752;stroke-opacity:1;enable-background:accumulate"
         sodipodi:role="line"
         id="tspan1106">2019년 4월 25일</tspan><tspan
         y="-2038.9916"
         x="1262.0197"
         style="color:#000000;font-style:normal;font-variant:normal;font-weight:normal;font-stretch:normal;font-size:51.2648px;line-height:100%;font-family:'Nanum Pen Script OTF';-inkscape-font-specification:'Nanum Pen Script OTF';text-indent:0;text-align:center;text-decoration:none;text-decoration-line:none;letter-spacing:0px;word-spacing:0px;text-transform:none;writing-mode:lr-tb;direction:ltr;baseline-shift:baseline;text-anchor:middle;display:inline;overflow:visible;visibility:visible;fill:#060404;fill-opacity:1;fill-rule:nonzero;stroke:#000000;stroke-width:1.33752;stroke-opacity:1;enable-background:accumulate"
         sodipodi:role="line"
         id="tspan1108"> </tspan><tspan
         y="-1987.7268"
         x="1254.8606"
         style="color:#000000;font-style:normal;font-variant:normal;font-weight:normal;font-stretch:normal;font-size:51.2648px;line-height:100%;font-family:'Nanum Pen Script OTF';-inkscape-font-specification:'Nanum Pen Script OTF';text-indent:0;text-align:center;text-decoration:none;text-decoration-line:none;letter-spacing:0px;word-spacing:0px;text-transform:none;writing-mode:lr-tb;direction:ltr;baseline-shift:baseline;text-anchor:middle;display:inline;overflow:visible;visibility:visible;fill:#060404;fill-opacity:1;fill-rule:nonzero;stroke:none;stroke-width:1.33752;enable-background:accumulate"
         sodipodi:role="line"
         id="tspan1112"><tspan
   id="tspan1546"
   style="line-height:100%;stroke:#000000;stroke-opacity:1">그림 및 이야기</tspan>: David Revoy.</tspan><tspan
         y="-1962.5721"
         x="1254.8606"
         sodipodi:role="line"
         id="tspan1114" /><tspan
         id="tspan1473"
         y="-1921.0986"
         x="1254.8606"
         style="color:#000000;font-style:normal;font-variant:normal;font-weight:normal;font-stretch:normal;font-size:51.2648px;line-height:100%;font-family:'Nanum Pen Script OTF';-inkscape-font-specification:'Nanum Pen Script OTF';text-indent:0;text-align:center;text-decoration:none;text-decoration-line:none;letter-spacing:0px;word-spacing:0px;text-transform:none;writing-mode:lr-tb;direction:ltr;baseline-shift:baseline;text-anchor:middle;display:inline;overflow:visible;visibility:visible;fill:#060404;fill-opacity:1;fill-rule:nonzero;stroke:none;stroke-width:1.33752;enable-background:accumulate"
         sodipodi:role="line"><tspan
   id="tspan1549"
   style="line-height:100%;stroke:#000000;stroke-opacity:1">베타 독자</tspan>: CalimeroTeknik, Craig Maloney, Martin Disch,</tspan><tspan
         id="tspan1292"
         y="-1869.8337"
         x="1254.8606"
         style="color:#000000;font-style:normal;font-variant:normal;font-weight:normal;font-stretch:normal;font-size:51.2648px;line-height:100%;font-family:'Nanum Pen Script OTF';-inkscape-font-specification:'Nanum Pen Script OTF';text-indent:0;text-align:center;text-decoration:none;text-decoration-line:none;letter-spacing:0px;word-spacing:0px;text-transform:none;writing-mode:lr-tb;direction:ltr;baseline-shift:baseline;text-anchor:middle;display:inline;overflow:visible;visibility:visible;fill:#060404;fill-opacity:1;fill-rule:nonzero;stroke:none;stroke-width:1.33752;enable-background:accumulate"
         sodipodi:role="line">Midgard, Nicolas Artance, Valvin.</tspan><tspan
         y="-1818.569"
         x="1262.0197"
         style="color:#000000;font-style:normal;font-variant:normal;font-weight:normal;font-stretch:normal;font-size:51.2648px;line-height:100%;font-family:'Nanum Pen Script OTF';-inkscape-font-specification:'Nanum Pen Script OTF';text-indent:0;text-align:center;text-decoration:none;text-decoration-line:none;letter-spacing:0px;word-spacing:0px;text-transform:none;writing-mode:lr-tb;direction:ltr;baseline-shift:baseline;text-anchor:middle;display:inline;overflow:visible;visibility:visible;fill:#060404;fill-opacity:1;fill-rule:nonzero;stroke:none;stroke-width:1.33752;enable-background:accumulate"
         sodipodi:role="line"
         id="tspan1122"> </tspan><tspan
         y="-1767.3041"
         x="1254.8606"
         style="color:#000000;font-style:normal;font-variant:normal;font-weight:normal;font-stretch:normal;font-size:51.2648px;line-height:100%;font-family:'Nanum Pen Script OTF';-inkscape-font-specification:'Nanum Pen Script OTF';text-indent:0;text-align:center;text-decoration:none;text-decoration-line:none;letter-spacing:0px;word-spacing:0px;text-transform:none;writing-mode:lr-tb;direction:ltr;baseline-shift:baseline;text-anchor:middle;display:inline;overflow:visible;visibility:visible;fill:#060404;fill-opacity:1;fill-rule:nonzero;stroke:#000000;stroke-width:1.33752;stroke-opacity:1;enable-background:accumulate"
         sodipodi:role="line"
         id="tspan1124">한글판</tspan><tspan
         y="-1716.0393"
         x="1254.8606"
         style="color:#000000;font-style:normal;font-variant:normal;font-weight:normal;font-stretch:normal;font-size:51.2648px;line-height:100%;font-family:'Nanum Pen Script OTF';-inkscape-font-specification:'Nanum Pen Script OTF';text-indent:0;text-align:center;text-decoration:none;text-decoration-line:none;letter-spacing:0px;word-spacing:0px;text-transform:none;writing-mode:lr-tb;direction:ltr;baseline-shift:baseline;text-anchor:middle;display:inline;overflow:visible;visibility:visible;fill:#060404;fill-opacity:1;fill-rule:nonzero;stroke:none;stroke-width:1.33752;enable-background:accumulate"
         sodipodi:role="line"
         id="tspan1132"><tspan
   id="tspan1551"
   style="line-height:100%;stroke:#000000;stroke-opacity:1">번역</tspan>: Jihoon Kim.</tspan><tspan
         y="-1664.7744"
         x="1262.0197"
         style="color:#000000;font-style:normal;font-variant:normal;font-weight:normal;font-stretch:normal;font-size:51.2648px;line-height:100%;font-family:'Nanum Pen Script OTF';-inkscape-font-specification:'Nanum Pen Script OTF';text-indent:0;text-align:center;text-decoration:none;text-decoration-line:none;letter-spacing:0px;word-spacing:0px;text-transform:none;writing-mode:lr-tb;direction:ltr;baseline-shift:baseline;text-anchor:middle;display:inline;overflow:visible;visibility:visible;fill:#060404;fill-opacity:1;fill-rule:nonzero;stroke:none;stroke-width:1.33752;enable-background:accumulate"
         sodipodi:role="line"
         id="tspan1134"> </tspan><tspan
         y="-1622.8304"
         x="1254.8606"
         style="color:#000000;font-style:normal;font-variant:normal;font-weight:normal;font-stretch:normal;font-size:38.4486px;line-height:100%;font-family:'Nanum Pen Script OTF';-inkscape-font-specification:'Nanum Pen Script OTF';text-indent:0;text-align:center;text-decoration:none;text-decoration-line:none;letter-spacing:0px;word-spacing:0px;text-transform:none;writing-mode:lr-tb;direction:ltr;baseline-shift:baseline;text-anchor:middle;display:inline;overflow:visible;visibility:visible;fill:#060404;fill-opacity:1;fill-rule:nonzero;stroke:#000000;stroke-width:1.33752;stroke-opacity:1;enable-background:accumulate"
         sodipodi:role="line"
         id="tspan1136">헤레바 세계관을 기반으로 함</tspan><tspan
         y="-1584.3818"
         x="1254.8606"
         style="color:#000000;font-style:normal;font-variant:normal;font-weight:normal;font-stretch:normal;font-size:38.4486px;line-height:100%;font-family:'Nanum Pen Script OTF';-inkscape-font-specification:'Nanum Pen Script OTF';text-indent:0;text-align:center;text-decoration:none;text-decoration-line:none;letter-spacing:0px;word-spacing:0px;text-transform:none;writing-mode:lr-tb;direction:ltr;baseline-shift:baseline;text-anchor:middle;display:inline;overflow:visible;visibility:visible;fill:#060404;fill-opacity:1;fill-rule:nonzero;stroke:none;stroke-width:1.33752;enable-background:accumulate"
         sodipodi:role="line"
         id="tspan1140"><tspan
   id="tspan1553"
   style="line-height:100%;stroke:#000000;stroke-opacity:1">원작자</tspan>: David Revoy.</tspan><tspan
         y="-1545.9332"
         x="1254.8606"
         style="color:#000000;font-style:normal;font-variant:normal;font-weight:normal;font-stretch:normal;font-size:38.4486px;line-height:100%;font-family:'Nanum Pen Script OTF';-inkscape-font-specification:'Nanum Pen Script OTF';text-indent:0;text-align:center;text-decoration:none;text-decoration-line:none;letter-spacing:0px;word-spacing:0px;text-transform:none;writing-mode:lr-tb;direction:ltr;baseline-shift:baseline;text-anchor:middle;display:inline;overflow:visible;visibility:visible;fill:#060404;fill-opacity:1;fill-rule:nonzero;stroke:none;stroke-width:1.33752;enable-background:accumulate"
         sodipodi:role="line"
         id="tspan1144"><tspan
   id="tspan1555"
   style="line-height:100%;stroke:#000000;stroke-opacity:1">수석 감독</tspan>: Craig Maloney.</tspan><tspan
         y="-1507.4846"
         x="1254.8606"
         style="color:#000000;font-style:normal;font-variant:normal;font-weight:normal;font-stretch:normal;font-size:38.4486px;line-height:100%;font-family:'Nanum Pen Script OTF';-inkscape-font-specification:'Nanum Pen Script OTF';text-indent:0;text-align:center;text-decoration:none;text-decoration-line:none;letter-spacing:0px;word-spacing:0px;text-transform:none;writing-mode:lr-tb;direction:ltr;baseline-shift:baseline;text-anchor:middle;display:inline;overflow:visible;visibility:visible;fill:#060404;fill-opacity:1;fill-rule:nonzero;stroke:none;stroke-width:1.33752;enable-background:accumulate"
         sodipodi:role="line"
         id="tspan1148"><tspan
   id="tspan1557"
   style="line-height:100%;stroke:#000000;stroke-opacity:1">작가</tspan>: Craig Maloney, Nartance, Scribblemaniac, Valvin.</tspan><tspan
         y="-1464.3755"
         x="1254.8606"
         style="color:#000000;font-style:normal;font-variant:normal;font-weight:normal;font-stretch:normal;font-size:44.8567px;line-height:100%;font-family:'Nanum Pen Script OTF';-inkscape-font-specification:'Nanum Pen Script OTF';text-indent:0;text-align:center;text-decoration:none;text-decoration-line:none;letter-spacing:0px;word-spacing:0px;text-transform:none;writing-mode:lr-tb;direction:ltr;baseline-shift:baseline;text-anchor:middle;display:inline;overflow:visible;visibility:visible;fill:#060404;fill-opacity:1;fill-rule:nonzero;stroke:none;stroke-width:1.33752;enable-background:accumulate"
         sodipodi:role="line"
         id="tspan1154"><tspan
   style="font-style:normal;font-variant:normal;font-weight:normal;font-stretch:normal;font-size:38.4486px;line-height:100%;font-family:'Nanum Pen Script OTF';-inkscape-font-specification:'Nanum Pen Script OTF';stroke-width:1.33752"
   id="tspan1150"><tspan
   id="tspan1559"
   style="line-height:100%;stroke:#000000;stroke-opacity:1">수정</tspan>: Willem Sonke, Moini, Hali, CGand, Alex Gryson</tspan>.</tspan><tspan
         y="-1414.8583"
         x="1262.0197"
         style="color:#000000;font-style:normal;font-variant:normal;font-weight:normal;font-stretch:normal;font-size:51.2648px;line-height:100%;font-family:'Nanum Pen Script OTF';-inkscape-font-specification:'Nanum Pen Script OTF';text-indent:0;text-align:center;text-decoration:none;text-decoration-line:none;letter-spacing:0px;word-spacing:0px;text-transform:none;writing-mode:lr-tb;direction:ltr;baseline-shift:baseline;text-anchor:middle;display:inline;overflow:visible;visibility:visible;fill:#060404;fill-opacity:1;fill-rule:nonzero;stroke:none;stroke-width:1.33752;enable-background:accumulate"
         sodipodi:role="line"
         id="tspan1156"> </tspan><tspan
         y="-1389.7037"
         x="1254.8606"
         sodipodi:role="line"
         id="tspan1158" /><tspan
         y="-1352.8906"
         x="1254.8606"
         style="color:#000000;font-style:normal;font-variant:normal;font-weight:normal;font-stretch:normal;font-size:44.8567px;line-height:100%;font-family:'Nanum Pen Script OTF';-inkscape-font-specification:'Nanum Pen Script OTF';text-indent:0;text-align:center;text-decoration:none;text-decoration-line:none;letter-spacing:0px;word-spacing:0px;text-transform:none;writing-mode:lr-tb;direction:ltr;baseline-shift:baseline;text-anchor:middle;display:inline;overflow:visible;visibility:visible;fill:#060404;fill-opacity:1;fill-rule:nonzero;stroke:none;stroke-width:1.33752;enable-background:accumulate"
         sodipodi:role="line"
         id="tspan1162"><tspan
   id="tspan1561"
   style="line-height:100%;stroke:#000000;stroke-opacity:1">소프트웨어</tspan>: 쿠분투 18.04.1에서 크리타 4.1.5~appimage, 잉크스케이프 0.92.3 사용.</tspan><tspan
         y="-1308.0339"
         x="1254.8606"
         style="color:#000000;font-style:normal;font-variant:normal;font-weight:normal;font-stretch:normal;font-size:44.8567px;line-height:100%;font-family:'Nanum Pen Script OTF';-inkscape-font-specification:'Nanum Pen Script OTF';text-indent:0;text-align:center;text-decoration:none;text-decoration-line:none;letter-spacing:0px;word-spacing:0px;text-transform:none;writing-mode:lr-tb;direction:ltr;baseline-shift:baseline;text-anchor:middle;display:inline;overflow:visible;visibility:visible;fill:#060404;fill-opacity:1;fill-rule:nonzero;stroke:none;stroke-width:1.33752;enable-background:accumulate"
         sodipodi:role="line"
         id="tspan1166"><tspan
   id="tspan1563"
   style="line-height:100%;stroke:#000000;stroke-opacity:1">라이선스</tspan>: 크리에이티브 커먼즈 저작자표시 4.0.</tspan><tspan
         y="-1258.5167"
         x="1254.8606"
         style="color:#000000;font-style:normal;font-variant:normal;font-weight:normal;font-stretch:normal;font-size:51.2648px;line-height:100%;font-family:'Nanum Pen Script OTF';-inkscape-font-specification:'Nanum Pen Script OTF';text-indent:0;text-align:center;text-decoration:none;text-decoration-line:none;letter-spacing:0px;word-spacing:0px;text-transform:none;writing-mode:lr-tb;direction:ltr;baseline-shift:baseline;text-anchor:middle;display:inline;overflow:visible;visibility:visible;fill:#060404;fill-opacity:1;fill-rule:nonzero;stroke:none;stroke-width:1.33752;enable-background:accumulate"
         sodipodi:role="line"
         id="tspan1168">www.peppercarrot.com</tspan></text>
    <text
       xml:space="preserve"
       style="font-style:normal;font-variant:normal;font-weight:normal;font-stretch:normal;font-size:21.7982px;line-height:100%;font-family:'Nanum Pen Script OTF';-inkscape-font-specification:'Nanum Pen Script OTF';text-align:center;letter-spacing:0px;word-spacing:0px;text-anchor:middle;display:inline;opacity:0.855;fill:#000000;fill-opacity:1;stroke:none;stroke-width:1.27459;filter:url(#filter4155)"
       x="646.91125"
       y="3347.7241"
       id="text1003"
       transform="scale(0.99748275,1.0025236)"><tspan
         sodipodi:role="line"
         x="646.91125"
         y="3347.7241"
         style="font-style:normal;font-variant:normal;font-weight:normal;font-stretch:normal;font-size:61.1805px;line-height:100%;font-family:'Nanum Pen Script OTF';-inkscape-font-specification:'Nanum Pen Script OTF';fill:#000000;fill-opacity:1;stroke-width:1.27459"
         id="tspan1001">여러분도</tspan><tspan
         id="tspan1622"
         sodipodi:role="line"
         x="646.91125"
         y="3408.9045"
         style="font-style:normal;font-variant:normal;font-weight:normal;font-stretch:normal;font-size:61.1805px;line-height:100%;font-family:'Nanum Pen Script OTF';-inkscape-font-specification:'Nanum Pen Script OTF';fill:#000000;fill-opacity:1;stroke-width:1.27459">후추와 당근의</tspan><tspan
         id="tspan1624"
         sodipodi:role="line"
         x="646.91125"
         y="3470.0852"
         style="font-style:normal;font-variant:normal;font-weight:normal;font-stretch:normal;font-size:61.1805px;line-height:100%;font-family:'Nanum Pen Script OTF';-inkscape-font-specification:'Nanum Pen Script OTF';fill:#000000;fill-opacity:1;stroke-width:1.27459">후원자가 되어서</tspan><tspan
         id="tspan1630"
         sodipodi:role="line"
         x="646.91125"
         y="3531.2656"
         style="font-style:normal;font-variant:normal;font-weight:normal;font-stretch:normal;font-size:61.1805px;line-height:100%;font-family:'Nanum Pen Script OTF';-inkscape-font-specification:'Nanum Pen Script OTF';fill:#000000;fill-opacity:1;stroke:#000000;stroke-width:1.27459;stroke-opacity:1">여기에 이름을</tspan><tspan
         id="tspan1632"
         sodipodi:role="line"
         x="646.91125"
         y="3592.446"
         style="font-style:normal;font-variant:normal;font-weight:normal;font-stretch:normal;font-size:61.1805px;line-height:100%;font-family:'Nanum Pen Script OTF';-inkscape-font-specification:'Nanum Pen Script OTF';fill:#000000;fill-opacity:1;stroke:#000000;stroke-width:1.27459;stroke-opacity:1">올려보세요!</tspan></text>
    <text
       xml:space="preserve"
       style="font-style:normal;font-variant:normal;font-weight:normal;font-stretch:normal;font-size:18.5239px;line-height:100%;font-family:'Nanum Pen Script OTF';-inkscape-font-specification:'Nanum Pen Script OTF';text-align:center;letter-spacing:0px;word-spacing:0px;text-anchor:middle;display:inline;opacity:0.855;fill:#181412;fill-opacity:1;stroke:none;stroke-width:1.32689;filter:url(#filter4155)"
       x="1013.726"
       y="3399.2061"
       id="text1085"><tspan
         sodipodi:role="line"
         x="1013.726"
         y="3399.2061"
         style="font-style:normal;font-variant:normal;font-weight:normal;font-stretch:normal;font-size:49.5373px;line-height:100%;font-family:'Nanum Pen Script OTF';-inkscape-font-specification:'Nanum Pen Script OTF';fill:#181412;fill-opacity:1;stroke-width:1.32689"
         id="tspan1075">후원은</tspan><tspan
         sodipodi:role="line"
         x="1013.726"
         y="3448.7434"
         style="font-style:normal;font-variant:normal;font-weight:normal;font-stretch:normal;font-size:49.5373px;line-height:100%;font-family:'Nanum Pen Script OTF';-inkscape-font-specification:'Nanum Pen Script OTF';fill:#181412;fill-opacity:1;stroke-width:1.32689"
         id="tspan1077">Patreon, Tipeee,</tspan><tspan
         sodipodi:role="line"
         x="1013.726"
         y="3498.2805"
         style="font-style:normal;font-variant:normal;font-weight:normal;font-stretch:normal;font-size:49.5373px;line-height:100%;font-family:'Nanum Pen Script OTF';-inkscape-font-specification:'Nanum Pen Script OTF';fill:#181412;fill-opacity:1;stroke-width:1.32689"
         id="tspan1079">Paypal, Liberapay</tspan><tspan
         sodipodi:role="line"
         x="1013.726"
         y="3547.8179"
         style="font-style:normal;font-variant:normal;font-weight:normal;font-stretch:normal;font-size:49.5373px;line-height:100%;font-family:'Nanum Pen Script OTF';-inkscape-font-specification:'Nanum Pen Script OTF';fill:#181412;fill-opacity:1;stroke-width:1.32689"
         id="tspan1081">...등에서 할 수 있어요!</tspan><tspan
         sodipodi:role="line"
         x="1013.726"
         y="3574.7998"
         id="tspan1083" /></text>
    <text
       xml:space="preserve"
       style="font-style:normal;font-variant:normal;font-weight:normal;font-stretch:normal;font-size:16.1443px;line-height:100%;font-family:'Nanum Pen Script OTF';-inkscape-font-specification:'Nanum Pen Script OTF';text-align:center;letter-spacing:0px;word-spacing:0px;text-anchor:middle;display:inline;opacity:0.855;fill:#100e0c;fill-opacity:1;stroke:none;stroke-width:1.34536;filter:url(#filter4155)"
       x="1413.9291"
       y="3485.1355"
       id="text1073"><tspan
         sodipodi:role="line"
         x="1413.9291"
         y="3485.1355"
         style="font-style:normal;font-variant:normal;font-weight:normal;font-stretch:normal;font-size:50.2268px;line-height:100%;font-family:'Nanum Pen Script OTF';-inkscape-font-specification:'Nanum Pen Script OTF';fill:#100e0c;fill-opacity:1;stroke-width:1.34536"
         id="tspan1067">자세한 내용은</tspan><tspan
         sodipodi:role="line"
         x="1413.9291"
         y="3535.3623"
         style="font-style:normal;font-variant:normal;font-weight:normal;font-stretch:normal;font-size:50.2268px;line-height:100%;font-family:'Nanum Pen Script OTF';-inkscape-font-specification:'Nanum Pen Script OTF';fill:#100e0c;fill-opacity:1;stroke-width:1.34536"
         id="tspan1071">www.peppercarrot.com을</tspan><tspan
         id="tspan1636"
         sodipodi:role="line"
         x="1413.9291"
         y="3585.5891"
         style="font-style:normal;font-variant:normal;font-weight:normal;font-stretch:normal;font-size:50.2268px;line-height:100%;font-family:'Nanum Pen Script OTF';-inkscape-font-specification:'Nanum Pen Script OTF';fill:#100e0c;fill-opacity:1;stroke-width:1.34536">참고하세요!</tspan></text>
    <text
       xml:space="preserve"
       style="font-style:normal;font-variant:normal;font-weight:normal;font-stretch:normal;font-size:15.0048px;line-height:100%;font-family:'Nanum Pen Script OTF';-inkscape-font-specification:'Nanum Pen Script OTF';text-align:center;letter-spacing:0px;word-spacing:0px;text-anchor:middle;display:inline;opacity:0.855;fill:#000000;fill-opacity:1;stroke:none;stroke-width:1.45161;filter:url(#filter4155)"
       x="2201.8228"
       y="3717.3184"
       id="text1329"><tspan
         sodipodi:role="line"
         x="2201.8228"
         y="3717.3184"
         style="font-style:normal;font-variant:normal;font-weight:normal;font-stretch:normal;font-size:46.4514px;line-height:100%;font-family:'Nanum Pen Script OTF';-inkscape-font-specification:'Nanum Pen Script OTF';fill:#000000;fill-opacity:1;stroke-width:1.45161"
         id="tspan1327">감사합니다!</tspan></text>
  </g>
  <g
     sodipodi:insensitive="true"
     transform="translate(0,850)"
     style="opacity:0.55699978"
     inkscape:label="notes"
     id="layer4"
     inkscape:groupmode="layer">
    <path
       sodipodi:nodetypes="ccccc"
       inkscape:connector-curvature="0"
       id="rect4191-6"
       d="M -574.6862,-488.95855 V -197.9117 H -69.701155 V -488.95855 Z"
       style="color:#000000;clip-rule:nonzero;display:inline;overflow:visible;visibility:visible;opacity:1;isolation:auto;mix-blend-mode:normal;color-interpolation:sRGB;color-interpolation-filters:linearRGB;solid-color:#000000;solid-opacity:1;fill:#fff3c0;fill-opacity:1;fill-rule:nonzero;stroke:#565656;stroke-width:1.20000005;stroke-linecap:butt;stroke-linejoin:miter;stroke-miterlimit:4;stroke-dasharray:none;stroke-dashoffset:0;stroke-opacity:1;marker:none;color-rendering:auto;image-rendering:auto;shape-rendering:auto;text-rendering:auto;enable-background:accumulate" />
    <path
       style="color:#000000;clip-rule:nonzero;display:inline;overflow:visible;visibility:visible;opacity:1;isolation:auto;mix-blend-mode:normal;color-interpolation:sRGB;color-interpolation-filters:linearRGB;solid-color:#000000;solid-opacity:1;fill:#fff3c0;fill-opacity:1;fill-rule:nonzero;stroke:#565656;stroke-width:1.20000005;stroke-linecap:butt;stroke-linejoin:miter;stroke-miterlimit:4;stroke-dasharray:none;stroke-dashoffset:0;stroke-opacity:1;marker:none;color-rendering:auto;image-rendering:auto;shape-rendering:auto;text-rendering:auto;enable-background:accumulate"
       d="M -574.6862,-67.041416 V 45.107424 H -69.701155 V -67.041416 Z"
       id="path1126"
       inkscape:connector-curvature="0"
       sodipodi:nodetypes="ccccc" />
    <rect
       style="opacity:1;vector-effect:none;fill:#ffffff;fill-opacity:1;fill-rule:nonzero;stroke:#565656;stroke-width:2;stroke-linecap:butt;stroke-linejoin:miter;stroke-miterlimit:4;stroke-dasharray:none;stroke-dashoffset:0;stroke-opacity:1;paint-order:fill markers stroke"
       id="rect1119"
       width="40.609375"
       height="40.609375"
       x="-550.34448"
       y="-42.801579"
       rx="6.828125"
       ry="6.828125" />
    <flowRoot
       transform="matrix(1.1072392,0,0,1.1072392,-254.26383,-1642.0391)"
       style="font-style:normal;font-variant:normal;font-weight:normal;font-stretch:normal;font-size:32.5133px;line-height:0.01%;font-family:Lavi;-inkscape-font-specification:'Lavi, Normal';font-variant-ligatures:normal;font-variant-caps:normal;font-variant-numeric:normal;font-feature-settings:normal;text-align:center;letter-spacing:0px;word-spacing:0px;writing-mode:lr-tb;text-anchor:middle;display:inline;opacity:0.86;fill:#000000;fill-opacity:1;stroke:none;stroke-width:0.903147px;stroke-linecap:butt;stroke-linejoin:miter;stroke-opacity:1"
       id="flowRoot4212-7"
       xml:space="preserve"><flowRegion
         style="font-style:normal;font-variant:normal;font-weight:normal;font-stretch:normal;font-size:32.5133px;font-family:Lavi;-inkscape-font-specification:'Lavi, Normal';font-variant-ligatures:normal;font-variant-caps:normal;font-variant-numeric:normal;font-feature-settings:normal;text-align:center;writing-mode:lr-tb;text-anchor:middle;stroke-width:0.903147px"
         id="flowRegion4214-5"><rect
           style="font-style:normal;font-variant:normal;font-weight:normal;font-stretch:normal;font-size:32.51329803px;font-family:Lavi;-inkscape-font-specification:'Lavi, Normal';font-variant-ligatures:normal;font-variant-caps:normal;font-variant-numeric:normal;font-feature-settings:normal;text-align:center;writing-mode:lr-tb;text-anchor:middle;stroke-width:0.90314716px"
           y="1061.6674"
           x="-275.14545"
           height="405.5687"
           width="426.3205"
           id="rect4216-3" /></flowRegion><flowPara
         id="flowPara885"
         style="font-style:normal;font-variant:normal;font-weight:bold;font-stretch:normal;font-size:24.0839px;line-height:1.25;font-family:Lavi;-inkscape-font-specification:'Lavi, Normal';font-variant-ligatures:normal;font-variant-caps:normal;font-variant-numeric:normal;font-feature-settings:normal;text-align:center;writing-mode:lr-tb;text-anchor:middle;stroke-width:0.903147px">NOTE FOR TRANSLATORS</flowPara><flowPara
         id="flowPara145"
         style="font-style:normal;font-variant:normal;font-weight:normal;font-stretch:normal;font-size:12.042px;line-height:1.25;font-family:Lavi;-inkscape-font-specification:'Lavi, Normal';font-variant-ligatures:normal;font-variant-caps:normal;font-variant-numeric:normal;font-feature-settings:normal;text-align:center;writing-mode:lr-tb;text-anchor:middle;stroke-width:0.903147px"> </flowPara><flowPara
         id="flowPara877"
         style="font-style:normal;font-variant:normal;font-weight:normal;font-stretch:normal;font-size:32.5133px;line-height:1.25;font-family:Lavi;-inkscape-font-specification:'Lavi, Normal';font-variant-ligatures:normal;font-variant-caps:normal;font-variant-numeric:normal;font-feature-settings:normal;text-align:center;writing-mode:lr-tb;text-anchor:middle;stroke-width:0.903147px" /><flowPara
         id="flowPara542"
         style="font-style:normal;font-variant:normal;font-weight:normal;font-stretch:normal;font-size:32.5133px;line-height:1.25;font-family:Lavi;-inkscape-font-specification:'Lavi, Normal';font-variant-ligatures:normal;font-variant-caps:normal;font-variant-numeric:normal;font-feature-settings:normal;text-align:center;writing-mode:lr-tb;text-anchor:middle;stroke-width:0.903147px">Replace this section, e.g.:</flowPara><flowPara
         id="flowPara552"
         style="font-style:normal;font-variant:normal;font-weight:normal;font-stretch:normal;font-size:12.042px;line-height:1.25;font-family:Lavi;-inkscape-font-specification:'Lavi, Normal';font-variant-ligatures:normal;font-variant-caps:normal;font-variant-numeric:normal;font-feature-settings:normal;text-align:center;writing-mode:lr-tb;text-anchor:middle;stroke-width:0.903147px"> </flowPara><flowPara
         id="flowPara544"
         style="font-style:normal;font-variant:normal;font-weight:bold;font-stretch:normal;font-size:32.5133px;line-height:1.25;font-family:Lavi;-inkscape-font-specification:'Lavi, Normal';font-variant-ligatures:normal;font-variant-caps:normal;font-variant-numeric:normal;font-feature-settings:normal;text-align:center;writing-mode:lr-tb;text-anchor:middle;stroke-width:0.903147px">French version</flowPara><flowPara
         id="flowPara554"
         style="font-style:normal;font-variant:normal;font-weight:normal;font-stretch:normal;font-size:32.5133px;line-height:1.25;font-family:Lavi;-inkscape-font-specification:'Lavi, Normal';font-variant-ligatures:normal;font-variant-caps:normal;font-variant-numeric:normal;font-feature-settings:normal;text-align:center;writing-mode:lr-tb;text-anchor:middle;stroke-width:0.903147px"><flowSpan
   id="flowSpan155"
   style="font-weight:bold">Translation:</flowSpan> My Name.</flowPara><flowPara
         id="flowPara1038"
         style="font-style:normal;font-variant:normal;font-weight:normal;font-stretch:normal;font-size:32.5133px;line-height:1.25;font-family:Lavi;-inkscape-font-specification:'Lavi, Normal';font-variant-ligatures:normal;font-variant-caps:normal;font-variant-numeric:normal;font-feature-settings:normal;text-align:center;writing-mode:lr-tb;text-anchor:middle;stroke-width:0.903147px"><flowSpan
   id="flowSpan157"
   style="font-weight:bold">Proofreading:</flowSpan> Other Name.</flowPara></flowRoot>
    <flowRoot
       transform="translate(0,-850)"
       style="font-style:normal;font-variant:normal;font-weight:normal;font-stretch:normal;font-size:13.3333px;line-height:140%;font-family:sans-serif;-inkscape-font-specification:'sans-serif, Normal';font-variant-ligatures:normal;font-variant-caps:normal;font-variant-numeric:normal;font-feature-settings:normal;text-align:center;letter-spacing:0px;word-spacing:0px;writing-mode:lr-tb;text-anchor:middle;fill:#000000;fill-opacity:1;stroke:none;stroke-width:1px;stroke-linecap:butt;stroke-linejoin:miter;stroke-opacity:1"
       id="flowRoot147"
       xml:space="preserve"><flowRegion
         id="flowRegion149"><rect
           y="445.68756"
           x="-209.875"
           height="74.75"
           width="127.9375"
           id="rect151" /></flowRegion><flowPara
         id="flowPara153" /></flowRoot>
    <rect
       ry="6.828125"
       rx="6.828125"
       y="-17.825018"
       x="-516.38354"
       height="40.609375"
       width="40.609375"
       id="rect1053"
       style="opacity:1;vector-effect:none;fill:#ffffff;fill-opacity:1;fill-rule:nonzero;stroke:#565656;stroke-width:2;stroke-linecap:butt;stroke-linejoin:miter;stroke-miterlimit:4;stroke-dasharray:none;stroke-dashoffset:0;stroke-opacity:1;paint-order:fill markers stroke" />
    <g
       transform="matrix(0.59407669,0,0,0.59407669,-163.26261,107.22294)"
       id="text1042"
       style="font-style:normal;font-variant:normal;font-weight:500;font-stretch:normal;font-size:53.33333206px;line-height:139.99999762%;font-family:Beteckna;-inkscape-font-specification:'Beteckna, Medium';font-variant-ligatures:normal;font-variant-caps:normal;font-variant-numeric:normal;font-feature-settings:normal;text-align:center;letter-spacing:0px;word-spacing:0px;writing-mode:lr-tb;text-anchor:middle;fill:#000000;fill-opacity:1;stroke:#000000;stroke-width:1px;stroke-linecap:butt;stroke-linejoin:miter;stroke-opacity:1"
       aria-label="文">
      <path
         style="stroke:#000000;stroke-opacity:1"
         inkscape:connector-curvature="0"
         id="path1044"
         d="m -579.73479,-186.8389 q -1.06667,0 -1.81333,-0.74666 -0.74667,-0.74667 -0.74667,-1.81334 0,-1.01333 0.74667,-1.76 0.74666,-0.74666 1.81333,-0.74666 h 17.49333 q 0.48,0 0.48,-0.48 v -4.21334 q 0,-1.22666 0.85334,-2.08 0.90666,-0.85333 2.08,-0.85333 1.17333,0 2.02666,0.85333 0.90667,0.85334 0.90667,2.08 v 4.21334 q 0,0.48 0.48,0.48 h 17.54666 q 1.01334,0 1.76,0.74666 0.74667,0.69334 0.74667,1.76 0,1.06667 -0.74667,1.81334 -0.74666,0.74666 -1.76,0.74666 h -4.26666 q -0.42667,0 -0.58667,0.42667 -4.58667,13.92 -11.57333,21.12 -0.32,0.32 0.0533,0.58667 6.02667,4.16 16.48,7.46666 1.01333,0.32 1.49333,1.28 0.48,0.96 0.16,1.97334 -0.37333,1.06666 -1.33333,1.54666 -0.96,0.48 -1.97333,0.16 -11.89334,-3.68 -19.04,-8.8 -0.37333,-0.26666 -0.74667,0 -7.14666,5.17334 -19.04,8.8 -1.01333,0.32 -1.97333,-0.16 -0.96,-0.48 -1.33333,-1.54666 -0.32,-1.01334 0.16,-1.97334 0.48,-0.96 1.49333,-1.28 10.50667,-3.36 16.48,-7.52 0.37333,-0.21333 0.0533,-0.53333 -5.81333,-5.97333 -9.76,-15.68 -0.42666,-1.01333 0.10667,-2.02667 0.53333,-1.06666 1.65333,-1.33333 1.17334,-0.32 2.18667,0.26667 1.06667,0.53333 1.49333,1.65333 3.36,8.42667 8.48,13.6 0.26667,0.26667 0.58667,-0.0533 5.76,-6.08 9.70666,-17.54667 0.10667,-0.42667 -0.32,-0.42667 z" />
    </g>
    <flowRoot
       xml:space="preserve"
       id="flowRoot1089"
       style="font-style:normal;font-variant:normal;font-weight:normal;font-stretch:normal;font-size:32.5133px;line-height:0.01%;font-family:Lavi;-inkscape-font-specification:'Lavi, Normal';font-variant-ligatures:normal;font-variant-caps:normal;font-variant-numeric:normal;font-feature-settings:normal;text-align:start;letter-spacing:0px;word-spacing:0px;writing-mode:lr-tb;text-anchor:start;display:inline;opacity:0.86;fill:#000000;fill-opacity:1;stroke:none;stroke-width:0.903147px;stroke-linecap:butt;stroke-linejoin:miter;stroke-opacity:1"
       transform="matrix(1.1072392,0,0,1.1072392,-152.13883,-1229.3068)"><flowRegion
         id="flowRegion1067"
         style="font-style:normal;font-variant:normal;font-weight:normal;font-stretch:normal;font-size:32.5133px;font-family:Lavi;-inkscape-font-specification:'Lavi, Normal';font-variant-ligatures:normal;font-variant-caps:normal;font-variant-numeric:normal;font-feature-settings:normal;text-align:start;writing-mode:lr-tb;text-anchor:start;stroke-width:0.903147px"><rect
           id="rect1065"
           width="328.94995"
           height="150.45786"
           x="-275.14545"
           y="1061.6674"
           style="font-style:normal;font-variant:normal;font-weight:normal;font-stretch:normal;font-size:32.51329803px;font-family:Lavi;-inkscape-font-specification:'Lavi, Normal';font-variant-ligatures:normal;font-variant-caps:normal;font-variant-numeric:normal;font-feature-settings:normal;text-align:start;writing-mode:lr-tb;text-anchor:start;stroke-width:0.90314716px" /></flowRegion><flowPara
         style="font-style:normal;font-variant:normal;font-weight:normal;font-stretch:normal;font-size:32.5133px;line-height:1.25;font-family:Lavi;-inkscape-font-specification:'Lavi, Normal';font-variant-ligatures:normal;font-variant-caps:normal;font-variant-numeric:normal;font-feature-settings:normal;text-align:start;writing-mode:lr-tb;text-anchor:start;stroke-width:0.903147px"
         id="flowPara1087">You can also translate</flowPara><flowPara
         id="flowPara1115"
         style="font-style:normal;font-variant:normal;font-weight:normal;font-stretch:normal;font-size:32.5133px;line-height:1.25;font-family:Lavi;-inkscape-font-specification:'Lavi, Normal';font-variant-ligatures:normal;font-variant-caps:normal;font-variant-numeric:normal;font-feature-settings:normal;text-align:start;writing-mode:lr-tb;text-anchor:start;stroke-width:0.903147px">this page if you want.</flowPara></flowRoot>
    <path
       sodipodi:nodetypes="ccccc"
       inkscape:connector-curvature="0"
       id="path158"
       d="m -574.47486,-784.21994 v 205.24103 h 504.562363 v -205.24103 z"
       style="color:#000000;clip-rule:nonzero;display:inline;overflow:visible;visibility:visible;opacity:1;isolation:auto;mix-blend-mode:normal;color-interpolation:sRGB;color-interpolation-filters:linearRGB;solid-color:#000000;solid-opacity:1;fill:#fff3c0;fill-opacity:1;fill-rule:nonzero;stroke:#565656;stroke-width:1.6226846;stroke-linecap:butt;stroke-linejoin:miter;stroke-miterlimit:4;stroke-dasharray:none;stroke-dashoffset:0;stroke-opacity:1;marker:none;color-rendering:auto;image-rendering:auto;shape-rendering:auto;text-rendering:auto;enable-background:accumulate" />
    <flowRoot
       transform="matrix(1.1072392,0,0,1.1072392,-167.38582,-1946.6967)"
       style="font-style:normal;font-variant:normal;font-weight:normal;font-stretch:normal;font-size:32.5133px;line-height:0.01%;font-family:Lavi;-inkscape-font-specification:'Lavi, Normal';font-variant-ligatures:normal;font-variant-caps:normal;font-variant-numeric:normal;font-feature-settings:normal;text-align:start;letter-spacing:0px;word-spacing:0px;writing-mode:lr-tb;text-anchor:start;display:inline;opacity:0.86;fill:#000000;fill-opacity:1;stroke:none;stroke-width:0.903147px;stroke-linecap:butt;stroke-linejoin:miter;stroke-opacity:1"
       id="flowRoot180"
       xml:space="preserve"><flowRegion
         style="font-style:normal;font-variant:normal;font-weight:normal;font-stretch:normal;font-size:32.5133px;font-family:Lavi;-inkscape-font-specification:'Lavi, Normal';font-variant-ligatures:normal;font-variant-caps:normal;font-variant-numeric:normal;font-feature-settings:normal;text-align:start;writing-mode:lr-tb;text-anchor:start;stroke-width:0.903147px"
         id="flowRegion174"><rect
           style="font-style:normal;font-variant:normal;font-weight:normal;font-stretch:normal;font-size:32.51329803px;font-family:Lavi;-inkscape-font-specification:'Lavi, Normal';font-variant-ligatures:normal;font-variant-caps:normal;font-variant-numeric:normal;font-feature-settings:normal;text-align:start;writing-mode:lr-tb;text-anchor:start;stroke-width:0.90314716px"
           y="1061.6674"
           x="-275.14545"
           height="212.88319"
           width="353.73645"
           id="rect172" /></flowRegion><flowPara
         style="font-style:normal;font-variant:normal;font-weight:normal;font-stretch:normal;font-size:32.5133px;line-height:1.25;font-family:Lavi;-inkscape-font-specification:'Lavi, Normal';font-variant-ligatures:normal;font-variant-caps:normal;font-variant-numeric:normal;font-feature-settings:normal;text-align:start;writing-mode:lr-tb;text-anchor:start;stroke-width:0.903147px"
         id="flowPara178">Beta readers help with the story, proofreaders give feedback about the text.</flowPara></flowRoot>
    <g
       transform="translate(-8.1317279,2.3451697)"
       id="g1043">
      <path
         style="opacity:1;vector-effect:none;fill:#cccccc;fill-opacity:1;fill-rule:nonzero;stroke:#787878;stroke-width:2;stroke-linecap:butt;stroke-linejoin:miter;stroke-miterlimit:4;stroke-dasharray:none;stroke-dashoffset:0;stroke-opacity:1;paint-order:fill markers stroke"
         d="m -518.53699,-666.84645 c -0.61422,0 -1.11032,0.44692 -1.11032,1.00248 v 12.91861 c 0,0.55556 0.4961,1.00249 1.11032,1.00249 h 1.73686 v 0.60907 c 0,0.76558 0.61574,1.38132 1.38132,1.38132 h 6.37043 c 0.76558,0 1.38133,-0.61574 1.38133,-1.38132 v -0.60907 h 1.73685 c 0.61423,0 1.11031,-0.44693 1.11031,-1.00249 v -12.91861 c 0,-0.55556 -0.49608,-1.00248 -1.11031,-1.00248 z"
         id="rect192"
         inkscape:connector-curvature="0" />
      <path
         style="opacity:1;vector-effect:none;fill:#ffff98;fill-opacity:1;fill-rule:nonzero;stroke:#787878;stroke-width:2;stroke-linecap:butt;stroke-linejoin:miter;stroke-miterlimit:4;stroke-dasharray:none;stroke-dashoffset:0;stroke-opacity:1;paint-order:fill markers stroke"
         d="m -512.23359,-731.76886 c -20.17859,0 -27.20983,14.91405 -27.20983,25.74398 0,18.52719 18.63045,25.28436 18.63045,37.26089 v 2.29638 c 0,0.73518 0.59075,1.32595 1.32595,1.32595 h 14.50685 c 0.7352,0 1.32597,-0.59077 1.32597,-1.32595 v -2.29638 c 0,-11.97653 18.63043,-18.7337 18.63043,-37.26089 0,-10.82993 -7.03125,-25.74398 -27.20982,-25.74398 z"
         id="path184"
         inkscape:connector-curvature="0"
         sodipodi:nodetypes="ssscsscsss" />
      <path
         id="path1016"
         style="fill:none;fill-rule:evenodd;stroke:#787878;stroke-width:1px;stroke-linecap:butt;stroke-linejoin:miter;stroke-opacity:1"
         d="m -507.44236,-664.67965 c -2.02309,-12.0089 -0.93024,-25.69888 3.20539,-31.87898 l 2e-5,-1.4e-4 c -0.69465,2.89489 -6.40555,2.16513 -6.6718,-0.75503 -1.0292,0.75759 -2.788,0.37964 -3.26183,0.2394 -0.0566,5.19286 -5.00817,-2.69192 -6.34424,0.51563 3.22578,4.01626 4.8117,19.84006 3.01482,31.87912"
         inkscape:connector-curvature="0"
         sodipodi:nodetypes="ccccccc" />
    </g>
  </g>
</svg>
