<?xml version="1.0" encoding="UTF-8" standalone="no"?>
<svg
   xmlns:dc="http://purl.org/dc/elements/1.1/"
   xmlns:cc="http://creativecommons.org/ns#"
   xmlns:rdf="http://www.w3.org/1999/02/22-rdf-syntax-ns#"
   xmlns:svg="http://www.w3.org/2000/svg"
   xmlns="http://www.w3.org/2000/svg"
   xmlns:xlink="http://www.w3.org/1999/xlink"
   xmlns:sodipodi="http://sodipodi.sourceforge.net/DTD/sodipodi-0.dtd"
   xmlns:inkscape="http://www.inkscape.org/namespaces/inkscape"
   id="svg2"
   version="1.1"
   inkscape:version="1.0.2 (e86c870879, 2021-01-15)"
   width="2481"
   height="3503"
   sodipodi:docname="E02P01.svg">
  <metadata
     id="metadata8">
    <rdf:RDF>
      <cc:Work
         rdf:about="">
        <dc:format>image/svg+xml</dc:format>
        <dc:type
           rdf:resource="http://purl.org/dc/dcmitype/StillImage" />
        <dc:title />
      </cc:Work>
    </rdf:RDF>
  </metadata>
  <defs
     id="defs6">
    <filter
       inkscape:collect="always"
       style="color-interpolation-filters:sRGB"
       id="filter4398-0"
       x="-0.0032890984"
       width="1.0065782"
       y="-0.013935394"
       height="1.0278708">
      <feGaussianBlur
         inkscape:collect="always"
         stdDeviation="0.11702162"
         id="feGaussianBlur4400-5" />
    </filter>
    <filter
       inkscape:collect="always"
       style="color-interpolation-filters:sRGB"
       id="filter4398-0-3"
       x="-0.0032890984"
       width="1.0065782"
       y="-0.013935394"
       height="1.0278708">
      <feGaussianBlur
         inkscape:collect="always"
         stdDeviation="0.11702162"
         id="feGaussianBlur4400-5-6" />
    </filter>
    <filter
       inkscape:collect="always"
       style="color-interpolation-filters:sRGB"
       id="filter1523"
       x="-0.014046481"
       width="1.028093"
       y="-0.020275207"
       height="1.0405504">
      <feGaussianBlur
         inkscape:collect="always"
         stdDeviation="0.082295226"
         id="feGaussianBlur1525" />
    </filter>
    <filter
       inkscape:collect="always"
       style="color-interpolation-filters:sRGB"
       id="filter1389-3-5-6-1"
       x="-0.34488288"
       width="1.6897658"
       y="-0.050960641"
       height="1.1019213">
      <feGaussianBlur
         inkscape:collect="always"
         stdDeviation="1.0255595"
         id="feGaussianBlur1391-6-3-2-2" />
    </filter>
    <filter
       inkscape:collect="always"
       style="color-interpolation-filters:sRGB"
       id="filter1389-3-5-6"
       x="-0.34488288"
       width="1.6897658"
       y="-0.050960641"
       height="1.1019213">
      <feGaussianBlur
         inkscape:collect="always"
         stdDeviation="1.0255595"
         id="feGaussianBlur1391-6-3-2" />
    </filter>
    <filter
       inkscape:collect="always"
       style="color-interpolation-filters:sRGB"
       id="filter1389-3-5"
       x="-0.34488288"
       width="1.6897658"
       y="-0.050960641"
       height="1.1019213">
      <feGaussianBlur
         inkscape:collect="always"
         stdDeviation="1.0255595"
         id="feGaussianBlur1391-6-3" />
    </filter>
    <filter
       inkscape:collect="always"
       style="color-interpolation-filters:sRGB"
       id="filter1389-3"
       x="-0.34488288"
       width="1.6897658"
       y="-0.050960641"
       height="1.1019213">
      <feGaussianBlur
         inkscape:collect="always"
         stdDeviation="1.0255595"
         id="feGaussianBlur1391-6" />
    </filter>
    <filter
       inkscape:collect="always"
       style="color-interpolation-filters:sRGB"
       id="filter1389"
       x="-0.34488288"
       width="1.6897658"
       y="-0.050960641"
       height="1.1019213">
      <feGaussianBlur
         inkscape:collect="always"
         stdDeviation="1.0255595"
         id="feGaussianBlur1391" />
    </filter>
    <linearGradient
       inkscape:collect="always"
       xlink:href="#linearGradient1063-6-8-8"
       id="linearGradient1057-2"
       gradientUnits="userSpaceOnUse"
       gradientTransform="translate(-1175.5162,1405.4356)"
       x1="1833.3468"
       y1="408.49603"
       x2="1839.3806"
       y2="419.64142" />
    <linearGradient
       id="linearGradient1063-6-8-8"
       inkscape:collect="always">
      <stop
         id="stop1059"
         offset="0"
         style="stop-color:#b18f85;stop-opacity:1" />
      <stop
         id="stop1061"
         offset="1"
         style="stop-color:#a27671;stop-opacity:1" />
    </linearGradient>
    <filter
       inkscape:collect="always"
       style="color-interpolation-filters:sRGB"
       id="filter864-8"
       x="-0.039999999"
       width="1.1186565"
       y="-0.087771527"
       height="1.1755431"
       inkscape:label="PepperGrain"
       inkscape:menu="Image Effects"
       inkscape:menu-tooltip="Adds a small scale graininess">
      <feGaussianBlur
         inkscape:collect="always"
         stdDeviation="1.9155206"
         id="feGaussianBlur866-7"
         result="fbSourceGraphic" />
      <feColorMatrix
         result="fbSourceGraphicAlpha"
         in="fbSourceGraphic"
         values="0 0 0 -1 0 0 0 0 -1 0 0 0 0 -1 0 0 0 0 1 0"
         id="feColorMatrix868-9" />
      <feTurbulence
         id="feTurbulence870-2"
         type="turbulence"
         numOctaves="5"
         baseFrequency="0.218"
         seed="77"
         result="result0" />
      <feColorMatrix
         id="feColorMatrix872-0"
         result="result4"
         values="0"
         type="saturate" />
      <feComposite
         in2="result4"
         id="feComposite874-2"
         in="fbSourceGraphic"
         operator="arithmetic"
         k1="-0.35"
         k2="0.24"
         k3="0.5"
         result="result2"
         baseFrequency="0.54700000000000004"
         k4="-0.25182778"
         numOctaves="3" />
      <feBlend
         in2="fbSourceGraphic"
         id="feBlend876-3"
         result="result5"
         mode="overlay"
         in="result2"
         k4="-0.25" />
      <feComposite
         in2="fbSourceGraphic"
         id="feComposite878-7"
         in="result5"
         operator="in"
         result="result3" />
    </filter>
    <linearGradient
       inkscape:collect="always"
       xlink:href="#linearGradient1063-6-8-8"
       id="linearGradient1057"
       gradientUnits="userSpaceOnUse"
       gradientTransform="translate(-1175.5162,1405.4356)"
       x1="1847.7394"
       y1="416.16275"
       x2="1874.1125"
       y2="437.57367" />
    <filter
       inkscape:collect="always"
       style="color-interpolation-filters:sRGB"
       id="filter864"
       x="-0.039999999"
       width="1.1186565"
       y="-0.087771527"
       height="1.1755431"
       inkscape:label="PepperGrain"
       inkscape:menu="Image Effects"
       inkscape:menu-tooltip="Adds a small scale graininess">
      <feGaussianBlur
         inkscape:collect="always"
         stdDeviation="1.9155206"
         id="feGaussianBlur866"
         result="fbSourceGraphic" />
      <feColorMatrix
         result="fbSourceGraphicAlpha"
         in="fbSourceGraphic"
         values="0 0 0 -1 0 0 0 0 -1 0 0 0 0 -1 0 0 0 0 1 0"
         id="feColorMatrix868" />
      <feTurbulence
         id="feTurbulence870"
         type="turbulence"
         numOctaves="5"
         baseFrequency="0.29599999999999999"
         seed="77"
         result="result0" />
      <feColorMatrix
         id="feColorMatrix872"
         result="result4"
         values="0"
         type="saturate" />
      <feComposite
         in2="result4"
         id="feComposite874"
         in="fbSourceGraphic"
         operator="arithmetic"
         k1="-0.35"
         k2="0.24"
         k3="0.5"
         result="result2"
         baseFrequency="0.54700000000000004"
         k4="-0.25182778"
         numOctaves="3" />
      <feBlend
         in2="fbSourceGraphic"
         id="feBlend876"
         result="result5"
         mode="overlay"
         in="result2"
         k4="-0.25" />
      <feComposite
         in2="fbSourceGraphic"
         id="feComposite878"
         in="result5"
         operator="in"
         result="result3" />
    </filter>
  </defs>
  <sodipodi:namedview
     pagecolor="#ffffff"
     bordercolor="#666666"
     borderopacity="1"
     objecttolerance="10"
     gridtolerance="10"
     guidetolerance="10"
     inkscape:pageopacity="0"
     inkscape:pageshadow="2"
     inkscape:window-width="1920"
     inkscape:window-height="1022"
     id="namedview4"
     showgrid="false"
     inkscape:zoom="1.0182338"
     inkscape:cx="1058.3132"
     inkscape:cy="1567.9736"
     inkscape:window-x="0"
     inkscape:window-y="28"
     inkscape:window-maximized="1"
     inkscape:current-layer="layer1"
     inkscape:document-rotation="0" />
  <g
     inkscape:groupmode="layer"
     id="layer2"
     inkscape:label="artwork"
     sodipodi:insensitive="true">
    <image
       sodipodi:absref="/home/cherry/Workspace/peppercarrot/webcomics/ep02_Rainbow-potions/lang/gfx_Pepper-and-Carrot_by-David-Revoy_E02P01.png"
       xlink:href="../gfx_Pepper-and-Carrot_by-David-Revoy_E02P01.png"
       y="0"
       x="-1.6728083e-06"
       id="image10"
       height="3503"
       width="2481" />
  </g>
  <g
     inkscape:groupmode="layer"
     id="layer1"
     inkscape:label="text"
     style="opacity:1">
    <flowRoot
       xml:space="preserve"
       id="flowRoot3063-8"
       style="color:#000000;font-style:normal;font-variant:normal;font-weight:normal;font-stretch:normal;line-height:0.01%;font-family:'Nanum Pen Script OTF';-inkscape-font-specification:'Nanum Pen Script OTF';letter-spacing:0px;word-spacing:0px;display:inline;overflow:visible;visibility:visible;fill:#e69d76;fill-opacity:1;fill-rule:nonzero;stroke:#e99f77;stroke-width:1.34906983;stroke-opacity:1;marker:none;enable-background:accumulate"
       transform="matrix(1.4949736,0,0,1.7776841,386.09218,2153.4057)"><flowRegion
         id="flowRegion3065-8"
         style="font-style:normal;font-variant:normal;font-weight:normal;font-stretch:normal;font-family:'Nanum Pen Script OTF';-inkscape-font-specification:'Nanum Pen Script OTF';stroke-width:4.3819828"><rect
           id="rect3067-6"
           width="153.02928"
           height="91.750099"
           x="92.642677"
           y="425.30325"
           style="color:#000000;font-style:normal;font-variant:normal;font-weight:normal;font-stretch:normal;font-size:72px;font-family:'Nanum Pen Script OTF';-inkscape-font-specification:'Nanum Pen Script OTF';display:inline;overflow:visible;visibility:visible;fill:#e69d76;fill-opacity:1;fill-rule:nonzero;stroke:#e99f77;stroke-width:1.34906983;stroke-opacity:1;marker:none;enable-background:accumulate" /></flowRegion><flowPara
         style="color:#000000;font-style:normal;font-variant:normal;font-weight:normal;font-stretch:normal;font-size:64px;line-height:1.25;font-family:'Nanum Pen Script OTF';-inkscape-font-specification:'Nanum Pen Script OTF';text-align:center;text-anchor:middle;display:inline;overflow:visible;visibility:visible;fill:#e69d76;fill-opacity:1;fill-rule:nonzero;stroke:#e99f77;stroke-width:1.34906983;stroke-miterlimit:4;stroke-dasharray:none;stroke-opacity:1;marker:none;enable-background:accumulate"
         id="flowPara3188">쪼롱</flowPara></flowRoot>
    <flowRoot
       xml:space="preserve"
       id="flowRoot3063-8-9"
       style="color:#000000;font-style:normal;font-variant:normal;font-weight:normal;font-stretch:normal;line-height:0.01%;font-family:'Nanum Pen Script OTF';-inkscape-font-specification:'Nanum Pen Script OTF';letter-spacing:0px;word-spacing:0px;display:inline;overflow:visible;visibility:visible;fill:#e69d76;fill-opacity:1;fill-rule:nonzero;stroke:#e99f77;stroke-width:1.65694535;stroke-opacity:1;marker:none;enable-background:accumulate"
       transform="matrix(1.1567782,0.1165419,-0.09434663,1.5134621,504.5618,2349.3532)"><flowRegion
         id="flowRegion3065-8-8"
         style="font-style:normal;font-variant:normal;font-weight:normal;font-stretch:normal;font-family:'Nanum Pen Script OTF';-inkscape-font-specification:'Nanum Pen Script OTF';stroke-width:5.32205772"><rect
           id="rect3067-6-6"
           width="153.02928"
           height="91.750099"
           x="92.642677"
           y="425.30325"
           style="color:#000000;font-style:normal;font-variant:normal;font-weight:normal;font-stretch:normal;font-size:72px;font-family:'Nanum Pen Script OTF';-inkscape-font-specification:'Nanum Pen Script OTF';display:inline;overflow:visible;visibility:visible;fill:#e69d76;fill-opacity:1;fill-rule:nonzero;stroke:#e99f77;stroke-width:1.65694535;stroke-opacity:1;marker:none;enable-background:accumulate" /></flowRegion><flowPara
         style="color:#000000;font-style:normal;font-variant:normal;font-weight:normal;font-stretch:normal;font-size:64px;line-height:1.25;font-family:'Nanum Pen Script OTF';-inkscape-font-specification:'Nanum Pen Script OTF';text-align:center;text-anchor:middle;display:inline;overflow:visible;visibility:visible;fill:#e69d76;fill-opacity:1;fill-rule:nonzero;stroke:#e99f77;stroke-width:1.65694535;stroke-miterlimit:4;stroke-dasharray:none;stroke-opacity:1;marker:none;enable-background:accumulate"
         id="flowPara3188-0">쪼롱</flowPara></flowRoot>
    <flowRoot
       xml:space="preserve"
       id="flowRoot3063-8-9-4"
       style="color:#000000;font-style:normal;font-variant:normal;font-weight:normal;font-stretch:normal;line-height:0.01%;font-family:'Nanum Pen Script OTF';-inkscape-font-specification:'Nanum Pen Script OTF';letter-spacing:0px;word-spacing:0px;display:inline;overflow:visible;visibility:visible;fill:#e69d76;fill-opacity:1;fill-rule:nonzero;stroke:#e99f77;stroke-width:2.18760729;stroke-opacity:1;marker:none;enable-background:accumulate"
       transform="matrix(0.90931874,-0.17383216,0.17663237,1.0777148,493.06355,2675.5481)"><flowRegion
         id="flowRegion3065-8-8-2"
         style="font-style:normal;font-variant:normal;font-weight:normal;font-stretch:normal;font-family:'Nanum Pen Script OTF';-inkscape-font-specification:'Nanum Pen Script OTF';stroke-width:6.7811141"><rect
           id="rect3067-6-6-0"
           width="153.02928"
           height="91.750099"
           x="92.642677"
           y="425.30325"
           style="color:#000000;font-style:normal;font-variant:normal;font-weight:normal;font-stretch:normal;font-size:72px;font-family:'Nanum Pen Script OTF';-inkscape-font-specification:'Nanum Pen Script OTF';display:inline;overflow:visible;visibility:visible;fill:#e69d76;fill-opacity:1;fill-rule:nonzero;stroke:#e99f77;stroke-width:2.18760729;stroke-opacity:1;marker:none;enable-background:accumulate" /></flowRegion><flowPara
         id="flowPara3743"
         style="font-size:72px;line-height:1.25">쪼롱</flowPara></flowRoot>
    <flowRoot
       xml:space="preserve"
       id="flowRoot107"
       style="font-style:normal;font-variant:normal;font-weight:normal;font-stretch:normal;line-height:0.01%;font-family:'Xiaolai SC';-inkscape-font-specification:'Xiaolai SC';letter-spacing:0px;word-spacing:0px;opacity:0.901;fill:#2d1a1c;fill-opacity:1;stroke:#000000;stroke-width:0.286735;stroke-linecap:butt;stroke-linejoin:miter;stroke-miterlimit:4;stroke-dasharray:none;stroke-opacity:1;filter:url(#filter4398-0)"
       transform="matrix(3.9818943,-0.55702703,0.32357536,4.258011,-3450.2583,-5459.7277)"><flowRegion
         id="flowRegion101"
         style="font-style:normal;font-variant:normal;font-weight:normal;font-stretch:normal;font-family:'Xiaolai SC';-inkscape-font-specification:'Xiaolai SC'"><rect
           id="rect99"
           width="131.93344"
           height="14.722872"
           x="841.07574"
           y="1755.9342"
           style="font-style:normal;font-variant:normal;font-weight:normal;font-stretch:normal;font-family:'Xiaolai SC';-inkscape-font-specification:'Xiaolai SC';fill:#2d1a1c;fill-opacity:1;stroke:#000000;stroke-width:0.28673479;stroke-miterlimit:4;stroke-dasharray:none;stroke-opacity:1;" /></flowRegion><flowPara
         style="font-style:normal;font-variant:normal;font-weight:normal;font-stretch:normal;font-size:12px;line-height:1.25;font-family:'Xiaolai SC';-inkscape-font-specification:'Xiaolai SC';text-align:center;text-anchor:middle;fill:#2d1a1c;fill-opacity:1;stroke:#000000;stroke-width:0.286735;stroke-miterlimit:4;stroke-dasharray:none;stroke-opacity:1"
         id="flowPara105">警告</flowPara></flowRoot>
    <path
       style="display:inline;opacity:1;vector-effect:none;fill:url(#linearGradient1057);fill-opacity:1;fill-rule:evenodd;stroke:none;stroke-width:0.85843062px;stroke-linecap:butt;stroke-linejoin:miter;stroke-miterlimit:4;stroke-dasharray:none;stroke-dashoffset:0;stroke-opacity:1;filter:url(#filter864)"
       d="m 647.59652,1812.7791 c 6.3735,0.7499 49.8283,3.5627 55.8269,2.063 0,0 15.99949,35.3258 -17.621,37.7934 l -30.7429,-0.6769 -14.6217,-6.7484 -2.48686,-19.8957 z"
       id="path1004"
       inkscape:connector-curvature="0"
       sodipodi:nodetypes="ccccccc"
       transform="matrix(0.98775018,-0.21175583,0.15604354,1.340407,-272.8508,-489.82127)" />
    <path
       style="display:inline;opacity:0.86799999;vector-effect:none;fill:url(#linearGradient1057-2);fill-opacity:1;fill-rule:evenodd;stroke:none;stroke-width:1.36884165px;stroke-linecap:butt;stroke-linejoin:miter;stroke-miterlimit:4;stroke-dasharray:none;stroke-dashoffset:0;stroke-opacity:1;filter:url(#filter864-8)"
       d="m 647.59652,1812.7791 c 6.3735,0.7499 49.8283,3.5627 55.8269,2.063 0,0 15.99949,35.3258 -17.621,37.7934 l -30.7429,-0.6769 -14.6217,-6.7484 -2.48686,-19.8957 z"
       id="path1004-5"
       inkscape:connector-curvature="0"
       sodipodi:nodetypes="ccccccc"
       transform="matrix(0.61136876,-0.13454985,0.09658327,0.85169586,81.018225,351.13823)" />
    <path
       style="display:inline;opacity:0.48900003;fill:none;fill-rule:evenodd;stroke:#000000;stroke-width:1px;stroke-linecap:butt;stroke-linejoin:miter;stroke-opacity:1;filter:url(#filter1389)"
       d="m 683.42171,1797.0129 c 1.61667,10.9855 3.54263,37.2533 3.54263,37.2533 l 3.59412,11.0456"
       id="path875"
       inkscape:connector-curvature="0" />
    <path
       style="display:inline;opacity:0.48900003;fill:none;fill-rule:evenodd;stroke:#000000;stroke-width:0.80000001;stroke-linecap:butt;stroke-linejoin:miter;stroke-miterlimit:4;stroke-dasharray:none;stroke-opacity:1;filter:url(#filter1389-3)"
       d="m 675.0229,1799.4475 c 1.61667,10.9855 2.38106,22.6175 2.38106,22.6175"
       id="path875-7"
       inkscape:connector-curvature="0"
       sodipodi:nodetypes="cc" />
    <path
       style="display:inline;opacity:0.48900003;fill:none;fill-rule:evenodd;stroke:#000000;stroke-width:0.80000001;stroke-linecap:butt;stroke-linejoin:miter;stroke-miterlimit:4;stroke-dasharray:none;stroke-opacity:1;filter:url(#filter1389-3-5)"
       d="m 674.61298,1827.3886 c 1.61667,10.9855 2.38106,22.6175 2.38106,22.6175"
       id="path875-7-5"
       inkscape:connector-curvature="0"
       sodipodi:nodetypes="cc" />
    <path
       style="display:inline;opacity:0.48900003;fill:none;fill-rule:evenodd;stroke:#000000;stroke-width:0.80000001;stroke-linecap:butt;stroke-linejoin:miter;stroke-miterlimit:4;stroke-dasharray:none;stroke-opacity:1;filter:url(#filter1389-3-5-6)"
       d="m 656.49243,1799.5108 c 1.61667,10.9855 2.38106,22.6175 2.38106,22.6175"
       id="path875-7-5-9"
       inkscape:connector-curvature="0"
       sodipodi:nodetypes="cc" />
    <path
       style="display:inline;opacity:0.48900003;fill:none;fill-rule:evenodd;stroke:#000000;stroke-width:0.80000001;stroke-linecap:butt;stroke-linejoin:miter;stroke-miterlimit:4;stroke-dasharray:none;stroke-opacity:1;filter:url(#filter1389-3-5-6-1)"
       d="m 700.98392,1819.016 c 1.61667,10.9855 2.38106,22.6175 2.38106,22.6175"
       id="path875-7-5-9-7"
       inkscape:connector-curvature="0"
       sodipodi:nodetypes="cc" />
    <flowRoot
       xml:space="preserve"
       id="flowRoot4325-9-3"
       style="font-style:normal;font-variant:normal;font-weight:normal;font-stretch:normal;line-height:0.01%;font-family:Arial;-inkscape-font-specification:Arial;letter-spacing:0px;word-spacing:0px;display:inline;opacity:0.647;fill:#000000;fill-opacity:1;stroke:#000000;stroke-width:0.671173;stroke-linecap:butt;stroke-linejoin:miter;stroke-miterlimit:4;stroke-dasharray:none;stroke-opacity:1;filter:url(#filter1523)"
       transform="matrix(3.6906788,-0.20226875,0.11864504,3.648253,-2874.8704,-4430.9836)"><flowRegion
         id="flowRegion4327-0-6"
         style="fill:#000000;fill-opacity:1;stroke-width:0.671173;stroke-miterlimit:4;stroke-dasharray:none"><rect
           id="rect4329-16-0"
           width="131.93344"
           height="14.722872"
           x="841.07574"
           y="1755.9342"
           style="fill:#000000;fill-opacity:1;stroke:#000000;stroke-width:0.67117327;stroke-miterlimit:4;stroke-dasharray:none;stroke-opacity:1" /></flowRegion><flowPara
         id="flowPara4335-0-6"
         style="font-style:normal;font-variant:normal;font-weight:normal;font-stretch:normal;font-size:12px;line-height:1.25;font-family:Fondamento;-inkscape-font-specification:Fondamento;text-align:center;text-anchor:middle;fill:#000000;fill-opacity:1;stroke:#000000;stroke-width:0.671173;stroke-miterlimit:4;stroke-dasharray:none;stroke-opacity:1">33</flowPara></flowRoot>
    <flowRoot
       xml:space="preserve"
       id="flowRoot117"
       style="font-style:normal;font-variant:normal;font-weight:normal;font-stretch:normal;line-height:0.01%;font-family:'Xiaolai SC';-inkscape-font-specification:'Xiaolai SC';letter-spacing:0px;word-spacing:0px;opacity:0.901;fill:#2d1a1c;fill-opacity:1;stroke:#000000;stroke-width:0.286735;stroke-linecap:butt;stroke-linejoin:miter;stroke-miterlimit:4;stroke-dasharray:none;stroke-opacity:1;filter:url(#filter4398-0-3)"
       transform="matrix(2.6064506,-0.25939732,0.336369,2.7650832,-2220.1389,-3036.46)"><flowRegion
         id="flowRegion111"
         style="font-style:normal;font-variant:normal;font-weight:normal;font-stretch:normal;font-family:'Xiaolai SC';-inkscape-font-specification:'Xiaolai SC'"><rect
           id="rect109"
           width="131.93344"
           height="14.722872"
           x="841.07574"
           y="1755.9342"
           style="font-style:normal;font-variant:normal;font-weight:normal;font-stretch:normal;font-family:'Xiaolai SC';-inkscape-font-specification:'Xiaolai SC';fill:#2d1a1c;fill-opacity:1;stroke:#000000;stroke-width:0.28673479;stroke-miterlimit:4;stroke-dasharray:none;stroke-opacity:1;" /></flowRegion><flowPara
         style="font-style:normal;font-variant:normal;font-weight:normal;font-stretch:normal;font-size:12px;line-height:1.25;font-family:'Xiaolai SC';-inkscape-font-specification:'Xiaolai SC';text-align:center;text-anchor:middle;fill:#2d1a1c;fill-opacity:1;stroke:#000000;stroke-width:0.286735;stroke-miterlimit:4;stroke-dasharray:none;stroke-opacity:1"
         id="flowPara115">魔女私有地</flowPara></flowRoot>
  </g>
</svg>
