<?xml version="1.0" encoding="UTF-8" standalone="no"?>
<svg
   id="svg2"
   version="1.1"
   inkscape:version="1.1 (c68e22c387, 2021-05-23)"
   width="2481"
   height="3503"
   sodipodi:docname="E35P02.svg"
   xmlns:inkscape="http://www.inkscape.org/namespaces/inkscape"
   xmlns:sodipodi="http://sodipodi.sourceforge.net/DTD/sodipodi-0.dtd"
   xmlns:xlink="http://www.w3.org/1999/xlink"
   xmlns="http://www.w3.org/2000/svg"
   xmlns:svg="http://www.w3.org/2000/svg"
   xmlns:rdf="http://www.w3.org/1999/02/22-rdf-syntax-ns#"
   xmlns:cc="http://creativecommons.org/ns#"
   xmlns:dc="http://purl.org/dc/elements/1.1/">
  <metadata
     id="metadata8">
    <rdf:RDF>
      <cc:Work
         rdf:about="">
        <dc:format>image/svg+xml</dc:format>
        <dc:type
           rdf:resource="http://purl.org/dc/dcmitype/StillImage" />
        <dc:title />
      </cc:Work>
    </rdf:RDF>
  </metadata>
  <defs
     id="defs6" />
  <sodipodi:namedview
     pagecolor="#ffffff"
     bordercolor="#666666"
     borderopacity="1"
     objecttolerance="10"
     gridtolerance="10"
     guidetolerance="10"
     inkscape:pageopacity="0"
     inkscape:pageshadow="2"
     inkscape:window-width="1920"
     inkscape:window-height="1017"
     id="namedview4"
     showgrid="false"
     inkscape:window-x="-8"
     inkscape:window-y="-8"
     inkscape:window-maximized="1"
     inkscape:document-rotation="0"
     inkscape:snap-global="false"
     inkscape:pagecheckerboard="0"
     inkscape:zoom="0.48986583"
     inkscape:cx="1295.2526"
     inkscape:cy="2711.9671"
     inkscape:current-layer="layer3" />
  <g
     inkscape:groupmode="layer"
     id="layer2"
     inkscape:label="artwork"
     sodipodi:insensitive="true">
    <image
       xlink:href="../gfx_Pepper-and-Carrot_by-David-Revoy_E35P02.png"
       y="0"
       x="0"
       id="image10"
       height="3503"
       width="2481" />
  </g>
  <g
     inkscape:groupmode="layer"
     id="layer3"
     inkscape:label="speechbubbles">
    <path
       style="color:#000000;display:inline;overflow:visible;visibility:visible;fill:#ffffff;fill-opacity:1;fill-rule:nonzero;stroke:none;stroke-width:1.04438px;marker:none;enable-background:accumulate"
       d="m 304.05483,2060.6861 c -6.79342,17.214 -45.10939,18.658 -59.21454,15.159 28.43271,19.257 27.44145,31.222 -11.16214,33.079 64.739,34.707 11.83512,29.455 1.40028,38.255 50.83203,11.961 33.98368,30.089 1.35601,38.422 58.42648,0.509 44.28227,12.725 22.16208,30.304 25.86883,-11.509 65.7741,-19.785 67.18998,10.306 37.48188,-26.287 56.82071,-25.775 70.37483,3.95 11.32193,-25.632 49.87371,-30.565 64.61509,-2.922 12.69876,-37.411 58.00938,-32.144 84.98117,-14.013 -15.1407,-12.796 -4.81614,-33.866 46.8039,-29.605 -4.15493,-11.73 2.37911,-26.535 28.44667,-24.58 -30.0266,-7.085 -35.56033,-14.394 20.19222,-22.259 -42.42443,-0.76 -81.98553,-2.319 -32.21243,-29.141 -15.61517,-0.649 -52.66388,21.732 -35.39036,-43.765 -45.7335,19.313 -93.79048,29.186 -91.4261,-11.382 -17.00247,21.943 -46.49287,32.801 -59.32274,5.393 -10.59102,25.603 -42.76005,14.882 -59.47129,-2.593 -11.04194,17.342 -27.55958,29.055 -59.32263,5.392 z"
       id="path3549-3-7-8"
       inkscape:connector-curvature="0"
       sodipodi:nodetypes="ccccccccccccccccccc" />
    <path
       style="fill:#ffffff;stroke:none;stroke-width:1.11747"
       d="m 402.95155,2014.2181 c 26.97915,-1.1151 157.35896,-6.3967 155.33108,101.0997 -2.54084,134.6965 -3.821,196.2482 -143.43924,194.1791 -149.95773,-2.2225 -119.77638,-83.4609 -120.95054,-185.257 -1.03953,-90.1215 36.66343,-106.7644 109.0587,-110.0218 z"
       id="path3280-8-6"
       inkscape:connector-curvature="0"
       sodipodi:nodetypes="csssc" />
    <path
       style="color:#000000;display:inline;overflow:visible;visibility:visible;fill:#ffffff;fill-opacity:1;fill-rule:nonzero;stroke:none;stroke-width:1px;marker:none;enable-background:accumulate"
       d="m 596.40058,2341.6788 c -54.36956,-1.3158 -66.37353,-18.0831 -76.5499,-29.227 3.41593,-3.9672 8.07344,-11.8668 8.07344,-11.8668 0,0 -22.49109,-20.0802 -27.87182,-30.4304 -5.38071,-10.3501 9.28192,-17.9731 9.28192,-17.9731 0,0 44.94813,37.9871 57.64264,43.4391 -9.83295,10.5902 -13.21387,16.7305 -18.38931,19.4211 3.1733,8.211 28.66645,25.6349 47.81303,26.6371 z"
       id="path4456-3"
       inkscape:connector-curvature="0" />
    <path
       style="color:#000000;display:inline;overflow:visible;visibility:visible;fill:#ffffff;fill-opacity:1;fill-rule:nonzero;stroke:none;stroke-width:0.803733px;marker:none;enable-background:accumulate"
       d="m 1983.6307,2169.1943 c -4.3305,-56.497 5.9266,-125.335 143.5229,-109.0086 131.1888,15.5659 122.995,36.9633 124.3842,108.6937 1.4636,75.5745 -52.0802,112.1707 -146.0786,104.9253 -55.0849,-4.2457 -109.9759,-8.2642 -121.8285,-104.6104 z"
       id="path5026-4"
       inkscape:connector-curvature="0"
       sodipodi:nodetypes="csssc" />
    <path
       style="color:#000000;display:inline;overflow:visible;visibility:visible;fill:#ffffff;fill-opacity:1;fill-rule:nonzero;stroke:none;stroke-width:1.63768px;marker:none;enable-background:accumulate"
       d="m 2065.086,2229.8886 c -4.2272,-2.5286 -41.7209,44.7549 -41.7209,44.7549 l -35.4466,3.459 1.2502,26.926 -53.4012,-4.5662 35.1739,-8.2914 -1.9242,-26.5703 33.0101,-11.5413 29.8178,-33.9388 z"
       id="path4448"
       inkscape:connector-curvature="0"
       sodipodi:nodetypes="cccccccccc" />
    <path
       style="color:#000000;display:inline;overflow:visible;visibility:visible;fill:#ffffff;fill-opacity:1;fill-rule:nonzero;stroke:none;stroke-width:1.13372px;marker:none;enable-background:accumulate"
       d="m 150.50806,2712.5775 c -5.38081,-40.9174 8.968,-150.9905 119.27496,-147.3243 110.30683,3.6661 128.24299,54.2697 130.93336,69.5811 2.69043,15.3114 26.00733,101.6848 -60.08583,129.0164 -86.09325,27.3314 -163.21833,6.6167 -190.12249,-51.2732 z"
       id="path3525"
       inkscape:connector-curvature="0" />
    <path
       style="color:#000000;display:inline;overflow:visible;visibility:visible;fill:#ffffff;fill-opacity:1;fill-rule:nonzero;stroke:none;stroke-width:0.897274px;marker:none;enable-background:accumulate"
       d="m 1196.1072,2492.4237 c -21.2596,0.8182 -42.8592,1.788 -63.2178,6.9827 -27.1973,7.5173 -48.7372,26.7389 -53.3295,48.8922 -2.2319,13.8942 6.758,28.0441 21.1355,36.2747 16.4963,9.8699 36.6107,15.2118 56.6513,19.0219 30.1155,5.4774 61.3525,5.2221 92.0451,3.7345 24.4201,-1.3088 48.9967,-4.9224 71.1399,-13.2573 9.8425,-3.5602 19.63,-8.4478 24.8065,-16.0968 6.8665,-9.7255 7.3601,-21.3487 4.9662,-32.0561 -2.9629,-13.2028 -11.9025,-25.8753 -26.1228,-33.7852 -15.6997,-9.089 -35.0858,-13.2462 -54.1792,-15.6624 -17.824,-2.2129 -35.8486,-3.2505 -53.8419,-4.2311 -6.6896,-0.2852 -13.3713,-0.132 -20.0533,0.1829 z"
       id="path3525-3"
       inkscape:connector-curvature="0" />
    <path
       style="color:#000000;display:inline;overflow:visible;visibility:visible;fill:#ffffff;fill-opacity:1;fill-rule:nonzero;stroke:none;stroke-width:0.850812px;marker:none;enable-background:accumulate"
       d="m 378.31396,2800.4734 c -21.81603,-6.0365 -24.7236,-21.3438 -23.81085,-34.7307 0.91307,-13.3879 3.43731,-21.6544 -10.14803,-38.2382 -13.58559,-16.5829 -43.44749,-17.8668 -26.36893,-33.9071 2.07754,-10.3968 3.18888,-19.4098 8.63924,-29.73 6.0118,-11.3839 -30.60834,-11.6128 -30.60834,-11.6128 0,0 -9.2601,36.4069 -8.60393,58.2554 0.65624,21.8486 37.98578,15.4181 49.29264,29.8458 10.55851,13.4728 3.54145,36.8172 10.69223,46.6028 7.15061,9.7866 19.89022,13.3481 30.91597,13.5148 z"
       id="path4538-8"
       inkscape:connector-curvature="0"
       sodipodi:nodetypes="csscscsssc" />
    <path
       style="fill:#ffffff;fill-rule:evenodd;stroke:none;stroke-width:1.00018px;stroke-linecap:butt;stroke-linejoin:miter;stroke-opacity:1"
       d="m 683.3565,2839.4097 c 22.47948,-7.6888 8.18259,-27.2917 13.56572,-36.5201 5.55722,-9.5269 47.07364,3.0903 52.88651,-5.37 5.81286,-8.4604 -12.6074,-31.2018 -3.16551,-44.2198 9.44226,-13.0187 37.29048,-1.0958 25.77916,13.6924 -11.51166,14.7889 6.85876,28.7751 -4.63767,39.1332 -19.17293,17.274 -46.18634,1.6002 -58.07288,2.8253 -7.86988,0.8115 -1.86593,15.6117 -9.63373,23.71 -7.76824,8.099 -16.7216,6.749 -16.7216,6.749 z"
       id="path4272-2"
       inkscape:connector-curvature="0"
       sodipodi:nodetypes="csssssssc" />
    <path
       style="fill:#ffffff;stroke:none;stroke-width:1.03835"
       d="m 1757.6864,2734.7823 c -1.258,-33.7766 21.2997,-118.3324 131.3348,-111.9727 110.0352,6.3597 144.4743,43.5131 147.699,103.5506 5.101,94.9786 -52.7885,120.3608 -135.9123,127.3953 -85.6919,7.2524 -144.4514,-57.9436 -143.1215,-118.9732 z"
       id="path3280-8-90"
       inkscape:connector-curvature="0"
       sodipodi:nodetypes="csssc" />
    <path
       style="color:#000000;display:inline;overflow:visible;visibility:visible;fill:#ffffff;fill-opacity:1;fill-rule:nonzero;stroke:none;stroke-width:1px;marker:none;enable-background:accumulate"
       d="m 1981.8954,2716.5742 c 21.7602,57.3157 81.8906,99.8161 102.9782,111.0989 -62.8332,-18.8149 -116.4083,-51.6111 -129.2847,-90.9766 -12.8765,-39.3656 26.3065,-20.1223 26.3065,-20.1223 z"
       id="path4480"
       inkscape:connector-curvature="0" />
    <path
       style="fill:#ffffff;fill-rule:evenodd;stroke:none;stroke-width:0.96684px;stroke-linecap:butt;stroke-linejoin:miter;stroke-opacity:1"
       d="m 1138.6059,1150.3164 c -32.0036,0.1934 -64.1354,2.5884 -95.2601,9.017 -11.6861,2.505 -23.2993,5.4223 -34.3779,9.44 -14.50239,5.7163 -25.47893,16.1572 -33.69179,27.4274 -9.32533,12.9312 -15.24976,27.4508 -18.17131,42.3193 -2.33599,11.6183 -3.4875,23.3881 -4.0936,35.1506 -0.60442,16.2063 1.56117,32.6068 7.95058,47.9748 7.50365,19.1004 20.02554,37.2586 38.45939,50.4289 17.68943,12.1254 39.49753,19.0276 61.31293,24.0904 35.9483,7.9859 73.4032,9.1976 110.4113,9.1826 27.8758,-0.2469 55.5508,-4.0718 82.5123,-9.8325 20.7526,-4.1611 41.4527,-8.9094 61.078,-15.9987 14.6376,-5.6615 28.1522,-14.2822 36.216,-26.152 10.752,-14.8891 15.4567,-32.0839 19.3817,-48.9705 4.2563,-19.3623 6.3789,-39.4958 1.3404,-58.906 -4.8764,-18.3953 -16.7792,-34.8313 -30.1664,-49.7479 -17.1613,-17.9002 -41.7029,-30.0899 -67.7356,-36.7768 -28.0377,-7.2348 -57.6334,-8.3084 -86.7726,-8.6074 -16.1305,-0.092 -32.2625,-0.087 -48.3933,-0.039 z"
       id="path1353"
       inkscape:connector-curvature="0"
       sodipodi:nodetypes="cssscscssccc" />
    <path
       style="color:#000000;display:inline;overflow:visible;visibility:visible;fill:#ffffff;fill-opacity:1;fill-rule:nonzero;stroke:none;stroke-width:1.32704px;marker:none;enable-background:accumulate"
       d="m 1567.2167,1263.2749 c -23.3951,-13.5874 -47.4345,-27.8488 -80.2438,-37.3029 -9.419,-2.6108 -19.456,-5.052 -29.7275,-6.2777 -10.8699,-0.2589 -18.5833,3.1803 -21.2691,7.3616 -4.9062,5.8321 -4.0751,13.3543 -14.8239,17.5815 -8.0334,2.9766 -20.4058,1.2285 -30.8948,0.151 -55.5613,-5.5966 -116.4529,-16.3815 -168.9125,-7.1839 -10.3316,2.0201 -20.2049,4.8402 -25.0559,9.4641 -13.7945,11.5007 -11.0257,28.0336 10.0671,40.719 14.9737,7.6682 42.5542,10.484 56.687,4.5569 7.5899,-3.0688 8.1735,-8.3583 5.5139,-13.1861 -1.2458,-8.9607 7.6217,0.022 24.0822,-3.6677 37.2334,-5.6014 77.5291,-14.6477 110.5037,-9.7254 10.0809,1.4739 25.6582,0.1256 35.3315,-0.599 12.5832,-2.5592 14.9137,-9.3886 15.3033,-15.3984 0.7726,-6.1637 0.047,-13.4883 11.1891,-17.2514 6.7172,-3.1499 17.8965,0.5337 26.5328,1.8753 27.2211,5.8451 51.5565,15.088 70.9679,25.6439 1.7031,1.0526 3.2274,2.1441 4.749,3.2392 z"
       id="path4496-9"
       inkscape:connector-curvature="0"
       inkscape:transform-center-x="43.812193"
       inkscape:transform-center-y="17.777857"
       sodipodi:nodetypes="ccccccccccccccccccc" />
    <path
       style="fill:#ffffff;stroke:none;stroke-width:0.799537"
       d="m 917.16679,506.07458 c 3.41096,-79.95564 19.94359,-109.60227 220.48401,-112.65143 277.5478,-4.2206 296.9666,63.76808 291.694,157.5583 -5.6889,101.19365 -169.3818,101.47753 -303.1915,98.35148 -230.911,-5.39418 -206.90457,-61.2111 -208.98651,-143.25835 z"
       id="path3280-8-0"
       inkscape:connector-curvature="0"
       sodipodi:nodetypes="csssc" />
    <path
       style="display:inline;fill:#ffffff;stroke:none;stroke-width:0.810137"
       d="m 823.81832,318.63754 c 2.85292,-62.9498 19.16323,-145.15068 169.77655,-146.44194 150.61303,-1.29222 201.29333,38.50078 209.68203,107.2676 16.0689,131.72583 -60.4453,121.41139 -173.2865,135.97035 -116.32714,15.00816 -210.58056,-4.53008 -206.17208,-96.79601 z"
       id="path3280-8-2"
       inkscape:connector-curvature="0"
       sodipodi:nodetypes="csssc" />
    <path
       style="color:#000000;display:inline;overflow:visible;visibility:visible;fill:#ffffff;fill-opacity:1;fill-rule:nonzero;stroke:none;stroke-width:1.12734px;marker:none;enable-background:accumulate"
       d="m 1054.8727,654.26102 c 26.1383,-30.95776 348.576,-53.00464 423.0628,17.01045 51.9098,48.79294 31.8845,142.36388 -12.6087,166.72126 -44.4935,24.35859 -259.3045,31.21923 -320.3574,18.81389 -54.9019,-11.15418 -112.53,-35.16455 -115.5682,-99.06921 -1.2399,-26.0814 -0.6668,-72.51986 25.4715,-103.47639 z"
       id="path4040-5"
       inkscape:connector-curvature="0"
       sodipodi:nodetypes="zssssz" />
    <path
       style="color:#000000;display:inline;overflow:visible;visibility:visible;fill:#ffffff;fill-opacity:1;fill-rule:nonzero;stroke:none;stroke-width:1px;marker:none;enable-background:accumulate"
       d="m 880.35523,328.5815 c -13.93862,-43.79995 -75.39205,-33.32608 -131.42892,10.54697 35.43843,-36.41055 76.35778,-76.93843 143.98747,-47.05147 49.32789,21.79901 14.57754,15.53221 14.57754,15.53221 z"
       id="path4035-4"
       inkscape:connector-curvature="0"
       sodipodi:nodetypes="ccscc" />
    <path
       style="display:inline;fill:#ffffff;fill-rule:evenodd;stroke:none;stroke-width:1.32892px;stroke-linecap:butt;stroke-linejoin:miter;stroke-opacity:1"
       d="m 1558.4515,73.619933 c 26.0897,5.793404 25.4844,18.959491 13.2639,17.639048 7.8336,22.947809 31.8244,75.029379 10.9866,81.465079 0.3357,63.9758 14.0079,96.99152 -1.6369,133.3805 57.655,-16.22272 59.8997,11.34478 55.5652,37.36138 21.2687,-34.64111 37.5321,-12.07585 31.1551,19.78535 21.8554,-34.83705 47.1838,-50.69323 43.1251,-13.35757 24.6971,-26.97855 25.9604,-39.45512 46.7063,-27.78038 37.713,-32.36707 53.4422,12.81962 76.2766,32.93992 8.5148,-36.73832 24.3461,-29.5983 52.0672,-10.87598 9.4845,-15.46913 -12.5846,-42.91267 13.3193,-9.1895 -10.4307,-38.67303 42.4828,-20.02028 53.2793,-14.32381 -13.2231,-17.39684 9.5083,-22.00167 73.5967,-11.89519 -24.8186,-9.30819 -35.4709,-40.04329 14.3228,-61.82426 -65.3004,8.83659 -40.9662,-9.45622 -20.9228,-29.45507 -42.7064,-30.71396 -0.2234,-59.34641 21.0031,-88.49783 -43.1304,13.50432 -58.8297,-44.502353 -66.7836,-58.334579 -65.464,10.543316 -55.7537,4.67716 -49.471,-0.440896 -40.5588,12.824672 -38.2857,1.446479 -48.7675,-2.724502 -111.4544,15.616521 -107.5076,-0.688504 -130.5581,-9.525581 -9.1318,18.669199 -32.6113,11.414952 -56.1505,4.053771 0.8824,15.799861 -13.3339,11.180214 -27.2345,6.987641 -1.7807,6.812619 -15.5863,8.77544 -45.6049,4.198974 21.4376,5.623526 8.1987,6.563777 -57.5374,0.413485 z"
       id="path4289-9-2"
       inkscape:connector-curvature="0"
       sodipodi:nodetypes="cccccccccccccccccccccccc" />
    <path
       style="fill:#ffffff;fill-opacity:1;fill-rule:evenodd;stroke:none;stroke-width:1.01104px;stroke-linecap:butt;stroke-linejoin:miter;stroke-opacity:1"
       d="m 2392.4404,828.31665 c -1.3002,6.34195 -60.094,55.67385 -23.3792,12.27055 l -34.3518,12.12489 c -66.5857,-26.31741 -284.4301,-10.24548 -357.2979,4.27336 l -19.9892,-26.10175 3.987,21.91163 -23.1755,-32.45316 12.9881,43.70313 -12.2332,-14.83665 5.1379,16.38217 -11.8826,-7.96597 2.0099,14.02227 c -27.6271,13.02061 -43.3354,38.6939 -49.5586,65.18156 l -22.3108,-2.39962 20.7255,10.35709 c -0.2637,1.60795 -0.5014,3.2159 -0.6975,4.81912 -0.012,0.10971 -0.027,0.22227 -0.037,0.33199 l -23.4507,-3.78341 22.5179,14.1055 c -0.049,0.75385 -0.098,1.5058 -0.1405,2.26627 l -44.868,-8.83427 44.4886,24.00669 c -0.011,26.96436 3.2184,54.63526 4.8899,66.73086 1.159,8.3859 2.4046,23.9368 9.1754,27.2702 l -41.7888,10.0692 55.3755,-5.4935 c 1.1762,0.1226 2.3769,0.2449 3.5828,0.3675 l -14.3059,3.4243 24.9051,-2.3849 c 2.5484,0.2411 5.1527,0.4809 7.8071,0.7194 l -25.7913,7.6712 38.4703,-6.5785 c 92.5979,7.6565 290.5478,15.2779 428.6399,-3.2458 l 20.41,3.9931 -7.8426,-5.7621 c 2.6961,-0.398 6.1569,-0.805 6.2999,-1.2225 l 0.4844,0.1682 -0.3209,-1.2778 c 0.03,-0.2112 0.061,-0.4228 0.092,-0.6363 l 1.6503,2.8101 -1.2404,-14.9918 c 0.7818,-17.4103 0.9828,-37.1654 0.8861,-57.172 l 1.4967,-12.03792 c -2.587,6.22845 -1.6629,-7.47602 -0.036,-14.52451 l -1.4612,0.97517 c 0.1415,-16.19678 -0.3815,-45.90319 -1.0664,-61.40761 l 0.068,-11.756 c -1.199,1.12651 -0.4269,-8.98845 -0.015,-17.79623 -1.3166,7.9253 -1.155,4.5959 -0.6372,-10.81204 -2.2171,4.39065 1.1871,-36.29143 1.7897,-46.48111 z"
       id="path4212-3"
       inkscape:connector-curvature="0"
       sodipodi:nodetypes="ccccccccccccccccccccccsccccccccccccccccccccccccccc" />
    <path
       style="display:inline;fill:#ffffff;fill-rule:evenodd;stroke:none;stroke-width:1.44912px;stroke-linecap:butt;stroke-linejoin:miter;stroke-opacity:1"
       d="m 2102.6149,751.43806 c 0.6806,41.31231 13.5699,99.33289 8.1415,118.1885 4.1542,65.56524 102.9122,-3.97588 46.8489,-17.72263 -23.7511,-36.29813 -38.7836,-65.39219 -54.9904,-100.46587 z"
       id="path4667-2"
       inkscape:connector-curvature="0"
       sodipodi:nodetypes="cccc" />
    <path
       style="color:#000000;display:inline;overflow:visible;visibility:visible;fill:#ffffff;fill-opacity:1;fill-rule:nonzero;stroke:none;stroke-width:0.891997px;marker:none;enable-background:accumulate"
       d="m 733.40911,2654.7496 c -27.56406,-0.098 -56.09893,5.1296 -78.89518,19.5074 -15.71474,9.8584 -27.22154,26.2721 -26.5013,43.7335 0.5462,14.2429 10.67174,27.0138 23.82523,34.6216 14.99922,8.6903 32.87844,12.1176 50.28903,14.7287 30.09288,4.0973 60.63079,3.3432 90.94509,4.9003 19.15466,0.6389 38.82433,0.9884 57.32549,-4.1125 16.58778,-6.0439 26.85665,-21.5133 28.51318,-36.9608 1.71378,-15.5734 -0.66261,-32.4583 -11.62804,-45.2137 -10.31828,-11.5412 -26.31477,-17.3952 -41.83511,-21.357 -29.86665,-7.3926 -61.09068,-10.2257 -92.03839,-9.8475 z"
       id="path3525-3-5"
       inkscape:connector-curvature="0" />
    <path
       style="fill:#ffffff;fill-rule:evenodd;stroke:none;stroke-width:1.00018px;stroke-linecap:butt;stroke-linejoin:miter;stroke-opacity:1"
       d="m 1223.463,2688.0374 c 17.4992,-16.0693 -3.4666,-28.2803 -2.2428,-38.8936 1.2634,-10.9567 44.3518,-16.0746 46.2777,-26.1572 1.9258,-10.0826 -24.0767,-23.5119 -20.6577,-39.2259 3.4191,-15.7147 33.7111,-15.9794 29.1078,2.1868 -4.6033,18.167 17.8374,23.5982 11.4686,37.7013 -10.6216,23.5196 -41.6554,20.0139 -52.0494,25.9095 -6.8814,3.9037 4.5609,15.0468 0.6993,25.5829 -3.8618,10.5369 -12.6035,12.8962 -12.6035,12.8962 z"
       id="path4272-2-3"
       inkscape:connector-curvature="0"
       sodipodi:nodetypes="csssssssc" />
    <path
       style="color:#000000;display:inline;overflow:visible;visibility:visible;fill:#ffffff;fill-opacity:1;fill-rule:nonzero;stroke:none;stroke-width:0.909853px;marker:none;enable-background:accumulate"
       d="m 1584.1222,2522.3224 c -5.8963,19.7338 -40.5841,21.9845 -53.4139,18.2182 26.0447,21.5056 25.3258,35.1623 -9.6165,37.8903 59.1648,38.545 11.1619,33.3934 1.8409,43.5918 46.2263,12.8342 25.8471,30.1632 17.8707,47.2005 52.9346,-0.3425 35.9696,27.0397 38.4834,48.5677 4.3541,-10.1977 25.2659,-41.3812 26.9988,-7.0964 0.011,-6.488 34.1159,-60.8477 86.5605,-9.4692 -1.6036,-26.8993 16.032,-32.7435 33.3352,4.1555 -6.1479,-40.161 53.6501,-29.5513 85.408,-17.4684 -16.284,-24.1109 8.8153,-34.3802 35.7237,-29.9904 -3.9394,-13.3079 5.0037,-22.6579 25.4012,-28.4736 -27.3063,-7.6032 -32.4286,-15.8481 17.9588,-25.6962 -38.4428,-0.1964 -74.3036,-1.3483 -29.6168,-32.7151 -14.155,-0.492 -47.3815,25.6094 -32.7141,-49.338 -24.0101,24.3307 -49.7883,37.9775 -82.9909,-11.5311 -15.0739,25.285 -41.626,38.132 -53.6584,7.0859 -4.0023,13.3936 -21.2575,18.707 -35.954,19.5706 -5.7556,-5.1921 -11.7146,-12.2772 -17.9583,-21.587 -9.743,19.9474 -24.5307,33.5613 -53.6583,7.0849 z"
       id="path3549-3-7-9-6"
       inkscape:connector-curvature="0"
       sodipodi:nodetypes="cccccccccccccccccccc" />
    <path
       style="color:#000000;display:inline;overflow:visible;visibility:visible;fill:#ffffff;fill-opacity:1;fill-rule:nonzero;stroke:none;stroke-width:1.22149px;marker:none;enable-background:accumulate"
       d="m 1844.6942,304.71538 c 13.3969,25.86728 33.5213,54.90113 39.2123,61.39746 7.9957,-8.63868 17.0744,-15.33555 24.0331,-20.64544 9.0197,12.83333 45.9509,74.58787 45.5696,92.05922 3.355,-43.2627 -19.8328,-91.86712 -36.9856,-111.86967 -10.7606,5.90497 -16.2791,10.46235 -22.0396,13.47435 -9.2965,-9.62452 -29.0289,-46.10687 -29.0289,-46.10687 z"
       id="path5066-8"
       inkscape:connector-curvature="0" />
  </g>
  <g
     inkscape:groupmode="layer"
     id="layer1"
     inkscape:label="txt">
    <text
       xml:space="preserve"
       style="font-style:normal;font-variant:normal;font-weight:normal;font-stretch:normal;font-size:45px;line-height:1.25;font-family:Lavi;-inkscape-font-specification:Lavi;text-align:center;letter-spacing:0px;word-spacing:0px;text-anchor:middle;fill:#000000;fill-opacity:1;stroke:none"
       x="1018.2072"
       y="228.12212"
       id="text4246-3-2-2"><tspan
         style="font-size:45px"
         sodipodi:role="line"
         x="1018.2072"
         y="228.12212"
         id="tspan949">Minha</tspan><tspan
         style="font-size:45px"
         sodipodi:role="line"
         x="1018.2072"
         y="284.37213"
         id="tspan12721">hipervelocidade</tspan><tspan
         style="font-size:45px"
         sodipodi:role="line"
         x="1018.2072"
         y="340.62213"
         id="tspan911">está prestes</tspan><tspan
         style="font-size:45px"
         sodipodi:role="line"
         x="1018.2072"
         y="396.87213"
         id="tspan17105">a acabar,</tspan></text>
    <text
       xml:space="preserve"
       style="font-style:normal;font-variant:normal;font-weight:normal;font-stretch:normal;font-size:45px;line-height:1.25;font-family:Lavi;-inkscape-font-specification:Lavi;text-align:center;letter-spacing:0px;word-spacing:0px;text-anchor:middle;fill:#000000;fill-opacity:1;stroke:none"
       x="1173.5723"
       y="481.56839"
       id="text4246-3-2-2-3"><tspan
         style="font-size:45px"
         sodipodi:role="line"
         x="1173.5723"
         y="481.56839"
         id="tspan958">e esse piloto e dragão</tspan><tspan
         style="font-size:45px"
         sodipodi:role="line"
         x="1173.5723"
         y="537.81836"
         id="tspan17385">têm nos acompanhado</tspan><tspan
         style="font-size:45px"
         sodipodi:role="line"
         x="1173.5723"
         y="594.06842"
         id="tspan17393">durante horas.</tspan></text>
    <text
       xml:space="preserve"
       style="font-style:normal;font-variant:normal;font-weight:normal;font-stretch:normal;font-size:45px;line-height:1.25;font-family:Lavi;-inkscape-font-specification:Lavi;text-align:center;letter-spacing:0px;word-spacing:0px;text-anchor:middle;fill:#000000;fill-opacity:1;stroke:none"
       x="1265.569"
       y="703.07538"
       id="text4246-3-2-2-3-6"><tspan
         style="font-size:45px"
         sodipodi:role="line"
         x="1265.569"
         y="703.07538"
         id="tspan935">Eles nos alcançarão</tspan><tspan
         style="font-size:45px"
         sodipodi:role="line"
         x="1265.569"
         y="759.32538"
         id="tspan12740">facilmente quando</tspan><tspan
         style="font-size:45px"
         sodipodi:role="line"
         x="1265.569"
         y="815.57538"
         id="tspan956">desacelerarmos.</tspan></text>
    <text
       xml:space="preserve"
       style="font-style:normal;font-variant:normal;font-weight:normal;font-stretch:normal;font-size:59.5686px;line-height:1.25;font-family:Lavi;-inkscape-font-specification:Lavi;text-align:center;letter-spacing:0px;word-spacing:0px;text-anchor:middle;fill:#000000;fill-opacity:1;stroke:none;stroke-width:1.32375"
       x="1790.1418"
       y="191.64172"
       id="text4246-3-2-2-3-6-3"><tspan
         style="font-size:59.5686px;stroke-width:1.32375"
         sodipodi:role="line"
         x="1790.1418"
         y="191.64172"
         id="tspan1031-6">Mas que burra</tspan><tspan
         style="font-size:59.5686px;stroke-width:1.32375"
         sodipodi:role="line"
         x="1790.1418"
         y="266.10248"
         id="tspan1079">que eu fui!</tspan></text>
    <text
       xml:space="preserve"
       style="font-style:normal;font-variant:normal;font-weight:normal;font-stretch:normal;font-size:45px;line-height:1.25;font-family:Lavi;-inkscape-font-specification:Lavi;text-align:center;letter-spacing:0px;word-spacing:0px;text-anchor:middle;fill:#000000;fill-opacity:1;stroke:none"
       x="2151.592"
       y="925.40289"
       id="text4246-3-2-2-3-6-2"><tspan
         style="font-size:45px"
         sodipodi:role="line"
         x="2151.592"
         y="925.40289"
         id="tspan894">Eu tinha certeza</tspan><tspan
         style="font-size:45px"
         sodipodi:role="line"
         x="2151.592"
         y="981.65289"
         id="tspan966">de que eles iriam</tspan><tspan
         style="font-size:45px"
         sodipodi:role="line"
         x="2151.592"
         y="1037.9028"
         id="tspan26356">desistir há horas atrás!</tspan></text>
    <text
       xml:space="preserve"
       style="font-style:normal;font-variant:normal;font-weight:normal;font-stretch:normal;font-size:45px;line-height:1.25;font-family:Lavi;-inkscape-font-specification:Lavi;text-align:center;letter-spacing:0px;word-spacing:0px;text-anchor:middle;fill:#000000;fill-opacity:1;stroke:none"
       x="1158.7565"
       y="1236.7683"
       id="text4246-3-2-2-3-6-2-7"><tspan
         style="font-size:45px"
         sodipodi:role="line"
         x="1158.7565"
         y="1236.7683"
         id="tspan1171">Se eu ao menos</tspan><tspan
         style="font-size:45px"
         sodipodi:role="line"
         x="1158.7565"
         y="1293.0183"
         id="tspan34956">conseguisse</tspan><tspan
         style="font-size:45px"
         sodipodi:role="line"
         x="1158.7565"
         y="1349.2683"
         id="tspan979">despistá-los.</tspan></text>
    <text
       xml:space="preserve"
       style="font-style:normal;font-variant:normal;font-weight:normal;font-stretch:normal;font-size:45px;line-height:1.25;font-family:Lavi;-inkscape-font-specification:Lavi;text-align:center;letter-spacing:0px;word-spacing:0px;text-anchor:middle;fill:#000000;fill-opacity:1;stroke:none"
       x="416.16843"
       y="2096.4697"
       id="text4246-3-2-2-3-6-2-7-2"><tspan
         style="font-style:normal;font-variant:normal;font-weight:bold;font-stretch:normal;font-size:45px;font-family:Lavi;-inkscape-font-specification:'Lavi Bold'"
         sodipodi:role="line"
         x="416.16843"
         y="2096.4697"
         id="tspan1171-9">Não.</tspan><tspan
         style="font-size:45px"
         sodipodi:role="line"
         x="416.16843"
         y="2152.7559"
         id="tspan35749">Eu <tspan
   style="font-weight:bold"
   id="tspan38655">tenho</tspan> que</tspan><tspan
         style="font-size:45px"
         sodipodi:role="line"
         x="416.16843"
         y="2209.0059"
         id="tspan38657">me livrar</tspan><tspan
         style="font-size:45px"
         sodipodi:role="line"
         x="416.16843"
         y="2265.2559"
         id="tspan885">deles!</tspan></text>
    <text
       xml:space="preserve"
       style="font-style:normal;font-variant:normal;font-weight:normal;font-stretch:normal;font-size:45px;line-height:1.25;font-family:Lavi;-inkscape-font-specification:Lavi;text-align:center;letter-spacing:0px;word-spacing:0px;text-anchor:middle;fill:#000000;fill-opacity:1;stroke:none"
       x="2119.5425"
       y="2125.1331"
       id="text4246-3-2-2-3-6-2-7-2-2"><tspan
         style="font-size:45px"
         sodipodi:role="line"
         x="2119.5425"
         y="2125.1331"
         id="tspan1222-7">Antes que</tspan><tspan
         style="font-size:45px"
         sodipodi:role="line"
         x="2119.5425"
         y="2181.3831"
         id="tspan41165">eles nos</tspan><tspan
         style="font-size:45px"
         sodipodi:role="line"
         x="2119.5425"
         y="2237.6331"
         id="tspan1271">peguem!</tspan></text>
    <text
       xml:space="preserve"
       style="font-style:normal;font-variant:normal;font-weight:normal;font-stretch:normal;font-size:45px;line-height:1.25;font-family:Lavi;-inkscape-font-specification:Lavi;text-align:center;letter-spacing:0px;word-spacing:0px;text-anchor:middle;fill:#000000;fill-opacity:1;stroke:none"
       x="273.79352"
       y="2629.6626"
       id="text4246-3-2-2-3-6-2-7-2-3"><tspan
         style="font-size:45px"
         sodipodi:role="line"
         x="273.79352"
         y="2629.6626"
         id="tspan1222-9">Mas eu</tspan><tspan
         style="font-size:45px"
         sodipodi:role="line"
         x="273.79352"
         y="2685.9126"
         id="tspan903">também</tspan><tspan
         style="font-size:45px"
         sodipodi:role="line"
         x="273.79352"
         y="2742.1626"
         id="tspan43516">estou...</tspan></text>
    <text
       xml:space="preserve"
       style="font-style:normal;font-variant:normal;font-weight:normal;font-stretch:normal;font-size:45px;line-height:1.25;font-family:Lavi;-inkscape-font-specification:Lavi;text-align:center;letter-spacing:0px;word-spacing:0px;text-anchor:middle;fill:#000000;fill-opacity:1;stroke:none"
       x="762.94037"
       y="2724.3162"
       id="text4246-3-2-2-3-6-2-7-2-3-3-3"><tspan
         style="font-size:45px"
         x="762.94037"
         y="2724.3162"
         id="tspan1356-7"
         sodipodi:role="line">...muito...</tspan></text>
    <text
       xml:space="preserve"
       style="font-style:normal;font-variant:normal;font-weight:normal;font-stretch:normal;font-size:45px;line-height:1.25;font-family:Lavi;-inkscape-font-specification:Lavi;text-align:center;letter-spacing:0px;word-spacing:0px;text-anchor:middle;fill:#000000;fill-opacity:1;stroke:none"
       x="1218.5862"
       y="2507.2249"
       id="text4246-3-2-2-3-6-2-7-2-3-3"><tspan
         style="font-size:45px"
         sodipodi:role="line"
         x="1218.5862"
         y="2507.2249"
         id="tspan1318-9" /><tspan
         style="font-size:45px"
         sodipodi:role="line"
         x="1226.4963"
         y="2563.4749"
         id="tspan41856">...cansada... </tspan></text>
    <text
       xml:space="preserve"
       style="font-style:normal;font-variant:normal;font-weight:normal;font-stretch:normal;font-size:64.434px;line-height:1.25;font-family:Lavi;-inkscape-font-specification:Lavi;text-align:center;letter-spacing:0px;word-spacing:0px;text-anchor:middle;fill:#000000;fill-opacity:1;stroke:none;stroke-width:1.43187"
       x="1696.2407"
       y="2630.5286"
       id="text4246-3-2-2-3-6-2-7-2-3-3-4"><tspan
         style="font-style:normal;font-variant:normal;font-weight:bold;font-stretch:normal;font-size:64.434px;font-family:Lavi;-inkscape-font-specification:'Lavi Bold';stroke-width:1.43187"
         sodipodi:role="line"
         x="1696.2407"
         y="2630.5286"
         id="tspan1356-4">EPAAA!</tspan></text>
    <text
       xml:space="preserve"
       style="font-style:normal;font-variant:normal;font-weight:normal;font-stretch:normal;font-size:45px;line-height:1.25;font-family:Lavi;-inkscape-font-specification:Lavi;text-align:center;letter-spacing:0px;word-spacing:0px;text-anchor:middle;fill:#000000;fill-opacity:1;stroke:none"
       x="1903.2314"
       y="2643.1885"
       id="text4246-3-2-2-3-6-2-7-2-3-5"><tspan
         style="font-size:45px"
         sodipodi:role="line"
         x="1903.2314"
         y="2643.1885"
         id="tspan1068" /><tspan
         style="font-size:45px"
         sodipodi:role="line"
         x="1903.2314"
         y="2699.4385"
         id="tspan1072">Aguenta</tspan><tspan
         style="font-size:45px"
         sodipodi:role="line"
         x="1903.2314"
         y="2755.6885"
         id="tspan42716">firme aí, </tspan><tspan
         style="font-size:45px"
         sodipodi:role="line"
         x="1903.2314"
         y="2811.9385"
         id="tspan1074">Pepper!</tspan></text>
  </g>
</svg>
