<?xml version="1.0" encoding="UTF-8" standalone="no"?>
<svg
   xmlns:dc="http://purl.org/dc/elements/1.1/"
   xmlns:cc="http://creativecommons.org/ns#"
   xmlns:rdf="http://www.w3.org/1999/02/22-rdf-syntax-ns#"
   xmlns:svg="http://www.w3.org/2000/svg"
   xmlns="http://www.w3.org/2000/svg"
   xmlns:xlink="http://www.w3.org/1999/xlink"
   xmlns:sodipodi="http://sodipodi.sourceforge.net/DTD/sodipodi-0.dtd"
   xmlns:inkscape="http://www.inkscape.org/namespaces/inkscape"
   id="svg2"
   version="1.1"
   inkscape:version="0.92.4 (5da689c313, 2019-01-14)"
   width="2481"
   height="3503"
   sodipodi:docname="E34P05.svg">
  <metadata
     id="metadata8">
    <rdf:RDF>
      <cc:Work
         rdf:about="">
        <dc:format>image/svg+xml</dc:format>
        <dc:type
           rdf:resource="http://purl.org/dc/dcmitype/StillImage" />
        <dc:title />
      </cc:Work>
    </rdf:RDF>
  </metadata>
  <defs
     id="defs6">
    <filter
       style="color-interpolation-filters:sRGB"
       id="filter4375-4-1-1-1-9-5-8-8-5-5-3-3"
       inkscape:label="soundFX1">
      <feFlood
         id="feFlood4377-7-9-0-8-1-7-3-1-2-7-6-6"
         flood-opacity="1"
         flood-color="rgb(52,52,52)"
         result="flood" />
      <feComposite
         id="feComposite4379-3-8-8-2-77-4-1-0-6-4-7-7"
         in2="SourceGraphic"
         in="flood"
         operator="in"
         result="composite1"
         baseFrequency="0.053999999999999999 0.053999999999999999" />
      <feMorphology
         id="feMorphology4393-1-0-49-8-9-3-0-1-9-9-5-5"
         operator="dilate"
         radius="4.0330969769021738"
         result="result3" />
      <feComposite
         id="feComposite4385-9-5-7-0-8-8-7-5-4-9-3-3"
         in2="result3"
         in="SourceGraphic"
         operator="over"
         result="fbSourceGraphic" />
      <feColorMatrix
         result="fbSourceGraphicAlpha"
         in="fbSourceGraphic"
         values="0 0 0 -1 0 0 0 0 -1 0 0 0 0 -1 0 0 0 0 1 0"
         id="feColorMatrix4544-9-4-4-5-5" />
      <feTurbulence
         id="feTurbulence4546-3-6-5-6-6"
         type="fractalNoise"
         numOctaves="4"
         seed="147"
         baseFrequency="0.053999999999999999 0.054054054054054057"
         result="turbulence" />
      <feDisplacementMap
         id="feDisplacementMap4548-8-0-9-2-2"
         in2="turbulence"
         in="fbSourceGraphic"
         scale="10.561763"
         yChannelSelector="G"
         xChannelSelector="R"
         result="fbSourceGraphic" />
      <feColorMatrix
         result="fbSourceGraphicAlpha"
         in="fbSourceGraphic"
         values="0 0 0 -1 0 0 0 0 -1 0 0 0 0 -1 0 0 0 0 1 0"
         id="feColorMatrix4670-7-7-3-9-9" />
      <feFlood
         id="feFlood4672-4-4-5-1-1"
         flood-opacity="1"
         flood-color="rgb(28,28,28)"
         result="flood"
         in="fbSourceGraphic" />
      <feComposite
         id="feComposite4674-8-3-7-2-2"
         in2="fbSourceGraphic"
         in="flood"
         operator="in"
         result="composite1" />
      <feGaussianBlur
         id="feGaussianBlur4676-3-7-08-7-7"
         in="composite1"
         stdDeviation="0"
         result="blur" />
      <feOffset
         id="feOffset4678-6-9-1-0-0"
         dx="-10.48377497279229"
         dy="0.39217365321829334"
         result="offset" />
      <feComposite
         id="feComposite4680-4-0-9-9-9"
         in2="offset"
         in="fbSourceGraphic"
         operator="over"
         result="composite2" />
    </filter>
    <filter
       inkscape:collect="always"
       style="color-interpolation-filters:sRGB"
       id="filter1624"
       x="-0.066465521"
       width="1.132931"
       y="-0.12921093"
       height="1.2584219">
      <feGaussianBlur
         inkscape:collect="always"
         stdDeviation="4.7367523"
         id="feGaussianBlur1626" />
    </filter>
    <filter
       inkscape:collect="always"
       style="color-interpolation-filters:sRGB"
       id="filter1624-1"
       x="-0.066465519"
       width="1.132931"
       y="-0.12921093"
       height="1.2584219">
      <feGaussianBlur
         inkscape:collect="always"
         stdDeviation="4.7367523"
         id="feGaussianBlur1626-9" />
    </filter>
    <filter
       inkscape:collect="always"
       style="color-interpolation-filters:sRGB"
       id="filter1624-1-7"
       x="-0.066465519"
       width="1.132931"
       y="-0.12921093"
       height="1.2584219">
      <feGaussianBlur
         inkscape:collect="always"
         stdDeviation="4.7367523"
         id="feGaussianBlur1626-9-8" />
    </filter>
  </defs>
  <sodipodi:namedview
     pagecolor="#ffffff"
     bordercolor="#666666"
     borderopacity="1"
     objecttolerance="10"
     gridtolerance="10"
     guidetolerance="10"
     inkscape:pageopacity="0"
     inkscape:pageshadow="2"
     inkscape:window-width="1856"
     inkscape:window-height="1016"
     id="namedview4"
     showgrid="false"
     inkscape:zoom="0.26450001"
     inkscape:cx="626.07341"
     inkscape:cy="1462.7594"
     inkscape:window-x="64"
     inkscape:window-y="27"
     inkscape:window-maximized="1"
     inkscape:current-layer="layer1"
     inkscape:document-rotation="0"
     inkscape:snap-global="false"
     borderlayer="true" />
  <g
     inkscape:groupmode="layer"
     id="layer2"
     inkscape:label="artwork"
     sodipodi:insensitive="true">
    <image
       sodipodi:absref="/home/thomas/Nedlastinger/webcomics-master-ep34_The-Knighting-of-Shichimi/ep34_The-Knighting-of-Shichimi/lang/no/../gfx_Pepper-and-Carrot_by-David-Revoy_E34P05.png"
       xlink:href="../gfx_Pepper-and-Carrot_by-David-Revoy_E34P05.png"
       width="2481"
       height="3503"
       id="image10"
       x="0"
       y="0" />
  </g>
  <g
     inkscape:groupmode="layer"
     id="layer3"
     inkscape:label="speechbubbles"
     style="display:inline">
    <path
       style="display:inline;fill:#ffffff;fill-rule:evenodd;stroke:none;stroke-width:1.24882925px;stroke-linecap:butt;stroke-linejoin:miter;stroke-opacity:1"
       d="m 2151.0717,794.59492 c -28.3337,0.0512 -56.6365,2.00858 -84.823,5.12967 -15.0032,1.31507 -29.4755,6.34701 -43.7344,11.4086 -13.3358,5.01015 -26.6512,10.40759 -39.0476,17.88281 -16.0523,9.97414 -30.4331,24.65539 -37.6825,43.74381 -6.0888,15.29952 -9.6692,31.66885 -12.4608,48.04959 -4.1793,31.73498 2.7926,77.10393 21.2414,102.1488 21.0653,29.2163 54.3711,46.4356 87.9324,47.1528 70.7979,7.3014 142.4983,10.1684 213.1066,-0.979 23.6549,-3.8235 47.4905,-11.9425 66.4668,-28.6246 20.7839,-18.5359 31.9255,-48.40033 31.7617,-77.69034 0.1017,-27.77998 -10.1202,-66.11289 -25.8984,-87.37416 -18.7816,-25.93331 -44.7428,-44.392 -72.3128,-56.78779 -26.7721,-12.50742 -55.1388,-21.55079 -84.2451,-23.45557 -6.7572,-0.50939 -13.5325,-0.68808 -20.3043,-0.60462 z"
       id="path1076"
       inkscape:connector-curvature="0"
       sodipodi:nodetypes="ccccccccccccccc" />
    <path
       style="color:#000000;display:inline;overflow:visible;visibility:visible;fill:#ffffff;fill-opacity:1;fill-rule:nonzero;stroke:none;stroke-width:1.4154495px;marker:none;enable-background:accumulate"
       d="m 1421.2477,65.121094 c -16.3912,0.94471 -31.8406,10.307178 -48.5015,7.649004 -12.7501,-1.422244 -26.9207,-1.398485 -37.6946,7.07994 -9.566,7.978366 -14.5315,20.618452 -17.1134,32.945422 -2.5917,13.84732 -2.6215,28.03876 -3.5052,42.08084 -2.1732,55.54655 3.4002,110.95053 5.4718,166.39888 1.0517,23.01609 2.0598,46.35834 8.1143,68.61349 2.4944,6.52657 7.9368,11.15937 13.1345,15.21485 9.3672,6.6292 19.9094,11.01946 30.1123,15.93027 31.5386,13.68553 65.6733,18.12597 99.3005,21.73091 44.7388,3.78263 89.277,-4.08359 133.7338,-8.21824 25.5432,-2.81944 51.8653,-6.22937 74.8976,-19.19955 22.0804,-13.37707 37.1559,-36.58487 47.4827,-60.77352 14.8472,-34.20193 21.0714,-73.59149 12.9325,-110.63677 -6.7479,-33.31869 -18.0226,-66.71764 -39.3005,-92.75681 -14.0049,-16.90829 -32.7801,-28.87362 -52.9466,-35.40537 -21.1301,-7.72704 -42.6698,-14.20525 -63.4281,-23.061005 -23.8918,-9.34918 -48.6742,-16.536521 -74.0802,-19.03885 -21.4405,-2.522919 -42.9492,-4.378581 -64.3509,-7.268335 -8.0619,-0.825789 -16.1566,-1.372254 -24.259,-1.285156 z"
       id="path4546-6-5-5"
       inkscape:connector-curvature="0"
       sodipodi:nodetypes="cssssccccccccccccc" />
    <path
       style="color:#000000;display:inline;overflow:visible;visibility:visible;fill:#ffffff;fill-opacity:1;fill-rule:nonzero;stroke:none;stroke-width:0.600991px;marker:none;enable-background:accumulate"
       d="m 670.35742,769.71094 c -12.2973,0.9647 -24.88043,3.61674 -35.31645,10.49777 -8.26937,6.01073 -15.67977,13.16759 -22.32417,20.92215 -6.62645,7.92618 -12.45435,16.68654 -16.1348,26.37998 -3.14551,10.49958 -1.35181,21.73717 1.78536,32.01289 2.82779,8.96948 7.68064,17.87175 15.78303,23.07197 6.94429,4.14841 15.32919,4.36127 23.18225,3.9754 9.46419,-0.29273 19.23433,0.27025 28.00976,4.15103 9.04638,3.43181 18.21763,7.73729 28.11679,7.43852 13.77277,-0.35998 26.75813,-6.06737 38.3739,-13.09874 14.74173,-9.08988 26.7992,-23.24144 31.53588,-40.07628 2.84106,-10.03042 2.47383,-20.87049 -0.8408,-30.74109 -3.01302,-9.29937 -7.98249,-18.10356 -15.00292,-24.96219 -5.74301,-5.42623 -13.1915,-8.71524 -20.86833,-10.30244 -10.75987,-2.41067 -21.91535,-2.58388 -32.57378,-5.52158 -7.80876,-1.66324 -15.63484,-4.45051 -23.72572,-3.74739 z"
       id="path4040-41"
       inkscape:connector-curvature="0"
       sodipodi:nodetypes="zssssz" />
    <path
       style="color:#000000;display:inline;overflow:visible;visibility:visible;fill:#ffffff;fill-opacity:1;fill-rule:nonzero;stroke:none;stroke-width:0.888689px;marker:none;enable-background:accumulate"
       d="m 563.61538,294.92188 c -27.31436,0.52894 -54.90921,1.20542 -81.64412,10.07138 -7.86181,2.5029 -15.53982,7.05158 -21.67109,14.64504 -5.84324,6.92199 -10.58373,16.57887 -11.26182,27.62133 -0.7526,10.00446 0.42848,20.03515 1.57281,29.88295 1.5433,10.72435 4.9668,21.50126 11.32494,28.10742 7.87302,8.67822 17.51976,12.92409 26.73475,17.75407 18.79817,8.97683 38.80848,10.74304 58.49527,10.72165 30.78314,0.24417 61.61502,-2.07645 92.11649,-8.12962 13.9537,-3.52183 27.08239,-15.03886 34.78122,-32.15893 4.66723,-10.8684 6.43025,-24.51234 3.81384,-36.83872 -4.58463,-25.29193 -19.81993,-45.27497 -37.36992,-51.78308 -11.53288,-4.49459 -23.50695,-5.75471 -35.34221,-7.66458 -13.812,-1.76751 -27.68722,-2.30343 -41.55016,-2.22891 z"
       id="path4040-4-5-3-6"
       inkscape:connector-curvature="0"
       sodipodi:nodetypes="zssssz" />
    <path
       style="fill:#ffffff;fill-rule:evenodd;stroke:none;stroke-width:1.1023px;stroke-linecap:butt;stroke-linejoin:miter;stroke-opacity:1"
       d="m 568.76547,115.87537 c -29.86453,0.06 -59.6381,2.8147 -89.48806,3.42681 -28.11069,0.84502 -56.36434,1.35134 -84.17809,5.90823 -20.27576,3.13687 -40.07102,10.8338 -56.33568,23.47331 -8.06434,6.22774 -14.72308,14.01096 -21.38995,21.65588 -6.61083,7.95388 -12.86017,16.45959 -16.69221,26.13538 -5.92574,15.90957 -5.96133,33.60907 -1.93555,49.97304 3.58891,13.49569 11.88812,25.61939 23.11648,33.91414 12.72798,9.66713 28.00787,15.32538 43.38897,19.16744 23.3238,5.43648 47.40663,5.41581 71.19862,6.60693 73.59379,2.79181 147.25409,0.29158 220.79661,-2.76757 33.7158,-2.1954 67.74775,-4.74322 100.38208,-14.0351 15.28967,-6.93639 27.35567,-19.50206 36.3449,-33.44455 7.85894,-14.08632 9.16284,-30.81679 7.53352,-46.59384 -1.73949,-20.68371 -11.57169,-40.82827 -27.7519,-54.019 -21.09061,-18.88432 -48.56476,-29.66935 -76.47729,-33.0504 -20.06466,-2.8886 -40.26571,-5.09385 -60.53892,-5.66153 -19.75879,-0.0157 -39.51224,-0.50445 -59.26908,-0.68357 -2.90145,-0.0229 -5.80296,-0.007 -8.70445,-0.006 z"
       id="path1299"
       inkscape:connector-curvature="0" />
    <path
       style="color:#000000;display:inline;overflow:visible;visibility:visible;fill:#ffffff;fill-opacity:1;fill-rule:nonzero;stroke:none;stroke-width:1px;marker:none;enable-background:accumulate"
       d="m 601.64274,401.13421 c -14.17455,40.88456 44.77094,72.82978 100.67006,54.05497 -23.16137,8.79652 -79.7912,49.66875 -144.52484,-46.85819 -30.03766,-44.79037 28.99451,-4.6799 28.99451,-4.6799 z"
       id="path4035-4"
       inkscape:connector-curvature="0"
       sodipodi:nodetypes="ccscc" />
    <path
       style="color:#000000;display:inline;overflow:visible;visibility:visible;fill:#ffffff;fill-opacity:1;fill-rule:nonzero;stroke:none;stroke-width:0.65663px;marker:none;enable-background:accumulate"
       d="m 611.41244,701.29174 c 17.11413,0.19349 18.72502,1.92575 19.18724,12.28702 0.46185,10.36191 -1.67076,26.02679 10.09463,35.89667 11.76506,9.87056 19.1963,13.36617 25.49665,11.79439 -5.19491,13.1306 -2.83584,31.62853 -10.75775,36.51466 -7.9219,4.88611 26.05967,-2.07377 26.05967,-2.07377 0,0 9.21399,-27.86213 6.82755,-44.34007 -2.3864,-16.4779 -28.23087,-11.38908 -37.42309,-16.46871 -9.19219,-5.07958 -7.20814,-26.722 -13.49221,-32.72081 -6.28377,-5.99953 -17.59228,-2.98484 -25.99269,-0.88938 z"
       id="path4538-7"
       inkscape:connector-curvature="0"
       sodipodi:nodetypes="ccscccsscc" />
    <path
       style="color:#000000;display:inline;overflow:visible;visibility:visible;fill:#ffffff;fill-opacity:1;fill-rule:nonzero;stroke:none;stroke-width:1.01366px;marker:none;enable-background:accumulate"
       d="m 1598.5835,596.86203 c 14.1467,-11.40413 29.0076,-23.09483 38.4486,-39.96949 2.5984,-4.85383 4.9981,-10.05752 6.0756,-15.49957 0.016,-5.8546 -3.8969,-10.34151 -8.4908,-12.17778 -6.4361,-3.18874 -14.5628,-3.42982 -19.4026,-9.63069 -3.4195,-4.61758 -1.8272,-11.14779 -0.9156,-16.72114 2.5699,-14.17326 6.8395,-28.1699 7.4104,-42.5769 1.5793,-16.24635 2.1988,-33.38893 -3.7408,-48.10801 -2.4394,-5.7727 -5.7341,-11.37091 -10.8601,-14.41865 -12.7918,-8.51566 -30.6307,-8.53627 -43.8564,1.70558 -7.9407,7.39354 -10.3193,22.05002 -3.5557,30.23691 3.5085,4.38614 9.2515,5.18736 14.4155,4.19228 9.6748,0.1491 18.2991,6.65319 22.6959,15.89335 3.7428,7.54995 5.2552,16.51182 4.6927,25.40135 2.0644,12.09608 -3.5504,23.92983 -6.6517,35.52848 -1.3509,5.3164 -2.467,11.0518 -1.4466,16.34944 3.0779,7.03972 10.5313,8.927 17.0498,9.68941 6.6944,0.98385 14.6099,1.26357 18.9566,7.63463 3.5752,3.9219 -0.1424,9.62907 -1.3852,14.17636 -5.6681,14.18394 -15.0865,26.49538 -26.0468,36.02362 -1.0987,0.82439 -2.2436,1.54861 -3.3927,2.27078 z"
       id="path4496-9"
       inkscape:connector-curvature="0"
       inkscape:transform-center-x="21.004464"
       inkscape:transform-center-y="-25.902749" />
    <path
       style="color:#000000;display:inline;overflow:visible;visibility:visible;fill:#ffffff;fill-opacity:1;fill-rule:nonzero;stroke:none;stroke-width:1.03728998px;marker:none;enable-background:accumulate"
       d="m 2109.2559,716.07452 c -20.4103,6.10083 -40.0468,16.85113 -53.8,33.41265 -10.7709,14.46078 -16.5835,31.98514 -19.9326,49.53175 -1.4068,8.93082 -2.2092,18.35818 0.5,27.10829 3.2554,6.18918 11.8987,8.09797 17.7559,4.53442 7.5966,-3.5917 11.8306,-12.98928 9.3278,-21.03888 -1.6093,-16.53808 1.3652,-33.26989 6.7533,-48.89003 5.7833,-15.14652 16.5635,-28.06938 29.7192,-37.41611 3.7487,-2.79439 7.6932,-5.31046 11.6413,-7.81045 -0.655,0.18946 -1.3099,0.37891 -1.9649,0.56836 z"
       id="path5010-4"
       inkscape:connector-curvature="0"
       sodipodi:nodetypes="ccsc" />
    <path
       style="fill:#ffffff;stroke:none;stroke-width:1.00962"
       d="m 1694.6966,1472.3525 c -45.2399,1.9207 -89.88,23.5759 -116.9189,59.5519 -10.3545,14.1662 -14.9862,31.5853 -16.061,48.8011 -2.6607,26.1893 -2.2577,52.5488 -2.6945,78.8283 0.848,18.42 7.3076,37.3301 21.215,50.2307 17.3346,17.5119 41.5517,26.7038 65.7103,30.6406 38.0695,7.059 77.0071,5.6894 115.5163,4.3047 30.2772,-1.6408 61.4003,-8.243 86.5428,-25.6654 20.7623,-14.2178 35.9747,-36.832 38.7768,-61.7555 3.0873,-23.3392 -0.8243,-46.7948 -3.8998,-69.9242 -3.7,-23.9268 -10.133,-48.3988 -25.3614,-67.9404 -18.9343,-24.1142 -48.5635,-38.5823 -78.9201,-42.8707 -27.7199,-4.3314 -55.9144,-4.3212 -83.9055,-4.2011 z"
       id="path3280-10"
       inkscape:connector-curvature="0"
       sodipodi:nodetypes="csssc" />
    <path
       style="color:#000000;display:inline;overflow:visible;visibility:visible;fill:#ffffff;fill-opacity:1;fill-rule:nonzero;stroke:none;stroke-width:0.730994px;marker:none;enable-background:accumulate"
       d="m 1701.3359,1182.3633 c -23.6044,0.4972 -47.5014,8.2194 -65.537,23.7485 -16.8972,15.2472 -21.3862,42.7399 -9.3936,62.2553 7.3737,12.546 20.5403,20.6735 34.317,24.5048 22.0738,8.2236 45.7993,10.6274 69.1919,11.348 21.8322,0.47 44.2156,-1.001 64.7362,-9.0519 13.7438,-5.6802 26.0669,-16.1754 31.5122,-30.2834 6.1857,-15.1026 4.6669,-33.4624 -5.1548,-46.703 -9.4277,-13.4338 -24.3106,-21.9676 -39.6896,-26.8896 -23.7701,-7.8332 -49.0614,-8.7336 -73.8752,-8.9512 -2.0358,-7e-4 -4.0715,-0.013 -6.1071,0.023 z"
       id="path4546-6-89"
       inkscape:connector-curvature="0"
       sodipodi:nodetypes="cssssc" />
    <path
       style="fill:#ffffff;fill-rule:evenodd;stroke:none;stroke-width:0.47927701px;stroke-linecap:butt;stroke-linejoin:miter;stroke-opacity:1"
       d="m 908.25788,1530.9498 c 27.51836,-11.7764 54.23289,-20.9661 71.61477,-23.4902 -3.55561,10.1642 -5.56972,16.3128 -14.89804,25.0191 24.30441,1.9047 70.63979,-18.9809 95.44779,-31.1705 -33.9587,5.7956 -60.1404,12.1497 -70.78241,13.5607 4.97656,-8.3585 6.96879,-14.5328 9.86224,-23.8449 -15.1281,3.6171 -70.65358,12.0504 -83.85269,9.4593 -13.19922,-2.5913 -7.39166,30.4665 -7.39166,30.4665 z"
       id="path1305"
       inkscape:connector-curvature="0"
       sodipodi:nodetypes="ccccccsc" />
    <path
       style="fill:#ffffff;fill-opacity:1;fill-rule:evenodd;stroke:none;stroke-width:1.15785754px;stroke-linecap:butt;stroke-linejoin:miter;stroke-opacity:1"
       d="m 465.89844,1585.2252 c 29.87434,-11.8109 25.1677,32.6514 7.33169,98.4421 20.52409,-47.9637 60.65624,-61.2613 25.55447,29.9475 55.18393,-68.131 94.54323,-96.2558 85.88932,-2.9979 73.17958,-89.3007 77.24711,-47.695 72.08724,11.3883 29.06097,-84.8926 56.47428,-94.1929 81.89014,-11.8531 -7.17271,-87.6489 32.03002,-85.2866 115.58476,3.1597 -37.32989,-92.5285 8.91877,-59.5607 55.62396,-25.9074 -39.26305,-79.2012 14.77272,-35.2718 35.9659,-34.6861 -79.0217,-122.2883 -11.61805,-76.0417 30.92934,-58.4046 -40.83792,-34.516 -60.68173,-66.2995 10.22504,-77.1744 -62.86633,-13.5282 -36.4535,-42.7627 25.0858,-76.5746 -33.58239,5.7231 -97.9223,-17.2256 12.6384,-50.9657 -43.00911,6.0647 -85.19749,-14.4325 -36.17314,-38.4941 -16.15167,5.3027 -105.04889,-4.0067 -32.62738,-34.262 -44.79971,6.2415 -61.01198,3.3846 39.4487,-36.6057 -155.94836,34.7744 -42.68579,-18.6929 -15.37703,-43.9863 -64.41754,20.4274 -173.2807,86.0932 -81.14082,-52.8298 -128.41911,138.5561 -113.33949,55.5424 -106.14822,-15.2914 -44.25603,111.1199 -59.68846,96.0231 -63.48647,29.9801 -20.66734,42.5707 -23.36955,11.8957 -25.6324,-20.5705 -20.61982,61.1928 -40.65058,94.2206 -57.9297,-4.3158 -9.50226,113.8837 -43.05631,91.7364 -81.90368,39.6515 7.00615,40.2624 -14.93743,21.4888 -46.68186,-17.2712 26.17882,102.7881 -24.4657,78.4915 -42.0897,50.7057 13.96862,39.381 20.10298,64.3186 -2.53246,36.2161 13.7398,54.4108 15.20243,87.8618 -8.40484,78.5134 27.7514,44.1682 18.8166,39.6511 8.2381,32.9527 10.41742,21.1064 7.98675,44.333 -10.87587,56.2864 9.84404,19.4041 28.84557,35.7766 4.01971,66.6584 21.48066,-3.9445 23.39711,2.9706 1.16472,23.2902 30.54058,-23.7122 17.50318,7.4097 -0.67372,44.9985 z"
       id="path1798"
       sodipodi:nodetypes="cccccccccccccccccccccccccccccccc"
       inkscape:connector-curvature="0" />
    <path
       style="fill:#ffffff;fill-rule:evenodd;stroke:none;stroke-width:0.960637px;stroke-linecap:butt;stroke-linejoin:miter;stroke-opacity:1"
       d="m 1778.0933,1289.0282 c 0,0 -3.9407,28.9212 8.0996,38.6226 12.0408,9.7023 15.4867,13.5023 36.0798,21.9048 -30.1647,-5.7228 -44.5902,-13.4046 -52.5226,-23.226 -7.9325,-9.8214 -20.0355,-30.3233 -22.8091,-36.2438 -2.7736,-5.9205 31.1523,-1.0576 31.1523,-1.0576 z"
       id="path1359"
       inkscape:connector-curvature="0" />
    <path
       style="fill:#ffffff;fill-rule:evenodd;stroke:none;stroke-width:1.51642px;stroke-linecap:butt;stroke-linejoin:miter;stroke-opacity:1"
       d="m 1879.5739,1605.0433 c 0,0 29.1528,33.6868 52.9454,28.1474 23.7942,-5.5388 31.7815,-6.1077 63.0487,-23.7148 -38.2213,32.3304 -62.191,42.8809 -81.8135,43.1241 -19.6227,0.2433 -55.9116,-4.864 -65.6341,-7.2483 -9.7228,-2.3842 31.4535,-40.3084 31.4535,-40.3084 z"
       id="path1359-6"
       inkscape:connector-curvature="0" />
    <path
       style="fill:#ffffff;fill-rule:evenodd;stroke:none;stroke-width:1.04628px;stroke-linecap:butt;stroke-linejoin:miter;stroke-opacity:1;filter:url(#filter1624-1-7)"
       d="m 304.54727,1936.8855 c 5.39109,-32.111 32.34599,-42.814 51.75368,-46.025 19.40768,-3.211 83.0216,-3.211 100.27283,9.633 17.25112,12.844 22.6421,36.392 16.17294,43.884 -6.46926,7.493 -15.09476,29.97 -38.81515,31.04 -23.7206,1.071 -74.39599,5.352 -94.88185,-6.422 -20.48586,-11.774 -36.6588,-14.985 -34.50245,-32.11 z"
       id="path1285-4-4"
       inkscape:connector-curvature="0"
       transform="matrix(1.2257744,0,0,1.060297,78.802093,-33.662704)" />
    <path
       style="fill:#ffffff;fill-rule:evenodd;stroke:none;stroke-width:1.04628px;stroke-linecap:butt;stroke-linejoin:miter;stroke-opacity:1;filter:url(#filter1624-1)"
       d="m 304.54727,1936.8855 c 5.39109,-32.111 32.34599,-42.814 51.75368,-46.025 19.40768,-3.211 83.0216,-3.211 100.27283,9.633 17.25112,12.844 22.6421,36.392 16.17294,43.884 -6.46926,7.493 -15.09476,29.97 -38.81515,31.04 -23.7206,1.071 -74.39599,5.352 -94.88185,-6.422 -20.48586,-11.774 -36.6588,-14.985 -34.50245,-32.11 z"
       id="path1285-4"
       inkscape:connector-curvature="0"
       transform="matrix(1.1958956,0,0,0.97870713,-64.882445,39.800192)" />
    <path
       style="fill:#ffffff;fill-rule:evenodd;stroke:none;stroke-width:1.04628px;stroke-linecap:butt;stroke-linejoin:miter;stroke-opacity:1;filter:url(#filter1624)"
       d="m 115.7959,1883.6103 c 5.39109,-32.111 32.34599,-42.814 51.75368,-46.025 19.40768,-3.211 83.0216,-3.211 100.27283,9.633 17.25112,12.844 22.6421,36.392 16.17294,43.884 -6.46926,7.493 -15.09476,29.97 -38.81515,31.04 -23.7206,1.071 -74.39599,5.352 -94.88185,-6.422 -20.48586,-11.774 -36.6588,-14.985 -34.50245,-32.11 z"
       id="path1285"
       inkscape:connector-curvature="0"
       transform="matrix(1.0933918,0,0,0.98960959,-10.339256,19.531819)" />
    <path
       style="color:#000000;display:inline;overflow:visible;visibility:visible;fill:#ffffff;fill-opacity:1;fill-rule:nonzero;stroke:none;stroke-width:0.921112px;marker:none;enable-background:accumulate"
       d="m 1241.0664,2352.3233 c -36.2286,-32.2998 -77.602,-59.113 -107.8532,-97.7871 l 6.9677,43.9112 c -17.7743,-7.7018 -29.1706,-25.5756 -42.7328,-39.995 l -0.057,27.888 c -41.735,-18.7232 -69.4761,-51.7603 -103.98103,-77.8792 l 3.66035,48.6148 c 37.88508,22.0665 78.75808,37.3542 113.28208,67.0437 l 2.7503,-27.2332 c 13.303,8.4793 26.3021,17.5344 37.9439,29.1641 l 0.5073,-34.5085 z"
       id="path4032-8"
       inkscape:connector-curvature="0"
       sodipodi:nodetypes="cccccccccccc" />
    <path
       style="opacity:1;fill:#ffffff;fill-rule:evenodd;stroke:none;stroke-width:1.0434px;stroke-linecap:butt;stroke-linejoin:miter;stroke-opacity:1"
       d="m 654.35692,2153.9416 c 58.75546,-3.71 58.93977,-22.4352 17.98812,-51.7058 29.67774,0.1363 19.587,-18.1251 -1.42914,-41.4407 78.40021,28.7105 92.10169,-20.5013 69.95898,-77.5544 63.12499,67.1697 63.87012,28.4005 86.86865,-53.0521 13.12316,29.9734 30.48835,122.8095 104.08337,42.4068 -12.68932,66.9216 27.08594,20.6134 58.87117,-2.719 5.70058,9.6409 -51.54682,65.2732 31.79223,-3.6887 -60.14507,91.4191 32.7607,16.1788 61.5631,-9.148 -29.9323,43.2369 -95.65406,108.039 -7.5152,83.1286 -64.0952,50.0208 -7.4255,31.1958 21.1188,28.9061 -36.2016,20.7975 -37.6304,41.3996 -0.7248,33.0705 -53.8054,38.9217 -11.9257,42.1844 13.9993,43.3438 -20.163,2.9798 -69.8172,20.0724 -5.759,23.576 -44.27,12.4278 -31.2704,45.5628 -24.9359,59.1169 -48.9698,-4.7181 -14.2117,40.6656 4.0329,69.9104 -33.814,-12.5236 -86.53643,-44.8665 -49.2651,12.2481 -82.91478,-34.1395 -50.22703,0.6718 -31.7479,42.03 -60.85869,-34.6571 -70.19272,-51.5284 -88.8576,-22.8562 -20.58022,-24.1043 -24.23786,-2.9812 -30.56964,22.5971 -12.68254,-51.6999 -34.24748,-20.2628 -57.16184,11.0334 -11.87335,-53.8683 -35.26901,-31.2483 -57.18718,-16.6774 0.0876,-61.8923 -29.47285,-46.8638 -89.21765,-0.897 46.91643,-43.2544 72.60415,-86.0991 -5.21276,-60.8009 24.99531,-12.5883 48.31613,-50.4679 15.0138,-36.7051 14.86771,-9.5615 28.85321,-31.2999 -15.28328,-25.1166 41.09288,-13.261 36.16457,-23.9727 -8.47396,-32.4844 76.85045,-11.8787 42.48856,-24.677 -11.94947,-36.5214 z"
       id="path523"
       sodipodi:nodetypes="cccccccccccccccccccccccccccc" />
  </g>
  <g
     inkscape:groupmode="layer"
     id="layer1"
     inkscape:label="txt">
    <text
       xml:space="preserve"
       style="font-style:normal;font-variant:normal;font-weight:normal;font-stretch:normal;font-size:45px;line-height:1.25;font-family:Lavi;-inkscape-font-specification:Lavi;text-align:center;letter-spacing:0px;word-spacing:0px;text-anchor:middle;fill:#000000;fill-opacity:1;stroke:none"
       x="548.5365"
       y="197.91747"
       id="text4246-3-2-2-6-3-7-9-3"><tspan
         style="font-size:45px"
         sodipodi:role="line"
         x="548.5365"
         y="197.91747"
         id="tspan919">Beklager Pepper,</tspan><tspan
         style="font-size:45px"
         sodipodi:role="line"
         x="548.5365"
         y="254.16747"
         id="tspan899">men du må nok gå.</tspan></text>
    <text
       xml:space="preserve"
       style="font-style:normal;font-variant:normal;font-weight:normal;font-stretch:normal;font-size:45px;line-height:1.25;font-family:Lavi;-inkscape-font-specification:Lavi;text-align:center;letter-spacing:0px;word-spacing:0px;text-anchor:middle;fill:#000000;fill-opacity:1;stroke:none"
       x="568.95776"
       y="378.66003"
       id="text4246-3-2-2-6-3-7-9-3-3"><tspan
         style="font-size:45px"
         sodipodi:role="line"
         x="568.95776"
         y="378.66003"
         id="tspan27-7">Nå.</tspan></text>
    <text
       xml:space="preserve"
       style="font-style:normal;font-variant:normal;font-weight:normal;font-stretch:normal;font-size:45px;line-height:1.25;font-family:Lavi;-inkscape-font-specification:Lavi;text-align:center;letter-spacing:0px;word-spacing:0px;text-anchor:middle;fill:#000000;fill-opacity:1;stroke:none"
       x="676.57495"
       y="846.57025"
       id="text4246-3-2-2-6-3-7-9-3-3-5"><tspan
         style="font-size:45px"
         sodipodi:role="line"
         x="676.57495"
         y="846.57025"
         id="tspan27-7-3">Hæ?</tspan></text>
    <text
       xml:space="preserve"
       style="font-style:normal;font-variant:normal;font-weight:normal;font-stretch:normal;font-size:45px;line-height:1.25;font-family:Lavi;-inkscape-font-specification:Lavi;text-align:center;letter-spacing:0px;word-spacing:0px;text-anchor:middle;fill:#000000;fill-opacity:1;stroke:none"
       x="1525.757"
       y="170.68793"
       id="text4246-3-2-2-6-3-7-9-3-3-56"><tspan
         style="font-size:45px"
         sodipodi:role="line"
         x="1532.7882"
         y="170.68793"
         id="tspan109">Hei hei hei, </tspan><tspan
         style="font-size:45px"
         sodipodi:role="line"
         x="1532.7882"
         y="226.93793"
         id="tspan923">vent nå litt! </tspan><tspan
         style="font-size:45px"
         sodipodi:role="line"
         x="1525.757"
         y="283.18796"
         id="tspan942">Det må være en</tspan><tspan
         style="font-size:45px"
         sodipodi:role="line"
         x="1525.757"
         y="339.43796"
         id="tspan911">misforståelse her</tspan><tspan
         style="font-size:45px"
         sodipodi:role="line"
         x="1525.757"
         y="395.68796"
         id="tspan913">et sted.</tspan></text>
    <text
       xml:space="preserve"
       style="font-style:normal;font-variant:normal;font-weight:normal;font-stretch:normal;font-size:45px;line-height:1.25;font-family:Lavi;-inkscape-font-specification:Lavi;text-align:center;letter-spacing:0px;word-spacing:0px;text-anchor:middle;fill:#000000;fill-opacity:1;stroke:none"
       x="2140.4995"
       y="867.29895"
       id="text4246-3-2-2-6-3-7-9-3-3-56-9"><tspan
         style="font-size:45px"
         sodipodi:role="line"
         x="2140.4995"
         y="867.29895"
         id="tspan946">Vær så snill</tspan><tspan
         style="font-size:45px"
         sodipodi:role="line"
         x="2140.4995"
         y="923.54895"
         id="tspan929">Pepper, ikke gjør</tspan><tspan
         style="font-size:45px"
         sodipodi:role="line"
         x="2140.4995"
         y="979.79895"
         id="tspan931">dette verre enn</tspan><tspan
         style="font-size:45px"
         sodipodi:role="line"
         x="2140.4995"
         y="1036.049"
         id="tspan933">det allerede er.</tspan></text>
    <text
       xml:space="preserve"
       style="font-style:normal;font-variant:normal;font-weight:normal;font-stretch:normal;font-size:45px;line-height:1.25;font-family:Lavi;-inkscape-font-specification:Lavi;text-align:center;letter-spacing:0px;word-spacing:0px;text-anchor:middle;fill:#000000;fill-opacity:1;stroke:none"
       x="697.99963"
       y="1321.4492"
       id="text4246-3-2-2-6-3-7-9-3-3-56-9-3"><tspan
         style="font-size:45px"
         sodipodi:role="line"
         x="697.99963"
         y="1321.4492"
         id="tspan980">Hei! Du der på din</tspan><tspan
         style="font-size:45px"
         sodipodi:role="line"
         x="697.99963"
         y="1377.6992"
         id="tspan961">høye trone. Om du</tspan><tspan
         style="font-size:45px"
         sodipodi:role="line"
         x="697.99963"
         y="1433.9492"
         id="tspan967">har et problem med</tspan><tspan
         style="font-size:45px"
         sodipodi:role="line"
         x="697.99963"
         y="1490.1992"
         id="tspan1005">meg kan du komme</tspan><tspan
         style="font-size:45px"
         sodipodi:role="line"
         x="697.99963"
         y="1546.4492"
         id="tspan973">ned her så kan vi ta</tspan><tspan
         style="font-size:45px"
         sodipodi:role="line"
         x="705.03088"
         y="1602.6992"
         id="tspan981">det ansikt til ansikt! </tspan></text>
    <text
       xml:space="preserve"
       style="font-style:normal;font-variant:normal;font-weight:normal;font-stretch:normal;font-size:52.7307px;line-height:1.25;font-family:Lavi;-inkscape-font-specification:Lavi;text-align:center;letter-spacing:0px;word-spacing:0px;text-anchor:middle;fill:#000000;fill-opacity:1;stroke:none;stroke-width:1.17179"
       x="1726.7211"
       y="1258.5393"
       id="text4246-3-2-2-6-3-7-9-3-3-56-9-3-2"><tspan
         style="font-size:52.7307px;stroke-width:1.17179"
         sodipodi:role="line"
         x="1726.7211"
         y="1258.5393"
         id="tspan222-9">Tsss...</tspan></text>
    <text
       xml:space="preserve"
       style="font-style:normal;font-variant:normal;font-weight:normal;font-stretch:normal;font-size:45px;line-height:1.25;font-family:Lavi;-inkscape-font-specification:Lavi;text-align:center;letter-spacing:0px;word-spacing:0px;text-anchor:middle;fill:#000000;fill-opacity:1;stroke:none"
       x="1732.0173"
       y="1569.9558"
       id="text4246-3-2-2-6-3-7-9-3-3-56-9-3-20"><tspan
         style="font-size:45px"
         sodipodi:role="line"
         x="1739.0486"
         y="1569.9558"
         id="tspan222-92">Shichimi, </tspan><tspan
         style="font-size:45px"
         sodipodi:role="line"
         x="1732.0173"
         y="1626.2058"
         id="tspan334">du har</tspan><tspan
         style="font-size:45px"
         sodipodi:role="line"
         x="1732.0173"
         y="1682.4558"
         id="tspan1009">ti sekunder...</tspan></text>
    <text
       xml:space="preserve"
       style="font-style:normal;font-variant:normal;font-weight:normal;font-stretch:normal;font-size:45px;line-height:1.25;font-family:Lavi;-inkscape-font-specification:Lavi;text-align:center;letter-spacing:0px;word-spacing:0px;text-anchor:middle;fill:#000000;fill-opacity:1;stroke:none"
       x="210.39514"
       y="1889.5347"
       id="text4246-3-2-2-6-3-7-9-3-3-56-9-3-20-2"><tspan
         style="font-size:45px"
         sodipodi:role="line"
         x="210.39514"
         y="1889.5347"
         id="tspan334-7">ni...</tspan></text>
    <text
       xml:space="preserve"
       style="font-style:normal;font-variant:normal;font-weight:normal;font-stretch:normal;font-size:45px;line-height:1.25;font-family:Lavi;-inkscape-font-specification:Lavi;text-align:center;letter-spacing:0px;word-spacing:0px;text-anchor:middle;fill:#000000;fill-opacity:1;stroke:none"
       x="399.80328"
       y="1942.1443"
       id="text4246-3-2-2-6-3-7-9-3-3-56-9-3-20-2-3"><tspan
         style="font-size:45px"
         sodipodi:role="line"
         x="399.80328"
         y="1942.1443"
         id="tspan334-7-6">åtte...</tspan></text>
    <text
       xml:space="preserve"
       style="font-style:normal;font-variant:normal;font-weight:normal;font-stretch:normal;font-size:45px;line-height:1.25;font-family:Lavi;-inkscape-font-specification:Lavi;text-align:center;letter-spacing:0px;word-spacing:0px;text-anchor:middle;fill:#000000;fill-opacity:1;stroke:none"
       x="564.68182"
       y="2025.6428"
       id="text4246-3-2-2-6-3-7-9-3-3-56-9-3-20-2-3-1"><tspan
         style="font-size:45px"
         sodipodi:role="line"
         x="564.68182"
         y="2025.6428"
         id="tspan334-7-6-2">sju...</tspan></text>
    <text
       xml:space="preserve"
       style="font-style:normal;font-variant:normal;font-weight:normal;font-stretch:normal;font-size:55.953px;line-height:1.25;font-family:Lavi;-inkscape-font-specification:Lavi;text-align:center;letter-spacing:0px;word-spacing:0px;text-anchor:middle;fill:#000000;fill-opacity:1;stroke:none;stroke-width:0.902468"
       x="1073.8251"
       y="2109.1938"
       id="text4246-3-2-2-6-3-7-9-3-3-56-9-3-20-2-3-1-9"
       transform="skewX(-4.8400228)"><tspan
         style="font-style:normal;font-variant:normal;font-weight:bold;font-stretch:normal;font-size:55.953px;font-family:Lavi;-inkscape-font-specification:'Lavi Bold';stroke-width:0.902468"
         sodipodi:role="line"
         x="1073.8251"
         y="2109.1938"
         id="tspan451">ENOUGH, </tspan><tspan
         style="font-style:normal;font-variant:normal;font-weight:bold;font-stretch:normal;font-size:55.953px;font-family:Lavi;-inkscape-font-specification:'Lavi Bold';stroke-width:0.902468"
         sodipodi:role="line"
         x="1073.8251"
         y="2179.135"
         id="tspan457">PEPPER!</tspan><tspan
         style="font-style:normal;font-variant:normal;font-weight:bold;font-stretch:normal;font-size:55.953px;font-family:Lavi;-inkscape-font-specification:'Lavi Bold';stroke-width:0.902468"
         sodipodi:role="line"
         x="1073.8251"
         y="2249.0764"
         id="tspan918">GO AWAY!!!</tspan></text>
    <text
       xml:space="preserve"
       style="font-style:normal;font-variant:normal;font-weight:normal;font-stretch:normal;font-size:180px;line-height:1.25;font-family:Lavi;-inkscape-font-specification:Lavi;letter-spacing:0px;word-spacing:0px;fill:#ffffff;fill-opacity:1;stroke:#ffffff;stroke-width:0.74524;stroke-miterlimit:4;stroke-dasharray:none;stroke-opacity:1;filter:url(#filter4375-4-1-1-1-9-5-8-8-5-5-3-3)"
       id="text4580-6-0-0-0-9-3-3"
       transform="matrix(0.88341196,-0.53750677,0,1.1213027,-74.551071,722.92786)"
       x="418.61386"
       y="279.76691"><textPath
         xlink:href="#path974"
         id="textPath2837"
         style="font-size:180px;stroke-width:0.74524"><tspan
   style="font-size:180px;fill:#ffffff;fill-opacity:1;stroke:#ffffff;stroke-width:0.74524;stroke-miterlimit:4;stroke-dasharray:none;stroke-opacity:1"
   id="tspan876-6-6"
   rotate="325 325 325 325 325 325 325 325 325 0">SHRRIiii!</tspan></textPath></text>
    <path
       style="fill:none;fill-rule:evenodd;stroke:none;stroke-width:1.13654px;stroke-linecap:butt;stroke-linejoin:miter;stroke-opacity:1"
       d="m 2062.1793,2191.5476 c 235.3161,220.1206 417.0174,422.7368 620.7004,632.5297"
       id="path974"
       sodipodi:nodetypes="cc" />
  </g>
</svg>
