<?xml version="1.0" encoding="UTF-8" standalone="no"?>
<!-- Created with Inkscape (http://www.inkscape.org/) -->

<svg
   xmlns:dc="http://purl.org/dc/elements/1.1/"
   xmlns:cc="http://creativecommons.org/ns#"
   xmlns:rdf="http://www.w3.org/1999/02/22-rdf-syntax-ns#"
   xmlns:svg="http://www.w3.org/2000/svg"
   xmlns="http://www.w3.org/2000/svg"
   xmlns:xlink="http://www.w3.org/1999/xlink"
   xmlns:sodipodi="http://sodipodi.sourceforge.net/DTD/sodipodi-0.dtd"
   xmlns:inkscape="http://www.inkscape.org/namespaces/inkscape"
   id="svg2"
   version="1.1"
   inkscape:version="0.92.2 (5c3e80d, 2017-08-06)"
   width="2481"
   height="3503"
   sodipodi:docname="E28P04.svg">
  <metadata
     id="metadata8">
    <rdf:RDF>
      <cc:Work
         rdf:about="">
        <dc:format>image/svg+xml</dc:format>
        <dc:type
           rdf:resource="http://purl.org/dc/dcmitype/StillImage" />
        <dc:title />
      </cc:Work>
    </rdf:RDF>
  </metadata>
  <defs
     id="defs6">
    <filter
       style="color-interpolation-filters:sRGB"
       id="filter4375-4-1-1-1-9"
       inkscape:label="deevad outline effect">
      <feFlood
         id="feFlood4377-7-9-0-8-1"
         flood-opacity="1"
         flood-color="rgb(222,191,116)"
         result="flood" />
      <feComposite
         id="feComposite4379-3-8-8-2-77"
         in2="SourceGraphic"
         in="flood"
         operator="in"
         result="composite1" />
      <feMorphology
         id="feMorphology4393-1-0-49-8-9"
         operator="dilate"
         radius="4"
         result="result3" />
      <feComposite
         id="feComposite4385-9-5-7-0-8"
         in2="result3"
         in="SourceGraphic"
         operator="over"
         result="composite2" />
    </filter>
    <filter
       style="color-interpolation-filters:sRGB"
       id="filter4375-4-1-1-1-9-6"
       inkscape:label="deevad outline effect">
      <feFlood
         id="feFlood4377-7-9-0-8-1-5"
         flood-opacity="1"
         flood-color="rgb(222,191,116)"
         result="flood" />
      <feComposite
         id="feComposite4379-3-8-8-2-77-6"
         in2="SourceGraphic"
         in="flood"
         operator="in"
         result="composite1" />
      <feMorphology
         id="feMorphology4393-1-0-49-8-9-8"
         operator="dilate"
         radius="4"
         result="result3" />
      <feComposite
         id="feComposite4385-9-5-7-0-8-0"
         in2="result3"
         in="SourceGraphic"
         operator="over"
         result="composite2" />
    </filter>
    <filter
       style="color-interpolation-filters:sRGB"
       id="filter987"
       inkscape:label="deevad outline effect">
      <feFlood
         id="feFlood979"
         flood-opacity="1"
         flood-color="rgb(222,191,116)"
         result="flood" />
      <feComposite
         id="feComposite981"
         in2="SourceGraphic"
         in="flood"
         operator="in"
         result="composite1" />
      <feMorphology
         id="feMorphology983"
         operator="dilate"
         radius="4"
         result="result3" />
      <feComposite
         id="feComposite985"
         in2="result3"
         in="SourceGraphic"
         operator="over"
         result="composite2" />
    </filter>
    <filter
       style="color-interpolation-filters:sRGB"
       id="filter4375-4-1-1-1-9-4"
       inkscape:label="deevad outline effect">
      <feFlood
         id="feFlood4377-7-9-0-8-1-8"
         flood-opacity="1"
         flood-color="rgb(222,191,116)"
         result="flood" />
      <feComposite
         id="feComposite4379-3-8-8-2-77-2"
         in2="SourceGraphic"
         in="flood"
         operator="in"
         result="composite1" />
      <feMorphology
         id="feMorphology4393-1-0-49-8-9-3"
         operator="dilate"
         radius="4"
         result="result3" />
      <feComposite
         id="feComposite4385-9-5-7-0-8-8"
         in2="result3"
         in="SourceGraphic"
         operator="over"
         result="composite2" />
    </filter>
    <filter
       style="color-interpolation-filters:sRGB"
       id="filter1046"
       inkscape:label="deevad outline effect">
      <feFlood
         id="feFlood1038"
         flood-opacity="1"
         flood-color="rgb(222,191,116)"
         result="flood" />
      <feComposite
         id="feComposite1040"
         in2="SourceGraphic"
         in="flood"
         operator="in"
         result="composite1" />
      <feMorphology
         id="feMorphology1042"
         operator="dilate"
         radius="4"
         result="result3" />
      <feComposite
         id="feComposite1044"
         in2="result3"
         in="SourceGraphic"
         operator="over"
         result="composite2" />
    </filter>
    <filter
       style="color-interpolation-filters:sRGB"
       id="filter4375-4-1-1-1-9-4-8"
       inkscape:label="deevad outline effect">
      <feFlood
         id="feFlood4377-7-9-0-8-1-8-7"
         flood-opacity="1"
         flood-color="rgb(222,191,116)"
         result="flood" />
      <feComposite
         id="feComposite4379-3-8-8-2-77-2-7"
         in2="SourceGraphic"
         in="flood"
         operator="in"
         result="composite1" />
      <feMorphology
         id="feMorphology4393-1-0-49-8-9-3-3"
         operator="dilate"
         radius="4"
         result="result3" />
      <feComposite
         id="feComposite4385-9-5-7-0-8-8-5"
         in2="result3"
         in="SourceGraphic"
         operator="over"
         result="composite2" />
    </filter>
    <filter
       style="color-interpolation-filters:sRGB"
       id="filter1105"
       inkscape:label="deevad outline effect">
      <feFlood
         id="feFlood1097"
         flood-opacity="1"
         flood-color="rgb(222,191,116)"
         result="flood" />
      <feComposite
         id="feComposite1099"
         in2="SourceGraphic"
         in="flood"
         operator="in"
         result="composite1" />
      <feMorphology
         id="feMorphology1101"
         operator="dilate"
         radius="4"
         result="result3" />
      <feComposite
         id="feComposite1103"
         in2="result3"
         in="SourceGraphic"
         operator="over"
         result="composite2" />
    </filter>
  </defs>
  <sodipodi:namedview
     pagecolor="#ffffff"
     bordercolor="#666666"
     borderopacity="1"
     objecttolerance="10"
     gridtolerance="10"
     guidetolerance="10"
     inkscape:pageopacity="0"
     inkscape:pageshadow="2"
     inkscape:window-width="1273"
     inkscape:window-height="1022"
     id="namedview4"
     showgrid="false"
     inkscape:zoom="0.47887026"
     inkscape:cx="1164.39"
     inkscape:cy="2153.6121"
     inkscape:window-x="630"
     inkscape:window-y="2"
     inkscape:window-maximized="0"
     inkscape:current-layer="layer3"
     inkscape:snap-global="false" />
  <g
     inkscape:groupmode="layer"
     id="layer2"
     inkscape:label="artwork"
     sodipodi:insensitive="true">
    <image
       sodipodi:absref="C:\Users\Kari\Documents\Pepper and Carrot\Episode 28\fi\../gfx_Pepper-and-Carrot_by-David-Revoy_E28P04.png"
       xlink:href="../gfx_Pepper-and-Carrot_by-David-Revoy_E28P04.png"
       y="0"
       x="0"
       id="image10"
       height="3503"
       width="2481" />
  </g>
  <g
     inkscape:groupmode="layer"
     id="layer3"
     inkscape:label="speechbubbles">
    <path
       style="color:#000000;display:inline;overflow:visible;visibility:visible;fill:#ffffff;fill-opacity:1;fill-rule:nonzero;stroke:none;stroke-width:1.03095329px;marker:none;enable-background:accumulate"
       d="m 176.71533,231.36938 c 4.96709,-43.93429 66.55411,-76.55736 226.85931,-69.62631 85.86811,3.71258 183.36904,5.80685 177.08879,70.15926 -6.28035,64.35234 -146.41802,63.85925 -175.34614,65.60234 -28.92814,1.74317 -179.61261,-3.75267 -205.98992,-25.40709 -16.51158,-13.5551 -23.06759,-27.13047 -22.61204,-40.7282 z"
       id="path4546-6"
       inkscape:connector-curvature="0"
       sodipodi:nodetypes="cssssc" />
    <path
       style="color:#000000;display:inline;overflow:visible;visibility:visible;fill:#ffffff;fill-opacity:1;fill-rule:nonzero;stroke:none;stroke-width:1px;marker:none;enable-background:accumulate"
       d="m 522.95156,341.83676 c -42.01307,-12.55848 -55.95663,-19.27588 -57.24338,-67.82246 -1.28666,-48.54662 -20.9759,-45.84166 -20.9759,-45.84166 l -18.70982,30.00689 c 0,0 10.61745,102.6107 96.9291,83.65723 z"
       id="path3072"
       inkscape:connector-curvature="0" />
    <path
       style="fill:#ffffff;fill-opacity:1;stroke:none;stroke-width:0.91826731"
       d="m 1162.823,905.00661 c -4.5124,-95.23342 43.3188,-126.61703 168.763,-122.28824 125.4442,4.32872 154.9934,71.08928 154.6869,106.30139 -0.5392,61.90355 -21.0125,109.87613 -78.8789,130.98774 -58.809,21.4555 -185.2538,-0.028 -214.2501,-30.86354 -20.8508,-22.17333 -29.4185,-59.24685 -30.3209,-84.13735 z"
       id="path3238"
       inkscape:connector-curvature="0"
       sodipodi:nodetypes="cssssc" />
    <path
       style="color:#000000;display:inline;overflow:visible;visibility:visible;fill:#ffffff;fill-opacity:1;fill-rule:nonzero;stroke:none;stroke-width:0.99999994px;marker:none;enable-background:accumulate"
       d="m 1202.5039,677.28412 c 72.8787,37.68069 84.927,85.98909 79.0153,111.91483 -6.7279,29.50523 -34.8614,35.12104 -34.8614,35.12104 l 55.2996,19.88637 c 34.023,-65.93077 21.1022,-125.89631 -99.4535,-166.92224 z"
       id="path3072-1"
       inkscape:connector-curvature="0"
       sodipodi:nodetypes="csccc" />
    <path
       style="color:#000000;display:inline;overflow:visible;visibility:visible;fill:#ffffff;fill-opacity:1;fill-rule:nonzero;stroke:none;stroke-width:1.01165235px;marker:none;enable-background:accumulate"
       d="m 2278.9528,397.40412 c -97.3394,55.03902 -203.119,16.15071 -234.4518,-18.34047 -31.3326,-34.49112 -47.7239,-146.18455 -13.1619,-189.94195 34.5619,-43.75748 71.4039,-64.78774 163.0332,-64.01166 192.2056,8.96401 163.2119,222.21206 84.5805,272.29408 z"
       id="path4040"
       inkscape:connector-curvature="0"
       sodipodi:nodetypes="csscc" />
    <path
       style="fill:#ffffff;fill-rule:evenodd;stroke:none;stroke-width:1px;stroke-linecap:butt;stroke-linejoin:miter;stroke-opacity:1"
       d="m 2236.3776,401.61616 c -14.8967,27.78135 -16.9465,32.37624 -16.1948,38.97929 0.7516,6.60305 14.7438,14.22693 10.5567,29.15096 -4.1871,14.92405 -44.8499,20.68957 -49.7351,27.13164 -4.8851,6.44207 -11.8101,18.46724 -11.8101,18.46724 0,0 2.4424,-19.675 10.1459,-26.03657 7.7035,-6.36158 35.547,-9.20723 35.9762,-24.23858 0.4293,-15.03135 -15.9529,-17.03818 -15.6309,-28.31169 0.3219,-11.27351 11.4609,-40.56398 11.4609,-40.56398 z"
       id="path922"
       inkscape:connector-curvature="0"
       sodipodi:nodetypes="ccsccscccc" />
    <path
       style="color:#000000;display:inline;overflow:visible;visibility:visible;fill:#ffffff;fill-opacity:1;fill-rule:nonzero;stroke:none;stroke-width:1.19177806px;marker:none;enable-background:accumulate"
       d="m 746.38193,1247.4924 c -1.14699,-33.3711 66.7504,-62.2339 144.74654,-64.5354 77.99601,-2.3014 134.78263,25.9688 141.66453,60.4907 6.8821,34.522 -68.81994,67.8932 -136.49305,69.0439 -67.67308,1.1507 -151.38422,-1.7432 -149.91802,-64.9992 z"
       id="path3565"
       inkscape:connector-curvature="0"
       sodipodi:nodetypes="cscsc" />
    <path
       style="fill:#ffffff;fill-opacity:1;stroke:none;stroke-width:1.07829976"
       d="m 1079.8751,1250.6814 c -2.7865,-33.1575 15.6954,-49.6518 32.523,-57.4653 21.3268,-9.9025 142.392,-30.3375 193.7409,6.8159 26.2378,18.9845 29.2457,72.5563 -21.8086,95.7706 -51.0546,23.2142 -136.2611,10.4987 -150.7649,6.278 -14.5041,-4.2208 -50.7897,-15.5227 -53.6904,-51.3992 z"
       id="path3659-8"
       inkscape:connector-curvature="0"
       sodipodi:nodetypes="cssssc" />
    <path
       style="color:#000000;display:inline;overflow:visible;visibility:visible;fill:#ffffff;fill-opacity:1;fill-rule:nonzero;stroke:none;stroke-width:1px;marker:none;enable-background:accumulate"
       d="m 762.46876,1339.2067 c 34.84642,4.7576 60.09382,-4.9504 76.31206,-38.0347 16.21824,-33.0844 2.98136,-36.978 2.98136,-36.978 0,0 -22.92398,70.2821 -79.29342,75.0127 z"
       id="path5002"
       inkscape:connector-curvature="0"
       sodipodi:nodetypes="cscc" />
    <path
       style="color:#000000;display:inline;overflow:visible;visibility:visible;fill:#ffffff;fill-opacity:1;fill-rule:nonzero;stroke:none;stroke-width:1px;marker:none;enable-background:accumulate"
       d="m 1200.668,1350.7499 c -22.0187,-23.7251 -28.5842,-33.5373 -15.2378,-70.8777 13.3464,-37.3404 0.5267,-41.9284 0.5267,-41.9284 l -20.1693,16.498 c 0,0 -23.3832,81.59 34.8804,96.3081 z"
       id="path3072-9"
       inkscape:connector-curvature="0" />
    <path
       style="fill:#ffffff;fill-rule:evenodd;stroke:none;stroke-width:1.08734536px;stroke-linecap:butt;stroke-linejoin:miter;stroke-opacity:1"
       d="m 135.64306,2103.148 -25.53844,3.7767 21.00148,-27.6038 -0.0587,-88.3105 -0.52592,-28.3685 -22.92071,-42.4138 27.33242,10.0954 -32.36597,-49.3056 53.31903,19.1084 -7.01337,-22.5271 37.30309,13.2578 339.53599,-3.7704 23.36912,-12.8719 -3.94445,17.1845 46.03204,-16.6932 -18.20788,20.6316 69.31071,-24.1071 -28.14787,39.352 25.48778,-6.6294 -17.62789,27.8235 -2.18676,82.9162 -0.8627,93.3618 26.85049,35.5672 -36.98176,-13.0192 27.99632,48.6029 -72.95003,-26.3755 19.2335,24.8643 -55.71974,-18.0661 13.32259,20.6046 -35.65958,-15.6784 -303.8329,2.4502 -65.33524,19.4353 20.20196,-27.8437 -76.658754,38.1397 60.466694,-65.599 -30.99446,7.7714 z"
       id="path1035"
       inkscape:connector-curvature="0"
       sodipodi:nodetypes="ccccccccccccccccccccccccccccccccccccc" />
    <path
       style="color:#000000;display:inline;overflow:visible;visibility:visible;fill:#ffffff;fill-opacity:1;fill-rule:nonzero;stroke:none;stroke-width:0.99999994px;marker:none;enable-background:accumulate"
       d="m 338.82946,2155.5995 c -3.16206,31.9356 -4.43517,74.4334 -68.81805,64.0726 3.51709,-0.3132 80.93631,37.3214 104.22702,-54.8867 23.29069,-92.2081 14.70299,-105.929 14.70299,-105.929 z"
       id="path4064"
       inkscape:connector-curvature="0"
       sodipodi:nodetypes="ccscc" />
    <path
       style="color:#000000;display:inline;overflow:visible;visibility:visible;fill:#ffffff;fill-opacity:1;fill-rule:nonzero;stroke:none;stroke-width:1.14160931px;marker:none;enable-background:accumulate"
       d="m 941.988,2634.3761 c -0.89396,-26.0598 15.19672,-43.7806 24.13607,-52.1197 8.93938,-8.3392 65.25673,-27.1024 85.81723,-27.1024 58.1772,2.3663 170.3504,7.0506 150.5454,99.7851 -9.8333,31.2719 -76.3493,34.6841 -89.7584,37.8113 -13.409,3.1273 -63.1298,0.628 -75.6447,-0.4143 -12.5151,-1.0423 -97.77736,-15.2216 -95.0956,-57.96 z"
       id="path3357"
       inkscape:connector-curvature="0"
       sodipodi:nodetypes="ccccccc" />
    <path
       style="color:#000000;display:inline;overflow:visible;visibility:visible;fill:#ffffff;fill-opacity:1;fill-rule:nonzero;stroke:none;stroke-width:1px;marker:none;enable-background:accumulate"
       d="m 1053.2112,2471.8445 c 42.562,38.1309 30.9091,101.3953 6.44,96.5527 -29.6347,37.5034 -18.094,38.1309 -18.094,38.1309 l 33.2898,-11.0238 c 0,15.4037 79.1436,-58.1295 -21.6358,-123.6598 z"
       id="path3072-92"
       inkscape:connector-curvature="0"
       sodipodi:nodetypes="ccccc" />
    <path
       style="fill:#ffffff;fill-opacity:1;stroke:none;stroke-width:1"
       d="m 2198.3032,1950.6682 c -1.7012,-22.1072 9.5818,-33.1046 19.855,-38.3141 13.0198,-6.6023 87.2062,-21.4795 113.5776,12.0631 12.352,15.711 22.5534,40.8571 -8.6148,56.3349 -31.1683,15.4776 -83.1858,6.9998 -92.0404,4.1857 -8.8546,-2.8142 -31.0066,-10.3495 -32.7774,-34.2696 z"
       id="path3659-8-0"
       inkscape:connector-curvature="0"
       sodipodi:nodetypes="cssssc" />
    <path
       style="fill:#ffffff;fill-rule:evenodd;stroke:none;stroke-width:1px;stroke-linecap:butt;stroke-linejoin:miter;stroke-opacity:1"
       d="m 2173.406,2020.0379 c 29.9739,-13.444 31.8142,4.3615 43.8953,-5.5877 12.0812,-9.9492 4.271,-14.7221 5.9747,-23.2109 2.171,-8.4889 19.5625,-14.6593 25.9584,-21.0552 6.3959,-6.3959 -13.4149,-18.9446 -23.364,-11.838 -9.9492,7.1066 -13.1544,15.8205 -17.4379,23.8227 -2.8816,7.0675 8.1387,18.2141 1.0325,24.61 -7.1066,6.3959 -7.6324,-2.3754 -19.7136,1.1779 -12.0811,3.5533 -16.345,12.0812 -16.345,12.0812 z"
       id="path1097"
       inkscape:connector-curvature="0"
       sodipodi:nodetypes="cccsccsccc" />
    <path
       style="color:#000000;display:inline;overflow:visible;visibility:visible;fill:#ffffff;fill-opacity:1;fill-rule:nonzero;stroke:none;stroke-width:0.93479103px;marker:none;enable-background:accumulate"
       d="m 1966.2269,2442.5266 c 21.809,-33.0435 40.2439,-65.637 172.4176,-65.0952 133.1618,0.5458 150.0653,0.036 191.025,29.0958 37.8438,26.8487 35.6649,154.6678 22.0118,215.2839 -13.6533,60.6162 -59.5581,88.424 -190.1174,83.5748 -130.5594,-4.8494 -123.0044,-4.1302 -159.7474,-36.4693 -50.1409,-44.131 -57.3985,-193.3466 -35.5896,-226.39 z"
       id="path4530"
       inkscape:connector-curvature="0"
       sodipodi:nodetypes="zsssssz" />
    <path
       style="fill:#ffffff;fill-rule:evenodd;stroke:none;stroke-width:1px;stroke-linecap:butt;stroke-linejoin:miter;stroke-opacity:1"
       d="m 2012.3054,2768.4538 c 73.9706,-26.3006 87.1209,-92.0523 87.1209,-133.147 0,-41.0948 -31.232,-85.4771 -31.232,-85.4771 l -19.7255,27.9444 c 0,0 1.6438,4.9314 6.5751,44.3824 4.9314,39.4509 31.2321,82.1895 -42.7385,146.2973 z"
       id="path1167"
       inkscape:connector-curvature="0" />
    <path
       style="color:#000000;display:inline;overflow:visible;visibility:visible;fill:#ffffff;fill-opacity:1;fill-rule:nonzero;stroke:none;stroke-width:0.99999994px;marker:none;enable-background:accumulate"
       d="m 1061.7088,3240.5858 c -9.8478,32.2167 51.8659,121.3348 137.5704,110.5133 -2.9664,-0.2632 -108.5106,25.5291 -160.8486,-69.3197 -45.94784,-83.2682 -16.9236,-118.1415 -16.9236,-118.1415 z"
       id="path4064-6"
       inkscape:connector-curvature="0"
       sodipodi:nodetypes="ccscc" />
    <path
       style="fill:#ffffff;fill-opacity:1;fill-rule:evenodd;stroke:none;stroke-width:1px;stroke-linecap:butt;stroke-linejoin:miter;stroke-opacity:1"
       d="m 749.88989,2867.5488 16.59139,6.2302 -29.14984,-36.0651 45.93265,28.1263 -6.60917,-23.0198 35.54073,18.0306 -6.45606,-17.3913 23.10415,14.58 13.83246,4.2224 160.5342,-2.2041 45.7722,-18.0544 -8.4564,18.0377 83.4414,-33.6129 -34.9421,51.7701 36.633,-12.1041 -23.1703,39.1424 22.8571,-3.1975 -22.5028,31.0933 17.2327,3.2305 -24.2877,42.4998 27.4733,39.8272 -27.7863,-6.3908 22.7753,23.7164 -38.7859,-1.8377 26.6669,37.2029 -39.242,-10.864 42.4252,65.7637 -59.1468,-37.7233 -1.8475,23.2516 -37.7613,-30.7349 -138.86693,13.1618 -48.36401,10.8228 13.9714,-19.8124 -53.26109,12.7072 14.669,-25.59 -65.37779,35.7243 36.19575,-57.5007 -28.64165,14.6743 22.04457,-37.1201 -19.76708,12.6246 17.26943,-29.9644 -1.54924,-108.9141 z"
       id="path1184"
       inkscape:connector-curvature="0"
       sodipodi:nodetypes="ccccccccccccccccccccccccccccccccccccccccccc" />
    <path
       style="fill:#ffffff;fill-opacity:1;fill-rule:evenodd;stroke:none;stroke-width:1.0124017px;stroke-linecap:butt;stroke-linejoin:miter;stroke-opacity:1"
       d="m 893.0915,3113.9934 -23.48307,-46.9404 40.86767,23.1901 -6.3411,-20.8313 23.01322,14.8938 4.34615,-16.5856 116.34863,11.9747 133.9468,-2.9674 27.798,-10.8621 -7.5196,15.4856 37.203,-16.4042 -12.8798,20.9179 57.5687,-25.9395 -37.1204,53.6703 33.3005,-13.1126 -26.1537,38.5675 22.0705,-6.6369 -18.7987,26.8352 16.6779,-4.3197 -14.9076,19.1138 -3.5125,102.1386 14.1348,17.0242 -19.6758,-3.7381 26.7183,33.5026 -53.2938,-27.4987 16.3158,26.8022 -43.5328,-25.608 4.56,17.0499 -28.8557,-17.5143 -215.77662,5.2081 -22.15699,11.3076 6.87515,-12.7674 -31.20534,14.491 7.19463,-22.2197 -57.35493,32.9718 40.25533,-60.2383 -30.56306,19.567 25.29193,-34.7586 -22.05064,4.3101 10.32934,-17.7434 0.81293,-91.0597 -16.59262,-43.1113 z"
       id="path1186"
       inkscape:connector-curvature="0"
       sodipodi:nodetypes="ccccccccccccccccccccccccccccccccccccccccccc" />
  </g>
  <g
     inkscape:groupmode="layer"
     id="layer1"
     inkscape:label="txt">
    <text
       xml:space="preserve"
       style="font-style:normal;font-variant:normal;font-weight:normal;font-stretch:normal;line-height:0%;font-family:Lavi;-inkscape-font-specification:Lavi;text-align:center;letter-spacing:0px;word-spacing:0px;text-anchor:middle;fill:#000000;fill-opacity:1;stroke:none"
       x="383.53223"
       y="241.93236"
       id="text4246"><tspan
         sodipodi:role="line"
         style="font-size:45px;line-height:1.20000005"
         x="383.53223"
         y="241.93236"
         id="tspan4252">Vai sinä se olet!</tspan></text>
    <text
       xml:space="preserve"
       style="font-style:normal;font-variant:normal;font-weight:normal;font-stretch:normal;line-height:0%;font-family:Lavi;-inkscape-font-specification:Lavi;text-align:center;letter-spacing:0px;word-spacing:0px;text-anchor:middle;fill:#000000;fill-opacity:1;stroke:none"
       x="1326.7289"
       y="864.74561"
       id="text4246-3"><tspan
         sodipodi:role="line"
         style="font-size:45px;line-height:1.20000005"
         x="1326.7289"
         y="864.74561"
         id="tspan4252-6">Olin</tspan><tspan
         sodipodi:role="line"
         style="font-size:45px;line-height:1.20000005"
         x="1326.7289"
         y="918.74561"
         id="tspan3824">vaipuneena</tspan><tspan
         sodipodi:role="line"
         style="font-size:45px;line-height:1.20000005"
         x="1326.7289"
         y="972.74561"
         id="tspan843">ajatuksiini.</tspan></text>
    <text
       xml:space="preserve"
       style="font-style:normal;font-variant:normal;font-weight:normal;font-stretch:normal;font-size:16.56267548px;line-height:0%;font-family:Lavi;-inkscape-font-specification:Lavi;text-align:center;letter-spacing:0px;word-spacing:0px;text-anchor:middle;fill:#ffffff;fill-opacity:1;stroke:#ffffff;stroke-width:0.4101558;stroke-miterlimit:4;stroke-dasharray:none;stroke-opacity:1;opacity:0.6;"
       x="732.62769"
       y="780.9256"
       id="text4246-8"
       transform="matrix(0.97558614,-0.48724083,-0.02659511,1.0383073,0,0)"><tspan
         sodipodi:role="line"
         style="font-size:42.45798111px;line-height:1.25;fill:#ffffff;stroke:#ffffff;stroke-width:0.4101558;stroke-miterlimit:4;stroke-dasharray:none;stroke-opacity:1;"
         x="732.62769"
         y="780.9256"
         id="tspan4150-8">rub</tspan><tspan
         sodipodi:role="line"
         style="font-size:42.45798111px;line-height:1.25;fill:#ffffff;stroke:#ffffff;stroke-width:0.4101558;stroke-miterlimit:4;stroke-dasharray:none;stroke-opacity:1;"
         x="732.62769"
         y="833.99805"
         id="tspan877">rub</tspan></text>
    <text
       xml:space="preserve"
       style="font-style:normal;font-variant:normal;font-weight:normal;font-stretch:normal;line-height:0%;font-family:Lavi;-inkscape-font-specification:Lavi;text-align:center;letter-spacing:0px;word-spacing:0px;text-anchor:middle;fill:#000000;fill-opacity:1;stroke:none"
       x="2177.9553"
       y="209.84564"
       id="text4246-3-7"><tspan
         sodipodi:role="line"
         style="font-size:45px;line-height:1.20000005"
         x="2177.9553"
         y="209.84564"
         id="tspan7120">Menen sisälle.</tspan><tspan
         sodipodi:role="line"
         style="font-size:45px;line-height:1.20000005"
         x="2177.9553"
         y="263.84564"
         id="tspan891">Täällä ulkona</tspan><tspan
         sodipodi:role="line"
         style="font-size:45px;line-height:1.20000005"
         x="2177.9553"
         y="317.84564"
         id="tspan3835">alkaa tulla</tspan><tspan
         sodipodi:role="line"
         style="font-size:45px;line-height:1.20000005"
         x="2177.9553"
         y="371.84564"
         id="tspan3837">kylmä.</tspan></text>
    <text
       xml:space="preserve"
       style="font-style:normal;font-variant:normal;font-weight:normal;font-stretch:normal;font-size:10.0168314px;line-height:0%;font-family:Lavi;-inkscape-font-specification:Lavi;text-align:center;letter-spacing:0px;word-spacing:0px;text-anchor:middle;fill:#000000;fill-opacity:1;stroke:none;stroke-width:1"
       x="1197.906"
       y="1230.2842"
       id="text4246-3-6"><tspan
         sodipodi:role="line"
         style="font-style:italic;font-variant:normal;font-weight:normal;font-stretch:normal;font-size:37.56311798px;line-height:1.20000005;font-family:Lavi;-inkscape-font-specification:'Lavi Italic';stroke-width:1.19798362"
         x="1197.906"
         y="1230.2842"
         id="tspan843-1">Kiiruhtakaa!</tspan><tspan
         sodipodi:role="line"
         style="font-style:italic;font-variant:normal;font-weight:normal;font-stretch:normal;font-size:37.56311798px;line-height:1.20000005;font-family:Lavi;-inkscape-font-specification:'Lavi Italic';stroke-width:1.19798362"
         x="1197.906"
         y="1275.3599"
         id="tspan953">Hän tulee!</tspan></text>
    <text
       xml:space="preserve"
       style="font-style:normal;font-variant:normal;font-weight:normal;font-stretch:normal;font-size:10.0168314px;line-height:0%;font-family:Lavi;-inkscape-font-specification:Lavi;text-align:center;letter-spacing:0px;word-spacing:0px;text-anchor:middle;fill:#000000;fill-opacity:1;stroke:none;stroke-width:1"
       x="884.50769"
       y="1242.2605"
       id="text4246-3-6-2"><tspan
         sodipodi:role="line"
         style="font-style:italic;font-variant:normal;font-weight:normal;font-stretch:normal;font-size:37.56311798px;line-height:1.20000005;font-family:Lavi;-inkscape-font-specification:'Lavi Italic';stroke-width:1.19798362"
         x="884.50769"
         y="1242.2605"
         id="tspan843-1-7">Nopeasti nyt!</tspan><tspan
         sodipodi:role="line"
         style="font-style:italic;font-variant:normal;font-weight:normal;font-stretch:normal;font-size:37.56311798px;line-height:1.20000005;font-family:Lavi;-inkscape-font-specification:'Lavi Italic';stroke-width:1.19798362"
         x="884.50769"
         y="1287.3362"
         id="tspan953-0">Se on hän!</tspan></text>
    <text
       xml:space="preserve"
       style="font-style:normal;font-variant:normal;font-weight:normal;font-stretch:normal;line-height:0%;font-family:Lavi;-inkscape-font-specification:Lavi;text-align:center;letter-spacing:0px;word-spacing:0px;text-anchor:middle;fill:#000000;fill-opacity:1;stroke:none"
       x="371.36703"
       y="1960.0396"
       id="text4246-3-3"><tspan
         sodipodi:role="line"
         style="font-size:45px;line-height:1.20000005"
         x="371.36703"
         y="1960.0396"
         id="tspan1031">Neiti Saffron!</tspan><tspan
         sodipodi:role="line"
         style="font-size:45px;line-height:1.20000005"
         x="371.36703"
         y="2014.0396"
         id="tspan3844">Sanoisitteko muutaman</tspan><tspan
         sodipodi:role="line"
         style="font-size:45px;line-height:1.20000005"
         x="371.36703"
         y="2068.0398"
         id="tspan3846">sanan Qualicityn</tspan><tspan
         sodipodi:role="line"
         style="font-size:45px;line-height:1.20000005"
         x="371.36703"
         y="2122.0398"
         id="tspan1033">Sanomille?</tspan></text>
    <text
       xml:space="preserve"
       style="font-style:normal;font-variant:normal;font-weight:normal;font-stretch:normal;line-height:0%;font-family:Lavi;-inkscape-font-specification:Lavi;text-align:center;letter-spacing:0px;word-spacing:0px;text-anchor:middle;fill:#000000;fill-opacity:1;stroke:none"
       x="1077.2172"
       y="2612.5867"
       id="text4246-3-3-2"><tspan
         sodipodi:role="line"
         style="font-size:45px;line-height:1.10000002"
         x="1077.2172"
         y="2612.5867"
         id="tspan1033-7">Tottahan</tspan><tspan
         sodipodi:role="line"
         style="font-size:45px;line-height:1.10000002"
         x="1077.2172"
         y="2662.0867"
         id="tspan6907">toki!</tspan></text>
    <text
       xml:space="preserve"
       style="font-style:normal;font-variant:normal;font-weight:normal;font-stretch:normal;line-height:0%;font-family:Lavi;-inkscape-font-specification:Lavi;text-align:center;letter-spacing:0px;word-spacing:0px;text-anchor:middle;fill:#000000;fill-opacity:1;stroke:none"
       x="2273.3049"
       y="1953.7657"
       id="text4246-3-3-2-2"><tspan
         sodipodi:role="line"
         style="font-size:45px;line-height:1.20000005"
         x="2273.3049"
         y="1953.7657"
         id="tspan1033-7-3">...</tspan></text>
    <text
       xml:space="preserve"
       style="font-style:normal;font-variant:normal;font-weight:normal;font-stretch:normal;line-height:0%;font-family:Lavi;-inkscape-font-specification:Lavi;text-align:center;letter-spacing:0px;word-spacing:0px;text-anchor:middle;fill:#000000;fill-opacity:1;stroke:none"
       x="2168.7898"
       y="2440.7156"
       id="text4246-3-3-7"><tspan
         sodipodi:role="line"
         style="font-size:45px;line-height:1.20000005"
         x="2168.7898"
         y="2440.7156"
         id="tspan1033-2">Katsohan,</tspan><tspan
         sodipodi:role="line"
         style="font-size:45px;line-height:1.20000005"
         x="2168.7898"
         y="2494.7156"
         id="tspan1155">Carrot! Luulen</tspan><tspan
         sodipodi:role="line"
         style="font-size:45px;line-height:1.20000005"
         x="2168.7898"
         y="2548.7156"
         id="tspan3872">tietäväni, miksi</tspan><tspan
         sodipodi:role="line"
         style="font-size:45px;line-height:1.20000005"
         x="2168.7898"
         y="2602.7156"
         id="tspan1159">olen tänään vä-</tspan><tspan
         sodipodi:role="line"
         style="font-size:45px;line-height:1.20000005"
         x="2168.7898"
         y="2656.7156"
         id="tspan3887">hän alamaissa.</tspan></text>
    <text
       xml:space="preserve"
       style="font-style:normal;font-variant:normal;font-weight:normal;font-stretch:normal;font-size:79.97832489px;line-height:1.25;font-family:Lavi;-inkscape-font-specification:Lavi;font-variant-ligatures:normal;font-variant-position:normal;font-variant-caps:normal;font-variant-numeric:normal;font-variant-alternates:normal;font-feature-settings:normal;text-indent:0;text-align:start;text-decoration:none;text-decoration-line:none;text-decoration-style:solid;text-decoration-color:#000000;letter-spacing:0px;word-spacing:0px;text-transform:none;writing-mode:lr-tb;direction:ltr;text-orientation:mixed;dominant-baseline:auto;baseline-shift:baseline;text-anchor:start;white-space:normal;shape-padding:0;opacity:1;vector-effect:none;fill:#ffffff;fill-opacity:1;stroke:none;stroke-width:1.78316224;stroke-linecap:butt;stroke-linejoin:miter;stroke-miterlimit:4;stroke-dasharray:none;stroke-dashoffset:0;stroke-opacity:1;filter:url(#filter4375-4-1-1-1-9)"
       x="1191.4009"
       y="2475.9683"
       id="text4246-8-1-3"
       transform="matrix(0.54943791,-0.30590239,-0.01497803,0.74418809,422.11729,526.52481)"><tspan
         sodipodi:role="line"
         style="font-style:normal;font-variant:normal;font-weight:normal;font-stretch:normal;font-size:79.97832489px;line-height:1.25;font-family:Lavi;-inkscape-font-specification:Lavi;font-variant-ligatures:normal;font-variant-position:normal;font-variant-caps:normal;font-variant-numeric:normal;font-variant-alternates:normal;font-feature-settings:normal;text-indent:0;text-align:start;text-decoration:none;text-decoration-line:none;text-decoration-style:solid;text-decoration-color:#000000;letter-spacing:0px;word-spacing:0px;text-transform:none;writing-mode:lr-tb;direction:ltr;text-orientation:mixed;dominant-baseline:auto;baseline-shift:baseline;text-anchor:start;white-space:normal;shape-padding:0;vector-effect:none;fill:#ffffff;fill-opacity:1;stroke:none;stroke-width:1.78316224;stroke-linecap:butt;stroke-linejoin:miter;stroke-miterlimit:4;stroke-dasharray:none;stroke-dashoffset:0;stroke-opacity:1;filter:url(#filter4375-4-1-1-1-9)"
         x="1191.4009"
         y="2475.9683"
         id="tspan877-7-6"
         dx="6"><tspan
           style="font-size:70.07293701px;stroke-width:1.78316224"
           id="tspan964">F</tspan><tspan
           style="font-size:65.1342926px;stroke-width:1.78316224"
           id="tspan962">LASH</tspan></tspan></text>
    <text
       xml:space="preserve"
       style="font-style:normal;font-variant:normal;font-weight:normal;font-stretch:normal;line-height:0%;font-family:Lavi;-inkscape-font-specification:Lavi;text-align:center;letter-spacing:0px;word-spacing:0px;text-anchor:middle;fill:#000000;fill-opacity:1;stroke:none"
       x="926.21729"
       y="2935.7336"
       id="text4246-3-3-75"><tspan
         sodipodi:role="line"
         style="font-size:45px;line-height:1.20000005"
         x="926.21729"
         y="2935.7336"
         id="tspan1033-29">Neiti Saffron!</tspan><tspan
         sodipodi:role="line"
         style="font-size:45px;line-height:1.20000005"
         x="926.21729"
         y="2989.7336"
         id="tspan6848">Herevan Muoti</tspan><tspan
         sodipodi:role="line"
         style="font-size:45px;line-height:1.20000005"
         x="926.21729"
         y="3043.7336"
         id="tspan1182">-lehdestä.</tspan></text>
    <text
       xml:space="preserve"
       style="font-style:normal;font-variant:normal;font-weight:normal;font-stretch:normal;font-size:79.97832489px;line-height:1.25;font-family:Lavi;-inkscape-font-specification:Lavi;font-variant-ligatures:normal;font-variant-position:normal;font-variant-caps:normal;font-variant-numeric:normal;font-variant-alternates:normal;font-feature-settings:normal;text-indent:0;text-align:start;text-decoration:none;text-decoration-line:none;text-decoration-style:solid;text-decoration-color:#000000;letter-spacing:0px;word-spacing:0px;text-transform:none;writing-mode:lr-tb;direction:ltr;text-orientation:mixed;dominant-baseline:auto;baseline-shift:baseline;text-anchor:start;white-space:normal;shape-padding:0;opacity:1;vector-effect:none;fill:#ffffff;fill-opacity:1;stroke:none;stroke-width:1.78316224;stroke-linecap:butt;stroke-linejoin:miter;stroke-miterlimit:4;stroke-dasharray:none;stroke-dashoffset:0;stroke-opacity:1;filter:url(#filter4375-4-1-1-1-9-6)"
       x="1191.4009"
       y="2475.9683"
       id="text4246-8-1-3-2"
       transform="matrix(0.54943791,-0.30590239,-0.01497803,0.74418809,458.46468,856.46021)"><tspan
         sodipodi:role="line"
         style="font-style:normal;font-variant:normal;font-weight:normal;font-stretch:normal;font-size:79.97832489px;line-height:1.25;font-family:Lavi;-inkscape-font-specification:Lavi;font-variant-ligatures:normal;font-variant-position:normal;font-variant-caps:normal;font-variant-numeric:normal;font-variant-alternates:normal;font-feature-settings:normal;text-indent:0;text-align:start;text-decoration:none;text-decoration-line:none;text-decoration-style:solid;text-decoration-color:#000000;letter-spacing:0px;word-spacing:0px;text-transform:none;writing-mode:lr-tb;direction:ltr;text-orientation:mixed;dominant-baseline:auto;baseline-shift:baseline;text-anchor:start;white-space:normal;shape-padding:0;vector-effect:none;fill:#ffffff;fill-opacity:1;stroke:none;stroke-width:1.78316224;stroke-linecap:butt;stroke-linejoin:miter;stroke-miterlimit:4;stroke-dasharray:none;stroke-dashoffset:0;stroke-opacity:1;filter:url(#filter4375-4-1-1-1-9-6)"
         x="1191.4009"
         y="2475.9683"
         id="tspan877-7-6-2"
         dx="6"><tspan
           style="font-size:70.07293701px;stroke-width:1.78316224"
           id="tspan964-3">F</tspan><tspan
           style="font-size:65.1342926px;stroke-width:1.78316224"
           id="tspan962-2">LASH</tspan></tspan></text>
    <text
       xml:space="preserve"
       style="font-style:normal;font-variant:normal;font-weight:normal;font-stretch:normal;font-size:79.97832489px;line-height:1.25;font-family:Lavi;-inkscape-font-specification:Lavi;font-variant-ligatures:normal;font-variant-position:normal;font-variant-caps:normal;font-variant-numeric:normal;font-variant-alternates:normal;font-feature-settings:normal;text-indent:0;text-align:start;text-decoration:none;text-decoration-line:none;text-decoration-style:solid;text-decoration-color:#000000;letter-spacing:0px;word-spacing:0px;text-transform:none;writing-mode:lr-tb;direction:ltr;text-orientation:mixed;dominant-baseline:auto;baseline-shift:baseline;text-anchor:start;white-space:normal;shape-padding:0;opacity:1;vector-effect:none;fill:#ffffff;fill-opacity:1;stroke:none;stroke-width:1.78316224;stroke-linecap:butt;stroke-linejoin:miter;stroke-miterlimit:4;stroke-dasharray:none;stroke-dashoffset:0;stroke-opacity:1;filter:url(#filter4375-4-1-1-1-9-4)"
       x="1191.4009"
       y="2475.9683"
       id="text4246-8-1-3-5"
       transform="matrix(0.54943791,-0.30590239,-0.01497803,0.74418809,36.745484,519.61759)"><tspan
         sodipodi:role="line"
         style="font-style:normal;font-variant:normal;font-weight:normal;font-stretch:normal;font-size:79.97832489px;line-height:1.25;font-family:Lavi;-inkscape-font-specification:Lavi;font-variant-ligatures:normal;font-variant-position:normal;font-variant-caps:normal;font-variant-numeric:normal;font-variant-alternates:normal;font-feature-settings:normal;text-indent:0;text-align:start;text-decoration:none;text-decoration-line:none;text-decoration-style:solid;text-decoration-color:#000000;letter-spacing:0px;word-spacing:0px;text-transform:none;writing-mode:lr-tb;direction:ltr;text-orientation:mixed;dominant-baseline:auto;baseline-shift:baseline;text-anchor:start;white-space:normal;shape-padding:0;vector-effect:none;fill:#ffffff;fill-opacity:1;stroke:none;stroke-width:1.78316224;stroke-linecap:butt;stroke-linejoin:miter;stroke-miterlimit:4;stroke-dasharray:none;stroke-dashoffset:0;stroke-opacity:1;filter:url(#filter4375-4-1-1-1-9-4)"
         x="1191.4009"
         y="2475.9683"
         id="tspan877-7-6-7"
         dx="6"><tspan
           style="font-size:70.07293701px;stroke-width:1.78316224"
           id="tspan964-2">F</tspan><tspan
           style="font-size:65.1342926px;stroke-width:1.78316224"
           id="tspan962-8">LASH</tspan></tspan></text>
    <text
       xml:space="preserve"
       style="font-style:normal;font-variant:normal;font-weight:normal;font-stretch:normal;font-size:79.97832489px;line-height:1.25;font-family:Lavi;-inkscape-font-specification:Lavi;font-variant-ligatures:normal;font-variant-position:normal;font-variant-caps:normal;font-variant-numeric:normal;font-variant-alternates:normal;font-feature-settings:normal;text-indent:0;text-align:start;text-decoration:none;text-decoration-line:none;text-decoration-style:solid;text-decoration-color:#000000;letter-spacing:0px;word-spacing:0px;text-transform:none;writing-mode:lr-tb;direction:ltr;text-orientation:mixed;dominant-baseline:auto;baseline-shift:baseline;text-anchor:start;white-space:normal;shape-padding:0;opacity:1;vector-effect:none;fill:#ffffff;fill-opacity:1;stroke:none;stroke-width:1.78316224;stroke-linecap:butt;stroke-linejoin:miter;stroke-miterlimit:4;stroke-dasharray:none;stroke-dashoffset:0;stroke-opacity:1;filter:url(#filter4375-4-1-1-1-9-4-8)"
       x="1191.4009"
       y="2475.9683"
       id="text4246-8-1-3-5-3"
       transform="matrix(0.54943791,-0.30590239,-0.01497803,0.74418809,-266.75729,810.46654)"><tspan
         sodipodi:role="line"
         style="font-style:normal;font-variant:normal;font-weight:normal;font-stretch:normal;font-size:79.97832489px;line-height:1.25;font-family:Lavi;-inkscape-font-specification:Lavi;font-variant-ligatures:normal;font-variant-position:normal;font-variant-caps:normal;font-variant-numeric:normal;font-variant-alternates:normal;font-feature-settings:normal;text-indent:0;text-align:start;text-decoration:none;text-decoration-line:none;text-decoration-style:solid;text-decoration-color:#000000;letter-spacing:0px;word-spacing:0px;text-transform:none;writing-mode:lr-tb;direction:ltr;text-orientation:mixed;dominant-baseline:auto;baseline-shift:baseline;text-anchor:start;white-space:normal;shape-padding:0;vector-effect:none;fill:#ffffff;fill-opacity:1;stroke:none;stroke-width:1.78316224;stroke-linecap:butt;stroke-linejoin:miter;stroke-miterlimit:4;stroke-dasharray:none;stroke-dashoffset:0;stroke-opacity:1;filter:url(#filter4375-4-1-1-1-9-4-8)"
         x="1191.4009"
         y="2475.9683"
         id="tspan877-7-6-7-9"
         dx="6"><tspan
           style="font-size:70.07293701px;stroke-width:1.78316224"
           id="tspan964-2-0">F</tspan><tspan
           style="font-size:65.1342926px;stroke-width:1.78316224"
           id="tspan962-8-8">LASH</tspan></tspan></text>
    <text
       xml:space="preserve"
       style="font-style:normal;font-variant:normal;font-weight:normal;font-stretch:normal;line-height:0%;font-family:Lavi;-inkscape-font-specification:Lavi;text-align:center;letter-spacing:0px;word-spacing:0px;text-anchor:middle;fill:#000000;fill-opacity:1;stroke:none"
       x="1071.2733"
       y="3112.7102"
       id="text4246-3-3-75-1"><tspan
         sodipodi:role="line"
         style="font-size:45px;line-height:1.20000005"
         x="1071.2733"
         y="3116.198"
         id="tspan6909-5" /><tspan
         sodipodi:role="line"
         style="font-size:45px;line-height:1.20000005"
         x="1071.2733"
         y="3152.7896"
         id="tspan6844-5">Kenen suunnitte-</tspan><tspan
         sodipodi:role="line"
         style="font-size:45px;line-height:1.20000005"
         x="1071.2733"
         y="3206.7896"
         id="tspan6846-2">lemassa puvussa</tspan><tspan
         sodipodi:role="line"
         style="font-size:45px;line-height:1.20000005"
         x="1071.2733"
         y="3260.7896"
         id="tspan6848-2">olette tänään?</tspan></text>
  </g>
</svg>
