<?xml version="1.0" encoding="UTF-8" standalone="no"?>
<svg
   xmlns:dc="http://purl.org/dc/elements/1.1/"
   xmlns:cc="http://creativecommons.org/ns#"
   xmlns:rdf="http://www.w3.org/1999/02/22-rdf-syntax-ns#"
   xmlns:svg="http://www.w3.org/2000/svg"
   xmlns="http://www.w3.org/2000/svg"
   xmlns:xlink="http://www.w3.org/1999/xlink"
   xmlns:sodipodi="http://sodipodi.sourceforge.net/DTD/sodipodi-0.dtd"
   xmlns:inkscape="http://www.inkscape.org/namespaces/inkscape"
   sodipodi:docname="E35P11.svg"
   height="3503"
   width="2481"
   inkscape:version="1.0.1 (3bc2e813f5, 2020-09-07)"
   version="1.1"
   id="svg2">
  <metadata
     id="metadata8">
    <rdf:RDF>
      <cc:Work
         rdf:about="">
        <dc:format>image/svg+xml</dc:format>
        <dc:type
           rdf:resource="http://purl.org/dc/dcmitype/StillImage" />
        <dc:title />
      </cc:Work>
    </rdf:RDF>
  </metadata>
  <defs
     id="defs6">
    <rect
       x="1618.154"
       y="775.90793"
       width="17.267822"
       height="68.599601"
       id="rect74" />
    <filter
       height="1.014349"
       width="1.0044414"
       y="-0.0071745174"
       x="-0.0022207188"
       inkscape:label="deevad outline effect"
       id="filter4375-4-1-1-1-9-3-2-3-8-7-6-4-9"
       style="color-interpolation-filters:sRGB">
      <feFlood
         result="flood"
         flood-color="rgb(95,141,211)"
         flood-opacity="1"
         id="feFlood4377-7-9-0-8-1-6-9-6-7-5-32-7-4" />
      <feComposite
         result="composite1"
         operator="in"
         in="flood"
         in2="SourceGraphic"
         id="feComposite4379-3-8-8-2-77-7-1-0-9-9-0-6-8" />
      <feMorphology
         result="result3"
         radius="4"
         operator="dilate"
         id="feMorphology4393-1-0-49-8-9-5-2-6-2-2-6-5-1" />
      <feComposite
         result="composite2"
         operator="over"
         in="SourceGraphic"
         in2="result3"
         id="feComposite4385-9-5-7-0-8-3-7-2-0-2-1-6-2" />
    </filter>
  </defs>
  <sodipodi:namedview
     inkscape:pagecheckerboard="0"
     inkscape:snap-global="false"
     inkscape:document-rotation="0"
     inkscape:current-layer="layer1"
     inkscape:window-maximized="1"
     inkscape:window-y="27"
     inkscape:window-x="72"
     inkscape:cy="2778.4886"
     inkscape:cx="1329.6698"
     inkscape:zoom="0.60428537"
     showgrid="false"
     id="namedview4"
     inkscape:window-height="1016"
     inkscape:window-width="1848"
     inkscape:pageshadow="2"
     inkscape:pageopacity="0"
     guidetolerance="10"
     gridtolerance="10"
     objecttolerance="10"
     borderopacity="1"
     bordercolor="#666666"
     pagecolor="#ffffff" />
  <g
     sodipodi:insensitive="true"
     inkscape:label="artwork"
     id="layer2"
     inkscape:groupmode="layer">
    <image
       sodipodi:absref="/home/emmiline/Documents/git/webcomics/ep35_The-Reflection/lang/gfx_Pepper-and-Carrot_by-David-Revoy_E35P11.png"
       xlink:href="../gfx_Pepper-and-Carrot_by-David-Revoy_E35P11.png"
       width="2481"
       height="3503"
       id="image10"
       x="0"
       y="0" />
  </g>
  <g
     inkscape:label="speechbubbles"
     id="layer3"
     inkscape:groupmode="layer">
    <path
       sodipodi:nodetypes="zssssz"
       inkscape:connector-curvature="0"
       id="path4040-4-9-2"
       d="m 692.7246,1526.6704 c 28.1693,-24.9106 272.04455,-35.5556 336.641,7.541 53.9173,35.9724 32.8807,122.5341 -15.0706,141.6334 -47.95088,19.099 -207.46599,13.6696 -277.37785,3.2265 -66.56578,-9.9423 -77.74329,-36.2614 -81.01761,-88.8787 -1.33637,-21.4761 8.65558,-38.612 36.82506,-63.5222 z"
       style="color:#000000;display:inline;overflow:visible;visibility:visible;fill:#ffffff;fill-opacity:1;fill-rule:nonzero;stroke:none;stroke-width:1.05826px;marker:none;enable-background:accumulate" />
    <path
       sodipodi:nodetypes="ccsc"
       inkscape:connector-curvature="0"
       id="path5010-4"
       d="m 672.49769,286.01466 c 33.46845,54.26318 16.77932,109.75225 -42.25383,148.97796 101.91057,-50.70471 112.5118,-145.0271 95.84592,-167.01491 -16.31806,-21.52888 -53.59209,18.03695 -53.59209,18.03695 z"
       style="color:#000000;display:inline;overflow:visible;visibility:visible;fill:#ffffff;fill-opacity:1;fill-rule:nonzero;stroke:none;stroke-width:1.36564px;marker:none;enable-background:accumulate" />
    <path
       sodipodi:nodetypes="csssc"
       inkscape:connector-curvature="0"
       id="path3280-8-1"
       d="m 1240.0845,90.296875 c -44.2928,1.846763 -88.5776,6.908914 -130.8279,17.173655 -14.3317,3.98441 -27.374,11.69661 -33.3479,22.41266 -11.6327,17.92021 -11.8772,39.16073 -3.729,57.90197 8.3886,16.76154 28.1107,29.274 50.0809,35.724 23.2282,6.85665 48.4164,8.30896 73.0574,10.01945 28.8852,1.73338 57.9372,2.61106 86.8913,1.41189 36.3116,-2.24463 72.6812,-9.60428 103.5257,-24.38125 19.8921,-11.24286 29.2181,-30.84379 26.5552,-49.05363 -1.3831,-15.55356 -8.2986,-31.58897 -23.6447,-42.6438 -14.4244,-10.0076 -33.8892,-14.16997 -52.4117,-18.05002 -31.3044,-6.371697 -63.5887,-10.820059 -96.1493,-10.514925 z"
       style="display:inline;fill:#ffffff;stroke:none;stroke-width:0.49202" />
    <path
       sodipodi:nodetypes="cscssssc"
       inkscape:connector-curvature="0"
       id="path4546-6-7"
       d="m 1949.7656,80.042241 c -40.2353,0.406432 -81.5925,6.568789 -114.7505,22.208449 -27.6371,13.16571 -50.7801,31.61855 -60.1026,53.53875 -5.1827,13.03951 -6.8965,26.75881 -4.5496,40.16175 3.9941,21.10953 20.0487,40.74776 42.1756,56.00596 18.4476,12.70148 42.1159,22.1213 67.9961,26.47524 62.8215,12.34459 128.2916,17.93543 193.6429,19.84518 62.1133,1.52074 125.1373,-1.50162 184.8613,-13.43241 39.1778,-8.85512 76.1538,-24.40452 99.7391,-47.26665 19.2225,-19.38443 24.8262,-43.2101 23.6719,-65.9967 -0.7573,-21.44646 -9.6764,-43.71351 -31.6836,-60.02958 -20.8357,-15.127089 -51.5078,-22.876397 -81.883,-24.641498 -75.0146,-7.607729 -151.1208,-5.079663 -226.7051,-6.383948 -30.8026,-0.270672 -61.6063,-0.607176 -92.4125,-0.484543 z"
       style="color:#000000;display:inline;overflow:visible;visibility:visible;fill:#ffffff;fill-opacity:1;fill-rule:nonzero;stroke:none;stroke-width:0.861367px;marker:none;enable-background:accumulate" />
    <path
       sodipodi:nodetypes="zssssz"
       inkscape:connector-curvature="0"
       id="path4040-4-9"
       d="m 552.76188,1388.2962 c 31.93806,-25.3329 308.44158,-39.6345 381.68011,2.4936 61.13111,35.164 37.27981,122.0411 -17.08671,141.8593 -54.36626,19.818 -235.22294,16.7802 -314.48834,7.3854 -75.47159,-8.9443 -88.14456,-35.0958 -91.85696,-87.6639 -1.51515,-21.4561 9.81361,-38.7418 41.7519,-64.0744 z"
       style="color:#000000;display:inline;overflow:visible;visibility:visible;fill:#ffffff;fill-opacity:1;fill-rule:nonzero;stroke:none;stroke-width:0.985823px;marker:none;enable-background:accumulate" />
    <path
       inkscape:connector-curvature="0"
       id="path1079"
       d="M 1085.5371 1635.3711 C 1052.8898 1636.0254 1020.2721 1637.7241 987.68188 1639.7022 C 967.39616 1641.1984 946.8575 1642.9465 927.41722 1649.3049 C 902.37529 1658.3442 882.43559 1679.0032 872.14074 1703.3192 C 867.40038 1714.6592 864.0808 1726.5633 861.61613 1738.589 C 859.36641 1750.7134 859.68421 1763.6035 864.5293 1775.0898 C 870.11617 1789.1838 879.50704 1801.3734 889.53711 1812.584 C 908.4962 1832.8007 934.12774 1847.0885 961.72534 1850.84 C 985.53689 1854.7634 1009.5998 1856.8771 1033.6332 1858.8993 C 1073.6819 1861.5709 1113.8633 1862.1241 1153.9807 1860.9939 C 1187.725 1859.951 1221.4648 1857.6599 1254.9312 1853.1421 C 1272.7188 1850.2909 1290.8599 1845.7776 1305.7903 1835.2475 C 1320.3 1824.7651 1330.1352 1808.5092 1333.8866 1791.1089 C 1337.6668 1777.854 1340.8885 1763.729 1337.7663 1749.9963 C 1333.8761 1733.5495 1325.2282 1718.8217 1317.123 1704.1738 C 1308.6807 1689.856 1297.7144 1676.364 1282.87 1668.3568 C 1264.9043 1658.097 1244.5739 1653.3561 1224.8492 1647.7395 C 1193.6568 1639.6004 1161.3366 1637.0569 1129.2077 1636.2733 C 1114.6575 1635.7282 1100.0998 1635.2439 1085.5371 1635.3711 z "
       style="fill:#ffffff;fill-rule:evenodd;stroke:none;stroke-width:0.952453px;stroke-linecap:butt;stroke-linejoin:miter;stroke-opacity:1" />
    <path
       sodipodi:nodetypes="csccc"
       inkscape:connector-curvature="0"
       id="path3072-12"
       d="m 1404.4998,1793.8153 c -45.9909,-29.4273 -78.0349,-27.5278 -104.8526,-18.0354 -25.7868,9.1275 -19.8278,10.3608 -19.8278,10.3608 l 10.5667,-48.0852 c -3.1179,-4.3789 71.5596,-1.8389 114.1137,55.7598 z"
       style="color:#000000;display:inline;overflow:visible;visibility:visible;fill:#ffffff;fill-opacity:1;fill-rule:nonzero;stroke:none;stroke-width:0.939237px;marker:none;enable-background:accumulate" />
    <path
       sodipodi:nodetypes="csssc"
       inkscape:connector-curvature="0"
       id="path3280-8-1-3"
       d="m 1364.4182,197.26099 c -44.3929,0.68501 -89.324,6.32199 -130.7182,22.3224 -33.934,14.99744 -61.4366,44.16867 -70.9484,79.02945 -6.1871,24.09497 -5.5987,49.11061 -5.2538,73.73537 1.5653,27.99938 16.4357,54.10943 36.9435,73.6381 12.119,11.77681 27.0431,20.56628 42.8225,27.11736 35.565,15.23619 74.5925,22.02113 113.3923,23.13852 29.1579,0.63397 58.3172,-0.36247 87.4673,-0.91335 36.1871,-1.13522 72.6284,-2.92891 108.0262,-10.71714 19.6757,-4.53411 39.5436,-11.13552 55.178,-23.85142 20.5284,-16.70284 33.7741,-40.40479 40.5626,-65.10629 6.9629,-25.94679 5.2593,-53.42606 -1.5559,-79.22619 -5.8756,-24.6612 -17.0515,-48.98653 -36.3979,-66.7058 -20.0133,-18.5613 -46.1155,-29.87988 -72.7653,-36.73032 -41.0141,-11.0156 -83.7847,-13.83791 -126.1673,-15.35151 -13.5246,-0.3807 -27.0563,-0.41056 -40.5856,-0.37918 z"
       style="display:inline;fill:#ffffff;stroke:none;stroke-width:0.86504" />
    <path
       sodipodi:nodetypes="csssc"
       inkscape:connector-curvature="0"
       id="path3280-8-1-1"
       d="m 2010.5328,209.41854 c -58.6326,0.51905 -118.305,9.31627 -172.3093,36.71618 -29.5523,16.1073 -54.0141,47.05952 -60.4424,84.39353 -6.1912,36.76262 -3.9211,75.2223 5.4451,111.01093 11.1921,33.5826 36.1031,59.08314 64.0439,74.20908 41.1293,23.80845 87.3709,32.56366 132.9198,36.39776 61.7613,5.82125 123.9116,11.51027 185.8508,5.85396 47.4089,-4.51735 94.9236,-18.74311 135.4279,-48.02423 23.185,-17.07448 44.8735,-38.87726 57.3415,-67.51711 10.5194,-23.32748 12.9704,-50.59266 9.5771,-76.32597 -4.1435,-30.84309 -18.2146,-59.6668 -38.9192,-79.96465 -24.7873,-25.29889 -56.5275,-38.9551 -87.8916,-49.71079 -42.6734,-14.19688 -87.0143,-20.45096 -131.2265,-24.14535 -33.2233,-2.50813 -66.5316,-2.97503 -99.8171,-2.89334 z"
       style="display:inline;fill:#ffffff;stroke:none;stroke-width:0.989548" />
    <path
       sodipodi:nodetypes="csssc"
       inkscape:connector-curvature="0"
       id="path3280-8-1-1-8"
       d="m 2025.3463,512.76953 c -47.6606,0.50527 -95.6943,10.14237 -138.1551,31.33808 -23.4595,12.29263 -41.2364,33.25685 -51.5117,56.74141 -9.9038,22.98325 -13.0061,48.57553 -9.3945,73.17557 3.0203,20.03566 11.3189,39.68966 25.736,54.67862 19.8988,21.03502 47.9143,34.11454 76.926,38.66235 23.5924,4.03337 47.6038,4.70801 71.5047,5.19662 15.5961,0.63952 31.1675,1.75591 46.7737,2.19021 47.2153,1.71148 94.7198,1.39997 141.5559,-5.19659 29.8578,-3.50202 60.4706,-3.52094 89.3984,-12.28989 22.9942,-7.19199 40.4129,-26.76846 46.9235,-48.82336 6.226,-22.33978 6.7205,-45.74323 5.2516,-68.6973 -1.7439,-20.14159 -10.2308,-39.69992 -24.1579,-54.88115 -16.7212,-18.28977 -38.9156,-31.13251 -62.0646,-40.54723 -29.8837,-12.07545 -61.4447,-20.1181 -93.4861,-24.71664 -41.4379,-6.03523 -83.4598,-6.9876 -125.2999,-6.8307 z"
       style="display:inline;fill:#ffffff;stroke:none;stroke-width:0.777664" />
    <path
       sodipodi:nodetypes="ccccccssc"
       inkscape:connector-curvature="0"
       id="path1081"
       d="m 1917.1509,703.14914 c -35.1448,34.55495 -40.918,43.76621 -48.2945,59.20991 -7.3765,15.44359 -1.4166,45.82505 15.3336,59.77726 16.7502,13.95231 20.6476,39.75145 6.4656,51.09426 -14.1819,11.34295 -70.6572,56.04997 -12.3413,98.68519 -52.1304,-50.93005 4.6214,-80.3316 15.046,-87.77901 10.4245,-7.44749 30.9525,-25.50425 13.4446,-59.50485 -17.5082,-34.00062 -21.7713,-50.818 31.7495,-83.72489 53.5207,-32.90685 -21.4035,-37.75787 -21.4035,-37.75787 z"
       style="fill:#ffffff;fill-rule:evenodd;stroke:none;stroke-width:1px;stroke-linecap:butt;stroke-linejoin:miter;stroke-opacity:1" />
    <path
       sodipodi:nodetypes="ccsc"
       inkscape:connector-curvature="0"
       id="path5010-4-3"
       d="m 1446.9857,482.25247 c 38.5518,83.9689 2.5856,139.06018 -54.1917,168.09629 98.918,-30.2652 116.1188,-134.92733 86.7076,-167.77583 -23.1309,-25.83416 -32.5159,-0.32046 -32.5159,-0.32046 z"
       style="color:#000000;display:inline;overflow:visible;visibility:visible;fill:#ffffff;fill-opacity:1;fill-rule:nonzero;stroke:none;stroke-width:1.4638px;marker:none;enable-background:accumulate" />
    <path
       sodipodi:nodetypes="cssssc"
       inkscape:connector-curvature="0"
       id="path4546-6-59"
       d="m 1708.991,2326.3287 c 0.1448,-82.2891 -2.0565,-63.2633 162.2873,-61.6864 71.3338,0.6844 155.9819,8.2736 149.2026,122.5954 -5.3586,90.3652 -135.8423,85.9232 -160.096,88.4798 -24.1003,2.5404 -122.4261,-12.9877 -143.8034,-48.582 -13.3818,-22.2814 -8.3739,-78.9674 -7.5905,-100.8068 z"
       style="color:#000000;display:inline;overflow:visible;visibility:visible;fill:#ffffff;fill-opacity:1;fill-rule:nonzero;stroke:none;stroke-width:0.774543px;marker:none;enable-background:accumulate" />
    <path
       sodipodi:nodetypes="cccccccccccccc"
       inkscape:connector-curvature="0"
       id="path3100-2"
       d="m 736.91028,64.490114 c -46.73864,2.571219 -92.49398,12.837654 -138.62323,19.909863 -29.0808,5.198194 -58.07808,14.409709 -82.17031,31.595043 -15.25388,10.99724 -27.12632,26.62811 -32.63445,44.42019 -8.82538,25.08187 -9.18731,52.34819 -4.72978,78.30948 3.5579,19.14685 11.35237,38.15191 25.47177,52.22327 14.04508,14.25479 31.58177,25.0463 50.53276,31.92168 16.3631,6.53643 33.53017,11.04423 50.98151,13.74407 38.97022,6.55223 78.62375,8.23424 118.10791,7.87075 40.37729,-0.64784 80.70121,-5.13586 120.13439,-13.67461 19.66266,-3.98212 39.49366,-9.6845 56.05235,-21.1743 18.26766,-12.51285 32.77026,-30.261 41.17274,-50.45608 3.67114,-8.94274 5.46537,-18.52814 5.80299,-28.13787 0.68616,-12.35014 0.75608,-24.72396 1.0181,-37.08668 0.0991,-37.32843 -3.18089,-74.72659 -10.83676,-111.321256 -2.86364,-2.87689 -7.34097,-1.565668 -10.89793,-2.707502 C 863.55765,71.168345 800.36863,64.258711 736.91028,64.490114 Z"
       style="fill:#ffffff;stroke:none;stroke-width:1.23279" />
    <path
       sodipodi:nodetypes="cscssc"
       inkscape:connector-curvature="0"
       id="path4186-80"
       d="m 1855.6433,2432.3214 c 29.6781,34.3855 -48.3918,61.0872 -32.7914,98.1006 6.1219,14.5249 50.1858,21.814 59.4409,88.3499 -23.107,-54.5774 -70.7535,-56.808 -83.5614,-79.4341 -24.3256,-42.971 15.5983,-74.4437 22.7675,-83.4264 9.5884,-12.0136 34.1444,-23.59 34.1444,-23.59 z"
       style="display:inline;fill:#ffffff;fill-rule:evenodd;stroke:none;stroke-width:1.14884px;stroke-linecap:butt;stroke-linejoin:miter;stroke-opacity:1" />
    <path
       sodipodi:nodetypes="zssssz"
       inkscape:connector-curvature="0"
       id="path4040-4-9-3"
       d="m 231.11436,2086.542 c 18.63655,-13.964 179.98239,-22.406 222.71869,0.5429 35.67132,19.1552 21.75356,66.8586 -9.97046,77.8463 -31.72395,10.9877 -137.25775,9.7123 -183.51084,4.7305 -44.03931,-4.7428 -51.43425,-19.0595 -53.60052,-47.8849 -0.88414,-11.7653 5.72644,-21.2709 24.36313,-35.2348 z"
       style="color:#000000;display:inline;overflow:visible;visibility:visible;fill:#ffffff;fill-opacity:1;fill-rule:nonzero;stroke:none;stroke-width:0.557719px;marker:none;enable-background:accumulate" />
    <path
       sodipodi:nodetypes="ccsc"
       inkscape:connector-curvature="0"
       id="path5010-4-5"
       d="m 354.58902,2078.2586 c 35.58146,-4.2267 52.48817,-58.2989 28.13393,-95.1145 44.43236,49.6051 29.57055,64.2564 4.74971,120.5184 -6.58837,14.934 -32.88364,-25.4039 -32.88364,-25.4039 z"
       style="color:#000000;display:inline;overflow:visible;visibility:visible;fill:#ffffff;fill-opacity:1;fill-rule:nonzero;stroke:none;stroke-width:0.816531px;marker:none;enable-background:accumulate" />
  </g>
  <g
     inkscape:label="txt"
     id="layer1"
     inkscape:groupmode="layer">
    <text
       id="text4246-3-2-2"
       y="185.30602"
       x="694.90973"
       style="font-style:normal;font-variant:normal;font-weight:normal;font-stretch:normal;font-size:45px;line-height:1.25;font-family:Lavi;-inkscape-font-specification:Lavi;text-align:center;letter-spacing:0px;word-spacing:0px;text-anchor:middle;fill:#000000;fill-opacity:1;stroke:none"
       xml:space="preserve"><tspan
         id="tspan915"
         y="185.30602"
         x="694.90973"
         sodipodi:role="line"
         style="font-size:45px">Tak fordi du lod</tspan><tspan
         y="241.55602"
         x="694.90973"
         sodipodi:role="line"
         style="font-size:45px"
         id="tspan83">Carrot hente</tspan><tspan
         y="297.80603"
         x="694.90973"
         sodipodi:role="line"
         style="font-size:45px"
         id="tspan85">skiftetøj til mig.</tspan></text>
    <text
       id="text4246-3-2-2-3-3-3"
       y="179.79465"
       x="1235.6431"
       style="font-style:normal;font-variant:normal;font-weight:normal;font-stretch:normal;font-size:45px;line-height:1.25;font-family:Lavi;-inkscape-font-specification:Lavi;text-align:center;letter-spacing:0px;word-spacing:0px;text-anchor:middle;fill:#000000;fill-opacity:1;stroke:none"
       xml:space="preserve"><tspan
         id="tspan876-3"
         y="179.79465"
         x="1235.6431"
         sodipodi:role="line"
         style="font-size:45px">Det var så lidt.</tspan></text>
    <text
       id="text4246-3-2-2-3-3"
       y="292.4176"
       x="1403.865"
       style="font-style:normal;font-variant:normal;font-weight:normal;font-stretch:normal;font-size:45px;line-height:1.25;font-family:Lavi;-inkscape-font-specification:Lavi;text-align:center;letter-spacing:0px;word-spacing:0px;text-anchor:middle;fill:#000000;fill-opacity:1;stroke:none"
       xml:space="preserve"><tspan
         id="tspan934"
         y="292.4176"
         x="1403.865"
         sodipodi:role="line"
         style="font-size:45px">Du gjorde arbejdet</tspan><tspan
         y="348.6676"
         x="1403.865"
         sodipodi:role="line"
         style="font-size:45px"
         id="tspan96">nemmere, så det var</tspan><tspan
         y="404.9176"
         x="1403.865"
         sodipodi:role="line"
         style="font-size:45px"
         id="tspan98">det mindste, jeg</tspan><tspan
         y="461.1676"
         x="1403.865"
         sodipodi:role="line"
         style="font-size:45px"
         id="tspan100">kunne gøre.</tspan></text>
    <text
       id="text4246-3-2-2-3-3-67"
       y="166.92047"
       x="2088.6965"
       style="font-style:normal;font-variant:normal;font-weight:normal;font-stretch:normal;font-size:45px;line-height:1.25;font-family:Lavi;-inkscape-font-specification:Lavi;text-align:center;letter-spacing:0px;word-spacing:0px;text-anchor:middle;fill:#000000;fill-opacity:1;stroke:none"
       xml:space="preserve"><tspan
         y="166.92047"
         x="2088.6965"
         sodipodi:role="line"
         style="font-size:45px"
         id="tspan84">Men du ved, du gjorde</tspan><tspan
         y="223.17047"
         x="2088.6965"
         sodipodi:role="line"
         style="font-size:45px"
         id="tspan88">Wasabi virkelig vred.</tspan></text>
    <text
       id="text4246-3-2-2-3-3-67-2"
       y="336.26599"
       x="2078.9941"
       style="font-style:normal;font-variant:normal;font-weight:normal;font-stretch:normal;font-size:45px;line-height:1.25;font-family:Lavi;-inkscape-font-specification:Lavi;text-align:center;letter-spacing:0px;word-spacing:0px;text-anchor:middle;fill:#000000;fill-opacity:1;stroke:none"
       xml:space="preserve"><tspan
         id="tspan912"
         y="336.26599"
         x="2078.9941"
         sodipodi:role="line"
         style="font-size:45px">Hun kræver at alt er til</tspan><tspan
         id="tspan957"
         y="392.51599"
         x="2078.9941"
         sodipodi:role="line"
         style="font-size:45px">perfektion. Det ødelagde du</tspan><tspan
         y="448.76599"
         x="2078.9941"
         sodipodi:role="line"
         style="font-size:45px"
         id="tspan97">med dine urenheder,</tspan><tspan
         id="tspan959"
         y="505.01599"
         x="2078.9941"
         sodipodi:role="line"
         style="font-size:45px">dit tøj, og din entré.</tspan></text>
    <text
       id="text4246-3-2-2-3-3-67-2-3"
       y="609.58289"
       x="2081.0774"
       style="font-style:normal;font-variant:normal;font-weight:normal;font-stretch:normal;font-size:45px;line-height:1.25;font-family:Lavi;-inkscape-font-specification:Lavi;text-align:center;letter-spacing:0px;word-spacing:0px;text-anchor:middle;fill:#000000;fill-opacity:1;stroke:none"
       xml:space="preserve"><tspan
         id="tspan966"
         y="609.58289"
         x="2081.0774"
         sodipodi:role="line"
         style="font-size:45px">Derudover angreb</tspan><tspan
         id="tspan968"
         y="665.83289"
         x="2081.0774"
         sodipodi:role="line"
         style="font-size:45px">du hende! Hun lader dig</tspan><tspan
         y="722.08289"
         x="2081.0774"
         sodipodi:role="line"
         style="font-size:45px"
         id="tspan86">ikke slippe let fra det.</tspan></text>
    <text
       id="text4246-3-2-2-3-3-6-67"
       y="2138.6455"
       x="341.56961"
       style="font-style:normal;font-variant:normal;font-weight:normal;font-stretch:normal;font-size:45px;line-height:1.25;font-family:Lavi;-inkscape-font-specification:Lavi;text-align:center;letter-spacing:0px;word-spacing:0px;text-anchor:middle;fill:#000000;fill-opacity:1;stroke:none"
       xml:space="preserve"><tspan
         id="tspan1191-3"
         y="2138.6455"
         x="341.56961"
         sodipodi:role="line"
         style="font-size:45px">Det ved jeg.</tspan></text>
    <text
       id="text4246-3-2-2-3-3-6"
       y="1438.3682"
       x="743.62054"
       style="font-style:normal;font-variant:normal;font-weight:normal;font-stretch:normal;font-size:45px;line-height:1.25;font-family:Lavi;-inkscape-font-specification:Lavi;text-align:center;letter-spacing:0px;word-spacing:0px;text-anchor:middle;fill:#000000;fill-opacity:1;stroke:none"
       xml:space="preserve"><tspan
         y="1438.3682"
         x="743.62054"
         sodipodi:role="line"
         style="font-size:45px"
         id="tspan112">Nå, jeg har brug</tspan><tspan
         y="1494.6182"
         x="743.62054"
         sodipodi:role="line"
         style="font-size:45px"
         id="tspan116">for en lille lur.</tspan></text>
    <text
       id="text4246-3-2-2-3-3-6-6"
       y="1579.2286"
       x="863.08191"
       style="font-style:normal;font-variant:normal;font-weight:normal;font-stretch:normal;font-size:45px;line-height:1.25;font-family:Lavi;-inkscape-font-specification:Lavi;text-align:center;letter-spacing:0px;word-spacing:0px;text-anchor:middle;fill:#000000;fill-opacity:1;stroke:none"
       xml:space="preserve"><tspan
         id="tspan984"
         y="1579.2286"
         x="863.08191"
         sodipodi:role="line"
         style="font-size:45px">Vi tager afsted,</tspan><tspan
         y="1635.4786"
         x="863.08191"
         sodipodi:role="line"
         style="font-size:45px"
         id="tspan120">når jeg vågner.</tspan></text>
    <text
       id="text4246-3-2-2-3-3-6-2"
       y="1713.861"
       x="1108.4032"
       style="font-style:normal;font-variant:normal;font-weight:normal;font-stretch:normal;font-size:45px;line-height:1.25;font-family:Lavi;-inkscape-font-specification:Lavi;text-align:center;letter-spacing:0px;word-spacing:0px;text-anchor:middle;fill:#000000;fill-opacity:1;stroke:none"
       xml:space="preserve"><tspan
         id="tspan998"
         y="1713.861"
         x="1108.4032"
         sodipodi:role="line"
         style="font-size:45px">Du kan gøre, hvad</tspan><tspan
         y="1770.111"
         x="1108.4032"
         sodipodi:role="line"
         style="font-size:45px"
         id="tspan129">du vil, men gå ikke</tspan><tspan
         y="1826.361"
         x="1108.4032"
         sodipodi:role="line"
         style="font-size:45px"
         id="tspan131">for langt væk...</tspan></text>
    <text
       transform="matrix(0.71138619,-0.38856964,0.42362052,1.0933045,-1095.3818,1936.127)"
       id="text4580-5-0-6-2-8-5-9-9"
       y="1584.5073"
       x="787.65729"
       style="font-style:normal;font-variant:normal;font-weight:normal;font-stretch:normal;line-height:0%;font-family:Lavi;-inkscape-font-specification:Lavi;letter-spacing:0px;word-spacing:0px;display:inline;fill:#ffffff;fill-opacity:1;stroke:#5f8dd3;stroke-width:0.992362;stroke-miterlimit:4;stroke-dasharray:none;stroke-opacity:1;filter:url(#filter4375-4-1-1-1-9-3-2-3-8-7-6-4-9)"
       xml:space="preserve"><tspan
         style="font-size:70px;line-height:1.25;fill:#ffffff;stroke:#5f8dd3"
         y="1584.5073"
         x="787.65729"
         id="tspan4582-6-9-1-3-9-5-3-3"
         sodipodi:role="line"> Splash</tspan></text>
    <text
       id="text4246-3-2-2-3-3-6-2-9"
       y="2365.0232"
       x="1865.2649"
       style="font-style:normal;font-variant:normal;font-weight:normal;font-stretch:normal;font-size:45px;line-height:1.25;font-family:Lavi;-inkscape-font-specification:Lavi;text-align:center;letter-spacing:0px;word-spacing:0px;text-anchor:middle;fill:#000000;fill-opacity:1;stroke:none"
       xml:space="preserve"><tspan
         id="tspan1007"
         y="2365.0232"
         x="1865.2649"
         sodipodi:role="line"
         style="font-size:45px">Sikke en</tspan><tspan
         y="2421.2732"
         x="1865.2649"
         sodipodi:role="line"
         style="font-size:45px"
         id="tspan138">underlig heks.</tspan></text>
    <text
       xml:space="preserve"
       id="text72"
       style="fill:black;fill-opacity:1;stroke:none;font-family:sans-serif;font-style:normal;font-weight:normal;font-size:40px;line-height:1.25;letter-spacing:0px;word-spacing:0px;white-space:pre;shape-inside:url(#rect74);" />
  </g>
</svg>
