<?xml version="1.0" encoding="UTF-8" standalone="no"?>
<!-- Created with Inkscape (http://www.inkscape.org/) -->

<svg
   xmlns:dc="http://purl.org/dc/elements/1.1/"
   xmlns:cc="http://creativecommons.org/ns#"
   xmlns:rdf="http://www.w3.org/1999/02/22-rdf-syntax-ns#"
   xmlns:svg="http://www.w3.org/2000/svg"
   xmlns="http://www.w3.org/2000/svg"
   xmlns:xlink="http://www.w3.org/1999/xlink"
   xmlns:sodipodi="http://sodipodi.sourceforge.net/DTD/sodipodi-0.dtd"
   xmlns:inkscape="http://www.inkscape.org/namespaces/inkscape"
   id="svg2"
   version="1.1"
   inkscape:version="0.92.3 (2405546, 2018-03-11)"
   width="2481"
   height="3503"
   sodipodi:docname="E27P02.svg">
  <metadata
     id="metadata8">
    <rdf:RDF>
      <cc:Work
         rdf:about="">
        <dc:format>image/svg+xml</dc:format>
        <dc:type
           rdf:resource="http://purl.org/dc/dcmitype/StillImage" />
        <dc:title />
      </cc:Work>
    </rdf:RDF>
  </metadata>
  <defs
     id="defs6" />
  <sodipodi:namedview
     pagecolor="#ffffff"
     bordercolor="#666666"
     borderopacity="1"
     objecttolerance="10"
     gridtolerance="10"
     guidetolerance="10"
     inkscape:pageopacity="0"
     inkscape:pageshadow="2"
     inkscape:window-width="1280"
     inkscape:window-height="752"
     id="namedview4"
     showgrid="false"
     inkscape:zoom="0.34586208"
     inkscape:cx="1098.6915"
     inkscape:cy="999.61469"
     inkscape:window-x="44"
     inkscape:window-y="26"
     inkscape:window-maximized="0"
     inkscape:current-layer="layer3"
     inkscape:snap-global="false" />
  <g
     inkscape:groupmode="layer"
     id="layer2"
     inkscape:label="artwork"
     sodipodi:insensitive="true">
    <image
       sodipodi:absref="/home/deevad/peppercarrot/webcomics/ep27_Coriander-s-Invention/lang/vi/../gfx_Pepper-and-Carrot_by-David-Revoy_E27P02.png"
       xlink:href="../gfx_Pepper-and-Carrot_by-David-Revoy_E27P02.png"
       width="2481"
       height="3503"
       id="image10"
       x="0"
       y="0" />
  </g>
  <g
     inkscape:groupmode="layer"
     id="layer3"
     inkscape:label="speechbubbles">
    <path
       style="fill:#ffffff;fill-rule:evenodd;stroke:none;stroke-width:0.90069455px;stroke-linecap:butt;stroke-linejoin:miter;stroke-opacity:1"
       d="m 473.73628,195.57139 c 4.66054,1.63451 48.60273,0 52.59747,-0.81725 3.99475,-0.81726 33.95534,-7.35529 41.27904,-5.72078 7.3237,1.63451 57.92379,10.6243 67.24486,11.44156 9.32107,0.81725 53.92905,2.45176 61.91854,7.35529 7.98949,4.90352 18.64214,9.80705 24.63428,17.9796 5.99211,8.17254 14.64738,33.50743 13.98159,39.22821 -0.6658,5.72078 -9.98686,44.94899 -15.31319,50.66977 -5.32631,5.72078 -23.96846,24.51763 -29.29479,26.9694 -5.32633,2.45176 -17.31055,8.98979 -23.30268,11.44156 -5.99212,2.45176 -141.81344,4.90352 -158.4582,5.72078 -16.64478,0.81725 -81.22648,-4.90353 -92.54493,-5.72078 -11.31844,-0.81726 -37.95009,1.63451 -55.26063,-6.53804 -17.31057,-8.17254 -29.2948,-38.41095 -34.62113,-44.13174 -5.32633,-5.72078 -14.6474,-30.23841 -13.9816,-39.22821 0.66578,-8.9898 13.9816,-30.23841 20.63951,-32.69017 6.65791,-2.45177 33.95533,-22.88313 49.93431,-26.9694 15.97898,-4.08627 54.59484,-13.89332 61.91854,-13.07607 10.02472,1.64213 8.97154,0.16304 28.62901,4.08627 z"
       id="path1323"
       inkscape:connector-curvature="0"
       sodipodi:nodetypes="ccsscscsscsssccsscc" />
    <path
       style="fill:#ffffff;fill-rule:evenodd;stroke:none;stroke-width:0.99999994px;stroke-linecap:butt;stroke-linejoin:miter;stroke-opacity:1"
       d="m 172.66645,163.77351 c 10.53318,-19.15682 29.62457,-29.0442 39.49941,-31.51605 9.87486,-2.47185 26.33295,3.08981 35.54949,1.85389 9.21652,-1.23593 44.10767,-12.35924 57.27415,-11.74128 13.16646,0.61796 52.00756,4.32573 64.51571,4.9437 12.50814,0.61796 43.44936,3.0898 54.64086,9.88738 11.19151,6.79758 23.69965,14.21312 25.67462,21.0107 1.97497,6.79758 6.58324,19.77478 1.97497,30.89809 -4.60826,11.12331 -15.79976,30.28013 -30.28288,32.13401 -14.48312,1.85389 -86.2404,8.65147 -102.04016,8.0335 -15.79977,-0.61796 -59.24913,0 -69.78231,0 -10.53318,0 -48.71595,-4.32573 -59.90745,-12.35923 -11.1915,-8.0335 -19.7497,-24.10051 -21.06635,-33.9879 -1.31665,-9.88738 3.94994,-19.15681 3.94994,-19.15681 z"
       id="path1325"
       inkscape:connector-curvature="0" />
    <path
       style="fill:#ffffff;fill-rule:evenodd;stroke:none;stroke-width:1px;stroke-linecap:butt;stroke-linejoin:miter;stroke-opacity:1"
       d="m 544.4243,343.97954 c 6.17962,25.33643 -4.94369,76.0093 4.32573,89.60445 9.26943,13.59516 11.12331,11.74128 19.15682,18.53886 -12.35924,15.44904 -17.92089,33.36993 -16.68497,42.63936 1.23592,9.26942 4.32573,33.36993 35.84178,44.49324 -27.19032,-19.15681 -24.71847,-38.31363 -23.48255,-43.87528 1.23593,-5.56166 6.17962,-34.60586 21.62867,-42.0214 -15.44905,-11.74127 -23.48255,-24.71847 -23.48255,-32.13401 0,-7.41554 8.65146,-82.80688 8.65146,-82.80688 z"
       id="path1327"
       inkscape:connector-curvature="0" />
    <path
       style="fill:#ffffff;fill-rule:evenodd;stroke:none"
       d="m 1045.4978,143.32472 c -29.5988,13.85807 -56.94928,25.20034 -60.89586,45.5255 -3.94645,20.32516 -14.79937,36.95485 -15.786,50.81291 -0.98662,13.85806 6.63136,64.41515 13.53775,82.89257 6.90637,18.47742 44.39821,60.9755 49.33111,64.67098 4.9331,3.69547 37.492,15.7058 53.2778,21.24903 15.7861,5.54323 142.074,9.23871 164.7663,12.01032 22.6924,2.77162 83.8631,-12.93419 99.6493,-19.40129 15.7859,-6.4671 37.4916,-9.23871 47.3579,-20.32516 9.8662,-11.08645 32.5587,-40.65033 36.5051,-53.58452 3.9465,-12.9342 6.2918,-57.28 6.2918,-66.51872 0,-9.23871 13.0847,-49.88904 -5.661,-67.44258 -18.746,-17.55355 -50.318,-41.5742 -74.9836,-48.96517 -24.6657,-7.39097 -190.0626,-18.47742 -206.8351,-19.40129 -16.7729,-0.92387 -106.5555,18.47742 -106.5555,18.47742 z"
       id="path1329"
       inkscape:connector-curvature="0"
       sodipodi:nodetypes="cssscsscscscssc" />
    <path
       style="fill:#ffffff;fill-rule:evenodd;stroke:none;stroke-width:0.82241142px;stroke-linecap:butt;stroke-linejoin:miter;stroke-opacity:1"
       d="m 1071.7522,410.60297 c -22.3896,12.41791 -47.3627,38.05971 -52.5296,46.59702 -5.1668,8.53732 -12.056,31.82089 -8.6115,42.68658 3.4447,10.86567 14.6395,55.8806 27.5566,64.41792 12.9171,8.53731 54.2521,34.92538 74.9195,34.92538 20.6674,0 86.9753,10.08955 98.1703,9.31343 11.1947,-0.77612 83.5306,8.53731 102.4758,0.77612 18.9452,-7.7612 43.0571,-21.73135 57.6967,-26.38807 14.6391,-4.65671 49.946,-6.98507 60.2798,-24.05971 10.3338,-17.07462 12.7391,-47.45281 6.8892,-69.85076 -7.4916,-28.68297 -24.1119,-56.3582 -49.9464,-68 -25.8342,-11.64179 -108.5039,-21.25373 -108.5039,-21.25373 l -124.0043,-10.08956 c 0,0 -19.8065,6.98508 -40.4739,17.07463 -20.6674,10.08955 -24.0998,-7.1411 -43.9183,3.85075 z"
       id="path1331"
       inkscape:connector-curvature="0"
       sodipodi:nodetypes="ssccsccccasccss" />
    <path
       style="fill:#ffffff;fill-rule:evenodd;stroke:none;stroke-width:1px;stroke-linecap:butt;stroke-linejoin:miter;stroke-opacity:1"
       d="m 1351.9814,582.45483 c 0,0 27.0205,22.6972 35.667,37.82867 8.6466,15.13146 27.0205,36.74784 22.6972,76.73814 10.8082,-51.87931 10.8082,-67.01077 -20.5355,-116.72844 -31.3438,-49.71768 -37.8287,2.16163 -37.8287,2.16163 z"
       id="path1333"
       inkscape:connector-curvature="0" />
    <path
       style="fill:#ffffff;fill-rule:evenodd;stroke:none;stroke-width:0.96251577px;stroke-linecap:butt;stroke-linejoin:miter;stroke-opacity:1"
       d="m 1676.1633,251.28196 c 9.5403,-41.41168 12.7204,-65.56849 34.9812,-80.52271 22.2606,-14.95422 113.4236,-27.60779 126.144,-28.75812 12.7204,-1.15032 50.8816,3.45097 68.9022,3.45097 18.0206,0 111.3036,-2.30064 126.1441,-2.30064 14.8405,0 75.2624,0 91.1631,2.30064 15.9004,2.30065 72.0822,16.10455 81.6226,26.45748 9.5402,10.3529 37.1011,54.06524 38.1611,82.82336 1.0601,28.75811 -1.06,75.92142 -20.1406,94.32661 -19.0807,18.40519 -63.6021,41.41168 -93.283,48.31363 -29.681,6.90194 -174.9058,14.95422 -191.8662,14.95422 -16.9605,0 -89.0428,3.45097 -124.024,-2.30065 -34.9812,-5.75163 -73.1424,-23.00649 -91.1629,-39.11104 -18.0206,-16.10455 -40.2815,-27.60778 -46.6416,-58.66655 -6.3602,-31.05876 0,-60.9672 0,-60.9672 z"
       id="path1335"
       inkscape:connector-curvature="0" />
    <path
       style="fill:#ffffff;fill-rule:evenodd;stroke:none;stroke-width:0.81494844px;stroke-linecap:butt;stroke-linejoin:miter;stroke-opacity:1"
       d="m 1746.5526,443.5899 c 27.5116,17.67804 42.8588,31.58704 -11.4058,53.60758 49.1355,-0.48357 43.5728,13.31857 34.2174,30.26234 66.8976,-13.67951 113.7421,-4.92089 120.3948,21.61596 43.9171,-21.41694 50.5645,-17.5767 83.6426,-0.86464 39.6321,-33.13667 62.6056,-10.32167 91.2465,-6.9171 -5.8821,-15.2957 13.5288,-29.17238 62.4748,-6.78617 -17.5693,-12.54406 -10.6126,-43.83249 56.6527,-45.95677 -30.151,-7.23289 -73.1985,-14.95266 -22.8117,-45.82584 -77.6206,-5.96692 -39.9485,-18.15488 -51.9598,-27.66843 l -112.7909,-8.64638 -114.0581,5.18783 -58.2964,3.45855 c -1.4105,13.5875 4.4806,28.42221 -77.3061,28.53307 z"
       id="path1337"
       inkscape:connector-curvature="0"
       sodipodi:nodetypes="cccccccccccccc" />
    <path
       style="fill:#ffffff;fill-rule:evenodd;stroke:none;stroke-width:1px;stroke-linecap:butt;stroke-linejoin:miter;stroke-opacity:1"
       d="m 2083.819,528.58622 c 24.8588,19.45474 57.2834,63.76832 55.1217,92.95043 10.8082,-38.90948 -17.2931,-97.27371 -31.3437,-112.40517 -14.0507,-15.13147 -23.778,19.45474 -23.778,19.45474 z"
       id="path1339"
       inkscape:connector-curvature="0" />
    <path
       style="fill:#ffffff;fill-rule:evenodd;stroke:none;stroke-width:1px;stroke-linecap:butt;stroke-linejoin:miter;stroke-opacity:1"
       d="m 890.21141,1438.6648 c 10.99475,-34.2595 32.98428,-50.6446 62.82721,-59.5818 29.84293,-8.9372 108.37698,1.4895 128.79578,1.4895 20.4188,0 102.0943,7.4477 113.089,19.3641 10.9948,11.9164 37.6963,37.2387 29.8429,64.0505 -7.8534,26.8118 -17.2775,53.6236 -59.6858,68.519 -42.4084,14.8954 -81.6754,0 -97.3823,1.4896 -15.7068,1.4895 -36.1256,8.9372 -80.10461,1.4895 -43.97905,-7.4477 -100.52356,-46.1759 -97.38218,-96.8204 z"
       id="path1341"
       inkscape:connector-curvature="0" />
    <path
       style="fill:#ffffff;fill-rule:evenodd;stroke:none;stroke-width:1px;stroke-linecap:butt;stroke-linejoin:miter;stroke-opacity:1"
       d="m 1321.8416,1549.9601 c -25.1103,-26.3097 -29.3743,-46.7563 -36.94,-53.2412 -7.5658,-6.4849 -52.768,-40.79 -87.3542,-44.0325 -34.5862,-3.2424 -28.1013,24.8589 -28.1013,24.8589 0,0 36.7479,1.0808 51.8793,5.4041 15.1315,4.3232 48.6369,20.5355 54.041,24.8588 5.4041,4.3233 19.4547,27.0205 46.4752,42.1519 z"
       id="path1343"
       inkscape:connector-curvature="0"
       sodipodi:nodetypes="cccccsc" />
    <path
       style="fill:#ffffff;fill-rule:evenodd;stroke:none;stroke-width:1px;stroke-linecap:butt;stroke-linejoin:miter;stroke-opacity:1"
       d="m 1847.0115,1634.8585 c 65.8759,-41.0171 79.5483,-53.4465 129.266,-55.9324 49.7176,-2.4859 59.6612,-29.8306 59.6612,-29.8306 0,0 -34.8024,-1.243 -72.0906,6.2147 -37.2883,7.4576 -95.7066,37.2882 -116.8366,79.5483 z"
       id="path1345"
       inkscape:connector-curvature="0" />
    <path
       style="fill:#ffffff;fill-rule:evenodd;stroke:none;stroke-width:1.19075119px;stroke-linecap:butt;stroke-linejoin:miter;stroke-opacity:1"
       d="m 1922.3788,1519.225 c 25.238,-20.9727 90.1357,-43.2562 129.7952,-47.1886 39.6596,-3.9323 165.8494,5.2432 192.8901,17.0403 27.0404,11.7972 82.9246,20.9728 81.1218,58.9858 -1.8027,38.013 7.2108,55.0534 -34.2515,76.026 -41.4623,20.9728 -187.4819,15.7296 -219.9305,14.4188 -32.449,-1.3107 -93.741,-6.5539 -126.1898,-30.1483 -32.4489,-23.5942 -46.8705,-48.4993 -23.4353,-89.134 z"
       id="path1347"
       inkscape:connector-curvature="0" />
    <path
       style="fill:#ffffff;fill-rule:evenodd;stroke:none;stroke-width:0.88353503px;stroke-linecap:butt;stroke-linejoin:miter;stroke-opacity:1"
       d="m 2024.5727,1645.6275 c 19.2683,-27.168 66.2345,-36.8708 77.0729,-36.8708 10.8384,0 95.1369,5.8217 110.7923,5.8217 15.6555,0 48.1706,-5.8217 66.2345,-3.8811 18.064,1.9406 51.7833,0 66.2345,19.4056 14.4512,19.4056 25.2896,62.0981 21.6768,80.5335 -3.6128,18.4354 4.8171,42.6924 -10.8384,70.8306 -15.6554,28.1382 -21.6767,38.8113 -44.5577,47.5439 -22.881,8.7326 -131.2648,4.8514 -155.3501,1.9406 -24.0853,-2.9109 -71.0516,0 -91.524,-4.8514 -20.4725,-4.8515 -52.9876,-21.3463 -48.1706,-41.7222 4.8171,-20.3759 -8.4299,-38.8113 -2.4086,-73.7415 6.0214,-34.9302 10.8384,-65.0089 10.8384,-65.0089 z"
       id="path1349"
       inkscape:connector-curvature="0" />
    <path
       style="fill:#ffffff;fill-rule:evenodd;stroke:none;stroke-width:0.99999994px;stroke-linecap:butt;stroke-linejoin:miter;stroke-opacity:1"
       d="m 110.76633,2473.1151 c 0,-35.8207 25.87264,-41.7908 42.74609,-41.7908 16.87346,0 71.9934,-4.7762 79.86769,-4.7762 7.87428,0 66.36892,7.1642 76.493,13.1343 10.12407,5.9701 25.87262,10.7462 23.62284,32.2386 -2.2498,21.4925 0,33.4327 -22.49794,39.4028 -22.49795,5.9702 -110.23992,8.3582 -125.98848,7.1642 -15.74855,-1.194 -39.37139,-10.7463 -50.62036,-17.9104 -11.24897,-7.1641 -25.87264,-9.5522 -23.62284,-27.4625 z"
       id="path1351"
       inkscape:connector-curvature="0" />
    <path
       style="fill:#ffffff;fill-rule:evenodd;stroke:none;stroke-width:0.83028322px;stroke-linecap:butt;stroke-linejoin:miter;stroke-opacity:1"
       d="m 309.11422,2509.4646 c 48.15781,-9.2193 82.20391,-7.0323 96.44438,-5.6646 14.9867,1.4394 52.96013,9.9413 64.84914,17.3921 11.889,7.4509 27.05014,22.5464 25.96932,31.4874 -1.08082,8.941 6.91442,33.5084 5.8336,45.4297 -1.08082,11.9214 -12.59967,52.9214 -20.1654,70.0584 -7.56574,17.1369 -25.93966,37.2542 -107.00108,40.9796 -81.06142,3.7254 -130.77909,2.2353 -162.12284,-3.7254 -31.34375,-5.9607 -71.33406,-9.6861 -82.14225,-37.9993 -10.80819,-28.3132 -14.05064,-60.3519 -10.80819,-73.7633 3.24246,-13.4116 6.48492,-43.2149 10.80819,-48.4306 4.32328,-5.2155 17.38212,-25.5266 27.10949,-29.9971 9.72737,-4.4705 151.22564,-5.7669 151.22564,-5.7669 z"
       id="path1353"
       inkscape:connector-curvature="0"
       sodipodi:nodetypes="csssscscsscsc" />
    <path
       style="fill:#ffffff;fill-rule:evenodd;stroke:none;stroke-width:1px;stroke-linecap:butt;stroke-linejoin:miter;stroke-opacity:1"
       d="m 532.84375,2533.5054 c 1.08082,-19.4547 14.05064,-55.1218 33.50539,-61.6067 19.45474,-6.4849 73.49568,-6.4849 84.30387,-3.2424 10.80819,3.2424 28.1013,27.0204 32.42457,36.7478 4.32328,9.7274 16.21229,44.3136 -3.24245,58.3642 -19.45474,14.0507 -38.90949,24.8589 -59.44505,23.778 -20.53556,-1.0808 -61.60668,-8.6465 -71.33405,-21.6163 -9.72737,-12.9699 -16.21228,-32.4246 -16.21228,-32.4246 z"
       id="path1355"
       inkscape:connector-curvature="0" />
    <path
       style="fill:#ffffff;fill-rule:evenodd;stroke:none;stroke-width:1px;stroke-linecap:butt;stroke-linejoin:miter;stroke-opacity:1"
       d="m 371.0335,2696.1612 c 0,0 10.62431,7.3553 12.25882,23.7003 1.63451,16.3451 -0.81725,35.142 -13.89333,54.7561 28.60391,-32.6902 43.31449,-55.5733 34.32469,-83.36 -8.9898,-27.7866 -32.69018,4.9036 -32.69018,4.9036 z"
       id="path1357"
       inkscape:connector-curvature="0" />
    <path
       style="fill:#ffffff;fill-rule:evenodd;stroke:none;stroke-width:1px;stroke-linecap:butt;stroke-linejoin:miter;stroke-opacity:1"
       d="m 609.41023,2578.6689 c 0,0 17.16235,24.5177 9.80706,38.411 -7.35529,13.8933 -8.9898,18.7968 -25.33489,35.1419 26.9694,-17.9796 37.5937,-31.0556 40.86272,-43.3145 3.26902,-12.2588 5.72078,-35.9592 5.72078,-42.4972 0,-6.538 -31.05567,12.2588 -31.05567,12.2588 z"
       id="path1359"
       inkscape:connector-curvature="0" />
    <path
       style="fill:#ffffff;fill-rule:evenodd;stroke:none;stroke-width:1.03840244px;stroke-linecap:butt;stroke-linejoin:miter;stroke-opacity:1"
       d="m 709.50836,2524.1823 c -9.09076,-45.7652 -13.07619,-111.9454 -1.25821,-123.9313 4.60347,-28.0258 65.83913,-70.2136 86.82769,-64.2894 16.36336,-4.3585 114.21633,-5.7366 131.48877,-3.5572 17.27244,2.1791 122.19069,-3.6441 140.37219,15.9696 35.0991,12.5615 42.8085,19.9214 53.7175,40.6247 10.9089,20.7033 13.267,80.8646 18.7215,87.4024 5.4544,6.538 -10.0873,39.0639 -14.6327,57.5879 -4.5454,18.5241 -20.9088,33.7792 -44.5447,40.317 -23.636,6.538 -55.4536,15.255 -76.3624,16.3448 -20.9087,1.0896 -69.08971,1.0896 -105.45273,-2.1793 -43.29702,-10.2175 -70.24263,-10.4784 -113.43051,-15.1442 -8.18168,-1.0895 -73.62826,-19.7246 -75.4464,-49.145 z"
       id="path1361"
       inkscape:connector-curvature="0"
       sodipodi:nodetypes="ccccccccccccc" />
    <path
       style="fill:#ffffff;fill-rule:evenodd;stroke:none;stroke-width:1px;stroke-linecap:butt;stroke-linejoin:miter;stroke-opacity:1"
       d="m 1048.8643,2539.6614 c 40.4132,37.5937 65.789,69.5483 47.932,102.4428 29.1351,-35.714 14.0976,-69.5483 -24.4359,-117.4803 -38.5336,-47.932 -23.4961,15.0375 -23.4961,15.0375 z"
       id="path1363"
       inkscape:connector-curvature="0" />
    <path
       style="fill:#ffffff;fill-rule:evenodd;stroke:none;stroke-width:1px;stroke-linecap:butt;stroke-linejoin:miter;stroke-opacity:1"
       d="m 1362.7766,2499.8218 c -0.8172,-27.7867 20.4314,-32.6902 31.8729,-34.3247 11.4416,-1.6345 58.8423,-9.807 76.8219,3.269 17.9796,13.0761 22.8832,35.142 14.7106,43.3145 -8.1725,8.1726 -34.3247,20.4314 -50.6698,21.2486 -16.345,0.8173 -51.487,-4.0862 -62.9285,-15.5278 -11.4416,-11.4416 -9.8071,-17.9796 -9.8071,-17.9796 z"
       id="path1365"
       inkscape:connector-curvature="0" />
    <path
       style="fill:#ffffff;fill-rule:evenodd;stroke:none;stroke-width:1px;stroke-linecap:butt;stroke-linejoin:miter;stroke-opacity:1"
       d="m 1445.7231,2523.112 c 0,0 19.6141,10.6243 24.5176,19.6141 4.9035,8.9898 13.0761,31.0556 8.9898,45.7662 13.0761,-26.1521 8.1725,-42.4972 4.9035,-49.8525 -3.269,-7.3553 -23.7004,-34.3247 -23.7004,-34.3247 z"
       id="path1367"
       inkscape:connector-curvature="0" />
    <path
       style="fill:#ffffff;fill-rule:evenodd;stroke:none;stroke-width:1.1162678px;stroke-linecap:butt;stroke-linejoin:miter;stroke-opacity:1"
       d="m 1765.3443,2452.444 c 5.6335,-52.9602 40.8425,-69.1724 64.7848,-76.7382 23.9422,-7.5657 122.5277,-18.3739 156.3284,-17.2931 33.8008,1.0808 159.1453,11.889 180.2707,12.9698 21.1254,1.0809 74.6433,25.9397 78.8684,32.4246 4.2251,6.4849 22.5338,23.778 16.9003,43.2328 -5.6334,19.4547 -38.0258,45.3944 -69.0099,55.1217 -30.9841,9.7274 -154.9199,17.2931 -178.8622,15.1315 -23.9422,-2.1616 -64.7846,-5.4041 -88.7269,-5.4041 -23.9422,0 -99.9939,-1.0808 -119.7111,-12.9698 -19.7171,-11.889 -40.8425,-46.4752 -40.8425,-46.4752 z"
       id="path1369"
       inkscape:connector-curvature="0" />
    <path
       style="fill:#ffffff;fill-rule:evenodd;stroke:none;stroke-width:1px;stroke-linecap:butt;stroke-linejoin:miter;stroke-opacity:1"
       d="m 1988.5393,2507.5657 c 15.6768,24.1512 6.1632,34.5534 -20.368,35.6671 20.5199,9.9586 46.1337,15.5923 40.7359,47.556 22.7818,-0.375 37.1938,-19.937 73.551,10.8082 21.4995,-25.3561 42.999,-13.281 64.4986,-2.1617 10.3119,-11.3113 29.2981,-12.0311 69.0248,-6.4849 -3.0677,-25.0109 21.8624,-36.1565 45.2622,-44.3136 -19.8128,-13.1763 -37.659,-27.5479 -24.8943,-60.5258 -28.7916,7.2773 -53.0033,6.6803 -66.7616,-11.889 -28.5646,4.157 -50.0209,21.8927 -89.3928,5.4041 -21.2019,19.9279 -44.8336,21.2885 -69.0248,18.3739 5.5129,17.7643 -0.9947,21.4958 -22.631,7.5657 z"
       id="path1371"
       inkscape:connector-curvature="0"
       sodipodi:nodetypes="cccccccccccc" />
    <path
       style="fill:#ffffff;fill-rule:evenodd;stroke:none;stroke-width:1px;stroke-linecap:butt;stroke-linejoin:miter;stroke-opacity:1"
       d="m 2142.1832,2571.3341 c -3.2425,28.1012 8.6465,79.9806 34.5862,113.4859 -3.2425,16.2123 1.0808,33.5054 15.1315,47.5561 -12.9699,-29.1821 -7.5658,-36.7479 -1.0809,-50.7985 -12.9698,-20.5356 -31.3437,-69.1724 -34.5862,-109.1627 -3.2424,-39.9903 -14.0506,-1.0808 -14.0506,-1.0808 z"
       id="path1373"
       inkscape:connector-curvature="0" />
  </g>
  <g
     inkscape:groupmode="layer"
     id="layer1"
     inkscape:label="txt">
    <text
       xml:space="preserve"
       style="font-style:normal;font-variant:normal;font-weight:normal;font-stretch:normal;line-height:0%;font-family:'ComicSpice';-inkscape-font-specification:'ComicSpice';text-align:center;letter-spacing:0px;word-spacing:0px;text-anchor:middle;fill:#000000;fill-opacity:1;stroke:none"
       x="320.61392"
       y="193.67375"
       id="text4246"><tspan
         sodipodi:role="line"
         style="font-style:normal;font-variant:normal;font-weight:normal;font-stretch:normal;font-size:48px;line-height:1.20000005;font-family:'ComicSpice';-inkscape-font-specification:'ComicSpice'"
         x="320.61392"
         y="193.67375"
         id="tspan4252">Các bạn à...</tspan></text>
    <text
       xml:space="preserve"
       style="font-style:normal;font-variant:normal;font-weight:normal;font-stretch:normal;line-height:0%;font-family:'ComicSpice';-inkscape-font-specification:'ComicSpice';text-align:center;letter-spacing:0px;word-spacing:0px;text-anchor:middle;fill:#000000;fill-opacity:1;stroke:none"
       x="528.04688"
       y="265.45801"
       id="text4246-3"><tspan
         sodipodi:role="line"
         style="font-style:normal;font-variant:normal;font-weight:normal;font-stretch:normal;font-size:48px;line-height:1.20000005;font-family:'ComicSpice';-inkscape-font-specification:'ComicSpice'"
         x="528.04688"
         y="265.45801"
         id="tspan841">Chị đang nghĩ về</tspan><tspan
         sodipodi:role="line"
         style="font-style:normal;font-variant:normal;font-weight:normal;font-stretch:normal;font-size:48px;line-height:1.20000005;font-family:'ComicSpice';-inkscape-font-specification:'ComicSpice'"
         x="528.04688"
         y="319.45801"
         id="tspan2811">an ninh nữa</tspan></text>
    <text
       xml:space="preserve"
       style="font-style:normal;font-variant:normal;font-weight:normal;font-stretch:normal;line-height:0%;font-family:'ComicSpice';-inkscape-font-specification:'ComicSpice';text-align:center;letter-spacing:0px;word-spacing:0px;text-anchor:middle;fill:#000000;fill-opacity:1;stroke:none"
       x="1203.0967"
       y="211.41882"
       id="text4246-3-7"><tspan
         sodipodi:role="line"
         style="font-style:normal;font-variant:normal;font-weight:normal;font-stretch:normal;font-size:48px;line-height:1.20000005;font-family:'ComicSpice';-inkscape-font-specification:'ComicSpice'"
         x="1203.0967"
         y="211.41882"
         id="tspan872">Rất nhiều hoàng</tspan><tspan
         sodipodi:role="line"
         style="font-style:normal;font-variant:normal;font-weight:normal;font-stretch:normal;font-size:48px;line-height:1.20000005;font-family:'ComicSpice';-inkscape-font-specification:'ComicSpice'"
         x="1203.0967"
         y="265.41882"
         id="tspan2827">thượng và nữ hoàng</tspan><tspan
         sodipodi:role="line"
         style="font-style:normal;font-variant:normal;font-weight:normal;font-stretch:normal;font-size:48px;line-height:1.20000005;font-family:'ComicSpice';-inkscape-font-specification:'ComicSpice'"
         x="1203.0967"
         y="319.41882"
         id="tspan2829">trẻ đã bị ám sát</tspan><tspan
         sodipodi:role="line"
         style="font-style:normal;font-variant:normal;font-weight:normal;font-stretch:normal;font-size:48px;line-height:1.20000005;font-family:'ComicSpice';-inkscape-font-specification:'ComicSpice'"
         x="1203.0967"
         y="373.41882"
         id="tspan2831">trong lễ tức vị...</tspan></text>
    <text
       xml:space="preserve"
       style="font-style:normal;font-variant:normal;font-weight:normal;font-stretch:normal;line-height:0%;font-family:'ComicSpice';-inkscape-font-specification:'ComicSpice';text-align:center;letter-spacing:0px;word-spacing:0px;text-anchor:middle;fill:#000000;fill-opacity:1;stroke:none"
       x="1222.4489"
       y="471.01553"
       id="text4246-3-7-7"><tspan
         sodipodi:role="line"
         style="font-style:normal;font-variant:normal;font-weight:normal;font-stretch:normal;font-size:48px;line-height:1.20000005;font-family:'ComicSpice';-inkscape-font-specification:'ComicSpice'"
         x="1222.4489"
         y="471.01553"
         id="tspan746">và đã trở thành một</tspan><tspan
         sodipodi:role="line"
         style="font-style:normal;font-variant:normal;font-weight:normal;font-stretch:normal;font-size:48px;line-height:1.20000005;font-family:'ComicSpice';-inkscape-font-specification:'ComicSpice'"
         x="1222.4489"
         y="525.01556"
         id="tspan2838">bộ phần của lịch sử</tspan><tspan
         sodipodi:role="line"
         style="font-style:normal;font-variant:normal;font-weight:normal;font-stretch:normal;font-size:48px;line-height:1.20000005;font-family:'ComicSpice';-inkscape-font-specification:'ComicSpice'"
         x="1222.4489"
         y="579.01556"
         id="tspan2840">gia đình chị,</tspan></text>
    <text
       xml:space="preserve"
       style="font-style:normal;font-variant:normal;font-weight:normal;font-stretch:normal;line-height:0%;font-family:'ComicSpice';-inkscape-font-specification:'ComicSpice';text-align:center;letter-spacing:0px;word-spacing:0px;text-anchor:middle;fill:#000000;fill-opacity:1;stroke:none"
       x="1961.5282"
       y="214.76515"
       id="text4246-3-7-7-6"><tspan
         sodipodi:role="line"
         style="font-style:normal;font-variant:normal;font-weight:normal;font-stretch:normal;font-size:48px;line-height:1.20000005;font-family:'ComicSpice';-inkscape-font-specification:'ComicSpice'"
         x="1961.5282"
         y="214.76515"
         id="tspan996">Và sau vài tiếng đồng hồ</tspan><tspan
         sodipodi:role="line"
         style="font-style:normal;font-variant:normal;font-weight:normal;font-stretch:normal;font-size:48px;line-height:1.20000005;font-family:'ComicSpice';-inkscape-font-specification:'ComicSpice'"
         x="1961.5282"
         y="268.76517"
         id="tspan2862">nữa, chúng tôi sẽ tiếp đón</tspan><tspan
         sodipodi:role="line"
         style="font-style:normal;font-variant:normal;font-weight:normal;font-stretch:normal;font-size:48px;line-height:1.20000005;font-family:'ComicSpice';-inkscape-font-specification:'ComicSpice'"
         x="1961.5282"
         y="322.76517"
         id="tspan2858">hàng ngàn khách từ toàn cầu</tspan><tspan
         sodipodi:role="line"
         style="font-style:normal;font-variant:normal;font-weight:normal;font-stretch:normal;font-size:48px;line-height:1.20000005;font-family:'ComicSpice';-inkscape-font-specification:'ComicSpice'"
         x="1961.5282"
         y="376.76517"
         id="tspan2870">và tôi là điểm chú ý.</tspan></text>
    <text
       xml:space="preserve"
       style="font-style:normal;font-variant:normal;font-weight:normal;font-stretch:normal;line-height:0%;font-family:'ComicSpice';-inkscape-font-specification:'ComicSpice';text-align:center;letter-spacing:0px;word-spacing:0px;text-anchor:middle;fill:#000000;fill-opacity:1;stroke:none"
       x="1059.3418"
       y="1445.7167"
       id="text4246-3-7-7-6-7"><tspan
         sodipodi:role="line"
         style="font-style:normal;font-variant:normal;font-weight:normal;font-stretch:normal;font-size:48px;line-height:1.20000005;font-family:'ComicSpice';-inkscape-font-specification:'ComicSpice'"
         x="1059.3418"
         y="1445.7167"
         id="tspan1067">Đừng lo</tspan><tspan
         sodipodi:role="line"
         style="font-style:normal;font-variant:normal;font-weight:normal;font-stretch:normal;font-size:48px;line-height:1.20000005;font-family:'ComicSpice';-inkscape-font-specification:'ComicSpice'"
         x="1059.3418"
         y="1499.7167"
         id="tspan2807">Cây Rau Mùi.</tspan></text>
    <text
       xml:space="preserve"
       style="font-style:normal;font-variant:normal;font-weight:normal;font-stretch:normal;line-height:0%;font-family:'ComicSpice';-inkscape-font-specification:'ComicSpice';text-align:center;letter-spacing:0px;word-spacing:0px;text-anchor:middle;fill:#000000;fill-opacity:1;stroke:none"
       x="1957.3252"
       y="489.72366"
       id="text4246-3-7-7-6-7-7"><tspan
         sodipodi:role="line"
         style="font-style:normal;font-variant:normal;font-weight:normal;font-stretch:normal;font-size:48px;line-height:1.20000005;font-family:'ComicSpice';-inkscape-font-specification:'ComicSpice'"
         x="1963.3896"
         y="489.72366"
         id="tspan1042-9">Tôi thật lo sợ </tspan></text>
    <text
       xml:space="preserve"
       style="font-style:normal;font-variant:normal;font-weight:normal;font-stretch:normal;line-height:0%;font-family:'ComicSpice';-inkscape-font-specification:'ComicSpice';text-align:center;letter-spacing:0px;word-spacing:0px;text-anchor:middle;fill:#000000;fill-opacity:1;stroke:none"
       x="2121.4336"
       y="1547.2563"
       id="text4246-3-7-7-6-7-2"><tspan
         sodipodi:role="line"
         style="font-style:normal;font-variant:normal;font-weight:normal;font-stretch:normal;font-size:48px;line-height:1.20000005;font-family:'ComicSpice';-inkscape-font-specification:'ComicSpice'"
         x="2121.4336"
         y="1547.2563"
         id="tspan2878">Chúng tôi sẽ theo</tspan><tspan
         sodipodi:role="line"
         style="font-style:normal;font-variant:normal;font-weight:normal;font-stretch:normal;font-size:48px;line-height:1.20000005;font-family:'ComicSpice';-inkscape-font-specification:'ComicSpice'"
         x="2121.4336"
         y="1601.2563"
         id="tspan2882">kế hoạch đã làm.</tspan></text>
    <text
       xml:space="preserve"
       style="font-style:normal;font-variant:normal;font-weight:normal;font-stretch:normal;line-height:0%;font-family:'ComicSpice';-inkscape-font-specification:'ComicSpice';text-align:center;letter-spacing:0px;word-spacing:0px;text-anchor:middle;fill:#000000;fill-opacity:1;stroke:none"
       x="2186.6404"
       y="1691.4915"
       id="text4246-3-7-7-6-7-2-9"><tspan
         sodipodi:role="line"
         style="font-style:normal;font-variant:normal;font-weight:normal;font-stretch:normal;font-size:48px;line-height:1.20000005;font-family:'ComicSpice';-inkscape-font-specification:'ComicSpice'"
         x="2186.6404"
         y="1691.4915"
         id="tspan1121">Thất Vị và tôi</tspan><tspan
         sodipodi:role="line"
         style="font-style:normal;font-variant:normal;font-weight:normal;font-stretch:normal;font-size:48px;line-height:1.20000005;font-family:'ComicSpice';-inkscape-font-specification:'ComicSpice'"
         x="2186.6404"
         y="1745.4915"
         id="tspan3532">sẽ bảo vệ chị,</tspan><tspan
         sodipodi:role="line"
         style="font-style:normal;font-variant:normal;font-weight:normal;font-stretch:normal;font-size:48px;line-height:1.20000005;font-family:'ComicSpice';-inkscape-font-specification:'ComicSpice'"
         x="2186.6404"
         y="1799.4915"
         id="tspan3530">nhớ không?</tspan></text>
    <text
       xml:space="preserve"
       style="font-style:normal;font-variant:normal;font-weight:normal;font-stretch:normal;line-height:0%;font-family:'ComicSpice';-inkscape-font-specification:'ComicSpice';text-align:center;letter-spacing:0px;word-spacing:0px;text-anchor:middle;fill:#000000;fill-opacity:1;stroke:none"
       x="224.1396"
       y="2483.7466"
       id="text4246-3-7-7-6-7-2-9-6"><tspan
         sodipodi:role="line"
         style="font-style:normal;font-variant:normal;font-weight:normal;font-stretch:normal;font-size:48px;line-height:1.20000005;font-family:'ComicSpice';-inkscape-font-specification:'ComicSpice'"
         x="224.1396"
         y="2483.7466"
         id="tspan1121-3">Đứng rồi.</tspan></text>
    <text
       xml:space="preserve"
       style="font-style:normal;font-variant:normal;font-weight:normal;font-stretch:normal;line-height:0%;font-family:'ComicSpice';-inkscape-font-specification:'ComicSpice';text-align:center;letter-spacing:0px;word-spacing:0px;text-anchor:middle;fill:#000000;fill-opacity:1;stroke:none"
       x="310.79276"
       y="2573.5852"
       id="text4246-3-7-7-6-7-2-9-6-1"><tspan
         sodipodi:role="line"
         style="font-style:normal;font-variant:normal;font-weight:normal;font-stretch:normal;font-size:48px;line-height:1.20000005;font-family:'ComicSpice';-inkscape-font-specification:'ComicSpice'"
         x="310.79276"
         y="2573.5852"
         id="tspan1183">Chị nên nghỉ và</tspan><tspan
         sodipodi:role="line"
         style="font-style:normal;font-variant:normal;font-weight:normal;font-stretch:normal;font-size:48px;line-height:1.20000005;font-family:'ComicSpice';-inkscape-font-specification:'ComicSpice'"
         x="310.79276"
         y="2627.5852"
         id="tspan3548">suy nghĩ về</tspan><tspan
         sodipodi:role="line"
         style="font-style:normal;font-variant:normal;font-weight:normal;font-stretch:normal;font-size:48px;line-height:1.20000005;font-family:'ComicSpice';-inkscape-font-specification:'ComicSpice'"
         x="316.85721"
         y="2681.5852"
         id="tspan3550">chuyện khác </tspan></text>
    <text
       xml:space="preserve"
       style="font-style:normal;font-variant:normal;font-weight:normal;font-stretch:normal;line-height:0%;font-family:'ComicSpice';-inkscape-font-specification:'ComicSpice';text-align:center;letter-spacing:0px;word-spacing:0px;text-anchor:middle;fill:#000000;fill-opacity:1;stroke:none"
       x="608.41107"
       y="2544.4858"
       id="text4246-3-7-7-6-7-2-9-6-1-4"><tspan
         sodipodi:role="line"
         style="font-style:normal;font-variant:normal;font-weight:normal;font-stretch:normal;font-size:48px;line-height:1.20000005;font-family:'ComicSpice';-inkscape-font-specification:'ComicSpice'"
         x="608.41107"
         y="2544.4858"
         id="tspan1183-0">Được.</tspan></text>
    <text
       xml:space="preserve"
       style="font-style:normal;font-variant:normal;font-weight:normal;font-stretch:normal;line-height:0%;font-family:'ComicSpice';-inkscape-font-specification:'ComicSpice';text-align:center;letter-spacing:0px;word-spacing:0px;text-anchor:middle;fill:#000000;fill-opacity:1;stroke:none"
       x="924.10059"
       y="2399.3877"
       id="text4246-3-7-7-6-7-2-9-6-1-4-3"><tspan
         sodipodi:role="line"
         style="font-style:normal;font-variant:normal;font-weight:normal;font-stretch:normal;font-size:48px;line-height:1.20000005;font-family:'ComicSpice';-inkscape-font-specification:'ComicSpice'"
         x="924.10059"
         y="2399.3877"
         id="tspan1249">Hà! Các bán muốn</tspan><tspan
         sodipodi:role="line"
         style="font-style:normal;font-variant:normal;font-weight:normal;font-stretch:normal;font-size:48px;line-height:1.20000005;font-family:'ComicSpice';-inkscape-font-specification:'ComicSpice'"
         x="924.10059"
         y="2453.3877"
         id="tspan3561">đi xem đồ phát minh</tspan><tspan
         sodipodi:role="line"
         style="font-style:normal;font-variant:normal;font-weight:normal;font-stretch:normal;font-size:48px;line-height:1.20000005;font-family:'ComicSpice';-inkscape-font-specification:'ComicSpice'"
         x="924.10059"
         y="2507.3877"
         id="tspan3563">mới nhất của chị</tspan><tspan
         sodipodi:role="line"
         style="font-style:normal;font-variant:normal;font-weight:normal;font-stretch:normal;font-size:48px;line-height:1.20000005;font-family:'ComicSpice';-inkscape-font-specification:'ComicSpice'"
         x="924.10059"
         y="2561.3877"
         id="tspan3573">không?</tspan></text>
    <text
       xml:space="preserve"
       style="font-style:normal;font-variant:normal;font-weight:normal;font-stretch:normal;line-height:0%;font-family:'ComicSpice';-inkscape-font-specification:'ComicSpice';text-align:center;letter-spacing:0px;word-spacing:0px;text-anchor:middle;fill:#000000;fill-opacity:1;stroke:none"
       x="1429.6105"
       y="2501.0703"
       id="text4246-3-7-7-6-7-2-9-6-1-4-3-1"><tspan
         sodipodi:role="line"
         style="font-style:normal;font-variant:normal;font-weight:normal;font-stretch:normal;font-size:48px;line-height:1.20000005;font-family:'ComicSpice';-inkscape-font-specification:'ComicSpice'"
         x="1429.6105"
         y="2501.0703"
         id="tspan1249-3">...</tspan></text>
    <text
       xml:space="preserve"
       style="font-style:normal;font-variant:normal;font-weight:normal;font-stretch:normal;line-height:0%;font-family:'ComicSpice';-inkscape-font-specification:'ComicSpice';text-align:center;letter-spacing:0px;word-spacing:0px;text-anchor:middle;fill:#000000;fill-opacity:1;stroke:none"
       x="2014.7648"
       y="2425.7151"
       id="text4246-3-7-7-6-7-2-9-6-1-4-3-1-2"><tspan
         sodipodi:role="line"
         style="font-style:normal;font-variant:normal;font-weight:normal;font-stretch:normal;font-size:48px;line-height:1.20000005;font-family:'ComicSpice';-inkscape-font-specification:'ComicSpice'"
         x="2014.7648"
         y="2425.7151"
         id="tspan1298">Nó ở dưới lầu trong</tspan><tspan
         sodipodi:role="line"
         style="font-style:normal;font-variant:normal;font-weight:normal;font-stretch:normal;font-size:48px;line-height:1.20000005;font-family:'ComicSpice';-inkscape-font-specification:'ComicSpice'"
         x="2014.7648"
         y="2479.7151"
         id="tspan902">xưởng của chị</tspan></text>
    <text
       xml:space="preserve"
       style="font-style:normal;font-variant:normal;font-weight:normal;font-stretch:normal;line-height:0%;font-family:'ComicSpice';-inkscape-font-specification:'ComicSpice';text-align:center;letter-spacing:0px;word-spacing:0px;text-anchor:middle;fill:#000000;fill-opacity:1;stroke:none"
       x="2118.0996"
       y="2553.5225"
       id="text4246-3-7-7-6-7-2-9-6-1-4-3-1-2-6"><tspan
         sodipodi:role="line"
         style="font-style:normal;font-variant:normal;font-weight:normal;font-stretch:normal;font-size:48px;line-height:1.20000005;font-family:'ComicSpice';-inkscape-font-specification:'ComicSpice'"
         x="2118.0996"
         y="2553.5225"
         id="tspan1298-5">Đi theo chị</tspan></text>
  </g>
</svg>
