<?xml version="1.0" encoding="UTF-8" standalone="no"?>
<!-- Created with Inkscape (http://www.inkscape.org/) -->

<svg
   xmlns:osb="http://www.openswatchbook.org/uri/2009/osb"
   xmlns:dc="http://purl.org/dc/elements/1.1/"
   xmlns:cc="http://creativecommons.org/ns#"
   xmlns:rdf="http://www.w3.org/1999/02/22-rdf-syntax-ns#"
   xmlns:svg="http://www.w3.org/2000/svg"
   xmlns="http://www.w3.org/2000/svg"
   xmlns:xlink="http://www.w3.org/1999/xlink"
   xmlns:sodipodi="http://sodipodi.sourceforge.net/DTD/sodipodi-0.dtd"
   xmlns:inkscape="http://www.inkscape.org/namespaces/inkscape"
   id="svg2"
   version="1.1"
   inkscape:version="0.91 r13725"
   width="2481"
   height="3503"
   sodipodi:docname="E03P03.svg"
   enable-background="new">
  <metadata
     id="metadata8">
    <rdf:RDF>
      <cc:Work
         rdf:about="">
        <dc:format>image/svg+xml</dc:format>
        <dc:type
           rdf:resource="http://purl.org/dc/dcmitype/StillImage" />
        <dc:title />
      </cc:Work>
    </rdf:RDF>
  </metadata>
  <defs
     id="defs6">
    <linearGradient
       id="linearGradient5427">
      <stop
         style="stop-color:#ad5d0f;stop-opacity:1;"
         offset="0"
         id="stop5429" />
      <stop
         id="stop5437"
         offset="0.25"
         style="stop-color:#84470b;stop-opacity:1;" />
      <stop
         id="stop5435"
         offset="0.5"
         style="stop-color:#8a4a0c;stop-opacity:1;" />
      <stop
         style="stop-color:#7a420b;stop-opacity:1;"
         offset="1"
         id="stop5431" />
    </linearGradient>
    <linearGradient
       id="linearGradient5350"
       osb:paint="solid">
      <stop
         style="stop-color:#9a530e;stop-opacity:1;"
         offset="0"
         id="stop5352" />
    </linearGradient>
    <linearGradient
       inkscape:collect="always"
       xlink:href="#linearGradient5427"
       id="linearGradient5433"
       x1="618.94147"
       y1="2316.8098"
       x2="1024.5358"
       y2="1619.6255"
       gradientUnits="userSpaceOnUse" />
    <linearGradient
       inkscape:collect="always"
       xlink:href="#linearGradient5427"
       id="linearGradient5443"
       gradientUnits="userSpaceOnUse"
       x1="618.94147"
       y1="2316.8098"
       x2="1024.5358"
       y2="1619.6255" />
    <linearGradient
       inkscape:collect="always"
       xlink:href="#linearGradient5427"
       id="linearGradient5445"
       gradientUnits="userSpaceOnUse"
       x1="618.94147"
       y1="2316.8098"
       x2="1024.5358"
       y2="1619.6255" />
    <linearGradient
       inkscape:collect="always"
       xlink:href="#linearGradient5427"
       id="linearGradient5447"
       gradientUnits="userSpaceOnUse"
       x1="618.94147"
       y1="2316.8098"
       x2="1024.5358"
       y2="1619.6255" />
    <linearGradient
       inkscape:collect="always"
       xlink:href="#linearGradient5427"
       id="linearGradient5449"
       gradientUnits="userSpaceOnUse"
       x1="618.94147"
       y1="2316.8098"
       x2="1024.5358"
       y2="1619.6255" />
    <linearGradient
       inkscape:collect="always"
       xlink:href="#linearGradient5427"
       id="linearGradient5451"
       gradientUnits="userSpaceOnUse"
       x1="618.94147"
       y1="2316.8098"
       x2="1024.5358"
       y2="1619.6255" />
    <linearGradient
       inkscape:collect="always"
       xlink:href="#linearGradient5427"
       id="linearGradient5453"
       gradientUnits="userSpaceOnUse"
       x1="618.94147"
       y1="2316.8098"
       x2="1024.5358"
       y2="1619.6255" />
    <linearGradient
       inkscape:collect="always"
       xlink:href="#linearGradient5427"
       id="linearGradient5455"
       gradientUnits="userSpaceOnUse"
       x1="618.94147"
       y1="2316.8098"
       x2="1024.5358"
       y2="1619.6255" />
    <linearGradient
       inkscape:collect="always"
       xlink:href="#linearGradient5427"
       id="linearGradient5457"
       gradientUnits="userSpaceOnUse"
       x1="618.94147"
       y1="2316.8098"
       x2="1024.5358"
       y2="1619.6255" />
    <linearGradient
       id="linearGradient5427-1">
      <stop
         style="stop-color:#ad5d0f;stop-opacity:1;"
         offset="0"
         id="stop5429-2" />
      <stop
         id="stop5437-1"
         offset="0.25"
         style="stop-color:#84470b;stop-opacity:1;" />
      <stop
         id="stop5435-6"
         offset="0.5"
         style="stop-color:#8a4a0c;stop-opacity:1;" />
      <stop
         style="stop-color:#7a420b;stop-opacity:1;"
         offset="1"
         id="stop5431-8" />
    </linearGradient>
    <linearGradient
       inkscape:collect="always"
       xlink:href="#linearGradient5427-1"
       id="linearGradient5443-3"
       gradientUnits="userSpaceOnUse"
       x1="618.94147"
       y1="2316.8098"
       x2="1024.5358"
       y2="1619.6255" />
    <linearGradient
       inkscape:collect="always"
       xlink:href="#linearGradient5427-1"
       id="linearGradient5445-2"
       gradientUnits="userSpaceOnUse"
       x1="618.94147"
       y1="2316.8098"
       x2="1024.5358"
       y2="1619.6255" />
    <linearGradient
       inkscape:collect="always"
       xlink:href="#linearGradient5427-1"
       id="linearGradient5449-7"
       gradientUnits="userSpaceOnUse"
       x1="618.94147"
       y1="2316.8098"
       x2="1024.5358"
       y2="1619.6255" />
    <linearGradient
       inkscape:collect="always"
       xlink:href="#linearGradient5427-1"
       id="linearGradient5451-9"
       gradientUnits="userSpaceOnUse"
       x1="618.94147"
       y1="2316.8098"
       x2="1024.5358"
       y2="1619.6255" />
    <linearGradient
       inkscape:collect="always"
       xlink:href="#linearGradient5427-1"
       id="linearGradient5455-2"
       gradientUnits="userSpaceOnUse"
       x1="618.94147"
       y1="2316.8098"
       x2="1024.5358"
       y2="1619.6255" />
    <linearGradient
       inkscape:collect="always"
       xlink:href="#linearGradient5427-1"
       id="linearGradient5457-0"
       gradientUnits="userSpaceOnUse"
       x1="618.94147"
       y1="2316.8098"
       x2="1024.5358"
       y2="1619.6255" />
    <linearGradient
       y2="1619.6255"
       x2="1024.5358"
       y1="2316.8098"
       x1="618.94147"
       gradientUnits="userSpaceOnUse"
       id="linearGradient5608"
       xlink:href="#linearGradient5427-1"
       inkscape:collect="always" />
    <linearGradient
       y2="1619.6255"
       x2="1024.5358"
       y1="2316.8098"
       x1="618.94147"
       gradientUnits="userSpaceOnUse"
       id="linearGradient5608-2"
       xlink:href="#linearGradient5427-1-2"
       inkscape:collect="always" />
    <linearGradient
       id="linearGradient5427-1-2">
      <stop
         style="stop-color:#ad5d0f;stop-opacity:1;"
         offset="0"
         id="stop5429-2-5" />
      <stop
         id="stop5437-1-2"
         offset="0.25"
         style="stop-color:#84470b;stop-opacity:1;" />
      <stop
         id="stop5435-6-0"
         offset="0.5"
         style="stop-color:#8a4a0c;stop-opacity:1;" />
      <stop
         style="stop-color:#7a420b;stop-opacity:1;"
         offset="1"
         id="stop5431-8-6" />
    </linearGradient>
    <linearGradient
       inkscape:collect="always"
       xlink:href="#linearGradient5427-1-2"
       id="linearGradient5441"
       gradientUnits="userSpaceOnUse"
       x1="618.94147"
       y1="2316.8098"
       x2="1024.5358"
       y2="1619.6255" />
    <linearGradient
       id="linearGradient3064">
      <stop
         style="stop-color:#ad5d0f;stop-opacity:1;"
         offset="0"
         id="stop3066" />
      <stop
         id="stop3068"
         offset="0.25"
         style="stop-color:#84470b;stop-opacity:1;" />
      <stop
         id="stop3070"
         offset="0.5"
         style="stop-color:#8a4a0c;stop-opacity:1;" />
      <stop
         style="stop-color:#7a420b;stop-opacity:1;"
         offset="1"
         id="stop3072" />
    </linearGradient>
    <linearGradient
       id="linearGradient3075">
      <stop
         style="stop-color:#ad5d0f;stop-opacity:1;"
         offset="0"
         id="stop3077" />
      <stop
         id="stop3079"
         offset="0.25"
         style="stop-color:#84470b;stop-opacity:1;" />
      <stop
         id="stop3081"
         offset="0.5"
         style="stop-color:#8a4a0c;stop-opacity:1;" />
      <stop
         style="stop-color:#7a420b;stop-opacity:1;"
         offset="1"
         id="stop3083" />
    </linearGradient>
    <linearGradient
       inkscape:collect="always"
       xlink:href="#linearGradient5427-1-2"
       id="linearGradient5443-3-4"
       gradientUnits="userSpaceOnUse"
       x1="618.94147"
       y1="2316.8098"
       x2="1024.5358"
       y2="1619.6255" />
    <linearGradient
       id="linearGradient3086">
      <stop
         style="stop-color:#ad5d0f;stop-opacity:1;"
         offset="0"
         id="stop3088" />
      <stop
         id="stop3090"
         offset="0.25"
         style="stop-color:#84470b;stop-opacity:1;" />
      <stop
         id="stop3092"
         offset="0.5"
         style="stop-color:#8a4a0c;stop-opacity:1;" />
      <stop
         style="stop-color:#7a420b;stop-opacity:1;"
         offset="1"
         id="stop3094" />
    </linearGradient>
    <linearGradient
       id="linearGradient3097">
      <stop
         style="stop-color:#ad5d0f;stop-opacity:1;"
         offset="0"
         id="stop3099" />
      <stop
         id="stop3101"
         offset="0.25"
         style="stop-color:#84470b;stop-opacity:1;" />
      <stop
         id="stop3103"
         offset="0.5"
         style="stop-color:#8a4a0c;stop-opacity:1;" />
      <stop
         style="stop-color:#7a420b;stop-opacity:1;"
         offset="1"
         id="stop3105" />
    </linearGradient>
    <linearGradient
       id="linearGradient3108">
      <stop
         style="stop-color:#ad5d0f;stop-opacity:1;"
         offset="0"
         id="stop3110" />
      <stop
         id="stop3112"
         offset="0.25"
         style="stop-color:#84470b;stop-opacity:1;" />
      <stop
         id="stop3114"
         offset="0.5"
         style="stop-color:#8a4a0c;stop-opacity:1;" />
      <stop
         style="stop-color:#7a420b;stop-opacity:1;"
         offset="1"
         id="stop3116" />
    </linearGradient>
    <linearGradient
       id="linearGradient3119">
      <stop
         style="stop-color:#ad5d0f;stop-opacity:1;"
         offset="0"
         id="stop3121" />
      <stop
         id="stop3123"
         offset="0.25"
         style="stop-color:#84470b;stop-opacity:1;" />
      <stop
         id="stop3125"
         offset="0.5"
         style="stop-color:#8a4a0c;stop-opacity:1;" />
      <stop
         style="stop-color:#7a420b;stop-opacity:1;"
         offset="1"
         id="stop3127" />
    </linearGradient>
    <linearGradient
       inkscape:collect="always"
       xlink:href="#linearGradient5427-1-2"
       id="linearGradient5451-9-2"
       gradientUnits="userSpaceOnUse"
       x1="618.94147"
       y1="2316.8098"
       x2="1024.5358"
       y2="1619.6255" />
    <linearGradient
       id="linearGradient3130">
      <stop
         style="stop-color:#ad5d0f;stop-opacity:1;"
         offset="0"
         id="stop3132" />
      <stop
         id="stop3134"
         offset="0.25"
         style="stop-color:#84470b;stop-opacity:1;" />
      <stop
         id="stop3136"
         offset="0.5"
         style="stop-color:#8a4a0c;stop-opacity:1;" />
      <stop
         style="stop-color:#7a420b;stop-opacity:1;"
         offset="1"
         id="stop3138" />
    </linearGradient>
    <linearGradient
       id="linearGradient3141">
      <stop
         style="stop-color:#ad5d0f;stop-opacity:1;"
         offset="0"
         id="stop3143" />
      <stop
         id="stop3145"
         offset="0.25"
         style="stop-color:#84470b;stop-opacity:1;" />
      <stop
         id="stop3147"
         offset="0.5"
         style="stop-color:#8a4a0c;stop-opacity:1;" />
      <stop
         style="stop-color:#7a420b;stop-opacity:1;"
         offset="1"
         id="stop3149" />
    </linearGradient>
    <linearGradient
       id="linearGradient3152">
      <stop
         style="stop-color:#ad5d0f;stop-opacity:1;"
         offset="0"
         id="stop3154" />
      <stop
         id="stop3156"
         offset="0.25"
         style="stop-color:#84470b;stop-opacity:1;" />
      <stop
         id="stop3158"
         offset="0.5"
         style="stop-color:#8a4a0c;stop-opacity:1;" />
      <stop
         style="stop-color:#7a420b;stop-opacity:1;"
         offset="1"
         id="stop3160" />
    </linearGradient>
    <linearGradient
       id="linearGradient3163">
      <stop
         style="stop-color:#ad5d0f;stop-opacity:1;"
         offset="0"
         id="stop3165" />
      <stop
         id="stop3167"
         offset="0.25"
         style="stop-color:#84470b;stop-opacity:1;" />
      <stop
         id="stop3169"
         offset="0.5"
         style="stop-color:#8a4a0c;stop-opacity:1;" />
      <stop
         style="stop-color:#7a420b;stop-opacity:1;"
         offset="1"
         id="stop3171" />
    </linearGradient>
    <filter
       inkscape:collect="always"
       id="filter3347">
      <feBlend
         inkscape:collect="always"
         mode="multiply"
         in2="BackgroundImage"
         id="feBlend3349" />
    </filter>
    <linearGradient
       inkscape:collect="always"
       xlink:href="#linearGradient5427-1-2"
       id="linearGradient3375"
       gradientUnits="userSpaceOnUse"
       x1="618.94147"
       y1="2316.8098"
       x2="1024.5358"
       y2="1619.6255" />
    <linearGradient
       inkscape:collect="always"
       xlink:href="#linearGradient5427-1-2"
       id="linearGradient3419"
       gradientUnits="userSpaceOnUse"
       x1="618.94147"
       y1="2316.8098"
       x2="1024.5358"
       y2="1619.6255" />
    <linearGradient
       inkscape:collect="always"
       xlink:href="#linearGradient5427-1-2"
       id="linearGradient3457"
       gradientUnits="userSpaceOnUse"
       x1="618.94147"
       y1="2316.8098"
       x2="1024.5358"
       y2="1619.6255" />
  </defs>
  <sodipodi:namedview
     pagecolor="#ffffff"
     bordercolor="#666666"
     borderopacity="1"
     objecttolerance="10"
     gridtolerance="10"
     guidetolerance="10"
     inkscape:pageopacity="0"
     inkscape:pageshadow="2"
     inkscape:window-width="1920"
     inkscape:window-height="1017"
     id="namedview4"
     showgrid="false"
     inkscape:zoom="0.41451838"
     inkscape:cx="1045.1031"
     inkscape:cy="96.437439"
     inkscape:window-x="0"
     inkscape:window-y="30"
     inkscape:window-maximized="1"
     inkscape:current-layer="layer4" />
  <g
     inkscape:groupmode="layer"
     id="layer2"
     inkscape:label="artwork"
     sodipodi:insensitive="true">
    <image
       sodipodi:absref="/home/nightlock/peppercarrot/webcomics/ep03_The-secret-ingredients/lang/kr/../gfx_Pepper-and-Carrot_by-David-Revoy_E03P03.png"
       xlink:href="../gfx_Pepper-and-Carrot_by-David-Revoy_E03P03.png"
       width="2481"
       height="3503"
       id="image10"
       x="0"
       y="0" />
    <flowRoot
       xml:space="preserve"
       id="flowRoot5790"
       style="font-size:48px;font-style:normal;font-variant:normal;font-weight:normal;font-stretch:normal;line-height:125%;letter-spacing:0px;word-spacing:0px;fill:#000000;fill-opacity:1;stroke:none;font-family:Lavi;-inkscape-font-specification:Lavi"><flowRegion
         id="flowRegion5792"><rect
           id="rect5794"
           width="698.64941"
           height="222.5463"
           x="1276.9049"
           y="2673.0117"
           style="font-size:48px;font-style:normal;font-variant:normal;font-weight:normal;font-stretch:normal;font-family:Lavi;-inkscape-font-specification:Lavi" /></flowRegion><flowPara
         id="flowPara5796" /></flowRoot>  </g>
  <g
     inkscape:groupmode="layer"
     id="layer3"
     inkscape:label="speechbubbles">
    <path
       style="fill:#ffffff;fill-opacity:1;stroke:none;stroke-width:1px;stroke-linecap:butt;stroke-linejoin:miter;stroke-opacity:1"
       d="m 1268.3681,3059.9358 c 20.8242,8.3485 28.8335,16.1006 25.0958,20.8712 8.5433,2.3852 11.747,64.4023 3.7377,75.7323 -0.534,1.1927 -4.2716,4.7706 -2.6698,5.3669 1.6019,0.5963 11.213,-1.1926 12.8149,1.1926 1.6019,2.3853 -14.4167,36.3754 -12.281,37.5681 2.1359,1.1926 51.2597,-21.4675 58.2011,-16.1006 6.9413,5.3668 3.2037,19.0821 5.3395,19.6785 2.1358,0.5963 21.8921,-2.9816 24.5619,-2.3853 2.6698,0.5963 7.4753,18.4858 10.1451,19.0822 2.6698,0.5963 14.9507,-7.7522 17.0865,-7.1559 2.1359,0.5964 1.0679,15.5043 3.7377,16.1006 2.6698,0.5963 14.4168,-12.5226 16.0187,-11.9263 1.6018,0.5963 7.4753,30.4122 10.1451,32.2011 2.6698,1.789 19.7563,-32.7974 21.3581,-33.3938 1.6019,-0.5963 11.747,40.5496 13.8829,41.146 2.1358,0.5963 12.8148,-28.027 14.4167,-27.4307 1.6019,0.5964 11.747,17.2933 13.8828,18.4859 2.1358,1.1926 16.0187,-36.9717 18.1544,-36.9717 2.1359,0 20.2903,16.1006 21.8922,19.0822 1.6018,2.9816 3.2037,-15.5043 5.3395,-15.5043 2.1358,0 26.6977,10.7337 27.2317,10.1374 0.534,-0.5963 -3.7377,-11.9264 -2.1358,-11.9264 1.6018,0 26.6977,14.908 27.7656,11.9264 1.0678,-2.9816 54.4633,14.9079 58.201,12.5227 3.7377,-2.3853 -24.0279,-48.8981 -21.3582,-52.476 2.6697,-3.5779 12.281,0.5963 12.8149,-1.1926 0.534,-1.789 -5.8735,-9.5411 -4.2717,-11.9264 1.6019,-2.3853 19.7564,-11.9263 21.3582,-14.9079 1.6019,-2.9816 -8.0093,-10.7338 -5.8735,-12.5227 2.1358,-1.789 33.6392,-13.119 34.1731,-16.1006 0.5339,-2.9816 -16.0186,-17.2932 -13.8828,-21.4674 2.1358,-4.1743 8.0093,-5.9632 7.4754,-8.9448 -0.534,-2.9816 -10.6791,-6.5595 -10.1452,-9.5411 0.534,-2.9816 5.8735,-17.8895 7.4754,-20.2748 1.6018,-2.3853 -11.2131,-1.1926 -11.2131,-3.5779 0,-2.3853 46.988,-66.1913 45.9201,-84.0808 -16.5526,11.33 -73.1517,31.6048 -90.7722,26.8343 -17.6205,-4.7706 -10.679,-34.5864 -13.3488,-36.3754 -2.6698,-1.789 -22.4261,10.1374 -25.0959,5.9632 -2.6698,-4.1742 -3.7377,-11.9264 -5.8735,-11.9264 -2.1358,0 -14.4168,16.6969 -17.0865,16.1006 -2.6698,-0.5963 -27.7657,-26.8343 -31.5033,-27.4306 -3.7377,-0.5963 -18.1545,10.1374 -21.3582,10.7337 -3.2037,0.5963 -5.8735,-14.3116 -8.5432,-13.119 -2.6698,1.1926 -19.7564,11.9264 -22.4261,10.7337 -2.6698,-1.1926 -4.8056,-5.9631 -6.9414,-4.7705 -2.1358,1.1926 -11.747,5.9632 -11.747,5.9632 0,0 -6.9414,-3.5779 -10.1451,-3.5779 -3.2037,0 -25.0958,19.6784 -27.7656,20.8711 -2.6698,1.1926 -25.6299,-45.3202 -24.0279,-48.8981 1.6018,-3.5779 -24.028,49.4944 -27.7657,51.2834 -3.7377,1.7889 -14.9507,-3.578 -16.0186,-1.789 -1.0679,1.789 -4.2716,11.33 -7.4754,11.9264 -3.2037,0.5963 -10.679,2.9815 -10.679,2.9815 l 1.0678,3.578 c 0,0 -22.426,-9.5411 -25.0958,-13.119 -2.6698,-3.5779 1.6018,15.5042 3.2037,20.2748 -9.6111,-4.7706 -37.9107,-14.908 -40.0465,-17.8896 -2.1358,-2.9816 3.7377,10.7338 6.9414,14.908 -4.2717,-1.789 -8.0094,-2.3853 -8.0094,-2.3853 l 12.281,14.3116 -3.7377,1.1927 c 0,0 8.0094,6.5595 8.0094,9.5411 0,2.9815 -20.8242,6.5595 -20.8242,6.5595 0,0 8.5432,5.3668 6.4074,8.3484 -2.1359,2.9816 -7.4754,4.7705 -7.4754,4.7705 l -1.0679,7.7522 z"
       id="path5888"
       inkscape:connector-curvature="0" />
    <path
       style="color:#000000;fill:#ffffff;fill-opacity:1;fill-rule:nonzero;stroke:none;stroke-width:1px;marker:none;visibility:visible;display:inline;overflow:visible;enable-background:accumulate"
       d="m 1309.514,3089.1554 c -23.8527,25.0454 -75.7324,71.5582 -90.044,77.5213 -14.908,-23.2564 -51.2833,-56.0538 -55.4576,-53.0723 -4.1742,2.9816 -42.3385,78.1177 -50.0907,77.5214 -7.7521,-0.5964 -32.2011,-11.3301 -39.3569,-19.0822 23.2564,20.2748 42.3385,33.9901 53.6686,31.6048 7.7521,-1.1926 36.9717,-60.2281 38.7606,-64.4023 18.4859,15.5043 53.0723,51.2834 62.0171,54.265 11.33,-4.1742 54.8612,-20.2749 98.3924,-59.0355 43.5312,-38.7607 -17.8895,-45.3202 -17.8895,-45.3202 z"
       id="path5901"
       inkscape:connector-curvature="0"
       sodipodi:nodetypes="ccccccccsc" />
    <path
       style="fill:#ffffff;stroke:none;stroke-width:1px;stroke-linecap:butt;stroke-linejoin:miter;stroke-opacity:1;color:#000000;fill-opacity:1;fill-rule:nonzero;marker:none;visibility:visible;display:inline;overflow:visible;enable-background:accumulate"
       d="m 1294.1424,2775.8828 c 8.6749,-44.9519 41.0088,-71.7653 59.1473,-81.2289 18.1385,-9.4636 227.9142,-20.5044 273.6547,-22.0817 45.7406,-1.5772 178.2305,-2.3659 235.8005,25.2362 57.57,27.6021 78.863,64.6677 79.6517,85.9607 0.7886,21.293 -20.5044,78.0744 -129.3354,95.4243 -108.831,17.3499 -221.6052,14.984 -263.4026,11.8294 -41.7974,-3.1545 -170.3441,-5.5204 -209.7756,-42.586 -39.4316,-37.0656 -44.952,-45.7406 -45.7406,-72.554 z"
       id="path5909"
       inkscape:connector-curvature="0" />
    <path
       style="color:#000000;fill:#ffffff;fill-opacity:1;fill-rule:nonzero;stroke:none;stroke-width:1px;marker:none;visibility:visible;display:inline;overflow:visible;enable-background:accumulate"
       d="m 1534.3348,2988.0244 c 9.2065,-24.4476 30.9671,-78.8631 20.0868,-113.5628 -10.8803,-34.6997 26.7822,-22.0816 26.7822,-22.0816 0,0 -2.5108,-7.0977 -0.8369,16.5612 1.6739,23.6589 -9.2064,100.9447 -38.4995,122.2377 -29.2931,21.2931 -7.5326,-3.1545 -7.5326,-3.1545 z"
       id="path5917"
       inkscape:connector-curvature="0"
       sodipodi:nodetypes="cscssc" />
  </g>
  <g
     inkscape:groupmode="layer"
     id="layer1"
     inkscape:label="txt">
    <flowRoot
       xml:space="preserve"
       id="flowRoot5798"
       style="font-style:normal;font-variant:normal;font-weight:normal;font-stretch:normal;font-size:12px;line-height:125%;font-family:Arial;-inkscape-font-specification:Arial;text-align:center;letter-spacing:0px;word-spacing:0px;text-anchor:middle;fill:#000000;fill-opacity:1;stroke:none"
       transform="matrix(1.3564908,0,0,1.3564908,-618.02182,-920.74785)"><flowRegion
         id="flowRegion5800"><rect
           id="rect5802"
           width="729.65997"
           height="244.4361"
           x="1291.4982"
           y="2671.1877"
           style="text-align:center;text-anchor:middle" /></flowRegion><flowPara
         style="font-style:normal;font-variant:normal;font-weight:normal;font-stretch:normal;font-size:48px;font-family:'Nanum Pen Script OTF';-inkscape-font-specification:'Nanum Pen Script OTF';text-align:center;text-anchor:middle"
         id="flowPara3478">다행이다, 준비할 수 있는</flowPara><flowPara
         style="font-style:normal;font-variant:normal;font-weight:normal;font-stretch:normal;font-size:48px;font-family:'Nanum Pen Script OTF';-inkscape-font-specification:'Nanum Pen Script OTF';text-align:center;text-anchor:middle"
         id="flowPara3479">시간이 아직 하루나 남아있어!</flowPara></flowRoot>    <flowRoot
       xml:space="preserve"
       id="flowRoot5798-2"
       style="font-style:normal;font-variant:normal;font-weight:normal;font-stretch:normal;font-size:12px;line-height:100%;font-family:Arial;-inkscape-font-specification:Arial;letter-spacing:0px;word-spacing:0px;fill:#000000;fill-opacity:1;stroke:none"
       transform="matrix(1.8010501,0,0,1.9692894,-1239.308,-2316.8551)"><flowRegion
         id="flowRegion5800-2"><rect
           id="rect5802-6"
           width="390.88272"
           height="156.95305"
           x="1319.3975"
           y="2707.6389"
           style="line-height:100%" /></flowRegion><flowPara
         style="font-style:normal;font-variant:normal;font-weight:normal;font-stretch:normal;font-size:48px;line-height:100%;font-family:'Nanum Pen Script OTF';-inkscape-font-specification:'Nanum Pen Script OTF';text-align:center;text-anchor:middle"
         id="flowPara5840">한번 우승해</flowPara><flowPara
         style="font-style:normal;font-variant:normal;font-weight:normal;font-stretch:normal;font-size:48px;line-height:100%;font-family:'Nanum Pen Script OTF';-inkscape-font-specification:'Nanum Pen Script OTF';text-align:center;text-anchor:middle"
         id="flowPara3483">보자!</flowPara><flowPara
         style="font-style:normal;font-variant:normal;font-weight:normal;font-stretch:normal;font-size:48px;line-height:100%;font-family:Lavi;-inkscape-font-specification:Lavi"
         id="flowPara3481" /></flowRoot>  </g>
  <g
     inkscape:groupmode="layer"
     id="layer4"
     inkscape:label="fx"
     style="filter:url(#filter3347);opacity:0.7265625">
    <flowRoot
       xml:space="preserve"
       id="flowRoot3755"
       style="font-style:normal;font-variant:normal;font-weight:normal;font-stretch:normal;font-size:67.07809448px;line-height:100%;font-family:'Nanum Pen Script OTF';-inkscape-font-specification:'Nanum Pen Script OTF';text-align:center;letter-spacing:0px;word-spacing:0px;text-anchor:middle;opacity:1;fill:#ba894f;fill-opacity:1;stroke:#7b441d;stroke-width:2.70574308;stroke-miterlimit:4;stroke-dasharray:none;stroke-opacity:1;"
       transform="matrix(1.409608,-0.31889907,0.87093706,1.5266801,-1887.4857,-592.91813)"><flowRegion
         id="flowRegion3757"
         style="fill:url(#linearGradient5441);fill-opacity:1"><rect
           id="rect3759"
           width="943.26337"
           height="841.94098"
           x="296.72992"
           y="1655.0723"
           style="font-style:normal;font-variant:normal;font-weight:normal;font-stretch:normal;font-size:67.07809448px;line-height:100%;font-family:'Nanum Pen Script OTF';-inkscape-font-specification:'Nanum Pen Script OTF';text-align:center;text-anchor:middle;fill:#ba894f;fill-opacity:1;stroke:#7b441d;stroke-width:2.70574308;stroke-miterlimit:4;stroke-dasharray:none;stroke-opacity:1;" /></flowRegion><flowPara
         id="flowPara3761"
         style="font-style:normal;font-variant:normal;font-weight:normal;font-stretch:normal;font-size:67.07809448px;line-height:100%;font-family:'Nanum Pen Script OTF';-inkscape-font-specification:'Nanum Pen Script OTF';fill:#ba894f;fill-opacity:1;stroke:#7b441d;stroke-width:2.70574308;stroke-miterlimit:4;stroke-dasharray:none;stroke-opacity:1;">코모나 포션</flowPara><flowPara
         id="flowPara3775"
         style="font-style:normal;font-variant:normal;font-weight:normal;font-stretch:normal;font-size:67.07809448px;line-height:100%;font-family:'Nanum Pen Script OTF';-inkscape-font-specification:'Nanum Pen Script OTF';fill:#ba894f;fill-opacity:1;stroke:#7b441d;stroke-width:2.70574308;stroke-miterlimit:4;stroke-dasharray:none;stroke-opacity:1;">대회</flowPara></flowRoot>    <flowRoot
       transform="matrix(1.0855888,-0.27153323,0.83081751,1.2490193,-1351.0812,-0.90732508)"
       style="color:#000000;font-style:normal;font-variant:normal;font-weight:normal;font-stretch:normal;font-size:67.07809448px;line-height:100%;font-family:'Nanum Pen Script OTF';-inkscape-font-specification:'Nanum Pen Script OTF';text-align:center;letter-spacing:0px;word-spacing:0px;text-anchor:middle;clip-rule:nonzero;display:inline;overflow:visible;visibility:visible;opacity:1;isolation:auto;mix-blend-mode:normal;color-interpolation:sRGB;color-interpolation-filters:linearRGB;solid-color:#000000;solid-opacity:1;fill:#ba894f;fill-opacity:1;fill-rule:nonzero;stroke:#7b441d;stroke-width:3.35375702;stroke-linecap:butt;stroke-linejoin:miter;stroke-miterlimit:4;stroke-dasharray:none;stroke-dashoffset:0;stroke-opacity:1;color-rendering:auto;image-rendering:auto;shape-rendering:auto;text-rendering:auto;enable-background:accumulate;"
       id="flowRoot3351"
       xml:space="preserve"><flowRegion
         style="fill:url(#linearGradient3375);fill-opacity:1"
         id="flowRegion3353"><rect
           style="color:#000000;font-style:normal;font-variant:normal;font-weight:normal;font-stretch:normal;font-size:67.07809448px;line-height:100%;font-family:'Nanum Pen Script OTF';-inkscape-font-specification:'Nanum Pen Script OTF';text-align:center;text-anchor:middle;clip-rule:nonzero;display:inline;overflow:visible;visibility:visible;isolation:auto;mix-blend-mode:normal;color-interpolation:sRGB;color-interpolation-filters:linearRGB;solid-color:#000000;solid-opacity:1;fill:#ba894f;fill-opacity:1;fill-rule:nonzero;stroke:#7b441d;stroke-width:3.35375702;stroke-linecap:butt;stroke-linejoin:miter;stroke-miterlimit:4;stroke-dasharray:none;stroke-dashoffset:0;stroke-opacity:1;color-rendering:auto;image-rendering:auto;shape-rendering:auto;text-rendering:auto;enable-background:accumulate;"
           y="1655.0723"
           x="296.72992"
           height="779.58618"
           width="743.04053"
           id="rect3355" /></flowRegion><flowPara
         style="color:#000000;font-style:normal;font-variant:normal;font-weight:normal;font-stretch:normal;font-size:67.07809448px;line-height:100%;font-family:'Nanum Pen Script OTF';-inkscape-font-specification:'Nanum Pen Script OTF';clip-rule:nonzero;display:inline;overflow:visible;visibility:visible;isolation:auto;mix-blend-mode:normal;color-interpolation:sRGB;color-interpolation-filters:linearRGB;solid-color:#000000;solid-opacity:1;fill:#ba894f;fill-opacity:1;fill-rule:nonzero;stroke:#7b441d;stroke-width:3.35375702;stroke-linecap:butt;stroke-linejoin:miter;stroke-miterlimit:4;stroke-dasharray:none;stroke-dashoffset:0;stroke-opacity:1;color-rendering:auto;image-rendering:auto;shape-rendering:auto;text-rendering:auto;enable-background:accumulate;"
         id="flowPara3474">가장 훌륭한 포션을</flowPara><flowPara
         style="color:#000000;font-style:normal;font-variant:normal;font-weight:normal;font-stretch:normal;font-size:67.07809448px;line-height:100%;font-family:'Nanum Pen Script OTF';-inkscape-font-specification:'Nanum Pen Script OTF';clip-rule:nonzero;display:inline;overflow:visible;visibility:visible;isolation:auto;mix-blend-mode:normal;color-interpolation:sRGB;color-interpolation-filters:linearRGB;solid-color:#000000;solid-opacity:1;fill:#ba894f;fill-opacity:1;fill-rule:nonzero;stroke:#7b441d;stroke-width:3.35375702;stroke-linecap:butt;stroke-linejoin:miter;stroke-miterlimit:4;stroke-dasharray:none;stroke-dashoffset:0;stroke-opacity:1;color-rendering:auto;image-rendering:auto;shape-rendering:auto;text-rendering:auto;enable-background:accumulate;"
         id="flowPara3466">만드는 자에게</flowPara><flowPara
         style="color:#000000;font-style:normal;font-variant:normal;font-weight:normal;font-stretch:normal;font-size:67.07809448px;line-height:100%;font-family:'Nanum Pen Script OTF';-inkscape-font-specification:'Nanum Pen Script OTF';clip-rule:nonzero;display:inline;overflow:visible;visibility:visible;isolation:auto;mix-blend-mode:normal;color-interpolation:sRGB;color-interpolation-filters:linearRGB;solid-color:#000000;solid-opacity:1;fill:#ba894f;fill-opacity:1;fill-rule:nonzero;stroke:#7b441d;stroke-width:3.35375702;stroke-linecap:butt;stroke-linejoin:miter;stroke-miterlimit:4;stroke-dasharray:none;stroke-dashoffset:0;stroke-opacity:1;color-rendering:auto;image-rendering:auto;shape-rendering:auto;text-rendering:auto;enable-background:accumulate;"
         id="flowPara3468">50 000콤</flowPara><flowPara
         style="color:#000000;font-style:normal;font-variant:normal;font-weight:normal;font-stretch:normal;font-size:67.07809448px;line-height:100%;font-family:'Nanum Pen Script OTF';-inkscape-font-specification:'Nanum Pen Script OTF';clip-rule:nonzero;display:inline;overflow:visible;visibility:visible;isolation:auto;mix-blend-mode:normal;color-interpolation:sRGB;color-interpolation-filters:linearRGB;solid-color:#000000;solid-opacity:1;fill:#ba894f;fill-opacity:1;fill-rule:nonzero;stroke:#7b441d;stroke-width:3.35375702;stroke-linecap:butt;stroke-linejoin:miter;stroke-miterlimit:4;stroke-dasharray:none;stroke-dashoffset:0;stroke-opacity:1;color-rendering:auto;image-rendering:auto;shape-rendering:auto;text-rendering:auto;enable-background:accumulate;"
         id="flowPara3470">상금 수여</flowPara></flowRoot>    <flowRoot
       xml:space="preserve"
       id="flowRoot3395"
       style="color:#000000;font-style:normal;font-variant:normal;font-weight:normal;font-stretch:normal;font-size:67.07809448px;line-height:100%;font-family:'Nanum Pen Script OTF';-inkscape-font-specification:'Nanum Pen Script OTF';text-align:center;letter-spacing:0px;word-spacing:0px;text-anchor:middle;clip-rule:nonzero;display:inline;overflow:visible;visibility:visible;opacity:1;isolation:auto;mix-blend-mode:normal;color-interpolation:sRGB;color-interpolation-filters:linearRGB;solid-color:#000000;solid-opacity:1;fill:#ba894f;fill-opacity:1;fill-rule:nonzero;stroke:#7b441d;stroke-width:3.44988197;stroke-linecap:butt;stroke-linejoin:miter;stroke-miterlimit:4;stroke-dasharray:none;stroke-dashoffset:0;stroke-opacity:1;color-rendering:auto;image-rendering:auto;shape-rendering:auto;text-rendering:auto;enable-background:accumulate;"
       transform="matrix(1.0833763,-0.2426377,0.85709507,1.1876278,-1267.577,447.60934)"><flowRegion
         id="flowRegion3397"
         style="fill:url(#linearGradient3419);fill-opacity:1"><rect
           id="rect3399"
           width="943.26337"
           height="841.94098"
           x="296.72992"
           y="1655.0723"
           style="color:#000000;font-style:normal;font-variant:normal;font-weight:normal;font-stretch:normal;font-size:67.07809448px;line-height:100%;font-family:'Nanum Pen Script OTF';-inkscape-font-specification:'Nanum Pen Script OTF';text-align:center;text-anchor:middle;clip-rule:nonzero;display:inline;overflow:visible;visibility:visible;isolation:auto;mix-blend-mode:normal;color-interpolation:sRGB;color-interpolation-filters:linearRGB;solid-color:#000000;solid-opacity:1;fill:#ba894f;fill-opacity:1;fill-rule:nonzero;stroke:#7b441d;stroke-width:3.44988197;stroke-linecap:butt;stroke-linejoin:miter;stroke-miterlimit:4;stroke-dasharray:none;stroke-dashoffset:0;stroke-opacity:1;color-rendering:auto;image-rendering:auto;shape-rendering:auto;text-rendering:auto;enable-background:accumulate;" /></flowRegion><flowPara
         id="flowPara3415"
         style="color:#000000;font-style:normal;font-variant:normal;font-weight:normal;font-stretch:normal;font-size:67.07809448px;line-height:100%;font-family:'Nanum Pen Script OTF';-inkscape-font-specification:'Nanum Pen Script OTF';clip-rule:nonzero;display:inline;overflow:visible;visibility:visible;isolation:auto;mix-blend-mode:normal;color-interpolation:sRGB;color-interpolation-filters:linearRGB;solid-color:#000000;solid-opacity:1;fill:#ba894f;fill-opacity:1;fill-rule:nonzero;stroke:#7b441d;stroke-width:3.44988197;stroke-linecap:butt;stroke-linejoin:miter;stroke-miterlimit:4;stroke-dasharray:none;stroke-dashoffset:0;stroke-opacity:1;color-rendering:auto;image-rendering:auto;shape-rendering:auto;text-rendering:auto;enable-background:accumulate;">아자요일 오후 3월</flowPara><flowPara
         style="color:#000000;font-style:normal;font-variant:normal;font-weight:normal;font-stretch:normal;font-size:67.07809448px;line-height:100%;font-family:'Nanum Pen Script OTF';-inkscape-font-specification:'Nanum Pen Script OTF';clip-rule:nonzero;display:inline;overflow:visible;visibility:visible;isolation:auto;mix-blend-mode:normal;color-interpolation:sRGB;color-interpolation-filters:linearRGB;solid-color:#000000;solid-opacity:1;fill:#ba894f;fill-opacity:1;fill-rule:nonzero;stroke:#7b441d;stroke-width:3.44988197;stroke-linecap:butt;stroke-linejoin:miter;stroke-miterlimit:4;stroke-dasharray:none;stroke-dashoffset:0;stroke-opacity:1;color-rendering:auto;image-rendering:auto;shape-rendering:auto;text-rendering:auto;enable-background:accumulate;"
         id="flowPara3475">코모나 대광장 </flowPara></flowRoot>  </g>
</svg>
