<?xml version="1.0" encoding="UTF-8" standalone="no"?>
<svg
   xmlns:dc="http://purl.org/dc/elements/1.1/"
   xmlns:cc="http://creativecommons.org/ns#"
   xmlns:rdf="http://www.w3.org/1999/02/22-rdf-syntax-ns#"
   xmlns:svg="http://www.w3.org/2000/svg"
   xmlns="http://www.w3.org/2000/svg"
   xmlns:xlink="http://www.w3.org/1999/xlink"
   xmlns:sodipodi="http://sodipodi.sourceforge.net/DTD/sodipodi-0.dtd"
   xmlns:inkscape="http://www.inkscape.org/namespaces/inkscape"
   id="svg2"
   version="1.1"
   inkscape:version="1.0.2 (e86c8708, 2021-01-15)"
   width="2481"
   height="3503"
   sodipodi:docname="E36P02.svg">
  <metadata
     id="metadata8">
    <rdf:RDF>
      <cc:Work
         rdf:about="">
        <dc:format>image/svg+xml</dc:format>
        <dc:type
           rdf:resource="http://purl.org/dc/dcmitype/StillImage" />
      </cc:Work>
    </rdf:RDF>
  </metadata>
  <defs
     id="defs6">
    <rect
       x="1584.7825"
       y="3247.8259"
       width="226.08695"
       height="47.826085"
       id="rect91" />
    <filter
       x="-0.032294048"
       width="1.0625661"
       height="1.3663621"
       inkscape:label="magic-Fx-red_background"
       id="filter4375-4-1-1-1-9-5-8-8-3-3-3-6-1-3"
       style="color-interpolation-filters:sRGB"
       y="-0.13001217">
      <feFlood
         radius="5.0999999999999996"
         result="flood"
         flood-color="rgb(136,138,133)"
         flood-opacity="1"
         id="feFlood4377-7-9-0-8-1-7-3-1-6-61-6-2-0-1" />
      <feComposite
         baseFrequency="0.053999999999999999 0.053999999999999999"
         result="composite1"
         operator="in"
         in="flood"
         in2="SourceGraphic"
         id="feComposite4379-3-8-8-2-77-4-1-0-7-2-7-6-6-4" />
      <feMorphology
         result="result3"
         radius="0.96959439099754563"
         operator="dilate"
         id="feMorphology4393-1-0-49-8-9-3-0-1-5-9-5-1-3-9" />
      <feComposite
         numOctaves="4"
         result="fbSourceGraphic"
         operator="over"
         in="SourceGraphic"
         in2="result3"
         id="feComposite4385-9-5-7-0-8-8-7-5-3-3-3-8-2-2" />
      <feColorMatrix
         id="feColorMatrix4544-9-5-1-5-7-0-0"
         values="0 0 0 -1 0 0 0 0 -1 0 0 0 0 -1 0 0 0 0 1 0"
         in="fbSourceGraphic"
         result="fbSourceGraphicAlpha" />
      <feTurbulence
         result="turbulence"
         baseFrequency="0.062 0.054054054054054057"
         seed="172"
         numOctaves="4.4123222748815163"
         type="fractalNoise"
         id="feTurbulence4546-3-6-9-6-9-6-6" />
      <feDisplacementMap
         result="fbSourceGraphic"
         xChannelSelector="R"
         yChannelSelector="G"
         scale="11.642079"
         in="fbSourceGraphic"
         in2="turbulence"
         id="feDisplacementMap4548-8-2-4-2-2-1-8" />
      <feColorMatrix
         scale="10.800000000000001"
         id="feColorMatrix4670-7-9-7-9-0-5-9"
         values="0 0 0 -1 0 0 0 0 -1 0 0 0 0 -1 0 0 0 0 1 0"
         in="fbSourceGraphic"
         result="fbSourceGraphicAlpha" />
      <feComposite
         result="composite1"
         operator="in"
         in="flood"
         in2="fbSourceGraphic"
         id="feComposite4674-8-2-4-1-2-5-2" />
      <feGaussianBlur
         result="blur"
         stdDeviation="1.5865199271065846"
         in="composite1"
         id="feGaussianBlur4676-3-7-50-2-3-4-6" />
      <feOffset
         result="offset"
         dy="5.2374444725016502"
         dx="-0.42771311737301687"
         id="feOffset4678-6-0-3-7-7-7-6" />
      <feComposite
         result="composite2"
         operator="over"
         in="fbSourceGraphic"
         in2="offset"
         id="feComposite4680-4-9-6-0-5-6-4" />
      <feGaussianBlur
         stdDeviation="0.76414472307477677"
         id="feGaussianBlur58-9-9-5-9" />
      <feOffset
         dx="0"
         dy="0"
         id="feOffset60-3-2-6-5" />
    </filter>
    <filter
       style="color-interpolation-filters:sRGB"
       id="filter4375-4-1-1-1-9-5-8-3-4"
       inkscape:label="Drop Shadow"
       x="-0.0007296798"
       y="-0.0039836934"
       width="1.0149402"
       height="1.0815659">
      <feFlood
         id="feFlood4377-7-9-0-8-1-7-3-6"
         flood-opacity="1"
         flood-color="rgb(39,39,39)"
         result="flood" />
      <feComposite
         id="feComposite4379-3-8-8-2-77-4-1-7"
         in2="SourceGraphic"
         in="flood"
         operator="in"
         result="composite1" />
      <feMorphology
         id="feMorphology4393-1-0-49-8-9-3-0-5"
         operator="dilate"
         radius="6.2000000000000002"
         result="result3" />
      <feComposite
         id="feComposite4385-9-5-7-0-8-8-7-3"
         in2="result3"
         in="SourceGraphic"
         operator="over"
         result="fbSourceGraphic" />
      <feColorMatrix
         result="fbSourceGraphicAlpha"
         in="fbSourceGraphic"
         values="0 0 0 -1 0 0 0 0 -1 0 0 0 0 -1 0 0 0 0 1 0"
         id="feColorMatrix4544-5" />
      <feTurbulence
         id="feTurbulence4546-6"
         type="fractalNoise"
         numOctaves="3"
         seed="37"
         baseFrequency="0.129 0.0050000000000000001"
         result="turbulence" />
      <feDisplacementMap
         id="feDisplacementMap4548-2"
         in2="turbulence"
         in="fbSourceGraphic"
         scale="6.6"
         yChannelSelector="G"
         xChannelSelector="R"
         result="fbSourceGraphic" />
      <feColorMatrix
         result="fbSourceGraphicAlpha"
         in="fbSourceGraphic"
         values="0 0 0 -1 0 0 0 0 -1 0 0 0 0 -1 0 0 0 0 1 0"
         id="feColorMatrix4670-9-3" />
      <feFlood
         id="feFlood4672-1-0"
         flood-opacity="0.40999999999999998"
         flood-color="rgb(34,52,102)"
         result="flood"
         in="fbSourceGraphic" />
      <feComposite
         id="feComposite4674-2-3"
         in2="fbSourceGraphic"
         in="flood"
         operator="in"
         result="composite1" />
      <feGaussianBlur
         id="feGaussianBlur4676-7"
         in="composite1"
         stdDeviation="0"
         result="blur" />
      <feOffset
         id="feOffset4678-0-0"
         dx="6"
         dy="6"
         result="offset" />
      <feComposite
         id="feComposite4680-9"
         in2="offset"
         in="fbSourceGraphic"
         operator="over"
         result="composite2" />
    </filter>
  </defs>
  <sodipodi:namedview
     pagecolor="#1e1e1e"
     bordercolor="#111111"
     borderopacity="1"
     objecttolerance="10"
     gridtolerance="10"
     guidetolerance="10"
     inkscape:pageopacity="0"
     inkscape:pageshadow="2"
     inkscape:window-width="1754"
     inkscape:window-height="1094"
     id="namedview4"
     showgrid="false"
     inkscape:zoom="0.46000002"
     inkscape:cx="1342.3913"
     inkscape:cy="826.08696"
     inkscape:window-x="0"
     inkscape:window-y="25"
     inkscape:window-maximized="0"
     inkscape:current-layer="layer1"
     inkscape:pagecheckerboard="0"
     inkscape:snap-global="false"
     inkscape:document-rotation="0" />
  <g
     inkscape:groupmode="layer"
     id="layer2"
     inkscape:label="artwork"
     sodipodi:insensitive="true"
     style="display:inline">
    <image
       sodipodi:absref="/Users/gand/Documents/Pepper&amp;Carrot/ep36_The-Surprise-Attack/gfx_Pepper-and-Carrot_by-David-Revoy_E36P02.png"
       xlink:href="../gfx_Pepper-and-Carrot_by-David-Revoy_E36P02.png"
       y="0"
       x="0"
       id="image10"
       height="3503"
       width="2481" />
  </g>
  <g
     inkscape:groupmode="layer"
     id="layer3"
     inkscape:label="speechbubbles"
     style="display:inline">
    <path
       style="fill:#ffffff;fill-rule:evenodd;stroke:none;stroke-width:1.35642px;stroke-linecap:butt;stroke-linejoin:miter;stroke-opacity:1"
       d="m 1741.0313,3206.4764 c -32.5872,0.045 -95.8124,12.9419 -40.2672,49.2533 -71.545,-18.0303 -84.2256,-3.184 -91.5004,14.6812 -23.8071,-15.904 -49.056,-30.0771 -99.0294,-14.5716 -10.0155,-24.9118 -46.2909,-32.9308 -102.3816,-28.2031 47.565,-21.4739 75.5996,-41.6992 -19.7364,-54.0373 77.3315,-3.1342 97.0793,-31.1057 19.3705,-50.5371 62.5559,6.0465 80.3698,-1.0415 64.7925,-17.9317 37.7196,11.6215 68.3405,10.9419 91.4692,-2.7208 36.5199,28.3175 62.7609,26.3594 80.8509,0.3947 1.8696,43.6817 55.1332,41.1468 93.772,45.4166 -65.0978,17.0103 -13.3229,62.535 2.6599,58.2558 z"
       id="path1087"
       inkscape:connector-curvature="0"
       sodipodi:nodetypes="cccccccccccc" />
    <path
       style="color:#000000;display:inline;overflow:visible;visibility:visible;fill:#ffffff;fill-opacity:1;fill-rule:nonzero;stroke:none;stroke-width:1.25596px;marker:none;enable-background:accumulate"
       d="m 1660.5567,3199.4042 c -34.6184,0.2263 -69.9022,1.8199 -102.8188,13.0854 -20.9528,6.6629 -41.7833,16.0239 -57.3208,31.4223 -13.6025,16.6015 -14.8766,39.1321 -12.8089,59.3315 1.8685,16.3119 10.2411,31.5577 22.9686,42.4774 23.1463,21.8076 54.5232,34.4172 86.5843,37.6247 22.6926,2.6558 45.5015,4.4456 68.3116,5.833 43.8038,1.8222 87.7736,-0.8644 131.1272,-6.9764 26.5156,-4.1552 52.3521,-17.3215 67.2788,-39.2571 16.2417,-22.9342 18.3601,-52.7562 11.8955,-79.1707 -3.7061,-14.6476 -13.3296,-27.7327 -26.8722,-35.4935 -31.3922,-18.5298 -68.6629,-25.0252 -104.9946,-26.8555 -27.7642,-1.0888 -55.5566,-2.1725 -83.3507,-2.0211 z"
       id="path3525-1"
       inkscape:connector-curvature="0"
       sodipodi:nodetypes="ccccc" />
    <path
       style="display:inline;fill:#ffffff;fill-rule:evenodd;stroke:none;stroke-width:1.15535px;stroke-linecap:butt;stroke-linejoin:miter;stroke-opacity:1"
       d="m 1689.5967,3128.6539 c 0,0 -32.5032,0.5122 -35.8686,17.9644 -3.3663,17.4516 24.539,59.2603 24.539,59.2603 0,0 -45.1119,0.7369 -45.1178,48.4326 -0.01,47.6953 47.113,85.7891 43.4135,52.8962 -3.6991,-32.8931 -34.8285,-95.2011 56.3216,-84.9196 -32.3662,-27.7763 -52.1364,-60.1065 -52.668,-63.6644 -1.9951,-13.3523 30.9323,-20.3265 45.1813,-19.8929 -64.6236,-55.3255 -17.6069,-82.8485 -7.229,-135.1096 -26.5229,47.7737 -71.2674,83.4938 -28.572,125.033 z"
       id="path4394-0"
       inkscape:connector-curvature="0"
       sodipodi:nodetypes="cscsscsccc" />
    <path
       style="display:inline;fill:#ffffff;fill-rule:evenodd;stroke:none;stroke-width:1.20956px;stroke-linecap:butt;stroke-linejoin:miter;stroke-opacity:1"
       d="m 2104.571,2198.5782 c -5.805,9.3652 -10.4799,20.2228 -20.6363,26.2598 -8.2713,4.6087 -19.1543,1.3641 -25.3382,-4.9372 -4.7337,-4.3684 -9.146,-9.0289 -13.7799,-13.4886 1.8102,8.2123 2.8746,17.1629 -0.8638,25.0586 -6.6389,5.2699 -17.116,3.1589 -22.6949,-2.5176 -2.0178,-1.3789 -4.0354,-2.7578 -6.0532,-4.1367 2.382,10.4861 -0.1576,22.5651 -8.8567,29.9766 -8.5548,3.8263 -19.0613,-0.6367 -23.7443,-7.8872 -1.9157,-1.9146 -3.8313,-3.8291 -5.7469,-5.7437 4.8404,4.7151 3.4353,14.3631 -3.6607,16.3761 -9.2367,1.3432 -17.5821,-3.7639 -24.9031,-8.3516 -8.108,-5.1353 -15.5863,-11.0707 -23.1415,-16.8839 10.4265,11.2585 21.1779,23.1749 25.3177,37.9121 0.402,6.1843 -9.3866,9.6193 -13.5632,4.9278 -2.5481,-1.1485 -5.0603,-2.3646 -7.581,-3.5645 6.9071,6.3869 14.1317,13.3899 16.3733,22.5508 -3.3033,6.3366 -12.3519,7.7735 -18.8105,5.219 -2.5763,-0.4708 -5.1526,-0.9416 -7.729,-1.4124 12.6813,13.2081 20.684,31.4213 17.7548,49.3465 -3.4213,15.2174 -14.7284,27.1681 -24.4468,39.2189 -1.0024,0.8102 -1.557,2.7141 0.471,1.8858 15.8773,-2.5934 32.7089,-4.716 48.3029,0.3406 9.7342,3.7684 13.9657,16.4082 8.1163,24.6672 4.6686,-3.889 11.4117,-7.3641 17.6992,-4.8867 7.8909,3.2897 10.9074,12.183 10.2261,19.7432 -0.221,5.8807 -2.1113,11.5424 -3.8567,17.1474 7.5617,-10.3551 15.5292,-21.41 27.9113,-27.0918 7.8547,-2.2408 15.7958,6.071 13.5113,13.2207 0.1293,2.0088 3.2011,0.9918 3.3033,-0.5194 8.5877,-9.672 20.7285,-17.6764 34.5033,-18.2785 4.6317,0.5295 7.8622,5.3928 6.7339,9.5616 7.1736,-5.4657 15.9617,-10.4435 25.5793,-9.4575 13.3193,0.6157 24.7155,8.1002 34.8718,15.5392 2.707,1.9825 5.3494,4.0411 8.0146,6.0726 2.8043,-8.9364 5.6923,-18.8743 14.0608,-24.7014 9.2727,-4.6708 21.0824,-1.0511 27.7899,5.9933 5.7199,4.6637 10.597,10.131 15.6244,15.4269 2.1816,-9.7726 15.3303,-14.5942 24.5622,-10.4305 9.7546,3.7713 17.4924,10.8988 24.3893,18.1876 1.7759,2.02 3.4806,4.0937 5.1662,6.1804 -2.0142,-7.4534 -5.0558,-15.1807 -3.1513,-22.9473 4.3812,-3.6425 11.164,-1.401 14.5668,2.3765 7.1794,4.9325 13.4777,10.9285 18.9894,17.4672 -3.3068,-9.9466 3.1585,-22.239 14.3108,-24.5459 12.8794,-3.7154 26.5099,-0.4554 38.8861,3.4086 8.1516,2.7277 15.874,6.4531 23.3827,10.4635 -10.5154,-7.5463 -18.0801,-20.0775 -15.9969,-32.7604 1.8506,-8.9338 10.7051,-14.9362 19.5417,-17.3786 0.683,-0.2129 2.6047,-0.3432 1.1261,-1.1227 -5.6347,-3.8955 -13.3464,-6.4461 -15.924,-13.1184 -2.9515,-7.8087 1.7584,-16.2274 8.1078,-21.2393 5.0653,-4.1718 10.4486,-7.983 15.8468,-11.7634 -9.9794,-3.4558 -21.388,-5.4723 -28.7964,-13.2452 -2.3961,-15.6399 14.9705,-52.6335 20.6842,-56.847 -22.4457,5.3957 -21.1674,21.0464 -44.6358,19.9692 -9.8584,-1.5136 -14.8109,-13.7163 -9.5042,-21.3692 2.7499,-8.4403 7.4042,-16.1581 11.4898,-24.0625 -17.8312,5.2297 -35.4381,12.3822 -54.355,13.1172 -4.3274,-2.5234 -3.0966,-8.9796 0.8535,-11.2773 0.7162,-1.2561 2.4733,-2.2696 2.0565,-3.8848 -10.5276,6.3476 -22.0166,12.5914 -34.8614,12.957 -9.0466,-2.0389 -14.5474,-12.2569 -11.2548,-20.3535 -2.133,-2.3696 -5.3169,0.016 -7.3697,1.2506 -22.1612,10.1855 -49.0041,12.9586 -72.1933,4.1279 -18.7112,-7.1928 -34.2411,-20.3543 -45.9657,-35.6226 -0.2073,-0.1246 -0.468,-0.1831 -0.7099,-0.1231 z"
       id="path4289-9-3"
       inkscape:connector-curvature="0"
       sodipodi:nodetypes="cccccccccccccccccccccccccccccccccsccccccccccccccccccccccccccccccccc" />
    <path
       style="color:#000000;display:inline;overflow:visible;visibility:visible;fill:#ffffff;fill-opacity:1;fill-rule:nonzero;stroke:none;stroke-width:0.634675px;marker:none;enable-background:accumulate"
       d="m 2065.5689,2358.3715 c -1.019,14.0823 -77.982,87.5377 3.591,185.0685 -57.766,-96.8638 17.7385,-154.6405 29.7695,-166.83 -23.5374,-29.6642 -17.4947,-9.4644 -33.3605,-18.2385 z"
       id="path4024-3"
       inkscape:connector-curvature="0"
       sodipodi:nodetypes="cccc" />
  </g>
  <g
     inkscape:groupmode="layer"
     id="layer1"
     inkscape:label="txt"
     style="display:inline">
    <text
       transform="matrix(1.0109872,-0.19833599,-0.21684929,1.1745089,102.88627,624.18095)"
       id="text4580-6-0-0-3-3-6-2-9-8-0"
       y="1584.5073"
       x="787.65729"
       style="font-style:normal;font-variant:normal;font-weight:normal;font-stretch:normal;line-height:0;font-family:Lavi;-inkscape-font-specification:Lavi;letter-spacing:3.03024px;word-spacing:0px;opacity:0.75027;fill:#ffffff;fill-opacity:1;stroke:#837567;stroke-width:1.52377;stroke-miterlimit:4;stroke-dasharray:none;stroke-opacity:1;paint-order:stroke fill markers;filter:url(#filter4375-4-1-1-1-9-5-8-8-3-3-3-6-1-3)"
       xml:space="preserve"
       inkscape:label="FXB-3"><tspan
         style="font-style:normal;font-variant:normal;font-weight:bold;font-stretch:normal;font-size:70px;line-height:1.25;font-family:Drukah;-inkscape-font-specification:'Drukah Bold';fill:#ffffff;fill-opacity:1;stroke:#837567;stroke-width:1.52377;stroke-miterlimit:4;stroke-dasharray:none;stroke-opacity:1;paint-order:stroke fill markers"
         y="1584.5073"
         x="787.65729"
         id="tspan4582-1-1-0-6-9-0-8-3-4-4"
         sodipodi:role="line"><tspan
   style="letter-spacing:-3.73913px"
   id="tspan19018">Fs</tspan>ch<tspan
   style="font-size:59.826px"
   id="tspan39837">h…</tspan></tspan></text>
    <text
       id="text4246-5-8"
       y="3199.8108"
       x="1580.7535"
       style="font-style:normal;font-variant:normal;font-weight:normal;font-stretch:normal;font-size:53.7995px;line-height:0%;font-family:Lavi;-inkscape-font-specification:Lavi;text-align:center;letter-spacing:0px;word-spacing:0px;text-anchor:middle;fill:#000000;fill-opacity:1;stroke:none;stroke-width:1.05513"
       xml:space="preserve"
       inkscape:label="kingB"><tspan
         y="3199.8108"
         x="1580.7535"
         style="font-style:normal;font-variant:normal;font-weight:bold;font-stretch:normal;font-size:53.7995px;line-height:1.25;font-family:Lavi;-inkscape-font-specification:'Lavi Bold';stroke-width:1.05513"
         sodipodi:role="line"
         id="tspan858">Accidenti!</tspan></text>
    <text
       id="text4246-5-8-3"
       y="3270.23"
       x="1686.7274"
       style="font-style:normal;font-variant:normal;font-weight:normal;font-stretch:normal;font-size:45px;line-height:0%;font-family:Lavi;-inkscape-font-specification:Lavi;text-align:center;letter-spacing:0px;word-spacing:0px;text-anchor:middle;fill:#000000;fill-opacity:1;stroke:none;stroke-width:0.88255"
       xml:space="preserve"
       inkscape:label="kingB"><tspan
         y="3270.23"
         x="1686.7274"
         style="font-style:normal;font-variant:normal;font-weight:bold;font-stretch:normal;font-size:45px;line-height:1.25;font-family:Lavi;-inkscape-font-specification:'Lavi Bold';stroke-width:0.88255"
         sodipodi:role="line"
         id="tspan39734">Qui dentro non</tspan><tspan
         y="3326.48"
         x="1686.7274"
         style="font-style:normal;font-variant:normal;font-weight:bold;font-stretch:normal;font-size:45px;line-height:1.25;font-family:Lavi;-inkscape-font-specification:'Lavi Bold';stroke-width:0.88255"
         sodipodi:role="line"
         id="tspan97">posso fare nulla!</tspan></text>
    <text
       xml:space="preserve"
       style="font-style:normal;font-variant:normal;font-weight:normal;font-stretch:normal;line-height:0%;font-family:Lavi;-inkscape-font-specification:Lavi;text-align:center;letter-spacing:0px;word-spacing:0px;text-anchor:middle;fill:#000000;fill-opacity:1;stroke:none"
       x="2138.511"
       y="2317.1406"
       id="text4246-7-6-4-6-4-5-6"
       inkscape:label="kingB"><tspan
         sodipodi:role="line"
         style="font-style:normal;font-variant:normal;font-weight:bold;font-stretch:normal;font-size:45px;line-height:1.25;font-family:Lavi;-inkscape-font-specification:'Lavi Bold'"
         x="2138.511"
         y="2317.1406"
         id="tspan48834">Maledetta prigione</tspan><tspan
         sodipodi:role="line"
         style="font-style:normal;font-variant:normal;font-weight:bold;font-stretch:normal;font-size:45px;line-height:1.25;font-family:Lavi;-inkscape-font-specification:'Lavi Bold'"
         x="2138.511"
         y="2373.3906"
         id="tspan50694">magica! Grrrr!</tspan></text>
    <text
       xml:space="preserve"
       style="font-style:normal;font-variant:normal;font-weight:normal;font-stretch:normal;line-height:0%;font-family:Lavi;-inkscape-font-specification:Lavi;letter-spacing:0px;word-spacing:0px;display:inline;fill:#ffffff;fill-opacity:1;stroke:#000000;stroke-width:0.649528;stroke-miterlimit:4;stroke-dasharray:none;stroke-opacity:1;filter:url(#filter4375-4-1-1-1-9-5-8-3-4)"
       x="787.65729"
       y="1584.5073"
       id="text4580-6-0-3"
       transform="matrix(0.56396936,0.29200899,-0.49083985,0.74440634,2292.4537,1543.4282)"
       inkscape:transform-center-x="-5.9254429"
       inkscape:transform-center-y="0.58615246"><tspan
         sodipodi:role="line"
         id="tspan4582-1-1-6"
         x="787.65729"
         y="1584.5073"
         style="font-style:normal;font-variant:normal;font-weight:normal;font-stretch:normal;font-size:70px;line-height:1.25;font-family:Combah;-inkscape-font-specification:Combah;fill:#ffffff;fill-opacity:1;stroke:#000000;stroke-width:0.649528;stroke-opacity:1"><tspan
           style="font-style:normal;font-variant:normal;font-weight:normal;font-stretch:normal;font-size:93.1495px;font-family:Combah;-inkscape-font-specification:Combah;fill:#ffffff;fill-opacity:1;stroke:#000000;stroke-width:0.649528;stroke-opacity:1"
           id="tspan4315-8-0">SDANG</tspan><tspan
           style="font-style:normal;font-variant:normal;font-weight:normal;font-stretch:normal;font-size:114.732px;font-family:Combah;-inkscape-font-specification:Combah;fill:#ffffff;fill-opacity:1;stroke:#000000;stroke-width:0.649528;stroke-opacity:1"
           id="tspan4313-2-6">!</tspan></tspan></text>
    <text
       xml:space="preserve"
       id="text89"
       style="line-height:1.25;font-family:sans-serif;font-size:40px;letter-spacing:0px;white-space:pre;shape-inside:url(#rect91);" />
  </g>
</svg>
