<?xml version="1.0" encoding="UTF-8" standalone="no"?>
<svg
   xmlns:dc="http://purl.org/dc/elements/1.1/"
   xmlns:cc="http://creativecommons.org/ns#"
   xmlns:rdf="http://www.w3.org/1999/02/22-rdf-syntax-ns#"
   xmlns:svg="http://www.w3.org/2000/svg"
   xmlns="http://www.w3.org/2000/svg"
   xmlns:xlink="http://www.w3.org/1999/xlink"
   xmlns:sodipodi="http://sodipodi.sourceforge.net/DTD/sodipodi-0.dtd"
   xmlns:inkscape="http://www.inkscape.org/namespaces/inkscape"
   sodipodi:docname="E35P06.svg"
   height="3503"
   width="2481"
   inkscape:version="0.92.5 (2060ec1f9f, 2020-04-08)"
   version="1.1"
   id="svg2">
  <metadata
     id="metadata8">
    <rdf:RDF>
      <cc:Work
         rdf:about="">
        <dc:format>image/svg+xml</dc:format>
        <dc:type
           rdf:resource="http://purl.org/dc/dcmitype/StillImage" />
        <dc:title />
      </cc:Work>
    </rdf:RDF>
  </metadata>
  <defs
     id="defs6" />
  <sodipodi:namedview
     inkscape:pagecheckerboard="0"
     inkscape:snap-global="false"
     inkscape:document-rotation="0"
     inkscape:current-layer="layer1"
     inkscape:window-maximized="1"
     inkscape:window-y="27"
     inkscape:window-x="0"
     inkscape:cy="436.1971"
     inkscape:cx="1475.2341"
     inkscape:zoom="0.37194738"
     showgrid="false"
     id="namedview4"
     inkscape:window-height="704"
     inkscape:window-width="1366"
     inkscape:pageshadow="2"
     inkscape:pageopacity="0"
     guidetolerance="10"
     gridtolerance="10"
     objecttolerance="10"
     borderopacity="1"
     bordercolor="#666666"
     pagecolor="#ffffff" />
  <g
     sodipodi:insensitive="true"
     inkscape:label="artwork"
     id="layer2"
     inkscape:groupmode="layer">
    <image
       sodipodi:absref="/home/juanjo/Comics/lang-ep-35/es/../gfx_Pepper-and-Carrot_by-David-Revoy_E35P06.png"
       xlink:href="../gfx_Pepper-and-Carrot_by-David-Revoy_E35P06.png"
       y="0"
       x="0"
       id="image10"
       height="3503"
       width="2481" />
  </g>
  <g
     style="display:inline"
     inkscape:label="speechbubbles"
     id="layer3"
     inkscape:groupmode="layer">
    <path
       sodipodi:nodetypes="csssssssc"
       inkscape:connector-curvature="0"
       id="path3286-6"
       d="m 597.96068,160.84744 c -14.81203,0.35906 -29.59536,1.58324 -44.32055,3.18961 -22.73915,2.68101 -45.47362,7.11737 -66.80007,15.74428 -25.32111,11.16039 -44.21506,35.42846 -50.23008,62.71473 -9.5769,32.57652 -10.36364,68.33226 0.60858,100.71465 7.20968,19.97047 23.32382,35.66131 41.90267,44.84666 30.08352,15.33581 63.70793,23.54614 97.35189,23.13613 20.42929,0.0734 40.87103,-0.70966 61.21784,-2.5379 24.93375,-2.515 50.02306,-8.83623 71.42233,-22.47603 14.22517,-9.1379 25.75044,-22.84859 31.44566,-39.04904 5.04454,-13.67384 5.98325,-28.49396 5.40435,-42.98032 -0.38885,-24.57618 -1.32497,-49.6096 -8.9635,-73.16461 -5.1344,-15.21837 -16.24685,-27.75305 -29.21705,-36.64947 -8.91509,-6.11459 -18.86935,-10.39524 -28.71001,-14.68774 -23.43866,-9.77309 -48.2729,-16.31876 -73.52875,-18.44228 -2.52381,-0.19477 -5.05313,-0.31108 -7.58331,-0.35867 z"
       style="fill:#ffffff;stroke:none;stroke-width:0.91201657" />
    <path
       sodipodi:nodetypes="cccccccccccccccccccccccc"
       id="path961"
       d="m -11.698607,1502.9614 c 51.671605,0.9709 44.825595,18.9206 26.217409,40.2832 14.315052,-1.4369 47.794908,-21.2257 27.9428,10.0555 43.347104,-11.3646 61.654608,15.5887 58.132288,27.1509 21.29184,-3.9803 43.12634,-0.6376 20.91177,40.2724 21.45979,-9.167 40.25911,-36.8642 37.8152,7.2244 17.373,-5.4725 40.19893,-26.5581 43.09584,9.4172 22.96522,-17.7601 45.78116,-32.9121 66.30011,-7.9194 21.34182,-36.1747 42.88562,-23.3546 57.48179,12.4772 6.85781,-43.4296 47.56404,-25.9104 73.11361,19.5777 -8.11238,-37.6335 -42.55962,-89.6447 59.74244,-13.5228 -43.41388,-55.9177 -48.7434,-77.4348 79.21239,-15.7856 -16.3283,-22.6503 -42.83521,-77.1061 61.54663,-18.4508 -70.84476,-67.3048 -29.04592,-74.4012 21.89719,-86.5626 -61.86255,-1.7957 -80.09865,-19.4105 -14.07564,-26.8793 -101.16591,-8.7403 -76.67255,-30.4201 -44.47107,-66.7128 -51.76898,27.6916 -44.34264,11.5769 -31.93148,-3.1512 -92.01133,29.1003 -53.6363,-16.958 -45.14016,-34.9119 -45.19357,19.0141 -59.19969,16.8415 -54.95373,-11.8494 -25.08764,24.5753 -51.62533,23.9494 -49.2365,14.2836 l -63.22769,-8.2257 -300.841611,5.4155 -13.183061,88.2476 c 79.360748,-4.1891 31.105847,14.6958 -16.348525,19.5663 z"
       style="display:inline;fill:#ffffff;fill-rule:evenodd;stroke:none;stroke-width:1.42426455px;stroke-linecap:butt;stroke-linejoin:miter;stroke-opacity:1"
       inkscape:connector-curvature="0" />
    <path
       inkscape:connector-curvature="0"
       id="path3525-0"
       d="m 636.91226,2285.3556 c -6.14462,-35.9524 10.24132,-131.4529 136.2082,-123.5877 125.96687,7.8642 146.44933,52.8058 149.52165,66.2874 3.0723,13.4827 29.69948,89.8831 -68.61607,110.1061 -98.31575,20.2239 -186.39007,-1.1239 -217.11378,-52.8058 z"
       style="color:#000000;display:inline;overflow:visible;visibility:visible;fill:#ffffff;fill-opacity:1;fill-rule:nonzero;stroke:none;stroke-width:0.906224px;marker:none;enable-background:accumulate" />
    <path
       inkscape:connector-curvature="0"
       id="path3072-56"
       d="m 777.45911,2075.5812 c 24.221,32.672 31.0089,45.658 8.1243,87.146 -22.8847,41.487 -7.3195,49.577 -7.3195,49.577 l 28.2503,-15.376 c 0,0 42.659,-91.848 -29.0551,-121.347 z"
       style="color:#000000;display:inline;overflow:visible;visibility:visible;fill:#ffffff;fill-opacity:1;fill-rule:nonzero;stroke:none;stroke-width:1px;marker:none;enable-background:accumulate" />
    <path
       sodipodi:nodetypes="ccccc"
       inkscape:connector-curvature="0"
       id="path3072-5-5"
       d="m 787.3973,441.92617 c -47.0829,-20.24287 -67.22496,-54.55991 -84.15983,-115.70701 -17.59681,-45.717 -36.07245,-33.52653 -36.07245,-33.52653 l 6.37734,17.91035 c 0,0 -3.04742,117.01808 113.85494,131.32319 z"
       style="color:#000000;display:inline;overflow:visible;visibility:visible;fill:#ffffff;fill-opacity:1;fill-rule:nonzero;stroke:none;stroke-width:1px;marker:none;enable-background:accumulate" />
    <path
       sodipodi:nodetypes="csccssscc"
       inkscape:connector-curvature="0"
       id="path3282-7"
       d="m 393.56677,1606.3671 c 21.51156,33.7205 38.79051,39.1501 50.26035,53.0664 11.46981,13.9172 -2.88402,43.4737 0.19353,53.5399 3.70439,9.4958 0.69509,16.2497 29.83986,39.4536 -46.26,-20.9908 -40.86354,-33.0957 -44.26871,-41.9175 -4.68096,-12.128 3.84885,-26.4644 -8.51834,-37.4754 -11.9791,-10.667 -55.59571,-40.8524 -64.07404,-63.4543 -8.47865,-22.6019 -12.84256,-23.9886 -12.84256,-23.9886 z"
       style="display:inline;fill:#ffffff;fill-opacity:1;stroke:none;stroke-width:1.10947" />
  </g>
  <g
     inkscape:label="txt"
     id="layer1"
     inkscape:groupmode="layer">
    <text
       id="text4246-3-2-2"
       y="238.04738"
       x="583.06763"
       style="font-style:normal;font-variant:normal;font-weight:normal;font-stretch:normal;font-size:45px;line-height:1.25;font-family:Lavi;-inkscape-font-specification:Lavi;text-align:center;letter-spacing:0px;word-spacing:0px;text-anchor:middle;fill:#000000;fill-opacity:1;stroke:none"
       xml:space="preserve"><tspan
         id="tspan868"
         y="238.04738"
         x="590.09888"
         sodipodi:role="line"
         style="font-size:45px">¡La cueva </tspan><tspan
         id="tspan870"
         y="294.29736"
         x="590.09888"
         sodipodi:role="line"
         style="font-size:45px">del Lago de </tspan><tspan
         id="tspan872"
         y="350.54736"
         x="583.06763"
         sodipodi:role="line"
         style="font-size:45px">los Cuernos!</tspan><tspan
         id="tspan905"
         y="406.79736"
         x="583.06763"
         sodipodi:role="line"
         style="font-size:45px" /></text>
    <text
       id="text4246-3-2-2-3"
       y="1511.3002"
       x="328.00537"
       style="font-style:normal;font-variant:normal;font-weight:normal;font-stretch:normal;font-size:45px;line-height:1.25;font-family:Lavi;-inkscape-font-specification:Lavi;text-align:center;letter-spacing:0px;word-spacing:0px;text-anchor:middle;fill:#000000;fill-opacity:1;stroke:none"
       xml:space="preserve"><tspan
         id="tspan916"
         y="1511.3002"
         x="335.03662"
         sodipodi:role="line"
         style="font-size:45px">¡Carrot, es </tspan><tspan
         id="tspan880"
         y="1567.5502"
         x="328.00537"
         sodipodi:role="line"
         style="font-size:45px">nuestra oportunidad!</tspan></text>
    <text
       id="text4246-3-2-2-3-5"
       y="2235.9109"
       x="781.18762"
       style="font-style:normal;font-variant:normal;font-weight:normal;font-stretch:normal;font-size:45px;line-height:1.25;font-family:Lavi;-inkscape-font-specification:Lavi;text-align:center;letter-spacing:0px;word-spacing:0px;text-anchor:middle;fill:#000000;fill-opacity:1;stroke:none"
       xml:space="preserve"><tspan
         id="tspan958"
         y="2235.9109"
         x="781.18762"
         sodipodi:role="line"
         style="font-size:45px"> Conozco</tspan><tspan
         id="tspan884"
         y="2292.1609"
         x="781.18762"
         sodipodi:role="line"
         style="font-size:45px">esta gruta.</tspan></text>
    <text
       id="text4246-3-2-2-3-5-9"
       y="2549.3845"
       x="201.94211"
       style="font-style:normal;font-variant:normal;font-weight:normal;font-stretch:normal;font-size:45px;line-height:1.25;font-family:Lavi;-inkscape-font-specification:Lavi;text-align:center;letter-spacing:0px;word-spacing:0px;text-anchor:middle;fill:#ffffff;fill-opacity:1;stroke:none"
       xml:space="preserve"><tspan
         id="tspan924"
         y="2549.3845"
         x="201.94211"
         sodipodi:role="line"
         style="font-size:45px;text-align:start;text-anchor:start;fill:#ffffff">Es un largo pasadizo que acaba en una</tspan><tspan
         id="tspan889"
         y="2605.6345"
         x="201.94211"
         sodipodi:role="line"
         style="font-size:45px;text-align:start;text-anchor:start;fill:#ffffff">cavidad creada por un terreno que ha cedido.</tspan></text>
    <text
       id="text4246-3-2-2-3-5-9-7"
       y="3059.7258"
       x="1335.3069"
       style="font-style:normal;font-variant:normal;font-weight:normal;font-stretch:normal;font-size:45px;line-height:1.25;font-family:Lavi;-inkscape-font-specification:Lavi;text-align:center;letter-spacing:0px;word-spacing:0px;text-anchor:middle;fill:#ffffff;fill-opacity:1;stroke:none"
       xml:space="preserve"><tspan
         id="tspan879"
         y="3059.7258"
         x="1349.3694"
         sodipodi:role="line"
         style="font-size:45px;text-align:end;text-anchor:end;fill:#ffffff"> Las estalactitas de ese terreno hundido </tspan><tspan
         id="tspan899"
         y="3115.9758"
         x="1335.3069"
         sodipodi:role="line"
         style="font-size:45px;text-align:end;text-anchor:end;fill:#ffffff">forman un muro de pinchos. ¡Es una trampa mortal!</tspan></text>
    <text
       id="text4246-3-2-2-3-5-9-7-3"
       y="2753.425"
       x="1482.9749"
       style="font-style:normal;font-variant:normal;font-weight:normal;font-stretch:normal;font-size:45px;line-height:1.25;font-family:Lavi;-inkscape-font-specification:Lavi;text-align:center;letter-spacing:0px;word-spacing:0px;text-anchor:middle;fill:#000000;fill-opacity:1;stroke:none"
       xml:space="preserve"><tspan
         id="tspan888"
         y="2753.425"
         x="1482.9749"
         sodipodi:role="line"
         style="font-size:45px;text-align:start;text-anchor:start;fill:#ffffff">Hay una pequeña abertura </tspan><tspan
         id="tspan906"
         y="2809.675"
         x="1482.9749"
         sodipodi:role="line"
         style="font-size:45px;text-align:start;text-anchor:start;fill:#ffffff">lo suficientemente grande </tspan><tspan
         id="tspan908"
         y="2865.925"
         x="1482.9749"
         sodipodi:role="line"
         style="font-size:45px;text-align:start;text-anchor:start;fill:#ffffff">para que podamos escapar,</tspan></text>
    <text
       id="text4246-3-2-2-3-5-9-7-3-3"
       y="3223.4587"
       x="2301.0408"
       style="font-style:normal;font-variant:normal;font-weight:normal;font-stretch:normal;font-size:45px;line-height:1.25;font-family:Lavi;-inkscape-font-specification:Lavi;text-align:center;letter-spacing:0px;word-spacing:0px;text-anchor:middle;fill:#000000;fill-opacity:1;stroke:none;stroke-width:1.25014997"
       xml:space="preserve"><tspan
         id="tspan895"
         y="3223.4587"
         x="2301.0408"
         sodipodi:role="line"
         style="font-size:45px;text-align:end;text-anchor:end;fill:#ffffff;stroke-width:1.25014997">pero este dragón no podrá parar</tspan><tspan
         id="tspan898"
         y="3279.7087"
         x="2315.1033"
         sodipodi:role="line"
         style="font-size:45px;text-align:end;text-anchor:end;fill:#ffffff;stroke-width:1.25014997">a tiempo y chocará contra el muro </tspan><tspan
         id="tspan927"
         y="3335.9587"
         x="2301.0408"
         sodipodi:role="line"
         style="font-size:45px;text-align:end;text-anchor:end;fill:#ffffff;stroke-width:1.25014997">¡a toda velocidad! ¡Muajajaja!</tspan></text>
  </g>
</svg>
