<?xml version="1.0" encoding="UTF-8" standalone="no"?>
<svg
   xmlns:dc="http://purl.org/dc/elements/1.1/"
   xmlns:cc="http://creativecommons.org/ns#"
   xmlns:rdf="http://www.w3.org/1999/02/22-rdf-syntax-ns#"
   xmlns:svg="http://www.w3.org/2000/svg"
   xmlns="http://www.w3.org/2000/svg"
   xmlns:xlink="http://www.w3.org/1999/xlink"
   xmlns:sodipodi="http://sodipodi.sourceforge.net/DTD/sodipodi-0.dtd"
   xmlns:inkscape="http://www.inkscape.org/namespaces/inkscape"
   sodipodi:docname="E35P07.svg"
   height="3503"
   width="2481"
   inkscape:version="0.92.5 (2060ec1f9f, 2020-04-08)"
   version="1.1"
   id="svg2">
  <metadata
     id="metadata8">
    <rdf:RDF>
      <cc:Work
         rdf:about="">
        <dc:format>image/svg+xml</dc:format>
        <dc:type
           rdf:resource="http://purl.org/dc/dcmitype/StillImage" />
        <dc:title />
      </cc:Work>
    </rdf:RDF>
  </metadata>
  <defs
     id="defs6">
    <filter
       height="1.0447156"
       width="1.0467294"
       y="-0.0023842071"
       x="-0.044353127"
       inkscape:label="soundFX1"
       id="filter4375-4-1-1-1-9-5-8-8-5-5-3-8"
       style="color-interpolation-filters:sRGB">
      <feFlood
         result="flood"
         flood-color="rgb(255,255,255)"
         flood-opacity="1"
         id="feFlood4377-7-9-0-8-1-7-3-1-2-7-6-7" />
      <feComposite
         baseFrequency="0.053999999999999999 0.053999999999999999"
         result="composite1"
         operator="in"
         in="flood"
         in2="SourceGraphic"
         id="feComposite4379-3-8-8-2-77-4-1-0-6-4-7-9" />
      <feMorphology
         result="result3"
         radius="2.9756367599225957"
         operator="dilate"
         id="feMorphology4393-1-0-49-8-9-3-0-1-9-9-5-2" />
      <feComposite
         result="fbSourceGraphic"
         operator="over"
         in="SourceGraphic"
         in2="result3"
         id="feComposite4385-9-5-7-0-8-8-7-5-4-9-3-0" />
      <feColorMatrix
         id="feColorMatrix4544-9-4-4-5-2"
         values="0 0 0 -1 0 0 0 0 -1 0 0 0 0 -1 0 0 0 0 1 0"
         in="fbSourceGraphic"
         result="fbSourceGraphicAlpha" />
      <feTurbulence
         result="turbulence"
         baseFrequency="0.053999999999999999 0.054054054054054057"
         seed="174"
         numOctaves="5"
         type="fractalNoise"
         id="feTurbulence4546-3-6-5-6-3" />
      <feDisplacementMap
         result="fbSourceGraphic"
         xChannelSelector="R"
         yChannelSelector="G"
         scale="6.6"
         in="fbSourceGraphic"
         in2="turbulence"
         id="feDisplacementMap4548-8-0-9-2-7" />
      <feColorMatrix
         id="feColorMatrix4670-7-7-3-9-5"
         values="0 0 0 -1 0 0 0 0 -1 0 0 0 0 -1 0 0 0 0 1 0"
         in="fbSourceGraphic"
         result="fbSourceGraphicAlpha" />
      <feFlood
         in="fbSourceGraphic"
         result="flood"
         flood-color="rgb(255,255,255)"
         flood-opacity="1"
         id="feFlood4672-4-4-5-1-9" />
      <feComposite
         result="composite1"
         operator="in"
         in="flood"
         in2="fbSourceGraphic"
         id="feComposite4674-8-3-7-2-22" />
      <feGaussianBlur
         result="blur"
         stdDeviation="0"
         in="composite1"
         id="feGaussianBlur4676-3-7-08-7-8" />
      <feOffset
         result="offset"
         dy="6"
         dx="-6.3258232761971414"
         id="feOffset4678-6-9-1-0-9" />
      <feComposite
         result="composite2"
         operator="over"
         in="fbSourceGraphic"
         in2="offset"
         id="feComposite4680-4-0-9-9-7" />
    </filter>
  </defs>
  <sodipodi:namedview
     inkscape:pagecheckerboard="0"
     inkscape:snap-global="false"
     inkscape:document-rotation="0"
     inkscape:current-layer="layer1"
     inkscape:window-maximized="1"
     inkscape:window-y="27"
     inkscape:window-x="0"
     inkscape:cy="748.21839"
     inkscape:cx="1297.2756"
     inkscape:zoom="0.3271162"
     showgrid="false"
     id="namedview4"
     inkscape:window-height="704"
     inkscape:window-width="1366"
     inkscape:pageshadow="2"
     inkscape:pageopacity="0"
     guidetolerance="10"
     gridtolerance="10"
     objecttolerance="10"
     borderopacity="1"
     bordercolor="#666666"
     pagecolor="#ffffff" />
  <g
     sodipodi:insensitive="true"
     inkscape:label="artwork"
     id="layer2"
     inkscape:groupmode="layer">
    <image
       sodipodi:absref="/home/juanjo/Comics/lang-ep-35/es/../gfx_Pepper-and-Carrot_by-David-Revoy_E35P07.png"
       xlink:href="../gfx_Pepper-and-Carrot_by-David-Revoy_E35P07.png"
       y="0"
       x="0"
       id="image10"
       height="3503"
       width="2481" />
  </g>
  <g
     inkscape:label="speechbubbles"
     id="layer3"
     inkscape:groupmode="layer">
    <path
       sodipodi:nodetypes="csssc"
       inkscape:connector-curvature="0"
       id="path3280-8"
       d="m 2008.0636,260.05078 c -27.272,0.63805 -54.9141,11.34024 -75.0278,32.6875 -19.3262,20.78964 -31.2833,49.02154 -37.5666,78.09168 -4.2534,19.2146 -6.5423,39.82592 -1.5129,59.15283 6.0533,22.47178 21.0595,40.68173 38.6532,52.43274 26.0551,17.7576 57.0286,24.31775 87.1376,23.22087 31.5412,-0.8659 63.3442,-3.90683 93.7628,-13.91031 15.646,-5.77776 30.8181,-16.09684 39.5715,-32.36245 8.1929,-15.12264 10.2387,-33.44928 9.1823,-50.88476 -0.9169,-29.35963 -8.6614,-58.32322 -22.0262,-83.45897 -9.6393,-18.52769 -21.6302,-36.35246 -38.1265,-47.55439 -14.2231,-9.86954 -31.0045,-13.01382 -47.3176,-14.98265 -15.5056,-2.02151 -31.1339,-2.48281 -46.7298,-2.43209 z"
       style="fill:#ffffff;stroke:none;stroke-width:0.97981763" />
    <path
       sodipodi:nodetypes="cccc"
       inkscape:connector-curvature="0"
       id="path4186"
       d="m 1945.2471,432.07438 c -6.2176,11.12141 -85.6078,33.31577 -108.1931,83.17757 30.1276,-36.25015 118.0705,-48.01797 132.9745,-62.07815 51.3058,-16.19189 -3.5494,-23.72277 -24.7814,-21.09942 z"
       style="fill:#ffffff;fill-rule:evenodd;stroke:none;stroke-width:0.93479598px;stroke-linecap:butt;stroke-linejoin:miter;stroke-opacity:1" />
    <path
       inkscape:connector-curvature="0"
       id="path4667"
       d="m 1557.7613,1692.8906 134.1326,-31.6108 -24.0947,-23.8017 91.2177,-24.1969 -16.3502,-24.7111 -106.501,38.013 26.5589,28.0558 z"
       style="fill:#ffffff;fill-rule:evenodd;stroke:none;stroke-width:1px;stroke-linecap:butt;stroke-linejoin:miter;stroke-opacity:1" />
    <path
       sodipodi:nodetypes="ccccccccccccccccccc"
       inkscape:connector-curvature="0"
       id="path3549-3-7-8"
       d="m 395.17951,3167.8318 c -8.08185,18.6619 -58.1262,10.3174 -74.90657,6.0688 33.8253,21.9362 32.64605,35.0172 -13.27916,35.9167 74.43189,33.4978 18.71844,34.0668 -4.8853,28.9926 38.16325,17.7527 40.42909,33.9683 1.61318,42.1393 69.50774,2.2759 52.68092,15.2452 26.36538,33.8563 30.77515,-11.85 78.24893,-19.7446 79.93335,13.2682 44.59075,-27.7008 67.59742,-26.571 83.72224,6.3976 13.46926,-27.7524 59.33284,-32.0237 76.87009,-1.3015 15.10723,-40.6183 69.01154,-33.5147 101.09884,-12.8552 -18.01232,-14.4659 -5.72958,-37.249 55.68082,-31.0622 -4.94297,-12.9748 2.83033,-29.0046 33.8419,-26.096 -35.72149,-8.6461 -42.30475,-16.8174 24.02192,-23.7957 -50.47073,-2.0802 -97.53506,-4.9518 -38.32192,-32.8773 -18.57676,-1.1704 -65.51024,30.7099 -44.96061,-40.548 -54.40739,19.8167 -108.72086,20.7746 -105.90805,-23.6066 -20.22719,23.5432 -55.31079,34.5732 -70.57398,4.1646 -12.59976,27.7421 -50.87,15.049 -70.75072,-4.5901 -13.13619,18.6771 -21.77412,52.7905 -59.56141,25.9285 z"
       style="color:#000000;display:inline;overflow:visible;visibility:visible;fill:#ffffff;fill-opacity:1;fill-rule:nonzero;stroke:none;stroke-width:1.19238px;marker:none;enable-background:accumulate" />
    <path
       sodipodi:nodetypes="ccccccccccccccccccc"
       inkscape:connector-curvature="0"
       id="path3549-3-7"
       d="m 399.13538,2971.7241 c 46.32515,46.6958 -46.64465,30.4543 -64.47731,24.0162 46.60885,16.4345 36.15885,43.8191 -12.15421,52.4096 83.41343,44.9742 17.99328,59.9513 1.52468,60.609 55.34989,18.9496 43.23007,33.4731 33.37585,56.9499 108.22594,-26.8552 32.7357,46.2035 32.8367,77.4707 5.39337,-14.0641 88.24141,-146.4956 32.55749,-9.2072 42.08041,-45.484 92.76518,-74.8643 96.78971,4.7328 16.9549,-40.0433 33.85891,-56.9669 32.55748,-9.2073 42.00893,-62.1175 102.93902,-45.7552 140.9136,-28.1985 -49.30569,-47.1673 -19.25749,-43.654 35.52013,-30.5302 -63.73259,-32.3441 -58.32111,-47.1121 15.67921,-43.2174 -32.69525,-11.2255 -38.7209,-22.8046 21.98688,-35.2653 -46.65392,-2.0316 -97.89403,-19.2028 -35.07541,-46.1693 -23.6592,2.3658 -112.10967,-3.2773 -38.53577,-69.3398 -57.74393,24.8605 -117.18724,34.9112 -99.55184,-18.0328 -49.22387,32.1536 -54.3857,51.6485 -64.59512,8.5439 -17.41005,37.4088 -40.02277,14.2383 -64.75692,-4.1082 17.99826,29.2486 -22.20424,46.494 -64.59515,8.5439 z"
       style="color:#000000;display:inline;overflow:visible;visibility:visible;fill:#ffffff;fill-opacity:1;fill-rule:nonzero;stroke:none;stroke-width:1.09607px;marker:none;enable-background:accumulate" />
    <path
       sodipodi:nodetypes="csccccscccc"
       inkscape:connector-curvature="0"
       id="path1089"
       d="m 559.65143,2966.4499 c 7.81388,-49.8207 8.23157,-62.9667 6.02019,-75.0728 -2.2114,-12.106 -16.03862,-8.1385 -26.02653,-3.643 -6.53887,2.9161 -28.34548,24.9309 -13.34891,-11.2886 14.99673,-36.2194 33.04009,-86.6247 37.65555,-102.5126 -15.5946,27.8024 -42.45502,71.0937 -50.25242,84.9947 -7.79723,13.9012 -19.54665,39.459 -22.39666,47.151 -3.46707,9.3577 -1.1372,19.0591 14.63013,17.8664 24.66487,-3.6362 41.86312,-37.8298 13.23772,21.5203 -28.62567,59.3501 4.95095,150.5651 4.95095,150.5651 z"
       style="fill:#ffffff;fill-rule:evenodd;stroke:none;stroke-width:1.61403px;stroke-linecap:butt;stroke-linejoin:miter;stroke-opacity:1" />
    <path
       sodipodi:nodetypes="ccccccccccccccccccc"
       inkscape:connector-curvature="0"
       id="path3549-3-7-8-6"
       d="m 1780.0596,1475.8847 c -3.6235,41.1502 -72.2754,14.5169 -104.8763,4.0415 38.8567,23.1861 68.3527,54.1372 -17.2759,52.1926 96.157,41.0933 31.8736,39.0828 16.3748,49.5021 75.501,14.1619 53.8025,32.2972 5.3405,42.1635 86.7809,0.6027 65.7727,15.0664 32.9173,35.8801 38.4233,-13.6267 97.6946,-23.4255 99.7977,12.2022 55.6719,-31.1238 84.3961,-30.5176 104.5281,4.6769 16.8165,-30.3484 74.0775,-36.1891 95.9729,-3.4597 18.8617,-44.2947 86.1617,-38.0585 126.2229,-16.5914 -22.4884,-15.1506 -7.1533,-40.0975 69.5183,-35.0524 -6.1714,-13.8884 3.5337,-31.4175 42.2518,-29.1028 -44.5987,-8.3887 -52.8178,-17.0425 29.9916,-26.3547 -63.0131,-0.8998 -121.7735,-2.7457 -47.8452,-34.503 -23.1933,-0.7685 -78.222,25.7308 -52.5655,-51.8179 -67.9282,22.8666 -139.3074,34.5563 -135.7956,-13.4763 -25.2539,25.9806 -69.0561,38.8363 -88.1122,6.3853 -15.7311,30.314 -63.5119,17.6203 -88.3332,-3.0701 -16.4004,20.5329 -40.9343,34.4011 -88.112,6.3841 z"
       style="color:#000000;display:inline;overflow:visible;visibility:visible;fill:#ffffff;fill-opacity:1;fill-rule:nonzero;stroke:none;stroke-width:1.38497698px;marker:none;enable-background:accumulate" />
  </g>
  <g
     inkscape:label="txt"
     id="layer1"
     inkscape:groupmode="layer">
    <text
       id="text4246-3-2-2"
       y="344.14099"
       x="2022.3785"
       style="font-style:normal;font-variant:normal;font-weight:normal;font-stretch:normal;font-size:45px;line-height:1.25;font-family:Lavi;-inkscape-font-specification:Lavi;text-align:center;letter-spacing:0px;word-spacing:0px;text-anchor:middle;fill:#000000;fill-opacity:1;stroke:none"
       xml:space="preserve"><tspan
         id="tspan877"
         y="344.14099"
         x="2022.3785"
         sodipodi:role="line"
         style="font-size:45px">¡Perfecto!</tspan><tspan
         id="tspan890"
         y="400.39099"
         x="2022.3785"
         sodipodi:role="line"
         style="font-size:45px">¡Nos están</tspan><tspan
         id="tspan885"
         y="456.64099"
         x="2022.3785"
         sodipodi:role="line"
         style="font-size:45px">siguiendo!</tspan></text>
    <text
       id="text4246-3-2-2-3"
       y="1551.5004"
       x="1945.5864"
       style="font-style:normal;font-variant:normal;font-weight:normal;font-stretch:normal;font-size:45px;line-height:1.25;font-family:Lavi;-inkscape-font-specification:Lavi;text-align:center;letter-spacing:0px;word-spacing:0px;text-anchor:middle;fill:#000000;fill-opacity:1;stroke:none"
       xml:space="preserve"><tspan
         id="tspan922"
         y="1551.5004"
         x="1952.6177"
         sodipodi:role="line"
         style="font-size:45px">¡Vamos a deshacernos </tspan><tspan
         id="tspan895"
         y="1607.7504"
         x="1945.5864"
         sodipodi:role="line"
         style="font-size:45px">de ellos ahora mismo!</tspan></text>
    <text
       id="text4246-3-2-2-3-3"
       y="3067.8477"
       x="531.13611"
       style="font-style:normal;font-variant:normal;font-weight:normal;font-stretch:normal;font-size:50.27859879px;line-height:1.25;font-family:Lavi;-inkscape-font-specification:Lavi;text-align:center;letter-spacing:0px;word-spacing:0px;text-anchor:middle;fill:#000000;fill-opacity:1;stroke:none;stroke-width:1.11730003"
       xml:space="preserve"><tspan
         id="tspan896"
         y="3067.8477"
         x="538.99213"
         sodipodi:role="line"
         style="font-style:normal;font-variant:normal;font-weight:bold;font-stretch:normal;font-size:50.27859879px;font-family:Lavi;-inkscape-font-specification:'Lavi Bold';stroke-width:1.11730003">¡Estoy ansiosa </tspan><tspan
         id="tspan899"
         y="3130.6958"
         x="531.13611"
         sodipodi:role="line"
         style="font-style:normal;font-variant:normal;font-weight:bold;font-stretch:normal;font-size:50.27859879px;font-family:Lavi;-inkscape-font-specification:'Lavi Bold';stroke-width:1.11730003">por verlos!</tspan></text>
    <text
       id="text4246-3-2-2-3-3-3"
       y="3262.7009"
       x="529.26379"
       style="font-style:normal;font-variant:normal;font-weight:normal;font-stretch:normal;font-size:57.32479858px;line-height:1.25;font-family:Lavi;-inkscape-font-specification:Lavi;text-align:center;letter-spacing:0px;word-spacing:0px;text-anchor:middle;fill:#000000;fill-opacity:1;stroke:none;stroke-width:1.27388"
       xml:space="preserve"><tspan
         id="tspan1015"
         y="3262.7009"
         x="529.26379"
         sodipodi:role="line"
         style="font-style:normal;font-variant:normal;font-weight:bold;font-stretch:normal;font-size:57.32479858px;font-family:Lavi;-inkscape-font-specification:'Lavi Bold';stroke-width:1.27388">¡Muajajaja!</tspan></text>
    <text
       transform="matrix(1.0545214,-0.26714456,-0.41513081,1.2309466,1890.7199,857.1408)"
       id="text4580-6-0-0-0-9-3-36"
       y="1584.5073"
       x="787.65729"
       style="font-style:normal;font-variant:normal;font-weight:normal;font-stretch:normal;font-size:105.817px;line-height:1.25;font-family:Lavi;-inkscape-font-specification:Lavi;letter-spacing:0px;word-spacing:0px;fill:#000000;fill-opacity:1;stroke:#030303;stroke-width:0.716208;stroke-miterlimit:4;stroke-dasharray:none;stroke-opacity:1;filter:url(#filter4375-4-1-1-1-9-5-8-8-5-5-3-8)"
       xml:space="preserve"><tspan
         y="1584.5073"
         x="787.65729"
         id="tspan876-6-1"
         sodipodi:role="line"
         style="font-size:195.17px;fill:#000000;fill-opacity:1;stroke:#030303;stroke-width:0.716208;stroke-miterlimit:4;stroke-dasharray:none;stroke-opacity:1">!<tspan
   id="tspan1317"
   style="font-size:173.821px;fill:#000000;stroke:#030303;stroke-opacity:1">!</tspan><tspan
   style="font-size:152.472px;fill:#000000;stroke:#030303;stroke-opacity:1"
   id="tspan1322">!</tspan></tspan></text>
  </g>
</svg>
