<?xml version="1.0" encoding="UTF-8" standalone="no"?>
<!-- Created with Inkscape (http://www.inkscape.org/) -->

<svg
   xmlns:dc="http://purl.org/dc/elements/1.1/"
   xmlns:cc="http://creativecommons.org/ns#"
   xmlns:rdf="http://www.w3.org/1999/02/22-rdf-syntax-ns#"
   xmlns:svg="http://www.w3.org/2000/svg"
   xmlns="http://www.w3.org/2000/svg"
   xmlns:xlink="http://www.w3.org/1999/xlink"
   xmlns:sodipodi="http://sodipodi.sourceforge.net/DTD/sodipodi-0.dtd"
   xmlns:inkscape="http://www.inkscape.org/namespaces/inkscape"
   id="svg2"
   version="1.1"
   inkscape:version="0.92.3 (2405546, 2018-03-11)"
   width="2481"
   height="3503"
   sodipodi:docname="E13P02.svg">
  <sodipodi:namedview
     pagecolor="#ffffff"
     bordercolor="#666666"
     inkscape:pageopacity="0"
     inkscape:pageshadow="2"
     inkscape:window-width="1813"
     inkscape:window-height="955"
     id="namedview70"
     showgrid="false"
     inkscape:zoom="0.4"
     inkscape:cx="958.1731"
     inkscape:cy="2518.6204"
     inkscape:current-layer="layer1"
     inkscape:window-x="0"
     inkscape:window-y="26"
     inkscape:window-maximized="0" />
  <metadata
     id="metadata8">
    <rdf:RDF>
      <cc:Work
         rdf:about="">
        <dc:format>image/svg+xml</dc:format>
        <dc:type
           rdf:resource="http://purl.org/dc/dcmitype/StillImage" />
        <dc:title />
      </cc:Work>
    </rdf:RDF>
  </metadata>
  <defs
     id="defs6">
    <linearGradient
       inkscape:collect="always"
       id="linearGradient4232">
      <stop
         style="stop-color:#aaffee;stop-opacity:1;"
         offset="0"
         id="stop4234" />
      <stop
         style="stop-color:#ffffff;stop-opacity:1"
         offset="1"
         id="stop4236" />
    </linearGradient>
    <inkscape:path-effect
       effect="rough_hatches"
       id="path-effect4362"
       is_visible="true"
       direction="1435.9506,352.312 , 75.738038,0"
       dist_rdm="75;1"
       growth="0"
       do_bend="true"
       bender="1435.9506,357.312 , 5,0"
       bottom_edge_variation="13.945309;1"
       top_edge_variation="13.945309;1"
       bottom_tgt_variation="0;1"
       top_tgt_variation="0;1"
       scale_bf="1"
       scale_bb="1"
       scale_tf="1"
       scale_tb="1"
       top_smth_variation="0;1"
       bottom_smth_variation="0;1"
       fat_output="true"
       stroke_width_top="1"
       stroke_width_bottom="1"
       front_thickness="1"
       back_thickness="0.25" />
    <inkscape:path-effect
       effect="vonkoch"
       id="path-effect4360"
       is_visible="true"
       ref_path="m 1284.4745,357.312 304.8291,0"
       generator="m 1284.4745,427.03855 101.6097,0 m 101.6097,0 101.6097,0"
       similar_only="false"
       nbgenerations="0"
       drawall="true"
       maxComplexity="1000" />
    <inkscape:path-effect
       effect="gears"
       id="path-effect4358"
       is_visible="true"
       teeth="10"
       phi="5" />
    <inkscape:path-effect
       effect="bend_path"
       id="path-effect4356"
       is_visible="true"
       bendpath="m 1284.4745,357.312 304.8291,0"
       prop_scale="1"
       scale_y_rel="false"
       vertical="false" />
    <inkscape:path-effect
       effect="knot"
       id="path-effect4354"
       is_visible="true"
       interruption_width="3"
       prop_to_stroke_width="true"
       add_stroke_width="true"
       add_other_stroke_width="true"
       switcher_size="15"
       crossing_points_vector="" />
    <inkscape:path-effect
       effect="powerstroke"
       id="path-effect4352"
       is_visible="true"
       offset_points="0,1 | 8,1"
       sort_points="true"
       interpolator_type="CubicBezierFit"
       interpolator_beta="0.2"
       start_linecap_type="round"
       linejoin_type="round"
       miter_limit="4"
       end_linecap_type="round" />
    <inkscape:path-effect
       effect="sketch"
       id="path-effect4350"
       is_visible="true"
       nbiter_approxstrokes="5"
       strokelength="100"
       strokelength_rdm="0.3;1"
       strokeoverlap="0.3"
       strokeoverlap_rdm="0.3;1"
       ends_tolerance="0.1;1"
       parallel_offset="5;1"
       tremble_size="5;1"
       tremble_frequency="1"
       nbtangents="5"
       tgt_places_rdmness="1;1"
       tgtscale="10"
       tgtlength="100"
       tgtlength_rdm="0.3;1" />
    <filter
       style="color-interpolation-filters:sRGB"
       id="filter5561-7"
       inkscape:label="Roughen">
      <feFlood
         id="feFlood5563-4"
         flood-opacity="1"
         flood-color="rgb(65,124,138)"
         result="flood" />
      <feComposite
         id="feComposite5565-6"
         in2="SourceGraphic"
         in="flood"
         operator="in"
         result="composite1" />
      <feMorphology
         id="feMorphology5567-3"
         operator="dilate"
         radius="4.7000000000000002"
         result="result3" />
      <feComposite
         id="feComposite5569-6"
         in2="result3"
         in="SourceGraphic"
         operator="over"
         result="fbSourceGraphic"
         radius="3.3999999999999999" />
      <feColorMatrix
         result="fbSourceGraphicAlpha"
         in="fbSourceGraphic"
         values="0 0 0 -1 0 0 0 0 -1 0 0 0 0 -1 0 0 0 0 1 0"
         id="feColorMatrix4681" />
      <feTurbulence
         id="feTurbulence4683"
         type="fractalNoise"
         numOctaves="1"
         seed="33"
         baseFrequency="0.0080000000000000002 0.044999999999999998"
         result="turbulence" />
      <feDisplacementMap
         id="feDisplacementMap4685"
         in2="turbulence"
         in="fbSourceGraphic"
         scale="37.8"
         yChannelSelector="G"
         xChannelSelector="R" />
    </filter>
    <linearGradient
       inkscape:collect="always"
       xlink:href="#linearGradient4232"
       id="linearGradient4238"
       x1="1956.4867"
       y1="1758.8628"
       x2="1955.2883"
       y2="1705.3795"
       gradientUnits="userSpaceOnUse"
       gradientTransform="matrix(0.790849,-0.02391674,0.05892362,1.006738,254.00488,29.045846)" />
    <filter
       style="color-interpolation-filters:sRGB"
       id="filter5561-7-7"
       inkscape:label="Roughen">
      <feFlood
         id="feFlood5563-4-0"
         flood-opacity="1"
         flood-color="rgb(65,124,138)"
         result="flood" />
      <feComposite
         id="feComposite5565-6-1"
         in2="SourceGraphic"
         in="flood"
         operator="in"
         result="composite1" />
      <feMorphology
         id="feMorphology5567-3-4"
         operator="dilate"
         radius="4.7000000000000002"
         result="result3" />
      <feComposite
         id="feComposite5569-6-4"
         in2="result3"
         in="SourceGraphic"
         operator="over"
         result="fbSourceGraphic"
         radius="3.3999999999999999" />
      <feColorMatrix
         result="fbSourceGraphicAlpha"
         in="fbSourceGraphic"
         values="0 0 0 -1 0 0 0 0 -1 0 0 0 0 -1 0 0 0 0 1 0"
         id="feColorMatrix4681-3" />
      <feTurbulence
         id="feTurbulence4683-5"
         type="fractalNoise"
         numOctaves="1"
         seed="33"
         baseFrequency="0.0080000000000000002 0.044999999999999998"
         result="turbulence" />
      <feDisplacementMap
         id="feDisplacementMap4685-7"
         in2="turbulence"
         in="fbSourceGraphic"
         scale="37.8"
         yChannelSelector="G"
         xChannelSelector="R" />
    </filter>
    <linearGradient
       inkscape:collect="always"
       xlink:href="#linearGradient4232"
       id="linearGradient4260"
       x1="1956.4867"
       y1="1758.8628"
       x2="1955.2883"
       y2="1705.3795"
       gradientUnits="userSpaceOnUse"
       gradientTransform="matrix(0.83917033,-0.02460979,-0.05868374,0.99102035,372.4949,56.998328)" />
    <linearGradient
       inkscape:collect="always"
       xlink:href="#linearGradient4232"
       id="linearGradient4268"
       x1="1956.4867"
       y1="1758.8628"
       x2="1955.2883"
       y2="1705.3795"
       gradientUnits="userSpaceOnUse" />
    <linearGradient
       inkscape:collect="always"
       xlink:href="#linearGradient4232"
       id="linearGradient4276"
       x1="1956.4867"
       y1="1758.8628"
       x2="1955.2883"
       y2="1705.3795"
       gradientUnits="userSpaceOnUse" />
    <linearGradient
       inkscape:collect="always"
       xlink:href="#linearGradient4232"
       id="linearGradient4284"
       x1="1956.4867"
       y1="1758.8628"
       x2="1955.2883"
       y2="1705.3795"
       gradientUnits="userSpaceOnUse" />
    <linearGradient
       inkscape:collect="always"
       xlink:href="#linearGradient4232"
       id="linearGradient4292"
       x1="1956.4867"
       y1="1758.8628"
       x2="1955.2883"
       y2="1705.3795"
       gradientUnits="userSpaceOnUse" />
    <linearGradient
       inkscape:collect="always"
       xlink:href="#linearGradient4232"
       id="linearGradient4367"
       gradientUnits="userSpaceOnUse"
       x1="1956.4867"
       y1="1758.8628"
       x2="1955.2883"
       y2="1705.3795"
       gradientTransform="matrix(0.76928237,-0.0468406,-0.12223044,0.97518461,599.16485,121.64324)" />
    <filter
       style="color-interpolation-filters:sRGB"
       id="filter5561-7-7-1"
       inkscape:label="Roughen">
      <feFlood
         id="feFlood5563-4-0-8"
         flood-opacity="1"
         flood-color="rgb(65,124,138)"
         result="flood" />
      <feComposite
         id="feComposite5565-6-1-0"
         in2="SourceGraphic"
         in="flood"
         operator="in"
         result="composite1" />
      <feMorphology
         id="feMorphology5567-3-4-3"
         operator="dilate"
         radius="4.7000000000000002"
         result="result3" />
      <feComposite
         id="feComposite5569-6-4-9"
         in2="result3"
         in="SourceGraphic"
         operator="over"
         result="fbSourceGraphic"
         radius="3.3999999999999999" />
      <feColorMatrix
         result="fbSourceGraphicAlpha"
         in="fbSourceGraphic"
         values="0 0 0 -1 0 0 0 0 -1 0 0 0 0 -1 0 0 0 0 1 0"
         id="feColorMatrix4681-3-3" />
      <feTurbulence
         id="feTurbulence4683-5-4"
         type="fractalNoise"
         numOctaves="1"
         seed="33"
         baseFrequency="0.0080000000000000002 0.044999999999999998"
         result="turbulence" />
      <feDisplacementMap
         id="feDisplacementMap4685-7-7"
         in2="turbulence"
         in="fbSourceGraphic"
         scale="37.8"
         yChannelSelector="G"
         xChannelSelector="R" />
    </filter>
    <linearGradient
       inkscape:collect="always"
       xlink:href="#linearGradient4232"
       id="linearGradient4389"
       gradientUnits="userSpaceOnUse"
       x1="1956.4867"
       y1="1758.8628"
       x2="1955.2883"
       y2="1705.3795" />
    <linearGradient
       inkscape:collect="always"
       xlink:href="#linearGradient4232"
       id="linearGradient4397"
       gradientUnits="userSpaceOnUse"
       x1="1956.4867"
       y1="1758.8628"
       x2="1955.2883"
       y2="1705.3795" />
    <linearGradient
       inkscape:collect="always"
       xlink:href="#linearGradient4232"
       id="linearGradient4405"
       gradientUnits="userSpaceOnUse"
       x1="1956.4867"
       y1="1758.8628"
       x2="1955.2883"
       y2="1705.3795" />
    <linearGradient
       inkscape:collect="always"
       xlink:href="#linearGradient4232"
       id="linearGradient4413"
       gradientUnits="userSpaceOnUse"
       x1="1956.4867"
       y1="1758.8628"
       x2="1955.2883"
       y2="1705.3795" />
    <linearGradient
       inkscape:collect="always"
       xlink:href="#linearGradient4232"
       id="linearGradient4421"
       gradientUnits="userSpaceOnUse"
       x1="1956.4867"
       y1="1758.8628"
       x2="1955.2883"
       y2="1705.3795" />
    <filter
       style="color-interpolation-filters:sRGB"
       id="filter5561"
       inkscape:label="deevad outline effect">
      <feFlood
         id="feFlood5563"
         flood-opacity="1"
         flood-color="rgb(0,0,0)"
         result="flood" />
      <feComposite
         id="feComposite5565"
         in2="SourceGraphic"
         in="flood"
         operator="in"
         result="composite1" />
      <feMorphology
         id="feMorphology5567"
         operator="dilate"
         radius="1.8999999999999999 6.0999999999999996"
         result="result3" />
      <feComposite
         id="feComposite5569"
         in2="result3"
         in="SourceGraphic"
         operator="over"
         result="composite2" />
    </filter>
    <filter
       style="color-interpolation-filters:sRGB"
       id="filter5561-1"
       inkscape:label="deevad outline effect">
      <feFlood
         id="feFlood5563-9"
         flood-opacity="1"
         flood-color="rgb(0,0,0)"
         result="flood" />
      <feComposite
         id="feComposite5565-0"
         in2="SourceGraphic"
         in="flood"
         operator="in"
         result="composite1" />
      <feMorphology
         id="feMorphology5567-7"
         operator="dilate"
         radius="1.8999999999999999 6.0999999999999996"
         result="result3" />
      <feComposite
         id="feComposite5569-2"
         in2="result3"
         in="SourceGraphic"
         operator="over"
         result="composite2" />
    </filter>
    <filter
       style="color-interpolation-filters:sRGB"
       id="filter5561-1-5"
       inkscape:label="deevad outline effect">
      <feFlood
         id="feFlood5563-9-0"
         flood-opacity="1"
         flood-color="rgb(0,0,0)"
         result="flood" />
      <feComposite
         id="feComposite5565-0-9"
         in2="SourceGraphic"
         in="flood"
         operator="in"
         result="composite1" />
      <feMorphology
         id="feMorphology5567-7-8"
         operator="dilate"
         radius="1.8999999999999999 6.0999999999999996"
         result="result3" />
      <feComposite
         id="feComposite5569-2-3"
         in2="result3"
         in="SourceGraphic"
         operator="over"
         result="composite2" />
    </filter>
    <linearGradient
       inkscape:collect="always"
       xlink:href="#linearGradient4313"
       id="linearGradient4319"
       x1="1636.8805"
       y1="1709.2629"
       x2="2493.7808"
       y2="1709.2629"
       gradientUnits="userSpaceOnUse" />
    <linearGradient
       inkscape:collect="always"
       id="linearGradient4313">
      <stop
         style="stop-color:#ff8bff;stop-opacity:1;"
         offset="0"
         id="stop4315" />
      <stop
         style="stop-color:#ffffff;stop-opacity:1"
         offset="1"
         id="stop4317" />
    </linearGradient>
    <filter
       style="color-interpolation-filters:sRGB"
       id="filter5561-7-8"
       inkscape:label="Roughen">
      <feFlood
         id="feFlood5563-4-9"
         flood-opacity="1"
         flood-color="rgb(162,21,39)"
         result="flood" />
      <feComposite
         id="feComposite5565-6-3"
         in2="SourceGraphic"
         in="flood"
         operator="in"
         result="composite1" />
      <feMorphology
         id="feMorphology5567-3-48"
         operator="dilate"
         radius="5.5"
         result="result3" />
      <feComposite
         id="feComposite5569-6-6"
         in2="result3"
         in="SourceGraphic"
         operator="over"
         result="fbSourceGraphic" />
      <feColorMatrix
         result="fbSourceGraphicAlpha"
         in="fbSourceGraphic"
         values="0 0 0 -1 0 0 0 0 -1 0 0 0 0 -1 0 0 0 0 1 0"
         id="feColorMatrix4681-5" />
      <feTurbulence
         id="feTurbulence4683-3"
         type="fractalNoise"
         numOctaves="1"
         seed="33"
         baseFrequency="0.001 0.0199"
         result="turbulence" />
      <feDisplacementMap
         id="feDisplacementMap4685-0"
         in2="turbulence"
         in="fbSourceGraphic"
         scale="37.8"
         yChannelSelector="G"
         xChannelSelector="R" />
    </filter>
    <filter
       style="color-interpolation-filters:sRGB"
       id="filter5561-7-8-9"
       inkscape:label="Roughen">
      <feFlood
         id="feFlood5563-4-9-0"
         flood-opacity="1"
         flood-color="rgb(88,149,175)"
         result="flood" />
      <feComposite
         id="feComposite5565-6-3-0"
         in2="SourceGraphic"
         in="flood"
         operator="in"
         result="composite1" />
      <feMorphology
         id="feMorphology5567-3-48-3"
         operator="dilate"
         radius="5.5"
         result="result3" />
      <feComposite
         id="feComposite5569-6-6-5"
         in2="result3"
         in="SourceGraphic"
         operator="over"
         result="fbSourceGraphic" />
      <feColorMatrix
         result="fbSourceGraphicAlpha"
         in="fbSourceGraphic"
         values="0 0 0 -1 0 0 0 0 -1 0 0 0 0 -1 0 0 0 0 1 0"
         id="feColorMatrix4681-5-3" />
      <feTurbulence
         id="feTurbulence4683-3-9"
         type="fractalNoise"
         numOctaves="1"
         seed="33"
         baseFrequency="0.001 0.0199"
         result="turbulence" />
      <feDisplacementMap
         id="feDisplacementMap4685-0-6"
         in2="turbulence"
         in="fbSourceGraphic"
         scale="37.8"
         yChannelSelector="G"
         xChannelSelector="R" />
    </filter>
  </defs>
  <sodipodi:namedview
     pagecolor="#ffffff"
     bordercolor="#666666"
     borderopacity="1"
     objecttolerance="10"
     gridtolerance="10"
     guidetolerance="10"
     inkscape:pageopacity="0"
     inkscape:pageshadow="2"
     inkscape:window-width="1920"
     inkscape:window-height="1025"
     id="namedview4"
     showgrid="false"
     inkscape:zoom="0.4"
     inkscape:cx="1368.3436"
     inkscape:cy="-701.58301"
     inkscape:window-x="0"
     inkscape:window-y="26"
     inkscape:window-maximized="1"
     inkscape:current-layer="layer1" />
  <g
     inkscape:groupmode="layer"
     id="layer2"
     inkscape:label="artwork"
     sodipodi:insensitive="true">
    <image
       sodipodi:absref="/home/deevad/peppercarrot/webcomics/ep13_The-Pyjama-Party/lang/vi/../gfx_Pepper-and-Carrot_by-David-Revoy_E13P02.png"
       xlink:href="../gfx_Pepper-and-Carrot_by-David-Revoy_E13P02.png"
       y="0"
       x="0"
       id="image10"
       height="3503"
       width="2481" />
  </g>
  <g
     inkscape:groupmode="layer"
     id="layer3"
     inkscape:label="speechbubbles" />
  <g
     inkscape:groupmode="layer"
     id="layer1"
     inkscape:label="txt">
    <path
       style="color:#000000;display:inline;overflow:visible;visibility:visible;fill:#ffffff;fill-opacity:1;fill-rule:nonzero;stroke:none;stroke-width:1px;marker:none;enable-background:accumulate"
       d="m 64.282719,2744.8439 c 11.007205,-69.1946 31.024521,-91.9735 378.121061,-105.1821 141.2828,-5.3765 266.47414,19.7617 251.99043,121.1341 -14.48361,101.3724 -210.09665,83.6239 -257.85399,85.7819 -47.75736,2.1581 -295.58432,-2.3385 -337.634925,-37.0325 -26.323114,-21.7175 -36.247746,-43.2635 -34.622576,-64.7014 z"
       id="path4546-7"
       inkscape:connector-curvature="0"
       sodipodi:nodetypes="cssssc" />
    <path
       style="color:#000000;fill:#ffffff;fill-opacity:1;fill-rule:nonzero;stroke:none;stroke-width:1px;marker:none;visibility:visible;display:inline;overflow:visible;enable-background:accumulate"
       d="m 2038.3681,2373.1017 c -6.7804,-25.7482 0.7032,-44.0683 6.2295,-49.471 5.5261,-5.4025 18.8084,-19.4351 23.8565,-26.787 4.133,-6.094 12.6371,-13.9622 5.4542,-16.145 -7.183,-2.183 -57.2324,-1.6138 -63.5437,-18.5094 -6.3114,-16.8957 3.0894,-23.9701 20.1878,-32.8563 17.0985,-8.8863 39.2592,-20.7114 36.2565,-33.7527 -3.0027,-13.0413 -20.7794,-18.1993 -30.7,-18.4464 -9.9206,-0.2471 -70.4232,4.7289 -85.564,0.6977 -15.1408,-4.0313 -39.7147,-19.5869 -49.4654,-39.778 18.9185,16.7382 29.1812,24.1458 43.6492,25.4492 14.4681,1.3033 40.4823,5.4086 57.0658,0.5172 16.5836,-4.8913 48.665,-16.4693 61.4814,-11.4349 12.8161,5.0343 38.1938,22.7587 38.097,37.1372 -0.097,14.3786 -9.8033,30.6396 -36.9242,42.341 -17.0986,8.8863 -24.5364,14.3591 -23.1396,18.2839 1.3968,3.9247 19.1734,9.0827 38.3416,6.8491 19.1684,-2.2337 35.0842,1.4634 36.3282,9.9814 1.2441,8.5181 -12.9168,31.0151 -13.9468,39.0053 -1.0297,7.9899 -13.1894,53.4415 -13.1894,53.4415 z"
       id="path5058"
       inkscape:connector-curvature="0"
       sodipodi:nodetypes="cscsssssscssssccscccc" />
    <path
       style="color:#000000;display:inline;overflow:visible;visibility:visible;fill:#ffffff;fill-opacity:1;fill-rule:nonzero;stroke:none;stroke-width:1px;marker:none;enable-background:accumulate"
       d="m 1795.6278,2466.0933 c 5.5337,-75.0245 85.3674,-129.9108 295.1799,-115.7854 112.3868,7.5662 239.9525,12.5315 233.1487,122.4374 -6.8039,109.9057 -190.0984,107.0712 -227.8946,109.6394 -37.7966,2.5682 -234.9948,-8.9669 -269.9675,-46.3549 -21.8924,-23.4039 -30.7642,-46.701 -30.4665,-69.9365 z"
       id="path4546"
       inkscape:connector-curvature="0"
       sodipodi:nodetypes="cssssc" />
    <path
       style="color:#000000;display:inline;overflow:visible;visibility:visible;fill:#ffffff;fill-opacity:1;fill-rule:nonzero;stroke:none;stroke-width:1px;marker:none;enable-background:accumulate"
       d="m 150.0301,195.36599 c -0.868,-24.34525 19.8613,-45.01758 28.5421,-52.80801 8.6809,-7.79054 63.3703,-25.31911 83.3364,-25.31911 19.9657,0 107.5376,7.92107 122.295,25.44974 14.7575,17.52858 28.7514,27.13609 19.2025,56.3504 -9.5489,29.21432 -65.6188,35.58652 -78.6399,38.5079 -13.0214,2.92146 -58.986,0.77755 -71.1392,-0.19621 -12.1531,-0.97385 -106.201,-2.0584 -103.5969,-41.98471 z"
       id="path3357"
       inkscape:connector-curvature="0"
       sodipodi:nodetypes="cssssssc" />
    <path
       style="color:#000000;display:inline;overflow:visible;visibility:visible;fill:#ffffff;fill-opacity:1;fill-rule:nonzero;stroke:none;stroke-width:1px;marker:none;enable-background:accumulate"
       d="m 322.40315,323.32334 c -30.73622,-59.54209 -29.52378,-169.97382 204.72482,-177.73337 234.24836,-7.75968 276.58094,52.23485 283.5858,70.69162 7.00499,18.4567 39.057,137.57968 -116.48213,164.71054 -120.52793,21.02383 -341.09226,1.8733 -371.82849,-57.66879 z"
       id="path3525"
       inkscape:connector-curvature="0"
       sodipodi:nodetypes="zsssz" />
    <path
       style="fill:#ffffff;fill-rule:evenodd;stroke:none;stroke-width:1px;stroke-linecap:butt;stroke-linejoin:miter;stroke-opacity:1"
       d="M 1280.2782,553.65478 C 1176.7052,333.32764 1101.431,298.02076 759.75627,302.11881 c 18.54016,14.79575 -163.40087,5.57668 -163.40087,5.57668 0,0 616.5392,-177.66222 683.9228,245.95929 z"
       id="path4406"
       inkscape:connector-curvature="0"
       sodipodi:nodetypes="cccc" />
    <text
       xml:space="preserve"
       style="font-style:normal;font-variant:normal;font-weight:500;font-stretch:normal;line-height:0%;font-family:ComicSpice;-inkscape-font-specification:'ComicSpice Medium';text-align:center;letter-spacing:0px;word-spacing:0px;text-anchor:middle;fill:#000000;fill-opacity:1;stroke:none"
       x="280.64941"
       y="194.43243"
       id="text4246-0"><tspan
         sodipodi:role="line"
         style="font-style:normal;font-variant:normal;font-weight:500;font-stretch:normal;font-size:48px;line-height:1.25;font-family:ComicSpice;-inkscape-font-specification:'ComicSpice Medium'"
         x="280.64941"
         y="194.43243"
         id="tspan4295">Cảm ơn !</tspan></text>
    <text
       xml:space="preserve"
       style="font-style:normal;font-variant:normal;font-weight:500;font-stretch:normal;line-height:0%;font-family:ComicSpice;-inkscape-font-specification:'ComicSpice Medium';text-align:center;letter-spacing:0px;word-spacing:0px;text-anchor:middle;fill:#000000;fill-opacity:1;stroke:none"
       x="566.77625"
       y="245.36821"
       id="text4246-5"><tspan
         sodipodi:role="line"
         style="font-style:normal;font-variant:normal;font-weight:500;font-stretch:normal;font-size:48px;line-height:1.25;font-family:ComicSpice;-inkscape-font-specification:'ComicSpice Medium'"
         x="566.77625"
         y="245.36821"
         id="tspan3717">Tớ mong là cậu không</tspan><tspan
         sodipodi:role="line"
         style="font-style:normal;font-variant:normal;font-weight:500;font-stretch:normal;font-size:48px;line-height:1.25;font-family:ComicSpice;-inkscape-font-specification:'ComicSpice Medium'"
         x="566.77625"
         y="305.36823"
         id="tspan3486">sợ cây trượng của</tspan><tspan
         sodipodi:role="line"
         style="font-style:normal;font-variant:normal;font-weight:500;font-stretch:normal;font-size:48px;line-height:1.25;font-family:ComicSpice;-inkscape-font-specification:'ComicSpice Medium'"
         x="566.77625"
         y="365.36823"
         id="tspan3488">tớ.</tspan></text>
    <text
       xml:space="preserve"
       style="font-style:normal;font-variant:normal;font-weight:500;font-stretch:normal;line-height:0%;font-family:ComicSpice;-inkscape-font-specification:'ComicSpice Medium';text-align:center;letter-spacing:0px;word-spacing:0px;text-anchor:middle;fill:#000000;fill-opacity:1;stroke:none"
       x="2059.8596"
       y="2417.9304"
       id="text4246-5-1"><tspan
         sodipodi:role="line"
         style="font-style:normal;font-variant:normal;font-weight:500;font-stretch:normal;font-size:48px;line-height:1.25;font-family:ComicSpice;-inkscape-font-specification:'ComicSpice Medium'"
         x="2059.8596"
         y="2417.9304"
         id="tspan3495">Đừng lo, tớ cảm</tspan><tspan
         sodipodi:role="line"
         style="font-style:normal;font-variant:normal;font-weight:500;font-stretch:normal;font-size:48px;line-height:1.25;font-family:ComicSpice;-inkscape-font-specification:'ComicSpice Medium'"
         x="2059.8596"
         y="2477.9304"
         id="tspan3509"> thấy như là</tspan><tspan
         sodipodi:role="line"
         style="font-style:normal;font-variant:normal;font-weight:500;font-stretch:normal;font-size:48px;line-height:1.25;font-family:ComicSpice;-inkscape-font-specification:'ComicSpice Medium'"
         x="2059.8596"
         y="2537.9304"
         id="tspan3497">mình đang ở nhà vậy!</tspan></text>
    <path
       style="color:#000000;display:inline;overflow:visible;visibility:visible;fill:#ffffff;fill-opacity:1;fill-rule:nonzero;stroke:none;stroke-width:1px;marker:none;enable-background:accumulate"
       d="m 872.93207,2929.6937 c -102.2493,-4.317 -252.40542,-20.8928 -282.00152,-55.6712 -29.5961,-34.7785 -23.60287,-78.6724 35.61893,-98.8918 59.22143,-20.2185 161.05579,-38.1599 249.69946,-32.9348 88.64369,5.2256 204.84636,27.3026 232.69976,59.9513 27.8537,32.648 3.6295,103.3705 -110.1751,118.6063 -113.80449,15.2359 -125.84153,8.9402 -125.84153,8.9402 z"
       id="path3970"
       inkscape:connector-curvature="0" />
    <path
       style="color:#000000;display:inline;overflow:visible;visibility:visible;fill:#ffffff;fill-opacity:1;fill-rule:nonzero;stroke:none;stroke-width:1px;marker:none;enable-background:accumulate"
       d="m 816.25214,2867.0397 c 2.45748,53.5402 38.42234,128.5038 124.0995,122.5247 -78.22024,-6.1585 -87.15314,-97.9983 -82.23832,-114.4722 4.91483,-16.474 -41.86118,-8.0525 -41.86118,-8.0525 z"
       id="path3978"
       inkscape:connector-curvature="0"
       sodipodi:nodetypes="ccsc" />
    <text
       xml:space="preserve"
       style="font-style:normal;font-variant:normal;font-weight:500;font-stretch:normal;line-height:0%;font-family:ComicSpice;-inkscape-font-specification:'ComicSpice Medium';text-align:center;letter-spacing:0px;word-spacing:0px;text-anchor:middle;fill:#000000;fill-opacity:1;stroke:none"
       x="846.40686"
       y="2825.2639"
       id="text4246-5-1-1"><tspan
         sodipodi:role="line"
         style="font-style:normal;font-variant:normal;font-weight:500;font-stretch:normal;font-size:48px;line-height:1.25;font-family:ComicSpice;-inkscape-font-specification:'ComicSpice Medium'"
         x="846.40686"
         y="2825.2639"
         id="tspan3733">... Thật tinh tế  nhưng</tspan><tspan
         sodipodi:role="line"
         style="font-style:normal;font-variant:normal;font-weight:500;font-stretch:normal;font-size:48px;line-height:1.25;font-family:ComicSpice;-inkscape-font-specification:'ComicSpice Medium'"
         x="846.40686"
         y="2885.2639"
         id="tspan3505">cũng rất ấm cúng.</tspan></text>
    <path
       style="color:#000000;display:inline;overflow:visible;visibility:visible;fill:#ffffff;fill-opacity:1;fill-rule:nonzero;stroke:none;stroke-width:1px;marker:none;enable-background:accumulate"
       d="m 1830.46,2889.4391 c -68.2832,-2.6315 -168.5591,-12.7352 -188.3238,-33.9345 -19.7644,-21.1994 -15.7621,-47.9551 23.7867,-60.2798 39.5488,-12.3244 107.5549,-23.2607 166.7521,-20.0756 59.1971,3.1852 136.7986,16.6425 155.3992,36.5434 18.6009,19.9009 2.4238,63.01 -73.5761,72.297 -75.9997,9.2871 -84.0381,5.4495 -84.0381,5.4495 z"
       id="path3970-3"
       inkscape:connector-curvature="0" />
    <text
       xml:space="preserve"
       style="font-style:normal;font-variant:normal;font-weight:500;font-stretch:normal;line-height:0%;font-family:ComicSpice;-inkscape-font-specification:'ComicSpice Medium';text-align:center;letter-spacing:0px;word-spacing:0px;text-anchor:middle;fill:#000000;fill-opacity:1;stroke:none"
       x="1813.5154"
       y="2850.3528"
       id="text4246-5-1-1-3"><tspan
         sodipodi:role="line"
         style="font-style:normal;font-variant:normal;font-weight:500;font-stretch:normal;font-size:48px;line-height:1.25;font-family:ComicSpice;-inkscape-font-specification:'ComicSpice Medium'"
         x="1813.5154"
         y="2850.3528"
         id="tspan4445-7-2">Đúng đấy!</tspan></text>
    <path
       style="color:#000000;display:inline;overflow:visible;visibility:visible;fill:#ffffff;fill-opacity:1;fill-rule:nonzero;stroke:none;stroke-width:1px;marker:none;enable-background:accumulate"
       d="m 1789.5286,2859.2084 c -17.4406,19.6955 -35.494,44.5832 -39.1772,50.8007 9.5576,0.2371 17.8297,1.9947 24.3169,3.2572 -7.9427,11.0687 -48.099,60.7935 -62.702,68.943 36.8821,-18.8625 70.248,-54.786 81.7008,-73.7289 -8.1189,-3.0555 -13.5504,-3.8913 -17.7731,-5.5983 5.1986,-9.6848 29.5461,-37.9212 29.5461,-37.9212 z"
       id="path5066"
       inkscape:connector-curvature="0" />
    <text
       id="text4529"
       y="2735.7207"
       x="386.4519"
       style="font-style:normal;font-variant:normal;font-weight:500;font-stretch:normal;line-height:0%;font-family:ComicSpice;-inkscape-font-specification:'ComicSpice Medium';text-align:center;letter-spacing:0px;word-spacing:0px;text-anchor:middle;fill:#000000;fill-opacity:1;stroke:none"
       xml:space="preserve"><tspan
         y="2735.7207"
         x="386.4519"
         style="font-style:normal;font-variant:normal;font-weight:500;font-stretch:normal;font-size:48px;line-height:1.25;font-family:ComicSpice;-inkscape-font-specification:'ComicSpice Medium'"
         sodipodi:role="line"
         id="tspan3729">Tớ rất ấn tượng với</tspan><tspan
         y="2795.7207"
         x="386.4519"
         style="font-style:normal;font-variant:normal;font-weight:500;font-stretch:normal;font-size:48px;line-height:1.25;font-family:ComicSpice;-inkscape-font-specification:'ComicSpice Medium'"
         sodipodi:role="line"
         id="tspan3501">sự trang trí nội thất...</tspan></text>
    <text
       xml:space="preserve"
       style="color:#000000;font-style:normal;font-variant:normal;font-weight:500;font-stretch:normal;line-height:0%;font-family:ComicSpice;-inkscape-font-specification:'ComicSpice Medium';letter-spacing:0.02734961px;word-spacing:0px;clip-rule:nonzero;display:inline;overflow:visible;visibility:visible;opacity:0.7;isolation:auto;mix-blend-mode:normal;color-interpolation:sRGB;color-interpolation-filters:linearRGB;solid-color:#000000;solid-opacity:1;fill:url(#linearGradient4238);fill-opacity:1;fill-rule:nonzero;stroke:#ffffff;stroke-width:0.99631286;stroke-linecap:butt;stroke-linejoin:miter;stroke-miterlimit:4;stroke-dasharray:none;stroke-dashoffset:0;stroke-opacity:1;marker:none;filter:url(#filter5561-7);color-rendering:auto;image-rendering:auto;shape-rendering:auto;text-rendering:auto;enable-background:accumulate"
       x="1705.2566"
       y="1742.2045"
       id="text4251"
       transform="matrix(0.78816793,-0.14446708,-0.2220487,1.2633594,-342.52939,-84.430957)"><tspan
         sodipodi:role="line"
         id="tspan4253"
         x="1705.2566"
         y="1742.2045"
         style="font-style:normal;font-variant:normal;font-weight:500;font-stretch:normal;font-size:160.11950684px;line-height:1.25;font-family:ComicSpice;-inkscape-font-specification:'ComicSpice Medium';fill:url(#linearGradient4238);fill-opacity:1;stroke-width:0.99631286"><tspan
           style="font-style:normal;font-variant:normal;font-weight:500;font-stretch:normal;font-size:90px;font-family:ComicSpice;-inkscape-font-specification:'ComicSpice Medium';fill:url(#linearGradient4238);fill-opacity:1;stroke-width:0.99631286"
           id="tspan4349">WoooOoh</tspan><tspan
           id="tspan4365"
           style="font-style:normal;font-variant:normal;font-weight:500;font-stretch:normal;font-size:45.57711792px;font-family:ComicSpice;-inkscape-font-specification:'ComicSpice Medium';fill:url(#linearGradient4238);fill-opacity:1;stroke-width:0.99631286"> ! </tspan><tspan
           id="tspan4311"
           style="font-style:normal;font-variant:normal;font-weight:500;font-stretch:normal;font-size:55.8440094px;font-family:ComicSpice;-inkscape-font-specification:'ComicSpice Medium';fill:url(#linearGradient4238);fill-opacity:1;stroke-width:0.99631286">! </tspan><tspan
           id="tspan4369"
           style="font-style:normal;font-variant:normal;font-weight:500;font-stretch:normal;font-size:72.51364136px;font-family:ComicSpice;-inkscape-font-specification:'ComicSpice Medium';fill:url(#linearGradient4238);fill-opacity:1;stroke-width:0.99631286">!</tspan></tspan></text>
    <text
       xml:space="preserve"
       style="color:#000000;font-style:normal;font-variant:normal;font-weight:500;font-stretch:normal;line-height:0%;font-family:ComicSpice;-inkscape-font-specification:'ComicSpice Medium';letter-spacing:0.02734961px;word-spacing:0px;clip-rule:nonzero;display:inline;overflow:visible;visibility:visible;opacity:0.7;isolation:auto;mix-blend-mode:normal;color-interpolation:sRGB;color-interpolation-filters:linearRGB;solid-color:#000000;solid-opacity:1;fill:url(#linearGradient4367);fill-opacity:1;fill-rule:nonzero;stroke:#ffffff;stroke-width:0.96256357;stroke-linecap:butt;stroke-linejoin:miter;stroke-miterlimit:4;stroke-dasharray:none;stroke-dashoffset:0;stroke-opacity:1;marker:none;filter:url(#filter5561-7-7);color-rendering:auto;image-rendering:auto;shape-rendering:auto;text-rendering:auto;enable-background:accumulate"
       x="1705.2566"
       y="1742.2045"
       id="text4251-4"
       transform="matrix(0.92433326,-0.25452872,0.48969672,1.2537044,-513.15122,150.2278)"><tspan
         sodipodi:role="line"
         id="tspan4253-6"
         x="1705.2566"
         y="1742.2045"
         style="font-style:normal;font-variant:normal;font-weight:500;font-stretch:normal;font-size:160.11950684px;line-height:1.25;font-family:ComicSpice;-inkscape-font-specification:'ComicSpice Medium';fill:url(#linearGradient4367);fill-opacity:1;stroke-width:0.96256357"><tspan
           style="font-style:normal;font-variant:normal;font-weight:500;font-stretch:normal;font-size:90px;font-family:ComicSpice;-inkscape-font-specification:'ComicSpice Medium';fill:url(#linearGradient4367);fill-opacity:1;stroke-width:0.96256357"
           id="tspan4349-3">WoOoh</tspan><tspan
           id="tspan4365-3"
           style="font-style:normal;font-variant:normal;font-weight:500;font-stretch:normal;font-size:45.57711792px;font-family:ComicSpice;-inkscape-font-specification:'ComicSpice Medium';fill:url(#linearGradient4367);fill-opacity:1;stroke-width:0.96256357"> ! </tspan><tspan
           id="tspan4311-2"
           style="font-style:normal;font-variant:normal;font-weight:500;font-stretch:normal;font-size:55.8440094px;font-family:ComicSpice;-inkscape-font-specification:'ComicSpice Medium';fill:url(#linearGradient4367);fill-opacity:1;stroke-width:0.96256357">! </tspan><tspan
           id="tspan4369-1"
           style="font-style:normal;font-variant:normal;font-weight:500;font-stretch:normal;font-size:72.51364136px;font-family:ComicSpice;-inkscape-font-specification:'ComicSpice Medium';fill:url(#linearGradient4367);fill-opacity:1;stroke-width:0.96256357">!</tspan></tspan></text>
    <text
       xml:space="preserve"
       style="color:#000000;font-style:normal;font-variant:normal;font-weight:500;font-stretch:normal;line-height:0%;font-family:ComicSpice;-inkscape-font-specification:'ComicSpice Medium';letter-spacing:0.02734961px;word-spacing:0px;clip-rule:nonzero;display:inline;overflow:visible;visibility:visible;opacity:0.7;isolation:auto;mix-blend-mode:normal;color-interpolation:sRGB;color-interpolation-filters:linearRGB;solid-color:#000000;solid-opacity:1;fill:url(#linearGradient4260);fill-opacity:1;fill-rule:nonzero;stroke:#ffffff;stroke-width:1.01647246;stroke-linecap:butt;stroke-linejoin:miter;stroke-miterlimit:4;stroke-dasharray:none;stroke-dashoffset:0;stroke-opacity:1;marker:none;filter:url(#filter5561-7-7-1);color-rendering:auto;image-rendering:auto;shape-rendering:auto;text-rendering:auto;enable-background:accumulate"
       x="1705.2566"
       y="1742.2045"
       id="text4251-4-2"
       transform="matrix(0.85170606,-0.1958458,0.31077161,1.2798895,-1820.6066,380.94776)"><tspan
         sodipodi:role="line"
         id="tspan4253-6-1"
         x="1705.2566"
         y="1742.2045"
         style="font-style:normal;font-variant:normal;font-weight:500;font-stretch:normal;font-size:160.11950684px;line-height:1.25;font-family:ComicSpice;-inkscape-font-specification:'ComicSpice Medium';fill:url(#linearGradient4260);fill-opacity:1;stroke-width:1.01647246"><tspan
           style="font-style:normal;font-variant:normal;font-weight:500;font-stretch:normal;font-size:90px;font-family:ComicSpice;-inkscape-font-specification:'ComicSpice Medium';fill:url(#linearGradient4260);fill-opacity:1;stroke-width:1.01647246"
           id="tspan4349-3-5">WoooOoh</tspan><tspan
           id="tspan4365-3-2"
           style="font-style:normal;font-variant:normal;font-weight:500;font-stretch:normal;font-size:45.57711792px;font-family:ComicSpice;-inkscape-font-specification:'ComicSpice Medium';fill:url(#linearGradient4260);fill-opacity:1;stroke-width:1.01647246"> ! </tspan><tspan
           id="tspan4311-2-4"
           style="font-style:normal;font-variant:normal;font-weight:500;font-stretch:normal;font-size:55.8440094px;font-family:ComicSpice;-inkscape-font-specification:'ComicSpice Medium';fill:url(#linearGradient4260);fill-opacity:1;stroke-width:1.01647246">! </tspan><tspan
           id="tspan4369-1-7"
           style="font-style:normal;font-variant:normal;font-weight:500;font-stretch:normal;font-size:72.51364136px;font-family:ComicSpice;-inkscape-font-specification:'ComicSpice Medium';fill:url(#linearGradient4260);fill-opacity:1;stroke-width:1.01647246">!</tspan></tspan></text>
    <text
       xml:space="preserve"
       style="color:#000000;font-style:normal;font-variant:normal;font-weight:500;font-stretch:normal;line-height:0%;font-family:ComicSpice;-inkscape-font-specification:'ComicSpice Medium';letter-spacing:0.02734961px;word-spacing:0px;display:inline;overflow:visible;visibility:visible;fill:#ffffff;fill-opacity:1;fill-rule:nonzero;stroke:#ffffff;stroke-width:0.94783658;stroke-linecap:butt;stroke-linejoin:miter;stroke-miterlimit:4;stroke-dasharray:none;stroke-dashoffset:0;stroke-opacity:1;marker:none;filter:url(#filter5561);enable-background:accumulate"
       id="text4251-1"
       inkscape:transform-center-x="93.169775"
       inkscape:transform-center-y="246.79256"
       y="1742.2045"
       x="1705.2566"
       transform="matrix(0.82618083,0.48861934,-1.8326818,0.61940216,3122.6394,-682.77285)"><tspan
         sodipodi:role="line"
         id="tspan4253-5"
         x="1705.2566"
         y="1742.2045"
         style="font-style:normal;font-variant:normal;font-weight:500;font-stretch:normal;font-size:45.57711792px;line-height:1.25;font-family:ComicSpice;-inkscape-font-specification:'ComicSpice Medium';letter-spacing:8.21055126px;stroke-width:0.94783658">shwwwwwwiiing !</tspan></text>
    <text
       xml:space="preserve"
       style="color:#000000;font-style:normal;font-variant:normal;font-weight:500;font-stretch:normal;line-height:0%;font-family:ComicSpice;-inkscape-font-specification:'ComicSpice Medium';letter-spacing:0.02734961px;word-spacing:0px;clip-rule:nonzero;display:inline;overflow:visible;visibility:visible;opacity:1;isolation:auto;mix-blend-mode:normal;color-interpolation:sRGB;color-interpolation-filters:linearRGB;solid-color:#000000;solid-opacity:1;fill:#ffffff;fill-opacity:1;fill-rule:nonzero;stroke:#ffffff;stroke-width:0.90318227;stroke-linecap:butt;stroke-linejoin:miter;stroke-miterlimit:4;stroke-dasharray:none;stroke-dashoffset:0;stroke-opacity:1;marker:none;filter:url(#filter5561-1);color-rendering:auto;image-rendering:auto;shape-rendering:auto;text-rendering:auto;enable-background:accumulate"
       id="text4251-1-3"
       inkscape:transform-center-x="-341.33593"
       inkscape:transform-center-y="137.11092"
       y="1742.2045"
       x="1705.2566"
       transform="matrix(0.85523101,-0.46242654,0.57239147,1.5026606,-591.96126,-624.00697)"><tspan
         sodipodi:role="line"
         id="tspan4253-5-1"
         x="1705.2566"
         y="1742.2045"
         style="font-style:normal;font-variant:normal;font-weight:500;font-stretch:normal;font-size:45.57711792px;line-height:1.25;font-family:ComicSpice;-inkscape-font-specification:'ComicSpice Medium';letter-spacing:6.35989523px;stroke-width:0.90318227">Klaf !</tspan></text>
    <text
       xml:space="preserve"
       style="color:#000000;font-style:normal;font-variant:normal;font-weight:500;font-stretch:normal;line-height:0%;font-family:ComicSpice;-inkscape-font-specification:'ComicSpice Medium';letter-spacing:0.02734961px;word-spacing:0px;clip-rule:nonzero;display:inline;overflow:visible;visibility:visible;opacity:1;isolation:auto;mix-blend-mode:normal;color-interpolation:sRGB;color-interpolation-filters:linearRGB;solid-color:#000000;solid-opacity:1;fill:#ffffff;fill-opacity:1;fill-rule:nonzero;stroke:#ffffff;stroke-width:0.98814553;stroke-linecap:butt;stroke-linejoin:miter;stroke-miterlimit:4;stroke-dasharray:none;stroke-dashoffset:0;stroke-opacity:1;marker:none;filter:url(#filter5561-1-5);color-rendering:auto;image-rendering:auto;shape-rendering:auto;text-rendering:auto;enable-background:accumulate"
       id="text4251-1-3-8"
       inkscape:transform-center-x="-200.2106"
       inkscape:transform-center-y="209.78564"
       y="1742.2045"
       x="1705.2566"
       transform="matrix(0.88143634,-0.22323055,-0.26149021,1.5351397,578.5938,-1010.0361)"><tspan
         sodipodi:role="line"
         id="tspan4253-5-1-0"
         x="1705.2566"
         y="1742.2045"
         style="font-style:normal;font-variant:normal;font-weight:500;font-stretch:normal;font-size:45.57711792px;line-height:1.25;font-family:ComicSpice;-inkscape-font-specification:'ComicSpice Medium';letter-spacing:6.35989523px;stroke-width:0.98814553">Klukf !</tspan></text>
    <text
       xml:space="preserve"
       style="color:#000000;font-style:normal;font-variant:normal;font-weight:500;font-stretch:normal;line-height:0%;font-family:ComicSpice;-inkscape-font-specification:'ComicSpice Medium';letter-spacing:0.02734961px;word-spacing:0px;clip-rule:nonzero;display:inline;overflow:visible;visibility:visible;opacity:1;isolation:auto;mix-blend-mode:normal;color-interpolation:sRGB;color-interpolation-filters:linearRGB;solid-color:#000000;solid-opacity:1;fill:#ff9e9e;fill-opacity:1;fill-rule:nonzero;stroke:#ffffff;stroke-width:0.97070396;stroke-linecap:butt;stroke-linejoin:miter;stroke-miterlimit:4;stroke-dasharray:none;stroke-dashoffset:0;stroke-opacity:1;marker:none;filter:url(#filter5561-7-8);color-rendering:auto;image-rendering:auto;shape-rendering:auto;text-rendering:auto;enable-background:accumulate"
       x="1705.2566"
       y="1742.2045"
       id="text4251-9"
       transform="matrix(0.74308436,-0.1814094,-0.3356779,1.4013785,-511.3779,-1334.5414)"><tspan
         sodipodi:role="line"
         id="tspan4253-3"
         x="1705.2566"
         y="1742.2045"
         style="font-style:normal;font-variant:normal;font-weight:500;font-stretch:normal;font-size:160.11950684px;line-height:1.25;font-family:ComicSpice;-inkscape-font-specification:'ComicSpice Medium';fill:#ff9e9e;fill-opacity:1;stroke-width:0.97070396"><tspan
           style="font-style:normal;font-variant:normal;font-weight:500;font-stretch:normal;font-size:90px;font-family:ComicSpice;-inkscape-font-specification:'ComicSpice Medium';fill:#ff9e9e;fill-opacity:1;stroke-width:0.97070396"
           id="tspan4349-9">Dzzziii</tspan><tspan
           id="tspan4365-0"
           style="font-style:normal;font-variant:normal;font-weight:500;font-stretch:normal;font-size:45.57711792px;font-family:ComicSpice;-inkscape-font-specification:'ComicSpice Medium';fill:#ff9e9e;fill-opacity:1;stroke-width:0.97070396"> ! </tspan><tspan
           id="tspan4311-9"
           style="font-style:normal;font-variant:normal;font-weight:500;font-stretch:normal;font-size:55.8440094px;font-family:ComicSpice;-inkscape-font-specification:'ComicSpice Medium';fill:#ff9e9e;fill-opacity:1;stroke-width:0.97070396">! </tspan><tspan
           id="tspan4369-2"
           style="font-style:normal;font-variant:normal;font-weight:500;font-stretch:normal;font-size:72.51364136px;font-family:ComicSpice;-inkscape-font-specification:'ComicSpice Medium';fill:#ff9e9e;fill-opacity:1;stroke-width:0.97070396">!</tspan></tspan></text>
    <text
       xml:space="preserve"
       style="color:#000000;font-style:normal;font-variant:normal;font-weight:500;font-stretch:normal;line-height:0%;font-family:ComicSpice;-inkscape-font-specification:'ComicSpice Medium';letter-spacing:0.02734961px;word-spacing:0px;clip-rule:nonzero;display:inline;overflow:visible;visibility:visible;opacity:1;isolation:auto;mix-blend-mode:normal;color-interpolation:sRGB;color-interpolation-filters:linearRGB;solid-color:#000000;solid-opacity:1;fill:#d7e3f4;fill-opacity:1;fill-rule:nonzero;stroke:#ffffff;stroke-width:1.01353645;stroke-linecap:butt;stroke-linejoin:miter;stroke-miterlimit:4;stroke-dasharray:none;stroke-dashoffset:0;stroke-opacity:1;marker:none;filter:url(#filter5561-7-8-9);color-rendering:auto;image-rendering:auto;shape-rendering:auto;text-rendering:auto;enable-background:accumulate"
       x="1705.2566"
       y="1742.2045"
       id="text4251-9-3"
       transform="matrix(0.67933292,0.08345064,-0.70597973,1.1258658,2109.4098,-1467.761)"><tspan
         sodipodi:role="line"
         id="tspan4253-3-7"
         x="1705.2566"
         y="1742.2045"
         style="font-style:normal;font-variant:normal;font-weight:500;font-stretch:normal;font-size:160.11950684px;line-height:1.25;font-family:ComicSpice;-inkscape-font-specification:'ComicSpice Medium';fill:#d7e3f4;fill-opacity:1;stroke-width:1.01353645"><tspan
           style="font-style:normal;font-variant:normal;font-weight:500;font-stretch:normal;font-size:90px;font-family:ComicSpice;-inkscape-font-specification:'ComicSpice Medium';fill:#d7e3f4;fill-opacity:1;stroke-width:1.01353645"
           id="tspan4349-9-9">Shkak </tspan><tspan
           id="tspan4365-0-3"
           style="font-style:normal;font-variant:normal;font-weight:500;font-stretch:normal;font-size:45.57711792px;font-family:ComicSpice;-inkscape-font-specification:'ComicSpice Medium';fill:#d7e3f4;fill-opacity:1;stroke-width:1.01353645">! </tspan><tspan
           id="tspan4311-9-7"
           style="font-style:normal;font-variant:normal;font-weight:500;font-stretch:normal;font-size:55.8440094px;font-family:ComicSpice;-inkscape-font-specification:'ComicSpice Medium';fill:#d7e3f4;fill-opacity:1;stroke-width:1.01353645">! </tspan><tspan
           id="tspan4369-2-8"
           style="font-style:normal;font-variant:normal;font-weight:500;font-stretch:normal;font-size:72.51364136px;font-family:ComicSpice;-inkscape-font-specification:'ComicSpice Medium';fill:#d7e3f4;fill-opacity:1;stroke-width:1.01353645">!</tspan></tspan></text>
  </g>
</svg>
