<?xml version="1.0" encoding="UTF-8" standalone="no"?>
<!-- Created With Inkscape (http://www.inkscape.org/) -->

<svg
   xmlns:dc="http://purl.org/dc/elements/1.1/"
   xmlns:cc="http://creativecommons.org/ns#"
   xmlns:rdf="http://www.w3.org/1999/02/22-rdf-syntax-ns#"
   xmlns:svg="http://www.w3.org/2000/svg"
   xmlns="http://www.w3.org/2000/svg"
   xmlns:xlink="http://www.w3.org/1999/xlink"
   xmlns:sodipodi="http://sodipodi.sourceforge.net/DTD/sodipodi-0.dtd"
   xmlns:inkscape="http://www.inkscape.org/namespaces/inkscape"
   id="svg2"
   version="1.1"
   inkscape:version="0.92.3 (2405546, 2018-03-11)"
   width="2481"
   height="663"
   sodipodi:docname="E18P00.svg">
  <metadata
     id="metadata8">
    <rdf:RDF>
      <cc:Work
         rdf:about="">
        <dc:format>image/svg+xml</dc:format>
        <dc:type
           rdf:resource="http://purl.org/dc/dcmitype/StillImage" />
        <dc:title />
      </cc:Work>
    </rdf:RDF>
  </metadata>
  <defs
     id="defs6" />
  <sodipodi:namedview
     pagecolor="#ffffff"
     bordercolor="#666666"
     borderopacity="1"
     objecttolerance="10"
     gridtolerance="10"
     guidetolerance="10"
     inkscape:pageopacity="0"
     inkscape:pageshadow="2"
     inkscape:window-width="1920"
     inkscape:window-height="1022"
     id="namedview4"
     showgrid="false"
     inkscape:zoom="1.0503206"
     inkscape:cx="1347.9943"
     inkscape:cy="217.62166"
     inkscape:window-x="0"
     inkscape:window-y="0"
     inkscape:window-maximized="1"
     inkscape:current-layer="layer1" />
  <g
     inkscape:groupmode="layer"
     id="layer2"
     inkscape:label="artwork"
     sodipodi:insensitive="true">
    <image
       sodipodi:absref="/home/peppercarrot/webcomics/"
       xlink:href="../gfx_Pepper-and-Carrot_by-David-Revoy_E18P00.png"
       width="2481"
       height="663"
       id="image10"
       x="0"
       y="0" />
  </g>
  <g
     inkscape:groupmode="layer"
     id="layer1"
     inkscape:label="txt"
     style="display:inline">
    <text
       id="episode-title"
       y="594.17548"
       x="1239.2332"
       style="font-style:normal;font-variant:normal;font-weight:normal;font-stretch:normal;font-size:17.49234581px;line-height:0%;font-family:'Nanum Pen Script OTF';-inkscape-font-specification:'Nanum Pen Script OTF';letter-spacing:0px;word-spacing:0px;display:inline;fill:#2b1100;fill-opacity:1;stroke:#000000;stroke-width:2.91539097;stroke-miterlimit:4;stroke-dasharray:none;stroke-opacity:1"
       xml:space="preserve"><tspan
         y="594.17548"
         x="1239.2332"
         style="font-style:normal;font-variant:normal;font-weight:normal;font-stretch:normal;font-size:105.68292236px;line-height:1.25;font-family:'Nanum Pen Script OTF';-inkscape-font-specification:'Nanum Pen Script OTF';text-align:center;text-anchor:middle;fill:#2b1100;stroke:none;stroke-width:2.91539097"
         id="tspan12"
         sodipodi:role="line">제18 화: 첫 만남</tspan></text>
    <g
       transform="translate(22.436344,-18.514011)"
       id="g82-9"
       style="display:inline;opacity:1;vector-effect:none;fill:#301b0b;fill-opacity:1;stroke:none;stroke-width:1;stroke-linecap:butt;stroke-linejoin:miter;stroke-miterlimit:4;stroke-dasharray:none;stroke-dashoffset:0;stroke-opacity:1;font-variant-east_asian:normal">
      <path
         inkscape:connector-curvature="0"
         id="path3147-3"
         d="m 1216.7812,185.5625 c -4.9286,0.0958 -9.0014,1.84685 -10.1874,5.625 -10.7692,-1.55634 -17.9468,11.12978 -12.2188,17.8125 -14.9368,8.54259 -1.1609,23.38766 8.2188,29.28125 -1.8308,11.96342 8.4697,8.75111 14.625,14.90625 4.0104,22.00222 7.9367,57.61815 5.9374,105.0625 -31.5378,7.52834 -65.0745,15.28758 -95.9374,19.40625 0.3013,-3.97521 0.061,-8.00832 -0.4688,-11.78125 31.6536,-9.21909 55.6739,-35.04602 57.6562,-61.25 3.2195,-42.55118 -28.5525,-76.59799 -38.4687,-73.90625 -7.3332,-6.78905 -22.9961,-11.01061 -23.5313,-5.75 -9.5597,-3.04939 -19.3613,-2.17949 -27.0312,0.0937 1.6003,-5.75377 1.631,-9.80049 -2.5,-13.75 -1.6779,-1.60415 -4.6648,-2.88478 -8.2812,-2.75 -2.8132,0.10483 -6.0078,1.05247 -9.2188,3.375 -11.9647,-5.28833 -20.8415,4.75478 -24.5,12 -3.7373,7.40116 -8.3972,25.58855 -10.4375,29.375 -6.5652,12.18332 -9.1563,18.01934 -9.4687,33.34375 -0.6326,30.98749 20.4584,76.61221 62.5312,82.21875 -0.1125,4.07719 -0.6218,7.90797 -1.1875,11.6875 -15.9942,0.37555 -30.4985,-0.91198 -42.5937,-4.625 -7.129,-2.18831 -19.9464,-1.50794 -26.8126,0.5 -14.7509,4.31378 -6.5389,20.36376 1.4688,24.8125 -2.8867,8.78752 3.0643,18.76704 14.6875,21.03125 0.1187,5.18728 3.6768,8.65606 15.625,8.65625 10.6539,1.6e-4 27.9726,-0.5634 32.25,-1.03125 37.3275,-4.08273 87.6078,-15.19686 133.125,-29.96875 -1.3427,12.66582 -3.1185,25.97211 -5.375,39.875 -0.4151,2.55758 3.2463,4.77946 7.2187,-5.03125 0.2142,4.16403 -4.6464,25.75561 -1.8437,21.90625 1.6028,-2.20138 8.1942,-20.10317 14,-54.15625 0.4904,22.71406 -7.9176,82.14874 -19.6563,95.84375 2.3137,6.97575 1.3299,4.96458 7.7188,2.125 11.552,-19.25329 9.869,-23.69271 13.5938,-40.375 -0.01,11.19923 2.5889,17.47743 5.625,8.78125 9.8759,-28.28896 16.8964,-56.59537 21.75,-84.75 5.2172,-2.17241 10.2682,-4.37491 15.0937,-6.625 7.8892,-3.67871 4.9174,-3.71481 -2.0625,-2.96875 0.6223,-0.13829 19.035,-5.68559 10.4062,-6.46875 -7.0246,-0.63759 -14.0424,1.42002 -21.2812,2.84375 0.015,-0.10338 0.016,-0.20912 0.031,-0.3125 13.4124,-5.14618 28.863,-6.49789 35.8126,-14.0625 4.1053,-4.46931 -13.6687,0.26411 -18.875,-2 13.8112,-4.25576 36.5018,-9.47717 38.25,-19.9375 0.078,-0.46937 -0.4756,-0.64787 -1.5313,-0.625 -6.5466,0.14182 -32.6398,8.74418 -50.6875,13.5 2.6812,-24.48145 3.9106,-48.80839 4.0938,-72.875 0.1864,-24.52005 -5.5561,-48.04462 -6.3438,-54.59375 -1.8537,-15.41014 -13.4765,-21.27613 -37.0938,-31.875 -3.9206,-1.7595 -8.2914,-2.66825 -12.125,-2.59375 z M 744.40625,212.625 c -6.78744,-0.27755 -8.00129,10.28252 -9.53125,13.3125 -2.95983,0.23014 -5.67107,1.21735 -6.84375,2.84375 -6.61002,9.16755 -7.93045,26.38268 2.40625,32.0625 -3.6091,7.16938 11.82314,11.67694 19.3125,13.3125 30.14439,6.58309 66.51962,-0.14683 95.25,-6.53125 -15.12474,26.3455 -60.1846,41.5539 -86.65625,46.53125 -11.04423,2.07661 -8.5844,4.61899 -4.75,4.34375 7.22171,-0.51837 13.66744,-1.17926 17.34375,-2.28125 -3.75822,3.32301 -14.64993,6.27371 -22.78125,7.34375 -4.7841,0.62956 -3.3125,-1.30515 -3.3125,2.53125 2.38451,0.24974 4.89988,0.30978 7.46875,0.1875 -0.49897,2.43807 3.55058,2.81354 11.0625,1.25 15.11597,-3.14625 33.27938,-9.41491 44.71875,-16.875 -1.21139,2.50404 -5.36216,5.41361 -8.375,7.1875 -3.0261,1.78168 -7.14545,3.74222 -5.8125,5.96875 1.25191,2.09116 4.02989,3.39058 14.625,0.15625 5.74926,0.5989 12.64353,0.0876 19.09375,-4.4375 2.12363,2.80876 17.80435,-4.76286 34.0625,-15.1875 7.77002,7.81424 21.65414,18.65709 26.65625,17.0625 3.49749,1.60586 10.95028,4.44902 14.34375,5.53125 2.69022,0.85796 6.42602,-0.40106 3.875,-2.0625 -7.92382,-5.16075 -13.78354,-10.77869 -14.625,-12.125 6.71432,5.12951 17.32631,11.9394 22.84375,14.21875 4.83339,1.99677 9.7547,4.21222 11.65625,1.71875 2.68462,1.39682 14.99196,6.86105 18.34375,8.21875 4.73841,1.9194 8.05018,1.58748 6.78125,0.125 -0.59699,-0.68812 -4.43146,-2.06703 -5.75,-3.625 11.01705,3.4677 18.05957,2.68363 11.5625,-0.46875 -21.63289,-10.4964 -45.79115,-35.36263 -62.1875,-55.25 0.44772,-0.5098 0.91503,-1.00685 1.3125,-1.5 7.77479,-9.64638 10.54854,-12.22802 10.40625,-19.875 -0.24196,-13.00392 -27.26289,-32.59032 -35.125,-29.78125 -26.88325,9.60517 -82.22365,13.09876 -104.15625,-5.9375 -5.61293,-10.01046 -13.27861,-6.03241 -16.09375,-4.78125 -2.90507,-2.17824 -5.22452,-3.10979 -7.125,-3.1875 z m 366.31255,16.9375 c 5.4756,0.093 10.9882,0.93538 15.875,3.125 -16.4142,-1.18424 -20.2752,2.38787 -18.0938,2.875 10.9119,2.43684 26.1041,-0.26134 52.0625,24.96875 -4.7643,-3.99353 -10.8459,-7.45086 -15.7813,-9.4375 -3.5462,-1.42757 -8.3005,0.19923 -4.1562,3.75 10.4087,8.9178 16.7516,17.13685 16.7188,26.25 -4.7408,-12.87053 -17.9795,-18.71238 -13.375,-9.65625 4.277,8.41361 4.5947,14.89464 4.25,22.09375 -0.9012,18.79684 -21.9742,35.30239 -40.9688,35 -17.4186,-0.27727 -26.115,-15.45203 -26.7812,-33.59375 -0.2328,-6.33603 5.4938,-20.27383 6.5624,-23.9375 9.7052,-10.04706 24.7874,-7.88389 25.4688,-20.125 0.1473,-2.66122 -3.4385,-4.85359 -3.9375,-9.5 -0.4819,-4.488 -3.4354,-8.60532 -7.0625,-11.34375 1.2423,-0.13091 2.4958,-0.23001 3.7812,-0.3125 1.7991,-0.11543 3.6123,-0.18726 5.4376,-0.15625 z"
         style="color:#000000;display:inline;overflow:visible;visibility:visible;vector-effect:none;fill:#301b0b;fill-opacity:1;fill-rule:nonzero;stroke:none;stroke-width:1;stroke-linecap:butt;stroke-linejoin:miter;stroke-miterlimit:4;stroke-dasharray:none;stroke-dashoffset:0;stroke-opacity:1;marker:none;enable-background:accumulate;font-variant-east_asian:normal" />
      <path
         sodipodi:nodetypes="ssss"
         inkscape:connector-curvature="0"
         id="path4483-6"
         d="m 1128.216,243.80966 c -8.5172,-2.74093 -8.5661,2.50382 -1.4397,4.78403 2.9124,0.93189 5.6743,2.48023 7.5079,-0.29131 1.0996,-1.66208 -2.6698,-3.39907 -6.0682,-4.49272 z"
         style="color:#000000;display:inline;overflow:visible;visibility:visible;vector-effect:none;fill:#301b0b;fill-opacity:1;fill-rule:nonzero;stroke:none;stroke-width:1;stroke-linecap:butt;stroke-linejoin:miter;stroke-miterlimit:4;stroke-dasharray:none;stroke-dashoffset:0;stroke-opacity:1;marker:none;enable-background:accumulate;font-variant-east_asian:normal" />
      <path
         sodipodi:nodetypes="sssss"
         inkscape:connector-curvature="0"
         id="path4510-0"
         d="m 1212.1649,474.11721 c 0.9262,-6.19089 3.8053,-11.77253 6.1564,-10.82331 3.7291,1.50557 2.3489,8.41675 1.1561,12.12482 -2.4795,7.70806 -5.1322,19.01833 -7.5358,15.94416 -3.1882,-4.07763 -0.7717,-10.59557 0.2232,-17.24567 z"
         style="color:#000000;display:inline;overflow:visible;visibility:visible;vector-effect:none;fill:#301b0b;fill-opacity:1;fill-rule:nonzero;stroke:none;stroke-width:1;stroke-linecap:butt;stroke-linejoin:miter;stroke-miterlimit:4;stroke-dasharray:none;stroke-dashoffset:0;stroke-opacity:1;marker:none;enable-background:accumulate;font-variant-east_asian:normal" />
      <path
         inkscape:connector-curvature="0"
         id="path4538-6"
         d="m 415.8125,205.0625 c -0.4584,-0.0418 -1.00601,0.0274 -1.6875,0.1875 -6.26615,1.47167 -16.05271,9.16346 -13.84375,11.9375 -3.72547,1.32472 -5.14885,1.07403 -7,3.96875 -3.84656,6.01501 -3.71492,13.71016 2.875,20.84375 -8.354,3.77729 4.74314,14.04735 12.5,20.28125 3.61384,2.90431 13.02206,4.13119 18.75,4.75 11.89275,1.2848 24.85616,2.70311 38.28125,3.71875 -0.60547,4.34413 -0.81686,8.3759 -2.125,9.8125 -6.4936,7.13132 -11.73217,14.33834 -11.1875,29.65625 1.67358,47.06577 47.90274,52.92585 82.5,52.03125 41.26075,-1.06692 70.58215,-24.63325 71.71875,-51.34375 0.48448,-11.38564 -3.74778,-35.14227 -15.1875,-34.375 -5.21192,-5.21193 -18.52392,-20.99279 -24.0625,-12.125 -0.69035,-0.63912 -1.46272,-1.22464 -2.28125,-1.8125 6.2911,-2.26713 12.29288,-5.00342 17.90625,-8.3125 4.41233,-2.60107 3.86923,-4.47098 -3.5,-2.5625 -4.12467,1.06823 -7.29407,1.9183 -11.0625,1.5625 7.97937,-1.66598 23.09916,-6.03187 31.34375,-9.46875 5.27874,-2.20055 5.33373,-4.96168 0.53125,-5 6.50392,-2.04936 10.46804,-4.41055 12.78125,-6.28125 1.73324,-1.40165 1.66404,-2.55035 -0.78125,-2.125 -1.87294,0.32579 -5.48736,1.56647 -6.75,1.21875 5.23341,-1.73685 10.26135,-3.33547 8.09375,-5.5 16.74427,-4.08698 22.25537,-10.10148 15.84375,-8.65625 -62.09814,13.99727 -129.40345,22.67728 -191.59375,3.78125 -8.06673,-6.13123 -14.84324,-16.68679 -19,-12.9375 -1.11728,-2.07268 -1.68729,-3.12461 -3.0625,-3.25 z m 118.125,64.90625 c 10.60073,1.49068 25.14402,2.00586 48.0625,24.28125 -4.7643,-3.99354 -10.87719,-7.4821 -15.8125,-9.46875 -3.54642,-1.42756 -8.30059,0.19923 -4.15625,3.75 10.40872,8.9178 16.75183,17.13685 16.71875,26.25 -4.74053,-12.87053 -19.06994,-18.06934 -13.375,-9.65625 8.70169,12.85493 -4.22612,23.72211 -25.75,23.21875 -13.85392,-0.32397 -27.58609,-2.58321 -33.90625,-16.75 0.8404,-16.40205 19.63271,-14.26657 19.71875,-23.53125 0.0246,-2.66517 -3.43851,-4.8536 -3.9375,-9.5 -0.2444,-2.27598 -0.24045,-4.80498 -0.34375,-7.25 4.2998,-0.3332 8.57437,-0.76686 12.78125,-1.34375 z"
         style="color:#000000;display:inline;overflow:visible;visibility:visible;vector-effect:none;fill:#301b0b;fill-opacity:1;fill-rule:nonzero;stroke:none;stroke-width:1;stroke-linecap:butt;stroke-linejoin:miter;stroke-miterlimit:4;stroke-dasharray:none;stroke-dashoffset:0;stroke-opacity:1;marker:none;enable-background:accumulate;font-variant-east_asian:normal" />
      <path
         inkscape:connector-curvature="0"
         id="path4540-2"
         d="m 1630.3438,183.125 c -4.9289,0.0958 -9.0015,1.84684 -10.1876,5.625 -10.769,-1.55635 -17.9467,11.12978 -12.2187,17.8125 -8.0561,4.6074 -8.2367,10.37445 -5.2187,15.625 -37.0173,3.75327 -71.9457,6.04469 -107.875,-2.9375 -4.313,-18.31903 -12.8311,-11.94677 -18,-15.9375 2.839,-4.80584 -19.7719,-20.34952 -22.7813,-13.53125 -1.1178,-1.42891 -2.8088,-1.99453 -4.8437,-1.9375 -7.2679,0.20368 -18.6172,8.46391 -21.2813,14.75 -1.1654,2.74966 0.8048,4.85208 2.25,7.21875 -2.6531,3.80097 -3.8365,10.67008 -3.4375,14.6875 1.0841,10.91668 11.451,18.91057 17.7188,24.65625 3.2856,3.01226 12.5497,5.40059 24.9374,7.15625 -6.7967,38.42633 -15.7208,96.38574 32.1876,94.625 15.7487,-0.57881 31.1877,-1.76427 46.1874,-3.9375 -1.9429,2.16146 -3.5104,4.54213 -4.5937,6.6875 -3.7372,7.40118 -8.3972,25.6198 -10.4375,29.40625 -6.5651,12.18332 -9.156,17.98809 -9.4688,33.3125 -0.6777,33.22675 23.6083,83.3093 71.9688,82.8125 42.7198,-0.43885 78.9812,-32.34795 81.4375,-64.8125 2.4466,-32.3389 -15.3005,-59.72323 -28.3125,-69.84375 1.248,-1.65353 1.806,-4.91111 2.1875,-8.3125 2.5229,1.22709 3.639,-4.97463 4.9687,-8.84375 3.0791,0.0391 3.9508,-15.06769 4.1876,-15.75 2.3627,6.07438 -0.4955,18.37392 1.0937,19.3125 1.4968,0.884 3.7011,-4.00065 5.375,-9.9375 2.0585,-7.30087 5.4067,-15.71871 7.4687,-32.125 0.2806,1.41462 1.3007,2.36936 2.875,3.71875 9.1133,8.65527 20.7291,10.99089 33.75,11.75 5.3816,0.31373 5.4529,-2.26282 4.125,-5.34375 4.8639,0.39539 6.5546,-3.60475 3.7813,-4.53125 3.4615,0.363 14.6642,0.87844 2.875,-3.5625 -2.9039,-1.09385 -7.3643,-2.56081 -10.5625,-5.65625 3.1011,1.03378 14.4327,4.24614 16.9062,-0.875 6.3094,1.41518 9.9939,-1.38941 6.5626,-2.6875 -6.9585,-2.63226 -9.9488,-3.85165 -15.0313,-7.125 6.8471,0.70131 15.5511,-4.88822 10.1563,-6.75 -3.7361,-1.02224 -4.4956,1.40478 -26.2813,-16.15625 -7.2787,-6.23891 -14.3412,1.32622 -15.7813,4.5 -1.9464,-0.14611 -3.6487,0.15022 -5.0624,0.59375 1.4405,-18.1295 0.6834,-33.06435 -2.8438,-57.34375 -2.2315,-15.35999 -13.0392,-23.08864 -36.6562,-33.6875 -3.9209,-1.7595 -8.2917,-2.6995 -12.125,-2.625 z m -22.875,44.90625 c 0.8761,0.83846 1.8119,1.62349 2.75,2.375 -3.1803,-0.17694 -6.1649,-0.59231 -8.2188,-0.25 2.0551,-0.73427 3.8361,-1.43818 5.4688,-2.125 z m 4.75,3.90625 c 0.7768,0.55571 1.5559,1.08712 2.3124,1.5625 -1.8306,11.96343 8.4701,8.78236 14.625,14.9375 4.6271,16.17123 6.5141,31.56835 6.9063,48 -38.9973,9.52563 -97.8118,17.49182 -121.2187,8.46875 0,-14.87841 2.9529,-30.50963 7.9687,-45.125 14.0306,0.14956 27.8975,-0.20181 39.6875,-1.125 7.4229,-0.58122 11.0579,-2.43849 6.1562,-2.75 -11.8845,-0.75535 -11.1777,-1.36686 -12.8437,-2 9.0218,0.28709 32.9863,-1.40461 29.5,-5.5625 8.2241,-1.50173 15.8761,-1.12535 22.9375,-5.5625 5.6186,-3.53055 -19.7289,1.36114 -34.9375,-0.0312 10.8814,-1.58126 33.6027,-7.92214 38.9063,-10.8125 z m 61.9374,72.6875 c 0.044,0.0285 0.08,0.0656 0.125,0.0937 -0.092,0.27232 -0.1452,0.50174 -0.2187,0.75 0.031,-0.28814 0.064,-0.55099 0.094,-0.84375 z m -38.0312,1.4375 c 0,0.51323 0.01,1.01539 0,1.53125 -0.8672,0.035 -1.6349,0.002 -2.1875,-0.1875 0.5143,-0.37822 1.3089,-0.84578 2.1875,-1.34375 z m -0.094,5.96875 c -0.3383,13.65329 -1.3975,28.41668 -2.5624,45 -7.833,-4.56899 -18.3142,-6.59781 -18.75,-2.3125 -9.5603,-3.04939 -19.3615,-2.14824 -27.0313,0.125 1.5997,-5.75263 1.6305,-9.80097 -2.5,-13.75 -0.5499,-0.5257 -1.2509,-1.01972 -2.0625,-1.4375 16.0356,-4.45409 31.3969,-10.47357 45.9062,-18.5625 6.7836,-3.78156 8.0782,-5.84625 1.3438,-4.90625 -1.8375,0.25644 -10.9898,2.72298 -11.9062,2.90625 3.7392,-2.62541 11.2071,-4.47467 17.5624,-7.0625 z m 8.4376,41.3125 c 0.6543,1.41545 0.086,5.50408 -0.1876,8.46875 -0.6973,-0.36803 -1.3612,-0.6431 -2,-0.875 1.3029,-3.66485 2.1331,-7.41245 2.1876,-7.59375 z m -41.7813,5.96875 c 5.5842,0.0644 11.1991,0.92102 16.1875,3.15625 -16.4139,-1.18424 -20.2751,2.38787 -18.0938,2.875 10.9124,2.43683 26.1353,-0.26134 52.0938,24.96875 -4.7643,-3.99353 -10.8463,-7.45086 -15.7812,-9.4375 -3.5467,-1.42757 -8.332,0.16798 -4.1876,3.71875 10.409,8.91781 16.7518,17.13685 16.7188,26.25 -4.7406,-12.87053 -17.948,-18.68112 -13.3438,-9.625 4.2777,8.41361 4.5952,14.89464 4.25,22.09375 -0.9006,18.79684 -21.974,35.27115 -40.9687,34.96875 -17.4186,-0.27727 -26.1462,-15.45203 -26.8125,-33.59375 -0.2326,-6.33602 5.4939,-20.27384 6.5625,-23.9375 9.705,-10.04707 24.8186,-7.88388 25.5,-20.125 0.1473,-2.66121 -3.4385,-4.82234 -3.9375,-9.46875 -0.4804,-4.47361 -3.4512,-8.60521 -7.0625,-11.34375 1.2368,-0.13012 2.5014,-0.26164 3.7813,-0.34375 0.8991,-0.0577 1.8098,-0.10119 2.7187,-0.125 0.7953,-0.0208 1.5773,-0.0404 2.375,-0.0312 z"
         style="color:#000000;display:inline;overflow:visible;visibility:visible;vector-effect:none;fill:#301b0b;fill-opacity:1;fill-rule:nonzero;stroke:none;stroke-width:1;stroke-linecap:butt;stroke-linejoin:miter;stroke-miterlimit:4;stroke-dasharray:none;stroke-dashoffset:0;stroke-opacity:1;marker:none;enable-background:accumulate;font-variant-east_asian:normal" />
      <path
         sodipodi:nodetypes="csssc"
         inkscape:connector-curvature="0"
         id="path4564-6"
         d="m 1311.6789,349.61712 c 3.6559,-1.47274 9.4833,-2.78869 7.7387,-1.10018 -1.7083,1.65345 -4.5319,4.93074 -6.9871,5.09295 -4.4228,0.29219 -3.3114,-2.95852 -0.7516,-3.99266 z"
         style="color:#000000;display:inline;overflow:visible;visibility:visible;vector-effect:none;fill:#301b0b;fill-opacity:1;fill-rule:nonzero;stroke:none;stroke-width:1;stroke-linecap:butt;stroke-linejoin:miter;stroke-miterlimit:4;stroke-dasharray:none;stroke-dashoffset:0;stroke-opacity:1;marker:none;enable-background:accumulate;font-variant-east_asian:normal" />
      <path
         sodipodi:nodetypes="ssss"
         inkscape:connector-curvature="0"
         id="path4574-1"
         d="m 544.35508,274.7375 c -3.52412,-1.67134 -12.4174,-2.42277 -9.05002,-0.21037 2.3023,1.51255 6.25712,4.41662 8.83957,5.05118 6.85585,1.68466 4.92685,-2.60394 0.21045,-4.8407 z"
         style="color:#000000;display:inline;overflow:visible;visibility:visible;vector-effect:none;fill:#301b0b;fill-opacity:1;fill-rule:nonzero;stroke:none;stroke-width:1;stroke-linecap:butt;stroke-linejoin:miter;stroke-miterlimit:4;stroke-dasharray:none;stroke-dashoffset:0;stroke-opacity:1;marker:none;enable-background:accumulate;font-variant-east_asian:normal" />
      <path
         style="color:#000000;display:inline;overflow:visible;visibility:visible;vector-effect:none;fill:#301b0b;fill-opacity:1;fill-rule:nonzero;stroke:none;stroke-width:1;stroke-linecap:butt;stroke-linejoin:miter;stroke-miterlimit:4;stroke-dasharray:none;stroke-dashoffset:0;stroke-opacity:1;marker:none;enable-background:accumulate;font-variant-east_asian:normal"
         d="m 836.42706,228.4173 c -13.02092,-0.75912 -24.64035,-3.12006 -33.75366,-11.77535 -2.71749,-2.32924 -3.76809,-3.41815 -2.25263,-7.88419 -8.72226,-5.45143 -1.66669,-16.99268 4.12983,-26.28073 1.40701,-0.87939 4.48761,-2.56396 8.63508,-2.25264 1.43998,-3.17376 8.48976,-10.74415 15.76846,-4.50524 21.78569,17.56105 22.54476,15.12161 26.28073,16.14385 5.39484,1.86177 -3.28977,7.4592 -10.13689,6.75791 5.08255,3.27333 8.05912,4.50106 15.01758,7.13333 3.43148,1.29807 -0.2543,4.10301 -6.56366,2.68782 -2.47351,5.12115 -13.80015,1.91257 -16.90127,0.87878 3.19818,3.09545 7.6595,4.54713 10.56337,5.64097 11.78926,4.44093 0.59461,3.92027 -2.86685,3.55728 2.77326,0.92649 1.07097,4.92341 -3.79284,4.52802 1.32794,3.08093 1.25439,5.68382 -4.12725,5.37008 z"
         id="path4620-8"
         inkscape:connector-curvature="0"
         sodipodi:nodetypes="ccccccccsccsccsc" />
      <path
         style="color:#000000;display:inline;overflow:visible;visibility:visible;vector-effect:none;fill:#301b0b;fill-opacity:1;fill-rule:nonzero;stroke:none;stroke-width:1;stroke-linecap:butt;stroke-linejoin:miter;stroke-miterlimit:4;stroke-dasharray:none;stroke-dashoffset:0;stroke-opacity:1;marker:none;enable-background:accumulate;font-variant-east_asian:normal"
         d="m 856.73661,211.76126 c -2.02784,-0.38369 -3.15903,1.83049 -0.7509,3.00355 1.91,0.93034 6.86831,0.66211 6.38248,-0.37549 -0.8269,-1.76603 -4.03629,-2.32622 -5.63158,-2.62806 z"
         id="path4622-7"
         inkscape:connector-curvature="0"
         sodipodi:nodetypes="ssss" />
      <path
         sodipodi:nodetypes="ssss"
         inkscape:connector-curvature="0"
         id="path4642-9"
         d="m 913.21261,328.6215 c -4.64837,-3.16401 -3.60884,1.83673 -1.26291,3.157 5.74878,3.23532 12.65291,5.61919 17.2583,6.1035 5.49294,0.57766 -9.89299,-5.10677 -15.99539,-9.2605 z"
         style="color:#000000;display:inline;overflow:visible;visibility:visible;vector-effect:none;fill:#301b0b;fill-opacity:1;fill-rule:nonzero;stroke:none;stroke-width:1;stroke-linecap:butt;stroke-linejoin:miter;stroke-miterlimit:4;stroke-dasharray:none;stroke-dashoffset:0;stroke-opacity:1;marker:none;enable-background:accumulate;font-variant-east_asian:normal" />
      <path
         sodipodi:nodetypes="ssss"
         inkscape:connector-curvature="0"
         id="path4666-2"
         d="m 966.54948,357.661 c -6.38296,0.73501 -12.38944,2.84649 -15.57446,4.20933 -12.42192,5.31523 0.58234,4.54813 9.26047,2.94652 6.75482,-1.24667 13.81497,-8.01959 6.31399,-7.15585 z"
         style="color:#000000;display:inline;overflow:visible;visibility:visible;vector-effect:none;fill:#301b0b;fill-opacity:1;fill-rule:nonzero;stroke:none;stroke-width:1;stroke-linecap:butt;stroke-linejoin:miter;stroke-miterlimit:4;stroke-dasharray:none;stroke-dashoffset:0;stroke-opacity:1;marker:none;enable-background:accumulate;font-variant-east_asian:normal" />
      <path
         inkscape:connector-curvature="0"
         id="path4678-0"
         d="m 391.375,339.21875 c -3.21232,0.21727 -5.25932,2.16555 -7.1875,4.09375 -3.70192,-1.75 -5.93408,-3.39951 -8.8125,-1 -7.33802,6.11716 -10.23361,18.73954 -0.90625,23.5 -2.2833,1.95688 -3.66459,4.30203 -4.375,6.8125 -2.7762,9.81053 5.97418,21.87645 13.96875,23.65625 22.16601,4.93479 58.22881,8.71677 91.96875,10.1875 9.34973,30.5895 13.72874,67.44458 6.5625,97.375 -0.99603,4.15998 4.45896,4.92397 10.5625,-5.625 4.69667,-8.1174 6.35374,-21.103 7.3125,-29.5 1.48596,6.59655 1.72535,13.81854 5.9375,11.90625 4.10671,-1.86443 5.375,-14.13923 5.375,-23.8125 4.32279,1.91572 7.33547,-5.99072 7.125,-15.46875 0.75625,1.28626 1.1584,3.05794 1.15625,5.21875 -0.003,2.43142 0.86903,3.31937 1.59375,2.4375 4.04629,-4.92378 2.56986,-17.23897 2.65625,-18.21875 0.69508,-7.88373 -0.84189,-16.17329 -3.375,-23.90625 13.26126,-0.48464 24.28559,-1.638 31.25,-3.5625 8.13917,-2.24911 5.45324,-5.50855 -8.25,-5.3125 -7.08956,0.10123 -12.62485,-2.64686 -16.15625,-3 10.01121,0.59766 33.07541,0.68205 44.4375,-0.6875 7.66791,-0.92427 9.01895,-3.66905 4.96875,-5.28125 10.37381,-1.40536 28.71343,-4.84109 35.9375,-8.125 4.0228,-1.82869 1.99069,-4.47701 -0.53125,-4.625 -5.39528,-0.31664 -15.82,0.0943 -19.9375,-2.125 26.73844,-4.79631 57.25776,-9.14411 70.25,-17.875 4.92014,-3.30637 0.63269,-3.67255 -5.96875,-2.375 -73.86086,14.5178 -165.29851,23.75118 -237.03125,0.6875 -1.00707,-12.85378 -14.90289,-12.94479 -18.46875,-11.875 -4.36793,-2.79828 -7.56403,-3.66898 -10.0625,-3.5 z"
         style="color:#000000;display:inline;overflow:visible;visibility:visible;vector-effect:none;fill:#301b0b;fill-opacity:1;fill-rule:nonzero;stroke:none;stroke-width:1;stroke-linecap:butt;stroke-linejoin:miter;stroke-miterlimit:4;stroke-dasharray:none;stroke-dashoffset:0;stroke-opacity:1;marker:none;enable-background:accumulate;font-variant-east_asian:normal" />
      <path
         style="color:#000000;display:inline;overflow:visible;visibility:visible;vector-effect:none;fill:#301b0b;fill-opacity:1;fill-rule:nonzero;stroke:none;stroke-width:1;stroke-linecap:butt;stroke-linejoin:miter;stroke-miterlimit:4;stroke-dasharray:none;stroke-dashoffset:0;stroke-opacity:1;marker:none;enable-background:accumulate;font-variant-east_asian:normal"
         d="m 651.69264,367.76335 c -6.38296,0.73501 -12.38943,2.84648 -15.57446,4.20933 -12.42192,5.31523 0.58234,4.54812 9.26047,2.94651 6.75484,-1.24666 13.81497,-8.01958 6.31399,-7.15584 z"
         id="path4680-2"
         inkscape:connector-curvature="0"
         sodipodi:nodetypes="ssss" />
      <path
         inkscape:connector-curvature="0"
         id="path4688-3"
         d="m 710.21875,327.3125 c -3.21231,0.21727 -5.25932,2.1968 -7.1875,4.125 -3.70194,-1.74998 -5.93407,-3.43075 -8.8125,-1.03125 -4.08831,3.40814 -4.48713,9.31642 -3.09375,14.28125 1.10754,3.94641 3.80489,6.11309 7.1875,9.21875 -2.28333,1.95687 -5.18563,3.05493 -5.90625,5.5625 -1.52941,5.322 6.91168,23.12645 14.90625,24.90625 21.64415,4.81862 56.68308,8.55132 89.875,10.09375 -0.78101,0.84177 -1.56582,1.68617 -2.34375,2.59375 10.95065,31.88225 16.68973,72.4033 8.9375,104.78125 -0.99604,4.15996 4.42769,4.92397 10.53125,-5.625 4.69668,-8.11741 6.35374,-21.103 7.3125,-29.5 1.48595,6.59656 1.75662,13.81853 5.96875,11.90625 4.10672,-1.86444 5.34375,-14.13922 5.34375,-23.8125 4.32278,1.91572 7.3667,-5.99072 7.15625,-15.46875 0.75622,1.28627 1.15841,3.0892 1.15625,5.25 -0.003,2.43143 0.86904,3.28813 1.59375,2.40625 4.0463,-4.92378 2.56986,-17.20771 2.65625,-18.1875 0.99881,-11.32892 -2.58382,-23.56641 -7.1875,-33.65625 16.16617,-0.32751 29.63773,-1.52558 37.6875,-3.75 8.13916,-2.24911 5.48448,-5.50855 -8.21875,-5.3125 -7.08957,0.10123 -12.6561,-2.64688 -16.1875,-3 10.01121,0.59764 33.10667,0.68204 44.46875,-0.6875 7.66792,-0.92427 8.98772,-3.66905 4.9375,-5.28125 10.37383,-1.40535 28.74466,-4.84109 35.96875,-8.125 4.02279,-1.82869 1.9907,-4.47701 -0.53125,-4.625 -5.39529,-0.31664 -15.82,0.0943 -19.9375,-2.125 26.73844,-4.7963 57.25777,-9.1441 70.25,-17.875 4.92014,-3.30635 0.63269,-3.67256 -5.96875,-2.375 -73.86089,14.51779 -165.50509,24.38408 -237.03125,0.6875 -5.85092,-1.9384 -13.44502,-12.67726 -18.6875,-13.34375 -2.63511,-0.335 -3.58846,1.11091 -4.78125,1.46875 -4.36792,-2.79828 -7.56403,-3.66898 -10.0625,-3.5 z"
         style="color:#000000;display:inline;overflow:visible;visibility:visible;vector-effect:none;fill:#301b0b;fill-opacity:1;fill-rule:nonzero;stroke:none;stroke-width:1;stroke-linecap:butt;stroke-linejoin:miter;stroke-miterlimit:4;stroke-dasharray:none;stroke-dashoffset:0;stroke-opacity:1;marker:none;enable-background:accumulate;font-variant-east_asian:normal" />
      <path
         inkscape:connector-curvature="0"
         id="path4690-7"
         d="m 1801.0625,188.6875 c -5.7766,0.22847 -11.6777,6.20659 -14.3125,11.96875 -10.5771,-2.35043 -17.2213,6.9477 -20.25,15.15625 1.1482,3.44468 2.4803,6.40834 6,8.03125 -4.5727,6.86032 1.7659,11.70646 6.9688,16.40625 0.2519,5.93146 5.4938,14.70218 19.7812,16.9375 47.0554,7.36199 94.0984,5.96674 166.5938,-11.5 2.1318,9.59261 1.4564,30.52838 -0.031,46.53125 -0.7776,8.36472 -7.2741,22.36151 -2.5,19.125 0.9847,-0.66745 3.2861,-3.64057 6,-9.1875 4.2724,-8.73178 9.9214,-23.15875 15.625,-40.0625 -1.7494,15.7521 -10.5783,46.44778 -18.4375,62.5 -2.3285,0.10343 -4.6676,0.17439 -7,0.25 0.7921,-1.97628 1.5144,-3.77376 0.8125,-6.59375 -2.796,0.93202 -3.511,4.08133 -5.7813,6.75 -45.8608,1.08835 -92.0631,-3.36925 -132.125,-16.25 -1.007,-12.85378 -14.9028,-12.91353 -18.4687,-11.84375 -9.9838,-6.39607 -13.8221,-2.83416 -17.25,0.59375 -3.702,-1.74999 -5.9341,-3.43077 -8.8125,-1.03125 -7.338,6.11714 -10.2337,24.11454 -0.9062,28.875 -2.2835,1.95688 -3.6959,4.30203 -4.4063,6.8125 -2.7762,9.81053 5.4117,21.87643 13.4063,23.65625 43.2881,9.63723 140.1518,14.92528 168.7187,7.03125 8.1392,-2.24911 5.4531,-5.50855 -8.25,-5.3125 -7.0897,0.10123 -12.656,-2.67811 -16.1875,-3.03125 10.0112,0.59766 33.1066,0.7133 44.4688,-0.65625 7.6677,-0.92427 9.019,-3.66905 4.9687,-5.28125 10.374,-1.40536 28.7134,-4.84109 35.9375,-8.125 4.0227,-1.82869 1.9907,-4.47701 -0.5312,-4.625 -5.3956,-0.31664 -15.8201,0.063 -19.9376,-2.15625 26.7386,-4.79631 57.258,-9.11286 70.25,-17.84375 4.9204,-3.30637 0.6328,-3.67255 -5.9687,-2.375 -21.4194,4.21011 -44.3143,7.50862 -67.7813,9.53125 18.5249,-23.5966 30.0119,-66.87683 31.7813,-97.1875 0.689,-11.79887 -20.5549,-37.33544 -32.7187,-34.375 -7.5173,1.82949 -18.7588,12.43971 -26.5313,13.96875 -45.3858,8.92843 -96.3358,11.11412 -137.5313,-4 -1.5869,-1.78867 -5.942,-7.70881 -9.1874,-9.75 -4.3498,-2.73573 -6.2908,-1.71997 -9.875,-0.21875 -2.0174,-2.01723 -4.2709,-2.80815 -6.5313,-2.71875 z m 182.2813,118.03125 c -1.5078,5.98606 -3.9036,12.44503 -5.75,17.3125 -1.0616,0.067 -2.1246,0.12609 -3.1876,0.1875 2.568,-4.17247 5.7461,-10.13193 8.9376,-17.5 z"
         style="color:#000000;display:inline;overflow:visible;visibility:visible;vector-effect:none;fill:#301b0b;fill-opacity:1;fill-rule:nonzero;stroke:none;stroke-width:1;stroke-linecap:butt;stroke-linejoin:miter;stroke-miterlimit:4;stroke-dasharray:none;stroke-dashoffset:0;stroke-opacity:1;marker:none;enable-background:accumulate;font-variant-east_asian:normal" />
      <path
         sodipodi:nodetypes="ssss"
         inkscape:connector-curvature="0"
         id="path4702-5"
         d="m 1730.5906,307.73366 c -2.0279,-0.3837 -3.159,1.83049 -0.7509,3.00352 1.91,0.93036 6.8683,0.66213 6.3825,-0.37547 -0.8269,-1.76603 -4.0363,-2.32621 -5.6316,-2.62805 z"
         style="color:#000000;display:inline;overflow:visible;visibility:visible;vector-effect:none;fill:#301b0b;fill-opacity:1;fill-rule:nonzero;stroke:none;stroke-width:1;stroke-linecap:butt;stroke-linejoin:miter;stroke-miterlimit:4;stroke-dasharray:none;stroke-dashoffset:0;stroke-opacity:1;marker:none;enable-background:accumulate;font-variant-east_asian:normal" />
      <path
         sodipodi:nodetypes="ccccccsscsscssccssscc"
         inkscape:connector-curvature="0"
         id="path4714-9"
         d="m 1794.4898,393.21754 c -3.0795,-6.92895 1.9107,-20.6253 7.1435,-14.88218 2.9922,-6.73269 5.8584,-10.88075 14.8821,-8.92932 6.8721,-6.01304 12.9306,-3.86532 18.4539,4.16702 6.3447,-6.62427 13.5024,3.7452 17.8587,10.71515 9.0445,15.23201 2.1285,45.1525 -3.5718,55.36171 58.2118,6.13988 129.3395,1.67761 180.9673,-24.40678 10.0758,-5.09063 9.2873,-0.8486 -2.891,6.66732 -5.2667,3.25034 -18.3251,10.12779 -21.5158,11.1913 3.2407,-0.0762 8.7095,-2.7856 11.2688,-2.41416 2.7569,0.40009 -0.1152,4.15289 -9.0166,9.12142 -9.6756,5.4006 -31.3286,11.76977 -41.5236,14.37437 10.0087,1.05036 27.8341,-4.45088 35.447,-5.57423 7.1834,-1.06 3.5002,2.05491 -1.8159,4.47341 -6.0847,2.76825 -16.5657,7.16628 -30.0097,9.91692 -5.0657,4.28917 -13.5761,5.39501 -19.6874,6.37119 5.761,1.76438 -1.6191,5.22525 -7.9725,7.26482 -26.3957,8.47373 -90.5559,13.36977 -133.1348,4.08925 -9.8551,-2.14801 -13.7125,-13.66335 -9.5246,-22.62092 5.8512,-12.51503 8.2274,-40.3434 4.7623,-50.59941 -7.586,-5.0791 -13.4352,-9.34919 -10.1199,-14.28688 z"
         style="color:#000000;display:inline;overflow:visible;visibility:visible;vector-effect:none;fill:#301b0b;fill-opacity:1;fill-rule:nonzero;stroke:none;stroke-width:1;stroke-linecap:butt;stroke-linejoin:miter;stroke-miterlimit:4;stroke-dasharray:none;stroke-dashoffset:0;stroke-opacity:1;marker:none;enable-background:accumulate;font-variant-east_asian:normal" />
      <path
         sodipodi:nodetypes="sssss"
         inkscape:connector-curvature="0"
         id="path3045-2"
         d="m 1966.1315,358.14509 c -4.249,-0.003 -5.5917,4.40808 1.4837,4.4885 8.4245,0.0956 14.8853,-2.25581 19.7647,-4.38263 1.4396,-0.62744 1.2588,-2.0373 -1.9853,-1.59217 -7.6972,1.05612 -14.5657,1.49024 -19.2631,1.4863 z"
         style="color:#000000;display:inline;overflow:visible;visibility:visible;vector-effect:none;fill:#301b0b;fill-opacity:1;fill-rule:nonzero;stroke:none;stroke-width:1;stroke-linecap:butt;stroke-linejoin:miter;stroke-miterlimit:4;stroke-dasharray:none;stroke-dashoffset:0;stroke-opacity:1;marker:none;enable-background:accumulate;font-variant-east_asian:normal" />
      <path
         sodipodi:nodetypes="ssss"
         inkscape:connector-curvature="0"
         id="path3053-2"
         d="m 2032.1215,332.7102 c 3.8199,-0.64286 9.4506,-1.83336 9.3725,-0.0188 -0.093,2.16241 -7.1998,3.79701 -10.6193,4.0075 -4.3932,0.2704 -4.0992,-3.09012 1.2468,-3.98978 z"
         style="color:#000000;display:inline;overflow:visible;visibility:visible;vector-effect:none;fill:#301b0b;fill-opacity:1;fill-rule:nonzero;stroke:none;stroke-width:1;stroke-linecap:butt;stroke-linejoin:miter;stroke-miterlimit:4;stroke-dasharray:none;stroke-dashoffset:0;stroke-opacity:1;marker:none;enable-background:accumulate;font-variant-east_asian:normal" />
      <path
         style="color:#000000;display:inline;overflow:visible;visibility:visible;vector-effect:none;fill:#301b0b;fill-opacity:1;fill-rule:nonzero;stroke:none;stroke-width:1;stroke-linecap:butt;stroke-linejoin:miter;stroke-miterlimit:4;stroke-dasharray:none;stroke-dashoffset:0;stroke-opacity:1;marker:none;enable-background:accumulate;font-variant-east_asian:normal"
         d="m 889.8421,386.35713 c -4.24898,-0.003 -5.59175,4.40809 1.48376,4.4885 8.42447,0.0956 14.88521,-2.2558 19.76472,-4.38262 1.43954,-0.62744 1.25879,-2.0373 -1.98526,-1.59217 -7.69724,1.05613 -14.56579,1.49023 -19.26322,1.48629 z"
         id="path3061-8"
         inkscape:connector-curvature="0"
         sodipodi:nodetypes="sssss" />
      <path
         sodipodi:nodetypes="sssss"
         inkscape:connector-curvature="0"
         id="path3063-9"
         d="m 568.22484,399.05254 c -4.249,-0.003 -5.59175,4.40808 1.48375,4.4885 8.42447,0.0956 14.88521,-2.2558 19.76472,-4.38262 1.43954,-0.62744 1.2588,-2.0373 -1.98526,-1.59219 -7.69723,1.05615 -14.56579,1.49025 -19.26321,1.48631 z"
         style="color:#000000;display:inline;overflow:visible;visibility:visible;vector-effect:none;fill:#301b0b;fill-opacity:1;fill-rule:nonzero;stroke:none;stroke-width:1;stroke-linecap:butt;stroke-linejoin:miter;stroke-miterlimit:4;stroke-dasharray:none;stroke-dashoffset:0;stroke-opacity:1;marker:none;enable-background:accumulate;font-variant-east_asian:normal" />
      <path
         sodipodi:nodetypes="sssss"
         inkscape:connector-curvature="0"
         id="path3065-7"
         d="m 785.56303,325.47871 c 2.93098,-1.3739 6.41642,0.14655 4.73787,2.49362 -3.13425,4.3823 -22.04918,6.96596 -29.92339,6.23403 -2.74481,-0.2551 0.52656,-2.67501 1.74554,-2.74297 8.39507,-0.46808 19.42997,-4.10497 23.43998,-5.98468 z"
         style="color:#000000;display:inline;overflow:visible;visibility:visible;vector-effect:none;fill:#301b0b;fill-opacity:1;fill-rule:nonzero;stroke:none;stroke-width:1;stroke-linecap:butt;stroke-linejoin:miter;stroke-miterlimit:4;stroke-dasharray:none;stroke-dashoffset:0;stroke-opacity:1;marker:none;enable-background:accumulate;font-variant-east_asian:normal" />
      <path
         sodipodi:nodetypes="sssss"
         inkscape:connector-curvature="0"
         id="path3073-3"
         d="m 593.33226,248.30899 c -1.46284,0.54476 -1.7749,3.3823 -0.55726,3.7653 2.93058,0.92186 11.14334,-3.47594 13.08256,-6.27136 0.50049,-0.72142 -0.8939,-0.93767 -2.5477,-0.64036 -3.063,0.55067 -8.01041,2.41382 -9.9776,3.14642 z"
         style="color:#000000;display:inline;overflow:visible;visibility:visible;vector-effect:none;fill:#301b0b;fill-opacity:1;fill-rule:nonzero;stroke:none;stroke-width:1;stroke-linecap:butt;stroke-linejoin:miter;stroke-miterlimit:4;stroke-dasharray:none;stroke-dashoffset:0;stroke-opacity:1;marker:none;enable-background:accumulate;font-variant-east_asian:normal" />
      <path
         sodipodi:nodetypes="sss"
         inkscape:connector-curvature="0"
         id="path3081-6"
         d="m 623.35331,226.73155 c -2.06243,0.15464 -4.3242,2.64338 -1.37147,2.99233 2.79486,0.33029 3.05056,-3.11831 1.37147,-2.99233 z"
         style="color:#000000;display:inline;overflow:visible;visibility:visible;vector-effect:none;fill:#301b0b;fill-opacity:1;fill-rule:nonzero;stroke:none;stroke-width:1;stroke-linecap:butt;stroke-linejoin:miter;stroke-miterlimit:4;stroke-dasharray:none;stroke-dashoffset:0;stroke-opacity:1;marker:none;enable-background:accumulate;font-variant-east_asian:normal" />
      <path
         sodipodi:nodetypes="sssss"
         inkscape:connector-curvature="0"
         id="path3089-1"
         d="m 522.71507,457.61646 c 0.18157,-2.79699 -3.15658,-6.8569 -3.64421,-2.83459 -0.91139,7.51776 -1.01226,11.66942 -2.61568,18.97567 -0.86709,3.95093 1.10819,4.6962 2.81291,-0.0383 3.48323,-9.6741 3.2475,-13.02991 3.44698,-16.1027 z"
         style="color:#000000;display:inline;overflow:visible;visibility:visible;vector-effect:none;fill:#301b0b;fill-opacity:1;fill-rule:nonzero;stroke:none;stroke-width:1;stroke-linecap:butt;stroke-linejoin:miter;stroke-miterlimit:4;stroke-dasharray:none;stroke-dashoffset:0;stroke-opacity:1;marker:none;enable-background:accumulate;font-variant-east_asian:normal" />
      <path
         sodipodi:nodetypes="ssss"
         inkscape:connector-curvature="0"
         id="path3097-2"
         d="m 504.71473,484.41405 c -2.09654,-0.0442 -2.81984,2.01232 -3.17385,3.87916 -0.65143,3.43522 -3.60278,12.27196 -0.7053,10.05055 5.28442,-4.05142 7.44785,-13.85429 3.87915,-13.92971 z"
         style="color:#000000;display:inline;overflow:visible;visibility:visible;vector-effect:none;fill:#301b0b;fill-opacity:1;fill-rule:nonzero;stroke:none;stroke-width:1;stroke-linecap:butt;stroke-linejoin:miter;stroke-miterlimit:4;stroke-dasharray:none;stroke-dashoffset:0;stroke-opacity:1;marker:none;enable-background:accumulate;font-variant-east_asian:normal" />
      <path
         style="color:#000000;display:inline;overflow:visible;visibility:visible;vector-effect:none;fill:#301b0b;fill-opacity:1;fill-rule:nonzero;stroke:none;stroke-width:1;stroke-linecap:butt;stroke-linejoin:miter;stroke-miterlimit:4;stroke-dasharray:none;stroke-dashoffset:0;stroke-opacity:1;marker:none;enable-background:accumulate;font-variant-east_asian:normal"
         d="m 843.89278,455.62155 c 0.18168,-2.79698 -3.15656,-6.85689 -3.64422,-2.83457 -0.91138,7.51775 -1.01225,11.66941 -2.61568,18.97565 -0.86709,3.95094 1.10819,4.6962 2.81291,-0.0383 3.48325,-9.67412 3.24752,-13.02991 3.44699,-16.10271 z"
         id="path3107-9"
         inkscape:connector-curvature="0"
         sodipodi:nodetypes="sssss" />
      <path
         style="color:#000000;display:inline;overflow:visible;visibility:visible;vector-effect:none;fill:#301b0b;fill-opacity:1;fill-rule:nonzero;stroke:none;stroke-width:1;stroke-linecap:butt;stroke-linejoin:miter;stroke-miterlimit:4;stroke-dasharray:none;stroke-dashoffset:0;stroke-opacity:1;marker:none;enable-background:accumulate;font-variant-east_asian:normal"
         d="m 825.89243,482.41913 c -2.09654,-0.0442 -2.81984,2.01233 -3.17385,3.87917 -0.65143,3.43523 -3.60279,12.27197 -0.7053,10.05054 5.28442,-4.0514 7.44785,-13.85427 3.87915,-13.92971 z"
         id="path3109-3"
         inkscape:connector-curvature="0"
         sodipodi:nodetypes="ssss" />
      <path
         sodipodi:nodetypes="ccccccccsccsccsc"
         inkscape:connector-curvature="0"
         id="path3111-1"
         d="m 524.22637,229.41475 c -13.02094,-0.75912 -24.64034,-3.12006 -33.75365,-11.77533 -2.7175,-2.32926 -3.76809,-3.41817 -2.25264,-7.88421 -8.72226,-5.45143 -1.66669,-16.99268 4.12983,-26.28072 1.40701,-0.87939 4.48761,-2.56396 8.63509,-2.25265 1.43998,-3.17376 8.48975,-10.74415 15.76845,-4.50524 21.78569,17.56105 22.54476,15.12161 26.28073,16.14385 5.39484,1.86178 -3.28977,7.4592 -10.13689,6.75791 5.08255,3.27335 8.05912,4.50106 15.01758,7.13332 3.43148,1.29809 -0.2543,4.10303 -6.56366,2.68785 -2.47351,5.12113 -13.80014,1.91254 -16.90127,0.87876 3.19818,3.09545 7.6595,4.54713 10.56338,5.64097 11.78925,4.44093 0.5946,3.92027 -2.86686,3.55729 2.77326,0.92648 1.07097,4.9234 -3.79284,4.52802 1.32794,3.08092 1.25439,5.68381 -4.12725,5.37007 z"
         style="color:#000000;display:inline;overflow:visible;visibility:visible;vector-effect:none;fill:#301b0b;fill-opacity:1;fill-rule:nonzero;stroke:none;stroke-width:1;stroke-linecap:butt;stroke-linejoin:miter;stroke-miterlimit:4;stroke-dasharray:none;stroke-dashoffset:0;stroke-opacity:1;marker:none;enable-background:accumulate;font-variant-east_asian:normal" />
      <path
         sodipodi:nodetypes="ssss"
         inkscape:connector-curvature="0"
         id="path3113-9"
         d="m 544.53592,212.75873 c -2.02784,-0.38371 -3.15903,1.83047 -0.7509,3.00352 1.91,0.93035 6.86831,0.66211 6.38248,-0.37547 -0.8269,-1.76605 -4.03629,-2.32623 -5.63158,-2.62805 z"
         style="color:#000000;display:inline;overflow:visible;visibility:visible;vector-effect:none;fill:#301b0b;fill-opacity:1;fill-rule:nonzero;stroke:none;stroke-width:1;stroke-linecap:butt;stroke-linejoin:miter;stroke-miterlimit:4;stroke-dasharray:none;stroke-dashoffset:0;stroke-opacity:1;marker:none;enable-background:accumulate;font-variant-east_asian:normal" />
      <path
         style="color:#000000;display:inline;overflow:visible;visibility:visible;vector-effect:none;fill:#301b0b;fill-opacity:1;fill-rule:nonzero;stroke:none;stroke-width:1;stroke-linecap:butt;stroke-linejoin:miter;stroke-miterlimit:4;stroke-dasharray:none;stroke-dashoffset:0;stroke-opacity:1;marker:none;enable-background:accumulate;font-variant-east_asian:normal"
         d="m 1620.5161,373.58507 c -8.5171,-2.74094 -8.5661,2.50383 -1.4397,4.78403 2.9125,0.93188 5.6743,2.48022 7.5079,-0.2913 1.0996,-1.6621 -2.6697,-3.39909 -6.0682,-4.49273 z"
         id="path3117-4"
         inkscape:connector-curvature="0"
         sodipodi:nodetypes="ssss" />
      <path
         sodipodi:nodetypes="cssssc"
         inkscape:connector-curvature="0"
         id="path3558-7"
         d="m 636.25,216 c 3.71897,-1.05288 7.43521,-2.4483 9.50001,-2.81244 0.43038,-0.0759 0.1567,1.0325 -1.372,2.03378 -1.69449,1.10976 -5.81542,3.18211 -7.1278,3.59116 -3.16228,0.98563 -2.66696,-2.34057 -1,-2.8125 z"
         style="color:#000000;display:inline;overflow:visible;visibility:visible;vector-effect:none;fill:#301b0b;fill-opacity:1;fill-rule:nonzero;stroke:none;stroke-width:1;stroke-linecap:butt;stroke-linejoin:miter;stroke-miterlimit:4;stroke-dasharray:none;stroke-dashoffset:0;stroke-opacity:1;marker:none;enable-background:accumulate;font-variant-east_asian:normal" />
      <path
         sodipodi:nodetypes="sssss"
         inkscape:connector-curvature="0"
         id="path3649-8"
         d="m 539.54029,224.53293 c -3.2727,-0.18132 -5.70927,4.0586 -1.25,4.47227 3.5105,0.32566 6.73945,-0.45071 9.14644,-1.79549 2.01364,-1.12502 2.82654,-3.02415 -1.92677,-2.86873 -2.19013,0.0716 -3.85493,0.30911 -5.96967,0.19195 z"
         style="color:#000000;display:inline;overflow:visible;visibility:visible;vector-effect:none;fill:#301b0b;fill-opacity:1;fill-rule:nonzero;stroke:none;stroke-width:1;stroke-linecap:butt;stroke-linejoin:miter;stroke-miterlimit:4;stroke-dasharray:none;stroke-dashoffset:0;stroke-opacity:1;marker:none;enable-background:accumulate;font-variant-east_asian:normal" />
      <path
         style="color:#000000;display:inline;overflow:visible;visibility:visible;vector-effect:none;fill:#301b0b;fill-opacity:1;fill-rule:nonzero;stroke:none;stroke-width:1;stroke-linecap:butt;stroke-linejoin:miter;stroke-miterlimit:4;stroke-dasharray:none;stroke-dashoffset:0;stroke-opacity:1;marker:none;enable-background:accumulate;font-variant-east_asian:normal"
         d="m 849.96017,223.82582 c -3.2727,-0.18132 -5.70927,4.0586 -1.25,4.47227 3.5105,0.32566 6.73945,-0.45071 9.14644,-1.79549 2.01364,-1.12502 2.82654,-3.02415 -1.92677,-2.86873 -2.19013,0.0716 -3.85493,0.30911 -5.96967,0.19195 z"
         id="path3657-4"
         inkscape:connector-curvature="0"
         sodipodi:nodetypes="sssss" />
      <path
         sodipodi:nodetypes="sssss"
         inkscape:connector-curvature="0"
         id="path3659-5"
         d="m 1972.3923,467.33852 c -3.9797,0.79572 -7.0543,2.34819 -5.5748,4.74264 3.4839,5.63818 19.8881,-4.14157 25.8094,-8.13172 2.4692,-1.66392 -0.3052,-2.87414 -4.8291,-1.29475 -4.4344,1.54814 -12.5931,4.1215 -15.4055,4.68383 z"
         style="color:#000000;display:inline;overflow:visible;visibility:visible;vector-effect:none;fill:#301b0b;fill-opacity:1;fill-rule:nonzero;stroke:none;stroke-width:1;stroke-linecap:butt;stroke-linejoin:miter;stroke-miterlimit:4;stroke-dasharray:none;stroke-dashoffset:0;stroke-opacity:1;marker:none;enable-background:accumulate;font-variant-east_asian:normal" />
      <path
         sodipodi:nodetypes="ssss"
         inkscape:connector-curvature="0"
         id="path3667-0"
         d="m 2024.9257,427.13291 c -3.5778,2.01837 -2.7034,6.60972 1.4489,4.63284 4.5027,-2.14371 12.079,-7.86904 10.5888,-9.64543 -1.3497,-1.60889 -9.5442,3.6059 -12.0377,5.01259 z"
         style="color:#000000;display:inline;overflow:visible;visibility:visible;vector-effect:none;fill:#301b0b;fill-opacity:1;fill-rule:nonzero;stroke:none;stroke-width:1;stroke-linecap:butt;stroke-linejoin:miter;stroke-miterlimit:4;stroke-dasharray:none;stroke-dashoffset:0;stroke-opacity:1;marker:none;enable-background:accumulate;font-variant-east_asian:normal" />
      <path
         sodipodi:nodetypes="sssss"
         inkscape:connector-curvature="0"
         id="path3675-3"
         d="m 1723.237,318.57813 c -3.2727,-0.18132 -5.7092,4.0586 -1.25,4.47227 3.5105,0.32566 6.7395,-0.45071 9.1465,-1.79549 2.0136,-1.12502 2.8265,-3.02415 -1.9268,-2.86873 -2.1901,0.0716 -3.8549,0.30911 -5.9697,0.19195 z"
         style="color:#000000;display:inline;overflow:visible;visibility:visible;vector-effect:none;fill:#301b0b;fill-opacity:1;fill-rule:nonzero;stroke:none;stroke-width:1;stroke-linecap:butt;stroke-linejoin:miter;stroke-miterlimit:4;stroke-dasharray:none;stroke-dashoffset:0;stroke-opacity:1;marker:none;enable-background:accumulate;font-variant-east_asian:normal" />
      <path
         sodipodi:nodetypes="sssss"
         inkscape:connector-curvature="0"
         id="path3677-6"
         d="m 1593.1116,250.75675 c -5.8125,1.12916 -1.1566,4.41385 0,4.59619 8.3396,1.31474 15.5836,-3.17132 20.3293,-6.54074 1.3363,-0.94877 1.1818,-2.0246 -3.7337,-0.7323 -4.628,1.21671 -12.7664,1.93298 -16.5956,2.67685 z"
         style="color:#000000;display:inline;overflow:visible;visibility:visible;vector-effect:none;fill:#301b0b;fill-opacity:1;fill-rule:nonzero;stroke:none;stroke-width:1;stroke-linecap:butt;stroke-linejoin:miter;stroke-miterlimit:4;stroke-dasharray:none;stroke-dashoffset:0;stroke-opacity:1;marker:none;enable-background:accumulate;font-variant-east_asian:normal" />
    </g>
  </g>
</svg>
