<?xml version="1.0" encoding="UTF-8" standalone="no"?>
<!-- Created With Inkscape (http://www.inkscape.org/) -->

<svg
   xmlns:dc="http://purl.org/dc/elements/1.1/"
   xmlns:cc="http://creativecommons.org/ns#"
   xmlns:rdf="http://www.w3.org/1999/02/22-rdf-syntax-ns#"
   xmlns:svg="http://www.w3.org/2000/svg"
   xmlns="http://www.w3.org/2000/svg"
   xmlns:xlink="http://www.w3.org/1999/xlink"
   xmlns:sodipodi="http://sodipodi.sourceforge.net/DTD/sodipodi-0.dtd"
   xmlns:inkscape="http://www.inkscape.org/namespaces/inkscape"
   id="svg2"
   version="1.1"
   inkscape:version="0.92.4 (5da689c313, 2019-01-14)"
   width="2481"
   height="663"
   sodipodi:docname="E14P00.svg">
  <metadata
     id="metadata8">
    <rdf:RDF>
      <cc:Work
         rdf:about="">
        <dc:format>image/svg+xml</dc:format>
        <dc:type
           rdf:resource="http://purl.org/dc/dcmitype/StillImage" />
        <dc:title />
      </cc:Work>
    </rdf:RDF>
  </metadata>
  <defs
     id="defs6" />
  <sodipodi:namedview
     pagecolor="#ffffff"
     bordercolor="#666666"
     borderopacity="1"
     objecttolerance="10"
     gridtolerance="10"
     guidetolerance="10"
     inkscape:pageopacity="1"
     inkscape:pageshadow="2"
     inkscape:window-width="1920"
     inkscape:window-height="1022"
     id="namedview4"
     showgrid="false"
     inkscape:zoom="1"
     inkscape:cx="964.30101"
     inkscape:cy="280.26881"
     inkscape:window-x="0"
     inkscape:window-y="0"
     inkscape:window-maximized="1"
     inkscape:current-layer="layer1" />
  <g
     inkscape:groupmode="layer"
     id="layer2"
     inkscape:label="artwork"
     style="display:inline">
    <image
       sodipodi:absref="/felles/omsetting/pepper-carrot/webcomics/ep14_The-Dragon-s-Tooth/lang/nn/../gfx_Pepper-and-Carrot_by-David-Revoy_E14P00.png"
       xlink:href="../gfx_Pepper-and-Carrot_by-David-Revoy_E14P00.png"
       style="display:none"
       y="0"
       x="0"
       id="image10"
       height="663"
       width="2481" />
  </g>
  <g
     inkscape:groupmode="layer"
     id="layer1"
     inkscape:label="txt"
     style="display:inline">
    <flowRoot
       xml:space="preserve"
       id="episode-title"
       style="font-style:normal;font-variant:normal;font-weight:normal;font-stretch:normal;line-height:0.01%;font-family:Arial;-inkscape-font-specification:Arial;letter-spacing:0px;word-spacing:0px;fill:#301b0b;fill-opacity:1;stroke:none"
       transform="translate(-701.78125,-120.84729)"><flowRegion
         id="flowRegion2989"><rect
           id="rect2991"
           width="2405.8"
           height="107.55731"
           x="739.22333"
           y="644.36664"
           style="fill:#301b0b;fill-opacity:1" /></flowRegion><flowPara
         id="flowPara2993"
         style="font-style:normal;font-variant:normal;font-weight:normal;font-stretch:normal;font-size:72px;line-height:1.25;font-family:Lavi;-inkscape-font-specification:Lavi;text-align:center;text-anchor:middle;fill:#301b0b;fill-opacity:1">Episode 14: Draketanna</flowPara></flowRoot>    <path
       style="display:inline;opacity:1;fill:#301b0b;fill-opacity:1;stroke-width:1.06920087;enable-background:new"
       d="m 744.66125,498.70915 c -5.40519,-5.4052 -5.77887,-6.11181 -5.77887,-10.92817 0,-6.45698 2.06994,-9.49219 7.46405,-10.94466 2.39231,-0.6442 4.77091,-2.14289 5.5331,-3.48627 0.95895,-1.69027 1.44211,-10.79368 1.70916,-32.20413 l 0.37231,-29.84784 -6.21018,-1.35804 c -8.55762,-1.87135 -15.2483,-4.93046 -15.2483,-6.97181 0,-0.92847 -0.71774,-1.96356 -1.59496,-2.30017 -0.87724,-0.33663 -1.59497,-1.30028 -1.59497,-2.14145 0,-1.19982 0.85924,-1.35798 3.98742,-0.73399 5.80062,1.15704 8.03363,0.87378 14.61452,-1.85384 l 5.90366,-2.44694 -0.38541,-39.40242 c -0.21198,-21.67134 -0.75419,-40.9457 -1.20487,-42.83193 -0.97058,-4.06201 -3.76058,-4.89343 -16.79843,-5.00591 -10.24984,-0.0884 -10.71546,-1.54603 -2.66113,-8.33044 6.33624,-5.33721 8.13193,-6.36549 21.79036,-12.47812 6.84984,-3.06556 10.55535,-4.17784 12.22806,-3.67051 3.42623,1.03919 7.13654,4.70983 8.81844,8.72415 l 1.44787,3.45575 h 12.22742 c 18.72282,0 31.85783,4.60901 48.17485,16.9043 13.0516,9.83461 17.32791,17.58805 17.32791,31.41706 0,9.13392 -2.03711,16.5943 -7.2748,26.6421 -5.01373,9.61808 -20.07981,25.00394 -30.53843,31.18659 -7.61775,4.50326 -31.66336,14.00413 -35.44287,14.00413 -5.50666,0 -5.42891,-0.34537 -5.42891,24.10814 0,13.61611 0.44153,23.64228 1.09484,24.86306 1.27366,2.37981 6.39437,5.25765 9.3553,5.25765 1.12706,0 2.62337,0.69181 3.32509,1.53734 0.9152,1.10273 1.97488,1.27157 3.74852,0.59723 1.45293,-0.55241 5.40193,-0.52529 9.57543,0.0657 5.86852,0.83107 7.74245,0.70231 10.78414,-0.74105 2.68022,-1.27188 5.28723,-1.5812 9.58628,-1.13749 3.24772,0.33519 7.12048,0.14727 8.60614,-0.41758 3.31147,-1.25901 3.98424,-0.72577 2.52473,2.00121 -1.17489,2.19536 -6.49823,3.87868 -6.49823,2.05486 0,-0.58373 -2.37194,1.15731 -5.271,3.86906 -2.89905,2.71171 -5.97504,4.93039 -6.83555,4.93039 -0.86054,0 -2.29972,0.73514 -3.19825,1.63363 -2.09309,2.09314 -7.60885,4.39153 -13.94816,5.81222 -2.74485,0.61513 -6.50982,2.27717 -8.3666,3.69339 -3.96601,3.02506 -12.07168,6.07918 -22.4575,8.46181 -4.09375,0.93915 -7.60267,2.1765 -7.79761,2.74966 -0.19494,0.57318 -2.49897,1.04214 -5.12007,1.04214 -4.35186,0 -5.26739,-0.50177 -10.5445,-5.77886 z m 46.13959,-111.70042 c 17.45041,-8.36287 34.63105,-23.89077 41.24865,-37.28063 3.43776,-6.95589 3.81,-8.5001 3.3591,-13.9372 -0.4696,-5.66226 -0.87148,-6.4445 -5.43315,-10.57443 -6.09819,-5.52103 -12.58352,-7.35727 -25.69945,-7.27643 -10.30929,0.0635 -22.06211,2.60575 -25.20787,5.45263 -1.75149,1.58506 -1.90655,4.28877 -1.90655,33.24726 0,32.3998 0.20784,34.07382 4.23009,34.07382 0.92296,0 5.1571,-1.66728 9.40918,-3.70502 z m 365.43096,83.04945 c -15.217,-4.97186 -22.0016,-9.95863 -27.3388,-20.0944 -1.8197,-3.45597 -2.3722,-6.32544 -2.399,-12.46435 -0.049,-11.25247 4.0357,-19.6545 15.0674,-30.99056 l 8.1859,-8.41175 -3.4163,-6.92764 c -2.6481,-5.37009 -3.1741,-7.37976 -2.3401,-8.93835 1.6299,-3.04538 1.3051,-4.27711 -1.1277,-4.27711 h -2.2038 l 2.2038,-2.8017 c 2.8604,-3.63646 2.8374,-6.80151 -0.055,-7.55795 -2.0476,-0.53544 -2.2041,-1.12381 -1.6716,-6.28349 1.6694,-16.1735 16.3035,-31.90754 31.5766,-33.94993 5.608,-0.74989 13.8585,1.95937 21.6171,7.09846 7.0199,4.64978 12.7847,14.39799 12.781,21.61269 -0.01,9.93057 -3.0692,17.20034 -11.5636,27.4341 -3.2019,3.85742 -5.8215,7.7376 -5.8215,8.62262 0,0.88504 -1.9844,3.30779 -4.41,5.38398 l -4.41,3.77485 7.334,8.14224 c 4.0339,4.47826 8.6848,9.75497 10.3357,11.72605 1.6509,1.97105 3.3983,3.58375 3.8835,3.58375 0.9432,0 3.2164,-5.74824 3.2164,-8.13351 0,-0.97881 -1.4394,-1.44048 -4.519,-1.44945 -4.0065,-0.0117 -4.7978,-0.44342 -6.9774,-3.80697 -3.5231,-5.43744 -2.4748,-9.28727 3.1408,-11.53417 10.906,-4.36373 24.8732,-7.12415 38.1283,-7.53551 7.3104,-0.22686 16.1624,-0.72482 19.6714,-1.10656 l 6.3797,-0.69411 -7.443,7.85732 c -4.0939,4.32154 -8.3612,8.3218 -9.483,8.8895 -1.1217,0.56766 -2.5572,1.98911 -3.19,3.15877 -0.6325,1.16964 -1.2692,2.32534 -1.4146,2.56825 -0.1454,0.24292 -3.4948,0.97076 -7.4431,1.61744 l -7.1787,1.1758 -0.7155,7.21331 c -0.3933,3.96733 -1.6576,9.11815 -2.8094,11.44629 l -2.0944,4.23295 6.5313,4.3709 c 10.7285,7.18 10.4806,6.83176 8.0679,11.33311 -1.1378,2.12269 -2.0685,4.44812 -2.0685,5.16767 0,0.71951 -1.4193,2.7602 -3.154,4.5348 -3.6618,3.74595 -7.4287,4.15134 -11.5682,1.24499 -1.5523,-1.08987 -5.0335,-2.94961 -7.7359,-4.13274 -2.7023,-1.18312 -5.2576,-2.70781 -5.678,-3.38819 -0.5367,-0.86814 -1.7667,-0.47415 -4.1247,1.32106 -5.0257,3.82613 -10.911,6.57572 -20.373,9.51802 -13.0238,4.04988 -15.0499,4.17541 -23.3929,1.44952 z m 25.6262,-27.24178 c 2.2806,-1.37299 4.3221,-2.62874 4.5368,-2.7906 0.2147,-0.16185 -5.0327,-5.56748 -11.6608,-12.01252 l -12.0511,-11.7183 -2.4945,2.34341 c -1.3718,1.28889 -3.4605,3.90668 -4.6415,5.81732 -1.1806,1.91065 -2.7514,3.47391 -3.4902,3.47391 -2.1666,0 -5.1858,4.00514 -4.455,5.90954 0.3663,0.95456 1.5613,1.96967 2.6554,2.25579 1.0944,0.28615 2.6108,1.68083 3.3699,3.09925 0.7591,1.41846 2.852,3.52286 4.6507,4.67644 4.7435,3.04206 17.7414,2.46092 23.5803,-1.05424 z m -7.64,-64.42378 c 13.1882,-11.25285 15.3916,-17.25224 8.8624,-24.1307 -4.087,-4.3055 -9.9648,-5.83992 -14.3233,-3.73913 -4.282,2.06391 -8.9491,9.39035 -9.5869,15.05001 -0.8285,7.34863 2.9236,19.82439 5.962,19.82439 0.4821,0 4.5707,-3.15208 9.0858,-7.00457 z m 195.2076,62.69244 c -9.4959,-1.87955 -19.5732,-5.3926 -25.5842,-8.91888 -17.0567,-10.00618 -28.7457,-21.72899 -36.0314,-36.13588 -4.695,-9.28387 -6.4325,-14.93926 -9.9885,-32.51353 -2.4534,-12.12391 -2.5196,-13.37294 -1.1842,-22.32954 3.4109,-22.87794 11.3885,-51.78657 18.4795,-66.96538 8.848,-18.93967 27.7984,-46.22279 42.0806,-60.58415 11.2485,-11.31069 19.196,-17.24681 31.0807,-23.21471 l 9.8144,-4.9283 11.4519,0.006 c 10.8169,0.005 12.058,0.24135 22.3868,4.25324 14.7078,5.71266 14.7376,5.7086 15.6463,-2.12001 0.4468,-3.85086 1.588,-7.44696 2.8876,-9.09903 2.004,-2.54754 2.5526,-2.68236 8.1378,-1.9999 6.9805,0.85294 17.2684,5.64457 22.2045,10.34173 2.9335,2.79149 3.4488,4.02028 3.4094,8.13062 -0.086,9.01794 -1.605,13.83549 -5.6759,18.00454 -4.4428,4.5499 -5.0197,7.56057 -1.455,7.59581 1.3158,0.013 3.5392,0.90542 4.9411,1.98315 l 2.5484,1.95953 -1.7547,19.03187 c -3.1128,33.76013 -13.8613,80.14292 -18.5717,80.14292 -1.2826,0 -2.3154,-5.29195 -2.3154,-11.86348 0,-2.86978 -0.6716,-6.82486 -1.4922,-8.78903 -0.8382,-2.00596 -1.8333,-9.79741 -2.2705,-17.77633 -0.7096,-12.94672 -1.1964,-15.42746 -5.497,-28.00445 -9.0953,-26.59819 -19.0772,-42.03838 -27.1617,-42.01404 -8.5294,0.0258 -23,9.54113 -37.6565,24.76198 -8.4347,8.75934 -11.2846,11.1033 -12.9656,10.6637 -1.42,-0.37138 -3.0814,0.36327 -4.8729,2.15481 -2.9177,2.91775 -3.3396,4.98378 -1.6587,8.12436 1.4289,2.66992 0.3267,5.12773 -2.4786,5.52735 -1.7392,0.24776 -2.3349,1.10833 -2.4352,3.51792 -0.073,1.75447 -4.0872,11.5635 -8.9208,21.79789 -11.0481,23.39248 -19.7103,49.09066 -20.7882,61.67206 -0.6128,7.15109 -1.311,9.7435 -3.3441,12.41662 -2.4233,3.18596 -2.4772,3.55743 -0.9457,6.51905 0.8933,1.72729 3.0013,4.29934 4.6844,5.71563 1.6832,1.41629 4.4074,4.94233 6.0538,7.83565 4.1682,7.32549 11.7932,15.04206 18.0113,18.22743 4.99,2.55632 5.9155,2.66572 18.6079,2.19996 12.2318,-0.44883 14.3868,-0.85322 25.5849,-4.80079 6.7254,-2.37088 14.0071,-5.07504 16.1814,-6.00923 2.1742,-0.93418 5.2616,-1.69851 6.8608,-1.69851 1.7157,0 4.2363,-1.23023 6.1483,-3.00092 1.7822,-1.65052 6.6538,-4.30265 10.8259,-5.89368 4.1718,-1.59098 8.4771,-3.87822 9.5671,-5.08276 1.0902,-1.20449 3.2567,-2.84921 4.8148,-3.65483 3.3188,-1.71624 3.0894,-4.22862 -0.7665,-8.38905 -2.345,-2.53013 -3.1165,-2.68816 -13.1269,-2.68816 -8.9157,0 -11.8039,-0.44938 -17.8612,-2.77899 -17.8069,-6.84848 -21.173,-7.79975 -27.6944,-7.82666 -3.6552,-0.015 -6.6292,-0.38634 -6.6088,-0.82497 0.02,-0.4386 4.5791,-3.83818 10.1312,-7.55463 5.8934,-3.94506 12.5945,-9.5871 16.1017,-13.55721 3.3039,-3.74003 6.5876,-6.80007 7.297,-6.80007 0.7092,0 5.759,2.93476 11.2216,6.52166 l 9.9319,6.52163 9.0583,-0.69536 c 4.982,-0.38246 12.1049,-1.35563 15.8286,-2.16263 6.3911,-1.38503 7.1772,-1.32893 14.0285,1.00145 3.9923,1.35778 8.2368,2.21285 9.4324,1.90019 3.1933,-0.83507 3.7448,1.92666 1.6464,8.24422 -1.4783,4.45119 -2.4793,5.7387 -5.415,6.96531 -4.0906,1.70921 -4.3127,2.90978 -1.8304,9.89884 l 1.7709,4.98642 -5.949,10.59924 c -8.1942,14.59962 -21.2493,27.03068 -28.3879,27.03068 -1.601,0 -2.9688,1.58596 -5.0801,5.89084 -2.6845,5.47381 -3.7402,6.41432 -14.9103,13.28413 -8.311,5.11139 -15.5383,8.57437 -23.4162,11.21998 -10.4323,3.50332 -12.608,3.85738 -25.7498,4.1898 -7.8951,0.1997 -15.5509,0.12631 -17.0129,-0.16309 z M 486.49204,422.1967 c -8.03668,-3.01736 -14.09572,-11.26827 -15.21502,-20.71912 -0.50707,-4.28145 -0.21507,-5.48436 1.93937,-7.98902 2.06457,-2.40022 3.77558,-3.09477 9.19922,-3.73428 9.40092,-1.10843 10.22993,-2.23329 10.67863,-14.48933 0.35701,-9.75195 0.43977,-10.04182 2.7048,-9.47333 1.5654,0.3929 3.00824,-0.15583 4.3719,-1.66267 2.42387,-2.67833 1.46756,-4.85901 -3.28602,-7.49298 l -3.09565,-1.71532 -0.28089,-32.39898 -0.2809,-32.39898 3.6056,0.42093 c 2.85405,0.33319 3.97218,-0.0987 5.36437,-2.07254 1.64722,-2.33532 1.637,-2.59467 -0.16107,-4.08847 -1.05592,-0.87722 -3.53729,-3.85815 -5.51418,-6.62426 l -3.59433,-5.02932 0.89884,-17.3002 c 0.49438,-9.51514 0.92743,-21.68863 0.96237,-27.0522 0.0575,-8.82649 -0.1742,-10.0048 -2.44101,-12.41589 -1.37748,-1.46518 -5.2054,-3.73142 -8.50649,-5.03613 -3.30108,-1.3047 -7.03991,-3.30085 -8.30849,-4.43587 -3.64917,-3.26499 -6.81501,-11.85794 -7.014,-19.038 -0.16618,-5.99528 0.0567,-6.65704 3.18082,-9.44854 7.2676,-6.4936 40.85636,-14.34312 66.6096,-15.5663 14.22234,-0.6755 32.36426,0.69972 45.86117,3.47644 9.89518,2.03574 27.21182,10.70892 34.69169,17.37562 9.72193,8.66501 21.96176,27.94711 28.11165,44.2859 12.14716,32.27206 -2.63393,64.34652 -41.65746,90.39523 -14.20489,9.48196 -47.4478,24.02319 -64.25563,28.10696 -12.34406,2.9992 -14.76545,4.09359 -15.49579,7.00343 -1.00438,4.00182 0.0131,28.91225 1.23055,30.12913 0.60893,0.60859 3.3775,1.53067 6.15236,2.0491 2.7749,0.5184 5.90304,1.71882 6.95146,2.66762 1.32064,1.19517 3.90263,1.72511 8.40541,1.72511 3.57458,0 6.73134,0.37557 7.01506,0.83463 0.64504,1.04371 32.77522,0.88592 34.48268,-0.16935 0.68804,-0.42523 2.92837,-0.31 4.97849,0.25606 2.13858,0.59051 3.97529,0.62833 4.30876,0.0887 0.50614,-0.81899 6.68253,-0.25727 7.82765,0.71188 1.13778,0.96294 -2.67909,3.62182 -6.10658,4.25387 -2.13431,0.39361 -5.5124,1.5833 -7.50686,2.64378 -1.99445,1.0605 -3.99498,1.70031 -4.44559,1.42181 -0.4506,-0.2785 -2.01018,0.59735 -3.46575,1.94628 -1.51938,1.40815 -6.41866,3.48676 -11.50406,4.8808 -4.87168,1.33551 -10.42896,3.11056 -12.34947,3.94458 -1.92049,0.83403 -4.96227,1.51642 -6.7595,1.51642 -1.7972,0 -6.207,1.38211 -9.79953,3.07136 -13.6096,6.39943 -48.96925,10.71923 -58.48818,7.14536 z m 71.62754,-115.45201 c 2.63169,-0.72517 7.81902,-2.69363 11.52743,-4.37432 6.08193,-2.75645 7.01954,-2.91434 9.56981,-1.61166 5.24302,2.67817 9.6139,-1.10198 8.12653,-7.0282 -0.92897,-3.70127 2.99673,-7.13297 6.00828,-5.25222 3.1331,1.95664 5.56061,-0.3005 4.73937,-4.40674 -0.53133,-2.65669 0.2141,-4.0029 5.332,-9.62935 7.19763,-7.91285 14.76666,-20.43583 17.04512,-28.20122 2.34269,-7.98427 1.58026,-18.19992 -1.92435,-25.78463 -8.38995,-18.15754 -25.86849,-25.35782 -53.03552,-21.84796 -12.21523,1.57817 -15.89517,1.15989 -15.89517,-1.80666 0,-0.75785 -1.24761,-2.04558 -2.77248,-2.86167 -2.55588,-1.36788 -2.93655,-1.28118 -4.87243,1.10953 -1.32147,1.63195 -1.94138,3.67366 -1.67221,5.50764 0.34674,2.36249 -0.11639,3.13974 -2.44582,4.10463 -4.6016,1.90604 -8.61874,6.86541 -9.6085,11.86223 -1.15381,5.82494 -2.6072,87.70924 -1.62616,91.61804 0.40244,1.60344 1.71503,3.27909 2.91689,3.72367 2.04193,0.75536 16.95892,-1.91686 28.58721,-5.12111 z m 107.92603,113.00004 c -15.61524,-2.07109 -21.41749,-7.18094 -28.15561,-24.79586 -4.52238,-11.8225 -4.68469,-12.66418 -5.11437,-26.52296 -0.82694,-26.67094 4.477,-44.75784 18.72093,-63.84037 9.38738,-12.57627 15.08997,-17.66853 25.24032,-22.53901 15.4865,-7.43094 20.67063,-6.843 33.58437,3.80884 7.63796,6.30016 12.67031,14.50237 14.62251,23.83323 1.48926,7.11818 1.52692,31.34866 0.0569,36.64195 -1.44708,5.21083 -4.08804,6.80266 -13.76636,8.29779 -11.28993,1.74409 -53.24862,12.6925 -55.83563,14.56937 -2.58966,1.87883 -3.23892,7.05321 -1.49656,11.92717 2.69465,7.53778 3.34846,8.81678 6.06606,11.86682 6.38333,7.16423 15.25772,6.83718 31.34492,-1.15514 16.50586,-8.20032 21.85894,-11.20588 24.68232,-13.85833 1.56065,-1.46611 3.25919,-2.15767 4.30963,-1.75459 2.06233,0.79138 1.47517,4.73662 -1.88351,12.65577 -1.6613,3.91715 -2.57879,4.94217 -4.01542,4.48621 -2.31147,-0.73363 -7.70919,5.30134 -7.009,7.83645 0.26429,0.95687 0.79136,2.82069 1.17127,4.14188 0.62472,2.17246 -0.25677,2.85939 -9.21959,7.18467 -13.10417,6.32377 -23.3282,8.53911 -33.30319,7.21611 z m 7.97484,-77.98955 c 18.86581,-4.21617 27.2829,-7.05061 29.24159,-9.84704 1.20159,-1.71551 1.58183,-5.29612 1.54333,-14.53364 -0.0617,-14.79405 -1.69285,-19.50636 -6.92965,-20.01879 -7.84449,-0.76759 -27.98258,17.90369 -36.86291,34.17789 -2.76805,5.07275 -5.35063,10.48944 -5.73907,12.03711 -0.64554,2.57201 -0.48708,2.75282 1.84287,2.10322 1.40202,-0.3909 9.00875,-2.15434 16.90384,-3.91875 z m 267.95434,75.87427 c -3.13991,-1.20171 -5.34321,-3.92607 -6.4254,-7.94497 -0.60486,-2.24641 -1.69402,-4.08439 -2.4202,-4.08439 -0.72628,0 -5.37314,1.70988 -10.32631,3.79977 -37.34692,15.75743 -63.45589,6.95642 -61.37582,-20.68917 1.00931,-13.4146 9.08299,-26.75728 20.97452,-34.66278 10.38726,-6.9054 27.8011,-14.92655 38.01164,-17.50881 4.80857,-1.21609 10.01314,-2.69404 11.56574,-3.28434 l 2.82286,-1.07325 -0.71762,-8.74726 c -0.84214,-10.26627 -3.11764,-19.08041 -5.41889,-20.99029 -0.89892,-0.74605 -2.93733,-1.32314 -4.52981,-1.28236 -1.59238,0.0408 -5.20119,0.12688 -8.01957,0.19141 -6.49781,0.14869 -17.92621,5.59318 -28.24863,13.45764 -4.13251,3.1485 -7.95871,5.72455 -8.5027,5.72455 -0.54399,0 -2.76478,2.47178 -4.93526,5.49286 -3.38624,4.71347 -4.09183,5.23264 -4.97256,3.65886 -1.17459,-2.09886 2.53178,-12.35431 7.82257,-21.64488 6.29812,-11.05955 23.27249,-22.56702 36.45198,-24.71205 14.15271,-2.30341 28.84045,4.79145 35.14055,16.97457 3.88022,7.50342 6.8412,32.02725 6.90397,57.18071 0.0219,8.72925 0.68818,10.21823 3.2119,7.17737 0.72796,-0.87725 2.04397,-1.59496 2.9243,-1.59496 2.40985,0 0.91383,7.70646 -2.94459,15.1677 -2.86283,5.53623 -4.16911,11.41506 -2.53635,11.41506 0.34838,0 1.90345,-0.89446 3.45576,-1.98767 1.5523,-1.09321 5.69336,-3.27884 9.20232,-4.85697 3.50886,-1.57811 7.64993,-3.55461 9.20213,-4.3922 1.5523,-0.83758 3.10738,-1.52289 3.45585,-1.52289 1.62253,0 0.27836,3.57503 -3.46978,9.22878 -4.49538,6.78076 -5.67207,9.72317 -5.99309,14.98602 -0.28622,4.69445 -3.58067,7.90725 -12.62289,12.3104 -7.56022,3.68144 -14.6585,5.37248 -17.68662,4.21354 z m -37.43693,-24.32136 c 13.69116,-2.77119 27.26348,-10.10959 30.58806,-16.53862 3.6118,-6.98447 0.35315,-16.89174 -5.55602,-16.89174 -1.7864,0 -2.86612,-0.70945 -3.23677,-2.12664 -0.66949,-2.56036 -2.15984,-2.70496 -4.65014,-0.45125 -1.01816,0.92145 -2.4913,1.78889 -3.27367,1.92767 -6.01309,1.06659 -13.64929,4.23672 -15.82633,6.57017 -1.43495,1.53811 -5.3619,4.73367 -8.72646,7.10128 -7.74023,5.44652 -12.88016,12.81919 -12.01236,17.23025 0.33952,1.72542 1.2081,3.51241 1.9303,3.97114 2.14154,1.36026 11.98422,0.98467 20.76339,-0.79226 z m 609.37164,23.05924 c -2.7012,-0.951 -7.0077,-3.46627 -9.5698,-5.58951 -3.7843,-3.13602 -5.0078,-5.07271 -6.5193,-10.32123 -2.2561,-7.83356 -2.3681,-13.91355 -0.3453,-18.75472 0.8334,-1.99488 2.0633,-7.36251 2.7327,-11.9281 0.6694,-4.56558 1.8729,-12.36825 2.6744,-17.33925 1.4097,-8.74426 1.9512,-14.88107 3.3561,-38.04602 0.3649,-6.01237 1.0622,-11.17826 1.5501,-11.47975 0.4879,-0.30151 1.877,-0.0183 3.0871,0.62926 1.8533,0.99184 2.7854,0.66348 5.9135,-2.08308 3.2671,-2.86858 4.2514,-3.18527 8.1891,-2.63459 2.4618,0.34429 5.0739,0.81028 5.8049,1.03558 2.2527,0.69425 1.511,9.15508 -1.7776,20.27519 -1.7087,5.77804 -3.4334,14.5727 -3.8326,19.54369 -0.3991,4.97098 -1.8554,14.54078 -3.2359,21.2662 -2.9446,14.34399 -4.1857,25.35784 -3.2694,29.00925 1.8454,7.35278 22.9602,5.68041 40.2863,-3.19091 5.1133,-2.61811 10.4224,-6.09774 11.798,-7.73251 2.5505,-3.03101 4.1318,-10.2856 5.623,-25.79483 0.3793,-3.94753 1.1025,-7.17734 1.6066,-7.17734 1.3618,0 1.1104,-6.13441 -0.2867,-6.99784 -1.504,-0.92957 -0.5868,-29.95512 1.1265,-35.64425 l 1.1536,-3.83127 11.3091,-0.73116 c 10.7309,-0.69376 11.4373,-0.61073 13.8161,1.62415 3.0529,2.86791 3.1965,6.13812 0.4246,9.66213 -1.702,2.16379 -2.1954,4.95952 -2.6979,15.29558 -0.3383,6.95632 -1.0378,15.51877 -1.5546,19.02769 -0.5167,3.50893 -1.2679,11.64325 -1.6689,18.07631 -0.453,7.26571 -1.4918,13.71038 -2.742,17.01299 -2.4391,6.443 -2.5127,7.97482 -0.3835,7.97482 1.8687,0 11.3608,-4.62765 15.5469,-7.57954 1.5524,-1.09464 4.0645,-1.99025 5.5823,-1.99025 3.8345,0 3.6357,3.23395 -0.6044,9.84166 -1.8504,2.88365 -3.7299,7.555 -4.1767,10.3808 -0.4465,2.8258 -1.6154,6.36404 -2.5976,7.86279 -3.539,5.40132 -18.7983,12.28418 -27.2889,12.30906 -3.2174,0.01 -4.4268,-0.63559 -6.6457,-3.54465 -1.4918,-1.95585 -2.7124,-4.28971 -2.7124,-5.18634 0,-3.84948 -2.6685,-4.11157 -10.2139,-1.0032 -14.6927,6.05275 -23.9919,8.47965 -34.445,8.98954 -7.6178,0.3716 -11.3092,0.0676 -15.0128,-1.23635 z m -527.09281,-3.26262 c -2.38926,-2.46197 -4.66067,-5.51656 -5.04754,-6.78796 -0.38695,-1.27139 -1.30039,-3.02938 -2.02985,-3.90659 -2.258,-2.71528 -2.82703,-7.13955 -1.1357,-8.83086 1.20521,-1.20528 3.61358,-1.42332 11.04262,-0.99974 l 9.50115,0.54173 0.40555,-22.43346 c 0.28751,-15.90514 0.78748,-22.81544 1.71798,-23.74599 0.9298,-0.92983 1.3125,-6.18705 1.3125,-18.03121 0,-16.10293 -0.094,-16.83063 -2.5556,-19.75595 -1.77319,-2.10721 -2.39365,-3.8847 -2.02648,-5.80513 0.69903,-3.65706 -1.2407,-4.6901 -4.6331,-2.46733 -2.09013,1.3695 -3.27965,1.53525 -5.004,0.69739 -1.24411,-0.60454 -4.05643,-1.64808 -6.24948,-2.31901 -4.6914,-1.43522 -4.97942,-2.96293 -1.25951,-6.68279 3.13801,-3.13796 18.92185,-9.17154 25.98147,-9.93167 9.8675,-1.06251 15.945,5.37329 15.948,16.88866 8e-4,3.36273 0.3952,6.11404 0.8762,6.11404 0.4809,0 3.6182,-3.10591 6.9718,-6.90201 7.5027,-8.49305 13.832,-12.40382 20.231,-12.50055 6.6266,-0.10016 11.183,1.94246 10.4641,4.69118 -0.4845,1.85271 -0.1168,2.09666 2.7124,1.79991 4.6778,-0.49069 8.02,3.10884 13.5977,14.64489 5.2456,10.84939 5.3384,11.35035 3.0988,16.71052 -0.8772,2.09951 -1.5949,5.74663 -1.5949,8.10468 0,3.16321 -0.4321,4.28739 -1.6478,4.28739 -2.3573,0 -8.001,3.01012 -11.1418,5.94249 -2.4721,2.30806 -3.0276,2.40857 -6.9115,1.25039 -2.3228,-0.69266 -4.4627,-1.5178 -4.755,-1.83369 -0.2925,-0.31585 -1.4887,-1.09974 -2.6583,-1.74195 -3.146,-1.72743 -4.8819,-5.7025 -3.5648,-8.16346 0.9907,-1.85115 1.2328,-1.72189 2.8553,1.5245 1.8784,3.75855 4.0103,4.68808 8.2889,3.61422 2.8668,-0.71952 6.7753,-8.20646 6.7753,-12.97862 0,-3.71097 -1.993,-7.03225 -3.8032,-6.33765 -0.981,0.37648 -1.5134,-0.12839 -1.5134,-1.43532 0,-3.37858 -4.9966,-6.42548 -10.5107,-6.40915 -2.699,0.009 -6.0071,0.30913 -7.3515,0.66922 -2.6387,0.70677 -6.2023,6.87689 -10.3307,17.88654 -3.0592,8.15815 -7.9656,37.2213 -8.0748,47.82972 -0.1002,9.74269 1.4116,12.63036 8.1797,15.62416 3.2399,1.43321 4.6952,2.72063 4.6952,4.15378 0,2.4934 2.3927,2.7237 4.3089,0.41471 1.2512,-1.50731 1.4663,-1.50731 2.3097,0 1.1594,2.07152 4.4078,2.15575 6.0664,0.15732 1.4975,-1.80446 7.3483,-0.51603 9.2302,2.03264 0.6492,0.87937 2.2043,1.59884 3.4557,1.59884 2.6949,0 2.9854,2.34012 0.5421,4.36785 -2.2505,1.86776 -12.8405,5.16616 -16.6513,5.18629 -1.6316,0.009 -4.981,1.06044 -7.4433,2.33738 -3.4514,1.78999 -7.2772,2.49763 -16.7048,3.08973 -6.7254,0.42243 -16.5925,1.11637 -21.9268,1.54212 l -9.69886,0.77407 z m 713.69471,2.30582 c -3.5813,-2.90624 -8.9027,-10.97123 -8.9027,-13.49263 0,-3.32715 5.1716,-7.72852 10.1016,-8.59735 8.3955,-1.47955 7.9748,0.79493 7.9748,-43.12511 0,-24.02279 -0.4438,-41.19413 -1.1496,-44.4848 -1.2916,-6.02328 -4.1167,-8.89401 -10.6909,-10.86367 -4.1863,-1.25428 -5.1655,-2.97655 -2.78,-4.89056 1.3265,-1.06454 19.7366,-4.51048 24.0973,-4.51048 3.4539,0 10.756,7.3398 11.6498,11.70992 1.1347,5.54763 3.3755,5.03361 8.678,-1.99054 3.622,-4.798 6.3199,-7.07351 11.3387,-9.56322 6.4321,-3.1909 6.705,-3.23163 11.7048,-1.74686 6.4977,1.92961 13.1898,6.82733 15.7017,11.49139 1.853,3.44106 1.8703,4.34263 0.3418,17.86204 -1.6,14.14956 -1.6429,14.29093 -6.9216,22.74455 -2.9214,4.67859 -5.9779,8.50648 -6.7921,8.50648 -1.1289,0 -1.6156,-2.52684 -2.048,-10.63311 -0.6558,-12.29213 -2.2507,-16.17411 -8.0526,-19.59729 -6.357,-3.75069 -7.9209,-2.8488 -11.7791,6.79248 -5.4936,13.72924 -11.8571,54.2553 -9.5139,60.59029 2.7527,7.44175 2.2991,7.2571 14.58,5.93578 6.0938,-0.65567 12.8849,-1.58348 15.0914,-2.06187 2.4339,-0.5276 4.2629,-0.46393 4.6495,0.16191 0.3508,0.5674 -2.7307,4.45142 -6.8481,8.63113 -4.1168,4.17971 -8.1879,9.32085 -9.0464,11.42478 -2.72,6.6658 -6.4292,8.01943 -25.7295,9.39004 -9.3572,0.66452 -18.4484,1.42062 -20.2029,1.68029 -2.0271,0.3 -4.0145,-0.19702 -5.452,-1.36359 z m 261.1782,0.82236 c -14.5929,-1.25017 -23.5099,-10.17392 -26.9921,-27.01319 -1.3362,-6.46048 -1.7172,-14.7482 -1.7172,-37.3436 0,-15.97219 -0.2905,-29.79722 -0.6455,-30.72228 -0.5117,-1.33389 -2.354,-1.68194 -8.9027,-1.68194 h -8.2573 l -4.4754,-4.85525 c -2.7252,-2.95652 -4.2364,-5.47785 -3.8646,-6.44723 0.3361,-0.87557 -0.1,-2.9668 -0.969,-4.64718 -0.8688,-1.68036 -1.3325,-3.69958 -1.0304,-4.48715 0.8184,-2.13248 15.2269,-9.07752 20.5485,-9.90442 8.6342,-1.34171 8.7514,-1.71024 8.6174,-27.08195 -0.071,-13.47286 -0.5849,-23.49724 -1.3018,-25.39659 -1.3312,-3.52642 0.2185,-6.52842 3.335,-6.46082 2.7156,0.0589 14.6897,7.75956 17.3757,11.17441 2.2162,2.81719 2.481,4.5337 3.0668,19.86661 0.5387,14.09887 0.9481,17.1221 2.5599,18.90334 2.46,2.71822 4.1127,2.65767 10.6584,-0.39051 3.4576,-1.61004 8.5193,-2.76678 14.3224,-3.27298 4.936,-0.43061 10.1858,-1.39707 11.6655,-2.14771 1.4798,-0.75063 5.7024,-1.64965 9.3834,-1.99778 5.5739,-0.52719 6.8031,-0.34465 7.3544,1.09192 0.4553,1.18633 -0.6341,2.75234 -3.4893,5.01534 -2.2831,1.80972 -9.6769,8.12218 -16.4307,14.02768 -9.0772,7.93756 -13.8693,11.33224 -18.3779,13.01907 -3.3542,1.25499 -8.4092,3.45275 -11.2335,4.88386 l -5.1349,2.60205 -0.6989,31.16456 c -0.7889,35.17471 -0.2106,42.22144 3.7929,46.225 2.5377,2.53749 2.8532,2.59763 5.7504,1.09527 1.686,-0.87432 9.4213,-7.61837 17.1897,-14.98673 14.9399,-14.17061 19.1364,-16.52155 17.745,-9.94128 -1.7031,8.05548 -4.7011,14.60246 -8.0617,17.60508 -3.1216,2.78925 -3.3913,3.44592 -2.3522,5.72709 1.9,4.16952 -2.6589,12.3878 -10.5112,18.94907 -8.8602,7.40337 -10.7138,8.13117 -18.9191,7.42824 z m -137.9433,-1.62617 c -5.4734,-1.72334 -14.4482,-8.03805 -19.6012,-13.79152 -4.8313,-5.39425 -10.8984,-17.46614 -12.4513,-24.77431 -1.6204,-7.62676 -1.4482,-26.60739 0.3302,-36.36609 1.4175,-7.77745 6.2683,-22.19429 9.7021,-28.83478 4.1374,-8.00044 15.2843,-17.35649 28.6447,-24.04249 15.5125,-7.76296 41.2569,-3.4458 50.6533,8.49419 1.5425,1.95993 4.2315,6.40793 5.9756,9.88443 9.8754,19.68391 12.169,38.51428 7.3099,60.01813 -1.813,8.02294 -3.3703,12.59374 -4.5287,13.2914 -0.9712,0.5848 -2.8872,2.02028 -4.2574,3.18993 -2.3849,2.03539 -2.4205,2.27018 -0.8294,5.47528 1.5917,3.2062 1.5403,3.54197 -1.2063,7.89294 -4.4409,7.03459 -11.9348,14.51337 -18.0474,18.01064 -5.5148,3.15534 -5.6723,3.17796 -21.3761,3.07359 -9.9264,-0.0659 -17.4958,-0.63272 -20.318,-1.52134 z m 30.7664,-22.97345 c 9.784,-2.16795 17.0182,-13.88799 18.4714,-29.92454 0.3961,-4.37046 0.3478,-16.73827 -0.1074,-27.48402 l -0.8275,-19.53773 -8.8694,-6.64568 c -9.8713,-7.39664 -11.8367,-7.84532 -21.7171,-4.95792 -9.5001,2.77632 -19.1082,13.98189 -21.7565,25.37371 -0.8039,3.45855 -3.0146,7.95631 -5.6921,11.58077 -4.9406,6.68763 -5.2141,8.09989 -2.3584,12.1739 1.1108,1.58457 2.2834,5.38468 2.606,8.44468 0.7393,7.01341 9.6109,25.4452 13.629,28.31537 6.3797,4.55734 14.4329,5.36244 26.622,2.66146 z m -222.4411,19.29234 c -2.3178,-2.5107 -4.5208,-5.5734 -4.8954,-6.80601 -0.3746,-1.23262 -1.2779,-2.95885 -2.0074,-3.83606 -2.3668,-2.8463 -2.8242,-7.14243 -0.9585,-9.008 1.306,-1.30602 2.8208,-1.55332 6.3102,-1.03007 l 4.5915,0.68854 1.2601,-4.62921 c 0.693,-2.54607 1.1792,-8.55393 1.0803,-13.35081 -0.1267,-6.16411 0.3133,-9.67474 1.5012,-11.97189 1.3029,-2.51928 1.4145,-3.74782 0.4965,-5.46289 -1.6194,-3.02586 -1.4738,-9.16421 0.508,-21.41536 0.9212,-5.6957 1.675,-12.33807 1.675,-14.76084 0,-2.65593 0.9107,-5.87843 2.2934,-8.11581 2.0079,-3.24864 2.1351,-4.14814 1.0236,-7.22273 -1.4543,-4.02145 -0.1387,-17.86809 2.5348,-26.6806 0.8626,-2.84313 1.5734,-7.72418 1.5798,-10.84681 0.01,-3.12264 1.4015,-11.73546 3.1001,-19.1396 1.6987,-7.40416 3.1249,-15.85457 3.1696,-18.77867 0.045,-2.92411 0.4543,-10.18046 0.9102,-16.12525 l 0.8292,-10.8087 -2.8657,1.69279 c -2.0699,1.22275 -3.2541,1.37942 -4.2646,0.5642 -0.7693,-0.62072 -2.9208,-1.45385 -4.7811,-1.85139 -10.1908,-2.17779 -4.6997,-8.79956 11.8474,-14.28653 8.9646,-2.97257 11.4639,-3.39705 16.4696,-2.79713 7.5987,0.91069 17.3788,3.68321 18.3709,5.2079 1.1483,1.76459 -0.1489,5.0062 -3.5748,8.93423 -1.6757,1.92101 -3.0467,4.20885 -3.0467,5.0841 0,0.87523 -0.8372,1.90554 -1.8606,2.28955 -4.336,1.62693 -5.943,7.5958 -2.9388,10.91536 1.7321,1.9138 1.763,1.64629 -3.1966,27.6622 -1.3936,7.31027 -3.0611,18.0763 -3.7053,23.92449 -2.6697,24.23233 -5.5571,45.50376 -8.0159,59.05158 -1.7904,9.86374 -2.6122,18.24805 -2.6122,26.64539 0,9.12738 -0.3981,12.77935 -1.5611,14.31688 -2.2202,2.93529 -2.2002,15.68421 0.029,17.533 0.9111,0.75608 2.306,2.92939 3.0998,4.82953 1.8952,4.53544 5.2593,6.37539 8.7493,4.78521 3.4592,-1.57616 4.5708,-0.69931 4.5708,3.60598 0,2.97082 -0.9157,4.37754 -5.4093,8.30822 -5.8924,5.15461 -6.7179,5.3652 -26.555,6.77326 l -9.5353,0.67684 z m -563.8288,-6.13137 c -2.1696,-0.48198 -2.2314,-0.7681 -0.76,-3.5173 1.0456,-1.95377 5.2222,-2.82256 6.6596,-1.38527 0.8954,0.89549 -0.9705,4.27598 -2.6801,4.85543 -0.7473,0.25328 -2.1959,0.27449 -3.2195,0.0471 z"
       id="path8305"
       inkscape:connector-curvature="0" />
  </g>
</svg>
