<?xml version="1.0" encoding="UTF-8" standalone="no"?>
<!-- Created with Inkscape (http://www.inkscape.org/) -->

<svg
   xmlns:dc="http://purl.org/dc/elements/1.1/"
   xmlns:cc="http://creativecommons.org/ns#"
   xmlns:rdf="http://www.w3.org/1999/02/22-rdf-syntax-ns#"
   xmlns:svg="http://www.w3.org/2000/svg"
   xmlns="http://www.w3.org/2000/svg"
   xmlns:xlink="http://www.w3.org/1999/xlink"
   xmlns:sodipodi="http://sodipodi.sourceforge.net/DTD/sodipodi-0.dtd"
   xmlns:inkscape="http://www.inkscape.org/namespaces/inkscape"
   id="svg2"
   version="1.1"
   inkscape:version="0.92.2 (5c3e80d, 2017-08-06)"
   width="2481"
   height="3503"
   sodipodi:docname="E22P01.svg"
   inkscape:export-filename="E:\Users\jamesmichael\Downloads\Compressed\eps\ep22_The-Voting-System_lang-pack\lang\ph\E22P01.png"
   inkscape:export-xdpi="90"
   inkscape:export-ydpi="90">
  <sodipodi:namedview
     pagecolor="#ffffff"
     bordercolor="#666666"
     inkscape:pageopacity="0"
     inkscape:pageshadow="2"
     inkscape:window-width="1813"
     inkscape:window-height="955"
     id="namedview70"
     showgrid="false"
     inkscape:zoom="0.28284271"
     inkscape:cx="1087.5114"
     inkscape:cy="1051.2558"
     inkscape:current-layer="layer3"
     inkscape:snap-grids="false"
     inkscape:snap-to-guides="false"
     inkscape:snap-others="false"
     inkscape:snap-nodes="false"
     inkscape:snap-global="false" />
  <metadata
     id="metadata8">
    <rdf:RDF>
      <cc:Work
         rdf:about="">
        <dc:format>image/svg+xml</dc:format>
        <dc:type
           rdf:resource="http://purl.org/dc/dcmitype/StillImage" />
        <dc:title />
      </cc:Work>
    </rdf:RDF>
  </metadata>
  <defs
     id="defs6">
    <linearGradient
       id="linearGradient8735"
       inkscape:collect="always">
      <stop
         id="stop8721"
         offset="0"
         style="stop-color:#ffffff;stop-opacity:1" />
      <stop
         style="stop-color:#e9c6af;stop-opacity:1"
         offset="0.07419292"
         id="stop8723" />
      <stop
         id="stop8737"
         offset="0.15019362"
         style="stop-color:#ebcbb6;stop-opacity:1;" />
      <stop
         style="stop-color:#edd1be;stop-opacity:1;"
         offset="0.24908218"
         id="stop8739" />
      <stop
         id="stop8725"
         offset="0.30221421"
         style="stop-color:#f4e3d7;stop-opacity:1" />
      <stop
         style="stop-color:#f4e3d7;stop-opacity:1"
         offset="0.47863522"
         id="stop8727" />
      <stop
         id="stop8729"
         offset="0.65345997"
         style="stop-color:#f4e3d7;stop-opacity:1" />
      <stop
         id="stop8731"
         offset="0.85317916"
         style="stop-color:#e9c6af;stop-opacity:1" />
      <stop
         id="stop8733"
         offset="1"
         style="stop-color:#deaa87;stop-opacity:1" />
    </linearGradient>
    <linearGradient
       inkscape:collect="always"
       id="linearGradient8719">
      <stop
         style="stop-color:#784421;stop-opacity:1"
         offset="0"
         id="stop8709" />
      <stop
         id="stop8711"
         offset="0.23221996"
         style="stop-color:#a05a2c;stop-opacity:1" />
      <stop
         style="stop-color:#e6c0a6;stop-opacity:1;"
         offset="0.77302378"
         id="stop8713" />
      <stop
         style="stop-color:#ffe6d5;stop-opacity:1"
         offset="1"
         id="stop8717" />
    </linearGradient>
    <linearGradient
       id="linearGradient8679"
       inkscape:collect="always">
      <stop
         id="stop8665"
         offset="0"
         style="stop-color:#ffffff;stop-opacity:1" />
      <stop
         style="stop-color:#e9c6af;stop-opacity:1"
         offset="0.23126289"
         id="stop8667" />
      <stop
         id="stop8669"
         offset="0.30221421"
         style="stop-color:#fbf6f3;stop-opacity:1;" />
      <stop
         style="stop-color:#803300;stop-opacity:1"
         offset="0.47863522"
         id="stop8671" />
      <stop
         id="stop8673"
         offset="0.65345997"
         style="stop-color:#e9c6af;stop-opacity:1" />
      <stop
         id="stop8675"
         offset="0.90295857"
         style="stop-color:#deaa87;stop-opacity:1" />
      <stop
         id="stop8677"
         offset="1"
         style="stop-color:#deaa87;stop-opacity:1" />
    </linearGradient>
    <linearGradient
       id="linearGradient8661"
       inkscape:collect="always">
      <stop
         id="stop8647"
         offset="0"
         style="stop-color:#803300;stop-opacity:1" />
      <stop
         style="stop-color:#a05a2c;stop-opacity:0"
         offset="0.35282242"
         id="stop8649" />
      <stop
         id="stop8685"
         offset="0.62873071"
         style="stop-color:#c87137;stop-opacity:1" />
      <stop
         id="stop8657"
         offset="0.96112567"
         style="stop-color:#deaa87;stop-opacity:1" />
      <stop
         id="stop8659"
         offset="1"
         style="stop-color:#ffe6d5;stop-opacity:1" />
    </linearGradient>
    <inkscape:path-effect
       effect="simplify"
       id="path-effect8617"
       is_visible="true"
       steps="1"
       threshold="0.00317343"
       smooth_angles="360"
       helper_size="0"
       simplify_individual_paths="false"
       simplify_just_coalesce="false"
       simplifyindividualpaths="false"
       simplifyJustCoalesce="false" />
    <linearGradient
       inkscape:collect="always"
       id="linearGradient8570">
      <stop
         style="stop-color:#803300;stop-opacity:1"
         offset="0"
         id="stop8556" />
      <stop
         id="stop8558"
         offset="0.23126289"
         style="stop-color:#e9c6af;stop-opacity:1" />
      <stop
         style="stop-color:#fbf6f3;stop-opacity:1;"
         offset="0.30221421"
         id="stop8560" />
      <stop
         id="stop8562"
         offset="0.47863522"
         style="stop-color:#803300;stop-opacity:1" />
      <stop
         style="stop-color:#e9c6af;stop-opacity:1"
         offset="0.65345997"
         id="stop8564" />
      <stop
         style="stop-color:#deaa87;stop-opacity:1"
         offset="0.90295857"
         id="stop8566" />
      <stop
         style="stop-color:#deaa87;stop-opacity:1"
         offset="1"
         id="stop8568" />
    </linearGradient>
    <linearGradient
       inkscape:collect="always"
       id="linearGradient8552">
      <stop
         style="stop-color:#803300;stop-opacity:1"
         offset="0"
         id="stop8538" />
      <stop
         id="stop8540"
         offset="0.23126289"
         style="stop-color:#e9c6af;stop-opacity:1" />
      <stop
         style="stop-color:#fbf6f3;stop-opacity:1;"
         offset="0.30221421"
         id="stop8542" />
      <stop
         id="stop8544"
         offset="0.7298665"
         style="stop-color:#d38d5f;stop-opacity:1" />
      <stop
         style="stop-color:#ffffff;stop-opacity:1"
         offset="0.79019099"
         id="stop8546" />
      <stop
         style="stop-color:#deaa87;stop-opacity:1"
         offset="0.90295857"
         id="stop8548" />
      <stop
         style="stop-color:#deaa87;stop-opacity:1"
         offset="1"
         id="stop8550" />
    </linearGradient>
    <linearGradient
       inkscape:collect="always"
       id="linearGradient8488">
      <stop
         style="stop-color:#ffe6d5;stop-opacity:1"
         offset="0"
         id="stop8474" />
      <stop
         id="stop8476"
         offset="0.23126289"
         style="stop-color:#e9c6af;stop-opacity:1" />
      <stop
         style="stop-color:#f4e3d7;stop-opacity:1"
         offset="0.30221421"
         id="stop8478" />
      <stop
         id="stop8480"
         offset="0.47863522"
         style="stop-color:#f4e3d7;stop-opacity:1" />
      <stop
         style="stop-color:#f4e3d7;stop-opacity:1"
         offset="0.65345997"
         id="stop8482" />
      <stop
         style="stop-color:#e9c6af;stop-opacity:1"
         offset="0.85317916"
         id="stop8484" />
      <stop
         style="stop-color:#deaa87;stop-opacity:1"
         offset="1"
         id="stop8486" />
    </linearGradient>
    <linearGradient
       id="linearGradient8447-0"
       inkscape:collect="always">
      <stop
         id="stop8435"
         offset="0"
         style="stop-color:#803300;stop-opacity:1" />
      <stop
         style="stop-color:#e9c6af;stop-opacity:1"
         offset="0.23126289"
         id="stop8437" />
      <stop
         id="stop8439"
         offset="0.30221421"
         style="stop-color:#fbf6f3;stop-opacity:1;" />
      <stop
         style="stop-color:#803300;stop-opacity:1"
         offset="0.47863522"
         id="stop8449" />
      <stop
         id="stop8441"
         offset="0.65345997"
         style="stop-color:#ffffff;stop-opacity:1" />
      <stop
         id="stop8443"
         offset="0.90295857"
         style="stop-color:#deaa87;stop-opacity:1" />
      <stop
         id="stop8445"
         offset="1"
         style="stop-color:#deaa87;stop-opacity:1" />
    </linearGradient>
    <inkscape:path-effect
       simplifyJustCoalesce="false"
       simplifyindividualpaths="false"
       simplify_just_coalesce="false"
       simplify_individual_paths="false"
       helper_size="0"
       smooth_angles="360"
       threshold="0.00317343"
       steps="1"
       is_visible="true"
       id="path-effect8425"
       effect="simplify" />
    <inkscape:path-effect
       effect="simplify"
       id="path-effect8421"
       is_visible="true"
       steps="1"
       threshold="0.00317343"
       smooth_angles="360"
       helper_size="0"
       simplify_individual_paths="false"
       simplify_just_coalesce="false"
       simplifyindividualpaths="false"
       simplifyJustCoalesce="false" />
    <linearGradient
       inkscape:collect="always"
       id="linearGradient4839">
      <stop
         style="stop-color:#d38d5f;stop-opacity:1"
         offset="0"
         id="stop4835" />
      <stop
         id="stop4841"
         offset="0.12478228"
         style="stop-color:#e9c6af;stop-opacity:1" />
      <stop
         style="stop-color:#fbf6f3;stop-opacity:1;"
         offset="0.30221421"
         id="stop4847" />
      <stop
         style="stop-color:#ffffff;stop-opacity:1"
         offset="0.6419732"
         id="stop4845" />
      <stop
         style="stop-color:#e9c6af;stop-opacity:1"
         offset="0.90295857"
         id="stop4843" />
      <stop
         style="stop-color:#deaa87;stop-opacity:1"
         offset="1"
         id="stop4837" />
    </linearGradient>
    <filter
       inkscape:collect="always"
       style="color-interpolation-filters:sRGB"
       id="filter4213"
       x="-0.0010298714"
       width="1.0020597"
       y="-0.0014578935"
       height="1.0029159">
      <feGaussianBlur
         inkscape:collect="always"
         stdDeviation="0.24308766"
         id="feGaussianBlur4215" />
    </filter>
    <filter
       style="color-interpolation-filters:sRGB"
       inkscape:label="Drop Shadow"
       id="filter4348">
      <feFlood
         flood-opacity="0.498039"
         flood-color="rgb(70,103,83)"
         result="flood"
         id="feFlood4350" />
      <feComposite
         in="flood"
         in2="SourceGraphic"
         operator="in"
         result="composite1"
         id="feComposite4352" />
      <feGaussianBlur
         in="composite1"
         stdDeviation="3"
         result="blur"
         id="feGaussianBlur4354" />
      <feOffset
         dx="6"
         dy="6"
         result="offset"
         id="feOffset4356" />
      <feComposite
         in="SourceGraphic"
         in2="offset"
         operator="over"
         result="composite2"
         id="feComposite4358" />
    </filter>
    <filter
       style="color-interpolation-filters:sRGB"
       inkscape:label="Drop Shadow"
       id="filter4105">
      <feFlood
         flood-opacity="0.498039"
         flood-color="rgb(70,103,83)"
         result="flood"
         id="feFlood4107" />
      <feComposite
         in="flood"
         in2="SourceGraphic"
         operator="in"
         result="composite1"
         id="feComposite4109" />
      <feGaussianBlur
         in="composite1"
         stdDeviation="3"
         result="blur"
         id="feGaussianBlur4111" />
      <feOffset
         dx="6"
         dy="6"
         result="offset"
         id="feOffset4113" />
      <feComposite
         in="SourceGraphic"
         in2="offset"
         operator="over"
         result="composite2"
         id="feComposite4115" />
    </filter>
    <linearGradient
       inkscape:collect="always"
       xlink:href="#linearGradient4839"
       id="linearGradient4828"
       x1="175.0089"
       y1="305.10956"
       x2="908.6322"
       y2="305.10959"
       gradientUnits="userSpaceOnUse" />
    <linearGradient
       inkscape:collect="always"
       xlink:href="#linearGradient8447-0"
       id="linearGradient8433"
       x1="205.44983"
       y1="618.39056"
       x2="640.83124"
       y2="462.82709"
       gradientUnits="userSpaceOnUse"
       gradientTransform="matrix(-1.2891586,0,0,1.2891586,2399.2458,-360.24294)" />
    <linearGradient
       inkscape:collect="always"
       xlink:href="#linearGradient8488"
       id="linearGradient8457"
       x1="194.84323"
       y1="535.30554"
       x2="659.39276"
       y2="535.30554"
       gradientUnits="userSpaceOnUse"
       gradientTransform="matrix(-1.2891586,0,0,1.2891586,2399.2458,-360.24294)" />
    <linearGradient
       inkscape:collect="always"
       xlink:href="#linearGradient8570"
       id="linearGradient8512"
       x1="420.65063"
       y1="587.89362"
       x2="864.74469"
       y2="529.14362"
       gradientUnits="userSpaceOnUse"
       gradientTransform="matrix(-1.2891586,0,0,1.2891586,1062.4943,-383.25287)" />
    <linearGradient
       inkscape:collect="always"
       xlink:href="#linearGradient8552"
       id="linearGradient8554"
       gradientUnits="userSpaceOnUse"
       x1="420.65063"
       y1="587.89362"
       x2="864.74469"
       y2="529.14362"
       gradientTransform="matrix(-1.2891586,0,0,1.2891586,1062.4943,-383.25287)" />
    <linearGradient
       inkscape:collect="always"
       xlink:href="#linearGradient8679"
       id="linearGradient8663"
       gradientUnits="userSpaceOnUse"
       gradientTransform="matrix(-1.2891586,0,0,1.2891586,1062.4943,-383.25287)"
       x1="214.36299"
       y1="570.39661"
       x2="640.83124"
       y2="462.82709" />
    <linearGradient
       inkscape:collect="always"
       xlink:href="#linearGradient8735"
       id="linearGradient8681"
       gradientUnits="userSpaceOnUse"
       gradientTransform="matrix(-1.2891586,0,0,1.2891586,1062.4943,-383.25287)"
       x1="187.98695"
       y1="541.4762"
       x2="659.39276"
       y2="535.30554" />
    <linearGradient
       inkscape:collect="always"
       xlink:href="#linearGradient8661"
       id="linearGradient8693"
       x1="2043.7202"
       y1="313.52859"
       x2="2207.6765"
       y2="279.77859"
       gradientUnits="userSpaceOnUse"
       gradientTransform="translate(-1336.7515,-23.0099)" />
    <linearGradient
       inkscape:collect="always"
       xlink:href="#linearGradient8719"
       id="linearGradient8695"
       gradientUnits="userSpaceOnUse"
       gradientTransform="matrix(-1.2891586,0,0,1.2891586,1062.4943,-383.25287)"
       x1="143.94272"
       y1="515.70642"
       x2="244.74799"
       y2="519.00928" />
    <filter
       style="color-interpolation-filters:sRGB;"
       inkscape:label="Brilliance"
       id="filter8812">
      <feColorMatrix
         values="1.82 -0.26 -0.26 0 0 -0.26 1.82 -0.26 0 0 -0.26 -0.26 1.82 0 0 0 0 0 1 0 "
         id="feColorMatrix8810" />
    </filter>
  </defs>
  <sodipodi:namedview
     pagecolor="#ffffff"
     bordercolor="#666666"
     borderopacity="1"
     objecttolerance="10"
     gridtolerance="10"
     guidetolerance="10"
     inkscape:pageopacity="0"
     inkscape:pageshadow="2"
     inkscape:window-width="1920"
     inkscape:window-height="1025"
     id="namedview4"
     showgrid="false"
     inkscape:zoom="0.50655138"
     inkscape:cx="1201.6662"
     inkscape:cy="477.65474"
     inkscape:window-x="0"
     inkscape:window-y="26"
     inkscape:window-maximized="1"
     inkscape:current-layer="layer3" />
  <g
     inkscape:groupmode="layer"
     id="layer2"
     inkscape:label="artwork"
     sodipodi:insensitive="true">
    <image
       sodipodi:absref="E:\Users\jamesmichael\Downloads\Compressed\eps\ep22_The-Voting-System_lang-pack\lang\ph\../gfx_Pepper-and-Carrot_by-David-Revoy_E22P01.png"
       xlink:href="../gfx_Pepper-and-Carrot_by-David-Revoy_E22P01.png"
       y="0"
       x="0"
       id="image10"
       height="3503"
       width="2481" />
  </g>
  <g
     inkscape:groupmode="layer"
     id="layer3"
     inkscape:label="speechbubbles">
    <rect
       style="color:#000000;display:inline;overflow:visible;visibility:visible;fill:#550000;fill-opacity:1;fill-rule:nonzero;stroke:none;stroke-width:2.5999999;marker:none;enable-background:accumulate"
       id="rect4632-8-6-1"
       width="292.44955"
       height="424.16736"
       x="502.71411"
       y="2227.5073"
       ry="40"
       rx="29.55051" />
    <path
       style="color:#000000;display:inline;overflow:visible;visibility:visible;fill:#550000;fill-opacity:1;fill-rule:nonzero;stroke:none;stroke-width:1px;marker:none;enable-background:accumulate"
       d="m 723.15496,2703.9114 -67.49629,-45.0229 -16.54791,22.8126 -48.03221,-12.2104 57.38357,37.464 13.72027,-23.6602 z"
       id="path4032"
       inkscape:connector-curvature="0"
       sodipodi:nodetypes="ccccccc" />
    <path
       sodipodi:nodetypes="ccccccc"
       inkscape:connector-curvature="0"
       id="path4796"
       d="m 714.31613,2224.8466 -67.49629,-45.0229 -16.54791,22.8126 -48.03221,-12.2104 57.38357,37.464 13.72027,-23.6602 z"
       style="color:#000000;display:inline;overflow:visible;visibility:visible;fill:#550000;fill-opacity:1;fill-rule:nonzero;stroke:none;stroke-width:1px;marker:none;enable-background:accumulate" />
    <g
       id="g8744"
       style="filter:url(#filter8812)">
      <path
         sodipodi:nodetypes="ccsscscscsccssccscc"
         inkscape:original-d="m 210.1737,271.0195 c -18.6627,-0.9106 -36.3723,1.0942 -52.4154,9.1157 -0.6403,0.3202 -18.506,0.865 -13.6736,5.6974 3.1883,3.1881 8.4029,0.4266 11.3947,3.4184 3.1717,3.1716 6.9575,8.2176 9.1157,12.5341 2.4118,4.8235 8.2024,5.9234 10.2552,7.9762 2.4252,2.4253 -7.4106,14.8214 -7.9762,15.9526 -0.6078,1.2154 -1.8095,5.961 -2.4172,7.1764 -2.4935,4.9869 -22.6511,34.9838 -22.6511,34.9838 0,0 9.2878,-3.4184 11.3947,-3.4184 14.5337,0 34.7346,-7.7927 51.2759,-2.2789 4.333,1.4443 6.7936,5.6685 10.2553,7.9762 9.8115,6.5411 14.7545,9.1158 29.626,9.1158 1.3173,0 6.0148,0.822 6.8368,0 11.6401,-11.6401 -0.7592,-33.8748 -2.658,-39.5713 -2.1386,-6.4155 -16.7272,2.5171 -20.1312,-2.589 -1.1465,-1.7196 -0.8283,-16.5749 0,-18.2314 3.472,-6.9442 20.8777,-24.3334 15.9524,-34.184 -3.9408,-7.8816 -26.0083,-11.6297 -34.184,-13.6736 z"
         inkscape:path-effect="#path-effect8421"
         inkscape:connector-curvature="0"
         id="path8419"
         d="m 210.1737,271.0195 c -18.2032,-1.15165 -35.14084,10.37836 -53.38498,9.25424 -4.20821,-0.25929 -20.53432,8.44556 -9.99926,7.01724 12.75573,-1.72939 13.29117,16.90504 23.06787,19.52123 11.30051,3.02395 -1.29753,12.79898 -2.98323,18.90169 -3.36068,12.16665 -13.10841,21.24248 -18.55882,32.40601 -1.81185,3.71103 -11.45257,11.10253 -1.60222,8.04499 9.05352,-2.8102 18.59405,-3.21539 28.03611,-4.41706 11.13619,-1.41728 25.81781,-5.7854 33.96347,2.97891 9.0766,9.76595 22.84484,10.57284 35.64506,14.54205 10.90435,3.38132 13.32538,-11.45975 11.20294,-19.08914 -2.13599,-7.6781 -1.49823,-22.64755 -9.38439,-22.66585 -7.43557,-0.0172 -15.97909,5.1118 -18.51461,-7.99979 -1.7877,-9.24448 4.81486,-15.84984 9.44253,-23.06591 4.0319,-6.28707 12.32217,-15.01881 7.25353,-21.75501 -5.99296,-7.96461 -16.83856,-9.64839 -25.9478,-11.78318 -2.74252,-0.64272 -5.50018,-1.21993 -8.2362,-1.89042 z"
         style="fill:url(#linearGradient8512);fill-opacity:1;stroke:url(#linearGradient8554);stroke-width:1.28915858px;stroke-linecap:butt;stroke-linejoin:miter;stroke-opacity:1" />
      <path
         style="fill:url(#linearGradient8695);fill-opacity:1;stroke:url(#linearGradient8693);stroke-width:1.97599995;stroke-linecap:butt;stroke-linejoin:miter;stroke-miterlimit:4;stroke-dasharray:none;stroke-opacity:1"
         d="m 777.6002,207.2525 c 27.89789,-1.76494 53.85624,15.90559 81.81685,14.18288 6.44938,-0.39736 31.47044,12.94352 15.32474,10.75449 -19.54914,-2.65047 -20.36981,25.90826 -35.35337,29.91784 -17.31901,4.63454 1.9885,19.61536 4.57198,28.96829 5.15053,18.64636 20.08964,32.55584 28.44288,49.66482 2.77683,5.68746 17.55199,17.01557 2.45552,12.32958 -13.87521,-4.30691 -28.49682,-4.9279 -42.96753,-6.7695 -17.06709,-2.17203 -39.56795,-8.86672 -52.05171,4.56542 -13.9105,14.96727 -35.01167,16.20355 -54.62896,22.28678 -16.71179,5.18225 -20.42214,-17.56291 -17.16931,-29.25554 3.2736,-11.76728 2.29612,-34.70917 14.38227,-34.7372 11.39565,-0.0264 24.48921,7.8343 28.37517,-12.26036 2.73983,-14.16791 -7.37912,-24.29108 -14.47144,-35.35028 -6.17925,-9.63543 -18.88479,-23.01754 -11.11669,-33.34132 9.18467,-12.20639 25.80641,-14.78687 39.76703,-18.05865 4.20311,-0.98503 8.42942,-1.86965 12.62257,-2.89725 z"
         id="path8423"
         inkscape:connector-curvature="0"
         inkscape:path-effect="#path-effect8425"
         inkscape:original-d="m 777.6002,207.2525 c 28.6022,-1.3955 55.7436,1.677 80.3309,13.9706 0.9813,0.4906 28.3618,1.3257 20.9559,8.7316 -4.8862,4.8862 -12.8781,0.6538 -17.4632,5.239 -4.8609,4.8608 -10.663,12.5942 -13.9706,19.2095 -3.6962,7.3924 -12.5709,9.0782 -15.7169,12.2243 -3.7171,3.7169 11.3574,22.7148 12.2241,24.4485 0.9315,1.8627 2.7733,9.1358 3.7046,10.9985 3.8214,7.6427 34.7146,53.6154 34.7146,53.6154 0,0 -14.2344,-5.239 -17.4632,-5.239 -22.2741,0 -53.2337,-11.9429 -78.5846,-3.4926 -6.6404,2.2135 -10.4117,8.6875 -15.7169,12.2243 -15.037,10.0246 -22.6125,13.9705 -45.4043,13.9705 -2.0188,0 -9.2181,1.2599 -10.478,0 -17.8392,-17.8392 1.1637,-51.9158 4.0737,-60.6461 3.2775,-9.8322 25.6359,3.8577 30.8528,-3.9678 1.757,-2.6355 1.2693,-25.4024 0,-27.9411 -5.3212,-10.6425 -31.9969,-37.2928 -24.4485,-52.3897 6.0396,-12.0792 39.8598,-17.8234 52.3896,-20.9559 z"
         sodipodi:nodetypes="ccsscscscsccssccscc" />
      <path
         sodipodi:nodetypes="ccccccccccc"
         inkscape:connector-curvature="0"
         id="path8411"
         d="M 780.9027,225.3335 C 767.8364,247.7414 737.368,242.492 715.478,245.5776 553.6781,248.61 417.0327,200.4617 269.1583,221.3363 c -18.9269,5.6834 -37.7904,12.1884 -55.8576,20.1882 -2.5977,15.743 18.6154,25.6157 10.1746,50.0007 -1.9115,20.9318 -25.546,53.6994 6.7501,61.9021 179.2183,-54.7593 403.5821,75.5504 543.6013,36.8838 19.4028,-10.2866 24.2147,-29.8048 19.8656,-50.0252 -0.074,-23.723 -2.7397,-27.7882 8.6533,-49.6944 7.4204,-18.0802 15.9761,-47.5076 -4.1369,-59.7747 -2.2503,-2.0592 -21.713,-8.5103 -17.306,-5.4833 z"
         style="opacity:1;fill:url(#linearGradient8681);fill-opacity:1;fill-rule:nonzero;stroke:url(#linearGradient8663);stroke-width:1.28915858;stroke-linecap:round;stroke-miterlimit:4;stroke-dasharray:none;stroke-opacity:1" />
    </g>
  </g>
  <g
     inkscape:groupmode="layer"
     id="layer1"
     inkscape:label="txt">
    <text
       xml:space="preserve"
       style="font-style:normal;font-variant:normal;font-weight:normal;font-stretch:normal;line-height:0%;font-family:Lavi;-inkscape-font-specification:'Lavi, Normal';text-align:center;letter-spacing:0px;word-spacing:0px;writing-mode:lr-tb;text-anchor:middle;display:inline;fill:#ffffff;fill-opacity:1;stroke:none"
       x="643.78589"
       y="2331.7854"
       id="text4246-2-3-1"><tspan
         sodipodi:role="line"
         x="651.69604"
         y="2331.7854"
         style="font-size:45px;line-height:1.25;fill:#ffffff"
         id="tspan4158">Ang </tspan><tspan
         sodipodi:role="line"
         x="651.69604"
         y="2388.0354"
         style="font-size:45px;line-height:1.25;fill:#ffffff"
         id="tspan4788">contest ay </tspan><tspan
         sodipodi:role="line"
         x="651.69604"
         y="2444.2854"
         style="font-size:45px;line-height:1.25;fill:#ffffff"
         id="tspan4786">maaari </tspan><tspan
         sodipodi:role="line"
         x="643.78589"
         y="2500.5354"
         style="font-size:45px;line-height:1.25;fill:#ffffff"
         id="tspan4784">nang mag</tspan><tspan
         sodipodi:role="line"
         x="643.78589"
         y="2556.7854"
         style="font-size:45px;line-height:1.25;fill:#ffffff"
         id="tspan4792">simula!</tspan><tspan
         sodipodi:role="line"
         x="643.78589"
         y="2575.3188"
         style="font-size:45px;line-height:1.25;fill:#ffffff"
         id="tspan4780" /><tspan
         sodipodi:role="line"
         x="643.78589"
         y="2575.3188"
         style="font-size:45px;line-height:1.25;fill:#ffffff"
         id="tspan4782" /></text>
    <text
       xml:space="preserve"
       style="font-style:normal;font-variant:normal;font-weight:normal;font-stretch:normal;line-height:0%;font-family:Lavi;-inkscape-font-specification:Lavi;text-align:center;letter-spacing:0px;word-spacing:0px;text-anchor:middle;display:inline;opacity:0.6;fill:#000000;fill-opacity:1;stroke:none;filter:url(#filter4213)"
       x="-447.29675"
       y="2872.5061"
       id="text4246"
       transform="matrix(0.49197812,-0.17439938,-0.0864419,0.68586428,2224.6757,842.8289)"><tspan
         sodipodi:role="line"
         style="font-style:normal;font-variant:normal;font-weight:normal;font-stretch:normal;font-size:68.81560516px;line-height:1.26999998;font-family:Fondamento;-inkscape-font-specification:Fondamento;stroke:#000000;stroke-width:1.67631352;stroke-opacity:1"
         x="-447.29675"
         y="2872.5061"
         id="tspan4172">Magic Contest</tspan></text>
    <text
       xml:space="preserve"
       style="font-style:normal;font-variant:normal;font-weight:normal;font-stretch:normal;font-size:50.9811058px;line-height:1.25;font-family:Lavi;-inkscape-font-specification:Lavi;letter-spacing:0px;word-spacing:0px;fill:#a05a2c;fill-opacity:1;stroke:none;stroke-width:1.27452767"
       id="text4810"><textPath
         xlink:href="#path8615"
         id="textPath8634"><tspan
   style="stroke-width:1.27452767"
   id="tspan4808">KOMONA</tspan></textPath></text>
    <text
       id="text4814"
       style="font-style:normal;font-variant:normal;font-weight:normal;font-stretch:normal;font-size:50.9811058px;line-height:1.25;font-family:Lavi;-inkscape-font-specification:Lavi;letter-spacing:0px;word-spacing:0px;fill:#a05a2c;fill-opacity:1;stroke:none;stroke-width:1.27452767"
       xml:space="preserve"
       x="-2.6516504"
       y="-18.561554"><textPath
         xlink:href="#path8615"
         id="textPath8637">              CITY</textPath></text>
    <path
       style="fill:none;stroke:none;stroke-width:0.83233845px;stroke-linecap:butt;stroke-linejoin:miter;stroke-opacity:1"
       inkscape:path-effect="#path-effect8617"
       inkscape:original-d="m 315.495,290.1479 c 9.8955,-11.6994 54.0184,-7.8013 95.2003,-4.4233 44.1629,3.4008 52.0629,7.7167 93.1318,18.5149 60.2305,6.3708 95.4143,22.8816 157.1589,16.9609 34.6468,-2.1594 69.8591,-4.0282 102.8013,-11.2012"
       id="path8615"
       d="m 315.495,290.1479 c 19.86623,-12.84466 45.73303,-7.51501 68.14155,-6.54606 39.51302,1.70855 77.1238,14.736 116.4354,19.64415 55.60097,6.94192 110.37273,21.1245 167.41626,17.55156 32.23631,-2.01913 64.64985,-3.94837 96.29909,-10.79835"
       inkscape:connector-curvature="0"
       sodipodi:nodetypes="ccccc" />
    <text
       xml:space="preserve"
       style="font-style:normal;font-variant:normal;font-weight:normal;font-stretch:normal;font-size:34.66666794px;line-height:1.25;font-family:Lavi;-inkscape-font-specification:Lavi;letter-spacing:0px;word-spacing:0px;fill:#c87137;fill-opacity:1;stroke:none;"
       id="text8642"
       x="23.864855"
       y="38.890873"
       transform="translate(0,40)"><textPath
         xlink:href="#path8615"
         id="textPath8644"><tspan
   id="tspan8640"
   style="font-style:normal;font-variant:normal;font-weight:normal;font-stretch:normal;font-family:Lavi;-inkscape-font-specification:Lavi;fill:#c87137;">               Contest Stadium</tspan></textPath></text>
  </g>
</svg>
