<?xml version="1.0" encoding="UTF-8" standalone="no"?>
<!-- Created with Inkscape (http://www.inkscape.org/) -->

<svg
   xmlns:dc="http://purl.org/dc/elements/1.1/"
   xmlns:cc="http://creativecommons.org/ns#"
   xmlns:rdf="http://www.w3.org/1999/02/22-rdf-syntax-ns#"
   xmlns:svg="http://www.w3.org/2000/svg"
   xmlns="http://www.w3.org/2000/svg"
   xmlns:xlink="http://www.w3.org/1999/xlink"
   xmlns:sodipodi="http://sodipodi.sourceforge.net/DTD/sodipodi-0.dtd"
   xmlns:inkscape="http://www.inkscape.org/namespaces/inkscape"
   id="svg2"
   version="1.1"
   inkscape:version="0.92.2 (5c3e80d, 2017-08-06)"
   width="2481"
   height="3503"
   sodipodi:docname="E22P10.svg"
   inkscape:export-filename="E:\Users\jamesmichael\Downloads\Compressed\eps\ep22_The-Voting-System_lang-pack\lang\ph\E22P10.png"
   inkscape:export-xdpi="90"
   inkscape:export-ydpi="90">
  <sodipodi:namedview
     pagecolor="#ffffff"
     bordercolor="#666666"
     inkscape:pageopacity="0"
     inkscape:pageshadow="2"
     inkscape:window-width="1813"
     inkscape:window-height="955"
     id="namedview70"
     showgrid="false"
     inkscape:zoom="0.2"
     inkscape:cx="1214.0995"
     inkscape:cy="1394.1948"
     inkscape:current-layer="layer3" />
  <metadata
     id="metadata8">
    <rdf:RDF>
      <cc:Work
         rdf:about="">
        <dc:format>image/svg+xml</dc:format>
        <dc:type
           rdf:resource="http://purl.org/dc/dcmitype/StillImage" />
        <dc:title />
      </cc:Work>
    </rdf:RDF>
  </metadata>
  <defs
     id="defs6">
    <inkscape:path-effect
       effect="simplify"
       id="path-effect5126"
       is_visible="true"
       steps="1"
       threshold="0.00317343"
       smooth_angles="360"
       helper_size="0"
       simplify_individual_paths="false"
       simplify_just_coalesce="false"
       simplifyindividualpaths="false"
       simplifyJustCoalesce="false" />
    <inkscape:path-effect
       simplifyJustCoalesce="false"
       simplifyindividualpaths="false"
       simplify_just_coalesce="false"
       simplify_individual_paths="false"
       helper_size="0"
       smooth_angles="360"
       threshold="0.00317343"
       steps="1"
       is_visible="true"
       id="path-effect5122"
       effect="simplify" />
    <inkscape:path-effect
       effect="simplify"
       id="path-effect5026"
       is_visible="true"
       steps="1"
       threshold="0.00317343"
       smooth_angles="360"
       helper_size="0"
       simplify_individual_paths="false"
       simplify_just_coalesce="false"
       simplifyindividualpaths="false"
       simplifyJustCoalesce="false" />
    <filter
       style="color-interpolation-filters:sRGB;"
       id="filter4375-4-1-1-1-9-6-9-2-1"
       inkscape:label="Drop Shadow">
      <feFlood
         id="feFlood4377-7-9-0-8-1-0-2-2-06"
         flood-opacity="0"
         flood-color="rgb(0,0,0)"
         result="flood" />
      <feComposite
         id="feComposite4379-3-8-8-2-77-6-0-8-3"
         in2="SourceGraphic"
         in="flood"
         operator="in"
         result="composite1" />
      <feMorphology
         id="feMorphology4393-1-0-49-8-9-2-2-9-2"
         operator="dilate"
         radius="6.0999999999999996"
         result="result3" />
      <feComposite
         id="feComposite4385-9-5-7-0-8-6-3-7-0"
         in2="result3"
         in="SourceGraphic"
         operator="over"
         result="fbSourceGraphic" />
      <feColorMatrix
         result="fbSourceGraphicAlpha"
         in="fbSourceGraphic"
         values="0 0 0 -1 0 0 0 0 -1 0 0 0 0 -1 0 0 0 0 1 0"
         id="feColorMatrix5296" />
      <feFlood
         id="feFlood5298"
         flood-opacity="0.498039"
         flood-color="rgb(0,0,0)"
         result="flood"
         in="fbSourceGraphic" />
      <feComposite
         in2="fbSourceGraphic"
         id="feComposite5300"
         in="flood"
         operator="in"
         result="composite1" />
      <feGaussianBlur
         id="feGaussianBlur5302"
         in="composite1"
         stdDeviation="1.9"
         result="blur" />
      <feOffset
         id="feOffset5304"
         dx="7"
         dy="5.7"
         result="offset" />
      <feComposite
         in2="offset"
         id="feComposite5306"
         in="fbSourceGraphic"
         operator="over"
         result="fbSourceGraphic" />
      <feColorMatrix
         result="fbSourceGraphicAlpha"
         in="fbSourceGraphic"
         values="0 0 0 -1 0 0 0 0 -1 0 0 0 0 -1 0 0 0 0 1 0"
         id="feColorMatrix5308" />
      <feFlood
         id="feFlood5310"
         flood-opacity="0.498039"
         flood-color="rgb(0,0,0)"
         result="flood"
         in="fbSourceGraphic" />
      <feComposite
         in2="fbSourceGraphic"
         id="feComposite5312"
         in="flood"
         operator="in"
         result="composite1" />
      <feGaussianBlur
         id="feGaussianBlur5314"
         in="composite1"
         stdDeviation="1.9"
         result="blur" />
      <feOffset
         id="feOffset5316"
         dx="7"
         dy="5.7"
         result="offset" />
      <feComposite
         in2="offset"
         id="feComposite5318"
         in="fbSourceGraphic"
         operator="over"
         result="composite2" />
    </filter>
    <linearGradient
       inkscape:collect="always"
       xlink:href="#linearGradient4197"
       id="linearGradient4203-2"
       x1="1294.5955"
       y1="356.86307"
       x2="1292.6337"
       y2="414.89822"
       gradientUnits="userSpaceOnUse"
       gradientTransform="translate(-35.085353,-0.44828889)" />
    <linearGradient
       inkscape:collect="always"
       id="linearGradient4197">
      <stop
         style="stop-color:#ffd005;stop-opacity:1"
         offset="0"
         id="stop4199" />
      <stop
         style="stop-color:#fff798;stop-opacity:1"
         offset="1"
         id="stop4201" />
    </linearGradient>
    <filter
       style="color-interpolation-filters:sRGB"
       id="filter4375-4-1-1-1-9-5-8-8-8-7"
       inkscape:label="Score-style">
      <feFlood
         id="feFlood4377-7-9-0-8-1-7-3-1-45-4"
         flood-opacity="1"
         flood-color="rgb(210,55,0)"
         result="flood" />
      <feComposite
         id="feComposite4379-3-8-8-2-77-4-1-0-0-4"
         in2="SourceGraphic"
         in="flood"
         operator="in"
         result="composite1"
         baseFrequency="0.053999999999999999 0.053999999999999999" />
      <feMorphology
         id="feMorphology4393-1-0-49-8-9-3-0-1-36-3"
         operator="dilate"
         radius="3.7999999999999998"
         result="result3" />
      <feComposite
         id="feComposite4385-9-5-7-0-8-8-7-5-1-0"
         in2="result3"
         in="SourceGraphic"
         operator="over"
         result="fbSourceGraphic" />
      <feColorMatrix
         result="fbSourceGraphicAlpha"
         in="fbSourceGraphic"
         values="0 0 0 -1 0 0 0 0 -1 0 0 0 0 -1 0 0 0 0 1 0"
         id="feColorMatrix4544-9-0-7" />
      <feTurbulence
         id="feTurbulence4546-3-63-8"
         type="fractalNoise"
         numOctaves="5"
         seed="174"
         baseFrequency="0 0"
         result="turbulence" />
      <feDisplacementMap
         id="feDisplacementMap4548-8-2-6"
         in2="turbulence"
         in="fbSourceGraphic"
         scale="0"
         yChannelSelector="G"
         xChannelSelector="R"
         result="fbSourceGraphic" />
      <feColorMatrix
         result="fbSourceGraphicAlpha"
         in="fbSourceGraphic"
         values="0 0 0 -1 0 0 0 0 -1 0 0 0 0 -1 0 0 0 0 1 0"
         id="feColorMatrix4670-7-0-8" />
      <feFlood
         id="feFlood4672-4-6-8"
         flood-opacity="1"
         flood-color="rgb(255,255,255)"
         result="flood"
         in="fbSourceGraphic"
         stdDeviation="2.7999999999999998" />
      <feComposite
         id="feComposite4674-8-1-4"
         in2="fbSourceGraphic"
         in="flood"
         operator="in"
         result="composite1" />
      <feGaussianBlur
         id="feGaussianBlur4676-3-5-3"
         in="composite1"
         stdDeviation="0.01"
         result="blur" />
      <feOffset
         id="feOffset4678-6-5-1"
         dx="0"
         dy="0"
         result="offset"
         stdDeviation="4.7000000000000002" />
      <feComposite
         id="feComposite4680-4-47-4"
         in2="offset"
         in="fbSourceGraphic"
         operator="over"
         result="composite2" />
    </filter>
    <linearGradient
       inkscape:collect="always"
       xlink:href="#linearGradient4197"
       id="linearGradient4993"
       x1="1294.5955"
       y1="356.86307"
       x2="1292.6337"
       y2="414.89822"
       gradientUnits="userSpaceOnUse"
       gradientTransform="translate(-578.67382,-1353.798)" />
    <linearGradient
       inkscape:collect="always"
       xlink:href="#linearGradient4197"
       id="linearGradient4203-2-7"
       x1="1294.5955"
       y1="356.86307"
       x2="1292.6337"
       y2="414.89822"
       gradientUnits="userSpaceOnUse"
       gradientTransform="translate(-35.085353,-0.44828889)" />
    <filter
       style="color-interpolation-filters:sRGB"
       id="filter4375-4-1-1-1-9-5-8-8-8-7-3"
       inkscape:label="Score-style">
      <feFlood
         id="feFlood4377-7-9-0-8-1-7-3-1-45-4-6"
         flood-opacity="1"
         flood-color="rgb(210,55,0)"
         result="flood" />
      <feComposite
         id="feComposite4379-3-8-8-2-77-4-1-0-0-4-0"
         in2="SourceGraphic"
         in="flood"
         operator="in"
         result="composite1"
         baseFrequency="0.053999999999999999 0.053999999999999999" />
      <feMorphology
         id="feMorphology4393-1-0-49-8-9-3-0-1-36-3-6"
         operator="dilate"
         radius="3.7999999999999998"
         result="result3" />
      <feComposite
         id="feComposite4385-9-5-7-0-8-8-7-5-1-0-2"
         in2="result3"
         in="SourceGraphic"
         operator="over"
         result="fbSourceGraphic" />
      <feColorMatrix
         result="fbSourceGraphicAlpha"
         in="fbSourceGraphic"
         values="0 0 0 -1 0 0 0 0 -1 0 0 0 0 -1 0 0 0 0 1 0"
         id="feColorMatrix4544-9-0-7-6" />
      <feTurbulence
         id="feTurbulence4546-3-63-8-1"
         type="fractalNoise"
         numOctaves="5"
         seed="174"
         baseFrequency="0 0"
         result="turbulence" />
      <feDisplacementMap
         id="feDisplacementMap4548-8-2-6-8"
         in2="turbulence"
         in="fbSourceGraphic"
         scale="0"
         yChannelSelector="G"
         xChannelSelector="R"
         result="fbSourceGraphic" />
      <feColorMatrix
         result="fbSourceGraphicAlpha"
         in="fbSourceGraphic"
         values="0 0 0 -1 0 0 0 0 -1 0 0 0 0 -1 0 0 0 0 1 0"
         id="feColorMatrix4670-7-0-8-7" />
      <feFlood
         id="feFlood4672-4-6-8-9"
         flood-opacity="1"
         flood-color="rgb(255,255,255)"
         result="flood"
         in="fbSourceGraphic"
         stdDeviation="2.7999999999999998" />
      <feComposite
         id="feComposite4674-8-1-4-2"
         in2="fbSourceGraphic"
         in="flood"
         operator="in"
         result="composite1" />
      <feGaussianBlur
         id="feGaussianBlur4676-3-5-3-0"
         in="composite1"
         stdDeviation="0.01"
         result="blur" />
      <feOffset
         id="feOffset4678-6-5-1-2"
         dx="0"
         dy="0"
         result="offset"
         stdDeviation="4.7000000000000002" />
      <feComposite
         id="feComposite4680-4-47-4-3"
         in2="offset"
         in="fbSourceGraphic"
         operator="over"
         result="composite2" />
    </filter>
    <linearGradient
       inkscape:collect="always"
       xlink:href="#linearGradient4197"
       id="linearGradient4362"
       x1="1294.5955"
       y1="356.86307"
       x2="1292.6337"
       y2="414.89822"
       gradientUnits="userSpaceOnUse"
       gradientTransform="translate(-578.67382,-1353.798)" />
    <linearGradient
       inkscape:collect="always"
       xlink:href="#linearGradient4197"
       id="linearGradient5001"
       x1="1294.5955"
       y1="356.86307"
       x2="1292.6337"
       y2="414.89822"
       gradientUnits="userSpaceOnUse"
       gradientTransform="translate(-578.67382,-1353.798)" />
    <linearGradient
       inkscape:collect="always"
       xlink:href="#linearGradient4197"
       id="linearGradient4203-2-7-2"
       x1="1294.5955"
       y1="356.86307"
       x2="1292.6337"
       y2="414.89822"
       gradientUnits="userSpaceOnUse"
       gradientTransform="translate(-35.085353,-0.44828889)" />
    <filter
       style="color-interpolation-filters:sRGB"
       id="filter4375-4-1-1-1-9-5-8-8-8-7-3-9"
       inkscape:label="Score-style">
      <feFlood
         id="feFlood4377-7-9-0-8-1-7-3-1-45-4-6-7"
         flood-opacity="1"
         flood-color="rgb(210,55,0)"
         result="flood" />
      <feComposite
         id="feComposite4379-3-8-8-2-77-4-1-0-0-4-0-3"
         in2="SourceGraphic"
         in="flood"
         operator="in"
         result="composite1"
         baseFrequency="0.053999999999999999 0.053999999999999999" />
      <feMorphology
         id="feMorphology4393-1-0-49-8-9-3-0-1-36-3-6-6"
         operator="dilate"
         radius="3.7999999999999998"
         result="result3" />
      <feComposite
         id="feComposite4385-9-5-7-0-8-8-7-5-1-0-2-1"
         in2="result3"
         in="SourceGraphic"
         operator="over"
         result="fbSourceGraphic" />
      <feColorMatrix
         result="fbSourceGraphicAlpha"
         in="fbSourceGraphic"
         values="0 0 0 -1 0 0 0 0 -1 0 0 0 0 -1 0 0 0 0 1 0"
         id="feColorMatrix4544-9-0-7-6-2" />
      <feTurbulence
         id="feTurbulence4546-3-63-8-1-9"
         type="fractalNoise"
         numOctaves="5"
         seed="174"
         baseFrequency="0 0"
         result="turbulence" />
      <feDisplacementMap
         id="feDisplacementMap4548-8-2-6-8-3"
         in2="turbulence"
         in="fbSourceGraphic"
         scale="0"
         yChannelSelector="G"
         xChannelSelector="R"
         result="fbSourceGraphic" />
      <feColorMatrix
         result="fbSourceGraphicAlpha"
         in="fbSourceGraphic"
         values="0 0 0 -1 0 0 0 0 -1 0 0 0 0 -1 0 0 0 0 1 0"
         id="feColorMatrix4670-7-0-8-7-1" />
      <feFlood
         id="feFlood4672-4-6-8-9-9"
         flood-opacity="1"
         flood-color="rgb(255,255,255)"
         result="flood"
         in="fbSourceGraphic"
         stdDeviation="2.7999999999999998" />
      <feComposite
         id="feComposite4674-8-1-4-2-4"
         in2="fbSourceGraphic"
         in="flood"
         operator="in"
         result="composite1" />
      <feGaussianBlur
         id="feGaussianBlur4676-3-5-3-0-7"
         in="composite1"
         stdDeviation="0.01"
         result="blur" />
      <feOffset
         id="feOffset4678-6-5-1-2-8"
         dx="0"
         dy="0"
         result="offset"
         stdDeviation="4.7000000000000002" />
      <feComposite
         id="feComposite4680-4-47-4-3-4"
         in2="offset"
         in="fbSourceGraphic"
         operator="over"
         result="composite2" />
    </filter>
    <linearGradient
       inkscape:collect="always"
       xlink:href="#linearGradient4197"
       id="linearGradient4394"
       x1="1294.5955"
       y1="356.86307"
       x2="1292.6337"
       y2="414.89822"
       gradientUnits="userSpaceOnUse"
       gradientTransform="translate(-35.085353,-0.44828889)" />
    <linearGradient
       inkscape:collect="always"
       xlink:href="#linearGradient4197"
       id="linearGradient4402"
       x1="1294.5955"
       y1="356.86307"
       x2="1292.6337"
       y2="414.89822"
       gradientUnits="userSpaceOnUse"
       gradientTransform="translate(-35.085353,-0.44828889)" />
    <filter
       style="color-interpolation-filters:sRGB"
       id="filter4375-4-1-1-1-9-6-9-2-1-6"
       inkscape:label="deevad outline effect">
      <feFlood
         id="feFlood4377-7-9-0-8-1-0-2-2-06-3"
         flood-opacity="1"
         flood-color="rgb(158,24,0)"
         result="flood" />
      <feComposite
         id="feComposite4379-3-8-8-2-77-6-0-8-3-2"
         in2="SourceGraphic"
         in="flood"
         operator="in"
         result="composite1" />
      <feMorphology
         id="feMorphology4393-1-0-49-8-9-2-2-9-2-0"
         operator="dilate"
         radius="4"
         result="result3" />
      <feComposite
         id="feComposite4385-9-5-7-0-8-6-3-7-0-6"
         in2="result3"
         in="SourceGraphic"
         operator="over"
         result="composite2" />
    </filter>
    <filter
       style="color-interpolation-filters:sRGB"
       id="filter4375-4-1-1-1-9-6-9-2-1-4-6-6"
       inkscape:label="deevad outline effect">
      <feFlood
         id="feFlood4377-7-9-0-8-1-0-2-2-06-7-1-1"
         flood-opacity="1"
         flood-color="rgb(0,0,0)"
         result="flood" />
      <feComposite
         id="feComposite4379-3-8-8-2-77-6-0-8-3-8-0-5"
         in2="SourceGraphic"
         in="flood"
         operator="in"
         result="composite1" />
      <feMorphology
         id="feMorphology4393-1-0-49-8-9-2-2-9-2-4-6-5"
         operator="dilate"
         radius="6.0999999999999996"
         result="result3" />
      <feComposite
         id="feComposite4385-9-5-7-0-8-6-3-7-0-5-3-4"
         in2="result3"
         in="SourceGraphic"
         operator="over"
         result="composite2" />
    </filter>
    <filter
       style="color-interpolation-filters:sRGB"
       id="filter4375-4-1-1-1-9-6-9-2-1-4-6"
       inkscape:label="deevad outline effect">
      <feFlood
         id="feFlood4377-7-9-0-8-1-0-2-2-06-7-1"
         flood-opacity="1"
         flood-color="rgb(0,0,0)"
         result="flood" />
      <feComposite
         id="feComposite4379-3-8-8-2-77-6-0-8-3-8-0"
         in2="SourceGraphic"
         in="flood"
         operator="in"
         result="composite1" />
      <feMorphology
         id="feMorphology4393-1-0-49-8-9-2-2-9-2-4-6"
         operator="dilate"
         radius="5.9000000000000004"
         result="result3" />
      <feComposite
         id="feComposite4385-9-5-7-0-8-6-3-7-0-5-3"
         in2="result3"
         in="SourceGraphic"
         operator="over"
         result="composite2" />
    </filter>
    <filter
       style="color-interpolation-filters:sRGB"
       id="filter4375-4-1-1-1-9-6-9-2-1-4"
       inkscape:label="deevad outline effect">
      <feFlood
         id="feFlood4377-7-9-0-8-1-0-2-2-06-7"
         flood-opacity="1"
         flood-color="rgb(17,89,0)"
         result="flood" />
      <feComposite
         id="feComposite4379-3-8-8-2-77-6-0-8-3-8"
         in2="SourceGraphic"
         in="flood"
         operator="in"
         result="composite1" />
      <feMorphology
         id="feMorphology4393-1-0-49-8-9-2-2-9-2-4"
         operator="dilate"
         radius="5.2999999999999998"
         result="result3" />
      <feComposite
         id="feComposite4385-9-5-7-0-8-6-3-7-0-5"
         in2="result3"
         in="SourceGraphic"
         operator="over"
         result="composite2" />
    </filter>
    <filter
       style="color-interpolation-filters:sRGB"
       id="filter4375-4-1-1-1-9-5-8-8-8-7-3-7"
       inkscape:label="Score-style">
      <feFlood
         id="feFlood4377-7-9-0-8-1-7-3-1-45-4-6-5"
         flood-opacity="1"
         flood-color="rgb(210,55,0)"
         result="flood" />
      <feComposite
         id="feComposite4379-3-8-8-2-77-4-1-0-0-4-0-35"
         in2="SourceGraphic"
         in="flood"
         operator="in"
         result="composite1"
         baseFrequency="0.053999999999999999 0.053999999999999999" />
      <feMorphology
         id="feMorphology4393-1-0-49-8-9-3-0-1-36-3-6-62"
         operator="dilate"
         radius="3.7999999999999998"
         result="result3" />
      <feComposite
         id="feComposite4385-9-5-7-0-8-8-7-5-1-0-2-9"
         in2="result3"
         in="SourceGraphic"
         operator="over"
         result="fbSourceGraphic" />
      <feColorMatrix
         result="fbSourceGraphicAlpha"
         in="fbSourceGraphic"
         values="0 0 0 -1 0 0 0 0 -1 0 0 0 0 -1 0 0 0 0 1 0"
         id="feColorMatrix4544-9-0-7-6-1" />
      <feTurbulence
         id="feTurbulence4546-3-63-8-1-2"
         type="fractalNoise"
         numOctaves="5"
         seed="174"
         baseFrequency="0 0"
         result="turbulence" />
      <feDisplacementMap
         id="feDisplacementMap4548-8-2-6-8-7"
         in2="turbulence"
         in="fbSourceGraphic"
         scale="0"
         yChannelSelector="G"
         xChannelSelector="R"
         result="fbSourceGraphic" />
      <feColorMatrix
         result="fbSourceGraphicAlpha"
         in="fbSourceGraphic"
         values="0 0 0 -1 0 0 0 0 -1 0 0 0 0 -1 0 0 0 0 1 0"
         id="feColorMatrix4670-7-0-8-7-0" />
      <feFlood
         id="feFlood4672-4-6-8-9-93"
         flood-opacity="1"
         flood-color="rgb(255,255,255)"
         result="flood"
         in="fbSourceGraphic"
         stdDeviation="2.7999999999999998" />
      <feComposite
         id="feComposite4674-8-1-4-2-6"
         in2="fbSourceGraphic"
         in="flood"
         operator="in"
         result="composite1" />
      <feGaussianBlur
         id="feGaussianBlur4676-3-5-3-0-0"
         in="composite1"
         stdDeviation="0.01"
         result="blur" />
      <feOffset
         id="feOffset4678-6-5-1-2-6"
         dx="0"
         dy="0"
         result="offset"
         stdDeviation="4.7000000000000002" />
      <feComposite
         id="feComposite4680-4-47-4-3-2"
         in2="offset"
         in="fbSourceGraphic"
         operator="over"
         result="composite2" />
    </filter>
    <linearGradient
       inkscape:collect="always"
       xlink:href="#linearGradient4197"
       id="linearGradient4300"
       x1="1294.5955"
       y1="356.86307"
       x2="1292.6337"
       y2="414.89822"
       gradientUnits="userSpaceOnUse"
       gradientTransform="translate(-35.085353,-0.44828889)" />
    <linearGradient
       inkscape:collect="always"
       xlink:href="#linearGradient4197"
       id="linearGradient4308"
       x1="1294.5955"
       y1="356.86307"
       x2="1292.6337"
       y2="414.89822"
       gradientUnits="userSpaceOnUse"
       gradientTransform="translate(-35.085353,-0.44828889)" />
    <linearGradient
       inkscape:collect="always"
       xlink:href="#linearGradient4197"
       id="linearGradient4371"
       gradientUnits="userSpaceOnUse"
       gradientTransform="translate(-35.085353,-0.44828889)"
       x1="1294.5955"
       y1="356.86307"
       x2="1292.6337"
       y2="414.89822" />
    <filter
       style="color-interpolation-filters:sRGB"
       id="filter4375-4-1-1-1-9-5-8-8-8-7-3-9-2"
       inkscape:label="Score-style">
      <feFlood
         id="feFlood4377-7-9-0-8-1-7-3-1-45-4-6-7-0"
         flood-opacity="1"
         flood-color="rgb(210,55,0)"
         result="flood" />
      <feComposite
         id="feComposite4379-3-8-8-2-77-4-1-0-0-4-0-3-2"
         in2="SourceGraphic"
         in="flood"
         operator="in"
         result="composite1"
         baseFrequency="0.053999999999999999 0.053999999999999999" />
      <feMorphology
         id="feMorphology4393-1-0-49-8-9-3-0-1-36-3-6-6-3"
         operator="dilate"
         radius="3.7999999999999998"
         result="result3" />
      <feComposite
         id="feComposite4385-9-5-7-0-8-8-7-5-1-0-2-1-7"
         in2="result3"
         in="SourceGraphic"
         operator="over"
         result="fbSourceGraphic" />
      <feColorMatrix
         result="fbSourceGraphicAlpha"
         in="fbSourceGraphic"
         values="0 0 0 -1 0 0 0 0 -1 0 0 0 0 -1 0 0 0 0 1 0"
         id="feColorMatrix4544-9-0-7-6-2-5" />
      <feTurbulence
         id="feTurbulence4546-3-63-8-1-9-9"
         type="fractalNoise"
         numOctaves="5"
         seed="174"
         baseFrequency="0 0"
         result="turbulence" />
      <feDisplacementMap
         id="feDisplacementMap4548-8-2-6-8-3-2"
         in2="turbulence"
         in="fbSourceGraphic"
         scale="0"
         yChannelSelector="G"
         xChannelSelector="R"
         result="fbSourceGraphic" />
      <feColorMatrix
         result="fbSourceGraphicAlpha"
         in="fbSourceGraphic"
         values="0 0 0 -1 0 0 0 0 -1 0 0 0 0 -1 0 0 0 0 1 0"
         id="feColorMatrix4670-7-0-8-7-1-2" />
      <feFlood
         id="feFlood4672-4-6-8-9-9-8"
         flood-opacity="1"
         flood-color="rgb(255,255,255)"
         result="flood"
         in="fbSourceGraphic"
         stdDeviation="2.7999999999999998" />
      <feComposite
         id="feComposite4674-8-1-4-2-4-9"
         in2="fbSourceGraphic"
         in="flood"
         operator="in"
         result="composite1" />
      <feGaussianBlur
         id="feGaussianBlur4676-3-5-3-0-7-7"
         in="composite1"
         stdDeviation="0.01"
         result="blur" />
      <feOffset
         id="feOffset4678-6-5-1-2-8-3"
         dx="0"
         dy="0"
         result="offset"
         stdDeviation="4.7000000000000002" />
      <feComposite
         id="feComposite4680-4-47-4-3-4-6"
         in2="offset"
         in="fbSourceGraphic"
         operator="over"
         result="composite2" />
    </filter>
    <linearGradient
       inkscape:collect="always"
       xlink:href="#linearGradient4197"
       id="linearGradient4399"
       x1="1294.5955"
       y1="356.86307"
       x2="1292.6337"
       y2="414.89822"
       gradientUnits="userSpaceOnUse"
       gradientTransform="translate(-35.085353,-0.44828889)" />
    <linearGradient
       inkscape:collect="always"
       xlink:href="#linearGradient4197"
       id="linearGradient4407"
       x1="1294.5955"
       y1="356.86307"
       x2="1292.6337"
       y2="414.89822"
       gradientUnits="userSpaceOnUse"
       gradientTransform="translate(-35.085353,-0.44828889)" />
    <linearGradient
       inkscape:collect="always"
       xlink:href="#linearGradient4197"
       id="linearGradient4415"
       x1="1294.5955"
       y1="356.86307"
       x2="1292.6337"
       y2="414.89822"
       gradientUnits="userSpaceOnUse"
       gradientTransform="translate(-35.085353,-0.44828889)" />
    <linearGradient
       inkscape:collect="always"
       xlink:href="#linearGradient4197"
       id="linearGradient4486"
       gradientUnits="userSpaceOnUse"
       gradientTransform="translate(-35.085353,-0.44828889)"
       x1="1294.5955"
       y1="356.86307"
       x2="1292.6337"
       y2="414.89822" />
    <filter
       style="color-interpolation-filters:sRGB"
       id="filter4375-4-1-1-1-9-5-8-8-8-7-4"
       inkscape:label="Score-style">
      <feFlood
         id="feFlood4377-7-9-0-8-1-7-3-1-45-4-7"
         flood-opacity="1"
         flood-color="rgb(210,55,0)"
         result="flood" />
      <feComposite
         id="feComposite4379-3-8-8-2-77-4-1-0-0-4-8"
         in2="SourceGraphic"
         in="flood"
         operator="in"
         result="composite1"
         baseFrequency="0.053999999999999999 0.053999999999999999" />
      <feMorphology
         id="feMorphology4393-1-0-49-8-9-3-0-1-36-3-4"
         operator="dilate"
         radius="3.7999999999999998"
         result="result3" />
      <feComposite
         id="feComposite4385-9-5-7-0-8-8-7-5-1-0-5"
         in2="result3"
         in="SourceGraphic"
         operator="over"
         result="fbSourceGraphic" />
      <feColorMatrix
         result="fbSourceGraphicAlpha"
         in="fbSourceGraphic"
         values="0 0 0 -1 0 0 0 0 -1 0 0 0 0 -1 0 0 0 0 1 0"
         id="feColorMatrix4544-9-0-7-0" />
      <feTurbulence
         id="feTurbulence4546-3-63-8-3"
         type="fractalNoise"
         numOctaves="5"
         seed="174"
         baseFrequency="0 0"
         result="turbulence" />
      <feDisplacementMap
         id="feDisplacementMap4548-8-2-6-6"
         in2="turbulence"
         in="fbSourceGraphic"
         scale="0"
         yChannelSelector="G"
         xChannelSelector="R"
         result="fbSourceGraphic" />
      <feColorMatrix
         result="fbSourceGraphicAlpha"
         in="fbSourceGraphic"
         values="0 0 0 -1 0 0 0 0 -1 0 0 0 0 -1 0 0 0 0 1 0"
         id="feColorMatrix4670-7-0-8-1" />
      <feFlood
         id="feFlood4672-4-6-8-0"
         flood-opacity="1"
         flood-color="rgb(255,255,255)"
         result="flood"
         in="fbSourceGraphic"
         stdDeviation="2.7999999999999998" />
      <feComposite
         id="feComposite4674-8-1-4-6"
         in2="fbSourceGraphic"
         in="flood"
         operator="in"
         result="composite1" />
      <feGaussianBlur
         id="feGaussianBlur4676-3-5-3-3"
         in="composite1"
         stdDeviation="0.01"
         result="blur" />
      <feOffset
         id="feOffset4678-6-5-1-20"
         dx="0"
         dy="0"
         result="offset"
         stdDeviation="4.7000000000000002" />
      <feComposite
         id="feComposite4680-4-47-4-6"
         in2="offset"
         in="fbSourceGraphic"
         operator="over"
         result="composite2" />
    </filter>
    <linearGradient
       inkscape:collect="always"
       xlink:href="#linearGradient4197"
       id="linearGradient4514"
       x1="1294.5955"
       y1="356.86307"
       x2="1292.6337"
       y2="414.89822"
       gradientUnits="userSpaceOnUse"
       gradientTransform="translate(-35.085353,-0.44828889)" />
    <linearGradient
       inkscape:collect="always"
       xlink:href="#linearGradient4197"
       id="linearGradient4522"
       x1="1294.5955"
       y1="356.86307"
       x2="1292.6337"
       y2="414.89822"
       gradientUnits="userSpaceOnUse"
       gradientTransform="translate(-35.085353,-0.44828889)" />
    <linearGradient
       inkscape:collect="always"
       xlink:href="#linearGradient4197"
       id="linearGradient4530"
       x1="1294.5955"
       y1="356.86307"
       x2="1292.6337"
       y2="414.89822"
       gradientUnits="userSpaceOnUse"
       gradientTransform="translate(-35.085353,-0.44828889)" />
    <linearGradient
       inkscape:collect="always"
       xlink:href="#linearGradient4197"
       id="linearGradient4601"
       gradientUnits="userSpaceOnUse"
       gradientTransform="translate(-35.085353,-0.44828889)"
       x1="1294.5955"
       y1="356.86307"
       x2="1292.6337"
       y2="414.89822" />
    <filter
       style="color-interpolation-filters:sRGB;"
       inkscape:label="Pixel Smear"
       id="filter5096"
       height="1.3"
       width="1.3"
       y="-0.15"
       x="-0.15"
       inkscape:menu-tooltip="Van Gogh painting effect for bitmaps"
       inkscape:menu="Distort">
      <feGaussianBlur
         stdDeviation="1.3"
         result="blur"
         id="feGaussianBlur5088" />
      <feComposite
         in="SourceGraphic"
         in2="blur"
         operator="atop"
         result="composite1"
         id="feComposite5090" />
      <feComposite
         in2="composite1"
         operator="in"
         result="composite2"
         id="feComposite5092" />
      <feComposite
         in2="composite2"
         operator="in"
         result="fbSourceGraphic"
         id="feComposite5094" />
      <feColorMatrix
         result="fbSourceGraphicAlpha"
         in="fbSourceGraphic"
         values="0 0 0 -1 0 0 0 0 -1 0 0 0 0 -1 0 0 0 0 1 0"
         id="feColorMatrix5098" />
      <feTurbulence
         id="feTurbulence5100"
         type="fractalNoise"
         numOctaves="3"
         baseFrequency="0.25 0.40000000000000002"
         seed="5"
         in="fbSourceGraphic" />
      <feColorMatrix
         id="feColorMatrix5102"
         result="result5"
         values="1 0 0 0 0 0 1 0 0 0 0 0 1 0 0 0 0 0 1 0 " />
      <feComposite
         in2="result5"
         id="feComposite5104"
         in="fbSourceGraphic"
         operator="in"
         numOctaves="4" />
      <feMorphology
         id="feMorphology5106"
         operator="dilate"
         radius="1.5"
         result="result3" />
      <feTurbulence
         id="feTurbulence5108"
         numOctaves="1.5249999999999999"
         baseFrequency="0.23599999999999999"
         type="fractalNoise"
         seed="7"
         stdDeviation="2.4100000000000001" />
      <feGaussianBlur
         id="feGaussianBlur5110"
         stdDeviation="2.4136057692307689"
         result="result91"
         scale="23.300000000000001" />
      <feDisplacementMap
         in2="result91"
         id="feDisplacementMap5112"
         in="result3"
         xChannelSelector="R"
         yChannelSelector="G"
         scale="23.333333333333332"
         result="result4" />
      <feComposite
         in2="result4"
         id="feComposite5114"
         in="result4"
         k3="0.8"
         k1="1.3"
         result="result2"
         operator="arithmetic" />
      <feBlend
         in2="result2"
         id="feBlend5116"
         mode="color-dodge"
         in="result2"
         scale="9.5999999999999996"
         result="result92"
         numOctaves="2" />
      <feBlend
         mode="normal"
         in2="result92"
         id="feBlend5118" />
    </filter>
  </defs>
  <sodipodi:namedview
     pagecolor="#ffffff"
     bordercolor="#666666"
     borderopacity="1"
     objecttolerance="10"
     gridtolerance="10"
     guidetolerance="10"
     inkscape:pageopacity="0"
     inkscape:pageshadow="2"
     inkscape:window-width="1920"
     inkscape:window-height="1025"
     id="namedview4"
     showgrid="false"
     inkscape:zoom="0.3234325"
     inkscape:cx="1098.6297"
     inkscape:cy="651.37614"
     inkscape:window-x="0"
     inkscape:window-y="26"
     inkscape:window-maximized="1"
     inkscape:current-layer="layer1" />
  <g
     inkscape:groupmode="layer"
     id="layer2"
     inkscape:label="artwork"
     sodipodi:insensitive="true">
    <image
       sodipodi:absref="E:\Users\jamesmichael\Downloads\Compressed\eps\ep22_The-Voting-System_lang-pack\lang\ph\../gfx_Pepper-and-Carrot_by-David-Revoy_E22P10.png"
       xlink:href="../gfx_Pepper-and-Carrot_by-David-Revoy_E22P10.png"
       y="0"
       x="0"
       id="image10"
       height="3503"
       width="2481" />
  </g>
  <g
     inkscape:groupmode="layer"
     id="layer3"
     inkscape:label="speechbubbles"
     style="display:inline">
    <path
       style="fill:#ffffff;stroke:none"
       d="m 1640.5546,2963.9346 c 3.8496,42.6676 -18.7487,29.5756 -26.6502,16.8852 -7.9007,-12.6856 -14.0796,-15.6138 -21.8654,-12.3151 -7.7859,3.2988 -15.5294,10.7134 -22.2519,21.4399 -6.7227,10.7268 -12.1641,4.204 -18.7276,-1.7426 -6.5635,-5.9466 -47.0648,-18.0475 -47.0648,-18.0475 0,0 15.2017,47.6418 22.7481,57.8516 7.5463,10.2098 10.2666,14.0331 14.1097,16.1565 3.8432,2.1232 14.1022,4.3915 22.0547,-3.8156 7.9526,-8.2069 16.0367,-22.6829 21.65,-31.1822 5.6133,-8.4992 13.7421,-9.2191 21.1945,-2.7012 7.4525,6.5177 26.2226,15.6724 38.6525,0.1386 12.4296,-15.5337 -3.8496,-42.6676 -3.8496,-42.6676 z"
       id="path3023"
       inkscape:connector-curvature="0"
       sodipodi:nodetypes="csssscssssssc" />
    <path
       style="color:#000000;display:inline;overflow:visible;visibility:visible;fill:#fff6d5;fill-opacity:1;fill-rule:nonzero;stroke:none;stroke-width:1px;marker:none;enable-background:accumulate"
       d="m 1847.8668,930.94024 c 2.888,-2.16712 -27.1762,-37.80018 -27.1762,-37.80018 0,0 1.0917,-13.87815 0.7871,-16.91413 -6.842,-6.29198 -18.0315,-12.58607 -18.0315,-12.58607 l 14.6171,-33.82205 -0.6031,24.9377 21.6175,4.99771 2.4373,24.28878 20.9824,27.47534 z"
       id="path4448"
       inkscape:connector-curvature="0"
       sodipodi:nodetypes="cccccccccc" />
    <rect
       style="color:#000000;display:inline;overflow:visible;visibility:visible;fill:#550000;fill-opacity:1;fill-rule:nonzero;stroke:none;stroke-width:2.5999999;marker:none;enable-background:accumulate"
       id="rect4632-8-6-1-3-6-7-1-4"
       width="584.67548"
       height="332.02374"
       x="80.301254"
       y="-996.22937"
       ry="20.554564"
       rx="17.995945"
       transform="rotate(90)" />
    <path
       style="color:#000000;display:inline;overflow:visible;visibility:visible;fill:#ff0000;fill-opacity:1;fill-rule:nonzero;stroke:none;stroke-width:1px;marker:none;enable-background:accumulate"
       d="m 971.39892,578.2727 -24.83281,51.42343 -13.71619,-15.18961 -33.06497,26.15689 25.36197,-49.11177 18.56555,13.93804 z"
       id="path5162"
       inkscape:connector-curvature="0"
       sodipodi:nodetypes="ccccccc" />
    <rect
       style="color:#000000;display:inline;overflow:visible;visibility:visible;fill:#550000;fill-opacity:1;fill-rule:nonzero;stroke:none;stroke-width:2.5999999;marker:none;enable-background:accumulate"
       id="rect4632-8-6-1-3-6-7-1-4-3"
       width="412.98676"
       height="213.66483"
       x="586.63068"
       y="-1718.8745"
       ry="17.019077"
       rx="13.211723"
       transform="rotate(90)" />
    <path
       style="color:#000000;display:inline;overflow:visible;visibility:visible;fill:#ffffff;fill-opacity:1;fill-rule:nonzero;stroke:none;stroke-width:1px;marker:none;enable-background:accumulate"
       d="m 1510.732,2669.8917 c 73.1242,1.3531 124.6316,69.2034 105.333,254.9701 -10.3373,99.5067 -18.533,212.2824 -125.6887,211.4493 -107.1556,-0.8331 -99.5793,-162.6741 -101.0959,-195.8984 -1.5167,-33.2242 0.9457,-210.3458 38.3762,-242.9585 23.4306,-20.4147 60.3915,-26.7323 83.0754,-27.5625 z"
       id="path4546-6"
       inkscape:connector-curvature="0"
       sodipodi:nodetypes="cssssc" />
    <path
       sodipodi:nodetypes="ccccccc"
       inkscape:connector-curvature="0"
       id="path5018"
       d="m 1655.6489,884.5227 -24.8328,51.42343 -13.7162,-15.18961 -33.0649,26.15689 25.3619,-49.11177 18.5656,13.93804 z"
       style="color:#000000;display:inline;overflow:visible;visibility:visible;fill:#ff0000;fill-opacity:1;fill-rule:nonzero;stroke:none;stroke-width:1px;marker:none;enable-background:accumulate" />
    <path
       style="fill:none;stroke:#ffffff;stroke-width:3;stroke-linecap:butt;stroke-linejoin:miter;stroke-miterlimit:4;stroke-dasharray:none;stroke-opacity:1;filter:url(#filter5096)"
       d="m 1558.4617,2682.2661 c 6.9059,-10.9393 18.0737,-26.0372 9.8766,-38.0053 -8.4667,-12.3617 -25.7482,-10.2051 -39.051,-11.7221 -5.195,-0.5924 -27.9849,5.6082 -14.5404,0.4971 15.5253,-5.9022 35.7002,-10.7625 42.4327,-26.8923 5.7214,-13.7073 -8.2144,-24.6321 -17.4713,-33.041 -4.1822,-3.7991 -19.3999,-10.667 -17.6311,-10.2848 21.6864,4.6859 44.3066,10.2497 66.5105,6.0995 15.4948,-2.8962 4.8789,-19.6257 -0.2256,-28.2103 -2.5359,-4.2648 -19.6304,-20.0154 -8.9433,-10.2554 12.1724,11.1165 24.9462,30.8353 41.8347,27.3202 11.0822,-2.3066 22.692,-10.1312 26.5185,-21.0131 2.2728,-6.4634 0.1875,-13.8482 -4.2968,-18.8531"
       id="path5024"
       inkscape:connector-curvature="0"
       inkscape:path-effect="#path-effect5026"
       inkscape:original-d="m 1558.4617,2682.2661 c 44.6318,-66.2258 -49.6686,-47.4047 -49.7153,-47.3386 0,0 48.8447,-13.6535 49.914,-34.4357 1.1359,-22.0711 -38.7561,-38.2252 -38.7561,-38.2252 0,0 49.609,13.1491 70.746,6.0427 21.8508,-7.3464 -15.7535,-42.5268 -15.7535,-42.5268 0,0 35.5366,38.7419 51.2542,30.956 36.2625,-17.9629 18.0972,-38.071 17.3242,-38.833"
       sodipodi:nodetypes="ccscscsc"
       transform="rotate(29.208036,1644.284,2587.6957)" />
    <path
       sodipodi:nodetypes="ccscscsc"
       inkscape:original-d="m 1558.4617,2682.2661 c 44.6318,-66.2258 -49.6686,-47.4047 -49.7153,-47.3386 0,0 48.8447,-13.6535 49.914,-34.4357 1.1359,-22.0711 -38.7561,-38.2252 -38.7561,-38.2252 0,0 49.609,13.1491 70.746,6.0427 21.8508,-7.3464 -15.7535,-42.5268 -15.7535,-42.5268 0,0 35.5366,38.7419 51.2542,30.956 36.2625,-17.9629 18.0972,-38.071 17.3242,-38.833"
       inkscape:path-effect="#path-effect5122"
       inkscape:connector-curvature="0"
       id="path5120"
       d="m 1558.4617,2682.2661 c 8.3409,-12.0526 21.0792,-35.1274 3.8957,-44.0988 -16.4457,-8.5862 -70.4734,2.5657 -53.611,-3.2398 17.5846,-6.0542 41.2799,-10.5293 48.4332,-28.784 6.0491,-15.4368 -10.3193,-27.0604 -21.1448,-35.4582 -5.2361,-4.0619 -24.8309,-9.5879 -8.0488,-6.4752 21.0297,3.9005 48.0241,17.9174 64.5416,3.3309 12.5797,-11.1091 -3.6072,-27.6123 -12.0965,-36.1468 -12.365,-12.4308 15.2184,12.2878 20.4628,17.5137 12.534,12.4898 29.8108,8.2145 41.9928,-4.0405 7.3039,-7.3477 7.7528,-19.3458 0.5885,-26.9619"
       style="fill:none;stroke:#ffffff;stroke-width:3;stroke-linecap:butt;stroke-linejoin:miter;stroke-miterlimit:4;stroke-dasharray:none;stroke-opacity:1;filter:url(#filter5096)"
       transform="rotate(29.208036,1644.284,2587.6957)" />
    <path
       style="fill:none;stroke:#ffffff;stroke-width:3;stroke-linecap:butt;stroke-linejoin:miter;stroke-miterlimit:4;stroke-dasharray:none;stroke-opacity:1;filter:url(#filter5096)"
       d="m 1558.4617,2682.2661 c 8.3409,-12.0526 21.0792,-35.1274 3.8957,-44.0988 -16.4457,-8.5862 -70.4734,2.5657 -53.611,-3.2398 17.5846,-6.0542 41.2799,-10.5293 48.4332,-28.784 6.0491,-15.4368 -10.3193,-27.0604 -21.1448,-35.4582 -5.2361,-4.0619 -24.8309,-9.5879 -8.0488,-6.4752 21.0297,3.9005 48.0241,17.9174 64.5416,3.3309 12.5797,-11.1091 -3.6072,-27.6123 -12.0965,-36.1468 -12.365,-12.4308 15.2184,12.2878 20.4628,17.5137 12.534,12.4898 29.8108,8.2145 41.9928,-4.0405 7.3039,-7.3477 7.7528,-19.3458 0.5885,-26.9619"
       id="path5124"
       inkscape:connector-curvature="0"
       inkscape:path-effect="#path-effect5126"
       inkscape:original-d="m 1558.4617,2682.2661 c 44.6318,-66.2258 -49.6686,-47.4047 -49.7153,-47.3386 0,0 48.8447,-13.6535 49.914,-34.4357 1.1359,-22.0711 -38.7561,-38.2252 -38.7561,-38.2252 0,0 49.609,13.1491 70.746,6.0427 21.8508,-7.3464 -15.7535,-42.5268 -15.7535,-42.5268 0,0 35.5366,38.7419 51.2542,30.956 36.2625,-17.9629 18.0972,-38.071 17.3242,-38.833"
       sodipodi:nodetypes="ccscscsc"
       transform="rotate(29.208036,1644.284,2587.6957)" />
  </g>
  <g
     inkscape:groupmode="layer"
     id="layer1"
     inkscape:label="txt"
     style="display:inline">
    <text
       xml:space="preserve"
       style="font-style:normal;font-variant:normal;font-weight:normal;font-stretch:normal;line-height:0%;font-family:Lavi;-inkscape-font-specification:'Lavi, Normal';text-align:center;letter-spacing:0px;word-spacing:0px;writing-mode:lr-tb;text-anchor:middle;display:inline;fill:#ffffff;fill-opacity:1;stroke:none"
       x="827.88654"
       y="213.92033"
       id="text4246-2-3-1-3-9-9-9-9"><tspan
         sodipodi:role="line"
         x="835.79669"
         y="213.92033"
         style="font-size:45px;line-height:1.25;fill:#ffffff"
         id="tspan4342">Sudden </tspan><tspan
         sodipodi:role="line"
         x="835.79669"
         y="270.17035"
         style="font-size:45px;line-height:1.25;fill:#ffffff"
         id="tspan4961">death round </tspan><tspan
         sodipodi:role="line"
         x="827.88654"
         y="326.42035"
         style="font-size:45px;line-height:1.25;fill:#ffffff"
         id="tspan4998">na Ladies!</tspan><tspan
         sodipodi:role="line"
         x="835.79669"
         y="382.67035"
         style="font-size:45px;line-height:1.25;fill:#ffffff"
         id="tspan4963">Kaya niyo bang </tspan><tspan
         sodipodi:role="line"
         x="835.79669"
         y="438.92035"
         style="font-size:45px;line-height:1.25;fill:#ffffff"
         id="tspan5014">higitan ang </tspan><tspan
         sodipodi:role="line"
         x="835.79669"
         y="495.17035"
         style="font-size:45px;line-height:1.25;fill:#ffffff"
         id="tspan4992">ipinamalas niyo </tspan><tspan
         sodipodi:role="line"
         x="835.79669"
         y="551.42035"
         style="font-size:45px;line-height:1.25;fill:#ffffff"
         id="tspan5004">sa unang </tspan><tspan
         sodipodi:role="line"
         x="827.88654"
         y="607.67035"
         style="font-size:45px;line-height:1.25;fill:#ffffff"
         id="tspan5000">round?</tspan></text>
    <text
       xml:space="preserve"
       style="font-style:normal;font-variant:normal;font-weight:normal;font-stretch:normal;line-height:0%;font-family:Lavi;-inkscape-font-specification:'Lavi, Normal';text-align:center;letter-spacing:0px;word-spacing:0px;writing-mode:lr-tb;text-anchor:middle;display:inline;fill:#ffffff;fill-opacity:1;stroke:none"
       x="1614.4878"
       y="680.04944"
       id="text4246-2-3-1-3-9-9-9-9-6"><tspan
         sodipodi:role="line"
         id="tspan3477"
         x="1622.3979"
         y="680.04944"
         style="font-size:45px;line-height:1.25;fill:#ffffff">Ready, </tspan><tspan
         sodipodi:role="line"
         x="1622.3979"
         y="736.29944"
         style="font-size:45px;line-height:1.25;fill:#ffffff"
         id="tspan4984">Set, </tspan><tspan
         sodipodi:role="line"
         x="1622.3979"
         y="792.54944"
         style="font-size:45px;line-height:1.25;fill:#ffffff"
         id="tspan4967">Abra </tspan><tspan
         sodipodi:role="line"
         x="1614.4878"
         y="848.79944"
         style="font-size:45px;line-height:1.25;fill:#ffffff"
         id="tspan4969">Kadabra!</tspan></text>
    <text
       xml:space="preserve"
       style="font-style:normal;font-variant:normal;font-weight:normal;font-stretch:normal;line-height:0%;font-family:Lavi;-inkscape-font-specification:Lavi;text-align:center;letter-spacing:0px;word-spacing:0px;text-anchor:middle;opacity:0.70200004;fill:url(#linearGradient4601);fill-opacity:1;stroke:#ffffff;stroke-width:3.3832047;stroke-linecap:round;stroke-miterlimit:4;stroke-dasharray:none;stroke-opacity:1;filter:url(#filter4375-4-1-1-1-9-5-8-8-8-7-4)"
       x="1276.0023"
       y="286.89603"
       id="text4246-3-8-9-1"
       transform="matrix(1.061443,-0.23810188,0,1.6667549,-1017.5483,1302.2024)"><tspan
         sodipodi:role="line"
         style="font-style:normal;font-variant:normal;font-weight:normal;font-stretch:normal;font-size:91.25513458px;line-height:1.25;font-family:Fondamento;-inkscape-font-specification:Fondamento;letter-spacing:17.77999878px;fill:url(#linearGradient4601);fill-opacity:1;stroke:#ffffff;stroke-width:3.3832047;stroke-linecap:round;stroke-miterlimit:4;stroke-dasharray:none;stroke-opacity:1"
         x="1304.9219"
         y="286.89603"
         id="tspan4252-5-6-2-55"> </tspan><tspan
         sodipodi:role="line"
         style="font-style:normal;font-variant:normal;font-weight:normal;font-stretch:normal;font-size:91.25513458px;line-height:1.25;font-family:Combat;-inkscape-font-specification:Combat;letter-spacing:9.02188015px;fill:url(#linearGradient4601);fill-opacity:1;stroke:#ffffff;stroke-width:3.3832047;stroke-linecap:round;stroke-miterlimit:4;stroke-dasharray:none;stroke-opacity:1"
         x="1276.0023"
         y="407.63681"
         id="tspan5535-8-0-4">1<tspan
   style="letter-spacing:0px;fill:url(#linearGradient4601)"
   id="tspan4271-7">5</tspan></tspan></text>
    <text
       xml:space="preserve"
       style="font-style:normal;font-variant:normal;font-weight:normal;font-stretch:normal;line-height:0%;font-family:Lavi;-inkscape-font-specification:Lavi;text-align:center;letter-spacing:0px;word-spacing:0px;text-anchor:middle;opacity:0.70200004;fill:url(#linearGradient4203-2);fill-opacity:1;stroke:#ffffff;stroke-width:3.3832047;stroke-linecap:round;stroke-miterlimit:4;stroke-dasharray:none;stroke-opacity:1;filter:url(#filter4375-4-1-1-1-9-5-8-8-8-7)"
       x="1276.0023"
       y="286.89603"
       id="text4246-3-8-9"
       transform="matrix(1.061443,-0.23810188,0,1.6667549,-835.03557,1259.039)"><tspan
         sodipodi:role="line"
         style="font-style:normal;font-variant:normal;font-weight:normal;font-stretch:normal;font-size:91.25513458px;line-height:1.25;font-family:Fondamento;-inkscape-font-specification:Fondamento;letter-spacing:17.77999878px;fill:url(#linearGradient4203-2);fill-opacity:1;stroke:#ffffff;stroke-width:3.3832047;stroke-linecap:round;stroke-miterlimit:4;stroke-dasharray:none;stroke-opacity:1"
         x="1304.9219"
         y="286.89603"
         id="tspan4252-5-6-2"> </tspan><tspan
         sodipodi:role="line"
         style="font-style:normal;font-variant:normal;font-weight:normal;font-stretch:normal;font-size:91.25513458px;line-height:1.25;font-family:Combat;-inkscape-font-specification:Combat;letter-spacing:9.02188015px;fill:url(#linearGradient4203-2);fill-opacity:1;stroke:#ffffff;stroke-width:3.3832047;stroke-linecap:round;stroke-miterlimit:4;stroke-dasharray:none;stroke-opacity:1"
         x="1280.5133"
         y="407.63681"
         id="tspan5535-8-0">703</tspan></text>
    <text
       xml:space="preserve"
       style="font-style:normal;font-variant:normal;font-weight:normal;font-stretch:normal;line-height:0%;font-family:Lavi;-inkscape-font-specification:Lavi;text-align:center;letter-spacing:0px;word-spacing:0px;text-anchor:middle;opacity:0.70200004;fill:url(#linearGradient4371);fill-opacity:1;stroke:#ffffff;stroke-width:2.37267375;stroke-linecap:round;stroke-miterlimit:4;stroke-dasharray:none;stroke-opacity:1;filter:url(#filter4375-4-1-1-1-9-5-8-8-8-7-3-7)"
       x="1276.0023"
       y="286.89603"
       id="text4246-3-8-9-7-6"
       transform="matrix(1.870902,0,0,1.9226395,-1301.8679,700.54816)"><tspan
         sodipodi:role="line"
         style="font-style:normal;font-variant:normal;font-weight:normal;font-stretch:normal;font-size:91.25513458px;line-height:1.25;font-family:Fondamento;-inkscape-font-specification:Fondamento;letter-spacing:17.77999878px;fill:url(#linearGradient4371);fill-opacity:1;stroke:#ffffff;stroke-width:2.37267375;stroke-linecap:round;stroke-miterlimit:4;stroke-dasharray:none;stroke-opacity:1"
         x="1304.9219"
         y="286.89603"
         id="tspan4252-5-6-2-5-1"> </tspan><tspan
         sodipodi:role="line"
         style="font-style:normal;font-variant:normal;font-weight:normal;font-stretch:normal;font-size:91.25513458px;line-height:1.25;font-family:Combat;-inkscape-font-specification:Combat;letter-spacing:7.90891314px;fill:url(#linearGradient4371);fill-opacity:1;stroke:#ffffff;stroke-width:2.37267375;stroke-linecap:round;stroke-miterlimit:4;stroke-dasharray:none;stroke-opacity:1"
         x="1279.9568"
         y="407.63681"
         id="tspan5535-8-0-9-8">19</tspan></text>
    <text
       xml:space="preserve"
       style="font-style:normal;font-variant:normal;font-weight:normal;font-stretch:normal;line-height:0%;font-family:Lavi;-inkscape-font-specification:Lavi;text-align:center;letter-spacing:0px;word-spacing:0px;text-anchor:middle;opacity:0.70200004;fill:url(#linearGradient4203-2-7);fill-opacity:1;stroke:#ffffff;stroke-width:2.37267375;stroke-linecap:round;stroke-miterlimit:4;stroke-dasharray:none;stroke-opacity:1;filter:url(#filter4375-4-1-1-1-9-5-8-8-8-7-3)"
       x="1276.0023"
       y="286.89603"
       id="text4246-3-8-9-7"
       transform="matrix(1.870902,0,0,1.9226395,-1007.7413,704.17123)"><tspan
         sodipodi:role="line"
         style="font-style:normal;font-variant:normal;font-weight:normal;font-stretch:normal;font-size:91.25513458px;line-height:1.25;font-family:Fondamento;-inkscape-font-specification:Fondamento;letter-spacing:17.77999878px;fill:url(#linearGradient4203-2-7);fill-opacity:1;stroke:#ffffff;stroke-width:2.37267375;stroke-linecap:round;stroke-miterlimit:4;stroke-dasharray:none;stroke-opacity:1"
         x="1304.9219"
         y="286.89603"
         id="tspan4252-5-6-2-5"> </tspan><tspan
         sodipodi:role="line"
         style="font-style:normal;font-variant:normal;font-weight:normal;font-stretch:normal;font-size:91.25513458px;line-height:1.25;font-family:Combat;-inkscape-font-specification:Combat;letter-spacing:7.90891314px;fill:url(#linearGradient4203-2-7);fill-opacity:1;stroke:#ffffff;stroke-width:2.37267375;stroke-linecap:round;stroke-miterlimit:4;stroke-dasharray:none;stroke-opacity:1"
         x="1279.9568"
         y="407.63681"
         id="tspan5535-8-0-9">863</tspan></text>
    <text
       xml:space="preserve"
       style="font-style:normal;font-variant:normal;font-weight:normal;font-stretch:normal;line-height:0%;font-family:Lavi;-inkscape-font-specification:Lavi;text-align:center;letter-spacing:0px;word-spacing:0px;text-anchor:middle;opacity:0.70200004;fill:url(#linearGradient4486);fill-opacity:1;stroke:#ffffff;stroke-width:3.54697704;stroke-linecap:round;stroke-miterlimit:4;stroke-dasharray:none;stroke-opacity:1;filter:url(#filter4375-4-1-1-1-9-5-8-8-8-7-3-9-2)"
       x="1276.0023"
       y="286.89603"
       id="text4246-3-8-9-7-5-1"
       transform="matrix(1.1829563,0.12822054,0,1.3606282,292.39819,601.78336)"><tspan
         sodipodi:role="line"
         style="font-style:normal;font-variant:normal;font-weight:normal;font-stretch:normal;font-size:91.25513458px;line-height:1.25;font-family:Fondamento;-inkscape-font-specification:Fondamento;letter-spacing:17.77999878px;fill:url(#linearGradient4486);fill-opacity:1;stroke:#ffffff;stroke-width:3.54697704;stroke-linecap:round;stroke-miterlimit:4;stroke-dasharray:none;stroke-opacity:1"
         x="1304.9219"
         y="286.89603"
         id="tspan4252-5-6-2-5-0-2"> </tspan><tspan
         sodipodi:role="line"
         style="font-style:normal;font-variant:normal;font-weight:normal;font-stretch:normal;font-size:91.25513458px;line-height:1.25;font-family:Combat;-inkscape-font-specification:Combat;letter-spacing:9.45860672px;fill:url(#linearGradient4486);fill-opacity:1;stroke:#ffffff;stroke-width:3.54697704;stroke-linecap:round;stroke-miterlimit:4;stroke-dasharray:none;stroke-opacity:1"
         x="1276.0023"
         y="407.63681"
         id="tspan5535-8-0-9-3-9">1<tspan
   style="letter-spacing:0px;fill:url(#linearGradient4486)"
   id="tspan4275-3">3</tspan></tspan></text>
    <text
       xml:space="preserve"
       style="font-style:normal;font-variant:normal;font-weight:normal;font-stretch:normal;line-height:0%;font-family:Lavi;-inkscape-font-specification:Lavi;text-align:center;letter-spacing:0px;word-spacing:0px;text-anchor:middle;opacity:0.70200004;fill:url(#linearGradient4203-2-7-2);fill-opacity:1;stroke:#ffffff;stroke-width:3.54697704;stroke-linecap:round;stroke-miterlimit:4;stroke-dasharray:none;stroke-opacity:1;filter:url(#filter4375-4-1-1-1-9-5-8-8-8-7-3-9)"
       x="1276.0023"
       y="286.89603"
       id="text4246-3-8-9-7-5"
       transform="matrix(1.1829563,0.12822054,0,1.3606282,487.82183,625.2701)"><tspan
         sodipodi:role="line"
         style="font-style:normal;font-variant:normal;font-weight:normal;font-stretch:normal;font-size:91.25513458px;line-height:1.25;font-family:Fondamento;-inkscape-font-specification:Fondamento;letter-spacing:17.77999878px;fill:url(#linearGradient4203-2-7-2);fill-opacity:1;stroke:#ffffff;stroke-width:3.54697704;stroke-linecap:round;stroke-miterlimit:4;stroke-dasharray:none;stroke-opacity:1"
         x="1304.9219"
         y="286.89603"
         id="tspan4252-5-6-2-5-0"> </tspan><tspan
         sodipodi:role="line"
         style="font-style:normal;font-variant:normal;font-weight:normal;font-stretch:normal;font-size:91.25513458px;line-height:1.25;font-family:Combat;-inkscape-font-specification:Combat;letter-spacing:9.45860672px;fill:url(#linearGradient4203-2-7-2);fill-opacity:1;stroke:#ffffff;stroke-width:3.54697704;stroke-linecap:round;stroke-miterlimit:4;stroke-dasharray:none;stroke-opacity:1"
         x="1280.7316"
         y="407.63681"
         id="tspan5535-8-0-9-3">614</tspan></text>
    <use
       x="0"
       y="0"
       xlink:href="#text4580-1-7-3-6-1"
       id="use4543"
       transform="matrix(0.57651169,0,0,0.48721254,85.733353,1242.5488)"
       width="100%"
       height="100%" />
    <use
       x="0"
       y="0"
       xlink:href="#text4580-1-7-3-6-1"
       id="use4547"
       transform="matrix(0.66266226,0,0,0.64866752,-76.566419,878.84471)"
       width="100%"
       height="100%" />
    <use
       x="0"
       y="0"
       xlink:href="#text4580-1-7-3-6-1"
       id="use4549"
       transform="matrix(0.66266226,0,0,0.64866752,-187.79064,870.92132)"
       width="100%"
       height="100%" />
    <use
       x="0"
       y="0"
       xlink:href="#text4580-1-7-3-6-1"
       id="use4551"
       transform="matrix(0.66266226,0,0,0.64866752,499.29979,809.92732)"
       width="100%"
       height="100%" />
    <use
       x="0"
       y="0"
       xlink:href="#text4580-1-7-3-6-1"
       id="use4553"
       transform="matrix(0.59223753,0,0,0.54246586,760.92629,1027.7188)"
       width="100%"
       height="100%" />
    <use
       x="0"
       y="0"
       xlink:href="#use4543"
       id="use4555"
       transform="translate(712.99997,-252.99999)"
       width="100%"
       height="100%" />
    <use
       x="0"
       y="0"
       xlink:href="#use4547"
       id="use4557"
       transform="translate(-595.12497,54.624997)"
       width="100%"
       height="100%" />
    <use
       x="0"
       y="0"
       xlink:href="#text4580-1-7-3-6-1"
       id="use4559"
       transform="matrix(0.5518297,0,0,0.54146686,-316.13482,1167.5047)"
       width="100%"
       height="100%" />
    <use
       x="0"
       y="0"
       xlink:href="#text4580-1-7-3-6-1"
       id="use4561"
       transform="matrix(0.55237743,0,0,0.50564667,-1257.7094,985.99074)"
       width="100%"
       height="100%" />
    <use
       x="0"
       y="0"
       xlink:href="#use4561"
       id="use4563"
       transform="matrix(1,0,0,1.0001402,-45.999998,-60.630483)"
       width="100%"
       height="100%" />
    <use
       x="0"
       y="0"
       xlink:href="#use4561"
       id="use4565"
       transform="translate(-51.749997,83.374996)"
       width="100%"
       height="100%" />
    <use
       x="0"
       y="0"
       xlink:href="#use4561"
       id="use4567"
       transform="translate(819.37496,281.74999)"
       width="100%"
       height="100%" />
    <use
       x="0"
       y="0"
       xlink:href="#use4567"
       id="use4569"
       transform="translate(1328.2499,-109.25)"
       width="100%"
       height="100%" />
    <text
       xml:space="preserve"
       style="font-style:normal;font-variant:normal;font-weight:normal;font-stretch:normal;line-height:0%;font-family:Lavi;-inkscape-font-specification:Lavi;letter-spacing:0px;word-spacing:0px;display:inline;fill:#ffffff;fill-opacity:1;stroke:#ffffff;stroke-width:2.0078752;stroke-miterlimit:4;stroke-dasharray:none;stroke-opacity:1;filter:url(#filter4375-4-1-1-1-9-5-8-8-8-7-4)"
       x="787.65729"
       y="1584.5073"
       id="text4580-1-7-3-6"
       transform="matrix(0.46865198,-0.21469604,-0.08652007,0.56890463,1347.8914,1896.527)"><tspan
         sodipodi:role="line"
         id="tspan4582-8-5-6-1"
         x="787.65729"
         y="1584.5073"
         style="font-size:70px;line-height:1.25;fill:#ffffff;fill-opacity:1;stroke:#ffffff;stroke-width:2.0078752;stroke-miterlimit:4;stroke-dasharray:none;stroke-opacity:1">Plonk!</tspan></text>
    <text
       xml:space="preserve"
       style="font-style:normal;font-variant:normal;font-weight:normal;font-stretch:normal;line-height:0%;font-family:Lavi;-inkscape-font-specification:Lavi;text-align:center;letter-spacing:0px;word-spacing:0px;text-anchor:middle;display:inline;fill:#000000;fill-opacity:1;stroke:none"
       x="1500.8173"
       y="2771.387"
       id="text4246-2-3-1-3-9-9-9-9-61"><tspan
         sodipodi:role="line"
         style="font-size:45px;line-height:1.25"
         x="1500.8173"
         y="2771.387"
         id="tspan4798">Binabawi</tspan><tspan
         sodipodi:role="line"
         style="font-size:45px;line-height:1.25"
         x="1500.8173"
         y="2827.637"
         id="tspan5320"> ko na,</tspan><tspan
         sodipodi:role="line"
         style="font-size:45px;line-height:1.25"
         x="1508.7274"
         y="2883.887"
         id="tspan4976">Palpak </tspan><tspan
         sodipodi:role="line"
         style="font-size:45px;line-height:1.25"
         x="1500.8173"
         y="2902.4204"
         id="tspan5322"></tspan><tspan
         sodipodi:role="line"
         style="font-size:45px;line-height:1.25"
         x="1508.7274"
         y="2940.137"
         id="tspan5324">tong </tspan><tspan
         sodipodi:role="line"
         style="font-size:45px;line-height:1.25"
         x="1508.7274"
         y="2996.387"
         id="tspan4978">sistema </tspan><tspan
         sodipodi:role="line"
         style="font-size:45px;line-height:1.25"
         x="1500.8173"
         y="3052.637"
         id="tspan5326">na to</tspan><tspan
         sodipodi:role="line"
         style="font-size:45px;line-height:1.25"
         x="1500.8173"
         y="3108.887"
         id="tspan5328">...</tspan></text>
    <text
       xml:space="preserve"
       style="font-style:normal;font-variant:normal;font-weight:normal;font-stretch:normal;line-height:0%;font-family:Lavi;-inkscape-font-specification:Lavi;letter-spacing:0px;word-spacing:0px;display:inline;fill:#ffffff;fill-opacity:1;stroke:#ffffff;stroke-width:1.60702038;stroke-miterlimit:4;stroke-dasharray:none;stroke-opacity:1;filter:url(#filter4375-4-1-1-1-9-6-9-2-1-4)"
       x="787.65729"
       y="1584.5073"
       id="text4580-1-7-3-6-0"
       transform="matrix(0.53463705,-0.29379615,-0.09870188,0.77850522,762.29355,2374.7099)"><tspan
         sodipodi:role="line"
         id="tspan4582-8-5-6-1-3"
         x="787.65729"
         y="1584.5073"
         style="font-size:70px;line-height:1.25;fill:#ffffff;fill-opacity:1;stroke:#ffffff;stroke-width:1.60702038;stroke-miterlimit:4;stroke-dasharray:none;stroke-opacity:1">Tap</tspan></text>
    <text
       xml:space="preserve"
       style="font-style:normal;font-variant:normal;font-weight:normal;font-stretch:normal;line-height:0%;font-family:Lavi;-inkscape-font-specification:Lavi;text-align:center;letter-spacing:0px;word-spacing:0px;text-anchor:middle;display:inline;opacity:1;fill:#241c1c;fill-opacity:1;stroke:#000000;stroke-width:4.32200003;stroke-miterlimit:4;stroke-dasharray:none;stroke-opacity:1"
       x="2414.1099"
       y="3323.9915"
       id="text4213"
       transform="matrix(0.95719015,0,-0.32603671,1.0447245,0,0)"><tspan
         sodipodi:role="line"
         id="tspan3562"
         x="2414.1099"
         y="3323.9915"
         style="font-size:72.18077087px;line-height:1.25;stroke-width:4.32200003;stroke-miterlimit:4;stroke-dasharray:none">- WAK -</tspan></text>
    <text
       xml:space="preserve"
       style="font-style:normal;font-weight:normal;font-size:40px;line-height:1.25;font-family:sans-serif;letter-spacing:0px;word-spacing:0px;fill:#000000;fill-opacity:1;stroke:none"
       x="1309.9153"
       y="1452.3903"
       id="text4950"><tspan
         sodipodi:role="line"
         id="tspan4948"
         x="1309.9153"
         y="1488.8834"></tspan></text>
    <use
       x="0"
       y="0"
       xlink:href="#text4580-1-7-3-6-0"
       id="use5330"
       transform="matrix(0.84256251,0,0,0.86599082,166.55778,384.4743)"
       width="100%"
       height="100%" />
    <text
       transform="matrix(0.39067805,-0.21762695,-0.07212492,0.57667097,852.17601,2507.3384)"
       id="use5334"
       y="1584.5073"
       x="787.65729"
       style="font-style:normal;font-variant:normal;font-weight:normal;font-stretch:normal;line-height:0%;font-family:Lavi;-inkscape-font-specification:Lavi;letter-spacing:0px;word-spacing:0px;display:inline;fill:#ffffff;fill-opacity:1;stroke:#ffffff;stroke-width:1.60702038;stroke-miterlimit:4;stroke-dasharray:none;stroke-opacity:1;filter:url(#filter4375-4-1-1-1-9-6-9-2-1-4)"
       xml:space="preserve"><tspan
         style="font-size:70px;line-height:1.25;fill:#ffffff;fill-opacity:1;stroke:#ffffff;stroke-width:1.60702038;stroke-miterlimit:4;stroke-dasharray:none;stroke-opacity:1"
         y="1584.5073"
         x="787.65729"
         id="tspan5336"
         sodipodi:role="line">Tap</tspan></text>
    <use
       x="0"
       y="0"
       xlink:href="#use4557"
       id="use5340"
       transform="translate(-820,615)"
       width="100%"
       height="100%" />
    <use
       x="0"
       y="0"
       xlink:href="#use4559"
       id="use5342"
       transform="translate(-820,615)"
       width="100%"
       height="100%" />
    <use
       x="0"
       y="0"
       xlink:href="#use4567"
       id="use5344"
       transform="translate(-820,615)"
       width="100%"
       height="100%" />
    <use
       x="0"
       y="0"
       xlink:href="#use5340"
       id="use5346"
       transform="translate(152.5,25)"
       width="100%"
       height="100%" />
    <use
       x="0"
       y="0"
       xlink:href="#use5342"
       id="use5348"
       transform="translate(152.5,25)"
       width="100%"
       height="100%" />
    <use
       x="0"
       y="0"
       xlink:href="#use5344"
       id="use5350"
       transform="translate(152.5,25)"
       width="100%"
       height="100%" />
    <use
       x="0"
       y="0"
       xlink:href="#use5346"
       id="use5352"
       transform="translate(532.5,-872.5)"
       width="100%"
       height="100%" />
    <use
       x="0"
       y="0"
       xlink:href="#use5348"
       id="use5354"
       transform="translate(532.5,-872.5)"
       width="100%"
       height="100%" />
    <use
       x="0"
       y="0"
       xlink:href="#use5350"
       id="use5356"
       transform="translate(532.5,-872.5)"
       width="100%"
       height="100%" />
    <use
       x="0"
       y="0"
       xlink:href="#use5352"
       id="use5358"
       transform="translate(-42.5,142.5)"
       width="100%"
       height="100%" />
    <use
       x="0"
       y="0"
       xlink:href="#use5354"
       id="use5360"
       transform="translate(-42.5,142.5)"
       width="100%"
       height="100%" />
    <use
       x="0"
       y="0"
       xlink:href="#use5356"
       id="use5362"
       transform="translate(-42.5,142.5)"
       width="100%"
       height="100%" />
    <use
       x="0"
       y="0"
       xlink:href="#use5358"
       id="use5364"
       transform="translate(-310,770)"
       width="100%"
       height="100%" />
    <use
       x="0"
       y="0"
       xlink:href="#use5360"
       id="use5366"
       transform="translate(-310,770)"
       width="100%"
       height="100%" />
    <use
       x="0"
       y="0"
       xlink:href="#use5362"
       id="use5368"
       transform="translate(-310,770)"
       width="100%"
       height="100%" />
    <use
       x="0"
       y="0"
       xlink:href="#use5364"
       id="use5370"
       transform="translate(-335,60)"
       width="100%"
       height="100%" />
    <use
       x="0"
       y="0"
       xlink:href="#use5366"
       id="use5372"
       transform="translate(-335,60)"
       width="100%"
       height="100%" />
    <use
       x="0"
       y="0"
       xlink:href="#use5368"
       id="use5374"
       transform="translate(-335,60)"
       width="100%"
       height="100%" />
    <use
       x="0"
       y="0"
       xlink:href="#use5370"
       id="use5376"
       transform="translate(160,25)"
       width="100%"
       height="100%" />
    <use
       x="0"
       y="0"
       xlink:href="#use5372"
       id="use5378"
       transform="translate(160,25)"
       width="100%"
       height="100%" />
    <use
       x="0"
       y="0"
       xlink:href="#use5374"
       id="use5380"
       transform="translate(160,25)"
       width="100%"
       height="100%" />
    <use
       x="0"
       y="0"
       xlink:href="#use5348"
       id="use5382"
       transform="translate(-315,222.5)"
       width="100%"
       height="100%" />
    <use
       x="0"
       y="0"
       xlink:href="#use5364"
       id="use5384"
       transform="translate(-315,222.5)"
       width="100%"
       height="100%" />
    <use
       x="0"
       y="0"
       xlink:href="#use5366"
       id="use5386"
       transform="translate(-302.5,215)"
       width="100%"
       height="100%" />
    <use
       x="0"
       y="0"
       xlink:href="#use5368"
       id="use5388"
       transform="translate(-315,222.5)"
       width="100%"
       height="100%" />
    <use
       x="0"
       y="0"
       xlink:href="#use5376"
       id="use5390"
       transform="translate(-315,222.5)"
       width="100%"
       height="100%" />
    <use
       x="0"
       y="0"
       xlink:href="#use5386"
       id="use5392"
       inkscape:transform-center-x="275.32247"
       inkscape:transform-center-y="-24.850995"
       width="100%"
       height="100%"
       transform="translate(257.5,-5)" />
    <use
       x="0"
       y="0"
       xlink:href="#use5392"
       inkscape:transform-center-x="275.32247"
       inkscape:transform-center-y="-24.850995"
       id="use5394"
       transform="translate(-87.5,-5)"
       width="100%"
       height="100%" />
    <use
       x="0"
       y="0"
       xlink:href="#use5394"
       inkscape:transform-center-x="275.32247"
       inkscape:transform-center-y="-24.850995"
       id="use5396"
       transform="translate(-217.5,195)"
       width="100%"
       height="100%" />
    <use
       x="0"
       y="0"
       xlink:href="#use5396"
       inkscape:transform-center-x="275.32247"
       inkscape:transform-center-y="-24.850995"
       id="use5398"
       transform="translate(285,17.5)"
       width="100%"
       height="100%" />
    <use
       x="0"
       y="0"
       xlink:href="#use5398"
       inkscape:transform-center-x="275.32247"
       inkscape:transform-center-y="-24.850995"
       id="use5400"
       transform="translate(-50,25)"
       width="100%"
       height="100%" />
    <use
       x="0"
       y="0"
       xlink:href="#use5400"
       inkscape:transform-center-x="275.32247"
       inkscape:transform-center-y="-24.850995"
       id="use5402"
       transform="translate(-195,5)"
       width="100%"
       height="100%" />
    <use
       x="0"
       y="0"
       xlink:href="#use5402"
       inkscape:transform-center-x="275.32247"
       inkscape:transform-center-y="-24.850995"
       id="use5404"
       width="100%"
       height="100%"
       transform="translate(-7.5,67.5)" />
    <use
       x="0"
       y="0"
       xlink:href="#use4551"
       id="use5406"
       transform="translate(-52.5,142.5)"
       width="100%"
       height="100%" />
    <use
       x="0"
       y="0"
       xlink:href="#use4553"
       id="use5408"
       transform="translate(-52.5,142.5)"
       width="100%"
       height="100%" />
    <use
       x="0"
       y="0"
       xlink:href="#use4555"
       id="use5410"
       transform="translate(-52.5,142.5)"
       width="100%"
       height="100%" />
    <use
       x="0"
       y="0"
       xlink:href="#use4569"
       id="use5412"
       transform="translate(-52.5,142.5)"
       width="100%"
       height="100%" />
    <use
       x="0"
       y="0"
       xlink:href="#use5406"
       id="use5414"
       transform="translate(-715,87.5)"
       width="100%"
       height="100%" />
    <use
       x="0"
       y="0"
       xlink:href="#use5408"
       id="use5416"
       transform="translate(-715,87.5)"
       width="100%"
       height="100%" />
    <use
       x="0"
       y="0"
       xlink:href="#use5410"
       id="use5418"
       transform="translate(-715,87.5)"
       width="100%"
       height="100%" />
    <use
       x="0"
       y="0"
       xlink:href="#use5412"
       id="use5420"
       transform="translate(-715,87.5)"
       width="100%"
       height="100%" />
    <use
       x="0"
       y="0"
       xlink:href="#use5414"
       id="use5422"
       transform="translate(-67.5,157.5)"
       width="100%"
       height="100%" />
    <use
       x="0"
       y="0"
       xlink:href="#use5416"
       id="use5424"
       transform="translate(-67.5,157.5)"
       width="100%"
       height="100%" />
    <use
       x="0"
       y="0"
       xlink:href="#use5418"
       id="use5426"
       transform="translate(-67.5,157.5)"
       width="100%"
       height="100%" />
    <use
       x="0"
       y="0"
       xlink:href="#use5420"
       id="use5428"
       transform="translate(-67.5,157.5)"
       width="100%"
       height="100%" />
    <use
       x="0"
       y="0"
       xlink:href="#use5422"
       id="use5430"
       transform="translate(-562.5,-132.5)"
       width="100%"
       height="100%" />
    <use
       x="0"
       y="0"
       xlink:href="#use5424"
       id="use5432"
       transform="translate(-562.5,-132.5)"
       width="100%"
       height="100%" />
    <use
       x="0"
       y="0"
       xlink:href="#use5426"
       id="use5434"
       transform="translate(-562.5,-132.5)"
       width="100%"
       height="100%" />
    <use
       x="0"
       y="0"
       xlink:href="#use5428"
       id="use5436"
       transform="translate(-562.5,-132.5)"
       width="100%"
       height="100%" />
    <use
       x="0"
       y="0"
       xlink:href="#use5430"
       id="use5438"
       transform="translate(115,-472.5)"
       width="100%"
       height="100%" />
    <use
       x="0"
       y="0"
       xlink:href="#use5432"
       id="use5440"
       transform="translate(115,-472.5)"
       width="100%"
       height="100%" />
    <use
       x="0"
       y="0"
       xlink:href="#use5434"
       id="use5442"
       transform="translate(115,-472.5)"
       width="100%"
       height="100%" />
    <use
       x="0"
       y="0"
       xlink:href="#use5436"
       id="use5444"
       transform="translate(115,-472.5)"
       width="100%"
       height="100%" />
    <use
       x="0"
       y="0"
       xlink:href="#use4557"
       id="use5446"
       transform="matrix(2.6400018,0,0,2.3639228,-2557.6023,-2040.6144)"
       width="100%"
       height="100%" />
    <use
       x="0"
       y="0"
       xlink:href="#use5446"
       id="use5448"
       transform="matrix(0.76566112,0,0,0.89081164,-73.150151,492.9682)"
       width="100%"
       height="100%" />
    <use
       x="0"
       y="0"
       xlink:href="#use5448"
       id="use5450"
       transform="matrix(0.80543244,0,0,0.81098041,300.76054,443.92134)"
       width="100%"
       height="100%" />
    <use
       x="0"
       y="0"
       xlink:href="#use5450"
       id="use5452"
       transform="translate(438.4062,-929.84542)"
       width="100%"
       height="100%" />
    <use
       x="0"
       y="0"
       xlink:href="#use5452"
       id="use5454"
       transform="translate(1474.3176,42.426407)"
       width="100%"
       height="100%" />
    <use
       x="0"
       y="0"
       xlink:href="#use5454"
       id="use5456"
       transform="translate(-830.85047,197.9899)"
       width="100%"
       height="100%" />
    <use
       x="0"
       y="0"
       xlink:href="#use5456"
       id="use5458"
       transform="translate(-1283.3988,512.65242)"
       width="100%"
       height="100%" />
    <use
       x="0"
       y="0"
       xlink:href="#use5448"
       id="use5460"
       transform="matrix(0.46780571,0,0,0.64448647,174.78115,1157.7546)"
       width="100%"
       height="100%" />
    <use
       x="0"
       y="0"
       xlink:href="#use5460"
       id="use5462"
       transform="translate(318.19805,-190.91883)"
       width="100%"
       height="100%" />
    <use
       x="0"
       y="0"
       xlink:href="#use5462"
       id="use5464"
       transform="translate(-374.76659,321.73359)"
       width="100%"
       height="100%" />
    <use
       x="0"
       y="0"
       xlink:href="#use5464"
       id="use5466"
       transform="translate(307.59145,-28.284271)"
       width="100%"
       height="100%" />
    <use
       x="0"
       y="0"
       xlink:href="#use5466"
       id="use5468"
       transform="translate(1859.6908,-1067.7312)"
       width="100%"
       height="100%" />
    <use
       x="0"
       y="0"
       xlink:href="#use5468"
       id="use5470"
       transform="translate(-728.31998,28.284271)"
       width="100%"
       height="100%" />
    <use
       x="0"
       y="0"
       xlink:href="#use5470"
       id="use5472"
       transform="translate(-657.60931,-155.56349)"
       width="100%"
       height="100%" />
    <use
       x="0"
       y="0"
       xlink:href="#use5454"
       id="use5474"
       transform="translate(-1891.5106,1088.9444)"
       width="100%"
       height="100%" />
    <use
       x="0"
       y="0"
       xlink:href="#use5446"
       id="use5504"
       transform="matrix(0.64460494,0,0,0.61305266,753.17673,78.274709)"
       width="100%"
       height="100%" />
    <use
       x="0"
       y="0"
       xlink:href="#use5504"
       id="use5506"
       transform="matrix(0.66122073,0,0,0.63772336,-8.6407122,1169.4391)"
       width="100%"
       height="100%" />
    <use
       x="0"
       y="0"
       xlink:href="#use5506"
       id="use5508"
       transform="matrix(0.90467726,0,0,0.86933109,40.387207,203.15719)"
       width="100%"
       height="100%" />
    <use
       x="0"
       y="0"
       xlink:href="#use5508"
       id="use5510"
       transform="matrix(0.75214605,0,0,0.74053333,137.83551,478.52897)"
       width="100%"
       height="100%" />
    <use
       x="0"
       y="0"
       xlink:href="#use5424"
       id="use5512"
       transform="matrix(0.61901073,0,0,0.72879407,577.10059,552.11875)"
       width="100%"
       height="100%" />
    <use
       x="0"
       y="0"
       xlink:href="#use5512"
       id="use5514"
       transform="translate(153.75,-80)"
       width="100%"
       height="100%" />
    <use
       x="0"
       y="0"
       xlink:href="#use5514"
       id="use5516"
       transform="translate(-258.75,58.75)"
       width="100%"
       height="100%" />
    <use
       x="0"
       y="0"
       xlink:href="#use5516"
       id="use5518"
       transform="translate(196.25,56.25)"
       width="100%"
       height="100%" />
    <use
       x="0"
       y="0"
       xlink:href="#use5518"
       id="use5520" />
    <use
       x="0"
       y="0"
       xlink:href="#use5520"
       id="use5522" />
    <use
       x="0"
       y="0"
       xlink:href="#use5522"
       id="use5524"
       width="100%"
       height="100%" />
    <use
       x="0"
       y="0"
       xlink:href="#use5524"
       id="use5526"
       transform="translate(-711.25,-13.75)"
       width="100%"
       height="100%" />
    <use
       x="0"
       y="0"
       xlink:href="#use5526"
       id="use5528"
       transform="translate(-33.75,-32.5)"
       width="100%"
       height="100%" />
    <use
       x="0"
       y="0"
       xlink:href="#use5528"
       id="use5530"
       transform="translate(78.75,-86.25)"
       width="100%"
       height="100%" />
    <use
       x="0"
       y="0"
       xlink:href="#use5530"
       id="use5532"
       transform="translate(-96.25,-52.5)"
       width="100%"
       height="100%" />
    <use
       x="0"
       y="0"
       xlink:href="#use5532"
       id="use5534"
       transform="translate(193.75,62.5)"
       width="100%"
       height="100%" />
    <use
       x="0"
       y="0"
       xlink:href="#use5534"
       id="use5536"
       transform="translate(-20,-90)"
       width="100%"
       height="100%" />
    <use
       x="0"
       y="0"
       xlink:href="#use5536"
       id="use5538"
       transform="translate(-312.5,7.5)"
       width="100%"
       height="100%" />
    <use
       x="0"
       y="0"
       xlink:href="#use5538"
       id="use5540"
       transform="translate(312.5,-7.5)"
       width="100%"
       height="100%" />
    <use
       x="0"
       y="0"
       xlink:href="#use5540"
       id="use5542"
       width="100%"
       height="100%" />
    <use
       x="0"
       y="0"
       xlink:href="#use5542"
       id="use5544"
       width="100%"
       height="100%" />
    <use
       x="0"
       y="0"
       xlink:href="#use5544"
       id="use5546"
       width="100%"
       height="100%" />
    <use
       x="0"
       y="0"
       xlink:href="#use5538"
       id="use5548"
       transform="translate(-107.5,-41.25)"
       width="100%"
       height="100%" />
    <use
       x="0"
       y="0"
       xlink:href="#use5548"
       id="use5550"
       transform="translate(-5,208.75)"
       width="100%"
       height="100%" />
    <use
       x="0"
       y="0"
       xlink:href="#use5550"
       id="use5552"
       transform="translate(102.5,38.75)"
       width="100%"
       height="100%" />
    <use
       x="0"
       y="0"
       xlink:href="#use5552"
       id="use5554"
       transform="translate(-523.75,325)"
       width="100%"
       height="100%" />
    <use
       x="0"
       y="0"
       xlink:href="#use5554"
       id="use5556"
       transform="translate(177.5,18.75)"
       width="100%"
       height="100%" />
    <use
       x="0"
       y="0"
       xlink:href="#use5556"
       id="use5558"
       transform="translate(-191.25,98.75)"
       width="100%"
       height="100%" />
    <use
       x="0"
       y="0"
       xlink:href="#use5558"
       id="use5560"
       transform="translate(21.25,65)"
       width="100%"
       height="100%" />
    <use
       x="0"
       y="0"
       xlink:href="#use5560"
       id="use5562"
       transform="translate(300,-111.25)"
       width="100%"
       height="100%"
       style="fill:#ffffff;stroke:#ffffff" />
    <rect
       style="opacity:1;fill:#ffffff;fill-opacity:1;fill-rule:nonzero;stroke:#ffffff;stroke-width:3;stroke-linecap:round;stroke-miterlimit:4;stroke-dasharray:none;stroke-opacity:1"
       id="rect5566"
       width="78.75"
       height="537.5"
       x="2380"
       y="1680.5"
       rx="17.995899"
       ry="20.5546" />
    <use
       x="0"
       y="0"
       xlink:href="#use5474"
       id="use5568"
       transform="translate(-212.13203,42.426407)"
       width="100%"
       height="100%" />
    <use
       x="0"
       y="0"
       xlink:href="#use5446"
       id="use5570"
       transform="translate(-67.175145,548.00776)"
       width="100%"
       height="100%" />
    <use
       x="0"
       y="0"
       xlink:href="#use4567"
       id="use5572"
       transform="translate(-749.53319,208.5965)"
       width="100%"
       height="100%" />
    <use
       x="0"
       y="0"
       xlink:href="#use5432"
       id="use5574"
       transform="translate(-749.53319,208.5965)"
       width="100%"
       height="100%" />
    <use
       x="0"
       y="0"
       xlink:href="#use5434"
       id="use5576"
       transform="translate(-749.53319,208.5965)"
       width="100%"
       height="100%" />
    <use
       x="0"
       y="0"
       xlink:href="#use5436"
       id="use5578"
       transform="translate(-749.53319,208.5965)"
       width="100%"
       height="100%" />
    <use
       x="0"
       y="0"
       xlink:href="#use5526"
       id="use5580"
       transform="translate(-749.53319,208.5965)"
       width="100%"
       height="100%" />
    <use
       x="0"
       y="0"
       xlink:href="#use5528"
       id="use5582"
       transform="translate(-749.53319,208.5965)"
       width="100%"
       height="100%" />
    <use
       x="0"
       y="0"
       xlink:href="#use5530"
       id="use5584"
       transform="translate(-749.53319,208.5965)"
       width="100%"
       height="100%" />
    <use
       x="0"
       y="0"
       xlink:href="#use5532"
       id="use5586"
       transform="translate(-749.53319,208.5965)"
       width="100%"
       height="100%" />
    <rect
       style="opacity:1;fill:#ffffff;fill-opacity:1;fill-rule:nonzero;stroke:#ffffff;stroke-width:3.65144014;stroke-linecap:round;stroke-miterlimit:4;stroke-dasharray:none;stroke-opacity:1"
       id="rect5564"
       width="81.25"
       height="1459.2245"
       x="20"
       y="1973.7755"
       rx="17.995899"
       ry="30.450533" />
    <use
       x="0"
       y="0"
       xlink:href="#use5534"
       id="use5588"
       transform="translate(-749.53319,208.5965)"
       width="100%"
       height="100%" />
    <use
       x="0"
       y="0"
       xlink:href="#use5536"
       id="use5590"
       transform="translate(-749.53319,208.5965)"
       width="100%"
       height="100%" />
    <use
       x="0"
       y="0"
       xlink:href="#use5540"
       id="use5592"
       transform="translate(-749.53319,208.5965)"
       width="100%"
       height="100%" />
    <use
       x="0"
       y="0"
       xlink:href="#use5542"
       id="use5594"
       transform="translate(-749.53319,208.5965)"
       width="100%"
       height="100%" />
    <use
       x="0"
       y="0"
       xlink:href="#use5544"
       id="use5596"
       transform="translate(-749.53319,208.5965)"
       width="100%"
       height="100%" />
    <use
       x="0"
       y="0"
       xlink:href="#use5546"
       id="use5598"
       transform="translate(-749.53319,208.5965)"
       width="100%"
       height="100%" />
    <use
       x="0"
       y="0"
       xlink:href="#use5506"
       id="use5600"
       transform="translate(-159.09903,1046.518)"
       width="100%"
       height="100%" />
    <use
       x="0"
       y="0"
       xlink:href="#use5508"
       id="use5602"
       transform="translate(-159.09903,1046.518)"
       width="100%"
       height="100%" />
    <use
       x="0"
       y="0"
       xlink:href="#use5510"
       id="use5604"
       transform="translate(-159.09903,1046.518)"
       width="100%"
       height="100%" />
    <use
       x="0"
       y="0"
       xlink:href="#use5528"
       id="use5606"
       transform="translate(-159.09903,1046.518)"
       width="100%"
       height="100%" />
    <use
       x="0"
       y="0"
       xlink:href="#use5532"
       id="use5608"
       transform="translate(-159.09903,1046.518)"
       width="100%"
       height="100%" />
    <use
       x="0"
       y="0"
       xlink:href="#use5538"
       id="use5610"
       transform="translate(-159.09903,1046.518)"
       width="100%"
       height="100%" />
    <use
       x="0"
       y="0"
       xlink:href="#use5548"
       id="use5612"
       transform="translate(-159.09903,1046.518)"
       width="100%"
       height="100%" />
    <use
       x="0"
       y="0"
       xlink:href="#use5550"
       id="use5614"
       transform="translate(-159.09903,1046.518)"
       width="100%"
       height="100%" />
    <use
       x="0"
       y="0"
       xlink:href="#use5552"
       id="use5616"
       transform="translate(-159.09903,1046.518)"
       width="100%"
       height="100%" />
  </g>
  <g
     inkscape:groupmode="layer"
     id="layer4"
     inkscape:label="notes"
     style="display:inline">
    <path
       style="color:#000000;clip-rule:nonzero;display:inline;overflow:visible;visibility:visible;opacity:0.481;isolation:auto;mix-blend-mode:normal;color-interpolation:sRGB;color-interpolation-filters:linearRGB;solid-color:#000000;solid-opacity:1;fill:#ffe680;fill-opacity:1;fill-rule:nonzero;stroke:#565656;stroke-width:1.20000005;stroke-linecap:butt;stroke-linejoin:miter;stroke-miterlimit:4;stroke-dasharray:none;stroke-dashoffset:0;stroke-opacity:1;marker:none;color-rendering:auto;image-rendering:auto;shape-rendering:auto;text-rendering:auto;enable-background:accumulate"
       d="m 3002.6554,1569.5363 v 189.035 h -203.83 v -90.9804 h -10 v 15.6308 l -30.9825,-26.9824 30.9825,-26.9804 v 16.6171 h 10 v -76.3397 z"
       id="rect4191-6"
       inkscape:connector-curvature="0" />
    <flowRoot
       xml:space="preserve"
       id="flowRoot4212-7"
       style="font-style:normal;font-variant:normal;font-weight:normal;font-stretch:normal;line-height:0.01%;font-family:Lavi;-inkscape-font-specification:'Lavi, Normal';text-align:center;letter-spacing:0px;word-spacing:0px;writing-mode:lr-tb;text-anchor:middle;display:inline;opacity:0.481;fill:#000000;fill-opacity:1;stroke:none;stroke-width:1px;stroke-linecap:butt;stroke-linejoin:miter;stroke-opacity:1"
       transform="translate(3037.2197,561.29272)"><flowRegion
         id="flowRegion4214-5"><rect
           id="rect4216-3"
           width="291.95547"
           height="247.52747"
           x="-275.14545"
           y="1061.6674" /></flowRegion><flowPara
         id="flowPara4218-5"
         style="font-size:25.3241539px;line-height:1.25">Edit this one,</flowPara><flowPara
         id="flowPara4562"
         style="font-size:25.3241539px;line-height:1.25">all others</flowPara><flowPara
         id="flowPara4564"
         style="font-size:25.3241539px;line-height:1.25">are linked</flowPara></flowRoot>    <text
       xml:space="preserve"
       style="font-style:normal;font-variant:normal;font-weight:normal;font-stretch:normal;line-height:0%;font-family:Lavi;-inkscape-font-specification:Lavi;letter-spacing:0px;word-spacing:0px;display:inline;fill:#ffffff;fill-opacity:1;stroke:#ffffff;stroke-width:0.86525804;stroke-miterlimit:4;stroke-dasharray:none;stroke-opacity:1;filter:url(#filter4375-4-1-1-1-9-6-9-2-1-6)"
       x="787.65729"
       y="1584.5073"
       id="text4580-1-7-3-6-1"
       transform="matrix(1.1302949,-0.6207952,-0.20866911,1.644992,2015.1166,-376.91045)"><tspan
         sodipodi:role="line"
         id="tspan4582-8-5-6-1-5"
         x="787.65729"
         y="1584.5073"
         style="font-size:70px;line-height:1.25;fill:#ffffff;fill-opacity:1;stroke:#ffffff;stroke-width:0.86525804;stroke-miterlimit:4;stroke-dasharray:none;stroke-opacity:1">Clap</tspan></text>
  </g>
</svg>
