<?xml version="1.0" encoding="UTF-8" standalone="no"?>
<!-- Created with Inkscape (http://www.inkscape.org/) -->

<svg
   xmlns:dc="http://purl.org/dc/elements/1.1/"
   xmlns:cc="http://creativecommons.org/ns#"
   xmlns:rdf="http://www.w3.org/1999/02/22-rdf-syntax-ns#"
   xmlns:svg="http://www.w3.org/2000/svg"
   xmlns="http://www.w3.org/2000/svg"
   xmlns:xlink="http://www.w3.org/1999/xlink"
   xmlns:sodipodi="http://sodipodi.sourceforge.net/DTD/sodipodi-0.dtd"
   xmlns:inkscape="http://www.inkscape.org/namespaces/inkscape"
   id="svg2"
   version="1.1"
   inkscape:version="0.92.3 (2405546, 2018-03-11)"
   width="2481"
   height="3503"
   sodipodi:docname="E29P03.svg">
  <metadata
     id="metadata8">
    <rdf:RDF>
      <cc:Work
         rdf:about="">
        <dc:format>image/svg+xml</dc:format>
        <dc:type
           rdf:resource="http://purl.org/dc/dcmitype/StillImage" />
        <dc:title></dc:title>
      </cc:Work>
    </rdf:RDF>
  </metadata>
  <defs
     id="defs6" />
  <sodipodi:namedview
     pagecolor="#ffffff"
     bordercolor="#666666"
     borderopacity="1"
     objecttolerance="10"
     gridtolerance="10"
     guidetolerance="10"
     inkscape:pageopacity="0"
     inkscape:pageshadow="2"
     inkscape:window-width="1366"
     inkscape:window-height="713"
     id="namedview4"
     showgrid="false"
     inkscape:zoom="0.25630013"
     inkscape:cx="1399.7372"
     inkscape:cy="2776.5229"
     inkscape:window-x="-8"
     inkscape:window-y="-8"
     inkscape:window-maximized="1"
     inkscape:current-layer="layer1"
     inkscape:snap-global="false" />
  <g
     inkscape:groupmode="layer"
     id="layer2"
     inkscape:label="artwork"
     sodipodi:insensitive="true">
    <image
       sodipodi:absref="D:\Pepper &amp; Carrot\Original\Destroyer Of World\en\..\gfx_Pepper-and-Carrot_by-David-Revoy_E29P03.png"
       xlink:href="../gfx_Pepper-and-Carrot_by-David-Revoy_E29P03.png"
       y="0"
       x="0"
       id="image10"
       height="3503"
       width="2481" />
  </g>
  <g
     inkscape:groupmode="layer"
     id="layer3"
     inkscape:label="speechbubbles">
    <path
       style="color:#000000;display:inline;overflow:visible;visibility:visible;fill:#ffffff;fill-opacity:1;fill-rule:nonzero;stroke:none;stroke-width:1.03702748px;marker:none;enable-background:accumulate"
       d="m 164.56062,203.28558 c 3.80339,-26.62382 -1.34362,-57.915 43.12412,-72.94279 44.46774,-15.02779 138.55024,-17.7922 236.28341,-12.51509 52.35114,2.8267 138.93693,-0.0987 179.06092,15.19077 26.21525,9.98947 39.63902,33.31133 34.67555,72.31502 -4.96345,39.00365 -28.69215,59.31682 -77.123,68.66575 -48.43086,9.34893 -96.97671,9.03196 -139.25303,8.59783 -40.81919,-0.41917 -72.47651,3.12535 -126.77191,-2.15834 -54.2954,-5.28369 -108.09883,-14.11222 -123.82012,-27.42734 -9.84112,-8.33494 -16.64352,-16.64272 -20.85642,-24.9286 -4.2129,-8.28588 -5.83634,-16.54986 -5.31952,-24.79721 z"
       id="path4546-6"
       inkscape:connector-curvature="0"
       sodipodi:nodetypes="csssssssssc" />
    <path
       style="fill:#ffffff;stroke:none;stroke-width:1"
       d="m 240.20205,385.06686 c -58.13838,-27.45721 -59.25417,-104.2317 6.40363,-135.1495 33.25786,-15.66089 31.21798,-5.00947 31.21798,-5.00947 l -6.80518,-52.3863 c 0,0 17.27652,-20.93641 -34.72953,12.43271 -52.00605,33.36911 -110.96723,129.16604 3.9131,180.11256 z"
       id="path3063"
       inkscape:connector-curvature="0"
       sodipodi:nodetypes="cscczc" />
    <path
       style="color:#000000;display:inline;overflow:visible;visibility:visible;fill:#ffffff;fill-opacity:1;fill-rule:nonzero;stroke:none;stroke-width:1px;marker:none;enable-background:accumulate"
       d="m 1831.8907,161.70482 c 31.0929,-35.7225 436.178,-57.75144 492.3718,19.47099 35.6585,49.0024 21.7061,234.3177 -23.8244,269.827 -53.5847,41.79071 -353.0745,30.46494 -428.3962,7.17083 -71.661,-22.16198 -74.3081,-98.07112 -77.9222,-171.81292 -1.4751,-30.0969 6.6778,-88.9333 37.771,-124.6559 z"
       id="path4040-4"
       inkscape:connector-curvature="0"
       sodipodi:nodetypes="zssssz" />
    <path
       style="color:#000000;display:inline;overflow:visible;visibility:visible;fill:#ffffff;fill-opacity:1;fill-rule:nonzero;stroke:none;stroke-width:0.99999994px;marker:none;enable-background:accumulate"
       d="m 1521.7564,267.86763 c 32.5901,-37.14844 120.5249,-77.58678 199.7918,-73.40468 42.0311,2.21755 81.2853,18.77332 113.3871,43.73164 54.8474,16.58165 18.1095,-34.39627 18.1095,-34.39627 -9.1911,-10.4538 -45.1517,-22.91599 -79.6603,-28.40181 -77.1713,-12.26787 -186.4105,2.0063 -251.6281,92.47112 z"
       id="path3984"
       inkscape:connector-curvature="0"
       sodipodi:nodetypes="csccsc" />
    <path
       style="color:#000000;display:inline;overflow:visible;visibility:visible;fill:#ffffff;fill-opacity:1;fill-rule:nonzero;stroke:none;stroke-width:1.01735055px;marker:none;enable-background:accumulate"
       d="m 1889.9038,526.03993 c 3.2409,-27.92669 10.5475,-50.08154 50.746,-62.36647 40.1987,-12.28493 113.2893,-14.69995 206.0183,-9.86734 49.6706,2.58861 115.9296,6.35815 155.5131,18.02744 39.5837,11.6693 52.4917,31.23838 48.3207,72.1464 -4.1709,40.908 -18.7577,62.69956 -64.5448,72.842 -45.787,10.14243 -122.7744,8.63574 -139.533,9.66758 -43.819,-3.24918 -128.3112,1.35913 -182.0243,-7.24059 -53.7132,-8.59972 -76.647,-30.40745 -74.496,-93.20902 z"
       id="path4546-6-0"
       inkscape:connector-curvature="0"
       sodipodi:nodetypes="cssssscsc" />
    <path
       style="color:#000000;display:inline;overflow:visible;visibility:visible;fill:#ffffff;fill-opacity:1;fill-rule:nonzero;stroke:none;stroke-width:0.76410979px;marker:none;enable-background:accumulate"
       d="m 130.8491,1669.9808 c 3.46425,-22.0788 3.96151,-43.3945 49.78231,-56.3543 45.8208,-12.9597 126.54466,-16.5477 227.93928,-13.3287 54.31242,1.7243 122.732,4.0482 166.0419,13.0098 43.30989,8.9617 61.51011,24.5611 57.06567,56.8993 -4.44443,32.3382 -28.42852,46.4668 -78.45901,54.7731 -50.03047,8.3065 -126.10736,10.7906 -144.42656,11.7138 -18.31919,0.923 -75.13723,0.1277 -131.50896,-3.6071 -56.37173,-3.7347 -94.92971,-6.3459 -111.46375,-17.1809 -25.91981,-13.7213 -36.54709,-29.8548 -34.97088,-45.925 z"
       id="path4546-6-2"
       inkscape:connector-curvature="0"
       sodipodi:nodetypes="cssssssscc" />
    <path
       style="color:#000000;display:inline;overflow:visible;visibility:visible;fill:#ffffff;fill-opacity:1;fill-rule:nonzero;stroke:none;stroke-width:1px;marker:none;enable-background:accumulate"
       d="m 521.869,1649.1001 c 16.11108,-12.2669 15.86616,-23.0299 15.86632,-28.1369 10e-5,-5.107 -4.54529,-18.6761 -3.34265,-24.7247 1.02193,-4.995 3.12956,-18.1154 7.70997,-16.7463 4.58049,1.369 41.01203,26.2432 51.36903,17.3665 10.35713,-8.8768 11.10734,-20.8369 5.69423,-31.5145 -5.41309,-10.6777 -12.30128,-24.7121 -5.30101,-32.1137 7.00027,-7.4017 18.59276,-5.447 23.97197,-2.6844 5.3792,2.7626 35.49917,23.7296 45.22292,25.6243 9.7237,1.8947 23.71407,1.7027 43.50196,-19.9526 -14.8657,10.0411 -26.23617,15.9908 -34.47171,12.561 -8.23568,-3.4298 -23.77359,-8.4777 -30.56794,-16.4657 -6.79439,-7.9881 -19.06179,-24.7851 -27.96463,-25.3584 -8.9028,-0.5734 -30.44585,-2.3321 -37.17011,6.2487 -6.72431,8.5806 -9.50599,21.5672 -1.38826,37.7993 4.40691,11.1306 5.56687,16.9279 3.01621,18.7834 -2.55071,1.8553 -15.98612,-1.694 -23.40319,-10.6812 -7.41712,-8.9873 -15.67928,-14.4795 -30.30826,-9.5821 -15.5687,3.9577 -23.51473,25.3051 -27.43064,29.9131 -2.73121,11.1832 -10.25128,59.7905 -19.09981,53.7189 z"
       id="path5058"
       inkscape:connector-curvature="0"
       sodipodi:nodetypes="cscsssssscssssccscccc" />
    <path
       style="color:#000000;display:inline;overflow:visible;visibility:visible;fill:#ffffff;fill-opacity:1;fill-rule:nonzero;stroke:none;stroke-width:0.95734739px;marker:none;enable-background:accumulate"
       d="m 1775.2766,1057.2341 c 7.1013,-8.2073 24.0727,-16.1303 62.7005,-20.6081 38.6275,-4.478 86.2441,-3.4365 137.7084,-2.4845 51.4643,0.952 51.2573,0.2001 98.0658,0.2078 49.8149,0.01 75.0405,7.7221 104.7688,33.4038 29.7284,25.6816 44.3313,50.3168 44.1597,82.4557 -0.1717,32.139 -6.6616,55.2101 -34.1745,76.8531 -27.5131,21.6429 -68.8173,38.114 -122.2998,41.6713 -53.4825,3.5575 -179.6191,5.498 -244.548,-16.6429 -64.9292,-22.1412 -68.6092,-37.9122 -71.9109,-105.6803 -1.3475,-27.659 -2.8746,-56.347 25.53,-89.1759 z"
       id="path4040"
       inkscape:connector-curvature="0"
       sodipodi:nodetypes="sssszzzzsss" />
    <path
       style="color:#000000;display:inline;overflow:visible;visibility:visible;fill:#ffffff;fill-opacity:1;fill-rule:nonzero;stroke:none;stroke-width:1.0653249px;marker:none;enable-background:accumulate"
       d="m 1881.5529,1219.0726 c -41.8665,122.7323 -35.3869,185.6777 42.5567,264.4098 -47.4291,-53.5721 -48.443,-140.458 -27.8836,-196.5656 17.5953,-48.018 24.528,-47.5096 24.528,-47.5096 z"
       id="path4440"
       inkscape:connector-curvature="0"
       sodipodi:nodetypes="ccscc" />
    <path
       style="color:#000000;display:inline;overflow:visible;visibility:visible;fill:#ffffff;fill-opacity:1;fill-rule:nonzero;stroke:none;stroke-width:0.90702653px;marker:none;enable-background:accumulate"
       d="m 637.09643,1948.5938 c 32.27582,-17.1309 314.84379,-15.2068 363.89097,-9.6943 37.5925,4.225 82.2354,4.4857 111.8583,19.6223 29.6227,15.1367 40.5178,38.4724 40.6662,86.0407 0.1495,47.9387 -16.216,90.6642 -51.3021,100.381 -48.4898,13.4289 -101.5813,12.6913 -149.38633,13.21 -28.6217,0.3106 -232.27034,5.8721 -276.22026,-13.4407 -50.14366,-22.0345 -71.48618,-47.0384 -74.53938,-88.4612 -2.74989,-69.989 13.9022,-95.6319 35.0326,-107.6578 z"
       id="path4546-6-28"
       inkscape:connector-curvature="0"
       sodipodi:nodetypes="csssssscc" />
    <path
       style="color:#000000;display:inline;overflow:visible;visibility:visible;fill:#ffffff;fill-opacity:1;fill-rule:nonzero;stroke:none;stroke-width:1px;marker:none;enable-background:accumulate"
       d="m 876.44075,2262.2076 c 27.46212,-10.0522 29.72719,-13.3589 28.53705,-27.8918 -1.19034,-14.5328 -9.92446,-26.5364 7.13822,-46.8557 17.0627,-20.3194 23.42581,-21.4269 33.84191,-22.8653 -10.7962,-15.1116 -24.19769,-37.3822 -37.83781,-39.5812 -13.64004,-2.1992 45.1695,-29.6441 45.1695,-29.6441 0,0 22.75583,46.3627 21.99513,70.4189 -5.53179,28.827 -31.7847,25.0277 -45.6068,37.2789 -13.82198,12.2511 -2.66123,31.1992 -11.63877,43.0536 -8.97788,11.8543 -27.71027,14.1688 -41.59843,16.0867 z"
       id="path4538"
       inkscape:connector-curvature="0"
       sodipodi:nodetypes="cccccccscc" />
    <path
       style="fill:#ffffff;fill-rule:evenodd;stroke:none;stroke-width:1px;stroke-linecap:butt;stroke-linejoin:miter;stroke-opacity:1"
       d="m 1323.8016,1984.7216 c 28.8356,-4.5331 58.196,-6.8902 29.1661,-39.0973 40.2304,15.9013 101.614,24.7011 127.3674,-9.3315 21.0416,32.4151 72.5215,18.1393 103.6089,9.2863 -22.7459,39.1099 18.3414,35.1498 48.6838,26.2972 -58.1387,44.4003 -27.6095,58.521 -4.7008,75.2441 -57.1366,-12.3727 -96.278,-0.2731 -77.1628,27.9538 -47.2189,-29.2045 -101.7044,-23.5745 -85.7998,4.2937 -11.7134,-13.2298 -10.4746,-40.9431 -73.6465,1.7915 19.9656,-44.5555 -6.2049,-39.8788 -48.5754,-17.9152 6.6404,-15.1762 46.1072,-38.2538 -20.3703,-35.8306 41.5231,-14.4273 55.9482,-25.3946 1.4294,-42.692 z"
       id="path4584"
       inkscape:connector-curvature="0"
       sodipodi:nodetypes="cccccccccccc" />
    <path
       style="color:#000000;display:inline;overflow:visible;visibility:visible;fill:#ffffff;fill-opacity:1;fill-rule:nonzero;stroke:none;stroke-width:1px;marker:none;enable-background:accumulate"
       d="m 1472.7384,2047.3416 c 0.2312,29.9074 3.2778,68.8487 8.7074,74.7102 -9.1366,-3.6864 -17.8817,-5.2616 -24.6773,-6.6173 -2.08,14.7875 9.0067,61.8116 14.5567,88.5609 -25.1053,-37.9041 -39.0273,-94.4 -38.8725,-117.7051 8.4834,5.8822 16.5056,8.882 21.4065,8.8433 5.497,-10.4938 -6.7061,-51.3933 -7.3939,-51.6226 z"
       id="path5066"
       inkscape:connector-curvature="0"
       sodipodi:nodetypes="cccccccc" />
    <path
       style="color:#000000;display:inline;overflow:visible;visibility:visible;fill:#ffffff;fill-opacity:1;fill-rule:nonzero;stroke:none;stroke-width:1px;marker:none;enable-background:accumulate"
       d="m 226.06862,2871.1843 c 32.22727,-24.4433 452.09061,-39.5168 510.33447,13.3232 36.95935,33.5303 22.49799,160.3336 -24.6936,184.631 -55.53956,28.5956 -365.95535,20.846 -444.02488,4.9068 -74.27529,-15.1645 -77.01903,-67.106 -80.76496,-117.5643 -1.5289,-20.594 6.92144,-60.8532 39.14897,-85.2967 z"
       id="path4040-4-0"
       inkscape:connector-curvature="0"
       sodipodi:nodetypes="zssssz" />
    <path
       style="color:#000000;display:inline;overflow:visible;visibility:visible;fill:#ffffff;fill-opacity:1;fill-rule:nonzero;stroke:none;stroke-width:0.89390492px;marker:none;enable-background:accumulate"
       d="m 230.18052,3074.4621 c 51.81298,-19.8815 433.89309,-46.0119 511.34792,0.6796 62.1627,37.4731 39.62389,179.1867 -26.01084,206.3413 -63.23442,26.1617 -385.47668,23.2973 -467.71071,5.4838 -78.23739,-16.9477 -81.26914,-57.6618 -85.07324,-112.2055 -1.73597,-24.8906 15.63389,-80.4178 67.44687,-100.2992 z"
       id="path4040-4-0-6"
       inkscape:connector-curvature="0"
       sodipodi:nodetypes="zssssz" />
    <path
       style="color:#000000;display:inline;overflow:visible;visibility:visible;fill:#ffffff;fill-opacity:1;fill-rule:nonzero;stroke:none;stroke-width:1.00305235px;marker:none;enable-background:accumulate"
       d="m 1737.3387,2896.9818 c 48.4101,-45.608 497.4949,-64.4139 581.2444,17.4157 57.3941,56.0783 42.8441,209.584 -28.1248,241.3451 -68.3733,30.5996 -416.8041,27.2493 -505.7212,6.4141 -84.5957,-19.8228 -87.7207,-87.7192 -91.9871,-153.6772 -1.7413,-26.9199 -3.8214,-65.8897 44.5887,-111.4977 z"
       id="path4040-4-0-6-3"
       inkscape:connector-curvature="0"
       sodipodi:nodetypes="zssssz" />
    <path
       style="display:inline;fill:#ffffff;fill-rule:evenodd;stroke:none;stroke-width:1.24238884px;stroke-linecap:butt;stroke-linejoin:miter;stroke-opacity:1"
       d="m 1713.0996,3146.6884 c 64.7566,31.0625 81.0675,24.0525 79.956,-48.1516 30.8949,78.0253 76.5992,80.4845 89.3144,42.0409 40.9028,33.0438 66.45,23.7749 86.7329,0 7.5598,30.576 23.7725,18.2374 37.8032,16.7187 4.6212,6.9177 46.2729,22.2302 110.3958,-0.6682 4.1534,9.1562 9.7488,17.0412 47.3087,-3.2589 9.7307,37.1639 40.951,-2.0597 72.9347,-43.9964 -19.9268,51.5576 -11.6638,58.8398 13.7985,39.1079 -11.6412,21.2317 -18.6039,37.6676 25.6253,1.6295 -15.1416,39.1895 24.5831,12.29 88.7044,-43.9962 -32.0745,41.6064 -117.1287,111.7309 -61.1072,105.9169 -7.8126,12.2656 -35.6795,22.9525 47.3087,42.3669 -15.4928,8.3231 -62.7917,-3.8396 -23.3359,31.4012 5.2863,4.1194 -12.411,6.6351 21.3648,17.4834 -19.9382,-0.738 -32.1657,1.8985 -13.7985,17.9244 -36.3944,-0.8666 -22.777,15.9849 3.9424,37.4783 -52.7044,-27.5699 -55.6046,-17.5498 -57.1649,-6.5179 -66.0539,-37.5871 -88.0966,-23.8792 -74.3067,6.4364 -29.1687,-40.9327 -97.6958,-19.4314 -101.1305,13.1176 -10.1779,-31.4757 -123.5183,-37.9839 -149.5712,-3.3406 16.1475,-36.9161 -17.7633,-19.5322 -51.8501,-5.8662 18.6666,-41.4354 -28.7067,-29.2328 -88.7043,11.0806 33.5984,-45.7565 -4.5614,-29.228 -61.1073,3.259 21.3649,-44.951 -13.4297,-66.6898 -96.5889,-68.4387 39.8025,-16.2144 63.013,-36.6198 21.6835,-73.3271 46.5903,10.8086 34.7533,-19.8442 1.8624,-59.721 50.818,32.7305 49.7578,15.2393 29.9298,-28.6789 z"
       id="path4508"
       inkscape:connector-curvature="0"
       sodipodi:nodetypes="cccccccccccccccccccccccccccc" />
    <path
       style="color:#000000;display:inline;overflow:visible;visibility:visible;fill:#ffffff;fill-opacity:1;fill-rule:nonzero;stroke:none;stroke-width:1px;marker:none;enable-background:accumulate"
       d="m 731.14816,2946.5981 c 58.74459,-31.8831 133.6737,-22.4689 151.46532,-4.8409 -26.0629,-31.5484 -110.87474,-48.9787 -156.02352,-29.9411 -36.86673,19.522 4.5582,34.782 4.5582,34.782 z"
       id="path4480"
       inkscape:connector-curvature="0"
       sodipodi:nodetypes="cccc" />
    <path
       style="color:#000000;display:inline;overflow:visible;visibility:visible;fill:#ffffff;fill-opacity:1;fill-rule:nonzero;stroke:none;stroke-width:0.99999994px;marker:none;enable-background:accumulate"
       d="m 1721.525,3105.1967 c -45.0341,26.3761 -102.4755,18.588 -116.1149,4.0048 19.9802,26.0992 84.9979,40.5188 119.6093,24.7695 28.2623,-16.1501 -3.4944,-28.7743 -3.4944,-28.7743 z"
       id="path4480-2"
       inkscape:connector-curvature="0"
       sodipodi:nodetypes="cccc"
       inkscape:transform-center-x="-155.62645"
       inkscape:transform-center-y="34.210293" />
  </g>
  <g
     inkscape:groupmode="layer"
     id="layer1"
     inkscape:label="txt">
    <text
       xml:space="preserve"
       style="font-style:normal;font-variant:normal;font-weight:normal;font-stretch:normal;line-height:0%;font-family:Lavi;-inkscape-font-specification:Lavi;text-align:center;letter-spacing:0px;word-spacing:0px;text-anchor:middle;fill:#000000;fill-opacity:1;stroke:none"
       x="410.53223"
       y="185.28159"
       id="text4246"><tspan
         sodipodi:role="line"
         style="font-size:45px;line-height:1.20000005"
         x="418.44238"
         y="185.28159"
         id="tspan7234">Haha, agak sulit </tspan><tspan
         sodipodi:role="line"
         style="font-size:45px;line-height:1.20000005"
         x="410.53223"
         y="239.28159"
         id="tspan961">dijelaskan.</tspan></text>
    <text
       xml:space="preserve"
       style="font-style:normal;font-variant:normal;font-weight:normal;font-stretch:normal;line-height:0%;font-family:Lavi;-inkscape-font-specification:Lavi;text-align:center;letter-spacing:0px;word-spacing:0px;text-anchor:middle;fill:#000000;fill-opacity:1;stroke:none"
       x="2068.687"
       y="182.01216"
       id="text4246-3"><tspan
         sodipodi:role="line"
         style="font-size:45px;line-height:1.20000005"
         x="2076.5972"
         y="182.01216"
         id="tspan920">Nah, Anda bisa </tspan><tspan
         sodipodi:role="line"
         style="font-size:45px;line-height:1.20000005"
         x="2076.5972"
         y="236.01216"
         id="tspan979">mengatakan bahwa itu </tspan><tspan
         sodipodi:role="line"
         style="font-size:45px;line-height:1.20000005"
         x="2076.5972"
         y="290.01218"
         id="tspan981">didasarkan pada </tspan><tspan
         sodipodi:role="line"
         style="font-size:45px;line-height:1.20000005"
         x="2076.5972"
         y="344.01218"
         id="tspan987">pemahaman hukum </tspan><tspan
         sodipodi:role="line"
         style="font-size:45px;line-height:1.20000005"
         x="2076.5972"
         y="398.01218"
         id="tspan989">yang mendasari </tspan><tspan
         sodipodi:role="line"
         style="font-size:45px;line-height:1.20000005"
         x="2068.687"
         y="452.01218"
         id="tspan991">sistem khaotis ...</tspan></text>
    <text
       xml:space="preserve"
       style="font-style:normal;font-variant:normal;font-weight:normal;font-stretch:normal;line-height:0%;font-family:Lavi;-inkscape-font-specification:Lavi;text-align:center;letter-spacing:0px;word-spacing:0px;text-anchor:middle;fill:#000000;fill-opacity:1;stroke:none"
       x="2118.9529"
       y="533.94165"
       id="text4246-3-5"><tspan
         sodipodi:role="line"
         style="font-size:45px;line-height:1.20000005"
         x="2126.863"
         y="533.94165"
         id="tspan924">…dari yang terkecil </tspan><tspan
         sodipodi:role="line"
         style="font-size:45px;line-height:1.20000005"
         x="2118.9529"
         y="587.94165"
         id="tspan1003">hingga terbesar.</tspan></text>
    <text
       xml:space="preserve"
       style="font-style:normal;font-variant:normal;font-weight:normal;font-stretch:normal;line-height:0%;font-family:Lavi;-inkscape-font-specification:Lavi;text-align:center;letter-spacing:0px;word-spacing:0px;text-anchor:middle;fill:#000000;fill-opacity:1;stroke:none"
       x="381.26578"
       y="1680.55"
       id="text4246-3-5-1"><tspan
         sodipodi:role="line"
         style="font-size:45px;line-height:1.20000005"
         x="381.26578"
         y="1680.55"
         id="tspan931">Ya, itu sudah jelas.</tspan></text>
    <text
       xml:space="preserve"
       style="font-style:normal;font-variant:normal;font-weight:normal;font-stretch:normal;line-height:0%;font-family:Lavi;-inkscape-font-specification:Lavi;text-align:center;letter-spacing:0px;word-spacing:0px;text-anchor:middle;fill:#000000;fill-opacity:1;stroke:none"
       x="1979.5531"
       y="1105.5421"
       id="text4246-3-5-1-0"><tspan
         sodipodi:role="line"
         style="font-size:45px;line-height:1.20000005"
         x="1979.5531"
         y="1105.5421"
         id="tspan77">Tunggu dulu,</tspan><tspan
         sodipodi:role="line"
         style="font-size:45px;line-height:1.20000005"
         x="1979.5531"
         y="1159.5421"
         id="tspan80">aku perlihatkan kau</tspan><tspan
         sodipodi:role="line"
         style="font-size:45px;line-height:1.20000005"
         x="1979.5531"
         y="1213.5421"
         id="tspan7258">contoh sederhana.</tspan></text>
    <text
       xml:space="preserve"
       style="font-style:normal;font-variant:normal;font-weight:normal;font-stretch:normal;line-height:0%;font-family:Lavi;-inkscape-font-specification:Lavi;text-align:center;letter-spacing:0px;word-spacing:0px;text-anchor:middle;fill:#000000;fill-opacity:1;stroke:none"
       x="875.14471"
       y="2000.6261"
       id="text4246-3-5-1-0-0"><tspan
         sodipodi:role="line"
         style="font-size:45px;line-height:1.20000005"
         x="883.05487"
         y="2000.6261"
         id="tspan890">Berikan saya waktu </tspan><tspan
         sodipodi:role="line"
         style="font-size:45px;line-height:1.20000005"
         x="875.14471"
         y="2054.6262"
         id="tspan881">dulu dengan beberapa</tspan><tspan
         sodipodi:role="line"
         style="font-size:45px;line-height:1.20000005"
         x="875.14471"
         y="2108.6262"
         id="tspan87">Khaosah yang baik…</tspan></text>
    <text
       xml:space="preserve"
       style="font-style:normal;font-variant:normal;font-weight:normal;font-stretch:normal;line-height:0%;font-family:Lavi;-inkscape-font-specification:Lavi;text-align:center;letter-spacing:0px;word-spacing:0px;text-anchor:middle;fill:#000000;fill-opacity:1;stroke:none"
       x="1475.0964"
       y="2022.1494"
       id="text4246-3-5-1-0-0-8"><tspan
         sodipodi:role="line"
         style="font-size:45px;line-height:1.20000005"
         x="1475.0964"
         y="2022.1494"
         id="tspan1006-2">Dapat!</tspan></text>
    <text
       xml:space="preserve"
       style="font-style:normal;font-variant:normal;font-weight:normal;font-stretch:normal;font-size:10.15074348px;line-height:0%;font-family:Lavi;-inkscape-font-specification:Lavi;text-align:center;letter-spacing:0px;word-spacing:0px;text-anchor:middle;opacity:0.5;fill:#000000;fill-opacity:1;stroke:none;stroke-width:1"
       x="1577.2253"
       y="1765.9481"
       id="text4246-37"
       transform="matrix(0.95687977,-0.3398346,0.04566864,1.0288442,0,0)"><tspan
         sodipodi:role="line"
         style="font-style:normal;font-variant:normal;font-weight:bold;font-stretch:normal;font-size:38.06529236px;line-height:1.20000005;font-family:Lavi;-inkscape-font-specification:'Lavi Bold';stroke-width:1"
         x="1577.2253"
         y="1765.9481"
         id="tspan4252-5">GARUK</tspan></text>
    <text
       xml:space="preserve"
       style="font-style:normal;font-variant:normal;font-weight:normal;font-stretch:normal;font-size:8.87699509px;line-height:0%;font-family:Lavi;-inkscape-font-specification:Lavi;text-align:center;letter-spacing:0px;word-spacing:0px;text-anchor:middle;opacity:0.5;fill:#000000;fill-opacity:1;stroke:none;stroke-width:0.99999994"
       x="1903.3949"
       y="1544.0555"
       id="text4246-37-9"
       transform="matrix(0.93691978,-0.1877366,-0.11760016,1.0908915,0,0)"><tspan
         sodipodi:role="line"
         style="font-style:normal;font-variant:normal;font-weight:bold;font-stretch:normal;font-size:33.28873062px;line-height:1.20000005;font-family:Lavi;-inkscape-font-specification:'Lavi Bold';stroke-width:0.99999994"
         x="1903.3949"
         y="1544.0555"
         id="tspan4252-5-2">GARUK</tspan></text>
    <text
       xml:space="preserve"
       style="font-style:normal;font-variant:normal;font-weight:normal;font-stretch:normal;line-height:0%;font-family:Lavi;-inkscape-font-specification:Lavi;text-align:center;letter-spacing:0px;word-spacing:0px;text-anchor:middle;fill:#000000;fill-opacity:1;stroke:none"
       x="468.62018"
       y="2927.6206"
       id="text4246-3-5-1-0-0-8-9"><tspan
         sodipodi:role="line"
         style="font-size:45px;line-height:1.20000005"
         x="468.62018"
         y="2927.6206"
         id="tspan7284">Lihat tusuk sate ini</tspan><tspan
         sodipodi:role="line"
         style="font-size:45px;line-height:1.20000005"
         x="468.62018"
         y="2981.6206"
         id="tspan906"> yang tersangkut di</tspan><tspan
         sodipodi:role="line"
         style="font-size:45px;line-height:1.20000005"
         x="468.62018"
         y="3035.6206"
         id="tspan908"> antara batu-batu ini?</tspan></text>
    <text
       xml:space="preserve"
       style="font-style:normal;font-variant:normal;font-weight:normal;font-stretch:normal;line-height:0%;font-family:Lavi;-inkscape-font-specification:Lavi;text-align:center;letter-spacing:0px;word-spacing:0px;text-anchor:middle;fill:#000000;fill-opacity:1;stroke:none"
       x="463.67493"
       y="3126.5361"
       id="text4246-3-5-1-0-0-8-9-3"><tspan
         sodipodi:role="line"
         style="font-size:45px;line-height:1.20000005"
         x="471.58508"
         y="3126.5361"
         id="tspan923">Dengan mengambil </tspan><tspan
         sodipodi:role="line"
         style="font-size:45px;line-height:1.20000005"
         x="463.67493"
         y="3180.5361"
         id="tspan928">ini, saya pasti mencegah</tspan><tspan
         sodipodi:role="line"
         style="font-size:45px;line-height:1.20000005"
         x="463.67493"
         y="3234.5361"
         id="tspan918"> seseorang menginjaknya.</tspan></text>
    <text
       xml:space="preserve"
       style="font-style:normal;font-variant:normal;font-weight:normal;font-stretch:normal;line-height:0%;font-family:Lavi;-inkscape-font-specification:Lavi;text-align:center;letter-spacing:0px;word-spacing:0px;text-anchor:middle;fill:#000000;fill-opacity:1;stroke:none"
       x="2022.1924"
       y="2934.925"
       id="text4246-3-5-1-0-0-8-9-3-9"><tspan
         sodipodi:role="line"
         style="font-size:45px;line-height:1.20000005"
         x="2030.1025"
         y="2934.925"
         id="tspan1037">Sebuah perubahan kecil, </tspan><tspan
         sodipodi:role="line"
         style="font-size:45px;line-height:1.20000005"
         x="2030.1025"
         y="2988.925"
         id="tspan941">dan positif dalam sistem </tspan><tspan
         sodipodi:role="line"
         style="font-size:45px;line-height:1.20000005"
         x="2030.1025"
         y="3042.925"
         id="tspan945">kehidupan yang kacau </tspan><tspan
         sodipodi:role="line"
         style="font-size:45px;line-height:1.20000005"
         x="2030.1025"
         y="3096.925"
         id="tspan951">dapat memiliki akibat yang </tspan><tspan
         sodipodi:role="line"
         style="font-size:45px;line-height:1.20000005"
         x="2022.1924"
         y="3150.925"
         id="tspan947">luar biasa.</tspan></text>
    <text
       xml:space="preserve"
       style="font-style:normal;font-variant:normal;font-weight:normal;font-stretch:normal;font-size:53.33333206px;line-height:0%;font-family:Lavi;-inkscape-font-specification:Lavi;text-align:center;letter-spacing:0px;word-spacing:0px;text-anchor:middle;fill:#000000;fill-opacity:1;stroke:none"
       x="2000.7581"
       y="3233.9844"
       id="text4246-3-5-1-0-0-8-9-3-9-8"><tspan
         sodipodi:role="line"
         style="font-size:53.33333206px;line-height:1.20000005"
         x="2010.1331"
         y="3233.9844"
         id="tspan1041">Itulah semua </tspan><tspan
         sodipodi:role="line"
         style="font-size:53.33333206px;line-height:1.20000005"
         x="2000.7581"
         y="3297.9844"
         id="tspan955">tentang Khaosah!</tspan></text>
  </g>
</svg>
