<?xml version="1.0" encoding="UTF-8" standalone="no"?>
<!-- Created with Inkscape (http://www.inkscape.org/) -->

<svg
   id="svg2"
   version="1.1"
   inkscape:version="1.1.2 (0a00cf5339, 2022-02-04)"
   width="2481"
   height="3503"
   sodipodi:docname="E37P07.svg"
   xmlns:inkscape="http://www.inkscape.org/namespaces/inkscape"
   xmlns:sodipodi="http://sodipodi.sourceforge.net/DTD/sodipodi-0.dtd"
   xmlns:xlink="http://www.w3.org/1999/xlink"
   xmlns="http://www.w3.org/2000/svg"
   xmlns:svg="http://www.w3.org/2000/svg"
   xmlns:rdf="http://www.w3.org/1999/02/22-rdf-syntax-ns#"
   xmlns:cc="http://creativecommons.org/ns#"
   xmlns:dc="http://purl.org/dc/elements/1.1/">
  <metadata
     id="metadata8">
    <rdf:RDF>
      <cc:Work
         rdf:about="">
        <dc:format>image/svg+xml</dc:format>
        <dc:type
           rdf:resource="http://purl.org/dc/dcmitype/StillImage" />
      </cc:Work>
    </rdf:RDF>
  </metadata>
  <defs
     id="defs6">
    <filter
       style="color-interpolation-filters:sRGB"
       id="filter4375-4-1-1-1-9-6-9-2-1-5-4"
       inkscape:label="deevad outline effect"
       x="-0.007108724"
       y="-0.012620398"
       width="1.0142174"
       height="1.0252408">
      <feFlood
         id="feFlood4377-7-9-0-8-1-0-2-2-06-5-3"
         flood-opacity="1"
         flood-color="rgb(0,0,0)"
         result="flood" />
      <feComposite
         id="feComposite4379-3-8-8-2-77-6-0-8-3-8-64"
         in2="SourceGraphic"
         in="flood"
         operator="in"
         result="composite1" />
      <feMorphology
         id="feMorphology4393-1-0-49-8-9-2-2-9-2-7-3"
         operator="dilate"
         radius="4"
         result="result3" />
      <feComposite
         id="feComposite4385-9-5-7-0-8-6-3-7-0-1-1"
         in2="result3"
         in="SourceGraphic"
         operator="over"
         result="composite2" />
    </filter>
  </defs>
  <sodipodi:namedview
     pagecolor="#ffffff"
     bordercolor="#666666"
     borderopacity="1"
     objecttolerance="1"
     gridtolerance="10"
     guidetolerance="10"
     inkscape:pageopacity="0"
     inkscape:pageshadow="2"
     inkscape:window-width="1846"
     inkscape:window-height="1016"
     id="namedview4"
     showgrid="false"
     inkscape:zoom="0.6386771"
     inkscape:cx="1215.7943"
     inkscape:cy="788.34829"
     inkscape:window-x="0"
     inkscape:window-y="0"
     inkscape:window-maximized="1"
     inkscape:current-layer="layer1"
     inkscape:pagecheckerboard="0"
     inkscape:showpageshadow="0"
     inkscape:deskcolor="#d1d1d1"
     inkscape:snap-global="true" />
  <g
     inkscape:groupmode="layer"
     id="layer2"
     inkscape:label="artwork"
     sodipodi:insensitive="true">
    <image
       xlink:href="../gfx_Pepper-and-Carrot_by-David-Revoy_E37P07.png"
       y="0"
       x="0"
       id="image10"
       height="3503"
       width="2481" />
  </g>
  <g
     inkscape:groupmode="layer"
     id="layer3"
     inkscape:label="speechbubbles">
    <path
       style="display:inline;fill:#ffffff;fill-rule:evenodd;stroke:none;stroke-width:1.11956px;stroke-linecap:butt;stroke-linejoin:miter;stroke-opacity:1"
       d="m 1921.7927,1520.1844 c -35.9251,-2.1925 -88.0218,13.4421 -57.8055,58.5611 -65.9732,-29.567 -202.9817,-48.1547 -224.7658,1.0987 -3.6662,-60.2413 -39.3862,-51.5044 -75.8826,-36.998 34.734,-24.7327 6.7781,-21.3252 -27.4203,-21.8573 70.8688,-53.3939 32.4763,-68.9295 3.4743,-87.7194 71.4105,12.7179 53.4447,-16.055 61.4812,-32.7562 61.9363,35.9406 106.0033,26.017 140.0668,-9.5823 18.8186,18.4744 25.6222,57.4177 91.4864,-4.2556 -23.4149,52.4495 8.9678,46.2344 60.9433,19.421 -7.7763,17.8595 -56.1072,45.885 26.4484,41.1043 -51.1595,18.0168 -61.3678,41.0217 1.9738,72.9837 z"
       id="path4584-8"
       inkscape:connector-curvature="0"
       sodipodi:nodetypes="cccccccccccc" />
    <path
       style="fill:#ffffff;stroke:none;stroke-width:0.987614"
       d="m 1648.6881,1542.0644 c -47.1815,0.5463 -95.0669,9.0845 -136.6594,29.8371 -29.2374,14.5859 -47.8781,43.9008 -49.2113,73.8384 -3.1028,27.4193 4.5936,56.9139 25.7711,77.4271 20.4715,20.0065 49.0251,31.1059 77.4004,38.7966 55.1524,14.9949 113.3068,16.1774 170.4545,16.0282 61.1786,-0.7174 123.1174,-7.0081 180.7659,-26.4024 16.5209,-5.6003 32.9109,-13.3361 44.0296,-26.0938 11.7707,-12.513 18.6103,-28.2474 21.7245,-44.3028 7.3424,-32.1101 -1.705,-67.5264 -26.1096,-92.1362 -17.3002,-17.8904 -41.1672,-29.6267 -66.113,-36.4149 -34.0639,-9.7235 -70.2272,-10.4396 -105.6288,-9.2849 -38.4841,0.7289 -76.9892,0.3349 -115.4481,-1.0738 -6.9911,-0.1281 -13.9831,-0.2342 -20.9758,-0.2186 z"
       id="path3280-8-0-3"
       inkscape:connector-curvature="0"
       sodipodi:nodetypes="csssc" />
    <path
       style="fill:#ffffff;fill-rule:evenodd;stroke:none;stroke-width:1px;stroke-linecap:butt;stroke-linejoin:miter;stroke-opacity:1"
       d="m 1936.1061,1731.1574 c 19.1204,15.4627 39.0722,32.1803 63.6123,29.0086 -15.036,6.0295 -43.8148,9.8246 -66.282,-5.5838 -35.0644,-24.0476 0.2146,-23.9396 0.2146,-23.9396 z"
       id="path4248"
       inkscape:connector-curvature="0"
       sodipodi:nodetypes="ccscc" />
    <path
       style="fill:#ffffff;fill-rule:evenodd;stroke:none;stroke-width:0.84259px;stroke-linecap:butt;stroke-linejoin:miter;stroke-opacity:1"
       d="m 209.18843,2520.692 c 13.91687,18.6091 30.69058,26.056 55.768,1.0613 20.456,6.0403 20.31799,24.7701 87.33472,2.1218 -38.46395,28.588 -22.32998,30.9026 0,30.236 -32.44044,37.0364 -4.7759,31.2953 7.36561,36.6022 -39.75751,22.3704 -34.5481,32.8673 -15.78336,39.7846 -13.40496,13.5521 -22.77006,26.6965 5.26103,36.0712 -21.92211,3.6978 -52.96264,2.0329 -43.14122,24.4014 -34.8096,-14.1518 -59.10343,-10.2794 -79.96913,-0.5309 -18.00279,-12.9686 -32.62185,-29.3494 -83.12584,-9.548 27.96981,-21.9401 16.90362,-32.9472 -5.26117,-40.8458 41.64075,-21.2391 9.13426,-28.6347 -23.14898,-36.0712 58.36414,-2.5541 41.77684,-26.0994 26.30571,-49.3332 27.32733,4.6669 54.75149,9.6745 68.39463,-33.9494 z"
       id="path4489"
       inkscape:connector-curvature="0"
       sodipodi:nodetypes="cccccccccccccc" />
    <path
       style="color:#000000;display:inline;overflow:visible;visibility:visible;fill:#ffffff;fill-opacity:1;fill-rule:nonzero;stroke:none;stroke-width:1px;marker:none;enable-background:accumulate"
       d="m 194.15137,2627.0953 c 14.3116,13.119 20.5898,27.322 21.7824,31.497 1.1926,4.174 -2.1039,30.52 2.0703,35.291 4.1742,4.77 19.6785,5.366 21.4675,8.944 1.7889,3.578 -3.5779,22.064 0,25.642 3.5779,3.578 28.6232,13.119 29.8159,16.101 1.1926,2.981 7.7521,19.082 19.6784,31.604 -11.33,-31.604 -7.7521,-38.164 -11.9263,-42.934 -4.1742,-4.771 -15.9274,-10.181 -18.3127,-15.548 -2.3853,-5.367 6.711,-25.728 0.086,-28.027 -4.7705,-4.77 -19.8083,-10.267 -19.8083,-10.267 4.1743,-4.771 18.356,-27.854 -1.3225,-55.881 -19.6785,-28.027 -43.5312,3.578 -43.5312,3.578 z"
       id="path5050-8"
       inkscape:connector-curvature="0"
       sodipodi:nodetypes="csccscccccccc" />
    <path
       style="color:#000000;display:inline;overflow:visible;visibility:visible;fill:#ffffff;fill-opacity:1;fill-rule:nonzero;stroke:none;stroke-width:1.20338px;marker:none;enable-background:accumulate"
       d="m 1038.9445,2695.9528 c 2.4629,-48.9237 47.8779,-81.6973 159.6361,-73.1111 59.8638,4.6 127.7894,7.4584 124.8747,79.1246 -2.9145,71.6663 -100.4867,70.361 -120.5865,72.1474 -20.0997,1.7863 -125.6736,-0.4758 -144.5272,-24.7448 -11.802,-15.1922 -19.4063,-38.2676 -19.3971,-53.4161 z"
       id="path4546-6-89"
       inkscape:connector-curvature="0"
       sodipodi:nodetypes="cssssc" />
    <path
       style="color:#000000;display:inline;overflow:visible;visibility:visible;fill:#ffffff;fill-opacity:1;fill-rule:nonzero;stroke:none;stroke-width:1px;marker:none;enable-background:accumulate"
       d="m 1112.3939,2718.8111 c -36.5658,59.4022 -50.7173,145.4159 26.0841,179.4136 -60.0157,-38.5902 -23.0543,-135.4959 8.3656,-161.6817 21.2953,-14.4935 -34.4497,-17.7319 -34.4497,-17.7319 z"
       id="path3978-4"
       inkscape:connector-curvature="0"
       sodipodi:nodetypes="cccc" />
    <path
       style="color:#000000;display:inline;overflow:visible;visibility:visible;fill:#ffffff;fill-opacity:1;fill-rule:nonzero;stroke:none;stroke-width:1.69256px;marker:none;enable-background:accumulate"
       d="m 258.7423,829.53573 c -53.95607,0.9676 -108.58862,5.66989 -159.967349,22.34446 -31.295576,9.98566 -58.553341,31.29889 -74.799543,58.73876 -6.53618,14.04367 -6.182598,29.72182 -8.561934,44.65281 -1.667399,17.40577 1.717027,36.09258 13.572039,49.91654 14.790883,18.5713 35.844301,31.3016 56.880601,42.539 28.014906,13.9914 59.458516,20.555 90.817516,22.6975 47.97432,5.3696 96.48045,7.4139 144.68328,3.7431 28.79853,-2.0126 57.76147,-4.6083 85.76123,-11.6491 16.25365,-4.1219 31.61438,-10.8525 46.23944,-18.6996 14.7097,-7.8413 29.17619,-16.2556 42.45296,-26.1843 17.38759,-13.7981 30.73621,-33.17765 33.63652,-54.88729 4.9596,-30.69331 -7.81568,-63.87725 -33.82196,-82.89948 -26.75528,-21.59998 -60.8474,-32.4926 -94.6121,-39.42043 -46.66835,-9.70007 -94.68645,-11.23153 -142.2807,-10.89197 z"
       id="path3365-9"
       inkscape:connector-curvature="0"
       sodipodi:nodetypes="csszcsc"
       inkscape:transform-center-x="-466.21806"
       inkscape:transform-center-y="147.54627" />
    <path
       style="fill:#ffffff;fill-rule:evenodd;stroke:none;stroke-width:0.977216px;stroke-linecap:butt;stroke-linejoin:miter;stroke-opacity:1"
       d="m 1056.4285,920.64705 c 8.7418,-65.50225 80.8116,-92.81872 157.5038,-86.01322 35.9484,3.18999 96.0082,-3.04759 115.5264,11.64251 22.1219,16.64965 4.1807,62.88484 4.9134,82.82731 0.2982,31.1419 -9.6635,78.95915 -88.5498,88.82865 -78.8865,9.8696 -196.4138,-2.882 -189.3938,-97.28525 z"
       id="path912"
       inkscape:connector-curvature="0"
       sodipodi:nodetypes="csscsc" />
    <path
       style="color:#000000;display:inline;overflow:visible;visibility:visible;fill:#ffffff;fill-opacity:1;fill-rule:nonzero;stroke:none;stroke-width:0.989872px;marker:none;enable-background:accumulate"
       d="m 473.4959,1110.2215 c -40.3937,1.8691 -54.77121,0.1547 -74.36032,-43.9141 -19.5892,-44.0678 -35.24613,-35.3212 -35.24613,-35.3212 l -26.14855,14.5263 c 0,0 69.82372,109.5525 135.755,64.709 z"
       id="path3072-5-5"
       inkscape:connector-curvature="0"
       sodipodi:nodetypes="ccccc" />
    <path
       style="color:#000000;display:inline;overflow:visible;visibility:visible;fill:#ffffff;fill-opacity:1;fill-rule:nonzero;stroke:none;stroke-width:1.18666px;marker:none;enable-background:accumulate"
       d="m 1185.2636,970.87365 c 9.0206,24.3101 13.1324,82.50155 -80.7067,96.26575 51.5508,-19.8949 62.0936,-41.7392 52.6757,-73.22242 -6.0659,-20.27796 4.2366,-21.91106 4.2366,-21.91106 z"
       id="path4440-1"
       inkscape:connector-curvature="0"
       sodipodi:nodetypes="ccscc" />
    <path
       style="display:inline;fill:#ffffff;fill-rule:evenodd;stroke:none;stroke-width:1.01877px;stroke-linecap:butt;stroke-linejoin:miter;stroke-opacity:1"
       d="m 1563.2191,834.10016 c 28.2256,1.43741 24.1693,30.2986 -8.3389,32.52833 30.0736,11.07394 22.1849,16.55772 5.4421,20.73654 32.2379,49.96334 15.449,78.92487 -2.4932,107.39244 46.0553,-10.29071 43.0923,15.90833 50.8641,34.11683 16.0765,-33.93418 16.7527,-11.3404 13.132,27.0265 18.1848,-44.0327 25.696,-47.0666 23.4768,-12.7143 14.6358,-27.6181 28.7855,-37.5698 42.3763,-27.2159 33.8288,-24.19393 54.2771,-7.4248 38.7593,25.824 38.2648,-36.4952 47.275,-36.5499 52.5322,-15.3076 6.3251,-15.7172 10.9459,-38.49762 32.6487,-1.4653 5.8329,-43.91327 15.4551,-6.6044 22.6908,-0.9801 3.548,-42.1807 51.2989,-24.67207 54.9369,-5.0224 -2.5276,-8.6471 -2.0199,-18.0901 2.07,-28.47237 -3.7417,-14.95333 -3.2371,-30.00482 -0.5017,-45.10804 -3.9782,-26.67646 1.4726,-47.64662 4.5706,-70.04025 -5.1411,8.79645 -8.5841,-36.83532 -8.3451,-39.40497 -8.1433,1.71777 -54.7562,-0.36731 -47.2319,-1.28703 -37.4885,2.22104 -29.5424,0.137 -35.126,-0.66509 -81.4284,-8.26292 -80.3511,-0.48864 -92.8138,-2.19083 -17.0946,3.40129 -30.7477,1.98864 -44.3869,0.55613 -8.0015,2.90754 -16.1433,2.0104 -24.2824,1.19283 -5.0728,1.24643 -16.5159,1.56075 -36.5478,0.61834 13.0142,1.10599 2.5574,1.23425 -43.4321,-0.11776 z"
       id="path4289-9"
       inkscape:connector-curvature="0"
       sodipodi:nodetypes="cccccccccccccccccccccccc" />
    <path
       style="color:#000000;display:inline;overflow:visible;visibility:visible;fill:#ffffff;fill-opacity:1;fill-rule:nonzero;stroke:none;stroke-width:1px;marker:none;enable-background:accumulate"
       d="m 1669.8183,1095.0591 c 52.9673,-34.0351 71.8625,-58.8898 88.416,-83.1049 7.7887,-11.3942 -22.5092,-17.40291 -22.5092,-17.40291 l -11.5344,24.88391 c 0,0 -12.622,41.2034 -54.3724,75.6239 z"
       id="path4000-2"
       inkscape:connector-curvature="0"
       sodipodi:nodetypes="csccc"
       inkscape:transform-center-x="-308.61774"
       inkscape:transform-center-y="-55.962808" />
    <path
       style="color:#000000;display:inline;overflow:visible;visibility:visible;fill:#ffffff;fill-opacity:1;fill-rule:nonzero;stroke:none;stroke-width:1px;marker:none;enable-background:accumulate"
       d="m 2170.4717,893.06789 c -21.7199,4.3 -44.3146,2.474 -65.7458,8.48024 -15.2905,3.68185 -31.0907,6.81325 -46.8816,5.0084 -11.1328,-0.76246 -22.8996,0.98586 -32.2442,7.41742 -13.1892,8.16372 -24.6892,18.84257 -34.6093,30.68497 -4.7517,6.13911 -8.9099,13.47915 -8.6271,21.4617 0.6589,8.15921 5.8847,15.15373 11.9704,20.30721 12.2206,11.28947 28.7927,17.18997 45.3102,17.97797 18.8757,2.0412 37.1882,8.4338 56.3052,8.3195 10.4712,-0.2781 20.7221,-3.8652 31.2443,-2.7997 8.0433,0.8683 15.4662,4.3097 23.2566,6.2176 6.9522,1.537 14.3981,1.1896 20.9879,-1.6153 8.4368,-2.9368 17.0934,-6.5934 26.2321,-5.7289 15.0365,0.5627 30.0412,-1.2812 44.8092,-3.949 10.4909,-1.5891 21.4113,-2.4686 31.0242,-7.31471 11.6148,-7.59444 20.6002,-18.30337 30.2865,-28.05488 4.2808,-4.8901 7.402,-11.66219 5.6127,-18.21358 -1.7726,-7.65644 -7.8969,-13.53177 -14.6951,-17.07615 -12.7115,-8.41435 -25.4001,-17.0486 -36.4076,-27.63675 -8.1606,-5.57908 -18.5847,-6.33441 -28.1499,-5.14311 -13.7915,1.01127 -27.6677,-1.24936 -40.7533,-5.54882 -6.1866,-1.56346 -12.5096,-2.88962 -18.9254,-2.79411 z"
       id="path3365-8"
       inkscape:connector-curvature="0"
       sodipodi:nodetypes="cssccsc" />
    <path
       style="display:inline;fill:#ffffff;fill-opacity:1;fill-rule:evenodd;stroke:none;stroke-width:1px;stroke-linecap:butt;stroke-linejoin:miter;stroke-opacity:1"
       d="m 2231.8795,955.14643 c -1.4297,8.459 7.6905,12.502 13.3057,16.588 7.0937,5.072 5.0374,15.927 -2.8535,18.922 -6.6614,2.438 -9.0687,9.339 -9.5278,15.82497 0.6979,7.757 3.662,13.46 2.8543,19.998 0.7758,9.959 11.0423,12.466 10.1091,22.941 -0.9566,6.951 -5.9088,9.739 -12.2778,13.752 2.1992,4.9978 -11.1367,21.6776 -16.8896,25.4794 7.8261,-4.4494 22.2841,-11.4819 25.4378,-21.2415 12.9454,-6.0505 22.9576,-18.2077 12.7096,-32.1719 -7.4268,-8.207 -10.2366,-22.295 -1.8919,-30.861 6.0058,-4.62697 13.7043,-10.08597 12.902,-18.73797 -2.3975,-11.731 -3.0261,-25.609 -12.9899,-33.83 -5.6468,-3.884 -8.5965,-13.223 -16.3596,-12.996 -6.7189,2.442 -5.6829,10.787 -4.5284,16.333 z"
       id="path4396-1"
       inkscape:connector-curvature="0"
       sodipodi:nodetypes="ccccccccccccccc" />
    <path
       style="color:#000000;display:inline;overflow:visible;visibility:visible;fill:#ffffff;fill-opacity:1;fill-rule:nonzero;stroke:none;stroke-width:0.58297px;marker:none;enable-background:accumulate"
       d="m 1925.1424,869.40511 c 9.7784,-12.51422 117.4695,-21.42748 145.3353,6.87679 19.4198,19.72576 18.3957,55.40763 1.7504,65.25521 -16.6451,9.84672 -97.0072,12.61998 -119.8474,7.60573 -20.5392,-4.50995 -42.0981,-14.21594 -43.2348,-40.05023 -0.4639,-10.54418 6.218,-27.17241 15.9965,-39.6875 z"
       id="path4040-3"
       inkscape:connector-curvature="0"
       sodipodi:nodetypes="zssssz" />
    <path
       style="color:#000000;display:inline;overflow:visible;visibility:visible;fill:#ffffff;fill-opacity:1;fill-rule:nonzero;stroke:none;stroke-width:0.999998px;marker:none;enable-background:accumulate"
       d="m 186.94844,1373.387 c -7.48941,22.4544 -49.73138,24.3373 -65.28182,19.7738 31.34597,25.12 30.25323,40.7276 -12.30598,43.1504 71.37244,45.2735 13.04786,38.4229 1.5438,49.9027 56.04061,15.6027 30.9674,35.0193 20.99019,54.349 64.41317,0.6645 43.3337,31.6495 46.0486,56.3264 5.46068,-11.5794 31.40268,-46.8339 32.96356,-7.5811 42.60556,-37.4485 93.92279,-61.6387 97.99761,3.8976 17.16647,-32.9698 46.78934,-46.4397 45.47166,-7.1173 42.53306,-51.1446 68.24695,-33.1983 106.69546,-18.7431 -10.32209,-18.5449 -32.06323,-45.7479 43.94523,-33.5945 -42.28321,-21.8491 -9.39374,-28.5508 12.86512,-33.2828 -17.99771,-9.2423 -21.31461,-18.776 12.10308,-29.0349 -25.42894,-0.9931 -49.14159,-3.0264 -19.3079,-38.0134 -9.35968,-0.8475 -45.61081,29.567 -26.56736,-55.8725 -29.60251,27.3524 -61.18579,42.4484 -100.79408,-14.8475 -18.74456,28.6244 -51.25663,42.7884 -65.40111,7.0348 -5.08373,15.2418 -26.16378,20.9748 -44.05924,21.6692 -6.92021,-6.0542 -14.05762,-14.2773 -21.50568,-25.0516 -12.17348,22.6225 -30.38359,37.9015 -65.40114,7.0348 z"
       id="path3549-3-7-3"
       inkscape:connector-curvature="0"
       sodipodi:nodetypes="cccccccccccccccccccc" />
    <path
       style="color:#000000;display:inline;overflow:visible;visibility:visible;fill:#ffffff;fill-opacity:1;fill-rule:nonzero;stroke:none;stroke-width:1px;marker:none;enable-background:accumulate"
       d="m 264.8927,1553.8317 c -6.75576,12.853 -43.26253,45.4194 -53.2553,55.6175 4.16934,1.1193 18.49163,-0.6612 23.70885,-0.424 -28.18696,30.3633 -75.14135,49.9921 -114.1922,49.1115 24.25327,-6.1985 48.19266,-15.9707 67.33595,-32.4693 1.27157,-1.27 2.94318,-2.2742 3.93941,-3.7153 0.44585,-1.5091 -1.22772,-1.1492 -2.12241,-1.2189 -6.48954,-0.5288 -13.00655,-0.3703 -19.51056,-0.3998 15.86642,-14.3214 47.17809,-46.8583 52.52599,-64.6698 4.97614,-0.092 37.13148,-4.0317 41.79442,-2.4536 3.48254,-1.6486 2.08311,1.2448 2.00837,1.4519 z"
       id="path5066-7"
       inkscape:connector-curvature="0"
       sodipodi:nodetypes="cccccccccccc" />
    <path
       style="fill:#ffffff;fill-rule:evenodd;stroke:none;stroke-width:1px;stroke-linecap:butt;stroke-linejoin:miter;stroke-opacity:1"
       d="m 157.8069,2096.6973 c 7.4959,18.2948 15.02654,35.498 39.34133,-13.5676 -2.74445,14.6793 0.45019,39.1305 36.25433,16.6856 -20.31902,28.0034 -11.79607,30.2706 0,29.6177 -17.13704,36.279 -2.52293,30.6553 3.89097,35.8536 -21.00237,21.913 -18.25044,32.1952 -8.33775,38.971 -7.08132,13.275 -12.02854,26.1506 2.7792,35.3336 -11.5806,3.6221 -27.97812,1.9913 -22.78984,23.9024 -18.38857,-13.8625 -31.22207,-10.0693 -42.24461,-0.5201 -9.51018,-12.7034 -17.23287,-28.7492 -43.91219,-9.3527 14.77538,-21.4914 8.92954,-32.2734 -2.77927,-40.0105 21.99721,-20.8048 4.82528,-28.0492 -12.22871,-35.3336 30.83153,-2.5019 22.0691,-25.5657 13.89629,-48.3243 14.43598,4.5714 28.92311,9.4767 36.13025,-33.2551 z"
       id="path4489-0"
       inkscape:connector-curvature="0"
       sodipodi:nodetypes="cccccccccccccc" />
    <path
       style="fill:#ffffff;stroke:none;stroke-width:0.999997"
       d="M 1429.0918 1395.6445 C 1416.0181 1399.1158 1402.5029 1401.5231 1388.9286 1400.8571 C 1385.5677 1400.9092 1382.1977 1401.0254 1378.8691 1401.5254 C 1371.986 1405.8151 1367.3168 1412.8612 1364.3125 1420.2578 C 1359.9382 1428.832 1355.3909 1437.3267 1351.4746 1446.125 C 1350.0065 1458.9518 1358.9258 1472.0853 1371.3906 1475.4492 C 1382.7905 1477.3273 1394.4504 1478.8701 1405.0772 1483.6682 C 1412.7393 1486.6682 1421.2338 1488.2537 1429.3842 1486.48 C 1441.6671 1484.524 1453.9157 1481.1834 1466.4574 1481.9368 C 1481.782 1483.2667 1496.2588 1489.804 1511.7367 1489.9531 C 1522.3708 1490.0795 1532.7297 1487.1848 1542.7703 1483.9705 C 1550.6248 1482.1032 1558.7642 1483.105 1566.6476 1484.215 C 1574.2437 1484.5315 1581.5834 1480.7946 1586.6167 1475.2441 C 1594.4707 1467.6105 1600.3679 1457.6285 1601.968 1446.6974 C 1603.2907 1436.1095 1600.7916 1424.7368 1593.7773 1416.5 C 1588.831 1410.5144 1581.1254 1407.1536 1573.4214 1406.9902 C 1562.9819 1406.0333 1552.2472 1405.7603 1542.3532 1401.9172 C 1529.9273 1397.3424 1516.4549 1394.9647 1503.2415 1396.7589 C 1489.5745 1398.1525 1475.71 1399.7558 1462.0285 1397.6275 C 1452.6106 1396.3613 1443.2018 1394.7952 1433.6855 1394.5195 C 1432.1543 1394.8945 1430.623 1395.2695 1429.0918 1395.6445 z "
       id="path3280-1"
       inkscape:connector-curvature="0"
       sodipodi:nodetypes="csssc" />
    <path
       style="fill:#ffffff;fill-opacity:1;stroke:none;stroke-width:0.999997"
       d="m 650.59935,1488.0259 c 22.00032,3.6326 27.87934,14.8095 4.92887,23.6108 28.81865,5.8333 8.24794,39.6407 -0.59745,43.1247 13.20282,-4.0904 25.09338,4.1568 25.09338,4.1568 3.53944,5.5367 -14.96235,34.2518 -13.96479,34.8256 2.03208,0.5361 14.09008,-1.9372 16.16706,0.4954 2.077,2.4339 -17.24127,39.4339 -14.52188,40.5702 2.71951,1.1373 64.00968,-25.8381 72.88521,-20.5639 8.87561,5.2742 -1.65252,28.0714 1.05201,28.5754 2.70433,0.504 33.65845,-12.505 37.03539,-12.033 3.37669,0.472 1.21774,25.3019 4.5946,25.7738 3.37694,0.472 27.29148,-15.2673 29.99591,-14.7633 2.70451,0.504 1.73381,16.375 5.11068,16.847 3.37694,0.4719 17.83995,-14.142 19.87213,-13.6061 2.03199,0.536 10.17663,31.7973 13.58333,33.5334 3.40688,1.7365 24.05487,-35.9599 26.05711,-36.6883 2.00204,-0.7295 15.80998,42.2893 18.51451,42.7932 2.70451,0.5039 15.43358,-30.4862 17.46575,-29.9502 2.03208,0.5361 15.22631,17.632 17.94571,18.7679 2.71948,1.1363 19.24349,-40.1622 21.93298,-40.2902 2.68965,-0.1283 25.95453,15.8536 28.04655,18.9182 2.09201,3.066 3.64513,-16.6312 6.33461,-16.7595 2.68949,-0.128 33.88838,9.7797 34.54588,9.1153 0.6574,-0.6641 -5.0061,-12.4215 -2.989,-12.5176 2.0172,-0.097 33.9931,14.2045 35.2633,10.9796 -3.7394,-24.0558 71.8367,2.4388 73.6034,9.7855 0,0 -31.4844,-50.405 -28.2123,-54.3595 3.272,-3.9533 15.4799,-0.1047 16.1073,-2.0334 0.6274,-1.9285 -7.6357,-9.7635 -5.6785,-12.3883 1.9574,-2.6262 24.5787,-13.8316 26.521,-17.0886 1.9423,-3.2581 -10.3551,-10.901 -7.7105,-12.9256 -4.3008,-6.1086 38.2222,-21.7131 42.6282,-19.1232 -2.0923,0.7116 -24.7017,-15.9812 -18.0207,-21.9275 2.5848,-4.5548 5.5762,-6.3975 9.1888,-9.9338 -3.8411,-1.4068 -13.6122,-6.3144 -13.0146,-9.5072 0.5976,-3.1929 6.9471,-19.3214 8.9043,-21.9462 1.9574,-2.6249 -14.1498,-0.5915 -14.2096,-3.1202 -0.06,-2.53 0.2286,-40.5636 23.5726,-64.6809 -13.068,5.4304 -48.4622,10.0569 -48.4622,10.0569 l 7.9376,-21.8857 c 0,0 -29.6206,20.5368 -40.9646,18.5027 -22.3085,-4 -17.7225,-37.7678 -17.7225,-37.7678 0,0 -26.413,16.677 -29.8796,12.4121 -3.4667,-4.2664 -8.2746,-12.4747 -9.2682,-16.8766 -1.7775,2.7916 -17.7352,18.5685 -21.1119,18.0966 -10.18101,2.2801 -38.59969,-25.5885 -40.35898,-27.1946 -8.86864,10.2061 -18.68591,18.562 -24.62916,19.2168 -3.0873,1.328 -13.32886,-14.3911 -13.08386,-19.9511 -1.4742,4.631 -19.25692,21.9439 -23.3509,19.6277 -3.39194,-1.1055 -11.4689,-12.178 -14.31555,-16.2761 -3.38605,8.233 -12.35551,19.5854 -12.35551,19.5854 0,0 -23.75934,-7.7339 -29.4462,-24.5154 -2.7681,18.395 -15.97837,35.8777 -19.31041,37.3022 -3.33197,1.4246 -53.14227,-34.4243 -51.21493,-38.3134 -0.31971,20.2003 -3.11681,36.9011 -7.56932,37.8514 -4.66164,2.1221 -41.50437,-37.5877 -42.80408,-35.627 -1.29997,1.9605 4.12595,38.1358 0.10661,38.9603 -4.01927,0.8244 -11.54436,-2.8873 -11.54436,-2.8873 l -0.39389,10.4192 c 0,0 -33.4503,-37.9796 -36.90208,-41.6123 -3.45161,-3.6342 10.67514,38.7896 12.81201,43.7522 -12.22255,-4.482 -32.02447,-18.301 -34.7887,-21.335 -2.36953,-3.1105 12.1772,33.5275 10.50067,38.9074 -4.95368,8.0113 -23.90284,1.3877 -23.92708,0.8901 l 15.82398,14.4377 c 4.59982,5.0947 4.73574,4.2879 5.64841,11.1241 3.76608,14.6885 -19.11617,27.5727 -15.82939,23.4599 26.23458,8.2851 22.64644,7.694 -1.62713,13.9733 z"
       id="path5888-3"
       inkscape:connector-curvature="0"
       sodipodi:nodetypes="cccccccsscccccccsccscscsccscccccccccscccscsccccccccccccccccscccccccc" />
    <path
       style="color:#000000;display:inline;overflow:visible;visibility:visible;fill:#ffffff;fill-opacity:1;fill-rule:nonzero;stroke:none;stroke-width:1px;marker:none;enable-background:accumulate"
       d="m 1029.1942,2506.0538 c -6.4333,15.6506 -42.7179,16.9629 -56.07528,13.7817 26.92538,17.508 25.98669,28.3861 -10.57036,30.075 61.30694,31.5541 11.2077,26.7792 1.32597,34.7804 48.13737,10.8742 26.6002,24.4075 18.03007,37.8796 55.329,0.4628 37.2223,22.0581 39.5543,39.2574 4.6906,-8.0707 26.9742,-32.6414 28.315,-5.2836 36.597,-26.1008 80.677,-42.9607 84.1771,2.7159 14.7456,-22.9786 29.4467,-32.6903 28.315,-5.2835 36.5348,-35.6461 69.3662,-22.8152 102.3924,-12.7403 8.6741,-10.7588 9.6849,-27.2874 37.7477,-23.414 -3.9347,-10.6639 5.5405,-17.9942 26.9387,-22.3473 -28.4347,-6.4418 -33.6752,-13.0863 19.1217,-20.2368 -40.1754,-0.6917 -77.6392,-2.1087 -30.5047,-26.4941 -14.7874,-0.5901 -49.872,19.7578 -33.5143,-39.7907 -25.4277,19.0635 -52.5568,29.5852 -86.5791,-10.348 -16.1012,19.9499 -44.0282,29.8219 -56.1779,4.9029 -4.3668,10.6234 -22.474,14.6187 -37.8457,15.1032 -5.9442,-4.2198 -12.075,-9.9514 -18.4727,-17.4607 -10.4566,15.7675 -26.0986,26.4162 -56.1779,4.9029 z"
       id="path3549-3-7"
       inkscape:connector-curvature="0"
       sodipodi:nodetypes="cccccccccccccccccccc" />
    <path
       style="color:#000000;display:inline;overflow:visible;visibility:visible;fill:#ffffff;fill-opacity:1;fill-rule:nonzero;stroke:none;stroke-width:0.999999px;marker:none;enable-background:accumulate"
       d="m 816.63784,1756.6297 c -53.77145,-23.5695 -66.64315,-43.3978 -72.53669,-59.3997 4.92832,-2.8264 19.90718,-12.2286 19.90718,-12.2286 -16.13101,-13.5035 -22.74289,-67.3125 -10.60035,-69.1694 13.12461,-2.0071 37.10425,-0.6792 37.10425,-0.6792 -15.10667,5.504 -31.61267,72.6481 3.53791,74.6731 -13.86907,7.2537 -15.94917,12.9369 -22.14538,13.688 0.0252,10.0268 26.00335,44.2425 44.73308,53.1158 z"
       id="path4456-3"
       inkscape:connector-curvature="0"
       sodipodi:nodetypes="cccscccc" />
    <path
       style="fill:#ffffff;fill-rule:evenodd;stroke:none;stroke-width:1px;stroke-linecap:butt;stroke-linejoin:miter;stroke-opacity:1"
       d="m 167.70136,2121.0977 c -3.69503,-24.293 -4.22495,-65.7807 10.34503,-85.4357 -12.3556,9.997 -31.21448,52.6878 -29.1892,79.8508 3.16086,42.393 20.17148,17.9256 20.17148,17.9256 z"
       id="path4248-7"
       inkscape:connector-curvature="0"
       sodipodi:nodetypes="ccscc" />
  </g>
  <g
     inkscape:groupmode="layer"
     id="layer1"
     inkscape:label="txt">
    <text
       xml:space="preserve"
       style="font-style:normal;font-variant:normal;font-weight:normal;font-stretch:normal;font-size:45.3333px;line-height:125%;font-family:Lavi;-inkscape-font-specification:Lavi;text-align:center;letter-spacing:0px;word-spacing:0px;text-anchor:middle;fill:#000000;fill-opacity:1;stroke:none"
       x="298.96304"
       y="907.41913"
       id="text4246-70-2-2-2-7-4-9-9-6-1-2-3-9-2-7-9-3"><tspan
         sodipodi:role="line"
         style="font-size:45.3333px"
         x="298.96304"
         y="907.41913"
         id="tspan2833">Grrr! Kom nu</tspan><tspan
         sodipodi:role="line"
         style="font-size:45.3333px"
         x="298.96304"
         y="964.08575"
         id="tspan24916">Pepper! Find en</tspan><tspan
         sodipodi:role="line"
         style="font-size:45.3333px"
         x="298.96304"
         y="1020.7524"
         id="tspan3638">sørgelig historie.</tspan><tspan
         sodipodi:role="line"
         style="font-size:45.3333px"
         x="298.96304"
         y="1077.4191"
         id="tspan2829" /></text>
    <text
       xml:space="preserve"
       style="font-style:normal;font-variant:normal;font-weight:normal;font-stretch:normal;font-size:45.3333px;line-height:125%;font-family:Lavi;-inkscape-font-specification:Lavi;text-align:center;letter-spacing:0px;word-spacing:0px;text-anchor:middle;fill:#000000;fill-opacity:1;stroke:none"
       x="1206.7052"
       y="917.41296"
       id="text4246-70-2-2-2-7-4-9-9-6-1-2-3-9-2-7-9-3-3"><tspan
         sodipodi:role="line"
         style="font-size:45.3333px"
         x="1206.7052"
         y="917.41296"
         id="tspan5270">Du kan</tspan><tspan
         sodipodi:role="line"
         style="font-size:45.3333px"
         x="1206.7052"
         y="974.07959"
         id="tspan8704">klare det.</tspan></text>
    <text
       xml:space="preserve"
       style="font-style:normal;font-variant:normal;font-weight:normal;font-stretch:normal;font-size:52.6959px;line-height:125%;font-family:Lavi;-inkscape-font-specification:Lavi;text-align:center;letter-spacing:0px;word-spacing:0px;text-anchor:middle;fill:#000000;fill-opacity:1;stroke:none;stroke-width:1"
       x="1735.2688"
       y="908.93842"
       id="text4246-70-2-2-2-7-4-9-9-6-1-2-3-9-2-7-9-3-3-7"><tspan
         sodipodi:role="line"
         style="font-style:normal;font-variant:normal;font-weight:bold;font-stretch:normal;font-size:52.6959px;font-family:Lavi;-inkscape-font-specification:'Lavi Bold';stroke-width:1"
         x="1735.2688"
         y="908.93842"
         id="tspan5270-3">Du kan</tspan><tspan
         sodipodi:role="line"
         style="font-style:normal;font-variant:normal;font-weight:bold;font-stretch:normal;font-size:52.6959px;font-family:Lavi;-inkscape-font-specification:'Lavi Bold';stroke-width:1"
         x="1735.2688"
         y="974.80829"
         id="tspan39866">klare det.</tspan></text>
    <text
       xml:space="preserve"
       style="font-style:normal;font-variant:normal;font-weight:normal;font-stretch:normal;font-size:45.3333px;line-height:125%;font-family:Lavi;-inkscape-font-specification:Lavi;text-align:center;letter-spacing:0px;word-spacing:0px;text-anchor:middle;fill:#000000;fill-opacity:1;stroke:none"
       x="2001.5763"
       y="914.20508"
       id="text4246-70-2-2-2-7-4-9-9-6-1-2-3-9-2-7-9-3-5"><tspan
         sodipodi:role="line"
         style="font-size:45.3333px"
         x="2001.5763"
         y="914.20508"
         id="tspan2829-1">Nej...</tspan></text>
    <text
       xml:space="preserve"
       style="font-style:normal;font-variant:normal;font-weight:normal;font-stretch:normal;font-size:36.074px;line-height:125%;font-family:Lavi;-inkscape-font-specification:Lavi;text-align:center;letter-spacing:0px;word-spacing:0px;text-anchor:middle;fill:#000000;fill-opacity:1;stroke:none;stroke-width:0.999996"
       x="2210.7493"
       y="943.36493"
       id="text4246-70-2-2-2-7-4-9-9-6-1-2-3-9-2-7-9-3-5-2"
       transform="scale(0.97209399,1.0287071)"><tspan
         sodipodi:role="line"
         style="font-size:36.074px;stroke-width:0.999996"
         x="2210.7493"
         y="943.36493"
         id="tspan2829-1-7">Du kan ikke.</tspan></text>
    <text
       xml:space="preserve"
       style="font-style:normal;font-variant:normal;font-weight:normal;font-stretch:normal;font-size:14.541px;line-height:0%;font-family:Lavi;-inkscape-font-specification:Lavi;text-align:center;letter-spacing:0px;word-spacing:0px;text-anchor:middle;display:inline;fill:#000000;fill-opacity:1;stroke:#000000;stroke-width:2.01521;stroke-miterlimit:4;stroke-dasharray:none;stroke-opacity:1"
       x="562.51788"
       y="1417.0394"
       id="text4246-3-7-9-5-1-6-2-3"
       transform="matrix(0.96995835,0,-0.17070021,1.0309721,0,0)"><tspan
         sodipodi:role="line"
         style="font-size:54.5284px;line-height:1.25;stroke:#000000;stroke-width:2.01521;stroke-miterlimit:4;stroke-dasharray:none;stroke-opacity:1"
         x="562.51788"
         y="1417.0394"
         id="tspan22576">Hey! Dig dér!</tspan><tspan
         sodipodi:role="line"
         style="font-size:54.5284px;line-height:1.25;stroke:#000000;stroke-width:2.01521;stroke-miterlimit:4;stroke-dasharray:none;stroke-opacity:1"
         x="562.51788"
         y="1485.2"
         id="tspan22580">Gå væk!</tspan></text>
    <text
       xml:space="preserve"
       style="font-style:normal;font-variant:normal;font-weight:normal;font-stretch:normal;font-size:6.87975px;line-height:0%;font-family:Lavi;-inkscape-font-specification:Lavi;text-align:center;letter-spacing:0px;word-spacing:0px;text-anchor:middle;fill:#000000;fill-opacity:1;stroke:none;stroke-width:0.87182"
       x="-341.33691"
       y="2062.9126"
       id="text4246-4-9-8-0-3"
       transform="matrix(0.86354336,-0.84725955,0.23030923,0.93205314,0,0)"><tspan
         sodipodi:role="line"
         style="font-size:80.8612px;line-height:1.25;stroke-width:0.87182"
         x="-341.33691"
         y="2062.9126"
         id="tspan4205-3-3"><tspan
   style="font-size:69.6307px;stroke-width:0.87182"
   id="tspan4438">!</tspan>!</tspan></text>
    <text
       xml:space="preserve"
       style="font-style:normal;font-variant:normal;font-weight:normal;font-stretch:normal;font-size:13.6455px;line-height:0%;font-family:Lavi;-inkscape-font-specification:Lavi;text-align:center;letter-spacing:0px;word-spacing:0px;text-anchor:middle;display:inline;fill:#000000;fill-opacity:1;stroke:#000000;stroke-width:2.01521;stroke-miterlimit:4;stroke-dasharray:none;stroke-opacity:1"
       x="1191.769"
       y="1431.825"
       id="text4246-3-7-9-5-1-6-2-3-8"
       transform="matrix(0.97850393,0,-0.17220413,1.0219683,0,0)"><tspan
         sodipodi:role="line"
         style="font-size:51.17px;line-height:1.25;stroke:#000000;stroke-width:2.01521;stroke-miterlimit:4;stroke-dasharray:none;stroke-opacity:1"
         x="1191.769"
         y="1431.825"
         id="tspan34895">Rør ikke ved mine</tspan><tspan
         sodipodi:role="line"
         style="font-size:51.17px;line-height:1.25;stroke:#000000;stroke-width:2.01521;stroke-miterlimit:4;stroke-dasharray:none;stroke-opacity:1"
         x="1191.769"
         y="1495.7875"
         id="tspan86108">varer, hvis du ik'</tspan><tspan
         sodipodi:role="line"
         style="font-size:51.17px;line-height:1.25;stroke:#000000;stroke-width:2.01521;stroke-miterlimit:4;stroke-dasharray:none;stroke-opacity:1"
         x="1191.769"
         y="1559.75"
         id="tspan89712">ka' betale, okay?</tspan></text>
    <text
       xml:space="preserve"
       style="font-style:normal;font-variant:normal;font-weight:normal;font-stretch:normal;font-size:45.3333px;line-height:125%;font-family:Lavi;-inkscape-font-specification:Lavi;text-align:center;letter-spacing:0px;word-spacing:0px;text-anchor:middle;fill:#000000;fill-opacity:1;stroke:none"
       x="1483.4071"
       y="1455.3622"
       id="text4246-70-2-2-2-7-4-9-9-6-1-2-3-9-2-7-9-3-3-5-6"><tspan
         sodipodi:role="line"
         style="font-style:italic;font-variant:normal;font-weight:normal;font-stretch:normal;font-size:45.3333px;font-family:Lavi;-inkscape-font-specification:'Lavi Italic'"
         x="1483.4071"
         y="1455.3622"
         id="tspan11363-1">Åh, nej...</tspan></text>
    <text
       xml:space="preserve"
       style="font-style:normal;font-variant:normal;font-weight:normal;font-stretch:normal;font-size:15.3246px;line-height:0%;font-family:Lavi;-inkscape-font-specification:Lavi;text-align:center;letter-spacing:2px;word-spacing:0px;text-anchor:middle;display:inline;fill:#000000;fill-opacity:1;stroke:#000000;stroke-width:2.01521;stroke-miterlimit:4;stroke-dasharray:none;stroke-opacity:1"
       x="2107.2039"
       y="1398.4261"
       id="text4246-3-7-9-5-1-6-2"
       transform="matrix(0.92840736,0,-0.16338778,1.0771134,0,0)"><tspan
         sodipodi:role="line"
         style="font-size:57.4671px;line-height:1.25;stroke:#000000;stroke-width:2.01521;stroke-miterlimit:4;stroke-dasharray:none;stroke-opacity:1"
         x="2108.2039"
         y="1398.4261"
         id="tspan1222">CARROT!</tspan></text>
    <text
       xml:space="preserve"
       style="font-style:normal;font-variant:normal;font-weight:normal;font-stretch:normal;font-size:45.3333px;line-height:125%;font-family:Lavi;-inkscape-font-specification:Lavi;text-align:center;letter-spacing:0px;word-spacing:0px;text-anchor:middle;fill:#000000;fill-opacity:1;stroke:none"
       x="1726.5636"
       y="1619.2692"
       id="text4246-70-2-2-2-7-4-9-9-6-1-2-3-9-2-7-9-3-3-5"><tspan
         sodipodi:role="line"
         style="font-size:45.3333px"
         x="1726.5636"
         y="1619.2692"
         id="tspan5270-2">Kunne du ikke hjælpe</tspan><tspan
         sodipodi:role="line"
         style="font-size:45.3333px"
         x="1726.5636"
         y="1675.9358"
         id="tspan11363">mig i stedet for at tænke</tspan><tspan
         sodipodi:role="line"
         style="font-size:45.3333px"
         x="1726.5636"
         y="1732.6024"
         id="tspan122908">på din mave?</tspan></text>
    <text
       xml:space="preserve"
       style="font-style:normal;font-variant:normal;font-weight:normal;font-stretch:normal;font-size:15.3246px;line-height:0%;font-family:Lavi;-inkscape-font-specification:Lavi;text-align:center;letter-spacing:0px;word-spacing:0px;text-anchor:middle;display:inline;fill:#000000;fill-opacity:1;stroke:#000000;stroke-width:2.01521;stroke-miterlimit:4;stroke-dasharray:none;stroke-opacity:1"
       x="684.43365"
       y="2438.4612"
       id="text4246-3-7-9-5-1-6-2-9"
       transform="matrix(0.92840736,0,-0.16338778,1.0771134,0,0)"><tspan
         sodipodi:role="line"
         style="font-size:57.4671px;line-height:1.25;stroke:#000000;stroke-width:2.01521;stroke-miterlimit:4;stroke-dasharray:none;stroke-opacity:1"
         x="684.43365"
         y="2438.4612"
         id="tspan1222-1">Åh?!</tspan></text>
    <text
       xml:space="preserve"
       style="font-style:normal;font-variant:normal;font-weight:normal;font-stretch:normal;font-size:55.8737px;line-height:125%;font-family:Lavi;-inkscape-font-specification:Lavi;text-align:center;letter-spacing:0px;word-spacing:0px;text-anchor:middle;fill:#000000;fill-opacity:1;stroke:none;stroke-width:0.999999"
       x="1152.1935"
       y="2595.791"
       id="text4246-70-2-2-2-7-4-9-9-6-1-2-3-9-2-7-9-3-3-2-2"><tspan
         sodipodi:role="line"
         style="font-style:normal;font-variant:normal;font-weight:bold;font-stretch:normal;font-size:55.8737px;font-family:Lavi;-inkscape-font-specification:'Lavi Bold';stroke-width:0.999999"
         x="1152.1935"
         y="2595.791"
         id="tspan17035-3">Aha...</tspan></text>
    <text
       xml:space="preserve"
       style="font-style:normal;font-variant:normal;font-weight:normal;font-stretch:normal;font-size:45.3333px;line-height:125%;font-family:Lavi;-inkscape-font-specification:Lavi;text-align:center;letter-spacing:0px;word-spacing:0px;text-anchor:middle;fill:#000000;fill-opacity:1;stroke:none"
       x="1181.1333"
       y="2630.5107"
       id="text4246-70-2-2-2-7-4-9-9-6-1-2-3-9-2-7-9-3-3-2"><tspan
         sodipodi:role="line"
         style="font-size:45.3333px"
         x="1181.1333"
         y="2630.5107"
         id="tspan5270-0" /><tspan
         sodipodi:role="line"
         style="font-size:45.3333px"
         x="1181.1333"
         y="2687.1775"
         id="tspan17035">Det burde</tspan><tspan
         sodipodi:role="line"
         style="font-size:45.3333px"
         x="1181.1333"
         y="2743.844"
         id="tspan148855">virke.</tspan></text>
  </g>
</svg>
