<?xml version="1.0" encoding="UTF-8" standalone="no"?>
<svg
   xmlns:dc="http://purl.org/dc/elements/1.1/"
   xmlns:cc="http://creativecommons.org/ns#"
   xmlns:rdf="http://www.w3.org/1999/02/22-rdf-syntax-ns#"
   xmlns:svg="http://www.w3.org/2000/svg"
   xmlns="http://www.w3.org/2000/svg"
   xmlns:xlink="http://www.w3.org/1999/xlink"
   xmlns:sodipodi="http://sodipodi.sourceforge.net/DTD/sodipodi-0.dtd"
   xmlns:inkscape="http://www.inkscape.org/namespaces/inkscape"
   sodipodi:docname="E30P00.svg"
   height="663"
   width="2481"
   inkscape:version="1.0 (4035a4fb49, 2020-05-01)"
   version="1.1"
   id="svg2">
  <metadata
     id="metadata8">
    <rdf:RDF>
      <cc:Work
         rdf:about="">
        <dc:format>image/svg+xml</dc:format>
        <dc:type
           rdf:resource="http://purl.org/dc/dcmitype/StillImage" />
        <dc:title />
      </cc:Work>
    </rdf:RDF>
  </metadata>
  <defs
     id="defs6">
    <linearGradient
       id="linearGradient823"
       inkscape:collect="always">
      <stop
         id="stop819"
         offset="0"
         style="stop-color:#fdfeff;stop-opacity:1" />
      <stop
         style="stop-color:#fefeff;stop-opacity:0.33333334"
         offset="0.48474982"
         id="stop827" />
      <stop
         id="stop821"
         offset="1"
         style="stop-color:#ffffff;stop-opacity:0" />
    </linearGradient>
    <radialGradient
       gradientTransform="matrix(0.8341488,-0.03576122,0.02997162,0.79885669,86.98996,312.59079)"
       gradientUnits="userSpaceOnUse"
       r="25.183058"
       fy="218.57224"
       fx="505.43463"
       cy="218.57224"
       cx="505.43463"
       id="radialGradient825"
       xlink:href="#linearGradient823"
       inkscape:collect="always" />
    <filter
       height="1.3780589"
       y="-0.18902947"
       width="1.3479866"
       x="-0.17399332"
       id="filter947"
       style="color-interpolation-filters:sRGB"
       inkscape:collect="always">
      <feGaussianBlur
         id="feGaussianBlur949"
         stdDeviation="0.24881771"
         inkscape:collect="always" />
    </filter>
    <filter
       height="1.3780589"
       y="-0.18902947"
       width="1.3479866"
       x="-0.17399332"
       id="filter947-3"
       style="color-interpolation-filters:sRGB"
       inkscape:collect="always">
      <feGaussianBlur
         id="feGaussianBlur949-6"
         stdDeviation="0.24881771"
         inkscape:collect="always" />
    </filter>
    <radialGradient
       gradientTransform="matrix(0.8341488,-0.03576122,0.02997162,0.79885669,879.09946,180.06478)"
       gradientUnits="userSpaceOnUse"
       r="25.183058"
       fy="218.57224"
       fx="505.43463"
       cy="218.57224"
       cx="505.43463"
       id="radialGradient825-7"
       xlink:href="#linearGradient823"
       inkscape:collect="always" />
    <filter
       height="1.3780589"
       y="-0.18902947"
       width="1.3479866"
       x="-0.17399332"
       id="filter947-3-9"
       style="color-interpolation-filters:sRGB"
       inkscape:collect="always">
      <feGaussianBlur
         id="feGaussianBlur949-6-1"
         stdDeviation="0.24881771"
         inkscape:collect="always" />
    </filter>
    <radialGradient
       gradientTransform="matrix(0.8341488,-0.03576122,0.02997162,0.79885669,1547,174.39381)"
       gradientUnits="userSpaceOnUse"
       r="25.183058"
       fy="218.57224"
       fx="505.43463"
       cy="218.57224"
       cx="505.43463"
       id="radialGradient825-7-2"
       xlink:href="#linearGradient823"
       inkscape:collect="always" />
    <filter
       height="1.3780589"
       y="-0.18902947"
       width="1.3479866"
       x="-0.17399332"
       id="filter947-3-9-0"
       style="color-interpolation-filters:sRGB"
       inkscape:collect="always">
      <feGaussianBlur
         id="feGaussianBlur949-6-1-6"
         stdDeviation="0.24881771"
         inkscape:collect="always" />
    </filter>
    <radialGradient
       gradientTransform="matrix(0.54100296,-0.02286667,0.01943866,0.51081019,800.76791,269.36415)"
       gradientUnits="userSpaceOnUse"
       r="25.183058"
       fy="218.57224"
       fx="505.43463"
       cy="218.57224"
       cx="505.43463"
       id="radialGradient825-7-2-2"
       xlink:href="#linearGradient823"
       inkscape:collect="always" />
    <filter
       height="1.3780589"
       y="-0.18902947"
       width="1.3479866"
       x="-0.17399332"
       id="filter947-3-9-0-2"
       style="color-interpolation-filters:sRGB"
       inkscape:collect="always">
      <feGaussianBlur
         id="feGaussianBlur949-6-1-6-0"
         stdDeviation="0.24881771"
         inkscape:collect="always" />
    </filter>
    <radialGradient
       gradientTransform="matrix(0.54100296,-0.02286667,0.01943866,0.51081019,510.53675,196.47183)"
       gradientUnits="userSpaceOnUse"
       r="25.183058"
       fy="218.57224"
       fx="505.43463"
       cy="218.57224"
       cx="505.43463"
       id="radialGradient825-7-2-2-2"
       xlink:href="#linearGradient823"
       inkscape:collect="always" />
    <filter
       height="1.3780589"
       y="-0.18902947"
       width="1.3479866"
       x="-0.17399332"
       id="filter947-3-9-0-28"
       style="color-interpolation-filters:sRGB"
       inkscape:collect="always">
      <feGaussianBlur
         id="feGaussianBlur949-6-1-6-9"
         stdDeviation="0.24881771"
         inkscape:collect="always" />
    </filter>
    <radialGradient
       gradientTransform="matrix(0.54100296,-0.02286667,0.01943866,0.51081019,444.82947,267.86188)"
       gradientUnits="userSpaceOnUse"
       r="25.183058"
       fy="218.57224"
       fx="505.43463"
       cy="218.57224"
       cx="505.43463"
       id="radialGradient825-7-2-2-7"
       xlink:href="#linearGradient823"
       inkscape:collect="always" />
    <filter
       height="1.3780589"
       y="-0.18902947"
       width="1.3479866"
       x="-0.17399332"
       id="filter947-3-9-0-3"
       style="color-interpolation-filters:sRGB"
       inkscape:collect="always">
      <feGaussianBlur
         id="feGaussianBlur949-6-1-6-1"
         stdDeviation="0.24881771"
         inkscape:collect="always" />
    </filter>
    <radialGradient
       gradientTransform="matrix(0.54100296,-0.02286667,0.01943866,0.51081019,274.51369,227.03275)"
       gradientUnits="userSpaceOnUse"
       r="25.183058"
       fy="218.57224"
       fx="505.43463"
       cy="218.57224"
       cx="505.43463"
       id="radialGradient825-7-2-2-9"
       xlink:href="#linearGradient823"
       inkscape:collect="always" />
    <filter
       height="1.3780589"
       y="-0.18902947"
       width="1.3479866"
       x="-0.17399332"
       id="filter947-3-9-0-0"
       style="color-interpolation-filters:sRGB"
       inkscape:collect="always">
      <feGaussianBlur
         id="feGaussianBlur949-6-1-6-3"
         stdDeviation="0.24881771"
         inkscape:collect="always" />
    </filter>
    <radialGradient
       gradientTransform="matrix(0.54100296,-0.02286667,0.01943866,0.51081019,1435.0061,233.31321)"
       gradientUnits="userSpaceOnUse"
       r="25.183058"
       fy="218.57224"
       fx="505.43463"
       cy="218.57224"
       cx="505.43463"
       id="radialGradient825-7-2-2-6"
       xlink:href="#linearGradient823"
       inkscape:collect="always" />
    <filter
       height="1.3780589"
       y="-0.18902947"
       width="1.3479866"
       x="-0.17399332"
       id="filter947-3-9-0-6"
       style="color-interpolation-filters:sRGB"
       inkscape:collect="always">
      <feGaussianBlur
         id="feGaussianBlur949-6-1-6-15"
         stdDeviation="0.24881771"
         inkscape:collect="always" />
    </filter>
    <radialGradient
       gradientTransform="matrix(0.54100296,-0.02286667,0.01943866,0.51081019,1702.7364,300.37377)"
       gradientUnits="userSpaceOnUse"
       r="25.183058"
       fy="218.57224"
       fx="505.43463"
       cy="218.57224"
       cx="505.43463"
       id="radialGradient825-7-2-2-5"
       xlink:href="#linearGradient823"
       inkscape:collect="always" />
    <filter
       height="1.3780589"
       y="-0.18902947"
       width="1.3479866"
       x="-0.17399332"
       id="filter947-3-93"
       style="color-interpolation-filters:sRGB"
       inkscape:collect="always">
      <feGaussianBlur
         id="feGaussianBlur949-6-7"
         stdDeviation="0.24881771"
         inkscape:collect="always" />
    </filter>
    <radialGradient
       gradientTransform="matrix(0.8341488,-0.03576122,0.02997162,0.79885669,1107.7224,68.433191)"
       gradientUnits="userSpaceOnUse"
       r="25.183058"
       fy="218.57224"
       fx="505.43463"
       cy="218.57224"
       cx="505.43463"
       id="radialGradient825-7-4"
       xlink:href="#linearGradient823"
       inkscape:collect="always" />
    <filter
       height="1.3780589"
       y="-0.18902947"
       width="1.3479866"
       x="-0.17399332"
       id="filter947-3-9-0-0-4"
       style="color-interpolation-filters:sRGB"
       inkscape:collect="always">
      <feGaussianBlur
         id="feGaussianBlur949-6-1-6-3-4"
         stdDeviation="0.24881771"
         inkscape:collect="always" />
    </filter>
    <radialGradient
       gradientTransform="matrix(0.54100296,-0.02286667,0.01943866,0.51081019,1271.6788,321.9967)"
       gradientUnits="userSpaceOnUse"
       r="25.183058"
       fy="218.57224"
       fx="505.43463"
       cy="218.57224"
       cx="505.43463"
       id="radialGradient825-7-2-2-6-3"
       xlink:href="#linearGradient823"
       inkscape:collect="always" />
    <filter
       style="color-interpolation-filters:sRGB"
       inkscape:label="Drop Shadow"
       id="filter946">
      <feFlood
         flood-opacity="0.498039"
         flood-color="rgb(0,0,0)"
         result="flood"
         id="feFlood936" />
      <feComposite
         in="flood"
         in2="SourceGraphic"
         operator="in"
         result="composite1"
         id="feComposite938" />
      <feGaussianBlur
         in="composite1"
         stdDeviation="3"
         result="blur"
         id="feGaussianBlur940" />
      <feOffset
         dx="6"
         dy="6"
         result="offset"
         id="feOffset942" />
      <feComposite
         in="SourceGraphic"
         in2="offset"
         operator="over"
         result="composite2"
         id="feComposite944" />
    </filter>
  </defs>
  <sodipodi:namedview
     inkscape:document-rotation="0"
     inkscape:current-layer="layer1"
     inkscape:window-maximized="1"
     inkscape:window-y="-8"
     inkscape:window-x="-8"
     inkscape:cy="340.59851"
     inkscape:cx="1108.8995"
     inkscape:zoom="0.43094102"
     showgrid="false"
     id="namedview4"
     inkscape:window-height="715"
     inkscape:window-width="1366"
     inkscape:pageshadow="2"
     inkscape:pageopacity="0"
     guidetolerance="10"
     gridtolerance="10"
     objecttolerance="10"
     borderopacity="1"
     bordercolor="#666666"
     pagecolor="#ffffff" />
  <g
     sodipodi:insensitive="true"
     inkscape:label="artwork"
     id="layer2"
     inkscape:groupmode="layer">
    <image
       sodipodi:absref="E:\Aslan's Works\2. Personal Projects\1. Pepper&amp;Carrot Translation\Episode 30\lang\gfx_Pepper-and-Carrot_by-David-Revoy_E30P00.png"
       xlink:href="../gfx_Pepper-and-Carrot_by-David-Revoy_E30P00.png"
       y="0"
       x="0"
       id="image10"
       height="663"
       width="2481" />
  </g>
  <g
     style="display:inline"
     inkscape:label="txt"
     id="layer1"
     inkscape:groupmode="layer">
    <flowRoot
       xml:space="preserve"
       id="flowRoot3371"
       style="font-style:normal;font-weight:normal;line-height:0.01%;font-family:sans-serif;letter-spacing:0px;word-spacing:0px;display:inline;fill:#1c3c77;fill-opacity:1;stroke:#ffffff;stroke-width:0;stroke-linecap:butt;stroke-linejoin:miter;stroke-miterlimit:4;stroke-dasharray:none;stroke-opacity:1;paint-order:stroke fill markers;filter:url(#filter946)"
       transform="translate(189.89838,110.29851)"><flowRegion
         id="flowRegion3373"
         style="fill:#1c3c77;fill-opacity:1;stroke:#ffffff;stroke-width:0;stroke-miterlimit:4;stroke-dasharray:none;stroke-opacity:1;paint-order:stroke fill markers"><rect
           id="rect3375"
           width="1548.4232"
           height="424.68536"
           x="267.07019"
           y="-5.405139"
           style="font-size:375px;fill:#1c3c77;fill-opacity:1;stroke:#ffffff;stroke-width:0;stroke-miterlimit:4;stroke-dasharray:none;stroke-opacity:1;paint-order:stroke fill markers" /></flowRegion><flowPara
         id="flowPara3377"
         style="font-style:normal;font-variant:normal;font-weight:bold;font-stretch:normal;font-size:325px;line-height:1.25;font-family:'XP Ziba';-inkscape-font-specification:'XP Ziba Bold';direction:rtl;fill:#1c3c77;fill-opacity:1;stroke:#ffffff;stroke-width:0;stroke-miterlimit:4;stroke-dasharray:none;stroke-opacity:1;paint-order:stroke fill markers">فلفل و هویج</flowPara></flowRoot>
    <ellipse
       ry="21.990839"
       rx="20.572075"
       cy="469.12372"
       cx="515.14856"
       id="path817"
       style="color:#000000;clip-rule:nonzero;display:inline;overflow:visible;visibility:visible;opacity:0.452;isolation:auto;mix-blend-mode:normal;color-interpolation:sRGB;color-interpolation-filters:linearRGB;solid-color:#000000;solid-opacity:1;vector-effect:none;fill:url(#radialGradient825);fill-opacity:1;fill-rule:nonzero;stroke:none;stroke-width:0.802371;stroke-linecap:round;stroke-linejoin:miter;stroke-miterlimit:4;stroke-dasharray:none;stroke-dashoffset:0;stroke-opacity:1;marker:none;paint-order:markers stroke fill;color-rendering:auto;image-rendering:auto;shape-rendering:auto;text-rendering:auto;enable-background:accumulate" />
    <ellipse
       ry="1.5795487"
       rx="1.7160501"
       cy="468.56668"
       cx="515.02429"
       id="path829"
       style="color:#000000;clip-rule:nonzero;display:inline;overflow:visible;visibility:visible;opacity:1;isolation:auto;mix-blend-mode:normal;color-interpolation:sRGB;color-interpolation-filters:linearRGB;solid-color:#000000;solid-opacity:1;vector-effect:none;fill:#ffffff;fill-opacity:1;fill-rule:nonzero;stroke:none;stroke-width:0.588237;stroke-linecap:round;stroke-linejoin:miter;stroke-miterlimit:4;stroke-dasharray:none;stroke-dashoffset:0;stroke-opacity:1;marker:none;paint-order:markers stroke fill;filter:url(#filter947);color-rendering:auto;image-rendering:auto;shape-rendering:auto;text-rendering:auto;enable-background:accumulate" />
    <ellipse
       ry="21.990839"
       rx="20.572075"
       cy="336.59772"
       cx="1307.2581"
       id="path817-6"
       style="color:#000000;clip-rule:nonzero;display:inline;overflow:visible;visibility:visible;opacity:0.452;isolation:auto;mix-blend-mode:normal;color-interpolation:sRGB;color-interpolation-filters:linearRGB;solid-color:#000000;solid-opacity:1;vector-effect:none;fill:url(#radialGradient825-7);fill-opacity:1;fill-rule:nonzero;stroke:none;stroke-width:0.802371;stroke-linecap:round;stroke-linejoin:miter;stroke-miterlimit:4;stroke-dasharray:none;stroke-dashoffset:0;stroke-opacity:1;marker:none;paint-order:markers stroke fill;color-rendering:auto;image-rendering:auto;shape-rendering:auto;text-rendering:auto;enable-background:accumulate" />
    <ellipse
       ry="1.5795487"
       rx="1.7160501"
       cy="336.04068"
       cx="1307.1338"
       id="path829-2"
       style="color:#000000;clip-rule:nonzero;display:inline;overflow:visible;visibility:visible;opacity:1;isolation:auto;mix-blend-mode:normal;color-interpolation:sRGB;color-interpolation-filters:linearRGB;solid-color:#000000;solid-opacity:1;vector-effect:none;fill:#ffffff;fill-opacity:1;fill-rule:nonzero;stroke:none;stroke-width:0.588237;stroke-linecap:round;stroke-linejoin:miter;stroke-miterlimit:4;stroke-dasharray:none;stroke-dashoffset:0;stroke-opacity:1;marker:none;paint-order:markers stroke fill;filter:url(#filter947-3);color-rendering:auto;image-rendering:auto;shape-rendering:auto;text-rendering:auto;enable-background:accumulate" />
    <ellipse
       ry="21.990839"
       rx="20.572075"
       cy="330.92673"
       cx="1975.1587"
       id="path817-6-3"
       style="color:#000000;clip-rule:nonzero;display:inline;overflow:visible;visibility:visible;opacity:0.452;isolation:auto;mix-blend-mode:normal;color-interpolation:sRGB;color-interpolation-filters:linearRGB;solid-color:#000000;solid-opacity:1;vector-effect:none;fill:url(#radialGradient825-7-2);fill-opacity:1;fill-rule:nonzero;stroke:none;stroke-width:0.802371;stroke-linecap:round;stroke-linejoin:miter;stroke-miterlimit:4;stroke-dasharray:none;stroke-dashoffset:0;stroke-opacity:1;marker:none;paint-order:markers stroke fill;color-rendering:auto;image-rendering:auto;shape-rendering:auto;text-rendering:auto;enable-background:accumulate" />
    <ellipse
       ry="1.5795487"
       rx="1.7160501"
       cy="333.16467"
       cx="1975.1561"
       id="path829-2-6"
       style="color:#000000;clip-rule:nonzero;display:inline;overflow:visible;visibility:visible;opacity:1;isolation:auto;mix-blend-mode:normal;color-interpolation:sRGB;color-interpolation-filters:linearRGB;solid-color:#000000;solid-opacity:1;vector-effect:none;fill:#ffffff;fill-opacity:1;fill-rule:nonzero;stroke:none;stroke-width:0.588237;stroke-linecap:round;stroke-linejoin:miter;stroke-miterlimit:4;stroke-dasharray:none;stroke-dashoffset:0;stroke-opacity:1;marker:none;paint-order:markers stroke fill;filter:url(#filter947-3-9);color-rendering:auto;image-rendering:auto;shape-rendering:auto;text-rendering:auto;enable-background:accumulate" />
    <ellipse
       ry="14.061526"
       rx="13.342408"
       cy="369.45541"
       cx="1078.4583"
       id="path817-6-3-7"
       style="color:#000000;clip-rule:nonzero;display:inline;overflow:visible;visibility:visible;opacity:0.471;isolation:auto;mix-blend-mode:normal;color-interpolation:sRGB;color-interpolation-filters:linearRGB;solid-color:#000000;solid-opacity:1;vector-effect:none;fill:url(#radialGradient825-7-2-2);fill-opacity:1;fill-rule:nonzero;stroke:none;stroke-width:0.516712;stroke-linecap:round;stroke-linejoin:miter;stroke-miterlimit:4;stroke-dasharray:none;stroke-dashoffset:0;stroke-opacity:1;marker:none;paint-order:markers stroke fill;color-rendering:auto;image-rendering:auto;shape-rendering:auto;text-rendering:auto;enable-background:accumulate" />
    <ellipse
       transform="matrix(0.64856889,0,0,0.63942657,371.45927,140.75788)"
       ry="1.5795487"
       rx="1.7160501"
       cy="357.10336"
       cx="1089.9664"
       id="path829-2-6-9"
       style="color:#000000;clip-rule:nonzero;display:inline;overflow:visible;visibility:visible;opacity:0.471;isolation:auto;mix-blend-mode:normal;color-interpolation:sRGB;color-interpolation-filters:linearRGB;solid-color:#000000;solid-opacity:1;vector-effect:none;fill:#ffffff;fill-opacity:1;fill-rule:nonzero;stroke:none;stroke-width:0.588237;stroke-linecap:round;stroke-linejoin:miter;stroke-miterlimit:4;stroke-dasharray:none;stroke-dashoffset:0;stroke-opacity:1;marker:none;paint-order:markers stroke fill;filter:url(#filter947-3-9-0);color-rendering:auto;image-rendering:auto;shape-rendering:auto;text-rendering:auto;enable-background:accumulate" />
    <ellipse
       ry="14.061526"
       rx="13.342408"
       cy="296.56311"
       cx="788.22705"
       id="path817-6-3-7-9"
       style="color:#000000;clip-rule:nonzero;display:inline;overflow:visible;visibility:visible;opacity:0.471;isolation:auto;mix-blend-mode:normal;color-interpolation:sRGB;color-interpolation-filters:linearRGB;solid-color:#000000;solid-opacity:1;vector-effect:none;fill:url(#radialGradient825-7-2-2-2);fill-opacity:1;fill-rule:nonzero;stroke:none;stroke-width:0.516712;stroke-linecap:round;stroke-linejoin:miter;stroke-miterlimit:4;stroke-dasharray:none;stroke-dashoffset:0;stroke-opacity:1;marker:none;paint-order:markers stroke fill;color-rendering:auto;image-rendering:auto;shape-rendering:auto;text-rendering:auto;enable-background:accumulate" />
    <ellipse
       transform="matrix(0.64856889,0,0,0.63942657,81.228112,67.86556)"
       ry="1.5795487"
       rx="1.7160501"
       cy="357.10336"
       cx="1089.9664"
       id="path829-2-6-9-2"
       style="color:#000000;clip-rule:nonzero;display:inline;overflow:visible;visibility:visible;opacity:0.471;isolation:auto;mix-blend-mode:normal;color-interpolation:sRGB;color-interpolation-filters:linearRGB;solid-color:#000000;solid-opacity:1;vector-effect:none;fill:#ffffff;fill-opacity:1;fill-rule:nonzero;stroke:none;stroke-width:0.588237;stroke-linecap:round;stroke-linejoin:miter;stroke-miterlimit:4;stroke-dasharray:none;stroke-dashoffset:0;stroke-opacity:1;marker:none;paint-order:markers stroke fill;filter:url(#filter947-3-9-0-2);color-rendering:auto;image-rendering:auto;shape-rendering:auto;text-rendering:auto;enable-background:accumulate" />
    <ellipse
       ry="14.061526"
       rx="13.342408"
       cy="367.95316"
       cx="722.51978"
       id="path817-6-3-7-2"
       style="color:#000000;clip-rule:nonzero;display:inline;overflow:visible;visibility:visible;opacity:0.471;isolation:auto;mix-blend-mode:normal;color-interpolation:sRGB;color-interpolation-filters:linearRGB;solid-color:#000000;solid-opacity:1;vector-effect:none;fill:url(#radialGradient825-7-2-2-7);fill-opacity:1;fill-rule:nonzero;stroke:none;stroke-width:0.516712;stroke-linecap:round;stroke-linejoin:miter;stroke-miterlimit:4;stroke-dasharray:none;stroke-dashoffset:0;stroke-opacity:1;marker:none;paint-order:markers stroke fill;color-rendering:auto;image-rendering:auto;shape-rendering:auto;text-rendering:auto;enable-background:accumulate" />
    <ellipse
       transform="matrix(0.64856889,0,0,0.63942657,15.520829,139.25561)"
       ry="1.5795487"
       rx="1.7160501"
       cy="357.10336"
       cx="1089.9664"
       id="path829-2-6-9-9"
       style="color:#000000;clip-rule:nonzero;display:inline;overflow:visible;visibility:visible;opacity:0.471;isolation:auto;mix-blend-mode:normal;color-interpolation:sRGB;color-interpolation-filters:linearRGB;solid-color:#000000;solid-opacity:1;vector-effect:none;fill:#ffffff;fill-opacity:1;fill-rule:nonzero;stroke:none;stroke-width:0.588237;stroke-linecap:round;stroke-linejoin:miter;stroke-miterlimit:4;stroke-dasharray:none;stroke-dashoffset:0;stroke-opacity:1;marker:none;paint-order:markers stroke fill;filter:url(#filter947-3-9-0-28);color-rendering:auto;image-rendering:auto;shape-rendering:auto;text-rendering:auto;enable-background:accumulate" />
    <ellipse
       ry="14.061526"
       rx="13.342408"
       cy="327.12402"
       cx="552.20404"
       id="path817-6-3-7-4"
       style="color:#000000;clip-rule:nonzero;display:inline;overflow:visible;visibility:visible;opacity:0.471;isolation:auto;mix-blend-mode:normal;color-interpolation:sRGB;color-interpolation-filters:linearRGB;solid-color:#000000;solid-opacity:1;vector-effect:none;fill:url(#radialGradient825-7-2-2-9);fill-opacity:1;fill-rule:nonzero;stroke:none;stroke-width:0.516712;stroke-linecap:round;stroke-linejoin:miter;stroke-miterlimit:4;stroke-dasharray:none;stroke-dashoffset:0;stroke-opacity:1;marker:none;paint-order:markers stroke fill;color-rendering:auto;image-rendering:auto;shape-rendering:auto;text-rendering:auto;enable-background:accumulate" />
    <ellipse
       transform="matrix(0.64856889,0,0,0.63942657,-154.79495,98.42648)"
       ry="1.5795487"
       rx="1.7160501"
       cy="357.10336"
       cx="1089.9664"
       id="path829-2-6-9-5"
       style="color:#000000;clip-rule:nonzero;display:inline;overflow:visible;visibility:visible;opacity:0.471;isolation:auto;mix-blend-mode:normal;color-interpolation:sRGB;color-interpolation-filters:linearRGB;solid-color:#000000;solid-opacity:1;vector-effect:none;fill:#ffffff;fill-opacity:1;fill-rule:nonzero;stroke:none;stroke-width:0.588237;stroke-linecap:round;stroke-linejoin:miter;stroke-miterlimit:4;stroke-dasharray:none;stroke-dashoffset:0;stroke-opacity:1;marker:none;paint-order:markers stroke fill;filter:url(#filter947-3-9-0-3);color-rendering:auto;image-rendering:auto;shape-rendering:auto;text-rendering:auto;enable-background:accumulate" />
    <ellipse
       ry="14.061526"
       rx="13.342408"
       cy="333.40448"
       cx="1712.6964"
       id="path817-6-3-7-3"
       style="color:#000000;clip-rule:nonzero;display:inline;overflow:visible;visibility:visible;opacity:0.471;isolation:auto;mix-blend-mode:normal;color-interpolation:sRGB;color-interpolation-filters:linearRGB;solid-color:#000000;solid-opacity:1;vector-effect:none;fill:url(#radialGradient825-7-2-2-6);fill-opacity:1;fill-rule:nonzero;stroke:none;stroke-width:0.516712;stroke-linecap:round;stroke-linejoin:miter;stroke-miterlimit:4;stroke-dasharray:none;stroke-dashoffset:0;stroke-opacity:1;marker:none;paint-order:markers stroke fill;color-rendering:auto;image-rendering:auto;shape-rendering:auto;text-rendering:auto;enable-background:accumulate" />
    <ellipse
       transform="matrix(0.64856889,0,0,0.63942657,1005.6974,104.70694)"
       ry="1.5795487"
       rx="1.7160501"
       cy="357.10336"
       cx="1089.9664"
       id="path829-2-6-9-20"
       style="color:#000000;clip-rule:nonzero;display:inline;overflow:visible;visibility:visible;opacity:0.471;isolation:auto;mix-blend-mode:normal;color-interpolation:sRGB;color-interpolation-filters:linearRGB;solid-color:#000000;solid-opacity:1;vector-effect:none;fill:#ffffff;fill-opacity:1;fill-rule:nonzero;stroke:none;stroke-width:0.588237;stroke-linecap:round;stroke-linejoin:miter;stroke-miterlimit:4;stroke-dasharray:none;stroke-dashoffset:0;stroke-opacity:1;marker:none;paint-order:markers stroke fill;filter:url(#filter947-3-9-0-0);color-rendering:auto;image-rendering:auto;shape-rendering:auto;text-rendering:auto;enable-background:accumulate" />
    <ellipse
       ry="14.061526"
       rx="13.342408"
       cy="400.46503"
       cx="1980.4268"
       id="path817-6-3-7-5"
       style="color:#000000;clip-rule:nonzero;display:inline;overflow:visible;visibility:visible;opacity:0.47099998;isolation:auto;mix-blend-mode:normal;color-interpolation:sRGB;color-interpolation-filters:linearRGB;solid-color:#000000;solid-opacity:1;vector-effect:none;fill:url(#radialGradient825-7-2-2-5);fill-opacity:1;fill-rule:nonzero;stroke:none;stroke-width:0.51671189;stroke-linecap:round;stroke-linejoin:miter;stroke-miterlimit:4;stroke-dasharray:none;stroke-dashoffset:0;stroke-opacity:1;marker:none;paint-order:markers stroke fill;color-rendering:auto;image-rendering:auto;shape-rendering:auto;text-rendering:auto;enable-background:accumulate" />
    <ellipse
       transform="matrix(0.64856889,0,0,0.63942657,1273.4277,171.7675)"
       ry="1.5795487"
       rx="1.7160501"
       cy="357.10336"
       cx="1089.9664"
       id="path829-2-6-9-6"
       style="color:#000000;clip-rule:nonzero;display:inline;overflow:visible;visibility:visible;opacity:0.47099998;isolation:auto;mix-blend-mode:normal;color-interpolation:sRGB;color-interpolation-filters:linearRGB;solid-color:#000000;solid-opacity:1;vector-effect:none;fill:#ffffff;fill-opacity:1;fill-rule:nonzero;stroke:none;stroke-width:0.58823705;stroke-linecap:round;stroke-linejoin:miter;stroke-miterlimit:4;stroke-dasharray:none;stroke-dashoffset:0;stroke-opacity:1;marker:none;paint-order:markers stroke fill;filter:url(#filter947-3-9-0-6);color-rendering:auto;image-rendering:auto;shape-rendering:auto;text-rendering:auto;enable-background:accumulate" />
    <ellipse
       ry="21.990839"
       rx="20.572075"
       cy="224.96614"
       cx="1535.8811"
       id="path817-6-4"
       style="color:#000000;clip-rule:nonzero;display:inline;overflow:visible;visibility:visible;opacity:0.452;isolation:auto;mix-blend-mode:normal;color-interpolation:sRGB;color-interpolation-filters:linearRGB;solid-color:#000000;solid-opacity:1;vector-effect:none;fill:url(#radialGradient825-7-4);fill-opacity:1;fill-rule:nonzero;stroke:none;stroke-width:0.802371;stroke-linecap:round;stroke-linejoin:miter;stroke-miterlimit:4;stroke-dasharray:none;stroke-dashoffset:0;stroke-opacity:1;marker:none;paint-order:markers stroke fill;color-rendering:auto;image-rendering:auto;shape-rendering:auto;text-rendering:auto;enable-background:accumulate" />
    <ellipse
       ry="1.5795487"
       rx="1.7160501"
       cy="224.4091"
       cx="1535.7568"
       id="path829-2-7"
       style="color:#000000;clip-rule:nonzero;display:inline;overflow:visible;visibility:visible;opacity:1;isolation:auto;mix-blend-mode:normal;color-interpolation:sRGB;color-interpolation-filters:linearRGB;solid-color:#000000;solid-opacity:1;vector-effect:none;fill:#ffffff;fill-opacity:1;fill-rule:nonzero;stroke:none;stroke-width:0.588237;stroke-linecap:round;stroke-linejoin:miter;stroke-miterlimit:4;stroke-dasharray:none;stroke-dashoffset:0;stroke-opacity:1;marker:none;paint-order:markers stroke fill;filter:url(#filter947-3-93);color-rendering:auto;image-rendering:auto;shape-rendering:auto;text-rendering:auto;enable-background:accumulate" />
    <ellipse
       ry="14.061526"
       rx="13.342408"
       cy="422.08798"
       cx="1549.3691"
       id="path817-6-3-7-3-6"
       style="color:#000000;clip-rule:nonzero;display:inline;overflow:visible;visibility:visible;opacity:0.471;isolation:auto;mix-blend-mode:normal;color-interpolation:sRGB;color-interpolation-filters:linearRGB;solid-color:#000000;solid-opacity:1;vector-effect:none;fill:url(#radialGradient825-7-2-2-6-3);fill-opacity:1;fill-rule:nonzero;stroke:none;stroke-width:0.516712;stroke-linecap:round;stroke-linejoin:miter;stroke-miterlimit:4;stroke-dasharray:none;stroke-dashoffset:0;stroke-opacity:1;marker:none;paint-order:markers stroke fill;color-rendering:auto;image-rendering:auto;shape-rendering:auto;text-rendering:auto;enable-background:accumulate" />
    <ellipse
       transform="matrix(0.64856889,0,0,0.63942657,842.37009,193.39043)"
       ry="1.5795487"
       rx="1.7160501"
       cy="357.10336"
       cx="1089.9664"
       id="path829-2-6-9-20-8"
       style="color:#000000;clip-rule:nonzero;display:inline;overflow:visible;visibility:visible;opacity:0.471;isolation:auto;mix-blend-mode:normal;color-interpolation:sRGB;color-interpolation-filters:linearRGB;solid-color:#000000;solid-opacity:1;vector-effect:none;fill:#ffffff;fill-opacity:1;fill-rule:nonzero;stroke:none;stroke-width:0.588237;stroke-linecap:round;stroke-linejoin:miter;stroke-miterlimit:4;stroke-dasharray:none;stroke-dashoffset:0;stroke-opacity:1;marker:none;paint-order:markers stroke fill;filter:url(#filter947-3-9-0-0-4);color-rendering:auto;image-rendering:auto;shape-rendering:auto;text-rendering:auto;enable-background:accumulate" />
    <text
       xml:space="preserve"
       style="font-style:normal;font-variant:normal;font-weight:normal;font-stretch:normal;font-size:85.3333px;line-height:1.25;font-family:Lavi;-inkscape-font-specification:'Lavi, Normal';font-variant-ligatures:normal;font-variant-caps:normal;font-variant-numeric:normal;font-feature-settings:normal;text-align:center;letter-spacing:0px;word-spacing:0px;writing-mode:lr-tb;text-anchor:middle;display:inline;fill:#1c3c77;fill-opacity:1;stroke:none"
       x="1240.5"
       y="591.24078"
       id="episode-title"><tspan
         sodipodi:role="line"
         id="tspan4180"
         x="1240.5"
         y="591.24078"
         style="font-style:normal;font-variant:normal;font-weight:bold;font-stretch:normal;font-size:85.3333px;font-family:'XP Ziba';-inkscape-font-specification:'XP Ziba Bold';fill:#1c3c77;fill-opacity:1">قسمت سی<tspan
   id="tspan951"
   style="font-size:85.3333px;letter-spacing:-18px"> </tspan>ام: بغل می<tspan
   id="tspan953"
   style="font-size:85.3333px;letter-spacing:-18px"> </tspan>خوام</tspan></text>
  </g>
</svg>
