<?xml version="1.0" encoding="UTF-8" standalone="no"?>
<svg
   xmlns:dc="http://purl.org/dc/elements/1.1/"
   xmlns:cc="http://creativecommons.org/ns#"
   xmlns:rdf="http://www.w3.org/1999/02/22-rdf-syntax-ns#"
   xmlns:svg="http://www.w3.org/2000/svg"
   xmlns="http://www.w3.org/2000/svg"
   xmlns:xlink="http://www.w3.org/1999/xlink"
   xmlns:sodipodi="http://sodipodi.sourceforge.net/DTD/sodipodi-0.dtd"
   xmlns:inkscape="http://www.inkscape.org/namespaces/inkscape"
   id="svg2"
   version="1.1"
   inkscape:version="0.92.4 (5da689c313, 2019-01-14)"
   width="2481"
   height="663"
   sodipodi:docname="E33P00.svg">
  <metadata
     id="metadata8">
    <rdf:RDF>
      <cc:Work
         rdf:about="">
        <dc:format>image/svg+xml</dc:format>
        <dc:type
           rdf:resource="http://purl.org/dc/dcmitype/StillImage" />
        <dc:title />
      </cc:Work>
    </rdf:RDF>
  </metadata>
  <defs
     id="defs6">
    <linearGradient
       inkscape:collect="always"
       xlink:href="#linearGradient4290"
       id="linearGradient4327"
       gradientUnits="userSpaceOnUse"
       x1="1243.5789"
       y1="254.0174"
       x2="1240.9818"
       y2="421.95773"
       gradientTransform="translate(2.0977971,-7.1019567)" />
    <linearGradient
       inkscape:collect="always"
       id="linearGradient4290">
      <stop
         style="stop-color:#0c182f;stop-opacity:1"
         offset="0"
         id="stop4292-7" />
      <stop
         id="stop4298"
         offset="0.5"
         style="stop-color:#213279;stop-opacity:1" />
      <stop
         style="stop-color:#8f98a2;stop-opacity:1"
         offset="1"
         id="stop4294" />
    </linearGradient>
    <filter
       inkscape:menu-tooltip="Transparent plastic with deep colors"
       inkscape:menu="Bevels"
       inkscape:label="Pepper-title-style"
       style="color-interpolation-filters:sRGB"
       id="filter4268">
      <feGaussianBlur
         in="SourceGraphic"
         result="result6"
         stdDeviation="1.07656"
         id="feGaussianBlur4270" />
      <feComposite
         in2="SourceGraphic"
         in="result6"
         operator="clear"
         id="feComposite4272" />
      <feGaussianBlur
         result="result2"
         stdDeviation="2.073358984375"
         id="feGaussianBlur4274" />
      <feComposite
         in2="SourceGraphic"
         operator="atop"
         result="result91"
         id="feComposite4276"
         stdDeviation="6" />
      <feComposite
         result="result4"
         in="result2"
         operator="xor"
         in2="result91"
         id="feComposite4278"
         stdDeviation="3.7000000000000002" />
      <feGaussianBlur
         in="result4"
         result="result3"
         stdDeviation="2.4161573242187497"
         id="feGaussianBlur4280" />
      <feSpecularLighting
         lighting-color="#7fadda"
         in="result3"
         result="result5"
         specularExponent="35"
         specularConstant="1.9236244370806594"
         surfaceScale="12"
         id="feSpecularLighting4282"
         stdDeviation="3.0299999999999998">
        <feDistantLight
           elevation="61"
           azimuth="104"
           id="feDistantLight880" />
      </feSpecularLighting>
      <feComposite
         k4="0"
         k1="0"
         in2="result5"
         in="SourceGraphic"
         k3="0.7"
         k2="0.8"
         operator="arithmetic"
         result="result7"
         id="feComposite4286" />
      <feComposite
         in="result7"
         operator="in"
         in2="SourceGraphic"
         id="feComposite4288" />
    </filter>
    <linearGradient
       gradientTransform="translate(2.0978,-7.1019609)"
       y2="421.95773"
       x2="1240.9818"
       y1="254.0174"
       x1="1243.5789"
       gradientUnits="userSpaceOnUse"
       id="linearGradient4327-5"
       xlink:href="#linearGradient4290-3"
       inkscape:collect="always" />
    <linearGradient
       id="linearGradient4290-3"
       inkscape:collect="always">
      <stop
         id="stop4292-7-5"
         offset="0"
         style="stop-color:#d0d2d6;stop-opacity:1" />
      <stop
         style="stop-color:#84a1b2;stop-opacity:1"
         offset="0.5"
         id="stop4298-6" />
      <stop
         id="stop4294-2"
         offset="1"
         style="stop-color:#6e7d84;stop-opacity:1" />
    </linearGradient>
    <filter
       id="filter4268-91"
       style="color-interpolation-filters:sRGB"
       inkscape:label="Pepper-title-style"
       inkscape:menu="Bevels"
       inkscape:menu-tooltip="Transparent plastic with deep colors">
      <feGaussianBlur
         id="feGaussianBlur4270-2"
         stdDeviation="1.07656"
         result="result6"
         in="SourceGraphic" />
      <feComposite
         id="feComposite4272-7"
         operator="xor"
         in="result6"
         in2="SourceGraphic" />
      <feGaussianBlur
         id="feGaussianBlur4274-0"
         stdDeviation="6.0001843317972341"
         result="result2" />
      <feComposite
         stdDeviation="6"
         id="feComposite4276-9"
         result="result91"
         operator="atop"
         in2="SourceGraphic" />
      <feComposite
         stdDeviation="3.7000000000000002"
         id="feComposite4278-3"
         in2="result91"
         operator="xor"
         in="result2"
         result="result4" />
      <feGaussianBlur
         id="feGaussianBlur4280-6"
         stdDeviation="3.0319199999999999"
         result="result3"
         in="result4" />
      <feSpecularLighting
         stdDeviation="3.0299999999999998"
         id="feSpecularLighting4282-0"
         surfaceScale="12"
         specularConstant="3"
         specularExponent="35"
         result="result5"
         in="result3"
         lighting-color="rgb(127,173,218)">
        <feDistantLight
           id="feDistantLight4284"
           azimuth="235"
           elevation="45" />
      </feSpecularLighting>
      <feComposite
         id="feComposite4286-6"
         result="result7"
         operator="arithmetic"
         k2="0.8"
         k3="0.7"
         in="SourceGraphic"
         in2="result5"
         k1="0"
         k4="0" />
      <feComposite
         id="feComposite4288-2"
         in2="SourceGraphic"
         operator="in"
         in="result7" />
    </filter>
    <filter
       id="filter4268-9"
       style="color-interpolation-filters:sRGB"
       inkscape:label="Pepper-title-style"
       inkscape:menu="Bevels"
       inkscape:menu-tooltip="Transparent plastic with deep colors">
      <feGaussianBlur
         id="feGaussianBlur4270-7"
         stdDeviation="0.20000000000000001"
         result="result6"
         in="SourceGraphic" />
      <feComposite
         id="feComposite4272-4"
         operator="xor"
         in="result6"
         in2="SourceGraphic" />
      <feGaussianBlur
         id="feGaussianBlur4274-9"
         stdDeviation="6.0001843317972341"
         result="result2" />
      <feComposite
         stdDeviation="6"
         id="feComposite4276-1"
         result="result91"
         operator="atop"
         in2="SourceGraphic" />
      <feComposite
         stdDeviation="3.7000000000000002"
         id="feComposite4278-7"
         in2="result91"
         operator="xor"
         in="result2"
         result="result4" />
      <feGaussianBlur
         id="feGaussianBlur4280-0"
         stdDeviation="3.6962672811059902"
         result="result3"
         in="result4" />
      <feSpecularLighting
         id="feSpecularLighting4282-6"
         surfaceScale="12"
         specularConstant="3"
         specularExponent="35"
         result="result5"
         in="result3"
         lighting-color="#d8bd6d">
        <feDistantLight
           id="feDistantLight4284-0"
           azimuth="235"
           elevation="45" />
      </feSpecularLighting>
      <feComposite
         id="feComposite4286-8"
         result="result7"
         operator="arithmetic"
         k2="0.8"
         k3="0.7"
         in="SourceGraphic"
         in2="result5"
         k1="0"
         k4="0" />
      <feComposite
         id="feComposite4288-5"
         in2="SourceGraphic"
         operator="in"
         in="result7" />
    </filter>
    <linearGradient
       inkscape:collect="always"
       xlink:href="#linearGradient4290"
       id="linearGradient1108"
       x1="1453.9205"
       y1="1019.8389"
       x2="1457.9562"
       y2="1193.3722"
       gradientUnits="userSpaceOnUse" />
  </defs>
  <sodipodi:namedview
     pagecolor="#ffffff"
     bordercolor="#666666"
     borderopacity="1"
     objecttolerance="10"
     gridtolerance="10"
     guidetolerance="10"
     inkscape:pageopacity="0"
     inkscape:pageshadow="2"
     inkscape:window-width="1856"
     inkscape:window-height="1016"
     id="namedview4"
     showgrid="false"
     inkscape:zoom="0.35042952"
     inkscape:cx="1413.695"
     inkscape:cy="276.30975"
     inkscape:window-x="64"
     inkscape:window-y="27"
     inkscape:window-maximized="1"
     inkscape:current-layer="layer1"
     inkscape:document-rotation="0" />
  <g
     inkscape:groupmode="layer"
     id="layer2"
     inkscape:label="artwork"
     sodipodi:insensitive="true">
    <image
       sodipodi:absref="/home/thomas/SpiderOak Hive/PepperCarrot/webcomics-Norwegian-translation-of-ep33-ep33_Spell-of-War/ep33_Spell-of-War/lang/no/../gfx_Pepper-and-Carrot_by-David-Revoy_E33P00.png"
       xlink:href="../gfx_Pepper-and-Carrot_by-David-Revoy_E33P00.png"
       width="2481"
       height="663"
       id="image10"
       x="0"
       y="0" />
  </g>
  <g
     inkscape:groupmode="layer"
     id="layer1"
     inkscape:label="txt"
     style="display:inline">
    <text
       xml:space="preserve"
       style="font-style:normal;font-variant:normal;font-weight:normal;font-stretch:normal;font-size:72.5px;line-height:1.25;font-family:Lavi;-inkscape-font-specification:'Lavi, Normal';font-variant-ligatures:normal;font-variant-caps:normal;font-variant-numeric:normal;font-feature-settings:normal;text-align:center;letter-spacing:0px;word-spacing:0px;writing-mode:lr-tb;text-anchor:middle;display:inline;fill:#2b1100;fill-opacity:1;stroke:none"
       x="1239.1194"
       y="582.47577"
       id="episode-title"><tspan
         sodipodi:role="line"
         id="tspan4180"
         x="1239.1194"
         y="582.47577">Episode 33: Krigsformelen</tspan></text>
    <g
       id="g1113"
       transform="translate(-111.98838,-758.14433)">
      <path
         style="fill:url(#linearGradient1108);fill-opacity:1;stroke:#424140;stroke-width:4.19999981;stroke-miterlimit:4;stroke-dasharray:none;stroke-opacity:1;filter:url(#filter4268-9)"
         d="m 623.19531,941.22852 -15.64453,2.91796 -15.64453,2.91993 -8.70117,3.17968 -8.70117,3.18164 -2.36329,2.51563 -2.36328,2.51562 0.16407,5.9668 0.16601,5.96484 2.14844,4.9961 2.15039,4.99609 2.18945,2.04688 2.18946,2.04492 5.63672,2.10156 5.63867,2.10156 2.43554,2.5918 2.4375,2.59375 -0.0566,9.75972 c -0.0321,5.3689 -0.4262,17.0302 -0.875,25.9122 l -0.8164,16.1484 3.39843,4.4375 c 1.8687,2.4409 3.9759,5.2147 4.6836,6.1621 l 1.28711,1.7227 -0.64063,1.6699 -0.64062,1.6699 -2.66602,0.5801 c -1.4655,0.3191 -3.23188,0.7549 -3.92578,0.9687 l -1.26172,0.3887 0.0156,29.0508 0.0156,29.0488 0.74024,1.0332 c 0.40789,0.5679 2.01793,1.8445 3.57812,2.8379 l 2.83789,1.8066 -0.31445,2.709 -0.3125,2.7071 -3.02735,0.5156 -3.02929,0.5156 -0.51758,9.3067 -0.51758,9.3066 -1.71875,1.7187 -1.7168,1.7188 -6.32421,0.7441 -6.32618,0.7461 -2.40625,2.7989 -2.4082,2.7988 0.56641,4.7851 0.5664,4.7852 1.98243,3.8535 1.98242,3.8535 3.00586,2.8555 3.00781,2.8555 3.89844,1.4648 v 0 l 3.90039,1.4648 12.11133,-0.5039 12.11132,-0.5059 9.58985,-1.9882 c 10.6944,-2.2194 17.14531,-4.3097 20.44531,-6.6211 l 2.20898,-1.5469 h 3.77735 3.7793 l 3.31445,-1.4063 c 1.823,-0.7735 6.04029,-2.175 9.37109,-3.1152 3.3307,-0.9402 8.78053,-2.9754 12.11133,-4.5234 3.3307,-1.548 8.12956,-3.7796 10.66406,-4.959 2.5346,-1.1793 5.3166,-2.1445 6.1836,-2.1445 h 1.57812 l 1.24609,-1.502 1.2461,-1.502 -1.375,-0.4921 c -0.7565,-0.2711 -2.9653,-0.4979 -4.9082,-0.5079 -1.943,-0.01 -4.89515,-0.045 -6.56055,-0.082 -6.5789,-0.1474 -27.82663,0.9813 -28.70703,1.5254 l -0.9336,0.5781 -4.35742,-1.5175 -4.35547,-1.5176 -5.17578,-0.014 -5.17578,-0.016 -1.26367,-1.5235 -1.26367,-1.5234 -4.11524,-0.6562 -4.11328,-0.6582 -2.31641,-2.3165 -2.31445,-2.3144 v -13.0957 -13.0938 l 1.5586,-1.5605 1.56054,-1.5586 3.73828,-0.9609 c 2.0567,-0.5279 6.69258,-1.6915 10.30079,-2.5879 8.5064,-2.1131 26.57394,-9.3469 42.05664,-16.8379 l 12.28125,-5.9414 7.90429,-5.6719 c 4.348,-3.1186 10.17743,-7.6858 12.95313,-10.1504 2.77561,-2.4647 7.6561,-7.5146 10.8457,-11.2207 l 5.79883,-6.7383 3.94531,-8.0742 3.94727,-8.0742 1.30664,-5.5508 1.30664,-5.5508 -0.0898,-7.5703 -0.0918,-7.5703 -1.69532,-6.5605 -1.69531,-6.5606 -4.83593,-10.09375 -4.8379,-10.09375 -6.40234,-8.92773 -6.4043,-8.92774 -4.57031,-4.02343 c -2.5138,-2.2127 -7.37825,-5.59428 -10.81055,-7.51368 -3.4324,-1.91949 -9.97336,-4.85072 -14.53515,-6.51562 l -8.29492,-3.02734 -9.70508,-0.94532 -9.70508,-0.94336 -18.16797,-0.0234 z m 989.85549,21.94336 -1.8731,2.85546 -1.8711,2.85743 -0.5058,5.5957 -0.5039,5.59765 -2.0196,-0.16796 c -1.1103,-0.0925 -6.3336,-1.90901 -11.6074,-4.03711 l -9.5879,-3.86914 -10.8105,0.0664 -10.8125,0.0684 -8.3692,4.14844 -8.3691,4.14648 -7.0625,5.33789 c -3.884,2.9363 -10.1754,8.52633 -13.9824,12.41993 -3.807,3.89375 -10.1932,11.42075 -14.1914,16.72845 -6.8918,9.1488 -18.1211,26.971 -22.584,35.8457 -2.9959,5.9571 -8.9805,23.5929 -11.7793,34.7071 -2.8111,11.1634 -5.6644,25.8074 -6.3125,32.4003 l -0.4492,4.5625 2.1426,11.586 c 1.1781,6.372 3.0703,14.5381 4.205,18.1465 1.1347,3.6084 3.4379,9.147 5.1172,12.3086 l 3.0528,5.748 5.8359,6.8692 5.8359,6.8671 5.1621,4.0371 c 2.8389,2.2205 7.858,5.6756 11.1543,7.6778 l 5.9942,3.6406 7.1523,2.3008 c 3.934,1.2651 9.751,2.6318 12.9258,3.039 v 0 c 8.76,1.1231 13.4551,1.106 22.1016,-0.076 l 7.8945,-1.0781 9.084,-3.0176 9.084,-3.0156 10.8418,-6.7559 10.8398,-6.7539 2.8086,-5.5507 2.8067,-5.5508 1.9473,0.1738 1.9453,0.1738 2.8945,-1.498 2.8965,-1.4981 6.7461,-6.75 6.7461,-6.7519 4.8711,-8.8945 4.873,-8.8946 -3.0918,-9.0879 c -1.8732,-5.5075 5.3204,-3.7621 5.9395,-4.9922 l 4.3613,-10.957 -1.2363,-1.4883 -1.2344,-1.4883 -1.5098,0.5782 -1.5097,0.5801 -13.1563,-4.4004 -15.6738,3.0175 -13.3574,0.6133 c -3.8418,-1.5124 -18.2932,-13.8354 -20.7598,-11.1094 l -10.7774,11.9102 -19.7656,13.5137 c 21.9277,-1.4477 28.4865,8.678 41.8203,9.957 10.2971,0.9877 19.1008,-4.7061 22.2539,8.6211 l -2.6347,1.3633 c -1.4497,0.7497 -3.4831,2.2982 -4.5176,3.4414 l -1.8809,2.0801 -7.1171,2.7187 -7.1172,2.7207 -2.9004,2.7695 -2.8985,2.7696 -1.7929,-0.4688 -1.793,-0.4687 -5.8047,2.5664 c -3.192,1.4116 -10.2004,3.991 -15.5762,5.7324 l -9.7754,3.166 -11.2578,0.5293 -11.2597,0.5293 -4.8887,-2.3594 -4.8906,-2.3593 -4.7871,-4.9024 -4.7871,-4.9004 -2.7032,-4.7363 -2.7031,-4.7344 -2.875,-2.3593 c -1.5815,-1.2979 -3.5443,-3.6528 -4.3613,-5.2325 l -1.4864,-2.8711 2.3633,-2.8437 2.3633,-2.8418 0.625,-7.6016 0.625,-7.5996 2.5918,-8.9433 c 4.1339,-14.2651 9.2085,-27.2594 16.7852,-42.9766 l 7.0547,-14.6348 7.4355,-11.1777 7.4355,-11.1777 9.4082,-9.5352 9.4063,-9.5351 6.3867,-4.2129 c 3.5121,-2.3179 8.3753,-4.9759 10.8067,-5.9043 l 4.4199,-1.68749 2.7969,0.70117 2.7968,0.70312 3.625,3.8105 3.627,3.8125 4.3457,8.4766 4.3476,8.4746 4.3243,12.6562 4.3261,12.6582 0.7442,13.0645 0.7441,13.0644 1.3633,3.2637 1.3633,3.2637 0.014,5.332 c 0.01,2.9322 0.2883,6.3526 0.6231,7.6016 l 0.6094,2.2715 h 0.873 0.875 l 2.5059,-4.9434 2.5058,-4.9453 1.6602,-7.4199 c 0.9138,-4.0809 2.1028,-9.6911 2.6406,-12.4668 0.5378,-2.7756 1.6674,-8.3092 2.5117,-12.2969 2.1565,-10.1843 3.1927,-17.8862 4.5723,-34.0098 l 1.1973,-14.0097 -2.3301,-1.8868 -2.332,-1.8886 H 1636 h -1.8457 l -0.6348,-1.0274 -0.6347,-1.0254 3.9804,-4.52336 3.9825,-4.52343 0.6308,-3.15625 c 0.3471,-1.7356 0.6309,-5.42949 0.6309,-8.20899 v -5.05273 l -3.5215,-3.32032 -3.5215,-3.32226 -5.4551,-2.58008 -5.4551,-2.58008 -5.5527,-0.65234 z m -973.13088,7.3164 h 2.10156 2.10157 l 3.49804,3.07031 3.4961,3.07032 1.68359,-0.48633 c 0.926,-0.2674 6.10888,-1.02319 11.51758,-1.67969 l 9.83398,-1.19336 7.74414,1.15235 7.7461,1.15234 5.88476,2.64062 5.88477,2.64063 4.13086,4.48047 4.13086,4.48047 2.68359,5.72851 2.68555,5.72848 v 9.084 9.084 l -2.71485,5.7949 c -3.5139,7.4997 -8.59427,15.1072 -14.89257,22.3047 l -5.04102,5.7617 0.56055,2.8086 0.5625,2.8067 -1.53711,1.2754 -1.53711,1.2754 -2.16602,-1.1602 -2.16796,-1.1602 -1.99219,1.8028 -1.99024,1.8027 0.60743,2.4219 0.60742,2.4219 -1.61914,2.4707 -1.61719,2.4687 -4.36719,-0.6543 -4.36914,-0.6562 -8.94726,3.5371 -8.94727,3.5351 -11.60742,2.4512 -11.60547,2.4512 -1.51563,-0.4551 c -0.83271,-0.2498 -2.0815,-1.17 -2.77539,-2.0449 l -1.26172,-1.5899 0.0469,-28.8261 0.0449,-28.8243 0.83203,-15.9843 0.83008,-15.98441 1.97656,-2.6875 c 1.08779,-1.4787 3.6454,-3.78671 5.6836,-5.12891 l 3.70703,-2.4414 v -2.41993 c 0,-1.3313 0.47021,-3.29914 1.04492,-4.37304 z m 1161.63478,5.51563 c -1.1709,2.5855 -11.5566,-0.50557 -12.2188,3.49023 -0.5858,3.5345 1.2063,6.84264 4.2344,10.02344 -1.0252,9.2095 2.3268,25.42392 0.6973,27.88282 -0.5568,9.986 0.7207,19.0967 0.4336,25.5117 -0.8733,19.5088 -2.2927,23.3661 -1.5196,25.9141 -0.733,2.8784 -0.07,6.7877 -1.4375,25.2695 l 0.1641,24.3457 -3.4082,23.7266 -2.8262,7.9199 -6.7148,10.6269 -5.5899,1.625 -1.9785,1.9786 -1.9785,1.9804 v 2.8028 2.8027 l 1.668,2.4961 c 0.9178,1.3725 2.8475,3.7937 4.289,5.3808 v 0 l 2.6191,2.8868 9.5899,-0.709 c 17.7313,-8.6505 13.1966,-11.8221 17.5586,-18.4199 l 4.4453,-8.0743 1.5332,-8.707 c 0.9707,-5.0154 -0.8433,-6.9933 -1.3203,-9.1133 1.63,-4.7413 3.5876,-4.0992 3.9219,-10.7617 l 0.4257,-18.2031 1.3243,-16.1192 c 0.01,-13.8926 2.858,-20.85 -0.01,-33.3046 3.5213,-8.5896 0.4998,-26.057 0.5508,-36.7286 2.704,-5.1045 1.3277,-13.7529 1.9414,-19.2441 0.617,-5.51965 3.2049,-7.88584 -0.8106,-13.90234 l -8.0703,-9.99609 z m 249.7265,36.87699 -1.2011,1.4492 -1.2031,1.4492 1.0722,2.0039 1.0723,2.0059 0.2597,20.5175 0.2579,20.5176 -1.2032,2.0977 -1.205,2.0957 -5.8243,1.3047 -5.8242,1.3027 -5.9531,3.1211 -5.9551,3.1211 -0.5508,1.4336 -0.5488,1.4336 1.168,1.873 1.1679,1.8711 v 2.5762 2.5762 l 3.9688,4.25 3.9668,4.25 h 7.2851 7.2833 l 0.789,2.0195 0.7891,2.0176 0.072,26.8144 0.07,26.8145 1.1015,5.957 1.1016,5.957 1.8769,3.6817 c 1.0332,2.0252 3.0472,5.0713 4.4746,6.7676 l 2.5957,3.0839 5.2207,2.6016 5.2208,2.6016 h 5.6601 5.6602 l 4.4882,-2.9024 c 2.468,-1.5964 6.3955,-4.89 8.7286,-7.3183 l 4.2421,-4.4141 1.584,-3.8086 1.586,-3.8086 -1.168,-2.1816 -1.168,-2.1836 3.1309,-2.7989 3.1328,-2.7988 1.6113,-3.8262 c 0.8864,-2.1049 1.9789,-5.7671 2.4278,-8.1367 l 0.8164,-4.3086 -0.8614,-0.5312 -0.8613,-0.5332 -2.1894,1.1719 c -1.2037,0.6441 -7.3571,6.2281 -13.6758,12.4101 l -11.4883,11.2403 -3.1035,1.4941 -3.1016,1.4941 -2.3418,-2.7226 -2.3418,-2.7227 -0.6543,-5.332 -0.6543,-5.332 0.3243,-27.9747 0.3261,-27.9746 1.5137,-1.3808 c 0.8327,-0.7598 5.5236,-2.8988 10.4238,-4.752 l 8.9082,-3.3691 8.5625,-7.6485 c 4.7088,-4.2063 10.6913,-9.3794 13.295,-11.496 2.6039,-2.1166 5.5204,-4.4871 6.4804,-5.2696 l 1.7442,-1.4238 -0.4942,-1.2891 -0.4941,-1.289 -5.2891,0.1015 -5.2871,0.1035 -3.6777,1.5684 -3.6797,1.5664 -7.9277,0.7285 -7.9297,0.7266 -3.5332,1.75 c -1.9429,0.9617 -4.7748,2.0453 -6.293,2.4101 l -2.7598,0.6641 -1.875,-1.875 -1.875,-1.875 -0.5859,-15.2871 -0.5879,-15.2891 -2.125,-2.9843 -2.125,-2.9825 -5.9062,-3.5878 -5.9063,-3.5879 h -2.0156 z m -928.1347,36.0742 -4.9121,0.582 -4.9141,0.582 -7.6015,3.5118 -7.6016,3.5117 -5.5879,5.2851 c -3.0734,2.9066 -8.0479,8.5052 -11.0547,12.4395 l -5.4668,7.1523 -4.0937,8.5801 -4.0918,8.5781 -2.1875,8.0743 -2.1856,8.0761 -0.094,16.1485 -0.096,16.1484 3.7754,10.4902 c 2.0756,5.7696 4.9097,12.4306 6.2988,14.8008 l 2.5254,4.3086 3.6758,2.2715 c 2.0208,1.249 5.3157,2.8583 7.3242,3.5762 v 0 c 2.0079,0.7174 4.3316,1.3083 5.1641,1.3183 0.8327,0.01 3.3302,-1.1069 5.5508,-2.4746 l 4.039,-2.4863 h 2.7168 l 2.7188,-0.01 1.5625,2.2305 1.5625,2.2305 4.8027,-1.2598 4.8047,-1.2617 9.3106,-4.6856 9.3105,-4.6855 5.1074,-4.4688 5.1074,-4.4668 2.0137,-3.9492 c 1.108,-2.1719 3.7846,-6.2885 5.9492,-9.1484 l 3.9356,-5.1992 1.6933,-4.4297 1.6914,-4.4297 -0.5273,-0.5293 -0.5293,-0.5274 -4.6699,2.0664 c -2.5687,1.1361 -5.9689,2.9905 -7.5567,4.1211 l -2.8867,2.0567 h -1.8574 -1.8574 l -6.3496,4.289 -6.3496,4.2891 -0.5606,2.1973 c -0.3077,1.2081 -1.3882,2.9474 -2.4023,3.8652 l -1.8438,1.6699 -1.9179,-1.0273 -1.918,-1.0254 -8.5117,3.4512 -8.5118,3.4531 -7.3515,0.018 -7.3496,0.016 -3.541,-1.4785 -3.543,-1.4805 -2.0586,-4.6562 -2.0606,-4.6563 -0.1699,-6.2285 -0.1699,-6.2285 4.543,-2.2266 4.541,-2.2285 19.1465,-5.0977 c 10.5304,-2.8037 23.2485,-5.804 28.2617,-6.6679 l 9.1152,-1.5703 2.3164,-1.502 2.3164,-1.5039 1.0391,-2.7227 1.0391,-2.7226 -0.3282,-17.6895 -0.3261,-17.6894 -3.3223,-6.7442 -3.3223,-6.7421 -6.2675,-5.6094 -6.2657,-5.6074 -4.373,-2.1368 z m -337.1797,0.01 -5.14649,0.6094 -5.14648,0.6093 -8.36524,4.0137 -8.36523,4.0156 -4.8125,4.8379 c -6.5763,6.6135 -13.48186,15.7926 -17.81836,23.6817 -1.9913,3.6228 -4.71388,9.8019 -6.05078,13.7324 l -2.43164,7.1465 -1.19922,7.4316 -1.19727,7.4317 0.41993,13.5859 0.42187,13.5859 4.43359,11.5899 4.4336,11.5898 4.25586,4.2559 4.25586,4.2558 5.37695,1.5176 c 2.9568,0.834 6.73881,1.6972 8.4043,1.918 h -0.01 c 5.8683,0.7784 8.14223,0.6539 15.11133,-0.8223 l 7.03711,-1.4902 8.85937,-4.211 8.86133,-4.2089 0.0937,-1.0957 c 0.0511,-0.6019 0.0206,-2.9616 -0.0684,-5.2442 l -0.16211,-4.1504 1.6543,-1.6523 1.6543,-1.6543 h 2.50781 2.50781 l 2.03516,-4.5996 c 1.1191,-2.53 2.27752,-6.0968 2.57422,-7.9258 l 0.53906,-3.3242 -1.375,-0.5293 -1.375,-0.5274 -12.10547,7.2422 c -6.6584,3.9834 -15.01757,8.5283 -18.57617,10.0977 l -6.4707,2.8535 -6.14649,0.4395 -6.14648,0.4394 -3.24414,-2.0469 -3.24414,-2.0468 -2.35547,-3.8204 c -1.2951,-2.1017 -3.12531,-5.8375 -4.06641,-8.3007 l -1.71094,-4.4786 1.75977,-3.5957 1.75976,-3.5957 4.03711,-1.3242 c 7.5748,-2.4826 42.37333,-11.125 49.45703,-12.2832 l 7.06446,-1.1543 2.2207,-1.4414 2.2207,-1.4414 1.05469,-3.7949 1.05274,-3.7949 0.01,-12.8184 0.01,-12.8184 -1.13477,-5.3496 -1.13476,-5.3476 -2.51563,-4.9961 -2.51758,-4.9961 -5.35937,-5.1504 -5.35938,-5.1504 -5.23633,-2.8496 z m 64.99218,4.2051 -12.77539,5.7734 -12.77343,5.7754 -4.46485,4.5273 -4.46484,4.5274 v 1.209 1.209 l 8.83203,0.707 8.83203,0.707 2.11719,1.3731 2.11914,1.375 1.19726,4.3672 1.19922,4.3652 -0.28906,35.3262 -0.28906,35.3261 -4.54102,2.2305 -4.54101,2.2285 -5.80469,0.043 -5.80273,0.041 v 1.5605 1.5586 l 2.40234,2.4043 2.40234,2.4024 5.34961,1.5879 c 2.9429,0.8739 6.16039,1.5898 7.15039,1.5898 h 1.80078 l 1.04493,1.9512 1.04492,1.9531 -0.0742,23.0293 -0.0742,23.0274 -0.75586,5.3085 -0.75586,5.3086 -1.94531,1.4727 c -1.07029,0.8097 -2.76307,1.4859 -3.75977,1.5039 l -1.81054,0.033 -2.47852,2.4766 -2.47656,2.4765 v 4.1348 4.1328 l 1.46094,2.8281 c 0.8043,1.5554 3.09143,4.2582 5.08203,6.0059 h 0.002 l 3.61914,3.1777 h 4.16602 4.16601 l 5.13477,-1.4785 c 2.8244,-0.8132 8.54168,-2.441 12.70508,-3.6172 l 7.57031,-2.1386 4.67969,-2.9766 4.68164,-2.9766 6.56836,-1.8203 6.5664,-1.8203 2.88282,-2.2285 c 5.3141,-4.1069 13.22279,-9.0708 16.90039,-10.6074 2.0046,-0.8376 3.64453,-1.7346 3.64453,-1.9942 0,-0.2596 -2.03514,-0.4726 -4.52344,-0.4726 -2.4882,0 -5.86149,-0.2933 -7.49609,-0.6524 l -2.97266,-0.6523 -3.20703,1.6582 -3.20703,1.6582 -5.15235,-0.709 c -2.834,-0.3898 -7.13408,-0.6691 -9.55468,-0.6211 l -4.4004,0.088 -1.69531,-0.9121 c -0.9327,-0.5021 -2.98419,-1.1857 -4.55859,-1.5195 l -2.86328,-0.6075 -2.43555,-2.4355 -2.4375,-2.4375 v -21.7676 -21.7676 l 2.27149,-0.8242 c 1.249,-0.4531 7.4949,-2.5523 13.8789,-4.666 6.384,-2.1136 13.87664,-4.968 16.65234,-6.3418 2.77561,-1.3738 8.07354,-4.7285 11.77344,-7.4551 l 6.72852,-4.957 6.07031,-6.4902 6.07031,-6.4883 3.73242,-6.6778 3.73438,-6.6757 1.88867,-6.0704 1.89063,-6.0683 v -6.8145 -6.8164 l -1.44532,-4.7988 -1.44531,-4.8008 -2.76953,-3.998 -2.77148,-3.9981 -8.01758,-6.0429 c -4.4095,-3.3226 -10.20748,-7.1511 -12.88477,-8.5079 -2.6774,-1.3567 -8.80654,-3.6074 -13.61914,-5.0019 l -8.75,-2.5352 h -10.41211 -10.41211 l -1.58789,-1.5859 c -0.8723,-0.8723 -1.58594,-2.1959 -1.58594,-2.9395 v -1.3515 l -3.02148,-2.543 c -1.66229,-1.3988 -3.89759,-2.8209 -4.9668,-3.1601 z m 116.73047,0.064 -8.99023,4.0469 c -4.9449,2.2265 -9.28112,4.0488 -9.63672,4.0488 -1.04829,0 -13.78631,8.1458 -16.25781,10.3965 -1.2491,1.1375 -2.27149,2.4223 -2.27149,2.8555 v 0.7871 l 3.28125,0.5019 c 1.8042,0.2756 7.04594,1.0358 11.64844,1.6895 l 8.36914,1.1875 1.47266,2.8477 1.47265,2.8496 v 40.8671 40.8692 l -0.98437,0.6074 c -0.54109,0.3343 -4.49386,1.2807 -8.78516,2.1016 l -7.80273,1.4922 -0.78711,1.2382 c -0.4324,0.6815 -0.64211,1.693 -0.4668,2.2461 l 0.31836,1.0059 3.95508,0.7969 c 2.175,0.439 6.33951,1.065 9.25391,1.3906 l 5.29882,0.5918 v 27.9434 27.9433 l -1.34375,1.8379 -1.34375,1.8379 -4.46093,2.1406 -4.45899,2.1406 -1.35742,2.8614 -1.35938,2.8613 0.6211,3.3086 0.62109,3.3105 2.75586,3.5703 c 1.5155,1.9639 3.8915,4.3061 5.2793,5.2032 v 0 l 2.52344,1.6328 5.04687,-0.3437 5.04492,-0.3438 9.8086,-2.666 9.80859,-2.666 4.32227,-2.1992 c 2.3773,-1.2099 6.3165,-3.9524 8.7539,-6.0938 l 4.43164,-3.8925 h 1.2949 c 0.7119,0 2.6416,-1.133 4.2871,-2.5176 l 2.9903,-2.5176 6.4218,-2.7891 c 3.532,-1.5336 7.328,-3.3183 8.4336,-3.9668 l 2.0098,-1.1796 -0.6894,-0.6895 -0.6895,-0.6895 -5.8633,0.1153 c -3.2245,0.063 -10.3703,0.1285 -15.8789,0.1445 l -10.01562,0.029 -5.24023,-1.0879 -5.24219,-1.0879 -2.40625,-2.5625 -2.40625,-2.5625 v -21.6543 -21.6562 l 1.51367,-0.9571 c 0.8327,-0.526 2.49913,-0.9607 3.70313,-0.9707 l 2.18945,-0.016 12.52735,-4.5859 12.52534,-4.5879 4.9668,-3.2441 4.9668,-3.2461 0.3497,-2.5137 c 0.192,-1.3826 0.8215,-3.0902 1.4003,-3.7949 l 1.0528,-1.2813 3.2187,0.6035 3.2188,0.6055 5.0586,-5.5371 c 2.7827,-3.0446 6.8082,-8.1708 8.9453,-11.3906 l 3.8867,-5.8535 2.9531,-8.5704 2.9551,-8.5722 -0.4512,-7.6211 -0.4511,-7.6231 -2.2403,-5.0468 -2.2402,-5.0469 -3.7344,-3.8574 c -2.0544,-2.1219 -6.7404,-6.0947 -10.414,-8.8282 l -6.6797,-4.9707 -5.7403,-2.539 c -3.1573,-1.3963 -8.9995,-3.4413 -12.9824,-4.545 l -7.2422,-2.0078 -10.11326,-0.014 c -5.5625,-0.01 -11.13567,-0.2864 -12.38476,-0.6211 l -2.27149,-0.6094 v -2.7539 -2.7539 l -1.76758,-1.5996 c -0.9725,-0.8801 -3.05912,-2.0916 -4.63672,-2.6914 z m 240.03125,1.5606 -5.6152,0.1191 -5.6133,0.1191 -8.7012,3.1973 -8.7012,3.1953 -2.2402,2.3867 -2.2402,2.3848 0.3418,1.707 0.3437,1.709 5.0469,1.9297 5.0469,1.9317 2.2031,-1.1602 2.2031,-1.1602 1.6973,0.6524 1.6953,0.6504 -0.582,2.2324 -0.584,2.2305 2.2344,2.3769 2.2363,2.377 0.332,13.0566 0.334,13.0586 -1.2402,5.2832 -1.2383,5.2852 -0.6074,20.1855 -0.6075,20.1875 -8.5859,0.039 -8.584,0.041 -1.2558,0.7754 -1.2579,0.7773 v 2.4981 2.4961 l 2.5235,4.9804 2.5234,4.9786 3.7031,3.7031 3.7051,3.7031 9.6699,-0.7227 c 5.3186,-0.3975 14.6671,-1.0575 20.7735,-1.4687 l 11.1015,-0.7481 4.25,-2.1992 4.25,-2.2011 h 2.8868 c 3.2401,0 11.4881,-2.4363 15.4355,-4.5606 l 2.5977,-1.3984 2.0449,0.5351 2.0469,0.5352 1.7285,-1.7305 1.7305,-1.7285 -0.9668,-0.9648 -0.9649,-0.9668 -2.1074,1.1269 -2.1055,1.127 -2.7969,-0.6641 c -1.538,-0.3656 -3.4778,-1.2498 -4.3105,-1.9648 -0.8327,-0.7147 -2.7979,-1.6199 -4.3672,-2.0118 l -2.8535,-0.7128 -2.5078,1.3437 -2.5078,1.3418 -1.9785,-1.2363 -1.9805,-1.2364 -2.0703,1.1075 -2.0703,1.1074 -0.5489,-2.0996 -0.5488,-2.0996 -4.3379,-1.918 -4.3379,-1.9199 -1.7285,-2.6387 -1.7305,-2.6387 0.1016,-7.8222 0.1016,-7.8223 2.58,-15.1191 c 1.4187,-8.3149 3.312,-17.3884 4.2071,-20.1641 0.8951,-2.7756 2.9163,-7.6254 4.4922,-10.7773 l 2.8652,-5.7305 2.2656,-1.5879 2.2656,-1.5859 h 5.5137 5.5137 l 2.3359,2.1933 c 1.2848,1.207 2.336,2.5492 2.336,2.9824 0,0.4331 1.1356,1.9228 2.5234,3.3106 l 2.5234,2.5234 -0.016,1.8125 c -0.01,0.9967 -0.7141,3.8554 -1.5683,6.3535 l -1.5528,4.543 -1.6523,1.2617 -1.6524,1.2617 h -2.6797 -2.6777 l -1.8066,-1.9941 -1.8047,-1.9961 -0.836,0.5176 -0.8359,0.5176 1.0957,2.4043 1.0957,2.4062 6.0254,2.7031 6.0254,2.7032 2.6816,-2.5625 2.6817,-2.5625 4.4492,-1.9883 4.4512,-1.9883 1.7988,-6.9023 c 0.9897,-3.7965 1.8274,-7.794 1.8594,-8.8848 l 0.057,-1.9844 -4.1621,-8.6152 -4.1621,-8.6133 -2.5879,-2.7754 -2.5859,-2.7773 h -2.8653 -2.8632 l -0.9063,-2.3848 -0.9082,-2.3848 -1.6738,-0.6425 c -0.9207,-0.3532 -3.7634,-0.6426 -6.3184,-0.6426 h -4.6465 l -4.3867,2.123 -4.3867,2.125 -5.7734,6.4532 -5.7715,6.455 h -1.2618 -1.2617 v -5.0801 -5.0781 l -1.4297,-3.4219 -1.4296,-3.4219 -2.7969,-1.832 z m 770.1387,5.3164 -7.4824,0.6113 -7.4805,0.6094 -5.5156,2.5254 c -3.0338,1.3888 -8.3639,4.5584 -11.8457,7.0429 l -6.3301,4.5157 -3,3.8066 c -4.7847,3.643 -8.3502,13.9156 -11.2031,22.2539 l -2.1661,6.3359 -0.9824,6.7872 -0.9805,6.7851 -0.021,9.2871 -0.02,9.2852 1.1114,5.3496 1.1132,5.3476 2.9414,6.0567 2.9395,6.0566 3.957,4.627 3.9571,4.6269 5.3632,3.6719 5.3653,3.6719 5.5508,1.5234 5.5507,1.5254 12.6172,-0.2441 12.6153,-0.2461 5.3906,-2.9746 5.3887,-2.9746 4.705,-5.1543 c 2.5872,-2.8347 5.604,-6.8343 6.7051,-8.8868 l 2.002,-3.7304 -1.2442,-1.9942 c -0.6847,-1.0965 -1.2461,-2.6957 -1.2461,-3.5547 v -1.5625 l 3.5098,-2.0703 3.5078,-2.0703 1.0352,-3.6992 c 0.5692,-2.0347 1.7697,-7.5606 2.6679,-12.2793 l 1.6329,-8.5781 -0.5645,-9.5899 -0.5645,-9.5879 -1.6054,-6.0566 c -0.884,-3.3309 -3.1845,-9.3989 -5.1114,-13.4844 l -3.5039,-7.4277 -3.1211,-3.9395 -3.1191,-3.9394 -4.2168,-2.4727 -4.2168,-2.4707 -7.043,-1.6562 z m -87.4141,0.022 -5.5488,2.7148 -5.5488,2.7148 -4.7442,5.9493 -4.7422,5.9472 -1.1504,0.01 -1.1484,0.012 -0.6523,-3.2812 -0.6543,-3.2793 -2.2344,-2.6387 c -1.2292,-1.4506 -3.4137,-3.387 -4.8535,-4.3027 l -2.6172,-1.6641 -12.7969,2.2832 -12.7969,2.2832 0.2754,1.377 0.2735,1.3769 5.1601,1.9219 5.1582,1.9219 1.7774,1.9648 1.7773,1.9629 1.0078,4.832 1.0078,4.8301 -0.2148,35.3262 -0.2149,35.3262 -0.9746,1.1835 -0.9746,1.1817 -4.1777,0.707 -4.1797,0.7051 -2.8281,2.8281 -2.8281,2.8281 v 1.9551 1.9551 l 2.5937,3.9258 c 1.4266,2.1593 3.5847,4.7762 4.7949,5.8144 v 0 l 2.1992,1.8887 9.084,-0.7285 c 4.986,-0.5124 13.4087,-1.0492 18.6934,-1.4414 l 9.6094,-0.7129 3.2304,-1.9082 3.2305,-1.9082 1.5762,-3.9414 1.5761,-3.9414 6.6368,-6.3789 6.6347,-6.3789 -0.7148,-1.1563 -0.7149,-1.1562 -1.664,0.7207 c -0.9153,0.3962 -4.3899,0.8444 -7.7207,0.9941 -3.3307,0.1498 -8.5542,0.7193 -11.6074,1.2656 l -5.5508,0.9922 -1.209,-0.9883 c -0.6655,-0.5439 -1.7419,-2.5969 -2.3906,-4.5625 l -1.1797,-3.5742 0.6718,-7.1953 c 1.0784,-11.5596 4.5949,-33.0105 6.3086,-38.4844 0.869,-2.7757 2.4893,-7.205 3.5997,-9.8418 l 2.0175,-4.7929 h 2.5332 2.5313 l 3.2988,2.0371 3.2969,2.0371 1.7168,4.2715 1.7148,4.2695 0.098,8.3281 0.098,8.3262 h 1.6348 1.6328 l 1.7266,-3.2813 c 0.9499,-1.8042 3.0728,-5.3241 4.7168,-7.8222 l 2.9902,-4.541 1.4395,-13.086 1.4414,-13.0859 -1.3379,-2.5586 c -1.7066,-3.2646 -6.2117,-7.4519 -10.0977,-9.3867 -1.6653,-0.8292 -4.5274,-1.8316 -6.3613,-2.2266 z m -1104.19139,8.0566 2.38281,0.5996 2.38476,0.5977 1.62696,4.0664 1.62695,4.0664 v 10.6445 10.6445 l -1.0957,2.0469 -1.09571,2.0469 -4.20312,1.8301 -4.20313,1.83 -16.5957,3.7325 c -9.1273,2.0526 -17.1423,3.9419 -17.8125,4.1992 l -1.21875,0.4687 -0.71484,-1.1582 -0.71485,-1.1562 4.27735,-8.2481 c 2.3527,-4.5363 5.82595,-10.3775 7.71875,-12.9804 1.8929,-2.6029 6.83452,-7.9018 10.98242,-11.7754 l 7.54101,-7.043 4.55665,-2.2051 z m 341.43949,0.7109 2.1015,3.5332 2.0996,3.5313 -0.1367,11.7109 -0.1367,11.711 -1.1152,2.082 -1.1133,2.082 -6.3184,2.0782 c -3.4753,1.1432 -12.4509,3.4375 -19.9453,5.0976 -7.4942,1.66 -14.6475,3.314 -15.8965,3.6758 l -2.2715,0.6582 v -2.2656 -2.2637 l 4.1856,-7.6934 c 2.3019,-4.2318 5.9864,-10.0732 8.1875,-12.9804 l 4.0019,-5.2871 -0.6191,-2.4629 -0.6172,-2.4629 1.6602,-1.6602 1.6601,-1.6601 2.3965,0.6015 2.3984,0.6016 6.2051,-4.2129 6.2051,-4.2129 3.5352,-0.1016 z m 548.0937,5.8184 c -2.4341,0.8551 -5.0113,2.2084 -5.5996,4.8574 -3.0441,2.3101 -5.0067,-3.0424 -7.2891,-0.7187 -1.5655,5.8543 -0.2981,9.4173 -0.5976,13.1797 -0.7045,8.8502 -2.4938,17.6571 -2.0762,26.166 -2.2742,7.5454 -2.1596,12.7009 -2.6855,18.498 l -1.8829,9.832 -2.4453,6.7383 v 4.8164 4.8184 l 1.5196,5.1172 1.5215,5.1172 3.8925,3.5195 3.8946,3.5176 5.3554,1.7793 5.3555,1.7773 9.166,-0.5722 9.1641,-0.5743 7.8496,-2.5918 c 4.3175,-1.4254 10.6027,-3.75 13.9668,-5.166 l 6.1172,-2.5742 1.4258,1.1836 1.4257,1.1816 v 1.7598 1.7598 l 2.0371,2.5918 2.0391,2.5918 2.252,0.4336 c 1.238,0.2391 2.5085,0.4962 2.8242,0.5722 0.3156,0.076 3.0415,-0.5861 6.0566,-1.4707 l 5.4805,-1.6074 5.3398,-3.0312 5.3399,-3.0313 1.6347,-2.4961 1.6368,-2.4961 0.7773,-4.9199 0.7773,-4.9219 4.1075,-6.1836 c 2.2585,-3.4007 2.3714,-2.4302 2.3164,-2.9433 l -0.3985,-3.7227 -4.5761,-0.3965 c -1.3399,0.1969 -2.1181,1.8055 -10.5899,6.1504 -3.1614,1.6212 -6.2268,2.9473 -6.8125,2.9473 h -1.0664 v -1.9063 -1.9043 l 3.0039,-6.4218 c 1.2323,-7.3188 1.348,-16.8915 2.2012,-25.3497 0.7011,-6.9511 2.3113,-12.7385 1.9219,-19.4296 -0.5434,-9.3385 3.213,-15.6617 -2.8399,-21.3653 l -7.7148,-3.9746 -9.9922,-0.834 c -2.1929,7.1632 -2.5279,6.7541 -3.1231,19.1582 -0.23,4.7606 -0.014,10.8859 0,17.0313 3.3822,2.7327 2.8591,5.8204 -0.1386,7.6855 -0.5275,11.556 -2.1125,21.7719 -3.5,26.7051 l -2.0137,3.2598 -3.7891,2.6133 c -2.0842,1.4377 -6.3584,3.7849 -9.498,5.2168 l -5.709,2.6035 -7.7539,1.4843 -7.7539,1.4844 h -5.4395 l -3.4687,-0.9863 -3.5918,-1.4883 -0.918,-5.709 0.8301,-5.9785 c 0.3791,-1.2763 0.1082,-7.0525 1.4609,-9.0547 l 3.1797,-15.6426 1.9727,-19.6367 c 3.3376,-12.5745 4.529,-13.173 5.3574,-19.9258 0.3299,-2.6886 0.825,-4.9357 -0.7558,-8.0214 z m 296.8867,2.7598 h 3.3106 3.3086 l 5.373,4.375 c 2.9545,2.4065 6.5982,5.1796 8.0977,6.1621 l 2.7265,1.7871 -0.041,4.6875 c -0.023,2.5788 0.2597,11.0714 0.6289,18.8711 l 0.6719,14.1816 -1.1133,7.168 -1.1113,7.1699 -1.9629,4.5762 -1.9609,4.5781 -3.8633,3.8477 -3.8613,3.8476 -5.5665,1.2617 c -3.0616,0.694 -7.1436,1.22 -9.0703,1.17 -4.8703,-0.1265 -9.9616,-1.717 -13.4531,-4.2032 l -2.957,-2.1074 -4.3633,-9.2109 -4.3633,-9.211 -0.6933,-5.8984 -0.6934,-5.9004 -1.8633,-1.5957 -1.8633,-1.5937 v -1.5606 -1.5605 l 3.9844,-4.8204 c 1.3087,-3.1807 4.1944,-5.5961 4.4531,-6.5429 0.2586,-0.947 0.7473,-3.3694 1.086,-5.3848 l 0.6152,-3.6641 3.8399,-5.9414 3.8378,-5.9394 3.252,-2.7344 3.2519,-2.7363 5.1817,-1.5391 z m -963.916,9.9062 7.5684,1.6016 7.5703,1.6015 4.0371,2.8086 4.0371,2.8067 1.8262,3.5078 1.8261,3.5058 -0.5117,4.75 -0.5117,4.75 -2.8281,5.834 -2.8281,5.836 -7.0645,7.4882 -7.0664,7.4903 -7.3164,5.4316 -7.3164,5.4317 -7.28908,3.4941 c -4.00969,1.9216 -8.04379,3.4941 -8.96289,3.4941 h -1.66992 l -1.38672,-1.6679 -1.38476,-1.668 -0.29688,-28.5039 -0.29492,-28.5059 2.31445,-2.6132 2.31446,-2.6133 6.05664,-1.5449 c 3.33079,-0.8498 9.00876,-1.8088 12.61722,-2.1309 z m -128.18553,0.7442 8.58007,0.025 8.57813,0.027 5.73633,1.7226 5.73828,1.7227 3.13086,2.6348 c 1.7222,1.449 3.79657,3.9205 4.60937,5.4922 l 1.47657,2.8593 v 4.3399 l -0.002,4.3379 -2.88476,6.0566 -2.88672,6.0566 -4.87305,5.8848 -4.875,5.8848 -8.13477,6.5312 -8.13671,6.5332 -8.9336,4.4883 c -4.9139,2.4691 -9.45625,4.476 -10.09375,4.459 -0.6375,-0.017 -1.95428,-0.4948 -2.92578,-1.0606 l -1.76562,-1.0273 v -30.2461 -30.2441 l 3.2539,-1.9785 3.25586,-1.9805 5.57617,-1.2598 z m 481.03323,8.1875 -5.4668,1.2226 -5.4668,1.2227 -4.4297,2.8105 -4.4317,2.8106 -4.2929,5.1269 -4.291,5.127 -2.0118,4.5449 -2.0097,4.543 -0.6406,4.6699 -0.6407,4.6699 2.2403,2.3848 2.2402,2.3847 -1.5664,3.0293 -1.5664,3.0293 1.4453,1.1992 1.4434,1.1973 -0.6055,3.0274 -0.6055,3.0293 2.836,5.9316 2.8359,5.9316 -7.832,8.1973 -7.8321,8.1992 -3.1875,6.7246 -3.1855,6.7266 0.031,7.5703 0.033,7.5703 2.2442,4.2617 c 1.2343,2.344 3.6769,5.8927 5.4277,7.8868 l 3.1836,3.625 5.1367,2.6054 c 2.8256,1.4325 7.4099,3.4131 10.1856,4.4024 v 0.01 l 5.0468,1.7988 5.086,0.074 5.0859,0.074 9.5489,-2.9921 9.5488,-2.9903 5.5508,-3.543 c 3.0533,-1.9491 6.161,-3.5563 6.9062,-3.5703 0.7451,-0.014 2.5103,0.8821 3.9219,1.9922 1.4115,1.1104 3.1755,2.0196 3.9199,2.0196 0.7444,0 2.8406,0.906 4.6582,2.0136 l 3.3047,2.0157 h 3.1035 3.1055 l 2.3769,-2.5313 2.3789,-2.5312 1.3946,-3.7774 c 0.7676,-2.0774 1.4809,-4.4183 1.584,-5.2031 l 0.1875,-1.4278 -4.0489,-3.1152 c -2.2263,-1.7134 -5.3523,-4.0612 -6.9472,-5.2187 l -2.9004,-2.1055 2.1543,-5.7559 2.1523,-5.7558 v -4.9004 -4.9004 l 1.3848,-0.5313 c 0.7616,-0.2923 3.6007,-0.8529 6.3086,-1.246 l 4.9238,-0.7149 3.166,-3.1523 c 1.7418,-1.7332 6.3977,-6.1026 10.3457,-9.711 l 7.1778,-6.5605 v -1.336 -1.3339 l -5.2988,0.6015 c -2.9144,0.3301 -10.7505,0.7792 -17.4121,0.9981 l -12.1114,0.3965 -5.0468,1.1484 c -2.7757,0.6307 -8.8241,2.3205 -13.4414,3.7559 l -8.3946,2.6093 -1.4453,1.4453 -1.4473,1.4473 v 2.1035 2.1035 l 2.5293,3.3145 2.5274,3.3144 3.7812,0.3145 3.7793,0.3125 -0.2031,2.8633 -0.2012,2.8652 -1.205,1.4512 -1.2051,1.4531 -9.1914,-9.7559 c -5.0547,-5.3662 -9.5762,-10.4185 -10.0488,-11.2246 l -0.8594,-1.4648 3.0215,-2.6816 c 1.6621,-1.4753 4.6886,-5.1812 6.7265,-8.2344 2.0379,-3.0531 5.4511,-7.7744 7.584,-10.4903 l 3.877,-4.9375 2.2285,-7.0605 2.2285,-7.0586 -0.5156,-3.8516 -0.5176,-3.8496 -3.6758,-6.0527 -3.6777,-6.0527 -5.7617,-3.6094 -5.7618,-3.6074 -5.2558,-1.6602 z m -1.0723,21.3046 3.0313,1.2559 3.0312,1.2559 2.5039,2.9746 2.502,2.9746 v 3.2031 3.2031 l -1.9454,3.1914 -1.9472,3.1914 -7.791,6.6504 h -0.01 c -4.2858,3.6569 -8.121,6.6485 -8.5234,6.6485 -1.4021,0 -3.1761,-2.9665 -4.5957,-7.6836 l -1.4297,-4.75 v -3.9082 -3.9102 l 1.3613,-3.248 c 0.7486,-1.7862 2.5923,-4.7089 4.0977,-6.4942 l 2.7382,-3.2461 3.4883,-0.6543 z m -13.0605,64.8204 1.2187,0.01 1.2188,0.01 10.416,10.1855 10.416,10.1836 -0.4942,1.2871 -0.4941,1.2871 -4.4375,2.1485 v -0.01 l -4.4375,2.1465 -6.4941,-0.031 -6.4942,-0.029 -2.0195,-1.1075 c -1.1103,-0.609 -3.9473,-3.0771 -6.3066,-5.4843 l -4.2911,-4.377 v -1.3652 -1.3653 l 3.2813,-3.0312 c 1.8042,-1.667 4.5493,-4.7027 6.0996,-6.7461 z"
         id="path1129"
         inkscape:connector-curvature="0" />
    </g>
  </g>
</svg>
