<?xml version="1.0" encoding="UTF-8" standalone="no"?>
<!-- Created with Inkscape (http://www.inkscape.org/) -->

<svg
   xmlns:dc="http://purl.org/dc/elements/1.1/"
   xmlns:cc="http://creativecommons.org/ns#"
   xmlns:rdf="http://www.w3.org/1999/02/22-rdf-syntax-ns#"
   xmlns:svg="http://www.w3.org/2000/svg"
   xmlns="http://www.w3.org/2000/svg"
   xmlns:xlink="http://www.w3.org/1999/xlink"
   xmlns:sodipodi="http://sodipodi.sourceforge.net/DTD/sodipodi-0.dtd"
   xmlns:inkscape="http://www.inkscape.org/namespaces/inkscape"
   id="svg2"
   version="1.1"
   inkscape:version="0.92.2 2405546, 2018-03-11"
   width="2481"
   height="3503"
   sodipodi:docname="E04P01.svg">
  <metadata
     id="metadata8">
    <rdf:RDF>
      <cc:Work
         rdf:about="">
        <dc:format>image/svg+xml</dc:format>
        <dc:type
           rdf:resource="http://purl.org/dc/dcmitype/StillImage" />
        <dc:title />
      </cc:Work>
    </rdf:RDF>
  </metadata>
  <defs
     id="defs6" />
  <sodipodi:namedview
     pagecolor="#ffffff"
     bordercolor="#666666"
     borderopacity="1"
     objecttolerance="10"
     gridtolerance="10"
     guidetolerance="10"
     inkscape:pageopacity="0"
     inkscape:pageshadow="2"
     inkscape:window-width="1920"
     inkscape:window-height="1033"
     id="namedview4"
     showgrid="false"
     inkscape:zoom="0.47669614"
     inkscape:cx="2173.3566"
     inkscape:cy="842.64401"
     inkscape:window-x="0"
     inkscape:window-y="47"
     inkscape:window-maximized="0"
     inkscape:current-layer="layer1" />
  <g
     inkscape:groupmode="layer"
     id="layer2"
     inkscape:label="artwork"
     sodipodi:insensitive="true">
    <image
       sodipodi:absref="/home/midgard/git/peppercarrot/comics/ep04_Stroke-of-genius/lang/si/../gfx_Pepper-and-Carrot_by-David-Revoy_E04P01.png"
       xlink:href="../gfx_Pepper-and-Carrot_by-David-Revoy_E04P01.png"
       y="0"
       x="0"
       id="image10"
       height="3503"
       width="2481" />
  </g>
  <g
     inkscape:groupmode="layer"
     id="layer3"
     inkscape:label="speechbubbles">
    <path
       style="fill:#ffffff;stroke:none;stroke-width:1px;stroke-linecap:butt;stroke-linejoin:miter;stroke-opacity:1"
       d="m 459.84388,2398.7991 c -6.07638,-45.0837 -12.15277,-137.0725 0,-157.1097 7.73359,0 20.43877,-0.4553 20.43877,-0.4553 l -12.15279,-24.5911 22.09597,5.9201 11.04797,-8.197 -7.18119,-13.6617 19.88637,6.3754 9.94318,-13.2063 16.57197,9.5632 8.28599,-13.6617 18.22916,10.9294 33.69633,-5.9201 c 82.68716,-2.413 164.44975,-6.0964 251.34152,-2.7324 l 26.51515,-8.6523 7.73358,12.7508 13.80997,0.4554 13.25758,-5.4646 13.25757,5.92 44.19191,-4.0985 14.36237,11.8402 17.12434,-10.0186 5.524,13.2063 17.1243,-8.197 2.762,8.6524 40.8776,-10.0186 -6.0764,20.4925 c 0,0 30.3819,9.1079 51.9256,2.277 2.2095,4.554 -1.1049,12.7509 -1.1049,12.7509 l 11.048,4.5539 v 11.8402 c 0,0 22.0959,15.4832 24.3055,19.5818 2.2096,4.0985 7.1812,116.1245 -0.5524,133.8846 6.0764,0 9.9433,2.7324 9.3909,5.4648 -0.5524,2.7323 -4.9717,10.4739 -4.9717,10.4739 0,0 6.0765,7.2862 4.4193,9.5632 -1.6573,2.277 -4.9717,5.4647 -4.9717,5.4647 0,0 5.5241,5.9201 3.8668,7.7416 -1.6572,1.8216 -11.0479,5.0093 -14.9147,6.8309 4.4192,3.6431 8.2859,11.3848 4.9716,13.2063 -3.3144,1.8216 -11.048,3.1877 -11.048,3.1877 l -2.7619,4.5539 c 0,0 -1.1048,9.1079 -3.8668,9.5633 -2.7621,0.4554 -14.3624,-4.554 -16.0197,-3.6432 -1.6572,0.9107 -6.0764,8.1971 -8.8384,8.1971 -2.7619,0 -11.6004,-8.6525 -11.6004,-8.6525 -1.1804,1.9464 -147.06151,5.2129 -159.09083,3.1878 -12.10227,-2.0374 -59.65908,2.7323 -66.28788,2.7323 -6.62878,0 -34.24873,-1.3661 -38.11552,-2.2769 -3.86679,-0.9108 -19.33396,-4.0986 -24.85795,-3.6432 -5.524,0.4554 -16.01958,5.0093 -22.09596,5.0093 -6.07639,0 -40.87751,-2.7323 -47.50631,-2.2769 -6.62879,0.4554 -37.01073,2.2769 -41.98231,2.2769 -4.97159,0 -60.76389,-5.0093 -66.84027,-5.4647 -6.07639,-0.4554 -32.59154,4.554 -37.56313,4.0986 -4.97159,-0.4554 -33.14394,-4.554 -41.98232,-4.0986 -8.83838,0.4554 -41.98231,-5.9201 -44.19192,-5.4647 -2.20959,0.4554 -5.54633,0.9098 -25.96275,0 10.49559,-6.8308 7.18119,-12.7508 7.18119,-12.7508 l -7.73358,-3.6432 1.10479,-4.0985 -16.01957,-6.8309 2.2096,-5.0092 1.10479,-8.1971 -16.01956,-6.3755 25.41035,-18.2156 z"
       id="path3894"
       inkscape:connector-curvature="0"
       sodipodi:nodetypes="cccccccccccccccccccccccccccccccscscccccsccssscssssssssssscccccccccc" />
    <path
       style="fill:#ffffff;stroke:none;stroke-width:1px;stroke-linecap:butt;stroke-linejoin:miter;stroke-opacity:1;color:#000000;fill-opacity:1;fill-rule:nonzero;marker:none;visibility:visible;display:inline;overflow:visible;enable-background:accumulate"
       d="m 818.04625,2447.3394 c 1.81385,78.9025 3.6277,268.4498 28.11468,311.9822 24.48697,43.5324 33.55622,70.7401 98.85481,79.8094 -68.92629,-32.6493 -89.78557,-105.2033 -96.13404,-230.3589 -6.34847,-125.1557 43.5324,-212.2205 43.5324,-212.2205 l -68.01937,-3.6277 z"
       id="path3896"
       inkscape:connector-curvature="0" />
    <path
       style="color:#000000;display:inline;overflow:visible;visibility:visible;fill:#ffffff;fill-opacity:1;fill-rule:nonzero;stroke:none;stroke-width:1px;marker:none;enable-background:accumulate"
       d="m 652.49304,2537.5386 c 14.24074,-3.6592 14.24074,-10.9776 8.3071,-20.3288 4.15356,-0.4065 18.39428,2.0329 16.02082,-4.4723 3.5602,-0.8131 8.3071,-0.8131 5.34028,-6.0987 4.15356,-0.4066 16.02082,1.6263 13.05402,-3.6592 7.71372,-1.2197 80.10412,-2.846 106.21214,-0.8131 26.10801,2.0329 96.12495,0.4066 103.24533,0 7.12036,-0.4066 61.70984,0 66.45676,0 4.7469,0 23.73454,4.4723 29.66821,6.9118 8.9004,-3.2526 20.1744,-2.0329 20.1744,-2.0329 0,0 0,13.8236 1.78,15.0433 1.7801,1.2197 10.6806,-2.0329 12.4607,0 1.7801,2.0329 -12.4607,14.2302 -10.6806,14.6368 1.7801,0.4065 16.0209,4.8789 16.0209,6.5051 0,1.6263 -11.2739,9.3512 -10.6806,9.7578 0.5934,0.4066 9.4938,5.6921 8.3071,10.1645 10.6806,1.6263 16.0209,5.692 18.9877,8.538 -4.7469,5.2856 -16.0209,10.1645 -18.3943,13.0105 2.9668,4.8789 10.6806,11.3841 8.9004,13.417 -1.7801,2.0329 -10.0872,1.6263 -16.0208,-0.8131 2.3735,6.0986 1.7801,54.8876 -8.9005,72.777 2.9669,4.0657 8.3071,6.9117 9.4939,10.9775 1.1867,4.0658 -2.3735,10.571 -1.7801,12.6038 0.5933,2.0329 5.3403,8.9448 4.7469,12.1973 -0.5934,3.2526 -2.9668,6.5052 -6.527,8.5381 -0.5934,3.2526 2.3734,5.6921 -0.5934,6.5053 -2.9668,0.8131 -14.8341,-3.6593 -17.8009,-2.8461 -2.9668,0.8131 -0.5934,11.7907 -3.5602,13.8236 -2.9668,2.0328 -67.05011,7.3183 -81.29085,2.846 -14.83408,-0.8132 -124.60642,16.6696 -170.29545,9.7579 -5.34026,-0.8132 -4.15354,-3.6592 -8.30708,-4.4725 -4.15356,-0.8131 -6.52701,2.033 -15.42747,1.2199 -7.71373,-4.0659 -17.80091,-4.4724 -33.82175,-23.9881 -5.34026,0 -14.24072,2.0329 -15.42746,-1.2197 -1.18672,-3.2526 0.59336,-5.692 0.59336,-5.692 0,0 -5.93364,1.2197 -6.527,-1.2198 -0.59336,-2.4394 7.71374,-8.9446 7.12038,-10.1643 -0.59338,-1.2198 -17.20756,2.4394 -17.80092,-0.4067 -0.59336,-2.846 6.527,-9.7577 5.93364,-11.7906 -0.59338,-2.0329 -29.6682,-33.3393 -20.17438,-128.4779 4.74692,-1.2197 9.49382,-2.4395 8.90046,-4.0658 -0.59336,-1.6264 -7.71374,-4.8789 -7.71374,-4.8789 z"
       id="path3915"
       inkscape:connector-curvature="0" />
    <path
       style="color:#000000;fill:#ffffff;fill-opacity:1;fill-rule:nonzero;stroke:none;stroke-width:1px;marker:none;visibility:visible;display:inline;overflow:visible;enable-background:accumulate"
       d="m 2161.9635,2759.6873 c 75.5442,-65.8317 129.3057,-115.4309 140.8923,-189.8298 11.5865,-74.3988 -1.8538,-91.5331 -5.5615,-100.5511 -12.977,1.8036 -33.8327,13.978 -38.0039,19.3888 1.8539,-19.8397 -11.5865,-82.5151 -31.9788,-107.3147 -20.3923,-24.7996 -39.3943,-7.6653 -39.3943,-7.6653 0,0 61.177,94.6894 55.1519,157.8157 12.0501,-12.6253 34.7597,-36.974 40.3212,-32.465 5.5615,4.5091 8.3423,64.9299 -3.7077,92.4349 -12.05,27.5051 -38.9308,101.9039 -117.7192,168.1865 z"
       id="path3923"
       inkscape:connector-curvature="0" />
    <path
       style="fill:#ffffff;stroke:none;stroke-width:1px;stroke-linecap:butt;stroke-linejoin:miter;stroke-opacity:1;color:#000000;fill-opacity:1;fill-rule:nonzero;marker:none;visibility:visible;display:inline;overflow:visible;enable-background:accumulate"
       d="m 1846.2,2353.2992 c 0,0 37.5681,7.7521 43.5312,11.9264 5.9632,4.1742 29.8159,-2.9816 -3.5779,44.7238 33.9901,-15.5043 60.8244,-32.2012 73.3471,-30.4122 -5.3668,11.9263 -11.33,27.4306 -11.33,27.4306 0,0 31.0085,-12.5227 36.9717,-11.9263 -1.789,5.3668 2.3853,16.1005 2.3853,16.1005 l 16.1005,-2.3852 4.7706,14.3116 c 0,0 64.4023,-25.0454 72.1544,-22.0638 7.7522,2.9816 -3.5779,34.5865 -3.5779,34.5865 l 17.2933,-12.5227 8.3484,0.5963 20.2748,-20.2748 6.5595,11.33 4.7705,-4.1742 9.5411,4.7706 22.6601,-17.2933 7.7521,1.789 19.6785,27.4306 10.7338,-12.5227 5.3668,-0.5963 35.1828,1.1927 2.3852,-2.9816 5.9632,-1.1927 8.3485,-5.9631 4.7705,-13.7154 10.1374,0 20.2748,12.5227 9.5411,8.3485 7.1558,-20.2748 4.1742,-2.3853 1.1927,-12.5227 23.2564,9.5411 7.1558,5.9632 1.7889,-10.7337 7.7522,-0.5964 14.3116,4.1743 15.5043,11.33 23.2564,12.5227 -35.1828,-45.9165 -8.3484,-8.3484 30.4122,-8.3485 0,-95.4108 -11.9264,-131.19 -519.3928,6.5595 -13.119,86.4661 0.5963,76.925 -2.9816,25.6417 26.238,8.9448 -25.6417,13.7153 16.1006,9.541 z"
       id="path3931"
       inkscape:connector-curvature="0" />
  </g>
  <g
     inkscape:groupmode="layer"
     id="layer1"
     inkscape:label="txt">
    <flowRoot
       xml:space="preserve"
       id="flowRoot2987"
       style="font-style:normal;font-variant:normal;font-weight:500;font-stretch:normal;line-height:0.01%;font-family:'Noto Sans Sinhala';-inkscape-font-specification:'Noto Sans Sinhala, Medium';letter-spacing:0px;word-spacing:0px;fill:#000000;fill-opacity:1;stroke:none;font-size:40px;text-anchor:start;text-align:start;writing-mode:lr;font-variant-ligatures:normal;font-variant-caps:normal;font-variant-numeric:normal;font-feature-settings:normal;"
       transform="translate(52.552065,-126.62151)"><flowRegion
         id="flowRegion2989"
         style="-inkscape-font-specification:'Noto Sans Sinhala, Medium';font-family:'Noto Sans Sinhala';font-weight:500;font-style:normal;font-stretch:normal;font-variant:normal;font-size:40px;text-anchor:start;text-align:start;writing-mode:lr;font-variant-ligatures:normal;font-variant-caps:normal;font-variant-numeric:normal;font-feature-settings:normal;"><rect
           id="rect2991"
           width="973.52362"
           height="213.03587"
           x="120.55251"
           y="265.53046"
           style="font-style:normal;font-variant:normal;font-weight:500;font-stretch:normal;font-family:'Noto Sans Sinhala';-inkscape-font-specification:'Noto Sans Sinhala, Medium';font-size:40px;text-anchor:start;text-align:start;writing-mode:lr;font-variant-ligatures:normal;font-variant-caps:normal;font-variant-numeric:normal;font-feature-settings:normal;" /></flowRegion><flowPara
         id="flowPara2995"
         style="font-style:normal;font-variant:normal;font-weight:500;font-stretch:normal;font-size:40px;line-height:1.3;font-family:'Noto Sans Sinhala';-inkscape-font-specification:'Noto Sans Sinhala, Medium';text-anchor:start;text-align:start;writing-mode:lr;font-variant-ligatures:normal;font-variant-caps:normal;font-variant-numeric:normal;font-feature-settings:normal;letter-spacing:0px">මායා වඩි තරඟයට පෙරදින රාත්‍රිය (අලුයම)</flowPara><flowPara
         style="font-style:normal;font-variant:normal;font-weight:500;font-stretch:normal;font-size:40px;line-height:1.3;font-family:'Noto Sans Sinhala';-inkscape-font-specification:'Noto Sans Sinhala, Medium';text-anchor:start;text-align:start;writing-mode:lr;font-variant-ligatures:normal;font-variant-caps:normal;font-variant-numeric:normal;font-feature-settings:normal;letter-spacing:0px"
         id="flowPara4168">   පෙ.ව.2:00</flowPara></flowRoot>    <flowRoot
       xml:space="preserve"
       id="flowRoot2987-4"
       style="font-style:normal;font-variant:normal;font-weight:normal;font-stretch:normal;line-height:0.01%;font-family:Lavi;-inkscape-font-specification:Lavi;text-align:center;letter-spacing:0px;word-spacing:0px;text-anchor:middle;fill:#000000;fill-opacity:1;stroke:none"
       transform="translate(341.31241,1951.0059)"><flowRegion
         id="flowRegion2989-5"><rect
           id="rect2991-7"
           width="670.63574"
           height="275.13956"
           x="120.55251"
           y="265.53046"
           style="font-style:normal;font-variant:normal;font-weight:normal;font-stretch:normal;font-family:Lavi;-inkscape-font-specification:Lavi;text-align:center;text-anchor:middle" /></flowRegion><flowPara
         style="font-style:normal;font-variant:normal;font-weight:500;font-stretch:normal;font-size:40px;line-height:1.29999995;font-family:'Noto Sans Sinhala';-inkscape-font-specification:'Noto Sans Sinhala, Medium';font-variant-ligatures:normal;font-variant-caps:normal;font-variant-numeric:normal;font-feature-settings:normal;text-align:center;letter-spacing:0px;writing-mode:lr-tb;text-anchor:middle"
         id="flowPara3798">අවසානයේ... මෙන්න මේ මායාවඩියෙන්,  කිසිම කෙනෙකුට, අඩුම තරමින් සැෆ්රෝන්ටවත් </flowPara><flowPara
         style="font-style:normal;font-variant:normal;font-weight:500;font-stretch:normal;font-size:40px;line-height:1.29999995;font-family:'Noto Sans Sinhala';-inkscape-font-specification:'Noto Sans Sinhala, Medium';font-variant-ligatures:normal;font-variant-caps:normal;font-variant-numeric:normal;font-feature-settings:normal;text-align:center;letter-spacing:0px;writing-mode:lr-tb;text-anchor:middle"
         id="flowPara4721">මගේ හැකියාවට අභියෝග කරන්න බෑ!</flowPara></flowRoot>    <flowRoot
       xml:space="preserve"
       id="flowRoot2987-4-8"
       style="font-style:normal;font-variant:normal;font-weight:500;font-stretch:normal;font-size:42.53984833px;line-height:1.29999995;font-family:'Noto Sans Sinhala';-inkscape-font-specification:'Noto Sans Sinhala, Medium';font-variant-ligatures:normal;font-variant-caps:normal;font-variant-numeric:normal;font-feature-settings:normal;text-align:center;letter-spacing:0px;word-spacing:0px;writing-mode:lr-tb;text-anchor:middle;fill:#000000;fill-opacity:1;stroke:none"
       transform="matrix(0.96141471,0,0,0.91963896,436.42648,2273.6914)"><flowRegion
         id="flowRegion2989-5-9"
         style="font-style:normal;font-variant:normal;font-weight:500;font-stretch:normal;font-size:42.53984833px;line-height:1.29999995;font-family:'Noto Sans Sinhala';-inkscape-font-specification:'Noto Sans Sinhala, Medium';font-variant-ligatures:normal;font-variant-caps:normal;font-variant-numeric:normal;font-feature-settings:normal;text-align:center;letter-spacing:0px;writing-mode:lr-tb;text-anchor:middle"><rect
           id="rect2991-7-4"
           width="602.40173"
           height="310.73996"
           x="120.55251"
           y="265.53046"
           style="font-style:normal;font-variant:normal;font-weight:500;font-stretch:normal;font-size:42.53984833px;line-height:1.29999995;font-family:'Noto Sans Sinhala';-inkscape-font-specification:'Noto Sans Sinhala, Medium';font-variant-ligatures:normal;font-variant-caps:normal;font-variant-numeric:normal;font-feature-settings:normal;text-align:center;letter-spacing:0px;writing-mode:lr-tb;text-anchor:middle" /></flowRegion><flowPara
         style="font-style:normal;font-variant:normal;font-weight:500;font-stretch:normal;font-size:42.53984833px;line-height:1.29999995;font-family:'Noto Sans Sinhala';-inkscape-font-specification:'Noto Sans Sinhala, Medium';font-variant-ligatures:normal;font-variant-caps:normal;font-variant-numeric:normal;font-feature-settings:normal;text-align:center;letter-spacing:0px;writing-mode:lr-tb;text-anchor:middle"
         id="flowPara3849">දැන් කාව හරි </flowPara><flowPara
         style="font-style:normal;font-variant:normal;font-weight:500;font-stretch:normal;font-size:42.53984833px;line-height:1.29999995;font-family:'Noto Sans Sinhala';-inkscape-font-specification:'Noto Sans Sinhala, Medium';font-variant-ligatures:normal;font-variant-caps:normal;font-variant-numeric:normal;font-feature-settings:normal;text-align:center;letter-spacing:0px;writing-mode:lr-tb;text-anchor:middle"
         id="flowPara4750">යොදාගෙ<flowSpan
   style="font-style:normal;font-variant:normal;font-weight:500;font-stretch:normal;font-size:42.53984833px;line-height:1.29999995;font-family:'Noto Sans Sinhala';-inkscape-font-specification:'Noto Sans Sinhala, Medium';font-variant-ligatures:normal;font-variant-caps:normal;font-variant-numeric:normal;font-feature-settings:normal;text-align:center;letter-spacing:0px;writing-mode:lr-tb;text-anchor:middle"
   id="flowSpan4760">න </flowSpan>මේක </flowPara><flowPara
         style="font-style:normal;font-variant:normal;font-weight:500;font-stretch:normal;font-size:42.53984833px;line-height:1.29999995;font-family:'Noto Sans Sinhala';-inkscape-font-specification:'Noto Sans Sinhala, Medium';font-variant-ligatures:normal;font-variant-caps:normal;font-variant-numeric:normal;font-feature-settings:normal;text-align:center;letter-spacing:0px;writing-mode:lr-tb;text-anchor:middle"
         id="flowPara4752">අත්හ<flowSpan
   style="font-style:normal;font-variant:normal;font-weight:500;font-stretch:normal;font-size:42.53984833px;line-height:1.29999995;font-family:'Noto Sans Sinhala';-inkscape-font-specification:'Noto Sans Sinhala, Medium';font-variant-ligatures:normal;font-variant-caps:normal;font-variant-numeric:normal;font-feature-settings:normal;text-align:center;letter-spacing:0px;writing-mode:lr-tb;text-anchor:middle"
   id="flowSpan4762">දා </flowSpan>බලන්න </flowPara><flowPara
         style="font-style:normal;font-variant:normal;font-weight:500;font-stretch:normal;font-size:42.53984833px;line-height:1.29999995;font-family:'Noto Sans Sinhala';-inkscape-font-specification:'Noto Sans Sinhala, Medium';font-variant-ligatures:normal;font-variant-caps:normal;font-variant-numeric:normal;font-feature-settings:normal;text-align:center;letter-spacing:0px;writing-mode:lr-tb;text-anchor:middle"
         id="flowPara4754">ඕන<flowSpan
   style="font-style:normal;font-variant:normal;font-weight:500;font-stretch:normal;font-size:42.53984833px;line-height:1.29999995;font-family:'Noto Sans Sinhala';-inkscape-font-specification:'Noto Sans Sinhala, Medium';font-variant-ligatures:normal;font-variant-caps:normal;font-variant-numeric:normal;font-feature-settings:normal;text-align:center;letter-spacing:0px;writing-mode:lr-tb;text-anchor:middle"
   id="flowSpan4764">...</flowSpan></flowPara></flowRoot>    <flowRoot
       xml:space="preserve"
       id="flowRoot2987-4-8-2"
       style="font-style:normal;font-variant:normal;font-weight:bold;font-stretch:normal;font-size:28.23714638px;line-height:0.01%;font-family:'Noto Sans Sinhala';-inkscape-font-specification:'Noto Sans Sinhala, Bold';font-variant-ligatures:normal;font-variant-caps:normal;font-variant-numeric:normal;font-feature-settings:normal;text-align:center;letter-spacing:0px;word-spacing:0px;writing-mode:lr-tb;text-anchor:middle;fill:#000000;fill-opacity:1;stroke:none;stroke-width:0.62713933"
       transform="matrix(2.2609371,0,0,2.256613,1172.2924,1598.3448)"><flowRegion
         id="flowRegion2989-5-9-2"
         style="font-style:normal;font-variant:normal;font-weight:bold;font-stretch:normal;font-size:28.23714638px;font-family:'Noto Sans Sinhala';-inkscape-font-specification:'Noto Sans Sinhala, Bold';font-variant-ligatures:normal;font-variant-caps:normal;font-variant-numeric:normal;font-feature-settings:normal;text-align:center;writing-mode:lr-tb;text-anchor:middle;stroke-width:0.62713933"><rect
           id="rect2991-7-4-2"
           width="602.40173"
           height="310.73996"
           x="120.55251"
           y="265.53046"
           style="font-style:normal;font-variant:normal;font-weight:bold;font-stretch:normal;font-size:28.23714638px;font-family:'Noto Sans Sinhala';-inkscape-font-specification:'Noto Sans Sinhala, Bold';font-variant-ligatures:normal;font-variant-caps:normal;font-variant-numeric:normal;font-feature-settings:normal;text-align:center;writing-mode:lr-tb;text-anchor:middle;stroke-width:0.62713933" /></flowRegion><flowPara
         style="font-style:normal;font-variant:normal;font-weight:bold;font-stretch:normal;font-size:28.23714638px;line-height:1.25;font-family:'Noto Sans Sinhala';-inkscape-font-specification:'Noto Sans Sinhala, Bold';font-variant-ligatures:normal;font-variant-caps:normal;font-variant-numeric:normal;font-feature-settings:normal;text-align:center;letter-spacing:0px;writing-mode:lr-tb;text-anchor:middle;stroke-width:0.62713933"
         id="flowPara3849-2"><flowSpan
   style="font-style:normal;font-variant:normal;font-weight:bold;font-stretch:normal;font-size:28.23714638px;font-family:'Noto Sans Sinhala';-inkscape-font-specification:'Noto Sans Sinhala, Bold';font-variant-ligatures:normal;font-variant-caps:normal;font-variant-numeric:normal;font-feature-settings:normal;text-align:center;letter-spacing:0px;writing-mode:lr-tb;text-anchor:middle;stroke-width:0.62713933"
   id="flowSpan4766">කැ<flowSpan
   style="font-style:normal;font-variant:normal;font-weight:bold;font-stretch:normal;font-size:28.23714638px;font-family:'Noto Sans Sinhala';-inkscape-font-specification:'Noto Sans Sinhala, Bold';font-variant-ligatures:normal;font-variant-caps:normal;font-variant-numeric:normal;font-feature-settings:normal;text-align:center;letter-spacing:0px;writing-mode:lr-tb;text-anchor:middle;stroke-width:0.62713933"
   id="flowSpan4770">.....</flowSpan></flowSpan>~</flowPara><flowPara
         style="font-style:normal;font-variant:normal;font-weight:bold;font-stretch:normal;font-size:28.23714638px;line-height:1.25;font-family:'Noto Sans Sinhala';-inkscape-font-specification:'Noto Sans Sinhala, Bold';font-variant-ligatures:normal;font-variant-caps:normal;font-variant-numeric:normal;font-feature-settings:normal;text-align:center;letter-spacing:0px;writing-mode:lr-tb;text-anchor:middle;stroke-width:0.62713933"
         id="flowPara3892">~<flowSpan
   style="font-style:normal;font-variant:normal;font-weight:bold;font-stretch:normal;font-size:28.23714638px;font-family:'Noto Sans Sinhala';-inkscape-font-specification:'Noto Sans Sinhala, Bold';font-variant-ligatures:normal;font-variant-caps:normal;font-variant-numeric:normal;font-feature-settings:normal;text-align:center;letter-spacing:0px;writing-mode:lr-tb;text-anchor:middle;stroke-width:0.62713933"
   id="flowSpan4768">ර්රෝ<flowSpan
   style="font-style:normal;font-variant:normal;font-weight:bold;font-stretch:normal;font-size:28.23714638px;font-family:'Noto Sans Sinhala';-inkscape-font-specification:'Noto Sans Sinhala, Bold';font-variant-ligatures:normal;font-variant-caps:normal;font-variant-numeric:normal;font-feature-settings:normal;text-align:center;letter-spacing:0px;writing-mode:lr-tb;text-anchor:middle;stroke-width:0.62713933"
   id="flowSpan4774">...</flowSpan>ට්<flowSpan
   style="font-style:normal;font-variant:normal;font-weight:bold;font-stretch:normal;font-size:28.23714638px;font-family:'Noto Sans Sinhala';-inkscape-font-specification:'Noto Sans Sinhala, Bold';font-variant-ligatures:normal;font-variant-caps:normal;font-variant-numeric:normal;font-feature-settings:normal;text-align:center;letter-spacing:0px;writing-mode:lr-tb;text-anchor:middle;stroke-width:0.62713933"
   id="flowSpan4776"> !!!</flowSpan></flowSpan></flowPara></flowRoot>  </g>
</svg>
