<?xml version="1.0" encoding="UTF-8" standalone="no"?>
<svg
   xmlns:dc="http://purl.org/dc/elements/1.1/"
   xmlns:cc="http://creativecommons.org/ns#"
   xmlns:rdf="http://www.w3.org/1999/02/22-rdf-syntax-ns#"
   xmlns:svg="http://www.w3.org/2000/svg"
   xmlns="http://www.w3.org/2000/svg"
   xmlns:xlink="http://www.w3.org/1999/xlink"
   xmlns:sodipodi="http://sodipodi.sourceforge.net/DTD/sodipodi-0.dtd"
   xmlns:inkscape="http://www.inkscape.org/namespaces/inkscape"
   id="svg2"
   version="1.1"
   inkscape:version="0.92.2 (5c3e80d, 2017-08-06)"
   width="2481"
   height="3503"
   sodipodi:docname="E35P09.svg">
  <metadata
     id="metadata8">
    <rdf:RDF>
      <cc:Work
         rdf:about="">
        <dc:format>image/svg+xml</dc:format>
        <dc:type
           rdf:resource="http://purl.org/dc/dcmitype/StillImage" />
        <dc:title />
      </cc:Work>
    </rdf:RDF>
  </metadata>
  <defs
     id="defs6">
    <filter
       style="color-interpolation-filters:sRGB"
       id="filter4375-4-1-1-1-9-5-8-8-5-5-3-3"
       inkscape:label="soundFX1"
       x="-0.024097853"
       y="-0.0012978443"
       width="1.024925"
       height="1.0039616">
      <feFlood
         id="feFlood4377-7-9-0-8-1-7-3-1-2-7-6-6"
         flood-opacity="1"
         flood-color="rgb(52,52,52)"
         result="flood" />
      <feComposite
         id="feComposite4379-3-8-8-2-77-4-1-0-6-4-7-7"
         in2="SourceGraphic"
         in="flood"
         operator="in"
         result="composite1"
         baseFrequency="0.053999999999999999 0.053999999999999999" />
      <feMorphology
         id="feMorphology4393-1-0-49-8-9-3-0-1-9-9-5-5"
         operator="dilate"
         radius="4.0330969769021738"
         result="result3" />
      <feComposite
         id="feComposite4385-9-5-7-0-8-8-7-5-4-9-3-3"
         in2="result3"
         in="SourceGraphic"
         operator="over"
         result="fbSourceGraphic" />
      <feColorMatrix
         result="fbSourceGraphicAlpha"
         in="fbSourceGraphic"
         values="0 0 0 -1 0 0 0 0 -1 0 0 0 0 -1 0 0 0 0 1 0"
         id="feColorMatrix4544-9-4-4-5-5" />
      <feTurbulence
         id="feTurbulence4546-3-6-5-6-6"
         type="fractalNoise"
         numOctaves="4"
         seed="147"
         baseFrequency="0.053999999999999999 0.054054054054054057"
         result="turbulence" />
      <feDisplacementMap
         id="feDisplacementMap4548-8-0-9-2-2"
         in2="turbulence"
         in="fbSourceGraphic"
         scale="10.561763"
         yChannelSelector="G"
         xChannelSelector="R"
         result="fbSourceGraphic" />
      <feColorMatrix
         result="fbSourceGraphicAlpha"
         in="fbSourceGraphic"
         values="0 0 0 -1 0 0 0 0 -1 0 0 0 0 -1 0 0 0 0 1 0"
         id="feColorMatrix4670-7-7-3-9-9" />
      <feFlood
         id="feFlood4672-4-4-5-1-1"
         flood-opacity="1"
         flood-color="rgb(28,28,28)"
         result="flood"
         in="fbSourceGraphic" />
      <feComposite
         id="feComposite4674-8-3-7-2-2"
         in2="fbSourceGraphic"
         in="flood"
         operator="in"
         result="composite1" />
      <feGaussianBlur
         id="feGaussianBlur4676-3-7-08-7-7"
         in="composite1"
         stdDeviation="0"
         result="blur" />
      <feOffset
         id="feOffset4678-6-9-1-0-0"
         dx="-10.48377497279229"
         dy="0.39217365321829334"
         result="offset" />
      <feComposite
         id="feComposite4680-4-0-9-9-9"
         in2="offset"
         in="fbSourceGraphic"
         operator="over"
         result="composite2" />
    </filter>
  </defs>
  <sodipodi:namedview
     pagecolor="#ffffff"
     bordercolor="#666666"
     borderopacity="1"
     objecttolerance="10"
     gridtolerance="10"
     guidetolerance="10"
     inkscape:pageopacity="0"
     inkscape:pageshadow="2"
     inkscape:window-width="1399"
     inkscape:window-height="1037"
     id="namedview4"
     showgrid="false"
     inkscape:zoom="0.49190039"
     inkscape:cx="1258.3986"
     inkscape:cy="654.96683"
     inkscape:window-x="496"
     inkscape:window-y="-2"
     inkscape:window-maximized="0"
     inkscape:current-layer="layer3"
     inkscape:document-rotation="0"
     inkscape:snap-global="false"
     inkscape:pagecheckerboard="0" />
  <g
     inkscape:groupmode="layer"
     id="layer2"
     inkscape:label="artwork"
     sodipodi:insensitive="true">
    <image
       sodipodi:absref="C:\Users\Kari\Documents\Pepper and Carrot\Episode 35\fi\../lang/de/./../gfx_Pepper-and-Carrot_by-David-Revoy_E35P09.png"
       xlink:href="../gfx_Pepper-and-Carrot_by-David-Revoy_E35P09.png"
       width="2481"
       height="3503"
       id="image10"
       x="0"
       y="0" />
  </g>
  <g
     inkscape:groupmode="layer"
     id="layer3"
     inkscape:label="speechbubbles">
    <path
       style="display:inline;fill:#ffffff;fill-rule:evenodd;stroke:none;stroke-width:1.17636597px;stroke-linecap:butt;stroke-linejoin:miter;stroke-opacity:1"
       d="m 332.14179,814.38125 c 44.60441,13.12958 47.89539,24.23792 8.10735,33.23954 42.77221,4.09246 35.36117,10.95001 16.24462,18.45118 63.14507,40.40127 55.22223,71.34297 45.62791,102.06212 53.13105,-19.49539 59.45153,2.16338 59.19583,23.34222 15.27909,-29.97327 34.35867,-13.89562 33.01547,12.16329 15.81508,-30.19616 37.83989,-45.70038 39.55684,-15.55465 19.73922,-24.27406 19.07597,-34.33732 40.83432,-27.43044 31.4736,-30.04752 53.4491,4.07493 78.49421,17.45682 2.66869,-30.18086 19.50506,-32.90467 40.8584,-26.87305 6.8103,-13.38319 10.25664,-32.15342 40.3116,-8.30877 0.90501,-24.77738 16.76768,-9.03127 28.03402,-5.73833 -15.36955,-12.31681 5.84822,-18.57917 69.15072,-17.87959 -25.32763,-4.55937 -40.23011,-27.77411 4.48491,-50.78848 -61.61462,14.49855 -40.91548,-2.82895 -24.6099,-21.02165 -45.79807,-19.52935 -9.16329,-47.15383 6.90284,-72.75806 -45.92908,16.01187 -104.74836,20.72347 -87.29275,-15.48361 -57.98364,34.4931 -51.47261,18.35889 -47.90221,4.53281 -32.86797,37.48512 -36.20328,8.08614 -48.33318,-1.39584 -99.85254,52.74884 -103.96732,10.54099 -130.47933,-9.45209 0.26503,48.85578 -25.89178,32.96535 -52.15791,16.80787 8.52463,40.36146 -7.42302,30.15787 -22.85902,21.01189 1.59249,17.65047 -10.76228,24.2572 -41.92182,15.97278 23.39642,11.94797 11.09136,15.87107 -55.26292,7.64404 z"
       id="path4289-9-2"
       inkscape:connector-curvature="0"
       sodipodi:nodetypes="cccccccccccccccccccccccc" />
    <path
       style="display:inline;fill:#ffffff;fill-rule:evenodd;stroke:none;stroke-width:0.988989px;stroke-linecap:butt;stroke-linejoin:miter;stroke-opacity:1"
       d="M 963.27671,1015.5732 C 855.1456,974.16786 728.54706,920.87912 712.01736,938.41898 l -4.63952,-34.71076 c 24.01825,-8.63206 180.13442,72.14698 255.89887,111.86498 z"
       id="path1881"
       sodipodi:nodetypes="cccc" />
    <text
       xml:space="preserve"
       style="font-style:normal;font-variant:normal;font-weight:normal;font-stretch:normal;font-size:145.675px;line-height:1.25;font-family:Lavi;-inkscape-font-specification:Lavi;letter-spacing:0px;word-spacing:0px;fill:#ffffff;fill-opacity:1;stroke:#ffffff;stroke-width:0.74524;stroke-miterlimit:4;stroke-dasharray:none;stroke-opacity:1;filter:url(#filter4375-4-1-1-1-9-5-8-8-5-5-3-3)"
       id="text4580-6-0-0-0-9-3-3"
       transform="matrix(0.6234491,0.267428,-0.65521393,1.0449346,2153.6335,-849.35717)"
       x="662.92181"
       y="1440.271"
       inkscape:transform-center-x="-7.7973551"
       inkscape:transform-center-y="-49.154777"><tspan
         style="font-size:145.675px;fill:#ffffff;fill-opacity:1;stroke:#ffffff;stroke-width:0.74524;stroke-miterlimit:4;stroke-dasharray:none;stroke-opacity:1"
         id="tspan876-6-6"
         rotate="0 0 0 0 0 0 0 0"><tspan
           id="tspan2853"
           style="font-size:117.986px;stroke-width:0.74524"
           dy="0 20 25 30 35 40 50">SWoosh!</tspan></tspan><textPath
         xlink:href="#path974"
         id="textPath2837"
         style="stroke-width:0.74524"></textPath></text>
    <path
       style="display:inline;fill:#ffffff;fill-rule:evenodd;stroke:none;stroke-width:1.02022171px;stroke-linecap:butt;stroke-linejoin:miter;stroke-opacity:1"
       d="m 821.37874,1467.8029 c -100.17064,59.6481 -94.48492,47.6179 -74.5286,-5.9733 -68.89935,65.4772 -71.18446,40.2091 -60.50575,10.0029 -45.21311,49.4268 -65.16944,39.2386 -70.73599,0.4461 -0.27552,53.4934 -21.45463,32.5037 -30.79514,16.4964 -2.82252,15.8163 -17.57708,44.0053 -43.11788,1.4481 0.22454,13.8906 14.07062,46.9079 -38.59008,-2.9345 13.23374,55.0382 -33.40236,-1.7984 -59.57614,-42.5255 16.36106,50.1704 9.63773,57.3143 -11.17035,38.2053 9.5393,20.6429 15.25267,36.6339 -20.89565,1.7201 12.43239,38.1353 -5.22831,33.5754 -44.21939,-7.2334 26.18112,40.4758 60.06689,81.0472 21.84403,67.7541 6.39765,11.92 29.14749,22.1971 -38.49311,41.5547 12.65292,8.0369 51.2023,-4.0668 19.09852,30.4996 -4.30249,4.0439 10.136,6.4062 -17.38705,17.1582 16.25918,-0.8233 26.23712,1.6857 11.29158,17.4061 29.68005,-1.0312 18.61022,15.4705 -3.13567,36.5651 42.92494,-27.1542 91.5637,-50.3876 61.13778,-11.0192 53.79102,-36.9914 59.50707,-10.3542 49.84272,7.1441 32.24604,-29.855 52.40104,-25.3179 78.7483,15.3904 6.82122,-25.4658 20.56539,-45.1218 78.71511,-27.5077 -25.58546,-32.1822 10.75782,-11.8048 38.58666,1.3451 -15.31177,-40.3078 23.38175,-14.0347 72.39908,24.9663 -27.49876,-44.4441 3.91387,-49.0263 50.0995,-17.6393 -24.37911,-47.0261 -39.97045,-57.1918 78.4955,-13.7994 -100.08419,-44.0942 -78.91084,-73.128 -17.9627,-104.3178 -62.11686,-1.7261 -67.02074,-8.1023 -22.59001,-37.9922 -87.34677,7.9176 -34.50842,-20.5002 -6.55527,-57.1603 z"
       id="path4508-2"
       inkscape:connector-curvature="0"
       sodipodi:nodetypes="cccccccccccccccccccccccccccc" />
    <path
       style="fill:#ffffff;fill-rule:evenodd;stroke:none;stroke-width:0.999998px;stroke-linecap:butt;stroke-linejoin:miter;stroke-opacity:1"
       d="m 981.01706,1712.6543 -82.47964,-69.3619 -21.73828,-20.9157 -3.89619,33.8993 c -113.19185,-60.793 -107.41261,-104.6482 -123.16199,-63.0392 -19.42613,51.3227 45.72551,35.5105 135.52361,93.9205 4.43214,-8.2819 5.06237,-18.0952 6.91438,-27.2171 z"
       id="path1111-3-3"
       inkscape:connector-curvature="0"
       sodipodi:nodetypes="ccccsccc" />
  </g>
  <g
     inkscape:groupmode="layer"
     id="layer1"
     inkscape:label="txt">
    <text
       xml:space="preserve"
       style="font-style:normal;font-variant:normal;font-weight:normal;font-stretch:normal;font-size:64.91349792px;line-height:1.25;font-family:Lavi;-inkscape-font-specification:Lavi;text-align:center;letter-spacing:0px;word-spacing:0px;text-anchor:middle;fill:#ffffff;fill-opacity:1;stroke:none;stroke-width:1.44252002"
       x="330.38358"
       y="306.20593"
       id="text4246-3-2-2"
       transform="scale(0.96891819,1.0320789)"><tspan
         style="font-style:normal;font-variant:normal;font-weight:bold;font-stretch:normal;font-size:64.91349792px;font-family:Lavi;-inkscape-font-specification:'Lavi Bold';fill:#ffffff;stroke-width:1.44252002"
         sodipodi:role="line"
         x="330.38358"
         y="306.20593"
         id="tspan915">EI!</tspan><tspan
         style="font-style:normal;font-variant:normal;font-weight:bold;font-stretch:normal;font-size:64.91349792px;font-family:Lavi;-inkscape-font-specification:'Lavi Bold';fill:#ffffff;stroke-width:1.44252002"
         sodipodi:role="line"
         x="330.38358"
         y="387.34781"
         id="tspan905" /></text>
    <text
       xml:space="preserve"
       style="font-style:normal;font-variant:normal;font-weight:normal;font-stretch:normal;font-size:45px;line-height:1.25;font-family:Lavi;-inkscape-font-specification:Lavi;text-align:center;letter-spacing:0px;word-spacing:0px;text-anchor:middle;fill:#ffffff;fill-opacity:1;stroke:none"
       x="2086.762"
       y="299.48114"
       id="text4246-3-2-2-3"><tspan
         style="font-style:normal;font-variant:normal;font-weight:bold;font-stretch:normal;font-size:45px;font-family:Lavi;-inkscape-font-specification:'Lavi Bold';fill:#ffffff"
         sodipodi:role="line"
         x="2086.762"
         y="299.48114"
         id="tspan905-7">Sitä minä</tspan><tspan
         style="font-style:normal;font-variant:normal;font-weight:bold;font-stretch:normal;font-size:45px;font-family:Lavi;-inkscape-font-specification:'Lavi Bold';fill:#ffffff"
         sodipodi:role="line"
         x="2086.762"
         y="355.73114"
         id="tspan906">en ole!</tspan></text>
    <text
       xml:space="preserve"
       style="font-style:normal;font-variant:normal;font-weight:normal;font-stretch:normal;font-size:68.84600067px;line-height:1.25;font-family:Lavi;-inkscape-font-specification:Lavi;text-align:center;letter-spacing:0px;word-spacing:0px;text-anchor:middle;fill:#000000;fill-opacity:1;stroke:none;stroke-width:0.956195"
       x="615.79883"
       y="896.21271"
       id="text4246-3-2-2-3-5"
       transform="matrix(0.95619489,-0.06824752,0,1.0458119,0,0)"><tspan
         sodipodi:role="line"
         x="627.90063"
         y="896.21271"
         id="tspan906-6"
         style="font-style:normal;font-variant:normal;font-weight:bold;font-stretch:normal;font-size:68.84600067px;font-family:Lavi;-inkscape-font-specification:'Lavi Bold';stroke-width:0.956195">SEEIIIS!!! </tspan></text>
    <text
       xml:space="preserve"
       style="font-style:normal;font-variant:normal;font-weight:normal;font-stretch:normal;font-size:56.8891983px;line-height:1.25;font-family:Lavi;-inkscape-font-specification:Lavi;text-align:center;letter-spacing:0px;word-spacing:0px;text-anchor:middle;fill:#000000;fill-opacity:1;stroke:none;stroke-width:1.20164001"
       x="592.07495"
       y="1609.231"
       id="text4246-3-2-2-3-1"><tspan
         style="font-style:normal;font-variant:normal;font-weight:bold;font-stretch:normal;font-size:56.8891983px;font-family:Lavi;-inkscape-font-specification:'Lavi Bold';stroke-width:1.20164001"
         sodipodi:role="line"
         x="592.07495"
         y="1609.231"
         id="tspan1006">ANTAUDUN!</tspan></text>
  </g>
</svg>
