<?xml version="1.0" encoding="UTF-8" standalone="no"?>
<!-- Created with Inkscape (http://www.inkscape.org/) -->

<svg
   xmlns:dc="http://purl.org/dc/elements/1.1/"
   xmlns:cc="http://creativecommons.org/ns#"
   xmlns:rdf="http://www.w3.org/1999/02/22-rdf-syntax-ns#"
   xmlns:svg="http://www.w3.org/2000/svg"
   xmlns="http://www.w3.org/2000/svg"
   xmlns:xlink="http://www.w3.org/1999/xlink"
   xmlns:sodipodi="http://sodipodi.sourceforge.net/DTD/sodipodi-0.dtd"
   xmlns:inkscape="http://www.inkscape.org/namespaces/inkscape"
   id="svg2"
   version="1.1"
   inkscape:version="0.92.4 (5da689c313, 2019-01-14)"
   width="2481"
   height="3503"
   sodipodi:docname="E24P03.svg">
  <metadata
     id="metadata8">
    <rdf:RDF>
      <cc:Work
         rdf:about="">
        <dc:format>image/svg+xml</dc:format>
        <dc:type
           rdf:resource="http://purl.org/dc/dcmitype/StillImage" />
        <dc:title />
      </cc:Work>
    </rdf:RDF>
  </metadata>
  <defs
     id="defs6">
    <filter
       style="color-interpolation-filters:sRGB"
       id="filter4375-4-1-1-1-9-5-8"
       inkscape:label="Drop Shadow">
      <feFlood
         id="feFlood4377-7-9-0-8-1-7-3"
         flood-opacity="1"
         flood-color="rgb(200,55,55)"
         result="flood" />
      <feComposite
         id="feComposite4379-3-8-8-2-77-4-1"
         in2="SourceGraphic"
         in="flood"
         operator="in"
         result="composite1" />
      <feMorphology
         id="feMorphology4393-1-0-49-8-9-3-0"
         operator="dilate"
         radius="6.2000000000000002"
         result="result3" />
      <feComposite
         id="feComposite4385-9-5-7-0-8-8-7"
         in2="result3"
         in="SourceGraphic"
         operator="over"
         result="fbSourceGraphic" />
      <feColorMatrix
         result="fbSourceGraphicAlpha"
         in="fbSourceGraphic"
         values="0 0 0 -1 0 0 0 0 -1 0 0 0 0 -1 0 0 0 0 1 0"
         id="feColorMatrix4544" />
      <feTurbulence
         id="feTurbulence4546"
         type="fractalNoise"
         numOctaves="3"
         seed="37"
         baseFrequency="0.129 0.0050000000000000001"
         result="turbulence" />
      <feDisplacementMap
         id="feDisplacementMap4548"
         in2="turbulence"
         in="fbSourceGraphic"
         scale="6.6"
         yChannelSelector="G"
         xChannelSelector="R"
         result="fbSourceGraphic" />
      <feColorMatrix
         result="fbSourceGraphicAlpha"
         in="fbSourceGraphic"
         values="0 0 0 -1 0 0 0 0 -1 0 0 0 0 -1 0 0 0 0 1 0"
         id="feColorMatrix4670" />
      <feFlood
         id="feFlood4672"
         flood-opacity="1"
         flood-color="rgb(80,22,22)"
         result="flood"
         in="fbSourceGraphic" />
      <feComposite
         id="feComposite4674"
         in2="fbSourceGraphic"
         in="flood"
         operator="in"
         result="composite1" />
      <feGaussianBlur
         id="feGaussianBlur4676"
         in="composite1"
         stdDeviation="0"
         result="blur" />
      <feOffset
         id="feOffset4678"
         dx="6"
         dy="6"
         result="offset" />
      <feComposite
         id="feComposite4680"
         in2="offset"
         in="fbSourceGraphic"
         operator="over"
         result="composite2" />
    </filter>
    <filter
       inkscape:collect="always"
       style="color-interpolation-filters:sRGB"
       id="filter4210"
       x="-0.0015578248"
       width="1.0031157"
       y="-0.0045528179"
       height="1.0091056">
      <feGaussianBlur
         inkscape:collect="always"
         stdDeviation="0.2079876"
         id="feGaussianBlur4212" />
    </filter>
  </defs>
  <sodipodi:namedview
     pagecolor="#ffffff"
     bordercolor="#666666"
     borderopacity="1"
     objecttolerance="10"
     gridtolerance="10"
     guidetolerance="10"
     inkscape:pageopacity="0"
     inkscape:pageshadow="2"
     inkscape:window-width="1920"
     inkscape:window-height="1029"
     id="namedview4"
     showgrid="false"
     inkscape:zoom="0.38293226"
     inkscape:cx="950.75622"
     inkscape:cy="2668.9815"
     inkscape:window-x="0"
     inkscape:window-y="27"
     inkscape:window-maximized="1"
     inkscape:current-layer="layer3"
     inkscape:snap-global="false" />
  <g
     inkscape:groupmode="layer"
     id="layer2"
     inkscape:label="artwork"
     sodipodi:insensitive="true">
    <image
       sodipodi:absref="/felles/omsetting/pepper-carrot/webcomics/ep24_The-Unity-Tree/lang/nn/../gfx_Pepper-and-Carrot_by-David-Revoy_E24P03.png"
       xlink:href="../gfx_Pepper-and-Carrot_by-David-Revoy_E24P03.png"
       y="0"
       x="0"
       id="image10"
       height="3503"
       width="2481" />
  </g>
  <g
     inkscape:groupmode="layer"
     id="layer3"
     inkscape:label="speechbubbles"
     style="display:inline">
    <path
       style="fill:#ffffff;fill-opacity:1;fill-rule:evenodd;stroke:none;stroke-width:1px;stroke-linecap:butt;stroke-linejoin:miter;stroke-opacity:1"
       d="m 1869.952,416.87093 -37.5899,69.76497 41.479,87.48821 256.7186,3.92728 177.9279,-6.59102 86.2306,-22.87356 6.6492,-131.49018 -76.9432,-43.68042 -182.4744,-9.39154 -214.2412,8.02651 z"
       id="path5075"
       inkscape:connector-curvature="0"
       sodipodi:nodetypes="ccccccccccc" />
    <path
       style="color:#000000;display:inline;overflow:visible;visibility:visible;fill:#ffffff;fill-opacity:1;fill-rule:nonzero;stroke:none;stroke-width:0.99999994px;marker:none;enable-background:accumulate"
       d="m 496.34824,1317.3928 c 0.30278,22.9688 -19.81751,42.5512 -115.01798,44.6155 -95.20044,2.0644 -114.88706,-28.9299 -115.49969,-42.2829 10.26566,-43.9619 70.31524,-56.2296 106.76278,-56.0964 23.51678,0.5158 89.88224,4.9457 105.07449,15.6148 15.19219,10.669 19.71245,19.6265 18.6804,38.149 z"
       id="path3365-0"
       inkscape:connector-curvature="0"
       sodipodi:nodetypes="cccccc" />
    <path
       style="color:#000000;display:inline;overflow:visible;visibility:visible;fill:#ffffff;fill-opacity:1;fill-rule:nonzero;stroke:none;stroke-width:1px;marker:none;enable-background:accumulate"
       d="m 297.73731,1385.1393 c -2.18385,-10.1237 37.12546,-63.4419 170.34055,-56.6927 133.21508,6.7491 159.42135,45.2192 158.32936,58.7175 -1.09195,13.4982 -33.84962,34.4205 -53.5044,37.7952 -19.65464,3.3744 -70.97522,11.4734 -103.73309,8.7738 -32.75769,-2.6998 -133.21501,-16.198 -152.86974,-28.3465 -19.65466,-12.1484 -16.37886,-17.5477 -18.56268,-20.2473 z"
       id="path3365"
       inkscape:connector-curvature="0" />
    <path
       style="fill:#ffffff;fill-opacity:1;fill-rule:evenodd;stroke:none;stroke-width:1px;stroke-linecap:butt;stroke-linejoin:miter;stroke-opacity:1"
       d="m 1824.1943,798.82018 34.5303,-35.13136 152.7009,-5.43449 106.7563,5.32931 129.2624,19.8914 18.8132,48.70006 -35.0633,43.12531 -31.1305,34.3455 -199.7409,6.87001 -141.9608,0.73896 -29.4994,-63.06132 z"
       id="path5098"
       inkscape:connector-curvature="0"
       sodipodi:nodetypes="cccccccccccc" />
    <path
       style="color:#000000;display:inline;overflow:visible;visibility:visible;fill:#ffffff;fill-opacity:1;fill-rule:nonzero;stroke:none;stroke-width:0.99999994px;marker:none;enable-background:accumulate"
       d="m 187.64187,204.57055 c -42.72818,-12.39782 -57.683,-23.91004 -53.41001,-30.99455 4.27278,-7.08441 42.72798,-43.39235 89.72872,-47.82016 47.00095,-4.4278 168.77579,-9.74112 196.54915,-5.31331 27.77336,4.42772 106.82023,33.65124 106.82023,48.70567 0,15.05452 -14.95482,44.27795 -57.68298,53.13348 -42.72798,8.8556 -230.73159,14.169 -282.00511,-17.71113 z"
       id="path3349"
       inkscape:connector-curvature="0" />
    <path
       style="fill:#ffffff;fill-rule:evenodd;stroke:none;stroke-width:1px;stroke-linecap:butt;stroke-linejoin:miter;stroke-opacity:1"
       d="m 118.80883,294.64242 c 10.00459,-29.55397 36.94593,-51.97741 66.2674,-66.94645 13.95391,-7.22687 29.9035,-12.52288 46.22466,-11.12984 16.21413,0.83238 32.05134,5.80192 48.44483,4.07581 19.93401,-0.57014 40.218,-3.05751 59.92314,0.49673 17.51714,3.87819 35.56481,5.88675 53.6413,6.00321 12.7524,-2.46164 24.42168,4.09942 35.81033,8.02367 10.22412,4.2389 20.66717,8.68618 29.25483,15.24309 7.91182,9.20446 17.38516,17.21217 25.38937,26.33472 5.23736,4.98722 4.73414,11.87591 4.49286,18.25126 -0.68021,13.0554 -1.83211,26.31683 -6.10757,38.89455 -2.55854,7.98516 -12.01535,10.6278 -19.2818,14.29714 -17.19351,7.74595 -35.45079,13.61993 -51.85986,22.73531 -16.25667,4.66743 -33.53301,2.48428 -50.20499,1.77891 -13.96999,-1.38937 -28.02305,-3.32683 -42.11308,-1.71111 -17.9333,1.18236 -35.81213,4.24385 -53.80955,3.8517 -22.54585,-2.6909 -44.13865,-9.31658 -65.9875,-14.63155 -19.60233,-4.68465 -37.46828,-13.49369 -54.6111,-22.91716 -9.15705,-5.35124 -18.85089,-11.57123 -22.08255,-21.4329 -2.64917,-6.79062 -3.2734,-14.0617 -3.39072,-21.21709 z"
       id="path4365"
       inkscape:connector-curvature="0" />
    <path
       style="fill:#ffffff;stroke:none;stroke-width:1"
       d="m 255.74611,486.59733 c -23.27266,-23.83534 -20.48879,-35.75842 -16.41183,-49.14873 4.07679,-13.39047 8.97204,-25.16536 5.766,-32.83447 -3.20588,-7.66895 -10.93987,-14.22751 -17.30992,-18.09351 -6.37002,-3.86612 0.37438,-12.96194 1.66184,-22.47971 1.28739,-9.51792 -6.96124,-58.99857 -6.96124,-58.99857 0,0 -18.46628,33.89095 -21.4884,46.01372 -3.02229,12.1226 -4.17691,16.54274 -4.30975,21.64038 -0.13267,5.09782 1.0675,17.51673 6.55388,23.65787 5.48637,6.14113 13.38767,8.34016 18.4974,11.72826 5.10986,3.388 3.10789,14.22244 1.75318,24.94735 -1.3548,10.72489 -0.91888,18.61083 7.73931,32.21546 7.42161,11.66179 24.50953,21.35195 24.50953,21.35195 z"
       id="path3023-2"
       inkscape:connector-curvature="0"
       sodipodi:nodetypes="csssscssssssc" />
    <text
       xml:space="preserve"
       style="font-style:normal;font-variant:normal;font-weight:normal;font-stretch:normal;font-size:10.6579771px;line-height:0.01%;font-family:Arial;-inkscape-font-specification:Arial;letter-spacing:0px;word-spacing:0px;fill:#b8764f;fill-opacity:1;stroke:none;stroke-width:0.99999994"
       x="146.31161"
       y="792.88184"
       id="text969"
       transform="matrix(0.93043638,-0.40475701,0,1.0747645,0,0)"><tspan
         sodipodi:role="line"
         x="146.31161"
         y="792.88184"
         id="tspan967"
         style="fill:#b8764f;fill-opacity:1;stroke-width:0.99999994"><tspan
           x="146.31161"
           y="792.88184"
           style="font-style:normal;font-variant:normal;font-weight:normal;font-stretch:normal;font-size:42.63190842px;line-height:1.25;font-family:Lavi;-inkscape-font-specification:Lavi;fill:#b8764f;fill-opacity:1;stroke-width:0.99999994"
           id="tspan965">Knnsj</tspan></tspan></text>
    <path
       style="fill:#ffffff;fill-rule:evenodd;stroke:none;stroke-width:1px;stroke-linecap:butt;stroke-linejoin:miter;stroke-opacity:1"
       d="m 386.66702,1497.1921 c 34.54669,1.1959 83.59442,-18.7033 52.12277,-69.4699 56.47337,33.678 62.27267,50.3246 145.657,-14.092 -1.47311,82.0628 60.61743,49.6207 94.77977,31.5942 -31.90286,29.7205 44.35053,37.4591 77.14995,36.8093 -64.92897,64.01 -27.27335,80.4581 1.56546,100.994 -69.13686,-11.9888 -50.31605,20.4329 -57.08491,39.934 -61.35447,-39.0429 -103.02682,-26.0066 -133.68078,16.1838 -19.06347,-20.5486 -27.75576,-65.0776 -87.42715,8.2687 19.50997,-61.1734 -11.17322,-52.8327 -59.48106,-20.0832 6.45489,-20.8238 51.20296,-54.8312 -27.6371,-46.2897 48.01675,-22.6039 56.51496,-49.4327 -5.96395,-83.8492 z"
       id="path4584"
       inkscape:connector-curvature="0"
       sodipodi:nodetypes="cccccccccccc" />
    <path
       style="color:#000000;display:inline;overflow:visible;visibility:visible;fill:#ffffff;fill-opacity:1;fill-rule:nonzero;stroke:none;stroke-width:1px;marker:none;enable-background:accumulate"
       d="m 836.93772,1665.6373 c -13.81416,11.4352 -28.07371,23.5268 -45.37048,28.6126 -4.94334,1.3415 -10.13724,2.383 -15.17734,1.997 -5.10914,-1.5938 -7.95117,-6.8567 -8.29553,-12.0924 -1.01963,-7.5052 0.9934,-15.9414 -3.08945,-22.6298 -3.09088,-4.7908 -9.22063,-4.9463 -14.32973,-5.5392 -13.06169,-1.2494 -26.43419,-0.6991 -39.15272,-4.0712 -14.5982,-2.8393 -29.71536,-6.9131 -40.9249,-17.0755 -4.36621,-4.0993 -8.34623,-9.031 -9.60144,-15.1479 -3.92579,-15.5158 0.93662,-33.8932 13.48534,-44.6997 8.61929,-6.1452 22.04985,-4.5663 27.3382,4.6491 2.86475,4.8194 1.99218,10.9537 -0.28824,15.9992 -2.51679,10.0054 0.79504,20.6754 7.64932,27.7427 5.55929,5.9304 12.9599,9.9511 20.86509,11.8157 9.98256,5.4504 21.83723,2.9201 32.79926,2.915 5.00527,0.073 10.31159,0.497 14.65191,3.0035 5.29618,5.1051 4.90278,13.2996 3.78431,20.2236 -0.97364,7.164 -2.89521,15.3934 1.47098,21.6216 2.44167,4.7598 8.43508,2.4997 12.74015,2.4695 13.91862,-1.9388 27.23033,-8.2543 38.53704,-16.9232 1.01948,-0.9054 1.96415,-1.8854 2.90823,-2.8706 z"
       id="path4496"
       inkscape:connector-curvature="0"
       inkscape:transform-center-x="15.738959"
       inkscape:transform-center-y="-33.216744" />
    <text
       xml:space="preserve"
       style="font-style:normal;font-variant:normal;font-weight:normal;font-stretch:normal;font-size:66.33062744px;line-height:0.01%;font-family:Arial;-inkscape-font-specification:Arial;letter-spacing:0.01132977px;word-spacing:0px;display:inline;fill:#ffffff;fill-opacity:1;stroke:#fc5959;stroke-width:3.02600002;stroke-miterlimit:4;stroke-dasharray:none;stroke-opacity:1"
       x="2100.5652"
       y="1099.4115"
       id="text1105"
       transform="matrix(1.0092628,0.17044443,-0.63347357,0.88384115,0,0)"><tspan
         sodipodi:role="line"
         x="2127.418"
         y="1099.4115"
         id="tspan1103"
         style="font-style:normal;font-variant:normal;font-weight:normal;font-stretch:normal;font-family:Lavi;-inkscape-font-specification:Lavi;fill:#ffffff;fill-opacity:1;stroke:#fc5959;stroke-width:3.02600002;stroke-miterlimit:4;stroke-dasharray:none;stroke-opacity:1"><tspan
           x="2127.418"
           y="1099.4115"
           style="font-style:normal;font-variant:normal;font-weight:normal;font-stretch:normal;font-size:54.77391434px;font-family:Lavi;-inkscape-font-specification:Lavi;fill:#ffffff;fill-opacity:1;stroke:#fc5959;stroke-width:3.02600002;stroke-miterlimit:4;stroke-dasharray:none;stroke-opacity:1"
           id="tspan1095">SjiiING</tspan></tspan></text>
    <path
       style="color:#000000;display:inline;overflow:visible;visibility:visible;fill:#ffffff;fill-opacity:1;fill-rule:nonzero;stroke:none;stroke-width:0.99999994px;marker:none;enable-background:accumulate"
       d="m 829.76467,2415.3202 c -73.17558,-6.4854 -177.70121,-18.1355 -199.40147,-66.8568 -21.70022,-48.7216 12.79831,-128.158 54.82877,-156.1437 42.03032,-27.9855 112.04757,-36.8101 175.50914,-29.1162 63.46162,7.694 149.00939,4.0389 169.43059,49.7766 20.4215,45.7374 49.7966,126.6741 -8.6748,167.2766 -66.63175,46.2692 -191.55632,35.3024 -191.69223,35.0635 z"
       id="path3970-1"
       inkscape:connector-curvature="0"
       sodipodi:nodetypes="ccccssc" />
    <path
       style="opacity:1;fill:#ffffff;fill-rule:evenodd;stroke:none;stroke-width:1px;stroke-linecap:butt;stroke-linejoin:miter;stroke-opacity:1"
       d="m 740.99257,2678.9224 c 81.33155,-3.7713 135.73985,-70.9891 126.35903,-170.042 -0.7356,-13.0761 -2.22429,-73.8821 -3.69549,-94.3134 -1.4712,-20.4314 -28.77037,-38.6153 -26.56347,-14.9149 2.2069,23.7004 2.37118,102.019 6.25838,120.7638 11.59073,90.9486 -48.83803,137.4097 -102.35845,158.5065 z"
       id="path4272"
       inkscape:connector-curvature="0"
       sodipodi:nodetypes="ccsscc" />
    <path
       style="fill:#ffffff;fill-opacity:1;stroke:none;stroke-width:0.9999997"
       d="m 1600.8095,2378.1447 c 24.2418,-91.193 29.8498,-126.2845 301.7038,-122.2898 237.8093,3.4944 290.4237,8.0483 309.8464,108.9885 16.1485,41.4905 3.1744,132.6381 -60.7474,177.0869 -143.3241,44.449 -461.1885,13.7941 -506.813,-26.0533 -49.9662,-46.0489 -42.6694,-107.0192 -43.9898,-137.7323 z"
       id="path3238"
       inkscape:connector-curvature="0"
       sodipodi:nodetypes="cscccc" />
    <path
       style="fill:#ffffff;stroke:none;stroke-width:1"
       d="m 1667.7291,2850.623 c -28.0273,-50.6036 -13.2215,-93.7285 1.8965,-108.2057 15.1178,-14.4771 50.6778,-42.8284 50.9445,-56.9806 0.2668,-14.1522 -15.4826,-50.9134 -21.5889,-63.5846 -7.7887,-16.1627 79.2563,-67.9419 87.5629,-79.9355 8.3067,-11.9938 19.7346,-62.3727 19.7346,-62.3727 0,0 -50.6027,28.0238 -63.2766,41.8377 -12.6739,13.8139 -6.0044,5.2923 -9.6101,12.305 -3.6058,7.0127 -71.1709,62.8269 -66.9634,77.2471 4.2073,14.4202 23.4056,61.9081 28.8814,72.067 5.4761,10.1588 -29.6375,37.3716 -38.8524,50.9878 -9.2149,13.6163 -19.5808,32.142 -19.0015,56.4166 0.5543,23.2298 30.273,60.2179 30.273,60.2179 z"
       id="path3023"
       inkscape:connector-curvature="0"
       sodipodi:nodetypes="csssscssssssc" />
    <path
       style="fill:#ffffff;fill-rule:evenodd;stroke:none;stroke-width:1px;stroke-linecap:butt;stroke-linejoin:miter;stroke-opacity:1"
       d="m 1634.4563,178.337 -24.7862,80.59721 15.8939,63.92059 109.4638,12.07585 304.7185,-3.47289 79.8456,-67.26875 21.2921,-79.88163 -55.8919,-77.77948 -379.463,5.10931 z"
       id="path5054"
       inkscape:connector-curvature="0"
       sodipodi:nodetypes="cccccccccc" />
    <path
       style="color:#000000;display:inline;overflow:visible;visibility:visible;fill:#ffffff;fill-opacity:1;fill-rule:nonzero;stroke:none;stroke-width:1.23743427px;marker:none;enable-background:accumulate"
       d="m 2168.2482,376.00454 c -79.0523,-1.08122 -112.4383,-13.82964 -131.9351,-32.86904 -19.4967,-19.03944 -3.303,-49.77769 30.9504,-60.66181 34.2534,-10.88413 80.5972,-11.98718 134.2411,-10.54619 96.9316,2.60378 164.0698,10.80914 171.6595,40.33347 7.536,29.31413 1.4869,44.86676 -69.7654,58.82678 -67.0754,8.03452 -135.1505,4.91679 -135.1505,4.91679 z"
       id="path3970"
       inkscape:connector-curvature="0"
       sodipodi:nodetypes="cccsscc" />
    <path
       style="color:#000000;display:inline;overflow:visible;visibility:visible;fill:#ffffff;fill-opacity:1;fill-rule:nonzero;stroke:none;stroke-width:1.23743427px;marker:none;enable-background:accumulate"
       d="m 2086.3647,677.88687 c -116.9903,-1.23769 -166.3986,-15.83098 -195.2521,-37.62562 -28.8532,-21.79472 -4.8881,-56.98121 45.8038,-69.4404 50.6921,-12.45921 119.2766,-13.72188 198.6647,-12.07236 143.4501,2.98058 242.8085,12.37337 254.0407,46.17026 11.1525,33.55626 2.2002,51.35958 -103.2466,67.3398 -99.2656,9.19723 -200.0105,5.62832 -200.0105,5.62832 z"
       id="path3970-36"
       inkscape:connector-curvature="0"
       sodipodi:nodetypes="cccsscc" />
    <path
       style="fill:#ffffff;fill-rule:evenodd;stroke:none;stroke-width:1px;stroke-linecap:butt;stroke-linejoin:miter;stroke-opacity:1"
       d="m 1930.44,690.72189 c 32.7586,2.37711 80.7281,-8.86576 54.2441,-44.65472 51.4058,25.3572 93.5533,20.93055 177.1726,-18.88537 -6.9488,55.47661 30.4248,50.29343 64.1178,39.64259 -32.3359,18.66829 25.7083,29.36578 56.931,30.41443 -66.0484,40.37812 -31.3657,53.21963 -5.3405,68.4278 -64.9098,-11.25186 -49.2111,11.54652 -56.9641,24.43851 -55.6829,-29.21 -96.1775,-22.27747 -128.1692,4.88772 -16.7322,-14.7732 -21.9842,-45.30676 -83.6661,1.62921 22.6821,-40.51926 -7.0489,-36.26621 -55.184,-16.29228 7.544,-13.8014 52.3801,-34.78842 -23.1416,-32.58474 47.1723,-13.12034 57.0644,-30.8935 0,-57.02315 z"
       id="path4584-1"
       inkscape:connector-curvature="0"
       sodipodi:nodetypes="cccccccccccc" />
    <path
       style="fill:#ffffff;fill-opacity:1;fill-rule:evenodd;stroke:none;stroke-width:1px;stroke-linecap:butt;stroke-linejoin:miter;stroke-opacity:1"
       d="m 2194.7907,890.80518 103.155,24.0207 17.1925,79.56832 -54.0902,46.5596 -176.0909,7.6239 -216.3967,0.02 -47.0672,-32.9895 -26.0975,-63.24973 71.415,-49.54259 167.9575,-24.0205 z"
       id="path5161"
       inkscape:connector-curvature="0"
       sodipodi:nodetypes="ccccccccccc" />
    <path
       style="color:#000000;display:inline;overflow:visible;visibility:visible;fill:#ffffff;fill-opacity:1;fill-rule:nonzero;stroke:none;stroke-width:1.23743439px;marker:none;enable-background:accumulate"
       d="m 472.46583,1525.8096 c -81.59504,-1.3269 -116.05486,-16.9723 -136.17877,-40.3381 -20.12372,-23.3659 -3.40922,-61.0889 31.94591,-74.4463 35.35525,-13.3574 83.18955,-14.711 138.55887,-12.9427 100.0494,3.1955 169.34704,13.2654 177.18093,49.4988 7.77836,35.9753 1.53461,55.062 -72.00944,72.1943 -69.23289,9.8602 -139.4975,6.034 -139.4975,6.034 z"
       id="path3970-36-4"
       inkscape:connector-curvature="0"
       sodipodi:nodetypes="cccsscc" />
    <path
       style="color:#000000;display:inline;overflow:visible;visibility:visible;fill:#ffffff;fill-opacity:1;fill-rule:nonzero;stroke:none;stroke-width:1px;marker:none;enable-background:accumulate"
       d="m 1663.8731,2265.1373 c -3.5165,-25.3235 8.9906,-44.1378 16.0961,-53.122 7.1056,-8.9843 55.3942,-32.6555 73.7381,-34.6185 18.3439,-1.9629 96.0697,8.2236 111.5859,25.0671 29.6665,41.0213 18.474,80.0335 -42.9956,103.2882 -11.6372,4.3293 -45.7148,10.0318 -56.9894,10.2104 -11.2746,0.1784 -99.3687,-8.8986 -101.4351,-50.8252 z"
       id="path3357"
       inkscape:connector-curvature="0"
       sodipodi:nodetypes="ccccccc" />
    <text
       xml:space="preserve"
       style="font-style:normal;font-variant:normal;font-weight:normal;font-stretch:normal;line-height:0%;font-family:Lavi;-inkscape-font-specification:Lavi;text-align:center;letter-spacing:0px;word-spacing:0px;text-anchor:middle;display:inline;opacity:0.35800003;fill:#000000;fill-opacity:1;stroke:none;stroke-width:1.45996165;filter:url(#filter4210)"
       x="1174.0292"
       y="1085.962"
       id="text4246-5"
       transform="matrix(0.59859266,-0.06157078,0.00633293,0.63548918,537.82445,2353.2314)"><tspan
         sodipodi:role="line"
         style="font-style:normal;font-variant:normal;font-weight:normal;font-stretch:normal;font-size:45.00812149px;line-height:1.25;font-family:Fondamento;-inkscape-font-specification:Fondamento;stroke:#000000;stroke-width:4.95442009;stroke-miterlimit:4;stroke-dasharray:none;stroke-opacity:1"
         x="1174.0292"
         y="1085.962"
         id="tspan4207"> KOMONA-nytt</tspan><tspan
         sodipodi:role="line"
         style="font-style:normal;font-variant:normal;font-weight:normal;font-stretch:normal;font-size:45.00812149px;line-height:1.25;font-family:Fondamento;-inkscape-font-specification:Fondamento;stroke:#000000;stroke-width:4.95442009;stroke-miterlimit:4;stroke-dasharray:none;stroke-opacity:1"
         x="1179.5233"
         y="1142.2222"
         id="tspan4209"> </tspan></text>
    <path
       style="color:#000000;display:inline;overflow:visible;visibility:visible;fill:#ffffff;fill-opacity:1;fill-rule:nonzero;stroke:none;stroke-width:1px;marker:none;enable-background:accumulate"
       d="m 1589.7943,157.61754 c -8.8614,-24.36709 -33.8637,-38.6263 -43.4322,-37.17458 -9.5684,1.45169 37.9222,-18.88289 66.1459,18.41098 28.2236,37.29379 -9.2438,35.86676 -9.2438,35.86676 z"
       id="path4035-5"
       inkscape:connector-curvature="0" />
    <path
       style="color:#000000;display:inline;overflow:visible;visibility:visible;fill:#ffffff;fill-opacity:1;fill-rule:nonzero;stroke:none;stroke-width:1px;marker:none;enable-background:accumulate"
       d="m 1316.9724,411.08671 c 59.7698,37.7282 26.9131,115.63535 -8.523,127.33445 38.815,-5.69719 107.6543,-77.73022 42.1661,-140.88089 -140.721,-135.6979 -91.9073,-21.1982 -91.9073,-21.1982 z"
       id="path4035"
       inkscape:connector-curvature="0"
       sodipodi:nodetypes="ccscc" />
    <path
       style="color:#000000;display:inline;overflow:visible;visibility:visible;fill:#ffffff;fill-opacity:1;fill-rule:nonzero;stroke:none;stroke-width:0.99999982px;marker:none;enable-background:accumulate"
       d="m 1112.6921,89.58375 c 83.3367,4.792092 338.767,-8.461992 325.2971,159.67372 -15.2624,190.51029 -51.3054,172.22875 -351.5561,173.59878 -233.32665,1.06466 -355.71726,6.87046 -363.45291,-91.92104 C 665.94776,20.507733 995.21183,93.312657 1112.6921,89.58375 Z"
       id="path4546-6"
       inkscape:connector-curvature="0"
       sodipodi:nodetypes="csscc" />
    <path
       style="color:#000000;display:inline;overflow:visible;visibility:visible;fill:#ffffff;fill-opacity:1;fill-rule:nonzero;stroke:none;stroke-width:1.23743439px;marker:none;enable-background:accumulate"
       d="m 1603.1577,218.81569 c -72.2705,4.52699 -82.9245,-16.41582 -77.0834,-44.57794 7.3914,-35.63688 40.8892,-42.89308 85.1879,-41.5388 49.1997,0.26824 73.5251,7.0858 79.0271,22.20114 8.6871,23.86573 9.3102,47.69261 -16.5628,58.46055 -32.9494,8.01405 -70.5688,5.45505 -70.5688,5.45505 z"
       id="path3970-6"
       inkscape:connector-curvature="0"
       sodipodi:nodetypes="cscscc" />
  </g>
  <g
     inkscape:groupmode="layer"
     id="layer1"
     inkscape:label="txt"
     style="display:inline">
    <text
       xml:space="preserve"
       style="font-style:normal;font-variant:normal;font-weight:normal;font-stretch:normal;line-height:0%;font-family:Lavi;-inkscape-font-specification:Lavi;text-align:center;letter-spacing:0px;word-spacing:0px;text-anchor:middle;fill:#000000;fill-opacity:1;stroke:none"
       x="334.38605"
       y="188.50803"
       id="text4246"><tspan
         sodipodi:role="line"
         style="font-size:45px;line-height:1.25"
         x="334.38605"
         y="188.50803"
         id="tspan4252">Med mindre ...</tspan></text>
    <text
       xml:space="preserve"
       style="font-style:normal;font-variant:normal;font-weight:normal;font-stretch:normal;line-height:0%;font-family:Lavi;-inkscape-font-specification:Lavi;text-align:center;letter-spacing:0px;word-spacing:0px;text-anchor:middle;fill:#000000;fill-opacity:1;stroke:none"
       x="306.39188"
       y="281.327"
       id="text4246-3"><tspan
         sodipodi:role="line"
         style="font-size:45px;line-height:1.25"
         x="306.39188"
         y="281.327"
         id="tspan137">Om eg ikkje</tspan><tspan
         sodipodi:role="line"
         style="font-size:45px;line-height:1.25"
         x="306.39188"
         y="337.577"
         id="tspan943">hugsar feil ...</tspan></text>
    <text
       xml:space="preserve"
       style="font-style:normal;font-variant:normal;font-weight:normal;font-stretch:normal;line-height:0%;font-family:Lavi;-inkscape-font-specification:Lavi;text-align:center;letter-spacing:0px;word-spacing:0px;text-anchor:middle;fill:#000000;fill-opacity:1;stroke:none"
       x="1072.6111"
       y="155.32668"
       id="text4246-3-7"><tspan
         sodipodi:role="line"
         style="font-size:45px;line-height:1.25"
         x="1072.6111"
         y="155.32668"
         id="tspan782">Nettopp! I kapittelet</tspan><tspan
         sodipodi:role="line"
         style="font-size:45px;line-height:1.25"
         x="1072.6111"
         y="211.57668"
         id="tspan959">om øydeleggingsformlar rår</tspan><tspan
         sodipodi:role="line"
         style="font-size:45px;line-height:1.25"
         x="1072.6111"
         y="267.82666"
         id="tspan963">Timian oss til fyrst å prøva</tspan><tspan
         sodipodi:role="line"
         style="font-size:45px;line-height:1.25"
         x="1072.6111"
         y="324.07666"
         id="tspan966">dei ut i mikrodimensjonar. Men</tspan><tspan
         sodipodi:role="line"
         style="font-size:45px;line-height:1.25"
         x="1072.6111"
         y="380.32666"
         id="tspan946">så mange åtvaringar det er:</tspan></text>
    <text
       xml:space="preserve"
       style="font-style:normal;font-variant:normal;font-weight:normal;font-stretch:normal;line-height:0%;font-family:Lavi;-inkscape-font-specification:Lavi;text-align:center;letter-spacing:0px;word-spacing:0px;text-anchor:middle;fill:#000000;fill-opacity:1;stroke:none"
       x="579.68707"
       y="1561.0824"
       id="text4246-3-7-6"><tspan
         sodipodi:role="line"
         style="font-size:45px;line-height:1.25"
         x="579.68707"
         y="1561.0824"
         id="tspan4386">Til verket!</tspan></text>
    <text
       xml:space="preserve"
       style="font-style:normal;font-variant:normal;font-weight:normal;font-stretch:normal;line-height:0%;font-family:Lavi;-inkscape-font-specification:Lavi;text-align:center;letter-spacing:0px;word-spacing:0px;text-anchor:middle;fill:#000000;fill-opacity:1;stroke:none"
       x="839.35217"
       y="2245.3857"
       id="text4246-3-7-6-1"><tspan
         sodipodi:role="line"
         style="font-size:45px;line-height:1.25"
         x="839.35217"
         y="2245.3857"
         id="tspan4390">Var det Pepar</tspan><tspan
         sodipodi:role="line"
         style="font-size:45px;line-height:1.25"
         x="839.35217"
         y="2301.6357"
         id="tspan1045">som laga ein</tspan><tspan
         sodipodi:role="line"
         style="font-size:45px;line-height:1.25"
         x="839.35217"
         y="2357.8857"
         id="tspan1043">mikrodimensjon?</tspan></text>
    <text
       xml:space="preserve"
       style="font-style:normal;font-variant:normal;font-weight:normal;font-stretch:normal;line-height:0%;font-family:Lavi;-inkscape-font-specification:Lavi;letter-spacing:0px;word-spacing:0px;fill:#ffffff;fill-opacity:1;stroke:#c83737;stroke-width:0.99236238;stroke-miterlimit:4;stroke-dasharray:none;stroke-opacity:1;filter:url(#filter4375-4-1-1-1-9-5-8)"
       x="787.65729"
       y="1584.5073"
       id="text4580-6-0"
       transform="matrix(0.83434398,-0.14790328,-0.40858731,0.88612324,1099.912,885.91633)"><tspan
         sodipodi:role="line"
         id="tspan4582-1-1"
         x="787.65729"
         y="1584.5073"
         style="font-size:70px;line-height:1.25;fill:#ffffff;fill-opacity:1;stroke:#c83737;stroke-opacity:1"><tspan
           style="font-size:93.14950562px;fill:#ffffff;fill-opacity:1;stroke:#c83737;stroke-opacity:1"
           id="tspan4315-8">Sjvoomp!</tspan><tspan
           style="font-size:114.73223114px;fill:#ffffff;fill-opacity:1;stroke:#c83737;stroke-opacity:1"
           id="tspan4313-2">!</tspan></tspan></text>
    <text
       xml:space="preserve"
       style="font-style:normal;font-variant:normal;font-weight:normal;font-stretch:normal;line-height:0%;font-family:Lavi;-inkscape-font-specification:Lavi;text-align:center;letter-spacing:0px;word-spacing:0px;text-anchor:middle;fill:#000000;fill-opacity:1;stroke:none"
       x="1775.6528"
       y="2253.0674"
       id="text4246-3-7-6-1-7"><tspan
         sodipodi:role="line"
         style="font-size:45px;line-height:1.25"
         x="1775.6528"
         y="2253.0674"
         id="tspan1274">Bra!</tspan></text>
    <text
       xml:space="preserve"
       style="font-style:normal;font-variant:normal;font-weight:normal;font-stretch:normal;line-height:0%;font-family:Lavi;-inkscape-font-specification:Lavi;text-align:center;letter-spacing:0px;word-spacing:0px;text-anchor:middle;fill:#483200;fill-opacity:1;stroke:none;stroke-width:1.79999995;stroke-miterlimit:4;stroke-dasharray:none"
       x="2288.6836"
       y="390.96573"
       id="text4246-3-7-3"
       transform="skewX(-20)"><tspan
         sodipodi:role="line"
         style="font-size:45px;line-height:1.25;fill:#483200;fill-opacity:1;stroke-width:1.79999995;stroke-miterlimit:4;stroke-dasharray:none"
         x="2288.6836"
         y="394.4632"
         id="tspan875-6" /><tspan
         sodipodi:role="line"
         style="font-size:45px;line-height:1.25;fill:#080600;fill-opacity:1;stroke-width:1.79999995;stroke-miterlimit:4;stroke-dasharray:none"
         x="2288.6836"
         y="394.4632"
         id="tspan895-2" /><tspan
         sodipodi:role="line"
         style="font-size:45px;line-height:1.25;fill:#080600;fill-opacity:1;stroke-width:1.79999995;stroke-miterlimit:4;stroke-dasharray:none"
         x="2288.6836"
         y="394.4632"
         id="tspan4769" /><tspan
         sodipodi:role="line"
         style="font-size:45px;line-height:1.25;fill:#080600;fill-opacity:1;stroke-width:1.79999995;stroke-miterlimit:4;stroke-dasharray:none"
         x="2288.6836"
         y="432.20618"
         id="tspan4764">«Av tryggleiksgrunnar</tspan><tspan
         sodipodi:role="line"
         style="font-size:45px;line-height:1.25;fill:#080600;fill-opacity:1;stroke-width:1.79999995;stroke-miterlimit:4;stroke-dasharray:none"
         x="2288.6836"
         y="488.45618"
         id="tspan887-7">må du <tspan
   style="fill:#080600;fill-opacity:1;stroke:#000000;stroke-width:1.79999995;stroke-miterlimit:4;stroke-dasharray:none;stroke-opacity:1"
   id="tspan1025">ALDRI</tspan> ta med deg</tspan><tspan
         sodipodi:role="line"
         style="font-size:45px;line-height:1.25;fill:#080600;fill-opacity:1;stroke-width:1.79999995;stroke-miterlimit:4;stroke-dasharray:none"
         x="2288.6836"
         y="544.70618"
         id="tspan972">resultatet tilbake.»</tspan></text>
    <text
       xml:space="preserve"
       style="font-style:normal;font-variant:normal;font-weight:normal;font-stretch:normal;line-height:0%;font-family:Lavi;-inkscape-font-specification:Lavi;text-align:center;letter-spacing:0px;word-spacing:0px;text-anchor:middle;fill:#000000;fill-opacity:1;stroke:none;stroke-width:1.79999995;stroke-miterlimit:4;stroke-dasharray:none"
       x="1955.9976"
       y="138.75549"
       id="text4246-3-7-3-2"
       transform="skewX(-20)"><tspan
         sodipodi:role="line"
         style="font-size:45px;line-height:1.25;fill:#000000;fill-opacity:1;stroke-width:1.79999995;stroke-miterlimit:4;stroke-dasharray:none"
         x="1955.9976"
         y="142.25294"
         id="tspan875-6-6" /><tspan
         sodipodi:role="line"
         style="font-size:45px;line-height:1.25;fill:#000000;fill-opacity:1;stroke-width:1.79999995;stroke-miterlimit:4;stroke-dasharray:none"
         x="1955.9976"
         y="142.25294"
         id="tspan895-2-1" /><tspan
         sodipodi:role="line"
         style="font-size:45px;line-height:1.25;fill:#000000;fill-opacity:1;stroke-width:1.79999995;stroke-miterlimit:4;stroke-dasharray:none"
         x="1955.9976"
         y="142.25294"
         id="tspan4769-8" /><tspan
         sodipodi:role="line"
         style="font-size:45px;line-height:1.25;fill:#000000;fill-opacity:1;stroke-width:1.79999995;stroke-miterlimit:4;stroke-dasharray:none"
         x="1955.9976"
         y="179.99596"
         id="tspan887-7-2">«<tspan
   style="fill:#000000;fill-opacity:1;stroke:#000000;stroke-width:1.79999995;stroke-miterlimit:4;stroke-dasharray:none;stroke-opacity:1"
   id="tspan1025-9">IKKJE</tspan> bruk opp</tspan><tspan
         sodipodi:role="line"
         style="font-size:45px;line-height:1.25;fill:#000000;fill-opacity:1;stroke-width:1.79999995;stroke-miterlimit:4;stroke-dasharray:none"
         x="1955.9976"
         y="236.24596"
         id="tspan973">all reaen på å skapa</tspan><tspan
         sodipodi:role="line"
         style="font-size:45px;line-height:1.25;fill:#000000;fill-opacity:1;stroke-width:1.79999995;stroke-miterlimit:4;stroke-dasharray:none"
         x="1955.9976"
         y="292.49594"
         id="tspan975">mikrodimensjonen.»</tspan></text>
    <text
       xml:space="preserve"
       style="font-style:normal;font-variant:normal;font-weight:normal;font-stretch:normal;line-height:0%;font-family:Lavi;-inkscape-font-specification:Lavi;text-align:center;letter-spacing:0px;word-spacing:0px;text-anchor:middle;fill:#483200;fill-opacity:1;stroke:none;stroke-width:1.29999995;stroke-miterlimit:4;stroke-dasharray:none"
       x="2343.6082"
       y="784.80414"
       id="text4246-3-7-3-7"
       transform="skewX(-20)"><tspan
         sodipodi:role="line"
         style="font-size:45px;line-height:1.25;fill:#483200;fill-opacity:1;stroke-width:1.29999995;stroke-miterlimit:4;stroke-dasharray:none"
         x="2343.6082"
         y="788.30157"
         id="tspan875-6-5" /><tspan
         sodipodi:role="line"
         style="font-size:45px;line-height:1.25;fill:#483200;fill-opacity:1;stroke-width:1.29999995;stroke-miterlimit:4;stroke-dasharray:none"
         x="2343.6082"
         y="788.30157"
         id="tspan895-2-9" /><tspan
         sodipodi:role="line"
         style="font-size:45px;line-height:1.25;fill:#483200;fill-opacity:1;stroke-width:1.29999995;stroke-miterlimit:4;stroke-dasharray:none"
         x="2343.6082"
         y="788.30157"
         id="tspan4769-2" /><tspan
         sodipodi:role="line"
         style="font-size:45px;line-height:1.25;fill:#000000;fill-opacity:1;stroke-width:1.29999995;stroke-miterlimit:4;stroke-dasharray:none"
         x="2343.6082"
         y="826.04462"
         id="tspan801">«<tspan
   style="fill:#000000;fill-opacity:1;stroke:#000000;stroke-width:1.29999995;stroke-miterlimit:4;stroke-dasharray:none;stroke-opacity:1"
   id="tspan1025-8">IKKJE</tspan> forvent</tspan><tspan
         sodipodi:role="line"
         style="font-size:45px;line-height:1.25;fill:#000000;fill-opacity:1;stroke-width:1.29999995;stroke-miterlimit:4;stroke-dasharray:none"
         x="2343.6082"
         y="882.29462"
         id="tspan1026">hjelp utanfrå ...</tspan><tspan
         sodipodi:role="line"
         style="font-size:45px;line-height:1.25;fill:#000000;fill-opacity:1;stroke-width:1.29999995;stroke-miterlimit:4;stroke-dasharray:none"
         x="2343.6082"
         y="900.80157"
         id="tspan1023" /></text>
    <text
       xml:space="preserve"
       style="font-style:normal;font-variant:normal;font-weight:normal;font-stretch:normal;line-height:0%;font-family:Lavi;-inkscape-font-specification:Lavi;text-align:center;letter-spacing:0px;word-spacing:0px;text-anchor:middle;fill:#000000;fill-opacity:1;stroke:none"
       x="2205.9573"
       y="336.28864"
       id="text4246-3-7-61"><tspan
         sodipodi:role="line"
         style="font-size:45px;line-height:1.25"
         x="2205.9573"
         y="336.28864"
         id="tspan887-1">Seier seg sjølv.</tspan></text>
    <text
       xml:space="preserve"
       style="font-style:normal;font-variant:normal;font-weight:normal;font-stretch:normal;line-height:0%;font-family:Lavi;-inkscape-font-specification:Lavi;text-align:center;letter-spacing:0px;word-spacing:0px;text-anchor:middle;fill:#000000;fill-opacity:1;stroke:#000000;stroke-width:0.60000002;stroke-miterlimit:4;stroke-dasharray:none;stroke-opacity:1"
       x="2106.3323"
       y="734.84283"
       id="text4246-3-7-61-9"><tspan
         sodipodi:role="line"
         style="font-size:45px;line-height:1.25;stroke:#000000;stroke-width:0.60000002;stroke-miterlimit:4;stroke-dasharray:none;stroke-opacity:1"
         x="2106.3323"
         y="734.84283"
         id="tspan887-1-4">Her er det!</tspan></text>
    <text
       xml:space="preserve"
       style="font-style:normal;font-variant:normal;font-weight:normal;font-stretch:normal;line-height:0%;font-family:Lavi;-inkscape-font-specification:Lavi;text-align:center;letter-spacing:0px;word-spacing:0px;text-anchor:middle;fill:#000000;fill-opacity:1;stroke:none"
       x="2136.8503"
       y="632.20129"
       id="text4246-3-7-61-7"><tspan
         sodipodi:role="line"
         style="font-weight:bold;font-size:45px;line-height:1.25"
         x="2136.8503"
         y="632.20129"
         id="tspan887-1-8">Pff... Sjølvsagt ikkje!</tspan></text>
    <text
       xml:space="preserve"
       style="font-style:normal;font-variant:normal;font-weight:normal;font-stretch:normal;line-height:0%;font-family:Lavi;-inkscape-font-specification:Lavi;text-align:center;letter-spacing:0px;word-spacing:0px;text-anchor:middle;fill:#000000;fill-opacity:1;stroke:none"
       x="1611.2759"
       y="194.1888"
       id="text4246-3-7-61-4"><tspan
         sodipodi:role="line"
         style="font-size:45px;line-height:1.25"
         x="1611.2759"
         y="194.1888"
         id="tspan887-1-5">Mm...</tspan></text>
    <text
       xml:space="preserve"
       style="font-style:normal;font-variant:normal;font-weight:normal;font-stretch:normal;line-height:0%;font-family:Lavi;-inkscape-font-specification:Lavi;text-align:center;letter-spacing:0px;word-spacing:0px;text-anchor:middle;fill:#483200;fill-opacity:1;stroke:#483200;stroke-width:1.29999995;stroke-miterlimit:4;stroke-dasharray:none;stroke-opacity:1"
       x="2404.5046"
       y="921.53699"
       id="text4246-3-7-3-7-0"
       transform="skewX(-20)"><tspan
         sodipodi:role="line"
         style="font-size:45px;line-height:1.25;fill:#483200;fill-opacity:1;stroke:#483200;stroke-width:1.29999995;stroke-miterlimit:4;stroke-dasharray:none;stroke-opacity:1"
         x="2404.5046"
         y="925.03442"
         id="tspan875-6-5-6" /><tspan
         sodipodi:role="line"
         style="font-size:45px;line-height:1.25;fill:#483200;fill-opacity:1;stroke:#483200;stroke-width:1.29999995;stroke-miterlimit:4;stroke-dasharray:none;stroke-opacity:1"
         x="2404.5046"
         y="925.03442"
         id="tspan895-2-9-3" /><tspan
         sodipodi:role="line"
         style="font-size:45px;line-height:1.25;fill:#483200;fill-opacity:1;stroke:#483200;stroke-width:1.29999995;stroke-miterlimit:4;stroke-dasharray:none;stroke-opacity:1"
         x="2404.5046"
         y="925.03442"
         id="tspan4769-2-2" /><tspan
         sodipodi:role="line"
         style="font-size:45px;line-height:1.25;fill:#000000;fill-opacity:1;stroke:#000000;stroke-width:1.29999995;stroke-miterlimit:4;stroke-dasharray:none;stroke-opacity:1"
         x="2404.5046"
         y="962.77747"
         id="tspan5159">... <tspan
   style="font-style:normal;font-variant:normal;font-weight:bold;font-stretch:normal;font-family:Lavi;-inkscape-font-specification:'Lavi Bold'"
   id="tspan941">INGEN</tspan> kan sjå kva</tspan><tspan
         sodipodi:role="line"
         style="font-size:45px;line-height:1.25;fill:#000000;fill-opacity:1;stroke:#000000;stroke-width:1.29999995;stroke-miterlimit:4;stroke-dasharray:none;stroke-opacity:1"
         x="2404.5046"
         y="1019.0275"
         id="tspan1030">du driv med!»</tspan></text>
    <text
       xml:space="preserve"
       style="font-style:normal;font-variant:normal;font-weight:normal;font-stretch:normal;line-height:0%;font-family:Lavi;-inkscape-font-specification:Lavi;text-align:center;letter-spacing:0px;word-spacing:0px;text-anchor:middle;fill:#000000;fill-opacity:1;stroke:none"
       x="1907.6078"
       y="2334.0767"
       id="text4246-3-7-6-1-7-6"><tspan
         sodipodi:role="line"
         style="font-size:45px;line-height:1.25"
         x="1907.6078"
         y="2334.0767"
         id="tspan1274-5">Håpar ho fekk med seg</tspan><tspan
         sodipodi:role="line"
         style="font-size:45px;line-height:1.25"
         x="1907.6078"
         y="2390.3267"
         id="tspan1060">alle åtvaringane som</tspan><tspan
         sodipodi:role="line"
         style="font-size:45px;line-height:1.25"
         x="1907.6078"
         y="2446.5767"
         id="tspan1056">eg skreiv i kapittelet om</tspan><tspan
         sodipodi:role="line"
         style="font-size:45px;line-height:1.25"
         x="1907.6078"
         y="2502.8267"
         id="tspan1058">øydeleggingsformlar.</tspan></text>
    <text
       xml:space="preserve"
       style="font-style:normal;font-variant:normal;font-weight:normal;font-stretch:normal;line-height:0%;font-family:Lavi;-inkscape-font-specification:Lavi;text-align:center;letter-spacing:0px;word-spacing:0px;text-anchor:middle;fill:#000000;fill-opacity:1;stroke:none"
       x="506.91153"
       y="1439.3142"
       id="text4246-3-7-61-7-7"><tspan
         sodipodi:role="line"
         style="font-size:45px;line-height:1.25"
         x="506.91153"
         y="1442.8116"
         id="tspan887-1-8-6" /><tspan
         sodipodi:role="line"
         style="font-size:45px;line-height:1.25"
         x="506.91153"
         y="1480.5547"
         id="tspan5199">Heilt perfekt!</tspan></text>
    <text
       xml:space="preserve"
       style="font-style:normal;font-variant:normal;font-weight:normal;font-stretch:normal;line-height:0%;font-family:Lavi;-inkscape-font-specification:Lavi;text-align:center;letter-spacing:0px;word-spacing:0px;text-anchor:middle;fill:#000000;fill-opacity:1;stroke:#000000;stroke-width:0.89999998;stroke-miterlimit:4;stroke-dasharray:none;stroke-opacity:1"
       x="378.70123"
       y="1327.1586"
       id="text4246-3-7-61-7-7-2"><tspan
         sodipodi:role="line"
         style="font-size:45px;line-height:1.25;stroke:#000000;stroke-width:0.89999998;stroke-miterlimit:4;stroke-dasharray:none;stroke-opacity:1"
         x="378.70123"
         y="1327.1586"
         id="tspan5199-4">Ingen?</tspan></text>
    <text
       xml:space="preserve"
       style="font-style:normal;font-variant:normal;font-weight:normal;font-stretch:normal;line-height:0%;font-family:Lavi;-inkscape-font-specification:Lavi;text-align:center;letter-spacing:0px;word-spacing:0px;text-anchor:middle;fill:#000000;fill-opacity:1;stroke:none"
       x="465.7381"
       y="1404.2216"
       id="text4246-3-7-61-7-7-7"><tspan
         sodipodi:role="line"
         style="font-size:45px;line-height:1.25"
         x="465.7381"
         y="1404.2216"
         id="tspan5199-43">Verkeleg?!</tspan></text>
    <text
       xml:space="preserve"
       style="font-style:normal;font-variant:normal;font-weight:normal;font-stretch:normal;font-size:36px;line-height:125%;font-family:'Droid Sans';-inkscape-font-specification:'Droid Sans';text-align:start;letter-spacing:0px;word-spacing:0px;text-anchor:start;fill:#000000;fill-opacity:1;stroke:none;stroke-width:1px;stroke-linecap:butt;stroke-linejoin:miter;stroke-opacity:1"
       x="2031.6909"
       y="947.71777"
       id="text939"><tspan
         sodipodi:role="line"
         id="tspan937"
         x="2031.6909"
         y="979.61554" /></text>
  </g>
</svg>
