<?xml version="1.0" encoding="UTF-8" standalone="no"?>
<svg
   xmlns:dc="http://purl.org/dc/elements/1.1/"
   xmlns:cc="http://creativecommons.org/ns#"
   xmlns:rdf="http://www.w3.org/1999/02/22-rdf-syntax-ns#"
   xmlns:svg="http://www.w3.org/2000/svg"
   xmlns="http://www.w3.org/2000/svg"
   xmlns:xlink="http://www.w3.org/1999/xlink"
   xmlns:sodipodi="http://sodipodi.sourceforge.net/DTD/sodipodi-0.dtd"
   xmlns:inkscape="http://www.inkscape.org/namespaces/inkscape"
   sodipodi:docname="E36P15.svg"
   height="3503"
   width="2481"
   inkscape:version="1.0 (4035a4fb49, 2020-05-01)"
   version="1.1"
   id="svg2">
  <metadata
     id="metadata8">
    <rdf:RDF>
      <cc:Work
         rdf:about="">
        <dc:format>image/svg+xml</dc:format>
        <dc:type
           rdf:resource="http://purl.org/dc/dcmitype/StillImage" />
      </cc:Work>
    </rdf:RDF>
  </metadata>
  <defs
     id="defs6" />
  <sodipodi:namedview
     inkscape:document-rotation="0"
     inkscape:snap-global="false"
     inkscape:pagecheckerboard="0"
     inkscape:current-layer="layer1"
     inkscape:window-maximized="1"
     inkscape:window-y="-8"
     inkscape:window-x="-8"
     inkscape:cy="2520.4939"
     inkscape:cx="1262.8196"
     inkscape:zoom="0.42"
     showgrid="false"
     id="namedview4"
     inkscape:window-height="715"
     inkscape:window-width="1366"
     inkscape:pageshadow="2"
     inkscape:pageopacity="0"
     guidetolerance="10"
     gridtolerance="10"
     objecttolerance="10"
     borderopacity="1"
     bordercolor="#111111"
     pagecolor="#1e1e1e" />
  <g
     sodipodi:insensitive="true"
     inkscape:label="artwork"
     id="layer2"
     inkscape:groupmode="layer">
    <image
       sodipodi:absref="D:\Pepper&amp;Carrot translation\ep36_the-suprise-attack\lang\gfx_Pepper-and-Carrot_by-David-Revoy_E36P15.png"
       xlink:href="../gfx_Pepper-and-Carrot_by-David-Revoy_E36P15.png"
       y="0"
       x="0"
       id="image10"
       height="3503"
       width="2481" />
  </g>
  <g
     style="display:inline"
     inkscape:label="speechbubbles"
     id="layer3"
     inkscape:groupmode="layer">
    <path
       style="color:#000000;display:inline;overflow:visible;visibility:visible;fill:#ffffff;fill-opacity:1;fill-rule:nonzero;stroke:none;stroke-width:0.983578px;marker:none;enable-background:accumulate"
       d="m 297.97213,1085.1714 c -41.09662,0.4633 -82.59316,6.9478 -119.16887,21.7216 -18.43522,8.1915 -34.49227,20.5217 -42.14696,36.0277 -7.07423,17.9319 -7.794,37.7529 0.7732,55.4608 9.79236,18.8053 32.08258,33.1537 57.52435,38.0015 23.40399,4.8345 47.81687,2.6177 71.67969,2.0061 19.59506,-0.674 39.2538,-0.9437 58.82355,0.2619 39.79681,1.1256 79.64918,-0.6597 119.22495,-3.858 17.97863,-1.8551 36.23894,-6.319 49.93118,-15.8327 15.75683,-10.8786 23.66093,-27.194 24.7828,-43.2115 1.35578,-14.5128 -1.60856,-29.8304 -12.2609,-42.1329 -9.69447,-11.0163 -24.59394,-18.2629 -38.77327,-25.4401 -20.87516,-10.2592 -44.48257,-17.7007 -69.272,-19.5737 -31.88951,-3.1451 -64.10176,-3.221 -96.19812,-3.4362 -1.63987,0 -3.27973,0 -4.9196,0.01 z"
       id="path4040-4-9-3"
       inkscape:connector-curvature="0"
       sodipodi:nodetypes="zssssz" />
    <path
       style="color:#000000;display:inline;overflow:visible;visibility:visible;fill:#ffffff;fill-opacity:1;fill-rule:nonzero;stroke:none;stroke-width:1.12918px;marker:none;enable-background:accumulate"
       d="m 1029.5218,1104.2641 c -65.50025,0.4482 -132.22321,3.9749 -193.87528,18.9184 -20.41057,4.9368 -39.58238,14.6307 -45.71528,28.3588 -7.46156,16.3562 4.07024,34.2339 23.83673,45.1393 17.54079,9.8778 40.57116,14.4948 62.89651,18.1487 40.8424,6.0603 82.99638,7.0085 124.75052,8.0722 89.8209,1.7917 179.6271,-1.7653 269.158,-5.9911 37.3167,-1.9722 75.8614,-6.3463 107.6498,-19.597 28.6447,-13.3662 38.9065,-41.0293 19.7091,-60.3858 -13.0779,-13.2479 -36.4182,-21.1333 -60.236,-23.9441 -38.0701,-4.9012 -77.0858,-5.4236 -115.7783,-6.4598 -46.6716,-1.0627 -93.3742,-1.4786 -140.0658,-2.0624 -17.442,-0.159 -34.886,-0.2737 -52.33,-0.1972 z"
       id="path4040-4-9-3-0"
       inkscape:connector-curvature="0"
       sodipodi:nodetypes="zssssz" />
    <path
       style="color:#000000;display:inline;overflow:visible;visibility:visible;fill:#ffffff;fill-opacity:1;fill-rule:nonzero;stroke:none;stroke-width:1.16054px;marker:none;enable-background:accumulate"
       d="m 1480.3094,1148.7528 c -44.0916,0.8556 -89.0332,7.1858 -127.5547,23.6799 -22.8438,10.4643 -35.2046,30.6065 -35.0994,50.0945 -1.1355,23.6309 11.0086,48.2958 35.9893,63.6401 22.3394,13.3719 50.9233,19.059 78.7831,22.4785 38.0587,4.4142 76.668,5.4039 115.1342,5.6673 49.8161,-0.038 99.8288,-2.5114 148.7268,-9.7877 28.4329,-5.3007 56.2027,-16.1346 73.71,-33.9638 19.0306,-19.8022 24.6525,-47.1665 10.7077,-69.5315 -11.995,-19.8122 -37.9462,-34.3024 -66.7064,-38.2676 -41.9457,-8.0434 -85.4782,-8.8479 -128.4706,-11.0781 -35.0146,-1.8021 -70.1116,-3.0758 -105.22,-2.9316 z"
       id="path4040-4-9-3-0-9"
       inkscape:connector-curvature="0"
       sodipodi:nodetypes="zssssz" />
    <path
       sodipodi:nodetypes="cccc"
       inkscape:connector-curvature="0"
       id="path4430-0"
       d="m 326.37351,1205.6333 c -41.4835,0.9688 -83.19956,-0.2958 -124.41642,4.7244 -13.12689,1.8023 -25.74829,6.3468 -36.37741,13.3772 -20.74992,13.3026 -34.54006,34.4735 -37.43478,56.8775 -3.24852,18.9406 -2.9333,38.5906 2.9261,57.1205 5.51917,15.4361 17.85522,29.098 34.38662,36.4372 18.47232,8.8175 39.38478,12.3166 59.84554,15.6349 39.51652,5.8817 79.75975,6.4799 119.73688,5.6474 28.48425,-0.789 56.82235,-3.6429 85.27153,-4.9645 26.1972,-1.4866 52.69173,-3.9751 77.48929,-11.9888 11.93813,-3.6382 24.55334,-7.8908 32.72098,-16.8023 9.21837,-10.4272 11.78486,-23.9525 13.00073,-36.7728 1.86383,-22.0605 -0.56568,-44.5073 -8.02538,-65.6671 -3.09848,-8.3454 -6.88985,-16.6749 -12.85253,-23.7773 -8.28012,-8.6176 -20.61012,-13.0605 -32.72793,-15.8696 -29.69722,-8.6253 -61.25261,-9.4544 -92.21355,-10.7607 -27.09733,-1.2649 -54.16797,-3.5088 -81.32967,-3.216 z"
       style="fill:#ffffff;fill-rule:evenodd;stroke:none;stroke-width:1.05258px;stroke-linecap:butt;stroke-linejoin:miter;stroke-opacity:1" />
    <path
       sodipodi:nodetypes="ccsccsccc"
       inkscape:connector-curvature="0"
       id="path891"
       d="m 492.73176,1603.2349 c 35.8435,-75.0596 29.27963,-94.5713 28.30936,-110.3154 -16.52174,13.049 -24.86604,17.1296 -24.65914,16.0987 3.00972,-14.9956 -37.0191,-160.0643 -46.02432,-155.6225 l 25.72144,3.5806 c 0,0 17.88665,28.959 23.68535,50.3037 5.37124,19.7714 9.79616,68.3744 9.79616,68.3744 0,0 11.77629,-10.107 19.5645,-13.9247 2.56416,14.0835 32.14557,54.8133 -36.39335,141.5052 z"
       style="fill:#ffffff;fill-rule:evenodd;stroke:none;stroke-width:0.994835px;stroke-linecap:butt;stroke-linejoin:miter;stroke-opacity:1" />
    <path
       d="m 2033.5749,1087.207 c -5.756,4.6447 -10.6387,10.0299 -14.5927,15.6045 -13.5384,19.204 -22.3605,40.3486 -27.4075,61.9003 -5.3225,24.1031 -3.5609,48.776 0.3916,72.9169 4.858,27.8468 14.455,55.861 34.4089,79.5079 12.7895,12.9207 33.0228,19.6582 53.0095,22.6223 25.9218,4.389 52.2219,7.8999 78.7642,8.607 29.9267,0.2043 59.7355,-3.5587 88.6275,-9.5001 24.9842,-5.8107 49.4546,-15.7757 65.8957,-32.075 11.7621,-12.1288 16.6507,-27.1968 20.8597,-41.8103 13.099,-42.3917 16.3786,-87.3155 3.1707,-129.9573 -3.0255,-9.3654 -6.2941,-18.8621 -12.324,-27.3454 -6.0272,-8.1034 -14.2368,-14.9588 -23.759,-20.4708 z"
       style="fill:#ffffff;fill-rule:evenodd;stroke:none;stroke-width:0.915193px;stroke-linecap:butt;stroke-linejoin:miter;stroke-opacity:1"
       id="path889" />
    <path
       sodipodi:nodetypes="csccc"
       inkscape:connector-curvature="0"
       id="path3063-1-0"
       d="m 2102.6686,1458.9105 c -36.2076,-29.4781 -50.7799,-119.2023 -15.5488,-162.3147 20.7862,-25.4361 31.6921,-40.9014 31.6921,-40.9014 l -27.6324,-16.4993 c -85.537,95.2453 -31.5876,190.6132 11.4891,219.7154 z"
       style="display:inline;fill:#ffffff;stroke:none;stroke-width:0.912419" />
    <path
       sodipodi:nodetypes="cccc"
       inkscape:connector-curvature="0"
       id="path4430-0-7"
       d="m 1432.3086,2321.9296 c -31.4657,0.5377 -63.3523,3.6816 -93.0792,14.3574 -14.1415,5.2359 -27.6676,13.6792 -35.973,26.3354 -8.0137,16.6991 -7.4161,37.4888 2.7471,53.1959 5.5977,8.7304 14.0278,15.3844 23.3223,20.0549 12.7081,6.5082 26.7054,10.1689 40.7044,12.8911 23.3187,4.207 47.1105,5.0723 70.772,5.0405 31.0476,-0.2871 62.105,-2.8218 92.6972,-8.0565 19.4971,-4.0593 39.2636,-9.5011 55.7854,-20.8353 8.2119,-8.0596 11.5796,-19.4354 13.6493,-30.3378 3.3936,-17.7715 -3.6255,-37.5104 -18.7353,-48.2535 -10.6922,-7.2743 -23.507,-10.5399 -35.9454,-13.6948 -20.6294,-4.6883 -41.77,-6.554 -62.7907,-8.7006 -17.6737,-1.4788 -35.4182,-2.0824 -53.1541,-1.9967 z"
       style="fill:#ffffff;fill-rule:evenodd;stroke:none;stroke-width:0.760127px;stroke-linecap:butt;stroke-linejoin:miter;stroke-opacity:1" />
    <path
       sodipodi:nodetypes="cccc"
       inkscape:connector-curvature="0"
       id="path4430-0-7-3"
       d="m 1113.4692,2911.2658 c -29.7103,0.5523 -60.2479,5.9365 -85.4471,20.6199 -18.9562,11.9646 -28.17964,33.6236 -26.3351,53.9178 0.7327,20.3498 11.6158,40.9412 31.0396,52.2325 18.4053,10.8907 40.1558,16.1547 61.6964,19.5 31.6884,4.6057 64.3276,6.9564 96.1087,1.6718 19.4934,-3.395 39.0737,-9.2041 54.8405,-20.3056 9.953,-6.9276 17.5881,-16.492 21.1423,-27.3378 6.9062,-18.9661 6.8153,-40.3619 -2.3209,-58.7248 -7.6433,-14.1411 -22.8721,-24.3914 -39.8051,-28.2086 -24.6539,-7.0573 -50.5197,-9.6786 -76.1417,-12.2527 -11.5633,-0.8724 -23.1737,-1.2574 -34.7776,-1.1125 z"
       style="display:inline;fill:#ffffff;fill-rule:evenodd;stroke:none;stroke-width:0.730106px;stroke-linecap:butt;stroke-linejoin:miter;stroke-opacity:1" />
    <path
       sodipodi:nodetypes="ccscc"
       inkscape:connector-curvature="0"
       id="path4035-4"
       d="m 1510.6073,2424.7097 c 95.8683,30.7313 27.8183,159.8015 -2.9543,189.2123 50.4373,-43.5579 100.0481,-123.5802 33.0541,-217.2104 -31.2156,-43.6267 -19.8493,18.5629 -19.8493,18.5629 z"
       style="color:#000000;display:inline;overflow:visible;visibility:visible;fill:#ffffff;fill-opacity:1;fill-rule:nonzero;stroke:none;stroke-width:0.933879px;marker:none;enable-background:accumulate" />
    <path
       sodipodi:nodetypes="cssssc"
       inkscape:connector-curvature="0"
       id="path4546-6-5-5"
       d="m 1190.0045,2153.7437 c -53.3076,0.7189 -106.7444,0.9502 -159.6353,3.5454 -31.23821,1.8132 -62.78483,5.374 -89.53527,17.2166 -18.92104,8.6831 -35.43401,22.1784 -41.62888,40.7329 -3.84572,11.8996 -1.3433,25.9201 6.73086,37.9295 9.52495,14.7597 26.61821,26.5353 44.98148,30.257 24.05265,6.1655 48.3375,7.5093 72.49261,11.1289 76.697,8.6841 152.1506,6.1881 226.9973,3.268 29.0951,-1.2811 58.4959,-2.8421 85.4596,-10.1302 18.6712,-5.4037 36.294,-14.8716 44.8425,-30.4215 11.6568,-22.1638 2.0371,-54.185 -23.5138,-72.1176 -19.4403,-13.5401 -43.1435,-19.1532 -65.7264,-23.4834 -33.9773,-6.1359 -68.0047,-8.0923 -101.4647,-7.9256 z"
       style="color:#000000;display:inline;overflow:visible;visibility:visible;fill:#ffffff;fill-opacity:1;fill-rule:nonzero;stroke:none;stroke-width:0.969137px;marker:none;enable-background:accumulate" />
    <path
       sodipodi:nodetypes="zcsz"
       inkscape:connector-curvature="0"
       id="path4480-6"
       d="m 1210.6406,2254.2601 c -58.4517,90.8359 85.6046,288.3485 132.7428,310.3129 -51.7175,-3.6213 -215.024,-222.6528 -167.3541,-289.5926 16.3894,-23.014 93.063,-111.5562 34.6113,-20.7203 z"
       style="color:#000000;display:inline;overflow:visible;visibility:visible;fill:#ffffff;fill-opacity:1;fill-rule:nonzero;stroke:none;stroke-width:0.511885px;marker:none;enable-background:accumulate" />
    <path
       sodipodi:nodetypes="cccccsscc"
       inkscape:connector-curvature="0"
       id="path3023-4"
       d="m 1132.3337,2836.1319 c 6.9881,13.1882 16.9513,18.3851 13.6567,35.0595 -18.6808,32.3624 -3.398,71.476 20.2436,84.4218 3.4934,10.3144 -10.2432,41.0229 -10.2432,41.0229 -31.6711,-50.3948 -47.4892,-83.1315 -25.5958,-126.3842 3.8504,-6.927 -8.3872,-14.7062 -12.2361,-26.3855 -3.8491,-11.6793 -4.7084,-20.1125 -0.097,-40.9935 3.9527,-17.898 39.9891,-41.3608 39.9891,-41.3608 -27.433,31.2471 -35.5926,52.7621 -25.7173,74.6198 z"
       style="fill:#ffffff;stroke:none;stroke-width:1.22863" />
    <path
       sodipodi:nodetypes="csccc"
       inkscape:connector-curvature="0"
       id="path3072-1-3"
       d="m 1335.8587,1401.2979 c 65.8497,-28.0462 73.8682,-93.2932 85.6163,-133.8532 16.6063,-57.3342 4.4593,-31.0509 4.4593,-31.0509 l 17.674,-21.5326 c 11.5377,-2.8141 18.9907,153.1862 -107.7496,186.4367 z"
       style="color:#000000;display:inline;overflow:visible;visibility:visible;fill:#ffffff;fill-opacity:1;fill-rule:nonzero;stroke:none;stroke-width:1.24837px;marker:none;enable-background:accumulate" />
  </g>
  <g
     style="display:inline"
     inkscape:label="txt"
     id="layer1"
     inkscape:groupmode="layer">
    <text
       xml:space="preserve"
       style="font-style:normal;font-variant:normal;font-weight:normal;font-stretch:normal;line-height:0%;font-family:'Xiaolai SC';-inkscape-font-specification:'Xiaolai SC';text-align:center;letter-spacing:0px;word-spacing:0px;text-anchor:middle;fill:#000000;fill-opacity:1;stroke:none"
       x="335.88184"
       y="1154.9167"
       id="text4246-4-2-7"><tspan
         id="tspan1999"
         sodipodi:role="line"
         style="font-style:normal;font-variant:normal;font-weight:normal;font-stretch:normal;font-size:45px;line-height:1.25;font-family:'Xiaolai SC';-inkscape-font-specification:'Xiaolai SC'"
         x="335.88184"
         y="1154.9167">可是为什么</tspan><tspan
         id="tspan60"
         sodipodi:role="line"
         style="font-style:normal;font-variant:normal;font-weight:normal;font-stretch:normal;font-size:45px;line-height:1.25;font-family:'Xiaolai SC';-inkscape-font-specification:'Xiaolai SC'"
         x="335.88184"
         y="1211.1667">会这样？</tspan></text>
    <text
       xml:space="preserve"
       style="font-style:normal;font-variant:normal;font-weight:normal;font-stretch:normal;line-height:0%;font-family:'Xiaolai SC';-inkscape-font-specification:'Xiaolai SC';text-align:center;letter-spacing:0px;word-spacing:0px;text-anchor:middle;fill:#000000;fill-opacity:1;stroke:none"
       x="349.68497"
       y="1290.3839"
       id="text4246-4-2-7-3"><tspan
         id="tspan48107"
         sodipodi:role="line"
         style="font-style:normal;font-variant:normal;font-weight:normal;font-stretch:normal;font-size:45px;line-height:1.25;font-family:'Xiaolai SC';-inkscape-font-specification:'Xiaolai SC'"
         x="349.68497"
         y="1290.3839">有些人开始</tspan><tspan
         id="tspan66"
         sodipodi:role="line"
         style="font-style:normal;font-variant:normal;font-weight:normal;font-stretch:normal;font-size:45px;line-height:1.25;font-family:'Xiaolai SC';-inkscape-font-specification:'Xiaolai SC'"
         x="349.68497"
         y="1346.6339">互相亲吻了…？！</tspan></text>
    <text
       xml:space="preserve"
       style="font-style:normal;font-variant:normal;font-weight:normal;font-stretch:normal;line-height:0%;font-family:'Xiaolai SC';-inkscape-font-specification:'Xiaolai SC';text-align:center;letter-spacing:0px;word-spacing:0px;text-anchor:middle;fill:#000000;fill-opacity:1;stroke:none"
       x="1098.0321"
       y="1179.7714"
       id="text4246-4-2-7-3-6"><tspan
         id="tspan67460"
         sodipodi:role="line"
         style="font-style:normal;font-variant:normal;font-weight:normal;font-stretch:normal;font-size:45px;line-height:1.25;font-family:'Xiaolai SC';-inkscape-font-specification:'Xiaolai SC'"
         x="1098.0321"
         y="1179.7714">哦…成全了不少对鸳鸯啊！</tspan></text>
    <text
       xml:space="preserve"
       style="font-style:normal;font-variant:normal;font-weight:normal;font-stretch:normal;line-height:0%;font-family:'Xiaolai SC';-inkscape-font-specification:'Xiaolai SC';text-align:center;letter-spacing:0px;word-spacing:0px;text-anchor:middle;fill:#000000;fill-opacity:1;stroke:none"
       x="1555.7726"
       y="1227.8654"
       id="text4246-4-2-7-3-6-3"><tspan
         id="tspan67460-0"
         sodipodi:role="line"
         style="font-style:normal;font-variant:normal;font-weight:normal;font-stretch:normal;font-size:45px;line-height:1.25;font-family:'Xiaolai SC';-inkscape-font-specification:'Xiaolai SC'"
         x="1555.7726"
         y="1227.8654">这也是设计好的么？</tspan><tspan
         id="tspan72570"
         sodipodi:role="line"
         style="font-style:normal;font-variant:normal;font-weight:normal;font-stretch:normal;font-size:45px;line-height:1.25;font-family:'Xiaolai SC';-inkscape-font-specification:'Xiaolai SC'"
         x="1555.7726"
         y="1284.1154">小辣椒？</tspan></text>
    <text
       xml:space="preserve"
       style="font-style:normal;font-variant:normal;font-weight:normal;font-stretch:normal;line-height:0%;font-family:'Xiaolai SC';-inkscape-font-specification:'Xiaolai SC';text-align:center;letter-spacing:0px;word-spacing:0px;text-anchor:middle;fill:#000000;fill-opacity:1;stroke:none"
       x="2160.2004"
       y="1141.8198"
       id="text4246-4-2-7-3-6-3-6"><tspan
         id="tspan77915"
         sodipodi:role="line"
         style="font-style:normal;font-variant:normal;font-weight:normal;font-stretch:normal;font-size:45px;line-height:1.25;font-family:'Xiaolai SC';-inkscape-font-specification:'Xiaolai SC'"
         x="2160.2004"
         y="1141.8198">不是哈！我想</tspan><tspan
         id="tspan84"
         sodipodi:role="line"
         style="font-style:normal;font-variant:normal;font-weight:normal;font-stretch:normal;font-size:45px;line-height:1.25;font-family:'Xiaolai SC';-inkscape-font-specification:'Xiaolai SC'"
         x="2160.2004"
         y="1198.0698">也许是龙灵力</tspan><tspan
         id="tspan86"
         sodipodi:role="line"
         style="font-style:normal;font-variant:normal;font-weight:normal;font-stretch:normal;font-size:45px;line-height:1.25;font-family:'Xiaolai SC';-inkscape-font-specification:'Xiaolai SC'"
         x="2160.2004"
         y="1254.3198">增强了魔法的</tspan><tspan
         id="tspan88"
         sodipodi:role="line"
         style="font-style:normal;font-variant:normal;font-weight:normal;font-stretch:normal;font-size:45px;line-height:1.25;font-family:'Xiaolai SC';-inkscape-font-specification:'Xiaolai SC'"
         x="2160.2004"
         y="1310.5698">预期值。</tspan></text>
    <text
       xml:space="preserve"
       style="font-style:normal;font-variant:normal;font-weight:normal;font-stretch:normal;line-height:0%;font-family:'Xiaolai SC';-inkscape-font-specification:'Xiaolai SC';text-align:center;letter-spacing:0px;word-spacing:0px;text-anchor:middle;fill:#000000;fill-opacity:1;stroke:none"
       x="1144.5511"
       y="2220.3787"
       id="text4246-4-2-7-3-6-3-6-1"><tspan
         id="tspan11317"
         sodipodi:role="line"
         style="font-style:normal;font-variant:normal;font-weight:normal;font-stretch:normal;font-size:45px;line-height:1.25;font-family:'Xiaolai SC';-inkscape-font-specification:'Xiaolai SC'"
         x="1144.5511"
         y="2220.3787">哈哈哈，这场战争</tspan><tspan
         id="tspan94"
         sodipodi:role="line"
         style="font-style:normal;font-variant:normal;font-weight:normal;font-stretch:normal;font-size:45px;line-height:1.25;font-family:'Xiaolai SC';-inkscape-font-specification:'Xiaolai SC'"
         x="1144.5511"
         y="2276.6287">绝对会载入史册！</tspan></text>
    <text
       xml:space="preserve"
       style="font-style:normal;font-variant:normal;font-weight:normal;font-stretch:normal;line-height:0%;font-family:'Xiaolai SC';-inkscape-font-specification:'Xiaolai SC';text-align:center;letter-spacing:0px;word-spacing:0px;text-anchor:middle;fill:#000000;fill-opacity:1;stroke:none"
       x="1436.9524"
       y="2379.0957"
       id="text4246-4-2-7-3-6-3-6-1-3"><tspan
         id="tspan83228-9"
         sodipodi:role="line"
         style="font-style:normal;font-variant:normal;font-weight:normal;font-stretch:normal;font-size:45px;line-height:1.25;font-family:'Xiaolai SC';-inkscape-font-specification:'Xiaolai SC'"
         x="1436.9524"
         y="2379.0957">嘿嘿嘿！</tspan></text>
    <text
       xml:space="preserve"
       style="font-style:normal;font-variant:normal;font-weight:normal;font-stretch:normal;line-height:0%;font-family:'Xiaolai SC';-inkscape-font-specification:'Xiaolai SC';text-align:center;letter-spacing:0px;word-spacing:0px;text-anchor:middle;fill:#000000;fill-opacity:1;stroke:none"
       x="1483.8743"
       y="2427.0847"
       id="text4246-4-2-7-3-6-3-6-1-3-2"><tspan
         id="tspan83228-9-2"
         sodipodi:role="line"
         style="font-style:normal;font-variant:normal;font-weight:normal;font-stretch:normal;font-size:45px;line-height:1.25;font-family:'Xiaolai SC';-inkscape-font-specification:'Xiaolai SC'"
         x="1483.8743"
         y="2427.0847">绝对的！</tspan></text>
    <text
       xml:space="preserve"
       style="font-style:normal;font-variant:normal;font-weight:normal;font-stretch:normal;font-size:42px;line-height:0%;font-family:'Xiaolai SC';-inkscape-font-specification:'Xiaolai SC';text-align:center;letter-spacing:0px;word-spacing:0px;text-anchor:middle;fill:#000000;fill-opacity:1;stroke:none"
       x="1153.213"
       y="2970.5569"
       id="text4246-4-2-7-3-6-3-6-1-3-2-8"><tspan
         id="tspan92338"
         sodipodi:role="line"
         style="font-style:normal;font-variant:normal;font-weight:normal;font-stretch:normal;font-size:42px;line-height:1.25;font-family:'Xiaolai SC';-inkscape-font-specification:'Xiaolai SC'"
         x="1153.213"
         y="2970.5569">哎呀，</tspan><tspan
         id="tspan98"
         sodipodi:role="line"
         style="font-style:normal;font-variant:normal;font-weight:normal;font-stretch:normal;font-size:42px;line-height:1.25;font-family:'Xiaolai SC';-inkscape-font-specification:'Xiaolai SC'"
         x="1153.213"
         y="3023.0569">太丢人了！</tspan></text>
    <text
       xml:space="preserve"
       style="font-style:normal;font-variant:normal;font-weight:normal;font-stretch:normal;font-size:10.7631px;line-height:0%;font-family:'Xiaolai SC';-inkscape-font-specification:'Xiaolai SC';text-align:center;letter-spacing:0px;word-spacing:0px;text-anchor:middle;display:inline;fill:#d97041;fill-opacity:1;stroke:#000000;stroke-width:0;stroke-miterlimit:4;stroke-dasharray:none;stroke-opacity:1"
       x="2454.0139"
       y="2982.4719"
       id="text4213-7"
       transform="matrix(0.85852879,0,-0.29243083,1.1647833,0,0)"><tspan
         sodipodi:role="line"
         id="tspan3562-5"
         x="2454.0139"
         y="2982.4719"
         style="font-style:normal;font-variant:normal;font-weight:normal;font-stretch:normal;font-size:64.7408px;line-height:1.25;font-family:'Xiaolai SC';-inkscape-font-specification:'Xiaolai SC';fill:#d97041;fill-opacity:1;stroke:none;stroke-width:0;stroke-miterlimit:4;stroke-dasharray:none">- 完 -</tspan></text>
  </g>
</svg>
