<?xml version="1.0" encoding="UTF-8" standalone="no"?>
<!-- Created with Inkscape (http://www.inkscape.org/) -->

<svg
   xmlns:dc="http://purl.org/dc/elements/1.1/"
   xmlns:cc="http://creativecommons.org/ns#"
   xmlns:rdf="http://www.w3.org/1999/02/22-rdf-syntax-ns#"
   xmlns:svg="http://www.w3.org/2000/svg"
   xmlns="http://www.w3.org/2000/svg"
   xmlns:xlink="http://www.w3.org/1999/xlink"
   xmlns:sodipodi="http://sodipodi.sourceforge.net/DTD/sodipodi-0.dtd"
   xmlns:inkscape="http://www.inkscape.org/namespaces/inkscape"
   id="svg2"
   version="1.1"
   inkscape:version="0.92.4 (5da689c313, 2019-01-14)"
   width="2481"
   height="3503"
   sodipodi:docname="E36P08.svg">
  <metadata
     id="metadata8">
    <rdf:RDF>
      <cc:Work
         rdf:about="">
        <dc:format>image/svg+xml</dc:format>
        <dc:type
           rdf:resource="http://purl.org/dc/dcmitype/StillImage" />
        <dc:title />
      </cc:Work>
    </rdf:RDF>
  </metadata>
  <defs
     id="defs6">
    <filter
       inkscape:collect="always"
       style="color-interpolation-filters:sRGB"
       id="filter1058"
       x="-0.038703579"
       width="1.0774072"
       y="-0.12350958"
       height="1.2470192"
       inkscape:label="army-sound">
      <feGaussianBlur
         inkscape:collect="always"
         stdDeviation="0.67074246"
         id="feGaussianBlur1060" />
    </filter>
    <filter
       inkscape:collect="always"
       style="color-interpolation-filters:sRGB"
       id="filter987"
       x="-0.064568375"
       width="1.1291367"
       y="-0.20604846"
       height="1.4120969"
       inkscape:label="army-sound_background">
      <feGaussianBlur
         inkscape:collect="always"
         stdDeviation="1.036897"
         id="feGaussianBlur989" />
    </filter>
    <filter
       inkscape:collect="always"
       style="color-interpolation-filters:sRGB"
       id="filter1058-6"
       x="-0.038703579"
       width="1.0774072"
       y="-0.12350958"
       height="1.2470192"
       inkscape:label="army-sound">
      <feGaussianBlur
         inkscape:collect="always"
         stdDeviation="0.67074246"
         id="feGaussianBlur1060-2" />
    </filter>
    <filter
       inkscape:collect="always"
       style="color-interpolation-filters:sRGB"
       id="filter987-9"
       x="-0.064568375"
       width="1.1291367"
       y="-0.20604846"
       height="1.4120969"
       inkscape:label="army-sound_background">
      <feGaussianBlur
         inkscape:collect="always"
         stdDeviation="1.036897"
         id="feGaussianBlur989-1" />
    </filter>
    <filter
       inkscape:collect="always"
       style="color-interpolation-filters:sRGB"
       id="filter987-2"
       x="-0.038248602"
       width="1.0764972"
       y="-0.20604846"
       height="1.4120969"
       inkscape:label="army-sound_background">
      <feGaussianBlur
         inkscape:collect="always"
         stdDeviation="1.036897"
         id="feGaussianBlur989-7" />
    </filter>
    <filter
       inkscape:collect="always"
       style="color-interpolation-filters:sRGB"
       id="filter987-9-0"
       x="-0.061341127"
       width="1.1226823"
       y="-0.20977609"
       height="1.4195522"
       inkscape:label="army-sound_background">
      <feGaussianBlur
         inkscape:collect="always"
         stdDeviation="1.036897"
         id="feGaussianBlur989-1-9" />
    </filter>
    <filter
       inkscape:collect="always"
       style="color-interpolation-filters:sRGB"
       id="filter987-2-0"
       x="-0.039810836"
       width="1.0796217"
       y="-0.20519435"
       height="1.4103887"
       inkscape:label="army-sound_background">
      <feGaussianBlur
         inkscape:collect="always"
         stdDeviation="1.036897"
         id="feGaussianBlur989-7-6" />
    </filter>
    <filter
       inkscape:collect="always"
       style="color-interpolation-filters:sRGB"
       id="filter987-2-0-1"
       x="-0.034973706"
       width="1.0699474"
       y="-0.20519435"
       height="1.4103887"
       inkscape:label="army-sound_background">
      <feGaussianBlur
         inkscape:collect="always"
         stdDeviation="1.036897"
         id="feGaussianBlur989-7-6-8" />
    </filter>
    <filter
       inkscape:collect="always"
       style="color-interpolation-filters:sRGB"
       id="filter987-9-0-2"
       x="-0.045267838"
       width="1.0905357"
       y="-0.20306225"
       height="1.4061245"
       inkscape:label="army-sound_background">
      <feGaussianBlur
         inkscape:collect="always"
         stdDeviation="1.036897"
         id="feGaussianBlur989-1-9-0" />
    </filter>
    <filter
       inkscape:collect="always"
       style="color-interpolation-filters:sRGB"
       id="filter987-2-7"
       x="-0.06534631"
       width="1.1306926"
       y="-0.20668167"
       height="1.4133633"
       inkscape:label="army-sound_background">
      <feGaussianBlur
         inkscape:collect="always"
         stdDeviation="1.036897"
         id="feGaussianBlur989-7-5" />
    </filter>
    <filter
       style="color-interpolation-filters:sRGB"
       id="filter4375-4-1-1-1-9-6-9-2-1-5-4"
       inkscape:label="deevad outline effect"
       x="-0.007108724"
       y="-0.012620398"
       width="1.0142174"
       height="1.0252408">
      <feFlood
         id="feFlood4377-7-9-0-8-1-0-2-2-06-5-3"
         flood-opacity="1"
         flood-color="rgb(23,27,52)"
         result="flood" />
      <feComposite
         id="feComposite4379-3-8-8-2-77-6-0-8-3-8-64"
         in2="SourceGraphic"
         in="flood"
         operator="in"
         result="composite1" />
      <feMorphology
         id="feMorphology4393-1-0-49-8-9-2-2-9-2-7-3"
         operator="dilate"
         radius="4"
         result="result3" />
      <feComposite
         id="feComposite4385-9-5-7-0-8-6-3-7-0-1-1"
         in2="result3"
         in="SourceGraphic"
         operator="over"
         result="composite2" />
    </filter>
    <filter
       height="1.1600000000000001"
       width="1.1600000000000001"
       inkscape:label="horn-FX"
       id="filter4375-4-1-1-1-9-5-8"
       style="color-interpolation-filters:sRGB"
       x="-0.080000000000000002"
       y="-0.080000000000000002"
       inkscape:auto-region="false">
      <feFlood
         result="flood"
         flood-color="rgb(46,52,54)"
         flood-opacity="1"
         id="feFlood4377-7-9-0-8-1-7-3" />
      <feComposite
         result="composite1"
         operator="in"
         in2="SourceGraphic"
         id="feComposite4379-3-8-8-2-77-4-1" />
      <feMorphology
         result="result3"
         radius="4.4217631697438895"
         operator="dilate"
         id="feMorphology4393-1-0-49-8-9-3-0" />
      <feComposite
         result="fbSourceGraphic"
         operator="over"
         in="SourceGraphic"
         in2="result3"
         id="feComposite4385-9-5-7-0-8-8-7" />
      <feColorMatrix
         id="feColorMatrix4544"
         values="0 0 0 -1 0 0 0 0 -1 0 0 0 0 -1 0 0 0 0 1 0"
         in="fbSourceGraphic"
         result="fbSourceGraphicAlpha" />
      <feTurbulence
         result="turbulence"
         baseFrequency="0.129 0.0050000000000000001"
         seed="37"
         numOctaves="3"
         type="fractalNoise"
         id="feTurbulence4546" />
      <feDisplacementMap
         result="fbSourceGraphic"
         xChannelSelector="R"
         yChannelSelector="G"
         scale="12.6"
         in="fbSourceGraphic"
         in2="turbulence"
         id="feDisplacementMap4548" />
      <feColorMatrix
         id="feColorMatrix4670"
         values="0 0 0 -1 0 0 0 0 -1 0 0 0 0 -1 0 0 0 0 1 0"
         in="fbSourceGraphic"
         result="fbSourceGraphicAlpha" />
      <feComposite
         result="composite1"
         operator="in"
         in="flood"
         in2="fbSourceGraphic"
         id="feComposite4674" />
      <feMorphology
         id="feMorphology854"
         operator="dilate"
         radius="5"
         result="result4"
         in="composite1" />
      <feComposite
         result="composite2"
         operator="over"
         in="fbSourceGraphic"
         in2="result4"
         id="feComposite4680" />
    </filter>
    <filter
       style="color-interpolation-filters:sRGB"
       id="filter4375-4-1-1-1-9-5-8-8-3-2"
       inkscape:label="Drop Shadow"
       x="-0.012763625"
       y="-0.0044975116"
       width="1.0141582"
       height="1.0569605">
      <feFlood
         id="feFlood4377-7-9-0-8-1-7-3-1-6-6"
         flood-opacity="1"
         flood-color="rgb(224,116,57)"
         result="flood"
         radius="5.0999999999999996" />
      <feComposite
         id="feComposite4379-3-8-8-2-77-4-1-0-7-1"
         in2="SourceGraphic"
         in="flood"
         operator="in"
         result="composite1"
         baseFrequency="0.053999999999999999 0.053999999999999999" />
      <feMorphology
         id="feMorphology4393-1-0-49-8-9-3-0-1-5-8"
         operator="dilate"
         radius="5.1272503082614058"
         result="result3" />
      <feComposite
         id="feComposite4385-9-5-7-0-8-8-7-5-3-7"
         in2="result3"
         in="SourceGraphic"
         operator="over"
         result="fbSourceGraphic"
         numOctaves="4" />
      <feColorMatrix
         result="fbSourceGraphicAlpha"
         in="fbSourceGraphic"
         values="0 0 0 -1 0 0 0 0 -1 0 0 0 0 -1 0 0 0 0 1 0"
         id="feColorMatrix4544-9-5-9" />
      <feTurbulence
         id="feTurbulence4546-3-6-2"
         type="fractalNoise"
         numOctaves="4.4123222748815163"
         seed="172"
         baseFrequency="0.062 0.054054054054054057"
         result="turbulence" />
      <feDisplacementMap
         id="feDisplacementMap4548-8-2-0"
         in2="turbulence"
         in="fbSourceGraphic"
         scale="10.781991"
         yChannelSelector="G"
         xChannelSelector="R"
         result="fbSourceGraphic" />
      <feColorMatrix
         result="fbSourceGraphicAlpha"
         in="fbSourceGraphic"
         values="0 0 0 -1 0 0 0 0 -1 0 0 0 0 -1 0 0 0 0 1 0"
         id="feColorMatrix4670-7-9-2"
         scale="10.800000000000001" />
      <feFlood
         id="feFlood4672-4-1-3"
         flood-opacity="1"
         flood-color="rgb(45,8,0)"
         result="flood"
         in="fbSourceGraphic"
         dx="-2.3999999999999999" />
      <feComposite
         id="feComposite4674-8-2-7"
         in2="fbSourceGraphic"
         in="flood"
         operator="in"
         result="composite1" />
      <feGaussianBlur
         id="feGaussianBlur4676-3-7-5"
         in="composite1"
         stdDeviation="0"
         result="blur" />
      <feOffset
         id="feOffset4678-6-0-9"
         dx="-2.3696682464454994"
         dy="3.1000000000000001"
         result="offset" />
      <feComposite
         id="feComposite4680-4-9-2"
         in2="offset"
         in="fbSourceGraphic"
         operator="over"
         result="composite2" />
    </filter>
    <filter
       style="color-interpolation-filters:sRGB"
       id="filter4375-4-1-1-1-9-5-8-8-3-2-2"
       inkscape:label="Drop Shadow"
       x="-0.01715553"
       y="-0.0044975116"
       width="1.01903"
       height="1.0569605">
      <feFlood
         id="feFlood4377-7-9-0-8-1-7-3-1-6-6-8"
         flood-opacity="1"
         flood-color="rgb(224,116,57)"
         result="flood"
         radius="5.0999999999999996" />
      <feComposite
         id="feComposite4379-3-8-8-2-77-4-1-0-7-1-9"
         in2="SourceGraphic"
         in="flood"
         operator="in"
         result="composite1"
         baseFrequency="0.053999999999999999 0.053999999999999999" />
      <feMorphology
         id="feMorphology4393-1-0-49-8-9-3-0-1-5-8-7"
         operator="dilate"
         radius="5.1272503082614058"
         result="result3" />
      <feComposite
         id="feComposite4385-9-5-7-0-8-8-7-5-3-7-3"
         in2="result3"
         in="SourceGraphic"
         operator="over"
         result="fbSourceGraphic"
         numOctaves="4" />
      <feColorMatrix
         result="fbSourceGraphicAlpha"
         in="fbSourceGraphic"
         values="0 0 0 -1 0 0 0 0 -1 0 0 0 0 -1 0 0 0 0 1 0"
         id="feColorMatrix4544-9-5-9-6" />
      <feTurbulence
         id="feTurbulence4546-3-6-2-1"
         type="fractalNoise"
         numOctaves="4.4123222748815163"
         seed="172"
         baseFrequency="0.062 0.054054054054054057"
         result="turbulence" />
      <feDisplacementMap
         id="feDisplacementMap4548-8-2-0-2"
         in2="turbulence"
         in="fbSourceGraphic"
         scale="10.781991"
         yChannelSelector="G"
         xChannelSelector="R"
         result="fbSourceGraphic" />
      <feColorMatrix
         result="fbSourceGraphicAlpha"
         in="fbSourceGraphic"
         values="0 0 0 -1 0 0 0 0 -1 0 0 0 0 -1 0 0 0 0 1 0"
         id="feColorMatrix4670-7-9-2-9"
         scale="10.800000000000001" />
      <feFlood
         id="feFlood4672-4-1-3-3"
         flood-opacity="1"
         flood-color="rgb(45,8,0)"
         result="flood"
         in="fbSourceGraphic"
         dx="-2.3999999999999999" />
      <feComposite
         id="feComposite4674-8-2-7-1"
         in2="fbSourceGraphic"
         in="flood"
         operator="in"
         result="composite1" />
      <feGaussianBlur
         id="feGaussianBlur4676-3-7-5-9"
         in="composite1"
         stdDeviation="0"
         result="blur" />
      <feOffset
         id="feOffset4678-6-0-9-4"
         dx="-2.3696682464454994"
         dy="3.1000000000000001"
         result="offset" />
      <feComposite
         id="feComposite4680-4-9-2-7"
         in2="offset"
         in="fbSourceGraphic"
         operator="over"
         result="composite2" />
    </filter>
    <filter
       style="color-interpolation-filters:sRGB"
       id="filter4375-4-1-1-1-9-5-8-8-1"
       inkscape:label="Drop Shadow"
       x="-0.011233353"
       y="-0.0024101746"
       width="1.0119459"
       height="1.0513727">
      <feFlood
         id="feFlood4377-7-9-0-8-1-7-3-1-0"
         flood-opacity="1"
         flood-color="rgb(19,8,20)"
         result="flood"
         radius="5.0999999999999996" />
      <feComposite
         id="feComposite4379-3-8-8-2-77-4-1-0-6"
         in2="SourceGraphic"
         in="flood"
         operator="in"
         result="composite1"
         baseFrequency="0.053999999999999999 0.053999999999999999" />
      <feMorphology
         id="feMorphology4393-1-0-49-8-9-3-0-1-3"
         operator="dilate"
         radius="5.1272503082614058"
         result="result3" />
      <feComposite
         id="feComposite4385-9-5-7-0-8-8-7-5-2"
         in2="result3"
         in="SourceGraphic"
         operator="over"
         result="fbSourceGraphic"
         numOctaves="4" />
      <feColorMatrix
         result="fbSourceGraphicAlpha"
         in="fbSourceGraphic"
         values="0 0 0 -1 0 0 0 0 -1 0 0 0 0 -1 0 0 0 0 1 0"
         id="feColorMatrix4544-9-0" />
      <feTurbulence
         id="feTurbulence4546-3-61"
         type="fractalNoise"
         numOctaves="4.4123222748815163"
         seed="172"
         baseFrequency="0.062 0.054054054054054057"
         result="turbulence" />
      <feDisplacementMap
         id="feDisplacementMap4548-8-5"
         in2="turbulence"
         in="fbSourceGraphic"
         scale="10.781991"
         yChannelSelector="G"
         xChannelSelector="R"
         result="fbSourceGraphic" />
      <feColorMatrix
         result="fbSourceGraphicAlpha"
         in="fbSourceGraphic"
         values="0 0 0 -1 0 0 0 0 -1 0 0 0 0 -1 0 0 0 0 1 0"
         id="feColorMatrix4670-7-5"
         scale="10.800000000000001" />
      <feFlood
         id="feFlood4672-4-4"
         flood-opacity="1"
         flood-color="rgb(45,8,0)"
         result="flood"
         in="fbSourceGraphic"
         dx="-2.3999999999999999" />
      <feComposite
         id="feComposite4674-8-7"
         in2="fbSourceGraphic"
         in="flood"
         operator="in"
         result="composite1" />
      <feGaussianBlur
         id="feGaussianBlur4676-3-6"
         in="composite1"
         stdDeviation="0"
         result="blur" />
      <feOffset
         id="feOffset4678-6-56"
         dx="-2.3696682464454994"
         dy="3.1000000000000001"
         result="offset" />
      <feComposite
         id="feComposite4680-4-93"
         in2="offset"
         in="fbSourceGraphic"
         operator="over"
         result="composite2" />
    </filter>
    <filter
       style="color-interpolation-filters:sRGB"
       id="filter4375-4-1-1-1-9-5-8-8-1-0"
       inkscape:label="Drop Shadow"
       x="-0.011233353"
       y="-0.0024101746"
       width="1.0119459"
       height="1.0513727">
      <feFlood
         id="feFlood4377-7-9-0-8-1-7-3-1-0-6"
         flood-opacity="1"
         flood-color="rgb(19,8,20)"
         result="flood"
         radius="5.0999999999999996" />
      <feComposite
         id="feComposite4379-3-8-8-2-77-4-1-0-6-1"
         in2="SourceGraphic"
         in="flood"
         operator="in"
         result="composite1"
         baseFrequency="0.053999999999999999 0.053999999999999999" />
      <feMorphology
         id="feMorphology4393-1-0-49-8-9-3-0-1-3-5"
         operator="dilate"
         radius="5.1272503082614058"
         result="result3" />
      <feComposite
         id="feComposite4385-9-5-7-0-8-8-7-5-2-5"
         in2="result3"
         in="SourceGraphic"
         operator="over"
         result="fbSourceGraphic"
         numOctaves="4" />
      <feColorMatrix
         result="fbSourceGraphicAlpha"
         in="fbSourceGraphic"
         values="0 0 0 -1 0 0 0 0 -1 0 0 0 0 -1 0 0 0 0 1 0"
         id="feColorMatrix4544-9-0-4" />
      <feTurbulence
         id="feTurbulence4546-3-61-7"
         type="fractalNoise"
         numOctaves="4.4123222748815163"
         seed="172"
         baseFrequency="0.062 0.054054054054054057"
         result="turbulence" />
      <feDisplacementMap
         id="feDisplacementMap4548-8-5-6"
         in2="turbulence"
         in="fbSourceGraphic"
         scale="10.781991"
         yChannelSelector="G"
         xChannelSelector="R"
         result="fbSourceGraphic" />
      <feColorMatrix
         result="fbSourceGraphicAlpha"
         in="fbSourceGraphic"
         values="0 0 0 -1 0 0 0 0 -1 0 0 0 0 -1 0 0 0 0 1 0"
         id="feColorMatrix4670-7-5-5"
         scale="10.800000000000001" />
      <feFlood
         id="feFlood4672-4-4-6"
         flood-opacity="1"
         flood-color="rgb(45,8,0)"
         result="flood"
         in="fbSourceGraphic"
         dx="-2.3999999999999999" />
      <feComposite
         id="feComposite4674-8-7-9"
         in2="fbSourceGraphic"
         in="flood"
         operator="in"
         result="composite1" />
      <feGaussianBlur
         id="feGaussianBlur4676-3-6-3"
         in="composite1"
         stdDeviation="0"
         result="blur" />
      <feOffset
         id="feOffset4678-6-56-7"
         dx="-2.3696682464454994"
         dy="3.1000000000000001"
         result="offset" />
      <feComposite
         id="feComposite4680-4-93-4"
         in2="offset"
         in="fbSourceGraphic"
         operator="over"
         result="composite2" />
    </filter>
    <filter
       style="color-interpolation-filters:sRGB"
       id="filter4375-4-1-1-1-9-5-8-8-1-0-7"
       inkscape:label="Drop Shadow"
       x="-0.009247153"
       y="-0.00283728"
       width="1.0098337"
       height="1.0604765">
      <feFlood
         id="feFlood4377-7-9-0-8-1-7-3-1-0-6-4"
         flood-opacity="1"
         flood-color="rgb(9,15,22)"
         result="flood"
         radius="5.0999999999999996" />
      <feComposite
         id="feComposite4379-3-8-8-2-77-4-1-0-6-1-4"
         in2="SourceGraphic"
         in="flood"
         operator="in"
         result="composite1"
         baseFrequency="0.053999999999999999 0.053999999999999999" />
      <feMorphology
         id="feMorphology4393-1-0-49-8-9-3-0-1-3-5-3"
         operator="dilate"
         radius="5.1272503082614058"
         result="result3" />
      <feComposite
         id="feComposite4385-9-5-7-0-8-8-7-5-2-5-0"
         in2="result3"
         in="SourceGraphic"
         operator="over"
         result="fbSourceGraphic"
         numOctaves="4" />
      <feColorMatrix
         result="fbSourceGraphicAlpha"
         in="fbSourceGraphic"
         values="0 0 0 -1 0 0 0 0 -1 0 0 0 0 -1 0 0 0 0 1 0"
         id="feColorMatrix4544-9-0-4-7" />
      <feTurbulence
         id="feTurbulence4546-3-61-7-8"
         type="fractalNoise"
         numOctaves="4.4123222748815163"
         seed="172"
         baseFrequency="0.062 0.054054054054054057"
         result="turbulence" />
      <feDisplacementMap
         id="feDisplacementMap4548-8-5-6-6"
         in2="turbulence"
         in="fbSourceGraphic"
         scale="10.781991"
         yChannelSelector="G"
         xChannelSelector="R"
         result="fbSourceGraphic" />
      <feColorMatrix
         result="fbSourceGraphicAlpha"
         in="fbSourceGraphic"
         values="0 0 0 -1 0 0 0 0 -1 0 0 0 0 -1 0 0 0 0 1 0"
         id="feColorMatrix4670-7-5-5-8"
         scale="10.800000000000001" />
      <feFlood
         id="feFlood4672-4-4-6-8"
         flood-opacity="1"
         flood-color="rgb(45,8,0)"
         result="flood"
         in="fbSourceGraphic"
         dx="-2.3999999999999999" />
      <feComposite
         id="feComposite4674-8-7-9-4"
         in2="fbSourceGraphic"
         in="flood"
         operator="in"
         result="composite1" />
      <feGaussianBlur
         id="feGaussianBlur4676-3-6-3-3"
         in="composite1"
         stdDeviation="0"
         result="blur" />
      <feOffset
         id="feOffset4678-6-56-7-1"
         dx="-2.3696682464454994"
         dy="3.1000000000000001"
         result="offset" />
      <feComposite
         id="feComposite4680-4-93-4-4"
         in2="offset"
         in="fbSourceGraphic"
         operator="over"
         result="composite2" />
    </filter>
    <filter
       style="color-interpolation-filters:sRGB"
       id="filter4375-4-1-1-1-9-5-8-8-1-0-7-9"
       inkscape:label="Drop Shadow"
       x="-0.0089850017"
       y="-0.00283728"
       width="1.009555"
       height="1.0604765">
      <feFlood
         id="feFlood4377-7-9-0-8-1-7-3-1-0-6-4-2"
         flood-opacity="1"
         flood-color="rgb(9,15,22)"
         result="flood"
         radius="5.0999999999999996" />
      <feComposite
         id="feComposite4379-3-8-8-2-77-4-1-0-6-1-4-6"
         in2="SourceGraphic"
         in="flood"
         operator="in"
         result="composite1"
         baseFrequency="0.053999999999999999 0.053999999999999999" />
      <feMorphology
         id="feMorphology4393-1-0-49-8-9-3-0-1-3-5-3-6"
         operator="dilate"
         radius="5.1272503082614058"
         result="result3" />
      <feComposite
         id="feComposite4385-9-5-7-0-8-8-7-5-2-5-0-4"
         in2="result3"
         in="SourceGraphic"
         operator="over"
         result="fbSourceGraphic"
         numOctaves="4" />
      <feColorMatrix
         result="fbSourceGraphicAlpha"
         in="fbSourceGraphic"
         values="0 0 0 -1 0 0 0 0 -1 0 0 0 0 -1 0 0 0 0 1 0"
         id="feColorMatrix4544-9-0-4-7-9" />
      <feTurbulence
         id="feTurbulence4546-3-61-7-8-5"
         type="fractalNoise"
         numOctaves="4.4123222748815163"
         seed="172"
         baseFrequency="0.062 0.054054054054054057"
         result="turbulence" />
      <feDisplacementMap
         id="feDisplacementMap4548-8-5-6-6-0"
         in2="turbulence"
         in="fbSourceGraphic"
         scale="10.781991"
         yChannelSelector="G"
         xChannelSelector="R"
         result="fbSourceGraphic" />
      <feColorMatrix
         result="fbSourceGraphicAlpha"
         in="fbSourceGraphic"
         values="0 0 0 -1 0 0 0 0 -1 0 0 0 0 -1 0 0 0 0 1 0"
         id="feColorMatrix4670-7-5-5-8-4"
         scale="10.800000000000001" />
      <feFlood
         id="feFlood4672-4-4-6-8-8"
         flood-opacity="1"
         flood-color="rgb(45,8,0)"
         result="flood"
         in="fbSourceGraphic"
         dx="-2.3999999999999999" />
      <feComposite
         id="feComposite4674-8-7-9-4-7"
         in2="fbSourceGraphic"
         in="flood"
         operator="in"
         result="composite1" />
      <feGaussianBlur
         id="feGaussianBlur4676-3-6-3-3-1"
         in="composite1"
         stdDeviation="0"
         result="blur" />
      <feOffset
         id="feOffset4678-6-56-7-1-7"
         dx="-2.3696682464454994"
         dy="3.1000000000000001"
         result="offset" />
      <feComposite
         id="feComposite4680-4-93-4-4-2"
         in2="offset"
         in="fbSourceGraphic"
         operator="over"
         result="composite2" />
    </filter>
    <filter
       style="color-interpolation-filters:sRGB"
       id="filter4375-4-1-1-1-9-5-8-8-1-0-1"
       inkscape:label="Drop Shadow"
       x="-0.089999999999999997"
       y="-0.080000000000000002"
       width="1.1600000000000001"
       height="1.1600000000000001"
       inkscape:auto-region="false">
      <feFlood
         id="feFlood4377-7-9-0-8-1-7-3-1-0-6-1"
         flood-opacity="1"
         flood-color="rgb(19,8,20)"
         result="flood"
         radius="5.0999999999999996" />
      <feComposite
         id="feComposite4379-3-8-8-2-77-4-1-0-6-1-5"
         in2="SourceGraphic"
         in="flood"
         operator="in"
         result="composite1"
         baseFrequency="0.053999999999999999 0.053999999999999999" />
      <feMorphology
         id="feMorphology4393-1-0-49-8-9-3-0-1-3-5-9"
         operator="dilate"
         radius="5.1272503082614058"
         result="result3" />
      <feComposite
         id="feComposite4385-9-5-7-0-8-8-7-5-2-5-7"
         in2="result3"
         in="SourceGraphic"
         operator="over"
         result="fbSourceGraphic"
         numOctaves="4" />
      <feColorMatrix
         result="fbSourceGraphicAlpha"
         in="fbSourceGraphic"
         values="0 0 0 -1 0 0 0 0 -1 0 0 0 0 -1 0 0 0 0 1 0"
         id="feColorMatrix4544-9-0-4-76" />
      <feTurbulence
         id="feTurbulence4546-3-61-7-7"
         type="fractalNoise"
         numOctaves="4.4123222748815163"
         seed="172"
         baseFrequency="0.062 0.054054054054054057"
         result="turbulence" />
      <feDisplacementMap
         id="feDisplacementMap4548-8-5-6-3"
         in2="turbulence"
         in="fbSourceGraphic"
         scale="10.781991"
         yChannelSelector="G"
         xChannelSelector="R"
         result="fbSourceGraphic" />
      <feColorMatrix
         result="fbSourceGraphicAlpha"
         in="fbSourceGraphic"
         values="0 0 0 -1 0 0 0 0 -1 0 0 0 0 -1 0 0 0 0 1 0"
         id="feColorMatrix4670-7-5-5-6"
         scale="10.800000000000001" />
      <feFlood
         id="feFlood4672-4-4-6-5"
         flood-opacity="1"
         flood-color="rgb(45,8,0)"
         result="flood"
         in="fbSourceGraphic"
         dx="-2.3999999999999999" />
      <feComposite
         id="feComposite4674-8-7-9-6"
         in2="fbSourceGraphic"
         in="flood"
         operator="in"
         result="composite1" />
      <feGaussianBlur
         id="feGaussianBlur4676-3-6-3-39"
         in="composite1"
         stdDeviation="0"
         result="blur" />
      <feOffset
         id="feOffset4678-6-56-7-4"
         dx="-2.3696682464454994"
         dy="3.1000000000000001"
         result="offset" />
      <feComposite
         id="feComposite4680-4-93-4-8"
         in2="offset"
         in="fbSourceGraphic"
         operator="over"
         result="composite2" />
    </filter>
    <filter
       style="color-interpolation-filters:sRGB"
       id="filter4375-4-1-1-1-9-5-8-8-1-1"
       inkscape:label="Drop Shadow"
       x="-0.089999999999999997"
       y="-0.080000000000000002"
       width="1.1500000000000001"
       height="1.1500000000000001"
       inkscape:auto-region="false">
      <feFlood
         id="feFlood4377-7-9-0-8-1-7-3-1-0-2"
         flood-opacity="1"
         flood-color="rgb(19,8,20)"
         result="flood"
         radius="5.0999999999999996" />
      <feComposite
         id="feComposite4379-3-8-8-2-77-4-1-0-6-9"
         in2="SourceGraphic"
         in="flood"
         operator="in"
         result="composite1"
         baseFrequency="0.053999999999999999 0.053999999999999999" />
      <feMorphology
         id="feMorphology4393-1-0-49-8-9-3-0-1-3-3"
         operator="dilate"
         radius="5.1272503082614058"
         result="result3" />
      <feComposite
         id="feComposite4385-9-5-7-0-8-8-7-5-2-9"
         in2="result3"
         in="SourceGraphic"
         operator="over"
         result="fbSourceGraphic"
         numOctaves="4" />
      <feColorMatrix
         result="fbSourceGraphicAlpha"
         in="fbSourceGraphic"
         values="0 0 0 -1 0 0 0 0 -1 0 0 0 0 -1 0 0 0 0 1 0"
         id="feColorMatrix4544-9-0-0" />
      <feTurbulence
         id="feTurbulence4546-3-61-8"
         type="fractalNoise"
         numOctaves="4.4123222748815163"
         seed="172"
         baseFrequency="0.062 0.054054054054054057"
         result="turbulence" />
      <feDisplacementMap
         id="feDisplacementMap4548-8-5-8"
         in2="turbulence"
         in="fbSourceGraphic"
         scale="10.781991"
         yChannelSelector="G"
         xChannelSelector="R"
         result="fbSourceGraphic" />
      <feColorMatrix
         result="fbSourceGraphicAlpha"
         in="fbSourceGraphic"
         values="0 0 0 -1 0 0 0 0 -1 0 0 0 0 -1 0 0 0 0 1 0"
         id="feColorMatrix4670-7-5-50"
         scale="10.800000000000001" />
      <feFlood
         id="feFlood4672-4-4-9"
         flood-opacity="1"
         flood-color="rgb(45,8,0)"
         result="flood"
         in="fbSourceGraphic"
         dx="-2.3999999999999999" />
      <feComposite
         id="feComposite4674-8-7-6"
         in2="fbSourceGraphic"
         in="flood"
         operator="in"
         result="composite1" />
      <feGaussianBlur
         id="feGaussianBlur4676-3-6-38"
         in="composite1"
         stdDeviation="0"
         result="blur" />
      <feOffset
         id="feOffset4678-6-56-5"
         dx="-2.3696682464454994"
         dy="3.1000000000000001"
         result="offset" />
      <feComposite
         id="feComposite4680-4-93-6"
         in2="offset"
         in="fbSourceGraphic"
         operator="over"
         result="composite2" />
    </filter>
    <filter
       style="color-interpolation-filters:sRGB"
       id="filter4375-4-1-1-1-9-5-8-8-1-0-7-1"
       inkscape:label="Drop Shadow"
       x="-0.050000000000000003"
       y="-0.080000000000000002"
       width="1.1500000000000001"
       height="1.1500000000000001"
       inkscape:auto-region="false">
      <feFlood
         id="feFlood4377-7-9-0-8-1-7-3-1-0-6-4-1"
         flood-opacity="1"
         flood-color="rgb(9,15,22)"
         result="flood"
         radius="5.0999999999999996" />
      <feComposite
         id="feComposite4379-3-8-8-2-77-4-1-0-6-1-4-5"
         in2="SourceGraphic"
         in="flood"
         operator="in"
         result="composite1"
         baseFrequency="0.053999999999999999 0.053999999999999999" />
      <feMorphology
         id="feMorphology4393-1-0-49-8-9-3-0-1-3-5-3-9"
         operator="dilate"
         radius="5.1272503082614058"
         result="result3" />
      <feComposite
         id="feComposite4385-9-5-7-0-8-8-7-5-2-5-0-8"
         in2="result3"
         in="SourceGraphic"
         operator="over"
         result="fbSourceGraphic"
         numOctaves="4" />
      <feColorMatrix
         result="fbSourceGraphicAlpha"
         in="fbSourceGraphic"
         values="0 0 0 -1 0 0 0 0 -1 0 0 0 0 -1 0 0 0 0 1 0"
         id="feColorMatrix4544-9-0-4-7-4" />
      <feTurbulence
         id="feTurbulence4546-3-61-7-8-8"
         type="fractalNoise"
         numOctaves="4.4123222748815163"
         seed="172"
         baseFrequency="0.062 0.054054054054054057"
         result="turbulence" />
      <feDisplacementMap
         id="feDisplacementMap4548-8-5-6-6-1"
         in2="turbulence"
         in="fbSourceGraphic"
         scale="10.781991"
         yChannelSelector="G"
         xChannelSelector="R"
         result="fbSourceGraphic" />
      <feColorMatrix
         result="fbSourceGraphicAlpha"
         in="fbSourceGraphic"
         values="0 0 0 -1 0 0 0 0 -1 0 0 0 0 -1 0 0 0 0 1 0"
         id="feColorMatrix4670-7-5-5-8-0"
         scale="10.800000000000001" />
      <feFlood
         id="feFlood4672-4-4-6-8-3"
         flood-opacity="1"
         flood-color="rgb(45,8,0)"
         result="flood"
         in="fbSourceGraphic"
         dx="-2.3999999999999999" />
      <feComposite
         id="feComposite4674-8-7-9-4-0"
         in2="fbSourceGraphic"
         in="flood"
         operator="in"
         result="composite1" />
      <feGaussianBlur
         id="feGaussianBlur4676-3-6-3-3-4"
         in="composite1"
         stdDeviation="0"
         result="blur" />
      <feOffset
         id="feOffset4678-6-56-7-1-4"
         dx="-2.3696682464454994"
         dy="3.1000000000000001"
         result="offset" />
      <feComposite
         id="feComposite4680-4-93-4-4-4"
         in2="offset"
         in="fbSourceGraphic"
         operator="over"
         result="composite2" />
    </filter>
    <filter
       style="color-interpolation-filters:sRGB"
       id="filter4375-4-1-1-1-9-5-8-8-1-0-7-9-4"
       inkscape:label="Drop Shadow"
       x="-0.089999999999999997"
       y="-0.080000000000000002"
       width="1.1600000000000001"
       height="1.1600000000000001"
       inkscape:auto-region="false">
      <feFlood
         id="feFlood4377-7-9-0-8-1-7-3-1-0-6-4-2-7"
         flood-opacity="1"
         flood-color="rgb(9,15,22)"
         result="flood"
         radius="5.0999999999999996" />
      <feComposite
         id="feComposite4379-3-8-8-2-77-4-1-0-6-1-4-6-6"
         in2="SourceGraphic"
         in="flood"
         operator="in"
         result="composite1"
         baseFrequency="0.053999999999999999 0.053999999999999999" />
      <feMorphology
         id="feMorphology4393-1-0-49-8-9-3-0-1-3-5-3-6-3"
         operator="dilate"
         radius="5.1272503082614058"
         result="result3" />
      <feComposite
         id="feComposite4385-9-5-7-0-8-8-7-5-2-5-0-4-1"
         in2="result3"
         in="SourceGraphic"
         operator="over"
         result="fbSourceGraphic"
         numOctaves="4" />
      <feColorMatrix
         result="fbSourceGraphicAlpha"
         in="fbSourceGraphic"
         values="0 0 0 -1 0 0 0 0 -1 0 0 0 0 -1 0 0 0 0 1 0"
         id="feColorMatrix4544-9-0-4-7-9-7" />
      <feTurbulence
         id="feTurbulence4546-3-61-7-8-5-5"
         type="fractalNoise"
         numOctaves="4.4123222748815163"
         seed="172"
         baseFrequency="0.062 0.054054054054054057"
         result="turbulence" />
      <feDisplacementMap
         id="feDisplacementMap4548-8-5-6-6-0-9"
         in2="turbulence"
         in="fbSourceGraphic"
         scale="10.781991"
         yChannelSelector="G"
         xChannelSelector="R"
         result="fbSourceGraphic" />
      <feColorMatrix
         result="fbSourceGraphicAlpha"
         in="fbSourceGraphic"
         values="0 0 0 -1 0 0 0 0 -1 0 0 0 0 -1 0 0 0 0 1 0"
         id="feColorMatrix4670-7-5-5-8-4-6"
         scale="10.800000000000001" />
      <feFlood
         id="feFlood4672-4-4-6-8-8-2"
         flood-opacity="1"
         flood-color="rgb(45,8,0)"
         result="flood"
         in="fbSourceGraphic"
         dx="-2.3999999999999999" />
      <feComposite
         id="feComposite4674-8-7-9-4-7-1"
         in2="fbSourceGraphic"
         in="flood"
         operator="in"
         result="composite1" />
      <feGaussianBlur
         id="feGaussianBlur4676-3-6-3-3-1-7"
         in="composite1"
         stdDeviation="0"
         result="blur" />
      <feOffset
         id="feOffset4678-6-56-7-1-7-8"
         dx="-2.3696682464454994"
         dy="3.1000000000000001"
         result="offset" />
      <feComposite
         id="feComposite4680-4-93-4-4-2-5"
         in2="offset"
         in="fbSourceGraphic"
         operator="over"
         result="composite2" />
    </filter>
    <filter
       style="color-interpolation-filters:sRGB"
       id="filter4375-4-1-1-1-9-5-8-8-3-2-2-7"
       inkscape:label="Drop Shadow"
       x="-0.01715553"
       y="-0.0044975116"
       width="1.01903"
       height="1.0569605">
      <feFlood
         id="feFlood4377-7-9-0-8-1-7-3-1-6-6-8-4"
         flood-opacity="1"
         flood-color="rgb(224,116,57)"
         result="flood"
         radius="5.0999999999999996" />
      <feComposite
         id="feComposite4379-3-8-8-2-77-4-1-0-7-1-9-1"
         in2="SourceGraphic"
         in="flood"
         operator="in"
         result="composite1"
         baseFrequency="0.053999999999999999 0.053999999999999999" />
      <feMorphology
         id="feMorphology4393-1-0-49-8-9-3-0-1-5-8-7-8"
         operator="dilate"
         radius="5.1272503082614058"
         result="result3" />
      <feComposite
         id="feComposite4385-9-5-7-0-8-8-7-5-3-7-3-5"
         in2="result3"
         in="SourceGraphic"
         operator="over"
         result="fbSourceGraphic"
         numOctaves="4" />
      <feColorMatrix
         result="fbSourceGraphicAlpha"
         in="fbSourceGraphic"
         values="0 0 0 -1 0 0 0 0 -1 0 0 0 0 -1 0 0 0 0 1 0"
         id="feColorMatrix4544-9-5-9-6-9" />
      <feTurbulence
         id="feTurbulence4546-3-6-2-1-7"
         type="fractalNoise"
         numOctaves="4.4123222748815163"
         seed="172"
         baseFrequency="0.062 0.054054054054054057"
         result="turbulence" />
      <feDisplacementMap
         id="feDisplacementMap4548-8-2-0-2-5"
         in2="turbulence"
         in="fbSourceGraphic"
         scale="10.781991"
         yChannelSelector="G"
         xChannelSelector="R"
         result="fbSourceGraphic" />
      <feColorMatrix
         result="fbSourceGraphicAlpha"
         in="fbSourceGraphic"
         values="0 0 0 -1 0 0 0 0 -1 0 0 0 0 -1 0 0 0 0 1 0"
         id="feColorMatrix4670-7-9-2-9-3"
         scale="10.800000000000001" />
      <feFlood
         id="feFlood4672-4-1-3-3-8"
         flood-opacity="1"
         flood-color="rgb(45,8,0)"
         result="flood"
         in="fbSourceGraphic"
         dx="-2.3999999999999999" />
      <feComposite
         id="feComposite4674-8-2-7-1-8"
         in2="fbSourceGraphic"
         in="flood"
         operator="in"
         result="composite1" />
      <feGaussianBlur
         id="feGaussianBlur4676-3-7-5-9-3"
         in="composite1"
         stdDeviation="0"
         result="blur" />
      <feOffset
         id="feOffset4678-6-0-9-4-1"
         dx="-2.3696682464454994"
         dy="3.1000000000000001"
         result="offset" />
      <feComposite
         id="feComposite4680-4-9-2-7-8"
         in2="offset"
         in="fbSourceGraphic"
         operator="over"
         result="composite2" />
    </filter>
    <filter
       style="color-interpolation-filters:sRGB"
       id="filter4375-4-1-1-1-9-5-8-8-3-2-9"
       inkscape:label="Drop Shadow"
       x="-0.01715553"
       y="-0.0044975116"
       width="1.01903"
       height="1.0569605">
      <feFlood
         id="feFlood4377-7-9-0-8-1-7-3-1-6-6-6"
         flood-opacity="1"
         flood-color="rgb(224,116,57)"
         result="flood"
         radius="5.0999999999999996" />
      <feComposite
         id="feComposite4379-3-8-8-2-77-4-1-0-7-1-4"
         in2="SourceGraphic"
         in="flood"
         operator="in"
         result="composite1"
         baseFrequency="0.053999999999999999 0.053999999999999999" />
      <feMorphology
         id="feMorphology4393-1-0-49-8-9-3-0-1-5-8-3"
         operator="dilate"
         radius="5.1272503082614058"
         result="result3" />
      <feComposite
         id="feComposite4385-9-5-7-0-8-8-7-5-3-7-33"
         in2="result3"
         in="SourceGraphic"
         operator="over"
         result="fbSourceGraphic"
         numOctaves="4" />
      <feColorMatrix
         result="fbSourceGraphicAlpha"
         in="fbSourceGraphic"
         values="0 0 0 -1 0 0 0 0 -1 0 0 0 0 -1 0 0 0 0 1 0"
         id="feColorMatrix4544-9-5-9-8" />
      <feTurbulence
         id="feTurbulence4546-3-6-2-6"
         type="fractalNoise"
         numOctaves="4.4123222748815163"
         seed="172"
         baseFrequency="0.062 0.054054054054054057"
         result="turbulence" />
      <feDisplacementMap
         id="feDisplacementMap4548-8-2-0-0"
         in2="turbulence"
         in="fbSourceGraphic"
         scale="10.781991"
         yChannelSelector="G"
         xChannelSelector="R"
         result="fbSourceGraphic" />
      <feColorMatrix
         result="fbSourceGraphicAlpha"
         in="fbSourceGraphic"
         values="0 0 0 -1 0 0 0 0 -1 0 0 0 0 -1 0 0 0 0 1 0"
         id="feColorMatrix4670-7-9-2-4"
         scale="10.800000000000001" />
      <feFlood
         id="feFlood4672-4-1-3-8"
         flood-opacity="1"
         flood-color="rgb(45,8,0)"
         result="flood"
         in="fbSourceGraphic"
         dx="-2.3999999999999999" />
      <feComposite
         id="feComposite4674-8-2-7-8"
         in2="fbSourceGraphic"
         in="flood"
         operator="in"
         result="composite1" />
      <feGaussianBlur
         id="feGaussianBlur4676-3-7-5-8"
         in="composite1"
         stdDeviation="0"
         result="blur" />
      <feOffset
         id="feOffset4678-6-0-9-9"
         dx="-2.3696682464454994"
         dy="3.1000000000000001"
         result="offset" />
      <feComposite
         id="feComposite4680-4-9-2-77"
         in2="offset"
         in="fbSourceGraphic"
         operator="over"
         result="composite2" />
    </filter>
    <filter
       style="color-interpolation-filters:sRGB"
       id="filter4375-4-1-1-1-9-5-8-8-3-2-2-7-6"
       inkscape:label="Drop Shadow"
       x="-0.089999999999999997"
       y="-0.099999999999999992"
       width="1.1600000000000001"
       height="1.1600000000000001"
       inkscape:auto-region="false">
      <feFlood
         id="feFlood4377-7-9-0-8-1-7-3-1-6-6-8-4-4"
         flood-opacity="1"
         flood-color="rgb(224,116,57)"
         result="flood"
         radius="5.0999999999999996" />
      <feComposite
         id="feComposite4379-3-8-8-2-77-4-1-0-7-1-9-1-3"
         in2="SourceGraphic"
         in="flood"
         operator="in"
         result="composite1"
         baseFrequency="0.053999999999999999 0.053999999999999999" />
      <feMorphology
         id="feMorphology4393-1-0-49-8-9-3-0-1-5-8-7-8-0"
         operator="dilate"
         radius="5.1272503082614058"
         result="result3" />
      <feComposite
         id="feComposite4385-9-5-7-0-8-8-7-5-3-7-3-5-3"
         in2="result3"
         in="SourceGraphic"
         operator="over"
         result="fbSourceGraphic"
         numOctaves="4" />
      <feColorMatrix
         result="fbSourceGraphicAlpha"
         in="fbSourceGraphic"
         values="0 0 0 -1 0 0 0 0 -1 0 0 0 0 -1 0 0 0 0 1 0"
         id="feColorMatrix4544-9-5-9-6-9-0" />
      <feTurbulence
         id="feTurbulence4546-3-6-2-1-7-9"
         type="fractalNoise"
         numOctaves="4.4123222748815163"
         seed="172"
         baseFrequency="0.062 0.054054054054054057"
         result="turbulence" />
      <feDisplacementMap
         id="feDisplacementMap4548-8-2-0-2-5-2"
         in2="turbulence"
         in="fbSourceGraphic"
         scale="10.781991"
         yChannelSelector="G"
         xChannelSelector="R"
         result="fbSourceGraphic" />
      <feColorMatrix
         result="fbSourceGraphicAlpha"
         in="fbSourceGraphic"
         values="0 0 0 -1 0 0 0 0 -1 0 0 0 0 -1 0 0 0 0 1 0"
         id="feColorMatrix4670-7-9-2-9-3-5"
         scale="10.800000000000001" />
      <feFlood
         id="feFlood4672-4-1-3-3-8-4"
         flood-opacity="1"
         flood-color="rgb(45,8,0)"
         result="flood"
         in="fbSourceGraphic"
         dx="-2.3999999999999999" />
      <feComposite
         id="feComposite4674-8-2-7-1-8-0"
         in2="fbSourceGraphic"
         in="flood"
         operator="in"
         result="composite1" />
      <feGaussianBlur
         id="feGaussianBlur4676-3-7-5-9-3-5"
         in="composite1"
         stdDeviation="0"
         result="blur" />
      <feOffset
         id="feOffset4678-6-0-9-4-1-9"
         dx="-2.3696682464454994"
         dy="3.1000000000000001"
         result="offset" />
      <feComposite
         id="feComposite4680-4-9-2-7-8-4"
         in2="offset"
         in="fbSourceGraphic"
         operator="over"
         result="composite2" />
    </filter>
    <filter
       style="color-interpolation-filters:sRGB"
       id="filter4375-4-1-1-1-9-5-8-8-3-2-9-6"
       inkscape:label="Drop Shadow"
       x="-0.080000000000000002"
       y="-0.080000000000000002"
       width="1.1600000000000001"
       height="1.1600000000000001"
       inkscape:auto-region="false">
      <feFlood
         id="feFlood4377-7-9-0-8-1-7-3-1-6-6-6-9"
         flood-opacity="1"
         flood-color="rgb(224,116,57)"
         result="flood"
         radius="5.0999999999999996" />
      <feComposite
         id="feComposite4379-3-8-8-2-77-4-1-0-7-1-4-2"
         in2="SourceGraphic"
         in="flood"
         operator="in"
         result="composite1"
         baseFrequency="0.053999999999999999 0.053999999999999999" />
      <feMorphology
         id="feMorphology4393-1-0-49-8-9-3-0-1-5-8-3-2"
         operator="dilate"
         radius="5.1272503082614058"
         result="result3" />
      <feComposite
         id="feComposite4385-9-5-7-0-8-8-7-5-3-7-33-4"
         in2="result3"
         in="SourceGraphic"
         operator="over"
         result="fbSourceGraphic"
         numOctaves="4" />
      <feColorMatrix
         result="fbSourceGraphicAlpha"
         in="fbSourceGraphic"
         values="0 0 0 -1 0 0 0 0 -1 0 0 0 0 -1 0 0 0 0 1 0"
         id="feColorMatrix4544-9-5-9-8-7" />
      <feTurbulence
         id="feTurbulence4546-3-6-2-6-7"
         type="fractalNoise"
         numOctaves="4.4123222748815163"
         seed="172"
         baseFrequency="0.062 0.054054054054054057"
         result="turbulence" />
      <feDisplacementMap
         id="feDisplacementMap4548-8-2-0-0-5"
         in2="turbulence"
         in="fbSourceGraphic"
         scale="10.781991"
         yChannelSelector="G"
         xChannelSelector="R"
         result="fbSourceGraphic" />
      <feColorMatrix
         result="fbSourceGraphicAlpha"
         in="fbSourceGraphic"
         values="0 0 0 -1 0 0 0 0 -1 0 0 0 0 -1 0 0 0 0 1 0"
         id="feColorMatrix4670-7-9-2-4-4"
         scale="10.800000000000001" />
      <feFlood
         id="feFlood4672-4-1-3-8-8"
         flood-opacity="1"
         flood-color="rgb(45,8,0)"
         result="flood"
         in="fbSourceGraphic"
         dx="-2.3999999999999999" />
      <feComposite
         id="feComposite4674-8-2-7-8-1"
         in2="fbSourceGraphic"
         in="flood"
         operator="in"
         result="composite1" />
      <feGaussianBlur
         id="feGaussianBlur4676-3-7-5-8-2"
         in="composite1"
         stdDeviation="0"
         result="blur" />
      <feOffset
         id="feOffset4678-6-0-9-9-8"
         dx="-2.3696682464454994"
         dy="3.1000000000000001"
         result="offset" />
      <feComposite
         id="feComposite4680-4-9-2-77-9"
         in2="offset"
         in="fbSourceGraphic"
         operator="over"
         result="composite2" />
    </filter>
    <filter
       style="color-interpolation-filters:sRGB"
       id="filter4375-4-1-1-1-9-6-9-2-1-5-4-3"
       inkscape:label="deevad outline effect"
       x="-0.0054973959"
       y="-0.011977643"
       width="1.0109948"
       height="1.0239553">
      <feFlood
         id="feFlood4377-7-9-0-8-1-0-2-2-06-5-3-6"
         flood-opacity="1"
         flood-color="rgb(23,27,52)"
         result="flood" />
      <feComposite
         id="feComposite4379-3-8-8-2-77-6-0-8-3-8-64-8"
         in2="SourceGraphic"
         in="flood"
         operator="in"
         result="composite1" />
      <feMorphology
         id="feMorphology4393-1-0-49-8-9-2-2-9-2-7-3-0"
         operator="dilate"
         radius="4"
         result="result3" />
      <feComposite
         id="feComposite4385-9-5-7-0-8-6-3-7-0-1-1-2"
         in2="result3"
         in="SourceGraphic"
         operator="over"
         result="composite2" />
    </filter>
    <filter
       y="0"
       height="1"
       x="0"
       width="1"
       inkscape:menu-tooltip="Aquarelle paper effect which can be used for pictures as for objects"
       inkscape:menu="Textures"
       inkscape:label="Rough Paper"
       style="color-interpolation-filters:sRGB;"
       id="filter23720">
      <feTurbulence
         type="fractalNoise"
         baseFrequency="0.043586711411187022"
         numOctaves="5"
         seed="0"
         result="result4"
         id="feTurbulence23706" />
      <feDisplacementMap
         in="SourceGraphic"
         in2="result4"
         yChannelSelector="G"
         xChannelSelector="R"
         scale="10"
         result="result3"
         id="feDisplacementMap23708" />
      <feComposite
         operator="in"
         in="result3"
         in2="result3"
         result="result2"
         id="feComposite23714" />
      <feComposite
         in2="result2"
         result="result5"
         operator="arithmetic"
         k1="1.7"
         id="feComposite23716" />
      <feBlend
         in="result5"
         in2="result3"
         mode="normal"
         id="feBlend23718" />
    </filter>
    <filter
       y="0"
       height="1"
       x="0"
       width="1"
       inkscape:menu-tooltip="Aquarelle paper effect which can be used for pictures as for objects"
       inkscape:menu="Textures"
       inkscape:label="Rough Paper"
       style="color-interpolation-filters:sRGB;"
       id="filter23754">
      <feTurbulence
         type="fractalNoise"
         baseFrequency="0.04"
         numOctaves="5"
         seed="0"
         result="result4"
         id="feTurbulence23740" />
      <feDisplacementMap
         in="SourceGraphic"
         in2="result4"
         yChannelSelector="G"
         xChannelSelector="R"
         scale="10"
         result="result3"
         id="feDisplacementMap23742" />
      <feComposite
         operator="in"
         in="result3"
         in2="result3"
         result="result2"
         id="feComposite23748" />
      <feComposite
         in2="result2"
         result="result5"
         operator="arithmetic"
         k1="1.7"
         id="feComposite23750" />
      <feBlend
         in="result5"
         in2="result3"
         mode="normal"
         id="feBlend23752" />
    </filter>
    <filter
       y="0"
       height="1"
       x="0"
       width="1"
       inkscape:menu-tooltip="Aquarelle paper effect which can be used for pictures as for objects"
       inkscape:menu="Textures"
       inkscape:label="Rough Paper"
       style="color-interpolation-filters:sRGB"
       id="filter23754-3">
      <feTurbulence
         type="fractalNoise"
         baseFrequency="0.04"
         numOctaves="5"
         seed="0"
         result="result4"
         id="feTurbulence23740-6" />
      <feDisplacementMap
         in="SourceGraphic"
         in2="result4"
         yChannelSelector="G"
         xChannelSelector="R"
         scale="10"
         result="result3"
         id="feDisplacementMap23742-7" />
      <feComposite
         operator="in"
         in="result3"
         in2="result3"
         result="result2"
         id="feComposite23748-5" />
      <feComposite
         in2="result2"
         result="result5"
         operator="arithmetic"
         k1="1.7"
         id="feComposite23750-3"
         k2="0"
         k3="0"
         k4="0" />
      <feBlend
         in="result5"
         in2="result3"
         mode="normal"
         id="feBlend23752-5" />
    </filter>
    <filter
       inkscape:label="Torn Edges"
       inkscape:menu="Distort"
       inkscape:menu-tooltip="Displace the outside of shapes and pictures without altering their content"
       height="1"
       y="0"
       width="1"
       x="0"
       style="color-interpolation-filters:sRGB;"
       id="filter47349">
      <feTurbulence
         baseFrequency="0.068539926478437235"
         numOctaves="5"
         type="fractalNoise"
         result="result91"
         id="feTurbulence47343" />
      <feDisplacementMap
         scale="5.5822522063377376"
         result="result5"
         xChannelSelector="R"
         in="SourceGraphic"
         in2="result91"
         id="feDisplacementMap47345" />
      <feComposite
         in="SourceGraphic"
         operator="atop"
         in2="result5"
         id="feComposite47347" />
    </filter>
  </defs>
  <sodipodi:namedview
     pagecolor="#1e1e1e"
     bordercolor="#111111"
     borderopacity="1"
     objecttolerance="10"
     gridtolerance="10"
     guidetolerance="10"
     inkscape:pageopacity="0"
     inkscape:pageshadow="2"
     inkscape:window-width="1858"
     inkscape:window-height="1057"
     id="namedview4"
     showgrid="false"
     inkscape:zoom="0.43016843"
     inkscape:cx="1066.3011"
     inkscape:cy="903.83728"
     inkscape:window-x="54"
     inkscape:window-y="-8"
     inkscape:window-maximized="1"
     inkscape:current-layer="layer1"
     inkscape:pagecheckerboard="0"
     inkscape:snap-global="false" />
  <g
     inkscape:groupmode="layer"
     id="layer2"
     inkscape:label="artwork"
     sodipodi:insensitive="true">
    <image
       sodipodi:absref="D:\Documents\Others\webcomics\new-ep36_Title-Here\lang\id\../gfx_Pepper-and-Carrot_by-David-Revoy_E36P08.png"
       xlink:href="../gfx_Pepper-and-Carrot_by-David-Revoy_E36P08.png"
       width="2481"
       height="3503"
       id="image10"
       x="0"
       y="0" />
  </g>
  <g
     inkscape:groupmode="layer"
     id="layer3"
     inkscape:label="speechbubbles"
     style="display:inline">
    <path
       style="fill:#ffffff;stroke:none;stroke-width:1.2179203"
       d="m 900.45977,117.31069 c -70.794,1.50206 -141.54266,4.46484 -212.2767,7.52482 -37.64049,1.6596 -75.65532,4.1174 -112.04414,13.96669 -17.71131,4.9472 -35.39942,11.27265 -49.9968,22.22538 -19.38183,13.9406 -34.18624,34.16835 -38.48866,57.0082 -6.57723,31.85555 4.79268,67.12487 31.12991,88.50823 27.29174,23.76367 64.04131,34.77712 100.08116,40.08426 55.31001,8.43411 111.51271,7.49974 167.35219,7.69541 30.31927,0.75819 60.64441,1.2064 90.97187,1.51556 76.16196,1.24572 152.3956,3.5916 228.5291,0.0123 49.7844,-2.28596 94.9294,-8.85366 143.961,-17.47966 29.092,-5.94327 55.971,-23.56127 77.5471,-43.51296 26.5606,-25.48297 38.3967,-59.54586 22.5631,-92.44167 -11.2113,-23.22794 -22.3141,-44.44842 -46.683,-54.4274 -35.4139,-14.98863 -80.5815,-15.92527 -118.8488,-21.13964 -66.2329,-8.3019 -133.2,-5.82387 -199.79796,-8.39146 -27.98928,-0.73949 -55.99645,-1.75748 -83.99937,-1.14808 z"
       id="path3280-8-0-3"
       inkscape:connector-curvature="0"
       sodipodi:nodetypes="cssscccccccccccccc" />
    <path
       style="color:#000000;display:inline;overflow:visible;visibility:visible;fill:#ffffff;fill-opacity:1;fill-rule:nonzero;stroke:none;stroke-width:1.00626px;marker:none;enable-background:accumulate"
       d="m 1079.6202,470.36987 c 36.2399,-33.05001 12.1081,-79.99657 -19.0717,-99.99148 -42.9428,-27.53838 -40.7325,-40.47907 -40.7325,-40.47907 0,0 -13.2061,24.99718 25.677,3.68046 38.8831,-21.31673 102.981,107.99336 34.1272,136.79009 z"
       id="path3072-6"
       inkscape:connector-curvature="0"
       sodipodi:nodetypes="csczc" />
    <path
       style="display:inline;fill:#ffffff;fill-rule:evenodd;stroke:none;stroke-width:0.681559px;stroke-linecap:butt;stroke-linejoin:miter;stroke-opacity:1"
       d="m 309.98674,2106.1414 c 69.7755,50.215 104.5583,27.0557 100.069,-7.8444 24.4115,32.4134 43.012,43.6837 56.4409,20.9975 16.32,23.0419 49.6688,27.0616 54.8864,0.991 14.9063,26.8075 33.0185,27.8272 52.4884,-2.8547 3.8966,27.4839 21.4705,27.4211 49.6187,-5.4359 0.6329,32.2069 17.9133,29.0749 44.2667,-1.0641 -10.7471,47.3202 28.6711,20.5144 58.0666,-3.8816 -24.9969,44.0517 -0.4404,35.2445 22.4985,19.3999 -14.1198,26.0548 23.336,11.0792 81.599,-21.6129 -30.0688,24.3423 -95.5594,61.6144 -47.6375,58.806 -7.4704,7.195 -43.3249,16.619 25.7383,29.1038 -55.4358,7.3582 -31.685,22.2364 -5.0327,29.0116 -29.8177,1.7664 -55.6124,0.3319 -12.1693,32.7908 -42.8131,-16.9806 -61.6322,-27.5828 -48.0445,-4.5282 -34.9797,-22.7531 -69.1093,-20.3543 -65.7895,5.7678 -14.0811,-27.3788 -60.1546,-27.5261 -74.7358,4.0886 -3.3662,-30.2677 -24.9512,-39.5141 -80.4782,-6.1007 12.7835,-34.8929 -33.6969,-22.6429 -59.1615,-1.807 18.6832,-24.3949 -19.7104,-26.9019 -56.468,1.7871 23.3765,-29.3035 -15.3109,-40.3506 -62.9061,4.4166 24.6298,-70.049 -36.988,-41.8614 -73.4178,-33.1839 29.5611,-21.3642 84.3723,-36.7231 20.8585,-46.5205 71.8246,-19.3001 59.4873,-13.4586 24.8622,-28.2643 37.7477,6.2471 28.6796,-8.9196 -5.5523,-44.0625 z"
       id="path4508-2"
       inkscape:connector-curvature="0"
       sodipodi:nodetypes="ccccccccccccccccccccccccc" />
    <path
       style="color:#000000;display:inline;overflow:visible;visibility:visible;fill:#ffffff;fill-opacity:1;fill-rule:nonzero;stroke:none;stroke-width:1.46762px;marker:none;enable-background:accumulate"
       d="m 1701.3998,1145.0066 c -56.8308,-4.1789 -152.8803,-24.8445 -217.9407,-22.7474 -37.3022,-0.7062 -140.2183,20.0059 -160.7769,29.8526 -56.3421,-12.3402 -128.9672,-1.1373 -212.6526,16.1438 70.158,-33.5076 163.4843,-43.3509 213.0711,-33.8074 8.0419,-7.4822 87.8347,-27.1136 143.3863,-30.2389 25.0474,-1.2389 207.6828,8.2831 281.7856,9.889 107.5665,2.3312 -46.8728,30.9083 -46.8728,30.9083 z"
       id="path5901"
       inkscape:connector-curvature="0"
       sodipodi:nodetypes="ccccccsc" />
    <path
       style="fill:#ffffff;fill-rule:evenodd;stroke:none;stroke-width:0.785074px;stroke-linecap:butt;stroke-linejoin:miter;stroke-opacity:1"
       d="m 1983.4495,1106.7585 c 19.2145,46.1047 25.8523,42.0553 27.9539,19.9163 5.1005,7.6378 6.838,30.8477 19.8903,1.66 9.2095,20.0541 16.0556,17.0031 20.9654,-4.9792 16.0966,38.0911 24.5122,15.0047 32.2545,5.809 5.215,5.1447 5.3356,9.078 13.8537,11.5011 8.5181,2.4231 18.1138,-7.2419 24.4505,-15.6968 2.1484,17.3221 11.3863,16.1964 20.1129,0.819 1.7299,18.1822 16.6001,8.754 20.0667,-1.7918 7.8222,22.1528 15.6375,3.4457 21.5052,-3.9599 5.4541,9.714 13.1763,23.6328 17.2023,2.4895 7.4342,8.3276 16.5802,-4.4858 26.8788,-31.5344 -0.9475,17.2403 -7.5893,46.9328 7.526,29.0449 2.1795,12.1449 1.2401,28.4481 33.8673,0 -8.6668,35.5184 18.3876,-1.7513 44.6188,-37.3434 -16.2837,30.6315 -38.6523,68.4577 -9.6764,54.7702 -15.7437,25.791 -15.5853,42.3077 32.792,30.7046 -31.2907,17.7435 -55.0146,35.9837 -19.8902,58.0899 -21.4651,0.6733 -26.4738,8.4917 -2.1502,29.0448 -33.8637,-12.501 -36.337,-5.6188 -27.4164,8.2984 -6.8305,0.6636 -19.2506,-10.8037 -17.2024,9.1285 -19.1189,-11.465 -45.6647,-37.0922 -41.931,-4.9791 -20.2494,-23.5778 -23.3066,-14.4917 -25.2659,-3.3194 -35.7553,-35.3156 -30.6004,-13.2192 -37.0928,-7.4688 -10.4297,-13.2365 -9.833,-1.8859 -7.5259,13.2778 -10.0704,-15.5993 -18.9393,-21.3068 -24.7285,-1.6599 -6.2716,-8.5366 -12.5435,-20.7925 -18.8151,-1.6594 -8.5764,-9.7021 -17.4197,-13.226 -27.4165,9.9581 -4.9523,-13.3335 -11.9491,-22.7225 -33.867,-3.3194 -5.1166,-28.9463 -24.2058,-23.0497 -47.8443,-5.809 0.2219,-17.2061 -2.0233,-28.3632 -25.8036,13.2777 4.6626,-17.847 10.0181,-36.6874 -4.8383,-26.5553 8.4838,-34.1191 -25.795,-2.2263 -46.2314,8.2985 22.7521,-29.5949 56.2523,-65.9157 28.4916,-63.8989 18.4961,-20.6562 20.2088,-30.5174 4.3006,-29.0446 1.1215,-6.1016 20.1455,-18.3445 -1.6127,-16.5972 11.2494,-8.9058 28.2809,-7.587 22.5781,-46.4718 z"
       id="path4656"
       inkscape:connector-curvature="0"
       sodipodi:nodetypes="cccccsccccccccccccccccccccccccccccccc" />
    <path
       style="fill:#ffffff;fill-rule:evenodd;stroke:none;stroke-width:0.925051px;stroke-linecap:butt;stroke-linejoin:miter;stroke-opacity:1"
       d="m 2004.2073,1243.6612 c -25.2719,-49.4337 -33.7605,-44.9504 -36.1958,-21.0207 -6.6526,-8.1568 -9.1686,-33.177 -25.6034,-1.4538 -12.088,-21.4874 -20.8566,-18.0782 -26.9058,5.7299 -21.1644,-40.8373 -31.7096,-15.7778 -41.5565,-5.7215 -27.0793,-21.8567 -98.6678,-20.8192 -128.4971,11.5503 -7.1327,-10.3916 -17.2334,-25.2826 -22.1562,-2.3948 -9.6626,-8.8616 -21.2714,5.123 -34.1903,34.4907 1.0102,-18.623 9.1936,-50.7823 -10.0317,-31.2195 -2.9502,-13.0708 -1.939,-30.6822 -43.5606,0.5752 10.7176,-38.4817 -23.6291,2.2023 -56.9375,41.0615 20.5736,-33.3364 48.8868,-74.5411 11.7832,-59.2766 19.9378,-28.103 19.5342,-45.9263 -42.5492,-32.5818 40.032,-19.6815 70.3253,-39.7707 24.8803,-63.033 27.6006,-1.0912 33.9483,-9.6143 2.4143,-31.3836 43.7072,12.9167 46.8051,5.4469 35.163,-9.4221 8.7774,-0.8322 24.891,11.3333 22.0155,-10.1442 24.7297,12.0491 59.1834,39.2572 53.9925,4.6616 26.3304,25.1031 30.1528,15.2448 32.5376,3.1533 28.4133,33.9302 53.7857,6.9538 57.3191,-7.0271 13.1415,16.6651 24.6178,22.6743 31.8263,1.3714 8.17,9.1069 16.3852,22.2278 24.2204,1.4717 11.1486,10.3255 22.5656,13.9784 35.1428,-11.2135 6.5313,14.3068 15.6444,24.3209 43.6008,3.0074 6.9313,31.1543 31.4129,24.4659 61.6083,5.4571 -0.077,18.5738 2.9459,30.5773 33.0284,-14.7686 -5.7811,19.341 -12.4416,39.766 6.5444,28.5783 -10.499,36.9683 33.205,1.9647 59.3633,-9.7416 -28.9059,32.3275 -71.5549,72.0968 -35.8731,69.4485 -23.5401,22.6081 -25.6237,33.2803 -5.1801,31.4204 -1.3686,6.6044 -25.6895,20.1409 2.2751,17.8854 -14.3615,9.8031 -36.2837,8.6688 -28.478,50.5397 z"
       id="path4656-2"
       inkscape:connector-curvature="0"
       sodipodi:nodetypes="cccccccccccccccccccccccccccccccc" />
    <path
       style="fill:#ffffff;fill-rule:evenodd;stroke:none;stroke-width:0.992393px;stroke-linecap:butt;stroke-linejoin:miter;stroke-opacity:1"
       d="m 1015.1849,2189.4608 -175.18817,23.6245 19.87046,-24.9089 -120.20022,14.1736 10.11593,-22.9029 144.18035,-9.7054 -21.18671,28.732 z"
       id="path4667"
       inkscape:connector-curvature="0" />
    <path
       style="color:#000000;display:inline;overflow:visible;visibility:visible;fill:#ffffff;fill-opacity:1;fill-rule:nonzero;stroke:none;stroke-width:1.02389px;marker:none;enable-background:accumulate"
       d="m 132.3347,2424.1117 c 25.28591,-46.1423 162.81813,-46.7299 208.57774,-28.5767 45.7593,18.1533 62.78614,51.4195 64.91439,63.3506 2.12825,11.93 -3.19243,67.7384 -26.60432,79.406 -23.41169,11.6677 -90.45453,19.2941 -113.86632,20.0527 -23.41179,0.7587 -98.1474,-3.7626 -117.05905,-19.1158 -18.09101,-14.6858 -41.24847,-68.9744 -15.96244,-115.1168 z"
       id="path3330-06"
       inkscape:connector-curvature="0"
       sodipodi:nodetypes="zsssssz" />
    <path
       style="color:#000000;display:inline;overflow:visible;visibility:visible;fill:#ffffff;fill-opacity:1;fill-rule:nonzero;stroke:none;stroke-width:0.802499px;marker:none;enable-background:accumulate"
       d="m 1200.255,2526.534 c 19.3718,-36.9992 124.7367,-37.4704 159.7936,-22.9142 35.0565,14.5563 48.101,41.2308 49.7315,50.7978 1.6305,9.5661 -2.4458,54.3162 -20.3818,63.6719 -17.936,9.3558 -69.2981,15.471 -87.2342,16.0793 -17.936,0.6083 -75.1917,-3.017 -89.6801,-15.3281 -13.8597,-11.7757 -31.6008,-55.3072 -12.229,-92.3067 z"
       id="path3330-06-7"
       inkscape:connector-curvature="0"
       sodipodi:nodetypes="zsssssz" />
    <path
       style="color:#000000;display:inline;overflow:visible;visibility:visible;fill:#ffffff;fill-opacity:1;fill-rule:nonzero;stroke:none;stroke-width:0.761295px;marker:none;enable-background:accumulate"
       d="m 344.41284,2517.0781 c -25.60116,1.3331 -51.5763,3.2314 -76.14811,12.7599 -15.687,7.9697 -30.81744,18.7602 -42.27912,34.2482 -5.38258,9.369 -5.02246,21.3666 -4.69051,32.2716 0.3504,11.3477 2.87632,23.6494 10.40692,31.15 9.623,10.0811 22.44709,13.2791 34.48762,16.6118 26.81384,6.8341 54.13421,10.3587 81.46149,12.2941 41.85848,2.6745 83.95558,3.5333 125.69577,-1.8822 12.82162,-1.891 25.89402,-4.2599 37.67696,-11.0193 13.16283,-8.0402 23.83652,-23.4205 25.73842,-41.5303 1.75759,-14.9548 -2.59753,-30.4149 -10.74159,-41.6699 -10.9041,-16.1375 -27.37575,-25.3614 -44.07157,-28.7421 -21.6944,-5.1196 -43.82859,-6.2388 -65.74765,-9.2586 -23.0191,-2.614 -46.07764,-6.004 -69.23643,-5.3572 -0.85074,0.041 -1.70147,0.083 -2.5522,0.124 z"
       id="path4040-4-5-3"
       inkscape:connector-curvature="0"
       sodipodi:nodetypes="zssssz" />
    <path
       style="fill:#ffffff;stroke:none;stroke-width:0.68186"
       d="m 408.21026,2756.4434 c 41.49541,-14.9397 69.63369,-74.7389 44.97759,-106.2013 -12.48911,-15.9367 -15.19836,-7.3949 -15.19836,-7.3949 l 22.4898,-40.1282 c 0,0 -1.8972,-18.2704 14.44816,13.5807 16.34544,31.8513 14.09086,113.2048 -66.71719,140.1437 z"
       id="path3063-5"
       inkscape:connector-curvature="0"
       sodipodi:nodetypes="cscczc" />
    <path
       style="fill:#ffffff;stroke:none;stroke-width:1.05222"
       d="m 1321.7873,2788.7879 c -16.5258,-31.9571 -12.7678,-43.095 -7.7551,-55.2841 5.0127,-12.1894 10.5127,-22.4678 8.7649,-31.311 -1.7478,-8.8431 -7.4039,-18.0835 -12.2478,-24.1391 -4.8437,-6.0556 1.8748,-12.9996 4.0955,-22.2048 2.2206,-9.2053 1.3101,-62.0823 1.3101,-62.0823 0,0 -19.4788,28.1128 -23.4595,39.3728 -3.9808,11.26 -5.4762,15.3478 -6.2014,20.4652 -0.7252,5.1175 -1.222,18.0964 2.6109,26.1588 3.8329,8.0624 10.1541,12.9445 14.005,18.0924 3.8509,5.1479 0.876,15.4465 -1.5463,25.8514 -2.4223,10.405 -3.0096,18.5368 2.5674,35.2227 4.7806,14.3032 17.8563,29.858 17.8563,29.858 z"
       id="path3023-2"
       inkscape:connector-curvature="0"
       sodipodi:nodetypes="csssscssssssc" />
    <path
       style="color:#000000;font-variation-settings:normal;display:inline;overflow:visible;visibility:visible;opacity:1;vector-effect:none;fill:#b5a898;fill-opacity:1;fill-rule:nonzero;stroke:none;stroke-width:0.787691px;stroke-linecap:butt;stroke-linejoin:miter;stroke-miterlimit:4;stroke-dasharray:none;stroke-dashoffset:0;stroke-opacity:1;-inkscape-stroke:none;marker:none;filter:url(#filter23754);enable-background:accumulate;stop-color:#000000;stop-opacity:1"
       d="m 1520.2101,306.67106 c -34.4703,-26.32907 -102.0792,38.51758 -76.1251,79.72636 -29.1408,-21.44933 -28.4418,-101.10367 88.8819,-122.29745 53.071,-9.58682 -8.5044,28.1115 -8.5044,28.1115 z"
       id="path4035-4"
       inkscape:connector-curvature="0"
       sodipodi:nodetypes="ccscc" />
    <path
       style="color:#000000;display:inline;overflow:visible;visibility:visible;fill:#b6a898;fill-opacity:1;fill-rule:nonzero;stroke:none;stroke-width:0.787691px;marker:none;filter:url(#filter23754);enable-background:accumulate"
       d="m 1414.0907,262.7903 c 3.0074,-38.40157 45.0979,-67.03407 155.5164,-61.30336 59.1462,3.06909 126.2852,4.70066 122.5653,60.94651 -3.72,56.24586 -100.195,56.10016 -120.0926,57.68185 -19.8978,1.58247 -123.68,-2.91327 -142.0412,-21.78215 -11.4935,-11.81125 -16.1339,-23.65991 -15.9479,-35.54285 z"
       id="path4546-6-21"
       inkscape:connector-curvature="0"
       sodipodi:nodetypes="cssssc" />
    <path
       style="fill:#ddbc9a;fill-rule:evenodd;stroke:none;stroke-width:1px;stroke-linecap:butt;stroke-linejoin:miter;stroke-opacity:1;fill-opacity:1"
       d="m 1445.6874,307.01836 0.3946,-1.8904 2.4969,-2.27063 13.7884,2.6873 6.4833,3.4624 0.3146,2.10394 -0.01,0.39526 -4.889,1.37827 -12.2504,-0.92906 z"
       id="path1202" />
  </g>
  <g
     inkscape:groupmode="layer"
     id="layer1"
     inkscape:label="txt"
     style="display:inline">
    <text
       id="text4246-4-2-7"
       y="194.92303"
       x="923.38513"
       style="font-style:normal;font-variant:normal;font-weight:normal;font-stretch:normal;line-height:0%;font-family:Lavi;-inkscape-font-specification:Lavi;text-align:center;letter-spacing:0px;word-spacing:0px;text-anchor:middle;fill:#000000;fill-opacity:1;stroke:none"
       xml:space="preserve"><tspan
         y="194.92303"
         x="923.38513"
         style="font-size:45px;line-height:1.25;fill:#000000"
         sodipodi:role="line"
         id="tspan20232">Mari kita rayakan persekutuan kita</tspan><tspan
         y="251.17303"
         x="923.38513"
         style="font-size:45px;line-height:1.25;fill:#000000"
         sodipodi:role="line"
         id="tspan10101">dengan membalas dan meratakan</tspan><tspan
         y="307.42303"
         x="923.38513"
         style="font-size:45px;line-height:1.25;fill:#000000"
         sodipodi:role="line"
         id="tspan14787">biara ini dari permukaan Hereva.</tspan></text>
    <text
       xml:space="preserve"
       style="font-style:normal;font-variant:normal;font-weight:normal;font-stretch:normal;line-height:0%;font-family:Lavi;-inkscape-font-specification:Lavi;letter-spacing:0px;word-spacing:0px;display:inline;fill:#ffffff;fill-opacity:1;stroke:#ffffff;stroke-width:1.6559;stroke-miterlimit:4;stroke-dasharray:none;stroke-opacity:1;filter:url(#filter4375-4-1-1-1-9-6-9-2-1-5-4-3)"
       x="787.65729"
       y="1584.5073"
       id="text4580-1-7-3-6-91"
       transform="matrix(0.56312247,-0.2879856,-0.10396071,0.76310836,937.20169,-487.48536)"><tspan
         sodipodi:role="line"
         id="tspan4582-8-5-6-1-0"
         x="787.65729"
         y="1584.5073"
         style="font-size:70px;line-height:1.25;letter-spacing:2.96622992px;fill:#ffffff;stroke:#ffffff;stroke-width:1.6559;stroke-miterlimit:4;stroke-dasharray:none;stroke-opacity:1">Klap</tspan></text>
    <text
       id="text4246-4-2-7-3"
       y="275.71851"
       x="1550.7834"
       style="font-style:normal;font-variant:normal;font-weight:normal;font-stretch:normal;line-height:0%;font-family:Lavi;-inkscape-font-specification:Lavi;text-align:center;letter-spacing:0px;word-spacing:0px;text-anchor:middle;fill:#000000;fill-opacity:1;stroke:none;filter:url(#filter47349)"
       xml:space="preserve"><tspan
         y="275.71851"
         x="1550.7834"
         style="font-size:45px;line-height:1.25;fill:#000000"
         sodipodi:role="line"
         id="tspan2289-5"><tspan
   style="font-size:50px;fill:#680000;fill-opacity:1"
   id="tspan52047">S</tspan>etuju!</tspan></text>
    <text
       xml:space="preserve"
       style="font-style:normal;font-variant:normal;font-weight:normal;font-stretch:normal;font-size:8.2448px;line-height:0%;font-family:Lavi;-inkscape-font-specification:Lavi;letter-spacing:1.83751px;word-spacing:0px;display:inline;opacity:0.708356;fill:#b3cfde;fill-opacity:1;stroke:#302820;stroke-width:6.24756;stroke-miterlimit:4;stroke-dasharray:none;stroke-opacity:1;paint-order:stroke fill markers;filter:url(#filter1058)"
       x="1302.3322"
       y="1954.6715"
       id="use4516-8"
       transform="matrix(0.57277918,-0.25843304,-0.10574349,0.93181927,1745.2367,-781.4801)"><tspan
         sodipodi:role="line"
         id="tspan4370-3"
         x="1302.3322"
         y="1954.6715"
         style="font-style:normal;font-variant:normal;font-weight:normal;font-stretch:normal;font-size:48.0947px;line-height:1.25;font-family:Lavi;-inkscape-font-specification:Lavi;fill:#ded5c0;fill-opacity:1;stroke:#302820;stroke-width:6.24756;stroke-miterlimit:4;stroke-dasharray:none;stroke-opacity:1;paint-order:stroke fill markers">Yeah!</tspan></text>
    <text
       xml:space="preserve"
       style="font-style:normal;font-variant:normal;font-weight:normal;font-stretch:normal;font-size:8.2448px;line-height:0%;font-family:Lavi;-inkscape-font-specification:Lavi;letter-spacing:1.83751px;word-spacing:0px;display:inline;opacity:0.369456;fill:#b3cfde;fill-opacity:1;stroke:#302820;stroke-width:10.8167;stroke-miterlimit:4;stroke-dasharray:none;stroke-opacity:1;paint-order:stroke fill markers;filter:url(#filter987)"
       x="1302.3322"
       y="1954.6715"
       id="use4516-8-2-7"
       transform="matrix(0.50551861,-0.22852645,-0.0933262,0.82398656,714.66224,-518.61465)"><tspan
         sodipodi:role="line"
         id="tspan4370-3-6-5"
         x="1302.3322"
         y="1954.6715"
         style="font-style:normal;font-variant:normal;font-weight:normal;font-stretch:normal;font-size:48.0947px;line-height:1.25;font-family:Lavi;-inkscape-font-specification:Lavi;fill:#ded5c0;fill-opacity:1;stroke:#302820;stroke-width:10.8167;stroke-miterlimit:4;stroke-dasharray:none;stroke-opacity:1;paint-order:stroke fill markers">Yeah!</tspan></text>
    <text
       transform="matrix(0.6170271,-0.27711716,-0.11391231,0.99918767,-459.77564,-800.22684)"
       id="use4516-8-2"
       y="1954.6715"
       x="1302.3322"
       style="font-style:normal;font-variant:normal;font-weight:normal;font-stretch:normal;font-size:8.2448px;line-height:0%;font-family:Lavi;-inkscape-font-specification:Lavi;letter-spacing:1.83751px;word-spacing:0px;display:inline;opacity:0.708356;fill:#b3cfde;fill-opacity:1;stroke:#302820;stroke-width:6.24756;stroke-miterlimit:4;stroke-dasharray:none;stroke-opacity:1;paint-order:stroke fill markers;filter:url(#filter1058-6)"
       xml:space="preserve"><tspan
         style="font-style:normal;font-variant:normal;font-weight:normal;font-stretch:normal;font-size:48.0947px;line-height:1.25;font-family:Lavi;-inkscape-font-specification:Lavi;fill:#ded5c0;fill-opacity:1;stroke:#302820;stroke-width:6.24756;stroke-miterlimit:4;stroke-dasharray:none;stroke-opacity:1;paint-order:stroke fill markers"
         y="1954.6715"
         x="1302.3322"
         id="tspan4370-3-6"
         sodipodi:role="line">Yeah!</tspan></text>
    <text
       transform="matrix(0.52113112,-0.20283488,-0.16142443,0.86646806,-250.56102,-690.44126)"
       id="use4516-8-2-7-1"
       y="1954.6715"
       x="1302.3322"
       style="font-style:normal;font-variant:normal;font-weight:normal;font-stretch:normal;font-size:8.2448px;line-height:0%;font-family:Lavi;-inkscape-font-specification:Lavi;letter-spacing:1.83751px;word-spacing:0px;display:inline;opacity:0.369456;fill:#b3cfde;fill-opacity:1;stroke:#302820;stroke-width:10.8167;stroke-miterlimit:4;stroke-dasharray:none;stroke-opacity:1;paint-order:stroke fill markers;filter:url(#filter987-9)"
       xml:space="preserve"><tspan
         style="font-style:normal;font-variant:normal;font-weight:normal;font-stretch:normal;font-size:48.0947px;line-height:1.25;font-family:Lavi;-inkscape-font-specification:Lavi;fill:#ded5c0;fill-opacity:1;stroke:#302820;stroke-width:10.8167;stroke-miterlimit:4;stroke-dasharray:none;stroke-opacity:1;paint-order:stroke fill markers"
         y="1954.6715"
         x="1302.3322"
         id="tspan4370-3-6-5-2"
         sodipodi:role="line">Yeah!</tspan></text>
    <text
       transform="matrix(0.50551861,-0.22852645,-0.0933262,0.82398656,756.68038,-471.50636)"
       id="use4516-8-2-7-1-1-7"
       y="1954.6715"
       x="1302.3322"
       style="font-style:normal;font-variant:normal;font-weight:normal;font-stretch:normal;font-size:8.2448px;line-height:0%;font-family:Lavi;-inkscape-font-specification:Lavi;letter-spacing:1.83751px;word-spacing:0px;display:inline;opacity:0.369456;fill:#b3cfde;fill-opacity:1;stroke:#302820;stroke-width:10.8167;stroke-miterlimit:4;stroke-dasharray:none;stroke-opacity:1;paint-order:stroke fill markers;filter:url(#filter987-2)"
       xml:space="preserve"><tspan
         style="font-style:normal;font-variant:normal;font-weight:normal;font-stretch:normal;font-size:48.0947px;line-height:1.25;font-family:Lavi;-inkscape-font-specification:Lavi;fill:#ded5c0;fill-opacity:1;stroke:#302820;stroke-width:10.8167;stroke-miterlimit:4;stroke-dasharray:none;stroke-opacity:1;paint-order:stroke fill markers"
         y="1954.6715"
         x="1302.3322"
         id="tspan4370-3-6-5-2-5-1"
         sodipodi:role="line">Yeehaaa!</tspan></text>
    <text
       transform="matrix(0.50551861,-0.22852645,-0.0933262,0.82398656,562.8032,-481.04936)"
       id="use4516-8-2-7-1-1-7-9"
       y="1954.6715"
       x="1302.3322"
       style="font-style:normal;font-variant:normal;font-weight:normal;font-stretch:normal;font-size:8.2448px;line-height:0%;font-family:Lavi;-inkscape-font-specification:Lavi;letter-spacing:1.83751px;word-spacing:0px;display:inline;opacity:0.369456;fill:#b3cfde;fill-opacity:1;stroke:#302820;stroke-width:10.8167;stroke-miterlimit:4;stroke-dasharray:none;stroke-opacity:1;paint-order:stroke fill markers;filter:url(#filter987-2-7)"
       xml:space="preserve"><tspan
         style="font-style:normal;font-variant:normal;font-weight:normal;font-stretch:normal;font-size:48.0947px;line-height:1.25;font-family:Lavi;-inkscape-font-specification:Lavi;fill:#ded5c0;fill-opacity:1;stroke:#302820;stroke-width:10.8167;stroke-miterlimit:4;stroke-dasharray:none;stroke-opacity:1;paint-order:stroke fill markers"
         y="1954.6715"
         x="1302.3322"
         id="tspan4370-3-6-5-2-5-1-2"
         sodipodi:role="line">Yarr!</tspan></text>
    <text
       transform="matrix(0.50551861,-0.22852645,-0.0933262,0.82398656,-254.75674,-562.28345)"
       id="use4516-8-2-7-1-1-7-2"
       y="1954.6715"
       x="1302.3322"
       style="font-style:normal;font-variant:normal;font-weight:normal;font-stretch:normal;font-size:8.2448px;line-height:0%;font-family:Lavi;-inkscape-font-specification:Lavi;letter-spacing:1.83751px;word-spacing:0px;display:inline;opacity:0.369456;fill:#b3cfde;fill-opacity:1;stroke:#302820;stroke-width:10.8167;stroke-miterlimit:4;stroke-dasharray:none;stroke-opacity:1;paint-order:stroke fill markers;filter:url(#filter987-2-0)"
       xml:space="preserve"><tspan
         style="font-style:normal;font-variant:normal;font-weight:normal;font-stretch:normal;font-size:48.0947px;line-height:1.25;font-family:Lavi;-inkscape-font-specification:Lavi;fill:#ded5c0;fill-opacity:1;stroke:#302820;stroke-width:10.8167;stroke-miterlimit:4;stroke-dasharray:none;stroke-opacity:1;paint-order:stroke fill markers"
         y="1954.6715"
         x="1302.3322"
         id="tspan4370-3-6-5-2-5-1-6"
         sodipodi:role="line">Yeehaw !</tspan></text>
    <text
       transform="matrix(0.50551861,-0.22852645,-0.0933262,0.82398656,1768.9758,-531.88195)"
       id="use4516-8-2-7-1-1-7-2-7"
       y="1954.6715"
       x="1302.3322"
       style="font-style:normal;font-variant:normal;font-weight:normal;font-stretch:normal;font-size:8.2448px;line-height:0%;font-family:Lavi;-inkscape-font-specification:Lavi;letter-spacing:1.83751px;word-spacing:0px;display:inline;opacity:0.369456;fill:#b3cfde;fill-opacity:1;stroke:#302820;stroke-width:10.8167;stroke-miterlimit:4;stroke-dasharray:none;stroke-opacity:1;paint-order:stroke fill markers;filter:url(#filter987-2-0-1)"
       xml:space="preserve"><tspan
         style="font-style:normal;font-variant:normal;font-weight:normal;font-stretch:normal;font-size:48.0947px;line-height:1.25;font-family:Lavi;-inkscape-font-specification:Lavi;fill:#ded5c0;fill-opacity:1;stroke:#302820;stroke-width:10.8167;stroke-miterlimit:4;stroke-dasharray:none;stroke-opacity:1;paint-order:stroke fill markers"
         y="1954.6715"
         x="1302.3322"
         id="tspan4370-3-6-5-2-5-1-6-9"
         sodipodi:role="line">Yeee-haw!</tspan></text>
    <text
       transform="matrix(0.47108436,-0.22117434,-0.08696913,0.79747739,663.40779,-422.10393)"
       id="use4516-8-2-7-1-3"
       y="1954.6715"
       x="1302.3322"
       style="font-style:normal;font-variant:normal;font-weight:normal;font-stretch:normal;font-size:8.2448px;line-height:0%;font-family:Lavi;-inkscape-font-specification:Lavi;letter-spacing:1.83751px;word-spacing:0px;display:inline;opacity:0.369456;fill:#b3cfde;fill-opacity:1;stroke:#302820;stroke-width:10.8167;stroke-miterlimit:4;stroke-dasharray:none;stroke-opacity:1;paint-order:stroke fill markers;filter:url(#filter987-9-0)"
       xml:space="preserve"><tspan
         style="font-style:normal;font-variant:normal;font-weight:normal;font-stretch:normal;font-size:48.0947px;line-height:1.25;font-family:Lavi;-inkscape-font-specification:Lavi;fill:#ded5c0;fill-opacity:1;stroke:#302820;stroke-width:10.8167;stroke-miterlimit:4;stroke-dasharray:none;stroke-opacity:1;paint-order:stroke fill markers"
         y="1954.6715"
         x="1302.3322"
         id="tspan4370-3-6-5-2-6"
         sodipodi:role="line">Yaaa!</tspan></text>
    <text
       transform="matrix(0.47108436,-0.22117434,-0.08696913,0.79747739,1740.0595,-544.75882)"
       id="use4516-8-2-7-1-3-2"
       y="1954.6715"
       x="1302.3322"
       style="font-style:normal;font-variant:normal;font-weight:normal;font-stretch:normal;font-size:8.2448px;line-height:0%;font-family:Lavi;-inkscape-font-specification:Lavi;letter-spacing:1.83751px;word-spacing:0px;display:inline;opacity:0.369456;fill:#b3cfde;fill-opacity:1;stroke:#302820;stroke-width:10.8167;stroke-miterlimit:4;stroke-dasharray:none;stroke-opacity:1;paint-order:stroke fill markers;filter:url(#filter987-9-0-2)"
       xml:space="preserve"><tspan
         style="font-style:normal;font-variant:normal;font-weight:normal;font-stretch:normal;font-size:48.0947px;line-height:1.25;font-family:Lavi;-inkscape-font-specification:Lavi;fill:#ded5c0;fill-opacity:1;stroke:#302820;stroke-width:10.8167;stroke-miterlimit:4;stroke-dasharray:none;stroke-opacity:1;paint-order:stroke fill markers"
         y="1954.6715"
         x="1302.3322"
         id="tspan4370-3-6-5-2-6-3"
         sodipodi:role="line">Hurrah!</tspan></text>
    <text
       transform="matrix(0.9493189,0,-0.25523766,1.0533868,0,0)"
       id="text4246-6-9-8-8-3-6"
       y="1110.9082"
       x="2205.1069"
       style="font-style:normal;font-variant:normal;font-weight:normal;font-stretch:normal;font-size:16.55929947px;line-height:0%;font-family:Lavi;-inkscape-font-specification:Lavi;text-align:center;letter-spacing:0px;word-spacing:0px;text-anchor:middle;fill:#000000;fill-opacity:1;stroke:#000000;stroke-width:2.15702009;stroke-miterlimit:4;stroke-dasharray:none;stroke-opacity:1"
       xml:space="preserve"><tspan
         y="1110.9082"
         x="2205.1069"
         style="font-size:59.26599884px;line-height:1.25;stroke:#000000;stroke-width:2.15702009;stroke-miterlimit:4;stroke-dasharray:none;stroke-opacity:1"
         sodipodi:role="line"
         id="tspan59386">KETAPEL!</tspan></text>
    <text
       transform="matrix(0.95446031,0,-0.25662,1.0477125,0,0)"
       id="text4246-6-9-8-8-3-6-0"
       y="1164.4611"
       x="2554.7686"
       style="font-style:normal;font-variant:normal;font-weight:normal;font-stretch:normal;font-size:17.40970039px;line-height:0%;font-family:Lavi;-inkscape-font-specification:Lavi;text-align:center;letter-spacing:0px;word-spacing:0px;text-anchor:middle;fill:#000000;fill-opacity:1;stroke:#000000;stroke-width:2.26779008;stroke-miterlimit:4;stroke-dasharray:none;stroke-opacity:1"
       xml:space="preserve"><tspan
         y="1164.4611"
         x="2554.7686"
         style="font-size:62.30929947px;line-height:1.25;stroke:#000000;stroke-width:2.26779008;stroke-miterlimit:4;stroke-dasharray:none;stroke-opacity:1"
         sodipodi:role="line"
         id="tspan59386-3">TEMBAK!!!</tspan></text>
    <text
       y="1608.6935"
       x="128.4707"
       id="text4580-6-0"
       style="font-style:normal;font-variant:normal;font-weight:normal;font-stretch:normal;font-size:85.3333px;line-height:0%;font-family:Lavi;-inkscape-font-specification:Lavi;letter-spacing:4.62069px;word-spacing:0px;display:inline;fill:#ffffff;fill-opacity:1;stroke:#98b9ca;stroke-width:1.20695;stroke-miterlimit:4;stroke-dasharray:none;stroke-opacity:1;filter:url(#filter4375-4-1-1-1-9-5-8)"
       xml:space="preserve"
       transform="matrix(0.64745355,-0.05501211,-0.16702718,0.70842118,1818.4946,261.88116)"><tspan
         id="tspan884"
         style="font-style:normal;font-variant:normal;font-weight:normal;font-stretch:normal;font-size:106.667px;font-family:Drukah;-inkscape-font-specification:Drukah;stroke-width:1.20695">huUWOOOOOOOOOOO</tspan><tspan
         id="tspan892"
         style="font-style:normal;font-variant:normal;font-weight:normal;font-stretch:normal;font-size:134.669px;font-family:Drukah;-inkscape-font-specification:Drukah;stroke-width:1.20695">!</tspan></text>
    <text
       xml:space="preserve"
       style="font-style:normal;font-variant:normal;font-weight:normal;font-stretch:normal;line-height:0%;font-family:Lavi;-inkscape-font-specification:Lavi;letter-spacing:0px;word-spacing:0px;display:inline;fill:#ffebb6;fill-opacity:1;stroke:#ffe260;stroke-width:0.58134699;stroke-miterlimit:4;stroke-dasharray:none;stroke-opacity:1;filter:url(#filter4375-4-1-1-1-9-5-8-8-3-2-9-6)"
       x="787.65729"
       y="1584.5073"
       id="text4580-6-0-0-3-2"
       transform="matrix(0.80736426,-0.15328736,-0.38136223,1.1044228,492.22746,187.47585)"><tspan
         sodipodi:role="line"
         id="tspan4582-1-1-0-6-8"
         x="787.65729"
         y="1584.5073"
         style="font-style:normal;font-variant:normal;font-weight:bold;font-stretch:normal;font-size:70px;line-height:1.25;font-family:Lavi;-inkscape-font-specification:'Lavi Bold';fill:#ffebb6;fill-opacity:1;stroke:#ffe260;stroke-width:0.58134699;stroke-opacity:1">Wuuussh!</tspan></text>
    <text
       xml:space="preserve"
       style="font-style:normal;font-variant:normal;font-weight:normal;font-stretch:normal;line-height:0%;font-family:Lavi;-inkscape-font-specification:Lavi;letter-spacing:0px;word-spacing:0px;display:inline;fill:#ffebb6;fill-opacity:1;stroke:#ffe260;stroke-width:0.58134699;stroke-miterlimit:4;stroke-dasharray:none;stroke-opacity:1;filter:url(#filter4375-4-1-1-1-9-5-8-8-3-2-2-7-6)"
       x="787.65729"
       y="1584.5073"
       id="text4580-6-0-0-3-2-8"
       transform="matrix(0.84316171,-0.1466852,-0.46022255,1.1584968,1031.7825,127.93152)"><tspan
         sodipodi:role="line"
         id="tspan4582-1-1-0-6-8-4"
         x="787.65729"
         y="1584.5073"
         style="font-style:normal;font-variant:normal;font-weight:bold;font-stretch:normal;font-size:70px;line-height:1.25;font-family:Lavi;-inkscape-font-specification:'Lavi Bold';fill:#ffebb6;fill-opacity:1;stroke:#ffe260;stroke-width:0.58134699;stroke-opacity:1">Wuuussh!</tspan></text>
    <text
       transform="matrix(0.9493189,0,-0.25523766,1.0533868,0,0)"
       id="text4246-6-9-8-8-3"
       y="2089.9453"
       x="1140.8142"
       style="font-style:normal;font-variant:normal;font-weight:normal;font-stretch:normal;font-size:12.84729958px;line-height:0%;font-family:Lavi;-inkscape-font-specification:Lavi;text-align:center;letter-spacing:0px;word-spacing:0px;text-anchor:middle;fill:#000000;fill-opacity:1;stroke:#000000;stroke-width:1.67349994;stroke-miterlimit:4;stroke-dasharray:none;stroke-opacity:1"
       xml:space="preserve"><tspan
         id="tspan4395-0-6"
         y="2089.9453"
         x="1140.8142"
         style="font-size:45.98059845px;line-height:1.25;stroke:#000000;stroke-width:1.67349994;stroke-miterlimit:4;stroke-dasharray:none;stroke-opacity:1"
         sodipodi:role="line">SERAAAAAAANG!!!</tspan></text>
    <text
       id="text4246-4-2-7-0"
       y="2453.3108"
       x="261.82642"
       style="font-style:normal;font-variant:normal;font-weight:normal;font-stretch:normal;line-height:0%;font-family:Lavi;-inkscape-font-specification:Lavi;text-align:center;letter-spacing:0px;word-spacing:0px;text-anchor:middle;fill:#000000;fill-opacity:1;stroke:none"
       xml:space="preserve"><tspan
         y="2453.3108"
         x="261.82642"
         style="font-size:45px;line-height:1.25;fill:#000000"
         sodipodi:role="line"
         id="tspan136438">Ada apa</tspan><tspan
         y="2509.5608"
         x="261.82642"
         style="font-size:45px;line-height:1.25;fill:#000000"
         sodipodi:role="line"
         id="tspan2247">ini?</tspan></text>
    <text
       id="text4246-4-2-7-0-9"
       y="2606.2725"
       x="383.03702"
       style="font-style:normal;font-variant:normal;font-weight:normal;font-stretch:normal;line-height:0%;font-family:Lavi;-inkscape-font-specification:Lavi;text-align:center;letter-spacing:0px;word-spacing:0px;text-anchor:middle;fill:#000000;fill-opacity:1;stroke:none"
       xml:space="preserve"><tspan
         y="2606.2725"
         x="383.03702"
         style="font-size:45px;line-height:1.25;fill:#000000"
         sodipodi:role="line"
         id="tspan116891-9">Serangan?!</tspan></text>
    <text
       xml:space="preserve"
       style="font-style:normal;font-variant:normal;font-weight:normal;font-stretch:normal;line-height:0%;font-family:Lavi;-inkscape-font-specification:Lavi;letter-spacing:0px;word-spacing:0px;display:inline;opacity:0.903052;fill:#cab1e6;fill-opacity:1;stroke:#ffe260;stroke-width:0.320995;stroke-miterlimit:4;stroke-dasharray:none;stroke-opacity:1;filter:url(#filter4375-4-1-1-1-9-5-8-8-1-1)"
       x="787.65729"
       y="1584.5073"
       id="text4580-6-0-0-7"
       transform="matrix(1.0300873,-0.55928084,0.20243365,1.5973987,-597.30286,718.07851)"><tspan
         sodipodi:role="line"
         id="tspan4582-1-1-0-4"
         x="787.65729"
         y="1584.5073"
         style="font-style:normal;font-variant:normal;font-weight:bold;font-stretch:normal;font-size:70px;line-height:1.25;font-family:Lavi;-inkscape-font-specification:'Lavi Bold';fill:#cab1e6;fill-opacity:1;stroke:#ffe260;stroke-width:0.320995;stroke-opacity:1"><tspan
   style="font-size:88.81279755px;fill:#cab1e6;fill-opacity:1"
   id="tspan855">Buu</tspan>M!</tspan></text>
    <text
       xml:space="preserve"
       style="font-style:normal;font-variant:normal;font-weight:normal;font-stretch:normal;line-height:0%;font-family:Lavi;-inkscape-font-specification:Lavi;letter-spacing:0px;word-spacing:0px;display:inline;opacity:0.90055799;fill:#cab1e6;fill-opacity:1;stroke:#ffe260;stroke-width:0.320995;stroke-miterlimit:4;stroke-dasharray:none;stroke-opacity:1;filter:url(#filter4375-4-1-1-1-9-5-8-8-1-0-1)"
       x="787.65729"
       y="1584.5073"
       id="text4580-6-0-0-7-5"
       transform="matrix(1.0300873,-0.55928084,0.20243365,1.5973987,-288.82831,726.38671)"><tspan
         sodipodi:role="line"
         id="tspan4582-1-1-0-4-2"
         x="787.65729"
         y="1584.5073"
         style="font-style:normal;font-variant:normal;font-weight:bold;font-stretch:normal;font-size:70px;line-height:1.25;font-family:Lavi;-inkscape-font-specification:'Lavi Bold';fill:#cab1e6;fill-opacity:1;stroke:#ffe260;stroke-width:0.320995;stroke-opacity:1"><tspan
   style="font-size:88.81279755px;fill:#cab1e6;fill-opacity:1"
   id="tspan855-5">B</tspan><tspan
   style="font-size:52.78430176px;fill:#cab1e6;fill-opacity:1;stroke-width:0.320995"
   id="tspan853-4">UUU</tspan>M!</tspan></text>
    <text
       id="text4246-4-2-7-0-9-1"
       y="2579.0881"
       x="1299.5797"
       style="font-style:normal;font-variant:normal;font-weight:normal;font-stretch:normal;line-height:0%;font-family:Lavi;-inkscape-font-specification:Lavi;text-align:center;letter-spacing:0px;word-spacing:0px;text-anchor:middle;fill:#000000;fill-opacity:1;stroke:none"
       xml:space="preserve"><tspan
         y="2579.0881"
         x="1299.5797"
         style="font-size:45px;line-height:1.25;fill:#000000"
         sodipodi:role="line"
         id="tspan116891-9-7">Apa?!</tspan></text>
    <text
       xml:space="preserve"
       style="font-style:normal;font-variant:normal;font-weight:normal;font-stretch:normal;line-height:0%;font-family:Lavi;-inkscape-font-specification:Lavi;letter-spacing:0px;word-spacing:0px;display:inline;opacity:0.86047698;fill:#b9c4f2;fill-opacity:1;stroke:#ffe260;stroke-width:0.320995;stroke-miterlimit:4;stroke-dasharray:none;stroke-opacity:1;filter:url(#filter4375-4-1-1-1-9-5-8-8-1-0-7-1)"
       x="787.65729"
       y="1584.5073"
       id="text4580-6-0-0-7-5-9"
       transform="matrix(1.2924676,-0.34273768,-0.02047252,1.7400925,729.73035,202.46741)"><tspan
         sodipodi:role="line"
         id="tspan4582-1-1-0-4-2-2"
         x="787.65729"
         y="1584.5073"
         style="font-style:normal;font-variant:normal;font-weight:bold;font-stretch:normal;font-size:70px;line-height:1.25;font-family:Lavi;-inkscape-font-specification:'Lavi Bold';fill:#b9c4f2;fill-opacity:1;stroke:#ffe260;stroke-width:0.320995;stroke-opacity:1"><tspan
   style="font-size:58.93999863px;fill:#b9c4f2;fill-opacity:1;stroke-width:0.320995"
   id="tspan853-4-6">BUu~uuu</tspan>M !</tspan></text>
    <text
       xml:space="preserve"
       style="font-style:normal;font-variant:normal;font-weight:normal;font-stretch:normal;line-height:0%;font-family:Lavi;-inkscape-font-specification:Lavi;letter-spacing:0px;word-spacing:0px;display:inline;opacity:0.86047698;fill:#b9c4f2;fill-opacity:1;stroke:#ffe260;stroke-width:0.320995;stroke-miterlimit:4;stroke-dasharray:none;stroke-opacity:1;filter:url(#filter4375-4-1-1-1-9-5-8-8-1-0-7-9-4)"
       x="787.65729"
       y="1584.5073"
       id="text4580-6-0-0-7-5-9-7"
       transform="matrix(1.1220561,-0.26848231,-0.01777323,1.3630951,875.70152,1226.655)"><tspan
         sodipodi:role="line"
         id="tspan4582-1-1-0-4-2-2-2"
         x="787.65729"
         y="1584.5073"
         style="font-style:normal;font-variant:normal;font-weight:bold;font-stretch:normal;font-size:70px;line-height:1.25;font-family:Lavi;-inkscape-font-specification:'Lavi Bold';fill:#b9c4f2;fill-opacity:1;stroke:#ffe260;stroke-width:0.320995;stroke-opacity:1"><tspan
   style="font-size:58.93999863px;fill:#b9c4f2;fill-opacity:1;stroke-width:0.320995"
   id="tspan853-4-6-2">BUU</tspan><tspan
   style="font-size:68.36660004px"
   id="tspan167035">M</tspan> !</tspan></text>
  </g>
</svg>
