<?xml version="1.0" encoding="UTF-8" standalone="no"?>
<!-- Created with Inkscape (http://www.inkscape.org/) -->

<svg
   id="svg2"
   version="1.1"
   inkscape:version="1.1.2 (1:1.1+202202050950+0a00cf5339)"
   width="2481"
   height="3503"
   sodipodi:docname="E36P01.svg"
   xmlns:inkscape="http://www.inkscape.org/namespaces/inkscape"
   xmlns:sodipodi="http://sodipodi.sourceforge.net/DTD/sodipodi-0.dtd"
   xmlns:xlink="http://www.w3.org/1999/xlink"
   xmlns="http://www.w3.org/2000/svg"
   xmlns:svg="http://www.w3.org/2000/svg"
   xmlns:rdf="http://www.w3.org/1999/02/22-rdf-syntax-ns#"
   xmlns:cc="http://creativecommons.org/ns#"
   xmlns:dc="http://purl.org/dc/elements/1.1/">
  <metadata
     id="metadata8">
    <rdf:RDF>
      <cc:Work
         rdf:about="">
        <dc:format>image/svg+xml</dc:format>
        <dc:type
           rdf:resource="http://purl.org/dc/dcmitype/StillImage" />
      </cc:Work>
    </rdf:RDF>
  </metadata>
  <defs
     id="defs6" />
  <sodipodi:namedview
     pagecolor="#1e1e1e"
     bordercolor="#111111"
     borderopacity="1"
     objecttolerance="10"
     gridtolerance="10"
     guidetolerance="10"
     inkscape:pageopacity="0"
     inkscape:pageshadow="2"
     inkscape:window-width="1216"
     inkscape:window-height="704"
     id="namedview4"
     showgrid="false"
     inkscape:zoom="0.86522236"
     inkscape:cx="1210.6714"
     inkscape:cy="2732.2456"
     inkscape:window-x="0"
     inkscape:window-y="0"
     inkscape:window-maximized="0"
     inkscape:current-layer="layer1"
     inkscape:pagecheckerboard="0"
     inkscape:snap-global="false" />
  <g
     inkscape:groupmode="layer"
     id="layer2"
     inkscape:label="artwork"
     sodipodi:insensitive="true">
    <image
       xlink:href="../gfx_Pepper-and-Carrot_by-David-Revoy_E36P01.png"
       y="0"
       x="0"
       id="image10"
       height="3503"
       width="2481" />
  </g>
  <g
     inkscape:groupmode="layer"
     id="layer3"
     inkscape:label="speechbubbles"
     style="display:inline">
    <path
       style="display:inline;fill:#ffffff;fill-rule:evenodd;stroke:none;stroke-width:0.801567px;stroke-linecap:butt;stroke-linejoin:miter;stroke-opacity:1"
       d="m 987.88312,1847.5959 c 51.56268,18.6105 80.93368,11.0422 80.04858,-32.2181 24.6003,46.7485 41.6719,57.2039 51.7963,34.1707 32.5692,19.7977 52.9113,14.244 69.0618,0 6.0197,18.3191 16.2522,14.5249 44.6618,-5.7092 -5.2834,10.0936 -10.8288,34.4674 40.6942,3.7392 -23.7309,18.0948 -6.4549,18.4416 23.4526,6.2791 -9.8127,18.5144 27.4099,5.0828 59.1368,-21.8825 -22.7779,27.9112 -13.5961,31.7885 6.6785,19.9666 -9.2695,12.7207 -3.9917,20.4672 24.7131,4.4408 -12.0568,23.4798 0.6094,14.092 46.4208,-8.3845 -37.805,24.7902 -52.1531,44.7944 -24.4466,45.4838 -8.5727,2.1213 -28.4098,13.7517 37.6701,25.3834 -15.4647,1.1149 -44.2371,4.0323 -16.9236,14.3005 -16.4892,-3.3575 -23.8079,2.6484 -0.8557,12.4053 -16.5156,-1.5599 -35.6595,-5.5525 -9.892,9.7127 -28.9792,-0.5186 -24.6025,3.0634 -3.3267,15.9405 -41.9661,-16.5183 -38.4398,29.9177 -39.6821,36.5278 -52.596,-22.5203 -38.4928,-11.1813 -45.5927,-6.4906 -25.6367,0.1753 -52.719,-37.2176 -78.3557,-12.1028 -6.7139,-15.6207 -20.1743,-0.9052 -76.9096,10.1428 24.9111,-19.8729 -19.933,-2.2747 -47.075,5.913 14.8635,-24.8258 -9.5397,-22.5923 -57.3133,1.5612 26.7529,-27.4145 -7.545,-35.1285 -52.57,-15.6644 17.0116,-26.9322 -10.6938,-39.9566 -76.90978,-41.0047 31.13685,-10.5776 50.17464,-21.9399 17.26552,-43.9327 37.09799,6.4756 48.16396,0.4606 21.97426,-23.4313 40.4639,19.6102 22.0664,-8.8333 6.27842,-35.1466 z"
       id="path4508-2"
       inkscape:connector-curvature="0"
       sodipodi:nodetypes="cccccccccccccccccccccccccccc" />
    <path
       style="display:inline;fill:#ffffff;fill-rule:evenodd;stroke:none;stroke-width:0.802868px;stroke-linecap:butt;stroke-linejoin:miter;stroke-opacity:1"
       d="m 1432.9362,2114.8904 c -45.5141,-23.4966 -76.6565,-27.7732 -66.0351,18.5945 -44.4225,-45.4606 -50.6481,-27.1852 -59.6999,-2.5679 -39.4077,-35.4026 -56.5972,-15.2793 -65.1597,0.9011 -8.8697,-33.0962 -23.5324,-7.9644 -32.9745,2.0655 2.5291,-29.0753 -8.7419,-32.5903 -39.7368,-0.2189 6.0685,-12.9683 15.4009,-37.4137 -31.1427,-9.7537 9.1478,-27.1723 -21.1693,-8.8652 -46.9527,15.8288 14.2988,-33.0439 -5.2011,-25.6648 -24.0733,-12.8333 8.4694,-13.6435 28.4353,-34.8845 -13.4866,-18.3146 20.1026,-19.9519 0.4498,-15.6157 -37.0009,4.5607 31.1114,-26.0237 58.9136,-45.8162 16.9023,-41.5316 5.7095,-7.8931 26.5058,-14.9892 -36.09335,-26.492 11.53065,-5.4625 47.22335,1.7931 17.12225,-20.2423 -4.025,-2.5689 9.2376,-4.3551 -16.27827,-10.9136 14.98827,0.2635 24.14027,-1.5433 10.13267,-11.5589 27.3534,0.1732 16.9038,-10.418 -3.45,-23.8292 39.9541,17.0119 35.3069,-15.5887 36.3354,-22.6318 50.1138,23.2536 56.2262,8.6143 62.8229,3.5354 24.1843,-0.5209 47.4518,20.1123 71.094,-6.9201 6.6743,16.5178 20.5576,19.9472 73.847,7.4626 -23.0716,21.4505 22.0533,6.7566 47.4837,-2.3012 -13.4839,26.5846 17.2738,20.3789 61.8229,-5.9202 -24.6453,29.4915 45.4969,13.4561 67.297,4.6815 -2.6735,11.908 -21.6438,51.6778 40.8536,51.9281 -29.691,10.74 -39.775,20.8825 -8.2471,43.8322 -35.1427,-6.3998 -45.4527,0.1388 -20.2235,25.195 -50.8898,-12.0114 -30.607,16.4256 -5.1593,37.4439 z"
       id="path4508-2-3"
       inkscape:connector-curvature="0"
       sodipodi:nodetypes="cccccccccccccccccccccccccccc" />
    <path
       style="fill:#ffffff;fill-rule:evenodd;stroke:none;stroke-width:1.01927px;stroke-linecap:butt;stroke-linejoin:miter;stroke-opacity:1"
       d="m 795.85859,2075.6026 c 68.17018,-19.9402 107.76468,-24.6985 129.19825,-26.9041 -9.4626,14.6823 -10.93703,18.8605 -3.60753,19.5618 12.56737,1.2024 323.02739,-38.3324 323.02739,-38.3324 l -134.9102,-3.9965 c 0,0 -88.3447,16.493 -115.60557,20.8649 -27.26123,4.3719 -53.63946,7.3565 -53.63946,7.3565 0,0 11.08456,-17.0097 8.79652,-16.5151 -9.73596,2.1047 -32.55208,-8.0957 -153.2594,37.9649 z"
       id="path891"
       inkscape:connector-curvature="0"
       sodipodi:nodetypes="ccsccscsc" />
    <path
       style="display:inline;fill:#ffffff;fill-rule:evenodd;stroke:none;stroke-width:1.24719px;stroke-linecap:butt;stroke-linejoin:miter;stroke-opacity:1"
       d="m 993.22481,2503.128 c 32.42219,35.6987 49.17659,63.6511 1.52227,38.799 23.83062,22.5394 17.44662,26.0119 -4.05285,31.7963 18.95747,15.1132 46.30867,48.4319 7.33097,59.5076 56.2094,9.9133 26.1536,38.4753 -3.21061,59.2842 85.78161,-23.8864 76.30151,2.9395 57.27171,30.2774 42.5612,-34.2631 44.5443,-24.0948 25.2671,21.5359 27.7296,-32.9808 35.1346,-42.5246 34.6027,-4.4267 17.1502,-31.5263 39.5053,-51.1072 56.0958,-14.8327 22.3799,-52.1421 47.4359,-6.6721 66.4723,11.4034 4.6699,-38.7438 22.1722,-48.8138 53.5603,-10.3953 3.1708,-23.4201 29.6865,-22.764 52.4188,10.7618 -28.4403,-65.8542 21.1834,-6.5631 29.4584,-2.666 -13.4891,-33.8861 17.8942,-39.6956 74.1297,-10.6936 -40.3501,-31.6371 -32.7414,-46.3968 2.4507,-59.7899 -33.8725,-14.7548 -41.9222,-49.8879 13.8146,-51.3886 -69.7275,-22.3971 -18.0549,-57.7006 14.3983,-78.9527 -60.9977,12.623 -110.6018,18.6211 -78.6073,-28.5617 -69.8299,30.5207 -57.1653,13.5417 -48.2618,-1.2722 -46.6382,37.1217 -47.6425,2.7831 -46.3477,-7.881 -62.6528,40.3742 -99.4182,13.4645 -113.4523,-16.5895 -16.4538,42.2524 -47.522,22.0714 -66.651,0.768 9.9943,39.7276 -10.1736,36.5886 -30.4459,20.2263 4.9879,26.7044 -13.9873,49.777 -46.9597,12.157 10.9615,18.6384 9.8233,45.9385 -50.80449,-9.067 z"
       id="path4289-9"
       inkscape:connector-curvature="0"
       sodipodi:nodetypes="ccccccccccccccccccccccccc" />
    <path
       style="display:inline;fill:#ffffff;fill-rule:evenodd;stroke:none;stroke-width:1px;stroke-linecap:butt;stroke-linejoin:miter;stroke-opacity:1"
       d="m 839.35758,2683.1542 126.85528,-18.3923 -13.09351,-16.3937 103.27445,-9.3803 -13.3725,-26.4414 -117.98262,26.0585 15.22178,19.3955 z"
       id="path4667"
       inkscape:connector-curvature="0"
       sodipodi:nodetypes="cccccccc" />
  </g>
  <g
     inkscape:groupmode="layer"
     id="layer1"
     inkscape:label="txt"
     style="display:inline">
    <text
       xml:space="preserve"
       style="font-style:normal;font-variant:normal;font-weight:normal;font-stretch:normal;font-size:45px;line-height:1.25;font-family:Lavi;-inkscape-font-specification:Lavi;text-align:center;letter-spacing:0px;word-spacing:0px;text-anchor:middle;fill:#000000;fill-opacity:1;stroke:none;stroke-width:0.818387"
       x="1435.8097"
       y="1934.3174"
       id="text4246-3-2-2-6-3-7-9-3-3-56-9-3-20-3-3-2"
       transform="skewX(-7.1285625)"><tspan
         style="font-style:normal;font-variant:normal;font-weight:bold;font-stretch:normal;font-size:45px;font-family:Lavi;-inkscape-font-specification:'Lavi Bold';stroke-width:0.818387"
         sodipodi:role="line"
         x="1435.8097"
         y="1934.3174"
         id="tspan146">PARDONPETAS ?!</tspan></text>
    <text
       id="text4246-4-2-7"
       y="2015.0114"
       x="1223.6958"
       style="font-style:normal;font-variant:normal;font-weight:normal;font-stretch:normal;line-height:0%;font-family:Lavi;-inkscape-font-specification:Lavi;text-align:center;letter-spacing:0px;word-spacing:0px;text-anchor:middle;fill:#000000;fill-opacity:1;stroke:none"
       xml:space="preserve"
       inkscape:label="pepperB"><tspan
         y="2015.0114"
         x="1223.6958"
         style="font-size:45px;line-height:1.25"
         sodipodi:role="line"
         id="tspan36806">Ne eblas, ke vi</tspan><tspan
         y="2071.2612"
         x="1223.6958"
         style="font-size:45px;line-height:1.25"
         sodipodi:role="line"
         id="tspan11256">estu serioza !</tspan></text>
    <text
       xml:space="preserve"
       style="font-style:normal;font-variant:normal;font-weight:normal;font-stretch:normal;font-size:45px;line-height:1.25;font-family:Lavi;-inkscape-font-specification:Lavi;text-align:center;letter-spacing:0px;word-spacing:0px;text-anchor:middle;fill:#000000;fill-opacity:1;stroke:none;stroke-width:0.818387"
       x="1551.2542"
       y="2601.1072"
       id="text4246-3-2-2-6-3-7-9-3-3-56-9-3-20-3-3-2-7"
       transform="skewX(-7.1285625)"><tspan
         style="font-style:normal;font-variant:normal;font-weight:bold;font-stretch:normal;font-size:45px;font-family:Lavi;-inkscape-font-specification:'Lavi Bold';stroke-width:0.818387"
         sodipodi:role="line"
         x="1551.2542"
         y="2601.1072"
         id="tspan14577">MALLIBERIGU</tspan><tspan
         style="font-style:normal;font-variant:normal;font-weight:bold;font-stretch:normal;font-size:45px;font-family:Lavi;-inkscape-font-specification:'Lavi Bold';stroke-width:0.818387"
         sodipodi:role="line"
         x="1551.2542"
         y="2657.3572"
         id="tspan17037">ŜIN, TUJ !</tspan></text>
  </g>
</svg>
