<?xml version="1.0" encoding="UTF-8" standalone="no"?>
<!-- Created with Inkscape (http://www.inkscape.org/) -->

<svg
   id="svg2"
   version="1.1"
   inkscape:version="1.1.2 (1:1.1+202202050950+0a00cf5339)"
   width="2481"
   height="3503"
   sodipodi:docname="E36P04.svg"
   xmlns:inkscape="http://www.inkscape.org/namespaces/inkscape"
   xmlns:sodipodi="http://sodipodi.sourceforge.net/DTD/sodipodi-0.dtd"
   xmlns:xlink="http://www.w3.org/1999/xlink"
   xmlns="http://www.w3.org/2000/svg"
   xmlns:svg="http://www.w3.org/2000/svg"
   xmlns:rdf="http://www.w3.org/1999/02/22-rdf-syntax-ns#"
   xmlns:cc="http://creativecommons.org/ns#"
   xmlns:dc="http://purl.org/dc/elements/1.1/">
  <metadata
     id="metadata8">
    <rdf:RDF>
      <cc:Work
         rdf:about="">
        <dc:format>image/svg+xml</dc:format>
        <dc:type
           rdf:resource="http://purl.org/dc/dcmitype/StillImage" />
        <dc:title />
      </cc:Work>
    </rdf:RDF>
  </metadata>
  <defs
     id="defs6">
    <filter
       inkscape:collect="always"
       style="color-interpolation-filters:sRGB"
       id="filter827"
       x="-0.0067152641"
       y="-0.0039300722"
       width="1.0134305"
       height="1.0078601">
      <feGaussianBlur
         inkscape:collect="always"
         stdDeviation="5.1724067"
         id="feGaussianBlur829" />
    </filter>
    <filter
       style="color-interpolation-filters:sRGB"
       id="filter5561-1"
       inkscape:label="deevad outline effect"
       x="-0.0040729675"
       y="-0.015367663"
       width="1.0081459"
       height="1.0307353">
      <feFlood
         id="feFlood5563-9"
         flood-opacity="1"
         flood-color="rgb(0,0,0)"
         result="flood" />
      <feComposite
         id="feComposite5565-0"
         in2="SourceGraphic"
         in="flood"
         operator="in"
         result="composite1" />
      <feMorphology
         id="feMorphology5567-7"
         operator="dilate"
         radius="1.8999999999999999 6.0999999999999996"
         result="result3" />
      <feComposite
         id="feComposite5569-2"
         in2="result3"
         in="SourceGraphic"
         operator="over"
         result="composite2" />
    </filter>
  </defs>
  <sodipodi:namedview
     pagecolor="#1e1e1e"
     bordercolor="#111111"
     borderopacity="1"
     objecttolerance="10"
     gridtolerance="10"
     guidetolerance="10"
     inkscape:pageopacity="0"
     inkscape:pageshadow="2"
     inkscape:window-width="1216"
     inkscape:window-height="704"
     id="namedview4"
     showgrid="false"
     inkscape:zoom="0.46000001"
     inkscape:cx="673.91302"
     inkscape:cy="3089.1303"
     inkscape:window-x="0"
     inkscape:window-y="0"
     inkscape:window-maximized="0"
     inkscape:current-layer="layer1"
     inkscape:pagecheckerboard="0"
     inkscape:snap-global="false" />
  <g
     inkscape:groupmode="layer"
     id="layer2"
     inkscape:label="artwork"
     sodipodi:insensitive="true">
    <image
       xlink:href="../gfx_Pepper-and-Carrot_by-David-Revoy_E36P04.png"
       y="0"
       x="0"
       id="image10"
       height="3503"
       width="2481" />
  </g>
  <g
     inkscape:groupmode="layer"
     id="layer4"
     inkscape:label="speechbubbles-whisper"
     style="display:inline;opacity:0.7;mix-blend-mode:screen;filter:url(#filter827)">
    <path
       style="fill:#cdf0ff;fill-opacity:1;stroke:none;stroke-width:0.578779"
       d="m 134.0738,249.49142 c 6.74235,-59.76206 70.48818,-128.35877 220.04571,-118.4847 149.55753,9.87354 206.56101,52.48637 202.27043,134.07475 -4.29059,81.58833 -85.19876,113.28823 -210.8516,108.6112 C 219.88551,369.01565 126.71852,335.75672 134.0738,249.49142 Z"
       id="path3274"
       inkscape:connector-curvature="0" />
    <path
       style="color:#000000;display:inline;overflow:visible;visibility:visible;fill:#cdf0ff;fill-opacity:1;fill-rule:nonzero;stroke:none;stroke-width:1.2829px;marker:none;enable-background:accumulate"
       d="m 242.60168,349.60676 c -56.00074,50.85065 -65.64194,103.14191 -28.27365,140.37761 -72.25173,-48.27906 -39.24342,-137.06385 -13.64787,-157.65108 25.06142,-20.15755 41.92152,17.27347 41.92152,17.27347 z"
       id="path5010-4"
       inkscape:connector-curvature="0"
       sodipodi:nodetypes="ccsc" />
    <path
       style="fill:#cdf0ff;fill-opacity:1;stroke:none;stroke-width:0.815428"
       d="m 166.83788,1045.3126 c -0.50428,-57.69455 10.52318,-107.02719 126.81609,-107.07259 122.13022,-0.0473 146.50739,30.75687 152.03986,108.59059 7.80736,109.8391 -61.30922,104.727 -133.44436,105.006 -101.04584,0.3897 -138.94997,0.4823 -145.41159,-106.524 z"
       id="path3280-10"
       inkscape:connector-curvature="0"
       sodipodi:nodetypes="csssc" />
    <path
       style="opacity:1;fill:#cdf0ff;stroke:none;stroke-width:0.702417;fill-opacity:1"
       d="m 435.14253,1139.5355 c -0.4763,-45.3262 9.93922,-84.083 119.77867,-84.1187 115.35284,-0.037 138.37724,24.1633 143.60269,85.3112 7.37411,86.2921 -57.90698,82.2759 -126.03912,82.4951 -95.43848,0.3061 -131.2392,0.3789 -137.34224,-83.6876 z"
       id="path3280-10-9"
       inkscape:connector-curvature="0"
       sodipodi:nodetypes="csssc" />
    <path
       style="fill:#cdf0ff;stroke:none;stroke-width:0.9001;fill-opacity:1"
       d="m 414.45801,1041.2033 c 1.8259,-28.5636 11.25884,-52.98674 91.14989,-53.00954 83.90114,-0.027 99.48767,15.22754 100.35756,53.76114 1.22784,54.3791 -46.06047,51.8485 -95.62547,51.9869 -69.4297,0.1929 -95.47205,0.2384 -95.88198,-52.7385 z"
       id="path3280-1"
       inkscape:connector-curvature="0"
       sodipodi:nodetypes="csssc" />
    <path
       inkscape:connector-curvature="0"
       id="path1082-6"
       d="m 298.8264,1007.8278 c -1.05852,1.1484 -2.23987,0.5097 -1.98486,-0.6816 0.46134,-10.29186 -2.14669,-20.41664 -9.6319,-26.29325 -10.13751,-7.29069 -22.77075,-12.21022 -29.84045,-22.59504 -5.75745,-8.74427 -5.01971,-21.18698 -1.49413,-32.91007 4.31252,-14.84587 13.38648,-30.0739 26.78068,-41.34485 6.19451,-5.09695 13.0206,-9.28731 19.6858,-13.63981 1.70647,-1.09332 3.42181,-2.16912 5.1321,-3.25498 -15.98365,14.17836 -28.18362,32.92468 -31.66564,51.29818 -0.83521,11.52515 5.1122,20.58777 12.46283,27.38858 8.74595,8.67863 19.87856,15.63077 24.72663,27.4867 2.05504,6.07335 3.77199,13.18731 -0.0119,20.5838 -3.32768,5.64168 -9.09749,9.69894 -14.15911,13.96234 z"
       style="display:inline;fill:#cdf0ff;fill-rule:evenodd;stroke:none;stroke-width:0.863514px;stroke-linecap:butt;stroke-linejoin:miter;stroke-opacity:1;fill-opacity:1" />
    <path
       style="fill:#cdf0ff;fill-opacity:1;stroke:none;stroke-width:1.17667"
       d="m 1596.399,245.26574 c -1.6504,-33.06424 27.9413,-115.83701 172.2881,-109.61142 144.347,6.22558 189.5252,42.5955 193.7553,101.36693 6.6915,92.97576 -69.2492,117.82263 -178.2933,124.70885 -112.4126,7.09946 -189.4947,-56.7217 -187.7501,-116.46436 z"
       id="path3280-8-90"
       inkscape:connector-curvature="0"
       sodipodi:nodetypes="csssc" />
    <path
       style="color:#000000;display:inline;overflow:visible;visibility:visible;fill:#cdf0ff;fill-opacity:1;fill-rule:nonzero;stroke:none;stroke-width:1.45931px;marker:none;enable-background:accumulate"
       d="m 1908.1685,471.54009 c -46.1767,7.90205 -92.9576,-47.05578 -88.8324,-112.54776 3.657,-73.69663 3.0894,-80.88495 3.0894,-80.88495 l -54.9358,5.52485 c 0,0 25.8928,219.92306 140.6788,187.90786 z"
       id="path3072-5"
       inkscape:connector-curvature="0"
       inkscape:transform-center-x="-4.9958775"
       inkscape:transform-center-y="26.227202"
       sodipodi:nodetypes="ccccc" />
    <path
       style="color:#000000;display:inline;overflow:visible;visibility:visible;fill:#cdf0ff;fill-opacity:1;fill-rule:nonzero;stroke:none;stroke-width:1.22256px;marker:none;enable-background:accumulate"
       d="m 1618.1099,1155.6744 c 0.9145,-55.4749 18.7278,-107.9364 176.6399,-106.1209 118.4032,1.3605 149.9346,44.1029 152.5579,100.1767 1.8488,39.5168 -62.2081,76.0945 -163.9369,74.1563 -97.2331,-1.8521 -158.1501,-25.906 -165.2609,-68.2121 z"
       id="path5026-3"
       inkscape:connector-curvature="0"
       sodipodi:nodetypes="csssc" />
    <path
       style="fill:#cdf0ff;fill-rule:evenodd;stroke:none;stroke-width:1.78217px;stroke-linecap:butt;stroke-linejoin:miter;stroke-opacity:1;fill-opacity:1"
       d="m 1876.9024,1072.4564 c 28.2335,-6.4279 93.4241,-58.729 105.0673,-115.8066 2.8219,25.56546 -15.0538,86.6026 -55.5282,133.1516 -63.168,72.6485 -68.303,-6.7555 -68.303,-6.7555 z"
       id="path4248"
       inkscape:connector-curvature="0"
       sodipodi:nodetypes="ccscc" />
    <path
       style="fill:#cdf0ff;fill-opacity:1;fill-rule:evenodd;stroke:none;stroke-width:1.16771px;stroke-linecap:butt;stroke-linejoin:miter;stroke-opacity:1"
       d="m 1128.6182,1799.6189 c 50.1816,-83.383 157.2044,-75.3048 240.2991,-78.5144 121.3875,-3.9315 238.6227,-25.7446 346.6923,34.0416 33.9963,18.8074 45.185,172.9067 -36.4945,178.8734 -108.2704,15.7986 -218.4382,16.6831 -327.6997,15.71 -64.9083,-4.8814 -136.6613,-8.1169 -191.7367,-46.3633 -26.5046,-26.2994 -38.9643,-66.785 -31.0605,-103.7473 z"
       id="path4246"
       inkscape:connector-curvature="0"
       sodipodi:nodetypes="sssssss" />
    <path
       style="fill:#cdf0ff;fill-opacity:1;stroke:none;stroke-width:0.86009"
       d="m 1466.6277,1974.6275 c -35.2607,0.4529 -71.1789,2.9849 -104.3342,13.6881 -19.8461,6.6371 -38.1285,18.4584 -47.129,34.9607 -11.8785,21.0758 -12.3448,45.6032 -5.4433,67.8823 5.7023,18.2333 19.1117,34.9588 38.1574,45.3294 22.9216,13.2336 50.9552,19.1247 78.588,19.7887 29.4465,1.1355 58.9262,0.071 88.3876,0.3432 29.5101,-0.073 59.5446,-0.3554 88.1157,-7.2258 25.1837,-6.6134 46.7742,-22.6758 56.4838,-43.2337 7.3674,-14.8068 8.9327,-31.1357 7.5969,-46.9925 -1.057,-15.4685 -3.9567,-31.4887 -13.8613,-44.9066 -7.5935,-10.2899 -19.1971,-18.2744 -32.3743,-23.2035 -24.2336,-9.5548 -51.222,-12.3185 -77.6102,-14.5215 -25.4528,-1.9292 -51.0398,-2.033 -76.5771,-1.9088 z"
       id="path3280-10-5"
       inkscape:connector-curvature="0"
       sodipodi:nodetypes="csssc" />
    <path
       style="fill:#cdf0ff;fill-opacity:1;fill-rule:evenodd;stroke:none;stroke-width:0.995097px;stroke-linecap:butt;stroke-linejoin:miter;stroke-opacity:1"
       d="m 1470.4616,2063.1977 c 20.5258,-118.9472 -39.8616,-176.8263 -115.5012,-203.8912 -75.6397,-27.0648 -418.72113,-122.5007 -601.50776,31.3 168.27211,-172.6923 518.59766,-84.1291 592.89326,-59.2455 74.2956,24.8835 169.3028,62.928 163.0156,232.4228 -6.2873,169.4949 -38.8999,-0.5861 -38.8999,-0.5861 z"
       id="path98507" />
    <path
       style="color:#000000;display:inline;overflow:visible;visibility:visible;fill:#cdf0ff;fill-opacity:1;fill-rule:nonzero;stroke:none;stroke-width:0.623202px;marker:none;enable-background:accumulate"
       d="m 172.21239,2845.2025 c 24.56093,-36.8211 160.75651,-31.1896 203.11889,-21.7058 46.23086,10.3497 60.46466,25.0144 62.53193,57.1557 0.63857,9.9277 -3.10093,54.9473 -25.84151,63.8101 -22.74053,8.8622 -87.8611,13.2936 -110.60169,13.2936 -22.74052,0 -95.33332,-5.6406 -113.70286,-18.6115 -17.57221,-12.407 -40.06575,-57.1216 -15.50476,-93.9421 z"
       id="path3330-0"
       inkscape:connector-curvature="0"
       sodipodi:nodetypes="zsssssz" />
    <path
       style="color:#000000;display:inline;overflow:visible;visibility:visible;fill:#cdf0ff;fill-opacity:1;fill-rule:nonzero;stroke:none;stroke-width:1.71562px;marker:none;enable-background:accumulate"
       d="m 323.63505,3040.9122 c -2.34696,121.8454 100.40335,196.0628 382.36362,175.8942 146.26295,-10.4623 324.21103,-22.4835 300.04943,-205.4171 -21.29509,-161.2318 -260.19378,-137.3583 -308.50726,-139.2609 -48.3142,-1.9025 -298.53749,7.2665 -340.2963,64.1395 -26.13985,35.6022 -35.71,70.3971 -33.60949,104.6443 z"
       id="path4546-6-5-3"
       inkscape:connector-curvature="0"
       sodipodi:nodetypes="cssssc" />
    <path
       style="color:#000000;display:inline;overflow:visible;visibility:visible;fill:#cdf0ff;fill-opacity:1;fill-rule:nonzero;stroke:none;stroke-width:1.01688px;marker:none;enable-background:accumulate"
       d="m 1127.723,3072.9465 c -31.7426,0.4206 -63.8214,0.5141 -94.9671,6.5188 -26.819,5.1101 -52.59972,15.1587 -73.79726,30.4503 -12.97252,9.3 -24.48611,20.4277 -31.98223,33.605 -8.65758,14.8923 -12.95318,32.0264 -10.27782,48.6561 2.83669,14.1237 12.63051,26.096 22.16209,37.4214 10.48829,12.5019 23.26237,23.9802 39.26124,31.1088 24.14478,11.2801 51.41158,15.904 78.27158,19.3582 47.0768,6.1939 94.7584,9.754 142.3945,8.343 40.1594,-1.5584 80.6495,-5.4778 118.9016,-16.7179 20.9755,-6.3193 41.6889,-14.982 57.4597,-28.8704 13.4349,-11.8314 22.8714,-27.1728 25.9345,-43.6306 5.1072,-23.1537 0.8233,-48.3793 -14.665,-68.0346 -14.9907,-19.156 -38.3727,-32.46 -63.4763,-39.586 -26.5228,-7.7566 -54.5043,-10.4728 -82.1962,-13.0402 -29.4961,-2.4213 -59.0743,-4.0675 -88.6671,-5.263 -8.1154,-0.2392 -16.2363,-0.328 -24.3562,-0.3189 z"
       id="path4546-1"
       inkscape:connector-curvature="0"
       sodipodi:nodetypes="cssssc" />
    <path
       style="fill:#cdf0ff;fill-rule:evenodd;stroke:none;stroke-width:0.8628px;stroke-linecap:butt;stroke-linejoin:miter;stroke-opacity:1;fill-opacity:1"
       d="m 1485.2712,3247.2085 c -50.4862,11.4936 -118.5889,-1.8333 -151.4166,-46.2885 -32.8277,-44.4549 -2.6699,31.9178 -2.6699,31.9178 0,0 59.9464,55.1538 154.0865,14.3707 z"
       id="path914"
       inkscape:connector-curvature="0"
       sodipodi:nodetypes="cscc" />
  </g>
  <g
     inkscape:groupmode="layer"
     id="layer3"
     inkscape:label="speechbubbles"
     style="display:inline">
    <path
       style="color:#000000;display:inline;overflow:visible;visibility:visible;fill:#ffffff;fill-opacity:1;fill-rule:nonzero;stroke:none;stroke-width:0.76825px;marker:none;enable-background:accumulate"
       d="m 1286.1959,1984.1813 c -18.9485,13.729 -18.2881,22.2591 7.439,23.5835 -43.1447,24.7437 -7.8873,20.9995 -0.9332,27.2737 -33.8765,8.5275 -21.3092,19.6601 -12.6885,29.704 -42.1154,-16.2682 -27.7586,6.1339 -24.8515,20.7092 -11.8143,-9.8963 -30.9848,-19.7481 -22.9114,5.932 -25.7549,-20.467 -47.9262,-38.8367 -50.3894,-3.0184 -10.377,-18.0193 -36.8482,-21.3996 -36.0516,0.092 -21.402,-25.3028 -43.4646,-26.7823 -64.7833,-9.0768 0.7313,-11.3625 25.1813,-35.0922 -26.5648,-18.3608 21.2092,-15.8217 6.0255,-18.1254 -18.9581,-17.5242 20.011,-5.0513 23.6989,-10.2617 -13.4568,-15.8687 28.2734,-0.5427 54.6383,-1.6541 21.4676,-20.7759 10.4066,-0.4632 58.4658,15.3065 10.5872,-44.3656 17.8948,14.9491 52.4898,24.5281 47.3151,-8.6629 28.6587,27.3868 41.0685,13.7711 49.6189,-5.7696 20.1907,28.718 29.8395,23.0011 50.0885,2.0703 1.5387,13.2814 24.2569,30.3795 50.3608,12.8593 -14.218,21.0674 11.1217,26.7445 34.7115,21.1989 z"
       id="path3549-3-7-3"
       inkscape:connector-curvature="0"
       sodipodi:nodetypes="ccccccccccccccccccc" />
    <path
       style="color:#000000;display:inline;overflow:visible;visibility:visible;fill:#ffffff;fill-opacity:1;fill-rule:nonzero;stroke:none;stroke-width:0.837149px;marker:none;enable-background:accumulate"
       d="m 966.36472,2000.5771 c 42.82178,-22.7004 91.81268,-11.0807 106.41908,-4.0321 46.7932,22.5812 18.1866,37.5471 18.1866,37.5471 0.4518,-0.4935 -62.6742,-53.459 -124.60568,-33.515 z"
       id="path5002-7"
       inkscape:connector-curvature="0"
       sodipodi:nodetypes="cscc" />
  </g>
  <g
     inkscape:groupmode="layer"
     id="layer1"
     inkscape:label="txt"
     style="display:inline">
    <text
       id="text4246-4-2-7"
       y="194.30643"
       x="348.30884"
       style="font-style:normal;font-variant:normal;font-weight:normal;font-stretch:normal;line-height:0%;font-family:Lavi;-inkscape-font-specification:Lavi;text-align:center;letter-spacing:0px;word-spacing:0px;text-anchor:middle;fill:#000000;fill-opacity:1;stroke:none"
       xml:space="preserve"><tspan
         y="194.30643"
         x="348.30884"
         style="font-size:45px;line-height:1.25"
         sodipodi:role="line"
         id="tspan907">Mi…</tspan><tspan
         y="250.55643"
         x="348.30884"
         style="font-size:45px;line-height:1.25"
         sodipodi:role="line"
         id="tspan3711">mi bedaŭras pro</tspan><tspan
         y="306.80643"
         x="348.30884"
         style="font-size:45px;line-height:1.25"
         sodipodi:role="line"
         id="tspan6111">tio, kio okazis…</tspan></text>
    <text
       id="text4246-4-2-7-3"
       y="1003.3795"
       x="306.38058"
       style="font-style:normal;font-variant:normal;font-weight:normal;font-stretch:normal;line-height:0%;font-family:Lavi;-inkscape-font-specification:Lavi;text-align:center;letter-spacing:0px;word-spacing:0px;text-anchor:middle;fill:#000000;fill-opacity:1;stroke:none"
       xml:space="preserve"><tspan
         y="1003.3795"
         x="306.38058"
         style="font-size:45px;line-height:1.25"
         sodipodi:role="line"
         id="tspan37052">… pro</tspan><tspan
         y="1059.6295"
         x="306.38058"
         style="font-size:45px;line-height:1.25"
         sodipodi:role="line"
         id="tspan7607">la batalo</tspan><tspan
         y="1115.8795"
         x="306.38058"
         style="font-size:45px;line-height:1.25"
         sodipodi:role="line"
         id="tspan14057">inter ni.</tspan></text>
    <text
       id="text4246-4-2-7-3-1"
       y="1058.5084"
       x="522.69568"
       style="font-style:normal;font-variant:normal;font-weight:normal;font-stretch:normal;line-height:0%;font-family:Lavi;-inkscape-font-specification:Lavi;text-align:center;letter-spacing:0px;word-spacing:0px;text-anchor:middle;fill:#000000;fill-opacity:1;stroke:none"
       xml:space="preserve"><tspan
         y="1058.5084"
         x="522.69568"
         style="font-size:45px;line-height:1.25"
         sodipodi:role="line"
         id="tspan37052-0">Mi…</tspan></text>
    <text
       id="text4246-4-2-7-3-5"
       y="1135.6951"
       x="571.68365"
       style="font-style:normal;font-variant:normal;font-weight:normal;font-stretch:normal;line-height:0%;font-family:Lavi;-inkscape-font-specification:Lavi;text-align:center;letter-spacing:0px;word-spacing:0px;text-anchor:middle;fill:#000000;fill-opacity:1;stroke:none"
       xml:space="preserve"><tspan
         y="1135.6951"
         x="571.68365"
         style="font-size:45px;line-height:1.25"
         sodipodi:role="line"
         id="tspan25462">Mi <tspan
   style="font-style:italic;font-variant:normal;font-weight:normal;font-stretch:normal;font-family:Lavi;-inkscape-font-specification:'Lavi Italic'"
   id="tspan21047">devis</tspan></tspan><tspan
         y="1191.9451"
         x="571.68365"
         style="font-size:45px;line-height:1.25"
         sodipodi:role="line"
         id="tspan25464">tion fari.</tspan></text>
    <text
       id="text4246-4-2-7-9"
       y="233.13176"
       x="1779.386"
       style="font-style:normal;font-variant:normal;font-weight:normal;font-stretch:normal;line-height:0%;font-family:Lavi;-inkscape-font-specification:Lavi;text-align:center;letter-spacing:0px;word-spacing:0px;text-anchor:middle;fill:#000000;fill-opacity:1;stroke:none"
       xml:space="preserve"><tspan
         y="233.13176"
         x="1779.386"
         style="font-size:45px;line-height:1.25"
         sodipodi:role="line"
         id="tspan6111-6">Ne afliktiĝu;</tspan><tspan
         y="289.38177"
         x="1779.386"
         style="font-size:45px;line-height:1.25"
         sodipodi:role="line"
         id="tspan66776">mi komprenis.</tspan></text>
    <text
       id="text4246-4-2-7-9-2"
       y="1119.2592"
       x="1783.5726"
       style="font-style:normal;font-variant:normal;font-weight:normal;font-stretch:normal;line-height:0%;font-family:Lavi;-inkscape-font-specification:Lavi;text-align:center;letter-spacing:0px;word-spacing:0px;text-anchor:middle;fill:#000000;fill-opacity:1;stroke:none"
       xml:space="preserve"><tspan
         y="1119.2592"
         x="1783.5726"
         style="font-size:45px;line-height:1.25"
         sodipodi:role="line"
         id="tspan71640">Dankon,</tspan><tspan
         y="1175.5092"
         x="1783.5726"
         style="font-size:45px;line-height:1.25"
         sodipodi:role="line"
         id="tspan29140">ke vi venis.</tspan></text>
    <text
       id="text4246-4-2-7-9-2-7"
       y="1790.3612"
       x="1434.9933"
       style="font-style:normal;font-variant:normal;font-weight:normal;font-stretch:normal;line-height:0%;font-family:Lavi;-inkscape-font-specification:Lavi;text-align:center;letter-spacing:0px;word-spacing:0px;text-anchor:middle;fill:#000000;fill-opacity:1;stroke:none"
       xml:space="preserve"><tspan
         y="1790.3612"
         x="1434.9933"
         style="font-size:45px;line-height:1.25"
         sodipodi:role="line"
         id="tspan71640-2">Ĉi tiu magia ĉelo</tspan><tspan
         y="1846.6112"
         x="1434.9933"
         style="font-size:45px;line-height:1.25"
         sodipodi:role="line"
         id="tspan93883">estas vere potenca, ili</tspan><tspan
         y="1902.8612"
         x="1434.9933"
         style="font-size:45px;line-height:1.25"
         sodipodi:role="line"
         id="tspan39094">ne ŝparis pro vi.</tspan></text>
    <text
       xml:space="preserve"
       style="font-style:normal;font-variant:normal;font-weight:normal;font-stretch:normal;line-height:0%;font-family:Lavi;-inkscape-font-specification:Lavi;text-align:center;letter-spacing:0px;word-spacing:0px;text-anchor:middle;display:inline;fill:#000000;fill-opacity:1;stroke:none"
       x="1168.7362"
       y="2033.7449"
       id="text4246-97"><tspan
         sodipodi:role="line"
         style="font-style:normal;font-variant:normal;font-weight:bold;font-stretch:normal;font-size:45px;line-height:1.25;font-family:Lavi;-inkscape-font-specification:'Lavi Bold'"
         x="1168.7362"
         y="2033.7449"
         id="tspan4252-99">Ha, ha !</tspan></text>
    <text
       id="text4246-4-2-7-9-2-7-0"
       y="2049.4873"
       x="1489.1412"
       style="font-style:normal;font-variant:normal;font-weight:normal;font-stretch:normal;font-size:11.0752px;line-height:0%;font-family:Lavi;-inkscape-font-specification:Lavi;text-align:center;letter-spacing:0px;word-spacing:0px;text-anchor:middle;fill:#000000;fill-opacity:1;stroke:none;stroke-width:0.922932"
       xml:space="preserve"><tspan
         y="2049.4873"
         x="1489.1412"
         style="font-size:41.5319px;line-height:1.25;stroke-width:0.922932"
         sodipodi:role="line"
         id="tspan96797">Malpli laŭte,</tspan><tspan
         y="2101.4021"
         x="1489.1412"
         style="font-size:41.5319px;line-height:1.25;stroke-width:0.922932"
         sodipodi:role="line"
         id="tspan41795">aŭ ili trovos nin.</tspan></text>
    <text
       xml:space="preserve"
       style="color:#000000;font-style:normal;font-variant:normal;font-weight:normal;font-stretch:normal;font-size:7.41214px;line-height:0.01%;font-family:Arial;-inkscape-font-specification:Arial;letter-spacing:2.51825px;word-spacing:0px;display:inline;overflow:visible;visibility:visible;opacity:0.635039;fill:#e69d76;fill-opacity:1;fill-rule:nonzero;stroke:#e99f77;stroke-width:2.70666;stroke-opacity:1;marker:none;enable-background:accumulate"
       x="599.59552"
       y="3065.2383"
       id="text4246-1711"
       transform="matrix(0.87642423,-0.49049559,0.3850957,0.92547904,0,0)"><tspan
         sodipodi:role="line"
         x="600.85461"
         y="3065.2383"
         id="tspan1709"
         style="word-spacing:0px;fill:#ffffff;fill-opacity:1;stroke:#ffffff;stroke-width:2.70666;stroke-opacity:1"><tspan
           x="599.59552"
           y="3065.2383"
           style="color:#000000;font-style:normal;font-variant:normal;font-weight:normal;font-stretch:normal;font-size:39.5314px;line-height:1.25;font-family:Lavi;-inkscape-font-specification:Lavi;text-align:center;word-spacing:0px;text-anchor:middle;display:inline;overflow:visible;visibility:visible;fill:#ffffff;fill-opacity:1;fill-rule:nonzero;stroke:#ffffff;stroke-width:2.1336;stroke-miterlimit:4;stroke-dasharray:none;stroke-opacity:1;marker:none;enable-background:accumulate"
           id="tspan1707">LEK</tspan></tspan></text>
    <text
       xml:space="preserve"
       style="color:#000000;font-style:normal;font-variant:normal;font-weight:normal;font-stretch:normal;font-size:5.89332px;line-height:0.01%;font-family:Arial;-inkscape-font-specification:Arial;letter-spacing:2.00224px;word-spacing:0px;display:inline;overflow:visible;visibility:visible;opacity:0.635039;fill:#e69d76;fill-opacity:1;fill-rule:nonzero;stroke:#e99f77;stroke-width:2.15204;stroke-opacity:1;marker:none;enable-background:accumulate"
       x="651.1543"
       y="3086.4412"
       id="text4246-8"
       transform="matrix(0.86624931,-0.49625693,0.3806249,0.93634967,0,0)"><tspan
         sodipodi:role="line"
         x="652.1554"
         y="3086.4412"
         id="tspan1709-9"
         style="word-spacing:0px;fill:#ffffff;fill-opacity:1;stroke:#ffffff;stroke-width:2.15204;stroke-opacity:1"><tspan
           x="651.1543"
           y="3086.4412"
           style="color:#000000;font-style:normal;font-variant:normal;font-weight:normal;font-stretch:normal;font-size:31.431px;line-height:1.25;font-family:Lavi;-inkscape-font-specification:Lavi;text-align:center;word-spacing:0px;text-anchor:middle;display:inline;overflow:visible;visibility:visible;fill:#ffffff;fill-opacity:1;fill-rule:nonzero;stroke:#ffffff;stroke-width:1.69641;stroke-miterlimit:4;stroke-dasharray:none;stroke-opacity:1;marker:none;enable-background:accumulate"
           id="tspan1707-7">LEK</tspan></tspan></text>
    <text
       xml:space="preserve"
       style="color:#000000;font-style:normal;font-variant:normal;font-weight:normal;font-stretch:normal;font-size:4.80028px;line-height:0.01%;font-family:Arial;-inkscape-font-specification:Arial;letter-spacing:1.63088px;word-spacing:0px;display:inline;overflow:visible;visibility:visible;opacity:0.635039;fill:#e69d76;fill-opacity:1;fill-rule:nonzero;stroke:#e99f77;stroke-width:1.7529;stroke-opacity:1;marker:none;enable-background:accumulate"
       x="663.8678"
       y="3119.0703"
       id="text4246-8-3"
       transform="matrix(0.86358569,-0.49778757,0.37945452,0.93923772,0,0)"><tspan
         sodipodi:role="line"
         x="664.68323"
         y="3119.0703"
         id="tspan1709-9-6"
         style="word-spacing:0px;fill:#ffffff;fill-opacity:1;stroke:#ffffff;stroke-width:1.7529;stroke-opacity:1"><tspan
           x="663.8678"
           y="3119.0703"
           style="color:#000000;font-style:normal;font-variant:normal;font-weight:normal;font-stretch:normal;font-size:25.6015px;line-height:1.25;font-family:Lavi;-inkscape-font-specification:Lavi;text-align:center;word-spacing:0px;text-anchor:middle;display:inline;overflow:visible;visibility:visible;fill:#ffffff;fill-opacity:1;fill-rule:nonzero;stroke:#ffffff;stroke-width:1.38177;stroke-miterlimit:4;stroke-dasharray:none;stroke-opacity:1;marker:none;enable-background:accumulate"
           id="tspan1707-7-1">LEK</tspan></tspan></text>
    <text
       id="text4246-4-2-7-9-2-7-0-9"
       y="2899.5105"
       x="296.33832"
       style="font-style:normal;font-variant:normal;font-weight:normal;font-stretch:normal;line-height:0%;font-family:Lavi;-inkscape-font-specification:Lavi;text-align:center;letter-spacing:0px;word-spacing:0px;text-anchor:middle;fill:#000000;fill-opacity:1;stroke:none"
       xml:space="preserve"><tspan
         y="2899.5105"
         x="296.33832"
         style="font-size:45px;line-height:1.25"
         sodipodi:role="line"
         id="tspan96797-9">Sciu,</tspan></text>
    <text
       id="text4246-4-2-7-9-2-7-0-9-4"
       y="2979.677"
       x="662.61322"
       style="font-style:normal;font-variant:normal;font-weight:normal;font-stretch:normal;line-height:0%;font-family:Lavi;-inkscape-font-specification:Lavi;text-align:center;letter-spacing:0px;word-spacing:0px;text-anchor:middle;fill:#000000;fill-opacity:1;stroke:none"
       xml:space="preserve"><tspan
         y="2979.677"
         x="662.61322"
         style="font-size:45px;line-height:1.25"
         sodipodi:role="line"
         id="tspan96797-9-7">mi ĉeestis ankaŭ pro tio,</tspan><tspan
         y="3035.927"
         x="662.61322"
         style="font-size:45px;line-height:1.25"
         sodipodi:role="line"
         id="tspan124224">ke tuj post la ceremonio,</tspan><tspan
         y="3092.177"
         x="662.61322"
         style="font-size:45px;line-height:1.25"
         sodipodi:role="line"
         id="tspan124226">mi povis aniĝi la fidatojn</tspan><tspan
         y="3148.427"
         x="662.61322"
         style="font-size:45px;line-height:1.25"
         sodipodi:role="line"
         id="tspan124228">de Vasabio,</tspan></text>
    <text
       id="text4246-4-2-7-9-2-7-0-9-4-8"
       y="3169.0232"
       x="1168.2246"
       style="font-style:normal;font-variant:normal;font-weight:normal;font-stretch:normal;line-height:0%;font-family:Lavi;-inkscape-font-specification:Lavi;text-align:center;letter-spacing:0px;word-spacing:0px;text-anchor:middle;fill:#000000;fill-opacity:1;stroke:none"
       xml:space="preserve"><tspan
         y="3169.0232"
         x="1168.2246"
         style="font-size:45px;line-height:1.25"
         sodipodi:role="line"
         id="tspan65971">kaj tiel ekkoni</tspan><tspan
         y="3225.2732"
         x="1168.2246"
         style="font-size:45px;line-height:1.25"
         sodipodi:role="line"
         id="tspan68803">ŝiajn planojn…</tspan></text>
  </g>
</svg>
