<?xml version="1.0" encoding="UTF-8" standalone="no"?>
<!-- Created with Inkscape (http://www.inkscape.org/) -->

<svg
   id="svg2"
   version="1.1"
   inkscape:version="1.1.2 (1:1.1+202202050950+0a00cf5339)"
   width="2481"
   height="3503"
   sodipodi:docname="E36P11.svg"
   xmlns:inkscape="http://www.inkscape.org/namespaces/inkscape"
   xmlns:sodipodi="http://sodipodi.sourceforge.net/DTD/sodipodi-0.dtd"
   xmlns:xlink="http://www.w3.org/1999/xlink"
   xmlns="http://www.w3.org/2000/svg"
   xmlns:svg="http://www.w3.org/2000/svg"
   xmlns:rdf="http://www.w3.org/1999/02/22-rdf-syntax-ns#"
   xmlns:cc="http://creativecommons.org/ns#"
   xmlns:dc="http://purl.org/dc/elements/1.1/">
  <metadata
     id="metadata8">
    <rdf:RDF>
      <cc:Work
         rdf:about="">
        <dc:format>image/svg+xml</dc:format>
        <dc:type
           rdf:resource="http://purl.org/dc/dcmitype/StillImage" />
        <dc:title />
      </cc:Work>
    </rdf:RDF>
  </metadata>
  <defs
     id="defs6" />
  <sodipodi:namedview
     pagecolor="#1e1e1e"
     bordercolor="#111111"
     borderopacity="1"
     objecttolerance="10"
     gridtolerance="10"
     guidetolerance="10"
     inkscape:pageopacity="0"
     inkscape:pageshadow="2"
     inkscape:window-width="1216"
     inkscape:window-height="704"
     id="namedview4"
     showgrid="false"
     inkscape:zoom="0.52900002"
     inkscape:cx="1220.2268"
     inkscape:cy="2873.3458"
     inkscape:window-x="0"
     inkscape:window-y="0"
     inkscape:window-maximized="0"
     inkscape:current-layer="layer1"
     inkscape:pagecheckerboard="0"
     inkscape:snap-global="false" />
  <g
     inkscape:groupmode="layer"
     id="layer2"
     inkscape:label="artwork"
     sodipodi:insensitive="true">
    <image
       xlink:href="../gfx_Pepper-and-Carrot_by-David-Revoy_E36P11.png"
       y="0"
       x="0"
       id="image10"
       height="3503"
       width="2481" />
  </g>
  <g
     inkscape:groupmode="layer"
     id="layer3"
     inkscape:label="speechbubbles"
     style="display:inline">
    <path
       style="color:#000000;display:inline;overflow:visible;visibility:visible;fill:#ffffff;fill-opacity:1;fill-rule:nonzero;stroke:none;stroke-width:0.649444px;marker:none;enable-background:accumulate"
       d="m 384.22008,282.95177 c -36.52082,21.41551 -81.08506,17.53589 -121.80587,16.52247 -42.52036,-3.44423 -93.06761,-16.67254 -112.2994,-58.54734 -17.96129,-38.78476 2.10016,-87.11707 40.45297,-105.22628 35.18838,-16.98124 75.64954,-18.66814 114.10065,-19.46171 49.92399,1.16875 104.76155,32.33519 112.49934,84.58625 4.21244,30.58574 -9.514,62.20135 -32.94769,82.12661 z"
       id="path4040-40"
       inkscape:connector-curvature="0"
       sodipodi:nodetypes="zssssz" />
    <path
       style="color:#000000;display:inline;overflow:visible;visibility:visible;fill:#ffffff;fill-opacity:1;fill-rule:nonzero;stroke:none;stroke-width:0.822751px;marker:none;enable-background:accumulate"
       d="m 607.18359,105.88672 c -23.06907,0.48289 -46.66545,1.99485 -68.35156,10.55273 -16.26445,6.28483 -30.88775,17.59434 -39.5636,32.88401 -9.10223,15.11503 -12.86405,32.66921 -15.18695,49.9598 -3.16634,20.5909 -4.60595,42.02901 0.97021,62.34728 8.5575,29.028 34.01301,51.93542 63.4159,58.49046 38.47082,10.88095 79.73598,13.37614 118.82878,4.25676 22.41704,-5.64189 44.18838,-15.47968 61.55567,-30.96068 11.7099,-11.91714 17.23271,-28.63021 18.48164,-45.0154 2.512,-25.0214 3.01365,-50.80265 -4.07707,-75.17205 -6.75102,-22.85714 -24.82707,-41.60583 -46.77478,-50.51416 -17.03414,-7.20666 -35.26383,-10.9992 -53.42291,-14.11157 -11.8572,-1.87992 -23.86746,-2.85024 -35.87533,-2.71718 z"
       id="path3365-90"
       inkscape:connector-curvature="0"
       sodipodi:nodetypes="csssssc" />
    <path
       style="color:#000000;display:inline;overflow:visible;visibility:visible;fill:#ffffff;fill-opacity:1;fill-rule:nonzero;stroke:none;stroke-width:0.944496px;marker:none;enable-background:accumulate"
       d="m 845.88509,212.29357 c 0.56728,53.37318 11.61767,103.84716 109.57707,102.10038 73.45044,-1.30895 93.01074,-42.43199 94.63804,-96.38138 1.1469,-38.01967 -38.5903,-73.2116 -101.69685,-71.34686 -60.31774,1.78194 -98.1071,24.9245 -102.51826,65.62786 z"
       id="path5026-3"
       inkscape:connector-curvature="0"
       sodipodi:nodetypes="csssc" />
    <path
       style="color:#000000;display:inline;overflow:visible;visibility:visible;fill:#ffffff;fill-opacity:1;fill-rule:nonzero;stroke:none;stroke-width:1.06703px;marker:none;enable-background:accumulate"
       d="m 958.1944,309.83323 c -43.34053,0.0194 -52.18434,75.22752 -14.63328,128.2568 -16.5114,-21.59304 -72.61174,-61.13455 -7.77479,-172.66812 29.32893,-50.45175 14.74185,29.39163 14.74185,29.39163 z"
       id="path4035-4"
       inkscape:connector-curvature="0"
       sodipodi:nodetypes="ccscc" />
    <path
       style="color:#000000;display:inline;overflow:visible;visibility:visible;fill:#ffffff;fill-opacity:1;fill-rule:nonzero;stroke:none;stroke-width:0.971338px;marker:none;enable-background:accumulate"
       d="m 1002.5391,1073.3581 c -31.05429,0.9573 -62.5481,6.4628 -89.6059,19.616 -19.26574,10.3187 -31.64319,27.88 -36.64252,46.2354 -9.33129,32.1887 -12.56742,65.9485 -6.04822,98.7395 2.76896,13.3807 6.95647,26.7159 14.29866,38.893 4.88511,7.6974 12.35742,14.2727 21.60182,18.3944 12.53649,6.2034 26.10764,10.7796 39.66098,15.1765 26.81146,7.9571 55.31118,10.8396 83.56408,12.458 13.3509,0.6904 26.7342,-0.6304 39.7242,-3.188 16.971,-3.3011 33.4642,-8.2074 49.3916,-14.0679 21.013,-8.2814 40.6912,-20.4553 52.5379,-37.4326 11.5776,-16.5252 15.3102,-35.833 17.0298,-54.6471 2.4417,-24.4438 1.5282,-49.6784 -8.3954,-73.0064 -9.0647,-20.6148 -27.9868,-38.1686 -51.9595,-47.4 -27.919,-11.286 -58.9511,-15.407 -89.4822,-18.4492 -11.8411,-1.0413 -23.7685,-1.583 -35.6753,-1.3216 z"
       id="path3365-90-4"
       inkscape:connector-curvature="0"
       sodipodi:nodetypes="csssssc" />
    <path
       style="fill:#ffffff;fill-rule:evenodd;stroke:none;stroke-width:1.18884px;stroke-linecap:butt;stroke-linejoin:miter;stroke-opacity:1"
       d="m 1048.455,1075.2666 c 1.6237,-24.8303 2.7154,-51.2197 28.6113,-64.146 -20.0938,4.5574 -50.5407,19.6541 -55.3048,46.5586 -7.4355,41.9896 24.9637,19.5655 24.9637,19.5655 z"
       id="path4248"
       inkscape:connector-curvature="0"
       sodipodi:nodetypes="ccscc" />
    <path
       style="color:#000000;display:inline;overflow:visible;visibility:visible;fill:#ffffff;fill-opacity:1;fill-rule:nonzero;stroke:none;stroke-width:1.50987px;marker:none;enable-background:accumulate"
       d="M 1739.4121 1155.6973 C 1688.3395 1157.0181 1637.4407 1161.9357 1586.6919 1167.5905 C 1564.4698 1170.4501 1541.385 1174.0343 1522.1582 1186.334 C 1492.8236 1205.0672 1473.4779 1239.1113 1473.9719 1274.0989 C 1472.8975 1300.1046 1477.0728 1327.4639 1491.995 1349.3584 C 1508.1402 1372.6464 1534.7437 1387.1453 1562.2855 1392.0923 C 1600.3465 1400.0338 1639.2715 1402.3136 1677.599 1408.5815 C 1738.3711 1416.7462 1799.0014 1426.5624 1860.2095 1430.9203 C 1919.7109 1433.391 1979.1013 1422.0654 2035.3022 1403.0341 C 2059.2686 1395.6812 2083.8797 1387.2961 2103.0537 1370.5062 C 2121.4845 1354.5765 2132.0714 1330.6228 2133.1685 1306.4418 C 2135.5719 1282.4153 2133.8082 1257.3971 2124.2662 1234.9897 C 2115.5601 1216.4004 2099.4528 1201.7449 2080.6248 1193.7991 C 2054.0067 1181.2706 2024.8528 1175.8613 1996.2139 1170.0957 C 1945.4984 1160.8809 1893.8565 1158.638 1842.4178 1157.7616 C 1808.0878 1156.8632 1773.7591 1155.6106 1739.4121 1155.6973 z "
       id="path4546-6-5"
       inkscape:connector-curvature="0"
       sodipodi:nodetypes="cssssc" />
    <path
       style="color:#000000;display:inline;overflow:visible;visibility:visible;fill:#ffffff;fill-opacity:1;fill-rule:nonzero;stroke:none;stroke-width:1.03209px;marker:none;enable-background:accumulate"
       d="m 1709.1904,1378.7198 c -15.8906,0.7686 -31.9802,1.5531 -47.4837,6.4878 -19.5633,6.7228 -37.9509,21.5376 -48.0602,43.0811 -6.9882,15.3973 -7.3686,34.7592 -0.4792,49.9925 7.5009,17.3844 21.4238,29.2546 35.9182,37.5218 23.6306,13.303 50.1175,17.0248 76.058,19.2006 31.4283,2.4153 62.9897,1.7256 94.4897,2.3266 59.5721,0.3822 119.1924,1.051 178.7713,-2.7314 22.8581,-1.8246 45.8535,-4.3611 68.1518,-11.3215 16.5134,-5.5469 33.0082,-14.8541 44.1947,-30.9849 12.2774,-18.2228 14.809,-44.8387 5.9858,-65.318 -7.4176,-18.297 -21.9029,-31.6625 -38.189,-37.2899 -34.7305,-14.7003 -72.4183,-19.0046 -109.2865,-14.3817 -22.6795,2.5405 -45.4356,6.3149 -68.1985,4.5964 -25.6176,-1.2172 -51.2014,-3.4825 -76.8804,-3.1143 -37.0116,-0.3109 -74.0403,0.9637 -111.0596,1.7698 -1.3107,0.055 -2.6216,0.1102 -3.9324,0.1654 z"
       id="path4546-6-5-7-9"
       inkscape:connector-curvature="0"
       sodipodi:nodetypes="cssssc" />
    <path
       style="color:#000000;display:inline;overflow:visible;visibility:visible;fill:#ffffff;fill-opacity:1;fill-rule:nonzero;stroke:none;stroke-width:1.16782px;marker:none;enable-background:accumulate"
       d="m 1834.6759,1063.9074 c -58.4661,16.7056 -74.2086,55.188 -42.9987,96.676 31.21,41.487 10.2962,43.1429 10.2962,43.1429 l -38.5277,-15.376 c 0,0 -61.7873,-122.5503 71.2302,-124.4429 z"
       id="path3072-56"
       inkscape:connector-curvature="0"
       sodipodi:nodetypes="ccccc" />
    <path
       style="color:#000000;display:inline;overflow:visible;visibility:visible;fill:#ffffff;fill-opacity:1;fill-rule:nonzero;stroke:none;stroke-width:0.592925px;marker:none;enable-background:accumulate"
       d="m 126.58488,1627.5134 c 16.24533,-13.7787 216.64551,-23.5914 262.94014,7.571 32.26279,21.7169 19.81677,63.3637 -7.83656,74.2047 -27.65333,10.8417 -161.16169,13.8952 -199.10707,8.3737 -34.12248,-4.9645 -69.93911,-15.6511 -71.82742,-44.0939 -0.77066,-11.6083 -0.41442,-32.2773 15.83091,-46.0555 z"
       id="path4040-5"
       inkscape:connector-curvature="0"
       sodipodi:nodetypes="zssssz" />
    <path
       style="color:#000000;display:inline;overflow:visible;visibility:visible;fill:#ffffff;fill-opacity:1;fill-rule:nonzero;stroke:none;stroke-width:0.874288px;marker:none;enable-background:accumulate"
       d="m 197.10449,1712.5896 c 21.61401,-22.517 288.24142,-38.5528 349.83526,12.3724 42.92484,35.4896 26.36572,103.5483 -10.42633,121.2646 -36.79207,17.7174 -214.4216,22.7074 -264.90698,13.6842 -45.3991,-8.1128 -93.05224,-25.5768 -95.56458,-72.0577 -1.02534,-18.9703 -0.55137,-52.7473 21.06263,-75.2635 z"
       id="path4040-5-3"
       inkscape:connector-curvature="0"
       sodipodi:nodetypes="zssssz" />
    <path
       style="color:#000000;display:inline;overflow:visible;visibility:visible;fill:#ffffff;fill-opacity:1;fill-rule:nonzero;stroke:none;stroke-width:0.855677px;marker:none;enable-background:accumulate"
       d="m 481.26449,1942.4649 c 13.3495,-41.5666 52.33232,-60.4288 7.51958,-104.8642 -33.47159,-33.1897 12.91326,-29.7973 12.91326,-29.7973 0,0 5.02259,-41.3782 24.01835,27.0751 18.99576,68.4534 -9.8869,64.3755 -44.45119,107.5864 z"
       id="path3072-6"
       inkscape:connector-curvature="0"
       sodipodi:nodetypes="csczc" />
    <path
       style="fill:#ffffff;stroke:none;stroke-width:1.12003"
       d="m 620.49758,1730.1201 c -12.46539,-76.5007 78.66177,-115.1924 145.68797,-112.723 98.6247,-8.7008 198.39818,-5.3418 296.69835,4.4695 73.8709,10.7781 121.1939,94.2417 79.8515,156.3201 -46.8629,64.3363 -138.8155,56.6219 -211.24596,62.9721 -84.27812,1.7482 -172.36685,-0.035 -251.41792,-30.4452 -31.22459,-16.6843 -51.703,-47.7754 -59.57394,-80.5935 z"
       id="path3286-6"
       inkscape:connector-curvature="0"
       sodipodi:nodetypes="csssssssc" />
    <path
       style="fill:#ffffff;stroke:none;stroke-width:0.962255"
       d="m 660.3512,1878.8472 c -11.4945,-61.2356 72.53508,-92.2066 134.34083,-90.23 90.94317,-6.9646 182.94566,-4.2759 273.58947,3.5777 68.1174,8.6274 111.7546,75.4365 73.6322,125.1276 -43.213,51.4985 -128.0036,45.3234 -194.79272,50.4065 -77.71396,1.3994 -158.94183,-0.028 -231.83584,-24.3701 -28.79262,-13.355 -47.67604,-38.2421 -54.93394,-64.5117 z"
       id="path3286-6-7"
       inkscape:connector-curvature="0"
       sodipodi:nodetypes="csssssssc" />
    <path
       style="fill:#ffffff;stroke:none;stroke-width:0.824316"
       d="m 732.8615,1992.2364 c -3.42445,-53.9327 69.70244,-81.2101 121.00146,-79.4692 76.47527,-6.134 152.86314,-3.7659 227.60004,3.151 55.8897,7.5985 85.536,66.44 48.7788,110.205 -41.1804,45.3569 -111.209,39.9181 -167.36952,44.3951 -64.89327,1.2324 -132.43031,-0.025 -190.72101,-21.4638 -22.6486,-11.7623 -35.88194,-33.6814 -39.28977,-56.8181 z"
       id="path3286-6-7-4"
       inkscape:connector-curvature="0"
       sodipodi:nodetypes="csssssssc" />
    <path
       style="fill:#ffffff;stroke:none;stroke-width:0.816738"
       d="m 1538.1187,2274.68 c -47.4231,0.9856 -95.332,1.4285 -141.8265,8.2171 -27.4453,5.0646 -54.3633,14.6572 -70.4987,30.3859 -14.0685,15.0743 -12.1949,34.6485 0.038,49.9505 10.0951,14.5227 31.2118,25.5007 55.2229,28.7663 54.1547,10.8118 111.3683,11.8471 167.5846,11.8441 51.5022,-0.2085 103.0084,-2.118 154.1718,-5.9578 28.3944,-2.6624 57.6627,-8.0568 79.3445,-20.8645 26.2395,-15.4056 37.6781,-41.4194 24.6437,-63.0951 -9.0081,-14.8343 -29.5884,-25.8059 -52.6833,-30.5955 -24.3704,-5.1627 -50.3135,-4.7949 -75.592,-6.0981 -46.3391,-1.8463 -92.7809,-3.227 -139.2143,-2.5776 -0.3968,0.011 -0.7934,0.016 -1.19,0.025 z"
       id="path3286-6-7-4-2-5"
       inkscape:connector-curvature="0"
       sodipodi:nodetypes="csssssssc" />
    <path
       style="display:inline;fill:#ffffff;stroke:none;stroke-width:1.00008"
       d="m 1575.734,2344.8072 c -43.2545,1.6201 -86.9522,2.3481 -129.3599,13.5077 -25.0329,8.3254 -49.5847,24.0945 -64.3017,49.9503 -12.832,24.7801 -11.123,56.9575 0.034,82.1119 9.2078,23.8734 28.4683,41.9197 50.3688,47.2878 49.3944,17.7732 101.5791,19.4751 152.8538,19.4703 46.9752,-0.3428 93.954,-3.4819 140.6201,-9.7939 25.8985,-4.3766 52.5942,-13.2443 72.3702,-34.2984 23.9331,-25.3247 34.3661,-68.0879 22.4775,-103.7198 -8.2164,-24.3856 -26.9876,-42.4215 -48.0525,-50.2949 -22.2282,-8.4869 -45.8909,-7.8823 -68.9474,-10.0244 -42.2659,-3.0351 -84.6255,-5.3049 -126.9774,-4.2373 -0.3617,0.018 -0.7236,0.027 -1.0853,0.041 z"
       id="path3286-6-7-4-2-5-3"
       inkscape:connector-curvature="0"
       sodipodi:nodetypes="csssssssc" />
    <path
       style="color:#000000;display:inline;overflow:visible;visibility:visible;fill:#ffffff;fill-opacity:1;fill-rule:nonzero;stroke:none;stroke-width:1.03365px;marker:none;enable-background:accumulate"
       d="m 1109.0561,1984.7544 c -8.1997,41.8065 59.3043,70.6591 115.2035,48.7714 -22.9931,10.09 -81.6027,63.8105 -171.9044,-28.8625 -40.8476,-41.9203 41.4313,-16.5735 41.4313,-16.5735 z"
       id="path4035-4-5"
       inkscape:connector-curvature="0"
       sodipodi:nodetypes="ccscc" />
    <path
       style="color:#000000;display:inline;overflow:visible;visibility:visible;fill:#ffffff;fill-opacity:1;fill-rule:nonzero;stroke:none;stroke-width:1.14715px;marker:none;enable-background:accumulate"
       d="m 1640.0206,2360.0065 c 85.321,-69.4317 155.0537,-160.9776 126.0876,-275.9291 50.0818,114.8531 -29.8722,233.4391 -50.2498,258.0963 -21.5049,26.0213 -75.8378,17.8328 -75.8378,17.8328 z"
       id="path4008-7"
       inkscape:connector-curvature="0"
       sodipodi:nodetypes="ccsc" />
    <path
       style="color:#000000;display:inline;overflow:visible;visibility:visible;fill:#ffffff;fill-opacity:1;fill-rule:nonzero;stroke:none;stroke-width:0.90414px;marker:none;enable-background:accumulate"
       d="m 1999.7453,2479.444 c 2.2875,-52.9884 41.423,-91.9961 145.2212,-82.6965 55.6,4.9822 118.6875,8.0781 115.9805,85.6986 -2.7071,77.6207 -93.3297,76.2069 -111.9978,78.1417 -18.668,1.9348 -116.2154,-5.5768 -133.7262,-31.8622 -10.9614,-16.4544 -15.4862,-32.8745 -15.4777,-49.2816 z"
       id="path4546-6-89"
       inkscape:connector-curvature="0"
       sodipodi:nodetypes="cssssc" />
    <path
       style="fill:#ffffff;fill-rule:evenodd;stroke:none;stroke-width:1px;stroke-linecap:butt;stroke-linejoin:miter;stroke-opacity:1"
       d="m 2127.4405,2420.4639 c 0,0 -20.8561,-32.9672 -21.8804,-43.1562 -1.0243,-10.189 2.4576,-31.6896 11.9397,-43.6552 -22.2118,19.0145 -28.0641,35.9803 -27.9104,44.0276 0.1532,8.0482 12.5159,40.8376 12.5159,40.8376 z"
       id="path1367"
       inkscape:connector-curvature="0"
       inkscape:transform-center-x="-1.8067567"
       inkscape:transform-center-y="-52.12792"
       sodipodi:nodetypes="cscscc" />
    <path
       style="color:#000000;display:inline;overflow:visible;visibility:visible;fill:#ffffff;fill-opacity:1;fill-rule:nonzero;stroke:none;stroke-width:0.897425px;marker:none;enable-background:accumulate"
       d="m 376.61188,2714.8856 c 54.48827,0.4806 109.85355,1.9425 162.49828,17.0945 25.97739,7.847 50.64265,23.0484 65.14112,45.9902 13.03993,20.6381 16.49944,47.6984 5.84224,70.0054 -9.42534,20.6644 -29.73661,35.7115 -52.24274,40.403 -30.26636,8.5963 -61.512,13.2577 -92.67387,17.502 -84.00078,10.4421 -169.76048,10.0518 -253.17774,-4.8606 -23.5273,-4.3578 -47.20637,-11.4473 -66.52066,-25.7526 -15.52621,-11.1896 -28.04425,-27.2228 -32.03835,-45.9145 -6.81517,-28.5397 2.78288,-61.2182 26.69452,-79.6529 17.32751,-13.2401 39.256,-18.5208 60.48025,-22.3774 35.46084,-6.1661 71.48384,-8.1793 107.36163,-10.6248 22.85529,-1.2106 45.74497,-1.8958 68.63532,-1.8123 z"
       id="path4546-7"
       inkscape:connector-curvature="0"
       sodipodi:nodetypes="cssssc" />
    <path
       style="color:#000000;display:inline;overflow:visible;visibility:visible;fill:#ffffff;fill-opacity:1;fill-rule:nonzero;stroke:none;stroke-width:1.1461px;marker:none;enable-background:accumulate"
       d="m 332.29625,2860.4337 c -40.48568,0.6831 -81.79322,5.1462 -119.27757,21.5245 -23.02918,10.3307 -44.33102,26.5888 -56.68445,49.1193 -11.73784,20.9404 -16.37324,46.6594 -9.27417,69.9508 4.46722,15.3309 12.42793,29.8651 23.89303,40.9966 11.8398,9.6958 26.68346,14.3962 41.0397,18.8671 31.26785,9.0644 63.70415,12.9919 95.99967,16.1699 25.24621,2.2775 50.5733,3.9979 75.92712,4.1432 22.04905,-0.4559 44.09351,-1.8014 66.01681,-4.2235 30.0285,-3.6086 60.27983,-10.4363 86.91032,-25.3653 18.60011,-10.6421 35.0167,-26.6934 42.4657,-47.2492 7.3124,-19.8915 7.66531,-41.988 2.86447,-62.5113 -4.69466,-18.5592 -16.57955,-35.0547 -32.53535,-45.4457 -22.48652,-15.2276 -49.47752,-21.3237 -75.83299,-25.6529 -32.85858,-5.239 -66.12396,-6.9706 -99.26649,-9.3947 -14.06736,-0.7592 -28.15859,-1.105 -42.2458,-0.9288 z"
       id="path4546-6-5-4"
       inkscape:connector-curvature="0"
       sodipodi:nodetypes="cssssc" />
    <path
       style="color:#000000;display:inline;overflow:visible;visibility:visible;fill:#ffffff;fill-opacity:1;fill-rule:nonzero;stroke:none;stroke-width:0.94912px;marker:none;enable-background:accumulate"
       d="m 597.94043,2853.7282 c 0.70291,-20.5931 2.79564,-98.204 79.29359,-67.917 -12.96153,-15.3177 -101.3034,-57.4847 -117.55274,67.9555 -4.05901,31.3344 6.93857,21.4416 13.2428,23.8225 6.30431,2.3809 25.01635,-23.861 25.01635,-23.861 z"
       id="path4064-5"
       inkscape:connector-curvature="0"
       sodipodi:nodetypes="ccszc" />
    <path
       style="fill:#ffffff;stroke:none;stroke-width:0.810565"
       d="m 1416.5303,2916.8175 c -60.7851,-0.9824 -121.836,-3.1997 -181.8759,-14.6694 -22.661,-4.506 -45.8276,-10.2921 -65.4802,-24.317 -11.3434,-8.1029 -20.8328,-19.4527 -26.8871,-32.9319 -10.2709,-21.7929 -14.0912,-46.9692 -12.7338,-71.4264 1.6194,-24.0961 10.0844,-48.2743 26.152,-64.8971 16.94,-18.0412 39.2624,-28.0062 61.5175,-34.7609 29.8037,-8.7712 60.7116,-11.208 91.3809,-12.8781 44.4906,-1.9622 89.0252,-0.6336 133.5181,0.507 49.9142,1.8048 100.2276,5.4657 148.7217,19.6653 22.9956,7.0692 46.0279,16.6978 64.6868,33.7593 12.0239,11.3752 21.3832,27.2741 22.919,45.1121 1.9648,17.1565 0.4511,34.604 -2.5249,51.4974 -4.9929,23.9686 -17.5709,46.0762 -35.6273,60.3329 -21.9951,18.3737 -48.8355,27.4202 -75.4051,33.4911 -39.5668,8.7966 -80.0198,10.9384 -120.2654,11.6137 -9.366,0.1262 -18.7311,0.078 -28.0963,-0.098 z"
       id="path3280-8-0"
       inkscape:connector-curvature="0"
       sodipodi:nodetypes="csssc" />
    <path
       style="color:#000000;display:inline;overflow:visible;visibility:visible;fill:#ffffff;fill-opacity:1;fill-rule:nonzero;stroke:none;stroke-width:1px;marker:none;enable-background:accumulate"
       d="m 1202.4146,2978.9707 c 74.1686,10.5665 125.3056,-20.8953 125.9336,-99.1299 24.1747,-37.6874 37.9622,-13.5927 37.9622,-13.5927 0,0 11.7636,14.3466 12.7847,24.636 3.9766,40.0726 -80.3955,126.8937 -176.6805,88.0866 z"
       id="path3072-7"
       inkscape:connector-curvature="0"
       sodipodi:nodetypes="cccsc" />
    <path
       style="fill:#ffffff;fill-rule:evenodd;stroke:none;stroke-width:1px;stroke-linecap:butt;stroke-linejoin:miter;stroke-opacity:1"
       d="m 611.87816,457.91854 c -12.3953,-22.626 4.8341,-35.579 4.6846,-49.244 -0.1543,-14.107 -33.2797,-25.956 -34.0153,-39.032 -0.7356,-13.076 20.5032,-26.957 19.032,-47.388 -1.4712,-20.432 -25.011,-24.518 -22.8041,-0.818 2.2069,23.701 -15.6571,27.839 -11.7699,46.584 6.483,31.261 30.8848,30.638 38.523,39.431 5.057,5.822 -4.6847,18.594 -2.4778,32.487 2.2069,13.894 8.8275,17.98 8.8275,17.98 z"
       id="path4272-2"
       inkscape:connector-curvature="0"
       sodipodi:nodetypes="csssssssc" />
    <path
       style="display:inline;fill:#ffffff;stroke:none;stroke-width:0.877336"
       d="M 395.5572,452.67668 C 407.56611,407.77396 413.32098,333.81277 360.54542,296.86263 333.08948,277.6397 320.11233,262.96148 320.11233,262.96148 l 22.24546,-19.14958 c 105.35115,77.35453 72.21397,163.85407 53.19941,208.86478 z"
       id="path3063-1-0"
       inkscape:connector-curvature="0"
       sodipodi:nodetypes="csccc" />
  </g>
  <g
     inkscape:groupmode="layer"
     id="layer1"
     inkscape:label="txt">
    <text
       id="text4246-4-2-7"
       y="199.79843"
       x="276.44409"
       style="font-style:normal;font-variant:normal;font-weight:normal;font-stretch:normal;line-height:0%;font-family:Lavi;-inkscape-font-specification:Lavi;text-align:center;letter-spacing:0px;word-spacing:0px;text-anchor:middle;fill:#000000;fill-opacity:1;stroke:none"
       xml:space="preserve"><tspan
         y="199.79843"
         x="276.44409"
         style="font-size:45px;line-height:1.25;fill:#000000"
         sodipodi:role="line"
         id="tspan907">Kio estas</tspan><tspan
         y="256.04843"
         x="276.44409"
         style="font-size:45px;line-height:1.25;fill:#000000"
         sodipodi:role="line"
         id="tspan1639">al ŝi ?</tspan></text>
    <text
       id="text4246-4-2-7-3"
       y="175.51302"
       x="615.64233"
       style="font-style:normal;font-variant:normal;font-weight:normal;font-stretch:normal;line-height:0%;font-family:Lavi;-inkscape-font-specification:Lavi;text-align:center;letter-spacing:0px;word-spacing:0px;text-anchor:middle;fill:#000000;fill-opacity:1;stroke:none"
       xml:space="preserve"><tspan
         y="175.51302"
         x="615.64233"
         style="font-size:45px;line-height:1.25;fill:#000000"
         sodipodi:role="line"
         id="tspan1639-7">Pipro ?</tspan><tspan
         y="231.76302"
         x="615.64233"
         style="font-size:45px;line-height:1.25;fill:#000000"
         sodipodi:role="line"
         id="tspan3725">Ĉu ĉio en</tspan><tspan
         y="288.013"
         x="615.64233"
         style="font-size:45px;line-height:1.25;fill:#000000"
         sodipodi:role="line"
         id="tspan3727">ordo ?</tspan></text>
    <text
       id="text4246-4-2-7-3-5"
       y="220.69748"
       x="950.75238"
       style="font-style:normal;font-variant:normal;font-weight:normal;font-stretch:normal;line-height:0%;font-family:Lavi;-inkscape-font-specification:Lavi;text-align:center;letter-spacing:0px;word-spacing:0px;text-anchor:middle;fill:#000000;fill-opacity:1;stroke:none"
       xml:space="preserve"><tspan
         y="220.69748"
         x="950.75238"
         style="font-size:45px;line-height:1.25;fill:#000000"
         sodipodi:role="line"
         id="tspan6111">Jes, en</tspan><tspan
         y="276.94748"
         x="950.75238"
         style="font-size:45px;line-height:1.25;fill:#000000"
         sodipodi:role="line"
         id="tspan9478">ordo.</tspan></text>
    <text
       id="text4246-4-2-7-3-5-2"
       y="1157.3962"
       x="1022.4485"
       style="font-style:normal;font-variant:normal;font-weight:normal;font-stretch:normal;line-height:0%;font-family:Lavi;-inkscape-font-specification:Lavi;text-align:center;letter-spacing:0px;word-spacing:0px;text-anchor:middle;fill:#000000;fill-opacity:1;stroke:none"
       xml:space="preserve"><tspan
         y="1157.3962"
         x="1022.4485"
         style="font-size:45px;line-height:1.25;fill:#000000"
         sodipodi:role="line"
         id="tspan11881">Mi simple</tspan><tspan
         y="1213.6462"
         x="1022.4485"
         style="font-size:45px;line-height:1.25;fill:#000000"
         sodipodi:role="line"
         id="tspan14995">ekkomprenis</tspan><tspan
         y="1269.8962"
         x="1022.4485"
         style="font-size:45px;line-height:1.25;fill:#000000"
         sodipodi:role="line"
         id="tspan11883">ion ĵus.</tspan></text>
    <text
       id="text4246-4-2-7-3-5-2-2"
       y="1235.0048"
       x="1801.0182"
       style="font-style:normal;font-variant:normal;font-weight:normal;font-stretch:normal;line-height:0%;font-family:Lavi;-inkscape-font-specification:Lavi;text-align:center;letter-spacing:0px;word-spacing:0px;text-anchor:middle;fill:#000000;fill-opacity:1;stroke:none"
       xml:space="preserve"><tspan
         y="1235.0048"
         x="1801.0182"
         style="font-size:45px;line-height:1.25;fill:#000000"
         sodipodi:role="line"
         id="tspan264594">Ĉiuj ĉi konsekvencoj,</tspan><tspan
         y="1291.2548"
         x="1801.0182"
         style="font-size:45px;line-height:1.25;fill:#000000"
         sodipodi:role="line"
         id="tspan311526">rektaj aŭ nerektaj, venas de</tspan><tspan
         y="1347.5048"
         x="1801.0182"
         style="font-size:45px;line-height:1.25;fill:#000000"
         sodipodi:role="line"
         id="tspan360675">miaj agoj, miaj elektoj...</tspan></text>
    <text
       id="text4246-4-2-7-3-5-2-2-6"
       y="1436.4679"
       x="1868.6469"
       style="font-style:normal;font-variant:normal;font-weight:normal;font-stretch:normal;line-height:0%;font-family:Lavi;-inkscape-font-specification:Lavi;text-align:center;letter-spacing:0px;word-spacing:0px;text-anchor:middle;fill:#000000;fill-opacity:1;stroke:none"
       xml:space="preserve"><tspan
         y="1436.4679"
         x="1868.6469"
         style="font-style:normal;font-variant:normal;font-weight:bold;font-stretch:normal;font-size:45px;line-height:1.25;font-family:Lavi;-inkscape-font-specification:'Lavi Bold';fill:#000000"
         sodipodi:role="line"
         id="tspan224893"><tspan
   style="font-style:normal;font-variant:normal;font-weight:normal;font-stretch:normal;font-family:Lavi;-inkscape-font-specification:Lavi"
   id="tspan306302">...iusence do :</tspan> </tspan><tspan
         y="1492.7179"
         x="1875.6781"
         style="font-style:normal;font-variant:normal;font-weight:normal;font-stretch:normal;font-size:45px;line-height:1.25;font-family:Lavi;-inkscape-font-specification:Lavi;fill:#000000"
         sodipodi:role="line"
         id="tspan269298"><tspan
   style="font-style:normal;font-variant:normal;font-weight:bold;font-stretch:normal;font-family:Lavi;-inkscape-font-specification:'Lavi Bold'"
   id="tspan301576">mia ĉena reago !</tspan> </tspan></text>
    <text
       id="text4246-4-2-7-3-5-2-2-6-7-2"
       y="1681.4132"
       x="256.14807"
       style="font-style:normal;font-variant:normal;font-weight:normal;font-stretch:normal;line-height:0%;font-family:Lavi;-inkscape-font-specification:Lavi;text-align:center;letter-spacing:0px;word-spacing:0px;text-anchor:middle;fill:#000000;fill-opacity:1;stroke:none"
       xml:space="preserve"><tspan
         y="1681.4132"
         x="256.14807"
         style="font-style:normal;font-variant:normal;font-weight:normal;font-stretch:normal;font-size:45px;line-height:1.25;font-family:Lavi;-inkscape-font-specification:Lavi;fill:#000000"
         sodipodi:role="line"
         id="tspan104696-2-8">Ĉu vere ?</tspan></text>
    <text
       id="text4246-4-2-7-3-5-2-2-6-7-2-9"
       y="1767.0973"
       x="374.07385"
       style="font-style:normal;font-variant:normal;font-weight:normal;font-stretch:normal;line-height:0%;font-family:Lavi;-inkscape-font-specification:Lavi;text-align:center;letter-spacing:0px;word-spacing:0px;text-anchor:middle;fill:#000000;fill-opacity:1;stroke:none"
       xml:space="preserve"><tspan
         y="1767.0973"
         x="374.07385"
         style="font-style:normal;font-variant:normal;font-weight:normal;font-stretch:normal;font-size:45px;line-height:1.25;font-family:Lavi;-inkscape-font-specification:Lavi;fill:#000000"
         sodipodi:role="line"
         id="tspan104696-2-8-7">Vi devos klarigi</tspan><tspan
         y="1823.3473"
         x="374.07385"
         style="font-style:normal;font-variant:normal;font-weight:normal;font-stretch:normal;font-size:45px;line-height:1.25;font-family:Lavi;-inkscape-font-specification:Lavi;fill:#000000"
         sodipodi:role="line"
         id="tspan168035">al mi do.</tspan></text>
    <text
       id="text4246-4-2-7-3-5-2-2-6-7-2-9-3"
       y="1687.1317"
       x="889.07532"
       style="font-style:normal;font-variant:normal;font-weight:normal;font-stretch:normal;line-height:0%;font-family:Lavi;-inkscape-font-specification:Lavi;text-align:center;letter-spacing:0px;word-spacing:0px;text-anchor:middle;fill:#000000;fill-opacity:1;stroke:none"
       xml:space="preserve"><tspan
         y="1687.1317"
         x="889.07532"
         style="font-style:normal;font-variant:normal;font-weight:normal;font-stretch:normal;font-size:45px;line-height:1.25;font-family:Lavi;-inkscape-font-specification:Lavi;fill:#000000"
         sodipodi:role="line"
         id="tspan168035-1">Ni sufiĉe babilis,</tspan><tspan
         y="1743.3817"
         x="889.07532"
         style="font-style:normal;font-variant:normal;font-weight:normal;font-stretch:normal;font-size:45px;line-height:1.25;font-family:Lavi;-inkscape-font-specification:Lavi;fill:#000000"
         sodipodi:role="line"
         id="tspan171935">dum ni plu restas meze</tspan><tspan
         y="1799.6317"
         x="889.07532"
         style="font-style:normal;font-variant:normal;font-weight:normal;font-stretch:normal;font-size:45px;line-height:1.25;font-family:Lavi;-inkscape-font-specification:Lavi;fill:#000000"
         sodipodi:role="line"
         id="tspan171941">de batalkampo.</tspan></text>
    <text
       id="text4246-4-2-7-3-5-2-2-6-7-2-9-3-2"
       y="1879.7833"
       x="909.28278"
       style="font-style:normal;font-variant:normal;font-weight:normal;font-stretch:normal;line-height:0%;font-family:Lavi;-inkscape-font-specification:Lavi;text-align:center;letter-spacing:0px;word-spacing:0px;text-anchor:middle;fill:#000000;fill-opacity:1;stroke:none"
       xml:space="preserve"><tspan
         y="1879.7833"
         x="909.28278"
         style="font-style:normal;font-variant:normal;font-weight:normal;font-stretch:normal;font-size:45px;line-height:1.25;font-family:Lavi;-inkscape-font-specification:Lavi;fill:#000000"
         sodipodi:role="line"
         id="tspan171941-1">Ni priparolos ĉion</tspan><tspan
         y="1936.0333"
         x="909.28278"
         style="font-style:normal;font-variant:normal;font-weight:normal;font-stretch:normal;font-size:45px;line-height:1.25;font-family:Lavi;-inkscape-font-specification:Lavi;fill:#000000"
         sodipodi:role="line"
         id="tspan184397">ĉi en aero.</tspan></text>
    <text
       id="text4246-4-2-7-3-5-2-2-6-7-2-9-3-2-9"
       y="2007.9147"
       x="949.59955"
       style="font-style:normal;font-variant:normal;font-weight:normal;font-stretch:normal;line-height:0%;font-family:Lavi;-inkscape-font-specification:Lavi;text-align:center;letter-spacing:0px;word-spacing:0px;text-anchor:middle;fill:#000000;fill-opacity:1;stroke:none"
       xml:space="preserve"><tspan
         y="2007.9147"
         x="949.59955"
         style="font-style:normal;font-variant:normal;font-weight:normal;font-stretch:normal;font-size:45px;line-height:1.25;font-family:Lavi;-inkscape-font-specification:Lavi;fill:#000000"
         sodipodi:role="line"
         id="tspan184397-7">Suriĝu, Pipro !</tspan></text>
    <text
       id="text4246-4-2-7-3-5-2-2-6-7-2-9-3-2-9-8"
       y="2346.3713"
       x="1566.0555"
       style="font-style:normal;font-variant:normal;font-weight:normal;font-stretch:normal;line-height:0%;font-family:Lavi;-inkscape-font-specification:Lavi;text-align:center;letter-spacing:0px;word-spacing:0px;text-anchor:middle;fill:#000000;fill-opacity:1;stroke:none"
       xml:space="preserve"><tspan
         y="2346.3713"
         x="1566.0555"
         style="font-style:normal;font-variant:normal;font-weight:normal;font-stretch:normal;font-size:45px;line-height:1.25;font-family:Lavi;-inkscape-font-specification:Lavi;fill:#000000"
         sodipodi:role="line"
         id="tspan189870">Nukstaksuso pravas.</tspan></text>
    <text
       id="text4246-4-2-7-3-5-2-2-6-7-2-9-3-2-9-8-3"
       y="2443.0361"
       x="1604.3887"
       style="font-style:normal;font-variant:normal;font-weight:normal;font-stretch:normal;line-height:0%;font-family:Lavi;-inkscape-font-specification:Lavi;text-align:center;letter-spacing:0px;word-spacing:0px;text-anchor:middle;fill:#000000;fill-opacity:1;stroke:none"
       xml:space="preserve"><tspan
         y="2443.0361"
         x="1604.3887"
         style="font-style:normal;font-variant:normal;font-weight:normal;font-stretch:normal;font-size:45px;line-height:1.25;font-family:Lavi;-inkscape-font-specification:Lavi;fill:#000000"
         sodipodi:role="line"
         id="tspan61573">Ĉiuokaze ni devas</tspan><tspan
         y="2499.2861"
         x="1604.3887"
         style="font-style:normal;font-variant:normal;font-weight:normal;font-stretch:normal;font-size:45px;line-height:1.25;font-family:Lavi;-inkscape-font-specification:Lavi;fill:#000000"
         sodipodi:role="line"
         id="tspan61751">iri al Kvaliturbo.</tspan></text>
    <text
       id="text4246-4-2-7-3-5-2-2-6-7-2-9-3-2-9-8-5"
       y="2455.429"
       x="2136.4399"
       style="font-style:normal;font-variant:normal;font-weight:normal;font-stretch:normal;line-height:0%;font-family:Lavi;-inkscape-font-specification:Lavi;text-align:center;letter-spacing:0px;word-spacing:0px;text-anchor:middle;fill:#000000;fill-opacity:1;stroke:none"
       xml:space="preserve"><tspan
         y="2455.429"
         x="2136.4399"
         style="font-style:normal;font-variant:normal;font-weight:normal;font-stretch:normal;font-size:45px;line-height:1.25;font-family:Lavi;-inkscape-font-specification:Lavi;fill:#000000"
         sodipodi:role="line"
         id="tspan189870-6">Ne, </tspan><tspan
         y="2511.679"
         x="2136.4399"
         style="font-style:normal;font-variant:normal;font-weight:normal;font-stretch:normal;font-size:45px;line-height:1.25;font-family:Lavi;-inkscape-font-specification:Lavi;fill:#000000"
         sodipodi:role="line"
         id="tspan194276">atendu.</tspan></text>
    <text
       id="text4246-4-2-7-3-5-2-2-6-7-2-9-3-2-9-8-5-1"
       y="2795.4211"
       x="368.46533"
       style="font-style:normal;font-variant:normal;font-weight:normal;font-stretch:normal;line-height:0%;font-family:Lavi;-inkscape-font-specification:Lavi;text-align:center;letter-spacing:0px;word-spacing:0px;text-anchor:middle;fill:#000000;fill-opacity:1;stroke:none"
       xml:space="preserve"><tspan
         y="2795.4211"
         x="368.46533"
         style="font-style:normal;font-variant:normal;font-weight:normal;font-stretch:normal;font-size:45px;line-height:1.25;font-family:Lavi;-inkscape-font-specification:Lavi;fill:#000000"
         sodipodi:role="line"
         id="tspan194276-6">La armeo de Vasabio</tspan><tspan
         y="2851.6711"
         x="368.46533"
         style="font-style:normal;font-variant:normal;font-weight:normal;font-stretch:normal;font-size:45px;line-height:1.25;font-family:Lavi;-inkscape-font-specification:Lavi;fill:#000000"
         sodipodi:role="line"
         id="tspan199194">pretiĝas reataki.</tspan></text>
    <text
       id="text4246-4-2-7-3-5-2-2-6-7-2-9-3-2-9-8-5-1-3"
       y="2937.0781"
       x="362.23334"
       style="font-style:normal;font-variant:normal;font-weight:normal;font-stretch:normal;line-height:0%;font-family:Lavi;-inkscape-font-specification:Lavi;text-align:center;letter-spacing:0px;word-spacing:0px;text-anchor:middle;fill:#000000;fill-opacity:1;stroke:none"
       xml:space="preserve"><tspan
         y="2937.0781"
         x="362.23334"
         style="font-style:normal;font-variant:normal;font-weight:normal;font-stretch:normal;font-size:45px;line-height:1.25;font-family:Lavi;-inkscape-font-specification:Lavi;fill:#000000"
         sodipodi:role="line"
         id="tspan203432">Ni ne povas lasi</tspan><tspan
         y="2993.3281"
         x="362.23334"
         style="font-style:normal;font-variant:normal;font-weight:normal;font-stretch:normal;font-size:45px;line-height:1.25;font-family:Lavi;-inkscape-font-specification:Lavi;fill:#000000"
         sodipodi:role="line"
         id="tspan203436">ilin mortigi sin</tspan><tspan
         y="3049.5781"
         x="362.23334"
         style="font-style:normal;font-variant:normal;font-weight:normal;font-stretch:normal;font-size:45px;line-height:1.25;font-family:Lavi;-inkscape-font-specification:Lavi;fill:#000000"
         sodipodi:role="line"
         id="tspan207740">tiel ĉi.</tspan></text>
    <text
       id="text4246-4-2-7-3-5-2-2-6-7-2-9-3-2-9-8-5-1-3-6"
       y="2746.7141"
       x="1404.0977"
       style="font-style:normal;font-variant:normal;font-weight:normal;font-stretch:normal;line-height:0%;font-family:Lavi;-inkscape-font-specification:Lavi;text-align:center;letter-spacing:0px;word-spacing:0px;text-anchor:middle;fill:#000000;fill-opacity:1;stroke:none"
       xml:space="preserve"><tspan
         y="2746.7141"
         x="1404.0977"
         style="font-style:normal;font-variant:normal;font-weight:normal;font-stretch:normal;font-size:45px;line-height:1.25;font-family:Lavi;-inkscape-font-specification:Lavi;fill:#000000"
         sodipodi:role="line"
         id="tspan207740-5">Mi sentas, ke mi</tspan><tspan
         y="2802.9641"
         x="1404.0977"
         style="font-style:normal;font-variant:normal;font-weight:normal;font-stretch:normal;font-size:45px;line-height:1.25;font-family:Lavi;-inkscape-font-specification:Lavi;fill:#000000"
         sodipodi:role="line"
         id="tspan216256">havas respondecon fini</tspan><tspan
         y="2859.2141"
         x="1404.0977"
         style="font-style:normal;font-variant:normal;font-weight:normal;font-stretch:normal;font-size:45px;line-height:1.25;font-family:Lavi;-inkscape-font-specification:Lavi;fill:#000000"
         sodipodi:role="line"
         id="tspan93103">ĉi tiun batalon.</tspan></text>
  </g>
</svg>
