<?xml version="1.0" encoding="UTF-8" standalone="no"?>
<svg
   xmlns:dc="http://purl.org/dc/elements/1.1/"
   xmlns:cc="http://creativecommons.org/ns#"
   xmlns:rdf="http://www.w3.org/1999/02/22-rdf-syntax-ns#"
   xmlns:svg="http://www.w3.org/2000/svg"
   xmlns="http://www.w3.org/2000/svg"
   xmlns:xlink="http://www.w3.org/1999/xlink"
   xmlns:sodipodi="http://sodipodi.sourceforge.net/DTD/sodipodi-0.dtd"
   xmlns:inkscape="http://www.inkscape.org/namespaces/inkscape"
   id="svg2"
   version="1.1"
   inkscape:version="1.0 (4035a4fb49, 2020-05-01)"
   width="2481"
   height="3503"
   sodipodi:docname="E34P06.svg">
  <metadata
     id="metadata8">
    <rdf:RDF>
      <cc:Work
         rdf:about="">
        <dc:format>image/svg+xml</dc:format>
        <dc:type
           rdf:resource="http://purl.org/dc/dcmitype/StillImage" />
        <dc:title />
      </cc:Work>
    </rdf:RDF>
  </metadata>
  <defs
     id="defs6">
    <filter
       style="color-interpolation-filters:sRGB"
       id="filter4375-4-1-1-1-9-5-8-8-5-5-3-3"
       inkscape:label="soundFX1">
      <feFlood
         id="feFlood4377-7-9-0-8-1-7-3-1-2-7-6-6"
         flood-opacity="1"
         flood-color="rgb(52,52,52)"
         result="flood" />
      <feComposite
         id="feComposite4379-3-8-8-2-77-4-1-0-6-4-7-7"
         in2="SourceGraphic"
         in="flood"
         operator="in"
         result="composite1"
         baseFrequency="0.053999999999999999 0.053999999999999999" />
      <feMorphology
         id="feMorphology4393-1-0-49-8-9-3-0-1-9-9-5-5"
         operator="dilate"
         radius="4.366144675354084"
         result="result3" />
      <feComposite
         id="feComposite4385-9-5-7-0-8-8-7-5-4-9-3-3"
         in2="result3"
         in="SourceGraphic"
         operator="over"
         result="fbSourceGraphic" />
      <feColorMatrix
         result="fbSourceGraphicAlpha"
         in="fbSourceGraphic"
         values="0 0 0 -1 0 0 0 0 -1 0 0 0 0 -1 0 0 0 0 1 0"
         id="feColorMatrix4544-9-4-4-5-5" />
      <feTurbulence
         id="feTurbulence4546-3-6-5-6-6"
         type="fractalNoise"
         numOctaves="4"
         seed="147"
         baseFrequency="0.053999999999999999 0.054054054054054057"
         result="turbulence" />
      <feDisplacementMap
         id="feDisplacementMap4548-8-0-9-2-2"
         in2="turbulence"
         in="fbSourceGraphic"
         scale="10.561763"
         yChannelSelector="G"
         xChannelSelector="R"
         result="fbSourceGraphic" />
      <feColorMatrix
         result="fbSourceGraphicAlpha"
         in="fbSourceGraphic"
         values="0 0 0 -1 0 0 0 0 -1 0 0 0 0 -1 0 0 0 0 1 0"
         id="feColorMatrix4670-7-7-3-9-9" />
      <feFlood
         id="feFlood4672-4-4-5-1-1"
         flood-opacity="1"
         flood-color="rgb(28,28,28)"
         result="flood"
         in="fbSourceGraphic" />
      <feComposite
         id="feComposite4674-8-3-7-2-2"
         in2="fbSourceGraphic"
         in="flood"
         operator="in"
         result="composite1" />
      <feGaussianBlur
         id="feGaussianBlur4676-3-7-08-7-7"
         in="composite1"
         stdDeviation="0"
         result="blur" />
      <feOffset
         id="feOffset4678-6-9-1-0-0"
         dx="-10.48377497279229"
         dy="0.39217365321829334"
         result="offset" />
      <feComposite
         id="feComposite4680-4-0-9-9-9"
         in2="offset"
         in="fbSourceGraphic"
         operator="over"
         result="composite2" />
    </filter>
    <filter
       style="color-interpolation-filters:sRGB"
       id="filter4375-4-1-1-1-9-5-8-8-5-5-3-3-3"
       inkscape:label="soundFX1">
      <feFlood
         id="feFlood4377-7-9-0-8-1-7-3-1-2-7-6-6-5"
         flood-opacity="1"
         flood-color="rgb(52,52,52)"
         result="flood" />
      <feComposite
         id="feComposite4379-3-8-8-2-77-4-1-0-6-4-7-7-6"
         in2="SourceGraphic"
         in="flood"
         operator="in"
         result="composite1"
         baseFrequency="0.053999999999999999 0.053999999999999999" />
      <feMorphology
         id="feMorphology4393-1-0-49-8-9-3-0-1-9-9-5-5-2"
         operator="dilate"
         radius="4.0330969769021738"
         result="result3" />
      <feComposite
         id="feComposite4385-9-5-7-0-8-8-7-5-4-9-3-3-9"
         in2="result3"
         in="SourceGraphic"
         operator="over"
         result="fbSourceGraphic" />
      <feColorMatrix
         result="fbSourceGraphicAlpha"
         in="fbSourceGraphic"
         values="0 0 0 -1 0 0 0 0 -1 0 0 0 0 -1 0 0 0 0 1 0"
         id="feColorMatrix4544-9-4-4-5-5-1" />
      <feTurbulence
         id="feTurbulence4546-3-6-5-6-6-2"
         type="fractalNoise"
         numOctaves="4"
         seed="147"
         baseFrequency="0.046080819231719368"
         result="turbulence" />
      <feDisplacementMap
         id="feDisplacementMap4548-8-0-9-2-2-7"
         in2="turbulence"
         in="fbSourceGraphic"
         scale="13.203259801572088"
         yChannelSelector="G"
         xChannelSelector="R"
         result="fbSourceGraphic" />
      <feColorMatrix
         result="fbSourceGraphicAlpha"
         in="fbSourceGraphic"
         values="0 0 0 -1 0 0 0 0 -1 0 0 0 0 -1 0 0 0 0 1 0"
         id="feColorMatrix4670-7-7-3-9-9-0" />
      <feFlood
         id="feFlood4672-4-4-5-1-1-9"
         flood-opacity="1"
         flood-color="rgb(28,28,28)"
         result="flood"
         in="fbSourceGraphic" />
      <feComposite
         id="feComposite4674-8-3-7-2-2-3"
         in2="fbSourceGraphic"
         in="flood"
         operator="in"
         result="composite1" />
      <feGaussianBlur
         id="feGaussianBlur4676-3-7-08-7-7-6"
         in="composite1"
         stdDeviation="0"
         result="blur" />
      <feOffset
         id="feOffset4678-6-9-1-0-0-0"
         dx="-10.48377497279229"
         dy="0.39217365321829334"
         result="offset" />
      <feComposite
         id="feComposite4680-4-0-9-9-9-6"
         in2="offset"
         in="fbSourceGraphic"
         operator="over"
         result="composite2" />
    </filter>
    <filter
       style="color-interpolation-filters:sRGB"
       id="filter4375-4-1-1-1-9-5-8-8-5-5-3-3-3-7"
       inkscape:label="soundFX1">
      <feFlood
         id="feFlood4377-7-9-0-8-1-7-3-1-2-7-6-6-5-9"
         flood-opacity="1"
         flood-color="rgb(52,52,52)"
         result="flood" />
      <feComposite
         id="feComposite4379-3-8-8-2-77-4-1-0-6-4-7-7-6-2"
         in2="SourceGraphic"
         in="flood"
         operator="in"
         result="composite1"
         baseFrequency="0.053999999999999999 0.053999999999999999" />
      <feMorphology
         id="feMorphology4393-1-0-49-8-9-3-0-1-9-9-5-5-2-0"
         operator="dilate"
         radius="4.0330969769021738"
         result="result3" />
      <feComposite
         id="feComposite4385-9-5-7-0-8-8-7-5-4-9-3-3-9-2"
         in2="result3"
         in="SourceGraphic"
         operator="over"
         result="fbSourceGraphic" />
      <feColorMatrix
         result="fbSourceGraphicAlpha"
         in="fbSourceGraphic"
         values="0 0 0 -1 0 0 0 0 -1 0 0 0 0 -1 0 0 0 0 1 0"
         id="feColorMatrix4544-9-4-4-5-5-1-3" />
      <feTurbulence
         id="feTurbulence4546-3-6-5-6-6-2-7"
         type="fractalNoise"
         numOctaves="4"
         seed="147"
         baseFrequency="0.053999999999999999 0.054054054054054057"
         result="turbulence" />
      <feDisplacementMap
         id="feDisplacementMap4548-8-0-9-2-2-7-5"
         in2="turbulence"
         in="fbSourceGraphic"
         scale="10.561763"
         yChannelSelector="G"
         xChannelSelector="R"
         result="fbSourceGraphic" />
      <feColorMatrix
         result="fbSourceGraphicAlpha"
         in="fbSourceGraphic"
         values="0 0 0 -1 0 0 0 0 -1 0 0 0 0 -1 0 0 0 0 1 0"
         id="feColorMatrix4670-7-7-3-9-9-0-9" />
      <feFlood
         id="feFlood4672-4-4-5-1-1-9-2"
         flood-opacity="1"
         flood-color="rgb(28,28,28)"
         result="flood"
         in="fbSourceGraphic" />
      <feComposite
         id="feComposite4674-8-3-7-2-2-3-2"
         in2="fbSourceGraphic"
         in="flood"
         operator="in"
         result="composite1" />
      <feGaussianBlur
         id="feGaussianBlur4676-3-7-08-7-7-6-8"
         in="composite1"
         stdDeviation="0"
         result="blur" />
      <feOffset
         id="feOffset4678-6-9-1-0-0-0-9"
         dx="-10.48377497279229"
         dy="0.39217365321829334"
         result="offset" />
      <feComposite
         id="feComposite4680-4-0-9-9-9-6-7"
         in2="offset"
         in="fbSourceGraphic"
         operator="over"
         result="composite2" />
    </filter>
    <filter
       style="color-interpolation-filters:sRGB"
       id="filter4375-4-1-1-1-9-5-8-8-5-5-3-3-3-4"
       inkscape:label="soundFX1">
      <feFlood
         id="feFlood4377-7-9-0-8-1-7-3-1-2-7-6-6-5-5"
         flood-opacity="1"
         flood-color="rgb(52,52,52)"
         result="flood" />
      <feComposite
         id="feComposite4379-3-8-8-2-77-4-1-0-6-4-7-7-6-0"
         in2="SourceGraphic"
         in="flood"
         operator="in"
         result="composite1"
         baseFrequency="0.053999999999999999 0.053999999999999999" />
      <feMorphology
         id="feMorphology4393-1-0-49-8-9-3-0-1-9-9-5-5-2-3"
         operator="dilate"
         radius="1.8999624943387681"
         result="result3" />
      <feComposite
         id="feComposite4385-9-5-7-0-8-8-7-5-4-9-3-3-9-6"
         in2="result3"
         in="SourceGraphic"
         operator="over"
         result="fbSourceGraphic" />
      <feColorMatrix
         result="fbSourceGraphicAlpha"
         in="fbSourceGraphic"
         values="0 0 0 -1 0 0 0 0 -1 0 0 0 0 -1 0 0 0 0 1 0"
         id="feColorMatrix4544-9-4-4-5-5-1-1" />
      <feTurbulence
         id="feTurbulence4546-3-6-5-6-6-2-0"
         type="fractalNoise"
         numOctaves="3"
         seed="88"
         baseFrequency="0.03818384303719944"
         result="turbulence" />
      <feDisplacementMap
         id="feDisplacementMap4548-8-0-9-2-2-7-6"
         in2="turbulence"
         in="fbSourceGraphic"
         scale="9.636552494727761"
         yChannelSelector="G"
         xChannelSelector="R"
         result="fbSourceGraphic" />
      <feColorMatrix
         result="fbSourceGraphicAlpha"
         in="fbSourceGraphic"
         values="0 0 0 -1 0 0 0 0 -1 0 0 0 0 -1 0 0 0 0 1 0"
         id="feColorMatrix4670-7-7-3-9-9-0-3" />
      <feFlood
         id="feFlood4672-4-4-5-1-1-9-20"
         flood-opacity="1"
         flood-color="rgb(28,28,28)"
         result="flood"
         in="fbSourceGraphic" />
      <feComposite
         id="feComposite4674-8-3-7-2-2-3-6"
         in2="fbSourceGraphic"
         in="flood"
         operator="in"
         result="composite1" />
      <feGaussianBlur
         id="feGaussianBlur4676-3-7-08-7-7-6-1"
         in="composite1"
         stdDeviation="0"
         result="blur" />
      <feOffset
         id="feOffset4678-6-9-1-0-0-0-5"
         dx="-5.6583689219916096"
         dy="0.39217365321829334"
         result="offset" />
      <feComposite
         id="feComposite4680-4-0-9-9-9-6-5"
         in2="offset"
         in="fbSourceGraphic"
         operator="over"
         result="composite2" />
    </filter>
    <filter
       style="color-interpolation-filters:sRGB"
       id="filter4375-4-1-1-1-9-5-8-8-5-5-3-3-3-4-9"
       inkscape:label="soundFX1">
      <feFlood
         id="feFlood4377-7-9-0-8-1-7-3-1-2-7-6-6-5-5-3"
         flood-opacity="1"
         flood-color="rgb(52,52,52)"
         result="flood" />
      <feComposite
         id="feComposite4379-3-8-8-2-77-4-1-0-6-4-7-7-6-0-7"
         in2="SourceGraphic"
         in="flood"
         operator="in"
         result="composite1"
         baseFrequency="0.053999999999999999 0.053999999999999999" />
      <feMorphology
         id="feMorphology4393-1-0-49-8-9-3-0-1-9-9-5-5-2-3-4"
         operator="dilate"
         radius="1.8999624943387681"
         result="result3" />
      <feComposite
         id="feComposite4385-9-5-7-0-8-8-7-5-4-9-3-3-9-6-5"
         in2="result3"
         in="SourceGraphic"
         operator="over"
         result="fbSourceGraphic" />
      <feColorMatrix
         result="fbSourceGraphicAlpha"
         in="fbSourceGraphic"
         values="0 0 0 -1 0 0 0 0 -1 0 0 0 0 -1 0 0 0 0 1 0"
         id="feColorMatrix4544-9-4-4-5-5-1-1-2" />
      <feTurbulence
         id="feTurbulence4546-3-6-5-6-6-2-0-5"
         type="fractalNoise"
         numOctaves="3"
         seed="88"
         baseFrequency="0.03818384303719944"
         result="turbulence" />
      <feDisplacementMap
         id="feDisplacementMap4548-8-0-9-2-2-7-6-4"
         in2="turbulence"
         in="fbSourceGraphic"
         scale="9.6365525"
         yChannelSelector="G"
         xChannelSelector="R"
         result="fbSourceGraphic" />
      <feColorMatrix
         result="fbSourceGraphicAlpha"
         in="fbSourceGraphic"
         values="0 0 0 -1 0 0 0 0 -1 0 0 0 0 -1 0 0 0 0 1 0"
         id="feColorMatrix4670-7-7-3-9-9-0-3-7" />
      <feFlood
         id="feFlood4672-4-4-5-1-1-9-20-4"
         flood-opacity="1"
         flood-color="rgb(28,28,28)"
         result="flood"
         in="fbSourceGraphic" />
      <feComposite
         id="feComposite4674-8-3-7-2-2-3-6-4"
         in2="fbSourceGraphic"
         in="flood"
         operator="in"
         result="composite1" />
      <feGaussianBlur
         id="feGaussianBlur4676-3-7-08-7-7-6-1-3"
         in="composite1"
         stdDeviation="0"
         result="blur" />
      <feOffset
         id="feOffset4678-6-9-1-0-0-0-5-0"
         dx="-5.6583689219916096"
         dy="0.39217365321829334"
         result="offset" />
      <feComposite
         id="feComposite4680-4-0-9-9-9-6-5-7"
         in2="offset"
         in="fbSourceGraphic"
         operator="over"
         result="composite2" />
    </filter>
    <filter
       style="color-interpolation-filters:sRGB"
       id="filter4375-4-1-1-1-9-5-8-8-5-5-3-3-3-4-9-6"
       inkscape:label="soundFX1">
      <feFlood
         id="feFlood4377-7-9-0-8-1-7-3-1-2-7-6-6-5-5-3-8"
         flood-opacity="1"
         flood-color="rgb(52,52,52)"
         result="flood" />
      <feComposite
         id="feComposite4379-3-8-8-2-77-4-1-0-6-4-7-7-6-0-7-8"
         in2="SourceGraphic"
         in="flood"
         operator="in"
         result="composite1"
         baseFrequency="0.053999999999999999 0.053999999999999999" />
      <feMorphology
         id="feMorphology4393-1-0-49-8-9-3-0-1-9-9-5-5-2-3-4-4"
         operator="dilate"
         radius="1.8999624943387681"
         result="result3" />
      <feComposite
         id="feComposite4385-9-5-7-0-8-8-7-5-4-9-3-3-9-6-5-3"
         in2="result3"
         in="SourceGraphic"
         operator="over"
         result="fbSourceGraphic" />
      <feColorMatrix
         result="fbSourceGraphicAlpha"
         in="fbSourceGraphic"
         values="0 0 0 -1 0 0 0 0 -1 0 0 0 0 -1 0 0 0 0 1 0"
         id="feColorMatrix4544-9-4-4-5-5-1-1-2-1" />
      <feTurbulence
         id="feTurbulence4546-3-6-5-6-6-2-0-5-4"
         type="fractalNoise"
         numOctaves="3"
         seed="88"
         baseFrequency="0.03818384303719944"
         result="turbulence" />
      <feDisplacementMap
         id="feDisplacementMap4548-8-0-9-2-2-7-6-4-9"
         in2="turbulence"
         in="fbSourceGraphic"
         scale="9.6365525"
         yChannelSelector="G"
         xChannelSelector="R"
         result="fbSourceGraphic" />
      <feColorMatrix
         result="fbSourceGraphicAlpha"
         in="fbSourceGraphic"
         values="0 0 0 -1 0 0 0 0 -1 0 0 0 0 -1 0 0 0 0 1 0"
         id="feColorMatrix4670-7-7-3-9-9-0-3-7-2" />
      <feFlood
         id="feFlood4672-4-4-5-1-1-9-20-4-0"
         flood-opacity="1"
         flood-color="rgb(28,28,28)"
         result="flood"
         in="fbSourceGraphic" />
      <feComposite
         id="feComposite4674-8-3-7-2-2-3-6-4-6"
         in2="fbSourceGraphic"
         in="flood"
         operator="in"
         result="composite1" />
      <feGaussianBlur
         id="feGaussianBlur4676-3-7-08-7-7-6-1-3-8"
         in="composite1"
         stdDeviation="0"
         result="blur" />
      <feOffset
         id="feOffset4678-6-9-1-0-0-0-5-0-9"
         dx="-5.6583689219916096"
         dy="0.39217365321829334"
         result="offset" />
      <feComposite
         id="feComposite4680-4-0-9-9-9-6-5-7-2"
         in2="offset"
         in="fbSourceGraphic"
         operator="over"
         result="composite2" />
    </filter>
    <filter
       style="color-interpolation-filters:sRGB"
       id="filter4375-4-1-1-1-9-5-8-8-5-5-3-3-3-4-9-64"
       inkscape:label="soundFX1">
      <feFlood
         id="feFlood4377-7-9-0-8-1-7-3-1-2-7-6-6-5-5-3-9"
         flood-opacity="1"
         flood-color="rgb(52,52,52)"
         result="flood" />
      <feComposite
         id="feComposite4379-3-8-8-2-77-4-1-0-6-4-7-7-6-0-7-5"
         in2="SourceGraphic"
         in="flood"
         operator="in"
         result="composite1"
         baseFrequency="0.053999999999999999 0.053999999999999999" />
      <feMorphology
         id="feMorphology4393-1-0-49-8-9-3-0-1-9-9-5-5-2-3-4-0"
         operator="dilate"
         radius="1.8999624943387681"
         result="result3" />
      <feComposite
         id="feComposite4385-9-5-7-0-8-8-7-5-4-9-3-3-9-6-5-4"
         in2="result3"
         in="SourceGraphic"
         operator="over"
         result="fbSourceGraphic" />
      <feColorMatrix
         result="fbSourceGraphicAlpha"
         in="fbSourceGraphic"
         values="0 0 0 -1 0 0 0 0 -1 0 0 0 0 -1 0 0 0 0 1 0"
         id="feColorMatrix4544-9-4-4-5-5-1-1-2-8" />
      <feTurbulence
         id="feTurbulence4546-3-6-5-6-6-2-0-5-7"
         type="fractalNoise"
         numOctaves="3"
         seed="88"
         baseFrequency="0.03818384303719944"
         result="turbulence" />
      <feDisplacementMap
         id="feDisplacementMap4548-8-0-9-2-2-7-6-4-1"
         in2="turbulence"
         in="fbSourceGraphic"
         scale="9.6365525"
         yChannelSelector="G"
         xChannelSelector="R"
         result="fbSourceGraphic" />
      <feColorMatrix
         result="fbSourceGraphicAlpha"
         in="fbSourceGraphic"
         values="0 0 0 -1 0 0 0 0 -1 0 0 0 0 -1 0 0 0 0 1 0"
         id="feColorMatrix4670-7-7-3-9-9-0-3-7-7" />
      <feFlood
         id="feFlood4672-4-4-5-1-1-9-20-4-2"
         flood-opacity="1"
         flood-color="rgb(28,28,28)"
         result="flood"
         in="fbSourceGraphic" />
      <feComposite
         id="feComposite4674-8-3-7-2-2-3-6-4-7"
         in2="fbSourceGraphic"
         in="flood"
         operator="in"
         result="composite1" />
      <feGaussianBlur
         id="feGaussianBlur4676-3-7-08-7-7-6-1-3-2"
         in="composite1"
         stdDeviation="0"
         result="blur" />
      <feOffset
         id="feOffset4678-6-9-1-0-0-0-5-0-2"
         dx="-5.6583689219916096"
         dy="0.39217365321829334"
         result="offset" />
      <feComposite
         id="feComposite4680-4-0-9-9-9-6-5-7-6"
         in2="offset"
         in="fbSourceGraphic"
         operator="over"
         result="composite2" />
    </filter>
    <filter
       style="color-interpolation-filters:sRGB"
       id="filter4375-4-1-1-1-9-5-8-8-5-5-3-3-3-0"
       inkscape:label="soundFX1">
      <feFlood
         id="feFlood4377-7-9-0-8-1-7-3-1-2-7-6-6-5-96"
         flood-opacity="1"
         flood-color="rgb(52,52,52)"
         result="flood" />
      <feComposite
         id="feComposite4379-3-8-8-2-77-4-1-0-6-4-7-7-6-3"
         in2="SourceGraphic"
         in="flood"
         operator="in"
         result="composite1"
         baseFrequency="0.053999999999999999 0.053999999999999999" />
      <feMorphology
         id="feMorphology4393-1-0-49-8-9-3-0-1-9-9-5-5-2-8"
         operator="dilate"
         radius="2.5856550817276021"
         result="result3" />
      <feComposite
         id="feComposite4385-9-5-7-0-8-8-7-5-4-9-3-3-9-5"
         in2="result3"
         in="SourceGraphic"
         operator="over"
         result="fbSourceGraphic" />
      <feColorMatrix
         result="fbSourceGraphicAlpha"
         in="fbSourceGraphic"
         values="0 0 0 -1 0 0 0 0 -1 0 0 0 0 -1 0 0 0 0 1 0"
         id="feColorMatrix4544-9-4-4-5-5-1-6" />
      <feTurbulence
         id="feTurbulence4546-3-6-5-6-6-2-1"
         type="fractalNoise"
         numOctaves="4"
         seed="147"
         baseFrequency="0.046080819231719368"
         result="turbulence" />
      <feDisplacementMap
         id="feDisplacementMap4548-8-0-9-2-2-7-1"
         in2="turbulence"
         in="fbSourceGraphic"
         scale="13.20326"
         yChannelSelector="G"
         xChannelSelector="R"
         result="fbSourceGraphic" />
      <feColorMatrix
         result="fbSourceGraphicAlpha"
         in="fbSourceGraphic"
         values="0 0 0 -1 0 0 0 0 -1 0 0 0 0 -1 0 0 0 0 1 0"
         id="feColorMatrix4670-7-7-3-9-9-0-5" />
      <feFlood
         id="feFlood4672-4-4-5-1-1-9-9"
         flood-opacity="1"
         flood-color="rgb(28,28,28)"
         result="flood"
         in="fbSourceGraphic" />
      <feComposite
         id="feComposite4674-8-3-7-2-2-3-8"
         in2="fbSourceGraphic"
         in="flood"
         operator="in"
         result="composite1" />
      <feGaussianBlur
         id="feGaussianBlur4676-3-7-08-7-7-6-4"
         in="composite1"
         stdDeviation="0"
         result="blur" />
      <feOffset
         id="feOffset4678-6-9-1-0-0-0-8"
         dx="-8.3919392296330813"
         dy="1.5526614972014983"
         result="offset" />
      <feComposite
         id="feComposite4680-4-0-9-9-9-6-1"
         in2="offset"
         in="fbSourceGraphic"
         operator="over"
         result="composite2" />
    </filter>
  </defs>
  <sodipodi:namedview
     pagecolor="#ffffff"
     bordercolor="#666666"
     borderopacity="1"
     objecttolerance="10"
     gridtolerance="10"
     guidetolerance="10"
     inkscape:pageopacity="0"
     inkscape:pageshadow="2"
     inkscape:window-width="1920"
     inkscape:window-height="1027"
     id="namedview4"
     showgrid="false"
     inkscape:zoom="0.60835003"
     inkscape:cx="1199.4545"
     inkscape:cy="2896.1673"
     inkscape:window-x="-8"
     inkscape:window-y="-8"
     inkscape:window-maximized="1"
     inkscape:current-layer="layer3"
     inkscape:document-rotation="0"
     inkscape:snap-global="false"
     borderlayer="true" />
  <g
     inkscape:groupmode="layer"
     id="layer2"
     inkscape:label="artwork"
     sodipodi:insensitive="true">
    <image
       sodipodi:absref="D:\Pepper&amp;Carrot translation\peppercarrot_ep34_The-Knighting-of-Shichimi\lang\gfx_Pepper-and-Carrot_by-David-Revoy_E34P06.png"
       xlink:href="../gfx_Pepper-and-Carrot_by-David-Revoy_E34P06.png"
       width="2481"
       height="3503"
       id="image10"
       x="0"
       y="0" />
  </g>
  <g
     inkscape:groupmode="layer"
     id="layer3"
     inkscape:label="speechbubbles"
     style="display:inline">
    <path
       style="fill:#ffffff;fill-rule:evenodd;stroke:none;stroke-width:0.899411px;stroke-linecap:butt;stroke-linejoin:miter;stroke-opacity:1"
       d="M 1774.549,328.95397 C 1692.5239,277.18712 1590.5635,208.8837 1566.9348,205.55728 l 56.4745,-7.22201 c 42.4559,21.927 100.5568,86.52553 151.1397,130.6187 z"
       id="path1850"
       sodipodi:nodetypes="cccc" />
    <path
       style="fill:#ffffff;fill-rule:evenodd;stroke:none;stroke-width:1px;stroke-linecap:butt;stroke-linejoin:miter;stroke-opacity:1"
       d="m 1208.6571,373.31112 c 49.2583,-39.41021 79.5827,-88.63993 56.7328,11.30305 43.5899,-53.16195 74.9624,-79.96469 53.6466,6.90924 21.0485,-34.68204 40.9389,-50.17029 58.6798,-30.03589 13.8889,-41.69188 27.7779,-23.30306 41.6668,-22.75955 9.0195,-57.38393 24.9916,-25.34862 40.233,-2.71166 10.04,-40.60661 19.7002,-83.14603 52.339,-8.73776 8.9038,-54.35637 21.7662,-71.42177 39.8843,-38.97549 6.5704,-45.27682 21.7225,-42.0923 39.948,-21.55204 -6.8593,-31.9811 -0.6362,-42.75291 14.3963,-39.24298 -0.6494,-9.83447 -5.2827,-31.50661 36.497,-1.46579 -11.4648,-18.23482 -11.7074,-28.12277 37.0688,-1.5511 -5.0613,-17.97129 -6.6232,-33.5816 32.1668,-21.96776 -0.8245,-9.51745 -10.8612,-25.96844 32.0277,-2.58493 -13.5325,-18.87138 -28.996,-38.20897 13.0416,-43.66447 -21.3754,-14.12459 -15.7779,-33.9611 29.6581,-62.233995 -100.3754,18.857585 -88.1145,-32.60424 -83.6548,-58.605799 l -412.4389,20.916798 2.0938,39.699792 c 28.0429,49.282364 1.4803,39.805324 -23.4228,12.019114 27.1622,43.61495 14.143,37.80231 -35.8941,18.85704 40.6065,65.68161 6.663,51.17259 -23.0445,55.5494 73.8121,36.39964 26.0245,51.10118 7.4079,60.79237 82.0515,-2.67503 34.8642,21.33521 1.969,45.3434 52.7746,-15.93514 45.1137,-4.71021 -11.0022,84.69901 z"
       id="path1848"
       sodipodi:nodetypes="ccccccccccccccccccccccccc" />
    <path
       style="display:inline;fill:#ffffff;fill-rule:evenodd;stroke:none;stroke-width:0.79001px;stroke-linecap:butt;stroke-linejoin:miter;stroke-opacity:1"
       d="m 252.04848,352.03135 c 0,0 -30.47195,-8.96799 -30.36473,-21.57651 0.10659,-12.60804 19.47778,-31.53529 19.47778,-31.53529 0,0 -27.19912,-7.93017 -20.96854,-41.08551 6.23063,-33.15529 48.41779,-53.27632 41.72857,-30.9357 -6.68916,22.34068 -34.94236,61.24183 25.28223,67.01061 -46.69326,28.81415 -37.08762,29.19956 -36.52905,34.12009 0.55795,4.92111 23.67543,11.36179 32.73328,13.29229 -35.24944,26.26432 -32.25349,41.2194 -23.98301,65.37595 -15.29097,-15.1862 -27.68266,-29.20986 -7.37653,-54.66593 z"
       id="path4394-0"
       inkscape:connector-curvature="0"
       sodipodi:nodetypes="cscsscsccc" />
    <path
       style="display:inline;fill:#ffffff;stroke:none;stroke-width:0.869463"
       d="m 231.5918,82.371559 c -34.12266,-0.214635 -67.5539,11.689419 -91.19915,30.680631 -16.1991,13.02025 -29.34134,29.16141 -33.30751,47.27894 -4.1003,20.18221 1.47811,41.23822 13.97517,59.08392 12.22301,16.93378 32.7174,30.27302 56.65991,35.87051 15.25358,3.77739 31.12244,5.84476 46.99503,7.24088 26.98286,1.98314 54.1145,0.55613 81.08991,-0.75109 19.95216,-1.22718 39.84893,-4.35302 58.28818,-10.55379 16.26541,-5.27818 31.91101,-12.43215 43.99422,-22.56454 11.61293,-10.95332 15.55705,-25.70961 14.57039,-39.64357 -0.17856,-18.20602 -3.5409,-36.98954 -15.15278,-53.06316 C 392.39369,114.91267 365.21498,100.28021 335.86667,93.665058 302.08914,85.886816 266.82154,81.931892 231.5918,82.371559 Z"
       id="path3280-5-9"
       inkscape:connector-curvature="0"
       sodipodi:nodetypes="csssc" />
    <path
       style="fill:#ffffff;fill-rule:evenodd;stroke:none;stroke-width:0.888009px;stroke-linecap:butt;stroke-linejoin:miter;stroke-opacity:1"
       d="m 1242.7901,1591.969 c -9.3238,-96.0029 -16.1288,-211.0629 -37.9472,-212.5388 l 27.7377,-22.3318 c 17.3035,11.4648 12.8237,161.6834 10.2095,234.8706 z"
       id="path1881"
       sodipodi:nodetypes="cccc" />
    <path
       style="display:inline;fill:#ffffff;fill-rule:evenodd;stroke:none;stroke-width:0.873423px;stroke-linecap:butt;stroke-linejoin:miter;stroke-opacity:1"
       d="m 1342.6555,1243.5756 c -26.4758,21.6922 -25.2286,30.0875 4.9268,24.6181 -28.0707,15.1067 -20.8183,17.5597 -5.3274,17.0604 -30.595,45.327 -15.3892,63.7715 0.8939,81.5836 -42.6274,2.2943 -40.2228,21.6774 -47.6802,37.3186 -14.4787,-22.4049 -15.4056,-4.9758 -12.5511,23.568 -16.3023,-29.6628 -23.2367,-30.3253 -21.6307,-4.5425 -13.2241,-17.8921 -26.2312,-22.3805 -38.9876,-11.4623 -31.0907,-11.0373 -35.4056,18.1812 -48.3747,34.3886 -11.3587,-19.4535 -23.7763,-16.4119 -36.5312,-6.1973 -8.8996,-6.9999 -17.1903,-18.5819 -30.296,6.0849 -8.4424,-16.3422 -14.3614,-1.205 -21.0561,4.2584 6.663,-12.6966 -9.8793,-10.7598 -53.1147,8.0079 15.9478,-10.3768 12.893,-16.8429 -12.5904,-18.6936 23.6372,-17.0076 20.6746,-27.7675 3.7384,-35.2454 25.275,-26.3258 -8.5941,-34.2476 -27.70539,-46.7613 32.09049,-0.9276 57.83619,-0.8575 56.81739,-28.1441 40.1557,12.477 39.3503,-10.0419 32.535,-18.2749 34.3959,15.6183 27.4055,-5.0467 32.7393,-14.9071 85.1976,6.4838 74.6991,-22.99 86.5882,-44.0517 15.2398,32.8159 28.1801,14.6063 41.1111,-3.814 6.8884,29.5113 9.663,17.5561 17.3725,6.9653 4.4784,12.2882 19.9974,13.6516 38.7729,-0.9071 -12.2897,14.7697 -2.6041,13.8415 40.35,-10.8525 z"
       id="path4289-9-3"
       inkscape:connector-curvature="0"
       sodipodi:nodetypes="cccccccccccccccccccccccc" />
    <path
       style="display:inline;fill:#ffffff;fill-rule:evenodd;stroke:none;stroke-width:1.00123px;stroke-linecap:butt;stroke-linejoin:miter;stroke-opacity:1"
       d="m 844.51405,1199.689 c 38.97797,10.9127 41.84791,20.1218 7.06695,27.5552 37.38173,3.4213 30.90025,9.0999 14.18757,15.3039 55.16719,33.5288 48.22458,59.1685 39.82119,84.6226 46.44921,-16.1217 51.96099,1.8339 51.72532,19.3872 13.37162,-24.832 30.03838,-11.4934 28.84939,10.1039 13.84023,-25.0164 33.09943,-37.8515 34.58273,-12.8649 17.2666,-20.1053 16.6927,-28.4464 35.7061,-22.7069 27.5261,-24.8824 46.7136,3.4141 68.596,14.5225 2.3499,-25.0127 17.0669,-27.2587 35.7268,-22.2449 5.9601,-11.0876 8.9831,-26.6424 35.2382,-6.8588 0.8053,-20.5354 14.6606,-7.4738 24.5058,-4.7368 -13.4263,-10.219 5.1222,-15.3948 60.4499,-14.7715 -22.1344,-3.7963 -35.1462,-23.0474 3.9492,-42.0915 -53.8612,11.9744 -35.7596,-2.3728 -21.4976,-17.4401 -40.0175,-16.2178 -7.9818,-39.0884 6.0752,-60.2987 -34.5679,12.9621 -63.7337,15.722 -76.2873,-12.8931 -50.6991,28.5488 -44.999,15.1809 -41.8704,3.724 -28.7491,31.0459 -31.6473,6.6771 -42.2437,-1.1901 -87.3042,43.6508 -90.8763,8.6652 -114.037,-7.9237 0.20349,40.4929 -22.64908,27.3046 -45.59708,13.8949 7.42745,33.4583 -6.50535,24.9904 -19.99156,17.3994 1.38173,14.6302 -9.42045,20.0975 -36.64995,13.2098 20.4422,9.9188 9.68496,13.1619 -48.30576,6.2976 z"
       id="path4289-9"
       inkscape:connector-curvature="0"
       sodipodi:nodetypes="cccccccccccccccccccccccc" />
    <path
       style="color:#000000;display:inline;overflow:visible;visibility:visible;fill:#ffffff;fill-opacity:1;fill-rule:nonzero;stroke:none;stroke-width:1.26852px;marker:none;enable-background:accumulate"
       d="m 1982.4727,1252.5744 c 21.5316,39.6636 -8.24,70.3911 -62.2668,43.5327 31.7242,25.4616 30.6182,41.2818 -12.4543,43.7371 72.2335,45.8896 13.2052,38.9454 1.5624,50.5808 56.7165,15.8148 37.9178,39.7837 1.5129,50.8016 65.1903,0.673 49.4086,16.825 24.7276,40.0679 28.8637,-15.2172 73.3885,-26.1597 74.9685,13.6266 41.8208,-34.7567 63.3985,-34.0797 78.5217,5.2227 12.6326,-33.8906 55.6473,-40.413 72.0953,-3.8634 14.1688,-49.4649 64.7249,-42.5009 94.819,-18.528 -16.8935,-16.9189 -5.3736,-44.7777 52.2222,-39.1438 -4.6359,-15.5094 2.6545,-35.0846 31.7398,-32.4997 -33.5026,-9.3678 -39.6769,-19.0317 22.5299,-29.4309 -47.3358,-1.0048 -91.4767,-3.0661 -35.9416,-38.5302 -17.4228,-0.8581 -54.2002,20.8301 -34.9271,-65.7701 -51.0279,25.5356 -97.4451,31.0965 -94.8071,-22.5425 -18.9707,29.013 -81.1239,51.5336 -67.8922,6.3843 -45.3398,22.1493 -79.8217,-15.0196 -94.8149,-36.4094 -12.3203,22.9296 -16.1552,64.0515 -51.5953,32.7643 z"
       id="path3549-3-7-8"
       inkscape:connector-curvature="0"
       sodipodi:nodetypes="ccccccccccccccccccc" />
    <path
       style="color:#000000;display:inline;overflow:visible;visibility:visible;fill:#ffffff;fill-opacity:1;fill-rule:nonzero;stroke:none;stroke-width:1.40759px;marker:none;enable-background:accumulate"
       d="m 1957.6478,1295.8772 c 5.6853,-7.3631 31.2442,-29.7745 29.7626,-4.8001 41.4312,-32.5067 73.9472,-20.7651 106.9697,-11.5389 10.0772,-9.8141 4.9043,-18.4047 33.455,-14.844 -2.9432,-9.7374 15.5476,-22.9124 38.0828,-26.8672 -28.6654,-5.9059 -33.3536,-11.9767 21.8734,-18.4567 -41.3821,-0.6663 -68.1834,-1.4446 -16.9941,-24.7384 -15.1965,-0.5512 -59.8628,11.1564 -42.1463,-35.829 -36.0698,25.9741 -57.319,26.9588 -88.2424,-9.5251 -12.4409,14.3845 -33.9236,33.5207 -69.2374,8.7849 15.7364,25.9401 -35.0932,11.0699 -48.5428,8.1541 25.9492,16.0066 23.8558,25.9326 -14.0424,27.4417 59.9547,28.8595 8.7581,24.4721 -2.2762,31.7665 48.531,9.969 24.8922,22.288 14.638,34.5781 57.0424,0.4714 36.0952,20.1717 36.7001,35.8741 z"
       id="path3549-3-3"
       inkscape:connector-curvature="0"
       sodipodi:nodetypes="ccccccccccccccc" />
    <path
       style="color:#000000;display:inline;overflow:visible;visibility:visible;fill:#ffffff;fill-opacity:1;fill-rule:nonzero;stroke:none;stroke-width:1.13059px;marker:none;enable-background:accumulate"
       d="m 2012.8502,1556.8314 c 33.1432,-3.0765 49.5177,-14.1302 63.502,-25.1622 -3.323,-3.6585 -10.9443,-10.8992 -10.9443,-10.8992 8.4132,3.9856 33.6455,-29.1076 31.128,-43.087 -2.0588,-11.4328 -17.8962,-22.9534 -17.8962,-22.9534 7.496,5.5512 -16.0011,59.4398 -34.2248,60.7508 9.5209,9.7065 5.5967,8.6357 10.4496,10.8775 -2.4355,8.428 -25.6395,23.8921 -42.0143,30.4735 z"
       id="path4456-8"
       inkscape:connector-curvature="0"
       sodipodi:nodetypes="cccscccc" />
    <path
       style="color:#000000;display:inline;overflow:visible;visibility:visible;fill:#ffffff;fill-opacity:1;fill-rule:nonzero;stroke:none;stroke-width:0.596963px;marker:none;enable-background:accumulate"
       d="m 1768.0708,2692.063 c -24.1124,0.4606 -47.4229,12.645 -56.9911,30.4657 -6.7295,10.1882 -7.1807,22.3918 -3.5587,33.3812 3.6867,13.7323 14.0598,26.6826 29.6555,33.5235 16.8388,7.8901 36.7339,9.9629 55.9317,10.1766 22.1369,0.5188 44.522,0.1032 66.2338,-3.6889 17.4814,-3.8819 33.0423,-13.9029 40.1511,-27.413 10.2713,-18.0619 5.8474,-40.8982 -11.2715,-55.3416 -10.1608,-8.6862 -24.8248,-13.0089 -39.3115,-14.4372 -19.9681,-2.7512 -40.1346,-4.4502 -60.2803,-6.1048 -6.8391,-0.4195 -13.6995,-0.6315 -20.559,-0.5615 z"
       id="path4546-6-9"
       inkscape:connector-curvature="0"
       sodipodi:nodetypes="cssssc" />
    <path
       style="color:#000000;display:inline;overflow:visible;visibility:visible;fill:#ffffff;fill-opacity:1;fill-rule:nonzero;stroke:none;stroke-width:0.831571px;marker:none;enable-background:accumulate"
       d="m 1882.8059,2633.5176 c -37.8791,-2.1495 -48.7859,13.5857 -57.5579,23.9044 1.7547,4.1191 3.7627,12.1857 3.7627,12.1857 0,0 -18.6852,18.3302 -24.0116,28.1718 -5.3264,9.8414 3.6574,18.2697 3.6574,18.2697 0,0 37.0115,-34.5243 46.6498,-39.0836 -5.179,-11.0415 -6.5739,-17.2965 -9.745,-20.2713 3.4665,-7.8768 23.822,-23.4035 37.2446,-23.1767 z"
       id="path4456-3"
       inkscape:connector-curvature="0" />
    <path
       style="fill:#ffffff;fill-rule:evenodd;stroke:none;stroke-width:1px;stroke-linecap:butt;stroke-linejoin:miter;stroke-opacity:1"
       d="m 620.02728,3228.6503 c -58.9868,-9.4133 -80.78839,-18.6204 -93.41016,-25.1553 25.55708,-9.175 30.6775,-11.6456 27.58924,-18.0461 -3.08825,-6.4005 -197.64668,-94.0082 -197.64668,-94.0082 l 45.28017,47.5817 c 0,0 69.61686,26.446 87.95416,33.3793 18.33743,6.9334 39.02055,15.9874 39.02055,15.9874 0,0 -18.8787,3.4283 -22.43255,7.5102 -3.55385,4.082 -7.0453,26.282 113.64527,32.751 z"
       id="path891"
       inkscape:connector-curvature="0"
       sodipodi:nodetypes="ccsccscsc" />
    <path
       style="display:inline;fill:#ffffff;fill-rule:evenodd;stroke:none;stroke-width:1.0494px;stroke-linecap:butt;stroke-linejoin:miter;stroke-opacity:1"
       d="m 236.5625,2979.2066 c -3.66096,0.051 -7.28577,0.4144 -10.92969,0.6136 4.22266,0.5541 8.44532,1.1083 12.66797,1.6626 -2.23485,0.4933 -3.47332,2.5153 -1.91601,3.7583 1.29698,-0.1339 0.86673,1.4494 -0.29493,1.0971 -12.96279,1.6165 -25.70799,5.818 -33.39868,12.943 -13.86104,11.9638 -22.85031,25.8945 -30.52195,39.8945 -1.60377,2.6236 -4.04036,5.4737 -2.55479,8.3557 1.90405,2.8934 6.68615,4.9364 6.87777,8.2863 0.11946,5.0931 -3.54636,9.7923 -4.27101,14.817 -1.21117,5.4189 -2.89599,10.7863 -4.30832,16.1824 -0.5095,1.9337 -0.44335,3.9067 0.0542,5.8343 0.21091,2.1371 -1.51978,4.2808 -4.48442,5.2792 -3.22212,1.358 -7.1307,1.9093 -10.16815,3.4687 -0.36659,1.9438 3.14833,3.0953 5.7461,2.9579 1.74541,-0.1286 4.2008,-0.1127 4.77796,1.2306 1.06621,1.6976 -0.98854,3.7398 -3.74998,3.9465 -4.96786,1.5378 -10.3459,2.3831 -15.48892,3.6271 -0.078,2.1979 3.66991,3.5413 6.72675,3.2959 18.45068,2.2151 37.08975,3.9143 55.22052,7.1142 -13.77523,2.1609 -28.00039,2.7963 -41.94727,4.209 4.17163,0.679 8.50796,1.1289 12.7308,1.7545 39.20325,5.3694 78.12304,11.9985 118.04178,14.8208 33.69878,0.7492 67.18661,-3.0087 99.83289,-8.0892 5.46535,-1.929 8.01265,-5.8965 12.88594,-8.276 6.11472,-4.314 10.43609,-9.7221 17.91993,-13.1883 5.98037,-3.2242 11.7056,-6.8377 15.21775,-11.3961 7.84028,-8.351 13.45417,-17.9653 12.8531,-27.8613 -0.64981,-6.6014 -5.91916,-12.5871 -6.7062,-19.1671 -0.20838,-4.7813 3.30594,-9.2665 7.87911,-12.8921 7.4425,-6.5703 16.54202,-12.2533 24.44071,-18.5803 1.29465,-0.6202 1.76713,-1.7789 0.85382,-2.6692 -1.7235,-2.7271 -6.5181,-4.0357 -10.8484,-3.9362 -6.58737,-0.6246 -13.2013,-1.2393 -19.62467,-2.4006 11.6805,-3.8144 25.18893,-4.423 36.76758,-8.3978 1.53612,0.1057 1.33446,-1.6773 -0.16624,-1.4987 -5.38318,-1.356 -10.73375,-2.7651 -16.09157,-4.162 2.82226,-2.6836 7.63187,-3.9455 11.58789,-5.7732 1.58431,0 1.13892,-1.8123 -0.34766,-1.5881 -9.98063,-2.4982 -21.32217,-2.2995 -30.68359,-5.8981 -1.58156,-1.1462 0.21301,-2.8293 2.18661,-3.127 1.7815,-0.6707 3.7956,-1.0665 5.46573,-1.8634 -4.27688,-0.7437 -8.7623,-0.5119 -13.12731,-0.8499 -43.93258,-1.6403 -87.67243,2.7757 -131.57458,2.8362 -16.6423,-0.023 -33.30454,-1.3523 -49.36214,-4.2054 -9.25315,-1.293 -18.67642,-2.2424 -28.16839,-2.1654 z"
       id="path4197-1"
       inkscape:connector-curvature="0"
       sodipodi:nodetypes="ccccccccccccccccccccccccccccccccccccccccccccc" />
    <path
       style="display:inline;fill:#ffffff;fill-rule:evenodd;stroke:none;stroke-width:0.82573px;stroke-linecap:butt;stroke-linejoin:miter;stroke-opacity:1"
       d="m 376.45418,2901.112 c -28.26931,2.1539 -57.00392,3.769 -84.05499,10.1474 -4.5074,1.1065 -9.00856,2.2245 -13.50427,3.3527 -2.94987,5.2234 -10.43116,8.5851 -13.04485,13.9339 -1.45319,2.1502 -4.37367,3.5346 -7.07338,4.8966 -9.5579,5.9877 -14.44586,18.776 -16.35374,23.2184 -1.42233,4.3257 1.60216,8.811 -2.44576,13.0236 -3.76907,4.2859 -12.09793,7.8402 -16.32464,12.0544 -0.83456,0.7354 -1.17527,1.6651 0.64627,2.2624 2.38,0.9929 6.21503,1.3206 9.27651,1.8353 1.68908,0.4007 1.64837,1.3689 -0.7108,1.545 -4.06447,0.5975 -9.26083,0.5506 -12.41558,1.6457 -2.32367,0.6329 -4.07967,1.8579 -1.55522,2.6401 1.7001,0.49 4.67717,0.9456 4.07232,1.7843 -0.40356,0.4129 -1.52176,0.7531 -2.88619,0.8895 12.09075,1.1501 24.66339,1.7436 37.12371,2.4123 18.42563,0.8764 37.30486,0.9862 55.76259,0.1266 18.53293,-0.6309 37.03305,-1.3543 55.45215,-2.2353 -3.07937,-0.3088 -6.15875,-0.6176 -9.23812,-0.9263 0.69102,-0.5542 1.38201,-1.1084 2.07303,-1.6624 -1.28168,-0.208 -2.56336,-0.416 -3.84504,-0.6239 12.43591,-1.9656 25.6589,-3.5076 34.98875,-7.3398 9.74608,-4.3693 18.14542,-9.0877 25.90829,-13.9172 2.27348,-0.5957 4.59112,-1.1777 6.63476,-1.8721 -4.23215,-1.6881 -5.90879,-4.2809 -2.82995,-6.3312 4.1757,-4.3916 4.83896,-12.5803 4.37994,-21.4371 0.33228,-2.3251 3.88653,-4.0736 3.26243,-6.4899 -0.99834,-1.8007 -4.46638,-3.0595 -3.56845,-5.2369 0.47214,-2.7642 6.08196,-3.5399 6.0555,-6.4143 -0.0321,-1.9821 -2.91685,-3.031 -5.02492,-4.021 -3.84916,-1.54 -8.21131,-2.3821 -12.12336,-3.824 -1.10063,-0.038 -1.25026,-0.8318 -0.33132,-1.1361 3.65562,-2.8608 9.12797,-4.0544 13.86032,-5.8581 0.85285,-1.1371 -1.30004,-1.8467 -2.67145,-1.8591 -7.76219,-1.8324 -16.07759,-1.9904 -24.05297,-3.194 -8.41751,-0.8584 -16.91849,-1.474 -25.44157,-1.3895 z"
       id="path4197"
       inkscape:connector-curvature="0"
       sodipodi:nodetypes="cccccccccccccccccccccccccccccccccccc" />
    <path
       style="fill:#ffffff;fill-rule:evenodd;stroke:none;stroke-width:1.09658px;stroke-linecap:butt;stroke-linejoin:miter;stroke-opacity:1"
       d="m 811.38361,2128.3429 c 191.90329,0.4699 399.15619,5.1277 535.64359,2.5458 -27.1517,0.7122 -23.3482,24.7025 24.9669,8.6878 -26.2515,30.1761 -4.6133,31.6949 73.3075,35.5993 -62.2126,8.4875 -93.7494,37.3021 -29.8342,49.8467 -34.5075,8.4331 -70.4719,18.7136 -24.5274,33.3542 -69.2204,-15.3444 -67.1055,2.3846 -52.2311,18.6683 -11.3893,0.7763 -32.0989,-12.6407 -28.6837,10.6805 -31.8795,-13.4142 -62.7432,-32.3628 -39.0475,18.6097 -53.7301,-43.971 -53.9309,-20.6062 -57.1979,-7.5341 -59.6193,-41.3205 -47.6375,-23.1279 -41.5412,-2.0612 -17.3909,-15.4872 -47.007,-19.5523 -43.1603,-1.8103 -16.7916,-18.2518 -31.5798,-24.9296 -41.233,-1.942 -10.4576,-9.9883 -20.9153,-24.3279 -31.3729,-1.9419 -14.3005,-11.3516 -29.046,-15.4747 -45.7148,11.6515 -8.258,-15.6008 -29.82865,-31.6827 -76.79408,-16.0141 16.45843,-22.9067 -0.13418,-27.1687 -39.54954,-6.9965 15.96841,-15.1813 21.549,-38.0267 -23.43229,-4.6354 22.52895,-22.7918 2.07327,-20.7322 -25.60504,-16.0991 27.21595,-34.2255 10.66601,-26.0507 -26.03392,-23.4812 48.0579,-22.7866 20.78235,-26.4038 -25.50665,-24.0436 30.84108,-24.1686 30.46983,-25.9597 7.17102,-33.9835 23.04794,-9.3197 62.64161,-8.7548 -2.68915,-19.4191 75.28166,-6.0401 22.41152,-19.2757 13.06566,-29.6818 z"
       id="path4656"
       inkscape:connector-curvature="0"
       sodipodi:nodetypes="cccccccccccccccccccccccc" />
    <path
       style="color:#000000;display:inline;overflow:visible;visibility:visible;fill:#ffffff;fill-opacity:1;fill-rule:nonzero;stroke:none;stroke-width:0.937697px;marker:none;enable-background:accumulate"
       d="m 961.32473,2251.5352 c -21.93532,9.6253 -54.38701,29.5889 -58.62353,35.4743 7.65037,3.4334 13.95567,8.1772 18.92328,11.7669 -8.6586,10.0195 -66.94384,33.9255 -80.07482,33.1337 32.085,3.8238 91.45067,-12.2157 104.5459,-30.0725 -5.9168,-6.1766 -10.12106,-8.9291 -13.17409,-12.2766 6.16567,-9.3462 41.71559,-19.3924 41.71559,-19.3924 z"
       id="path5066-9"
       inkscape:connector-curvature="0"
       sodipodi:nodetypes="cccccccc" />
    <path
       style="fill:#ffffff;stroke:none;stroke-width:0.677622"
       d="m 1337.7205,2519.17 c -0.9059,-19.9758 15.3381,-69.9827 94.5763,-66.2216 79.2384,3.7612 104.0386,25.734 106.3608,61.2407 3.6732,56.171 -38.014,71.1822 -97.873,75.3425 -61.7081,4.2891 -104.0218,-34.2683 -103.0641,-70.3616 z"
       id="path3280-8-90"
       inkscape:connector-curvature="0"
       sodipodi:nodetypes="csssc" />
    <path
       style="color:#000000;display:inline;overflow:visible;visibility:visible;fill:#ffffff;fill-opacity:1;fill-rule:nonzero;stroke:none;stroke-width:1px;marker:none;enable-background:accumulate"
       d="m 1321.1318,2590.6993 c 51.9208,7.0854 82.4162,-5.7476 93.871,-59.3544 10.0989,-47.2601 31.6187,-39.1416 31.6187,-39.1416 l 8.3834,32.7178 c 0,0 -40.4124,109.7129 -133.8731,65.7782 z"
       id="path3072-5-5"
       inkscape:connector-curvature="0"
       sodipodi:nodetypes="csccc" />
  </g>
  <g
     inkscape:groupmode="layer"
     id="layer1"
     inkscape:label="txt"
     style="display:inline">
    <text
       xml:space="preserve"
       style="font-style:normal;font-variant:normal;font-weight:normal;font-stretch:normal;font-size:131.375px;line-height:1.25;font-family:'小赖字体 SC';-inkscape-font-specification:'小赖字体 SC';letter-spacing:0px;word-spacing:0px;fill:#ffffff;fill-opacity:1;stroke:#ffffff;stroke-width:0.668774;stroke-miterlimit:4;stroke-dasharray:none;stroke-opacity:1;filter:url(#filter4375-4-1-1-1-9-5-8-8-5-5-3-3-3-4-9-6)"
       id="text4580-6-0-0-0-9-3-3-2-4-8-6"
       transform="matrix(0.45061052,-0.08588961,-0.18791098,0.54548663,2283.9528,764.65175)"
       x="-607.91235"
       y="1245.0809">啪 !</text>
    <text
       xml:space="preserve"
       style="font-style:normal;font-variant:normal;font-weight:normal;font-stretch:normal;font-size:45px;line-height:1.25;font-family:'小赖字体 SC';-inkscape-font-specification:'小赖字体 SC';text-align:center;letter-spacing:0px;word-spacing:0px;text-anchor:middle;fill:#000000;fill-opacity:1;stroke:none"
       x="269.85471"
       y="164.20363"
       id="text4246-3-2-2-6-3-7-9-3"><tspan
         style="font-style:normal;font-variant:normal;font-weight:normal;font-stretch:normal;font-size:45px;font-family:'小赖字体 SC';-inkscape-font-specification:'小赖字体 SC'"
         sodipodi:role="line"
         x="269.85471"
         y="164.20363"
         id="tspan199">七味粉，</tspan><tspan
         id="tspan198"
         style="font-style:normal;font-variant:normal;font-weight:normal;font-stretch:normal;font-size:45px;font-family:'小赖字体 SC';-inkscape-font-specification:'小赖字体 SC'"
         sodipodi:role="line"
         x="269.85471"
         y="220.45363">请冷静……</tspan></text>
    <text
       xml:space="preserve"
       style="font-style:normal;font-variant:normal;font-weight:normal;font-stretch:normal;font-size:179.149px;line-height:1.25;font-family:'小赖字体 SC';-inkscape-font-specification:'小赖字体 SC';letter-spacing:0.156511px;word-spacing:0px;fill:#ffffff;fill-opacity:1;stroke:#ffffff;stroke-width:0.741719;stroke-miterlimit:4;stroke-dasharray:none;stroke-opacity:1;filter:url(#filter4375-4-1-1-1-9-5-8-8-5-5-3-3)"
       id="text4580-6-0-0-0-9-3-3"
       transform="matrix(0.81079821,-0.712007,0.28741856,1.0365543,1066.0427,-12.598858)"
       x="181.50571"
       y="435.11505"><textPath
         xlink:href="#path974"
         id="textPath2837"
         style="font-style:normal;font-variant:normal;font-weight:normal;font-stretch:normal;font-size:179.149px;font-family:'小赖字体 SC';-inkscape-font-specification:'小赖字体 SC';stroke-width:0.741719"><tspan
           style="font-style:normal;font-variant:normal;font-weight:normal;font-stretch:normal;font-size:228.21px;font-family:'小赖字体 SC';-inkscape-font-specification:'小赖字体 SC'"
           id="tspan936">砰~~~</tspan><tspan
           style="font-style:normal;font-variant:normal;font-weight:normal;font-stretch:normal;font-family:'小赖字体 SC';-inkscape-font-specification:'小赖字体 SC';letter-spacing:4.89097px"
           id="tspan203" /></textPath></text>
    <text
       xml:space="preserve"
       style="font-style:normal;font-variant:normal;font-weight:normal;font-stretch:normal;font-size:75.7782px;line-height:1.25;font-family:'小赖字体 SC';-inkscape-font-specification:'小赖字体 SC';text-align:center;letter-spacing:0px;word-spacing:0px;text-anchor:middle;fill:#000000;fill-opacity:1;stroke:none;stroke-width:1.22222"
       x="1744.2867"
       y="565.77344"
       id="text4246-3-2-2-6-3-7-9-3-3-56-9-3-20-2-3-1-9"
       transform="matrix(0.86584417,-0.24971873,-0.07331608,1.1760874,0,0)"><tspan
         style="font-style:normal;font-variant:normal;font-weight:normal;font-stretch:normal;font-size:75.7782px;font-family:'小赖字体 SC';-inkscape-font-specification:'小赖字体 SC';stroke-width:1.22222"
         sodipodi:role="line"
         x="1744.2867"
         y="565.77344"
         id="tspan1348">走呀！！！</tspan></text>
    <path
       style="fill:none;fill-rule:evenodd;stroke:none;stroke-width:1.13654px;stroke-linecap:butt;stroke-linejoin:miter;stroke-opacity:1"
       d="M -686.67373,0.90523332 C -568.76657,-0.73394668 -204.63364,132.58339 -16.133022,353.49759"
       id="path974"
       sodipodi:nodetypes="cc" />
    <text
       xml:space="preserve"
       style="font-style:normal;font-variant:normal;font-weight:normal;font-stretch:normal;font-size:58.1184px;line-height:1.25;font-family:'小赖字体 SC';-inkscape-font-specification:'小赖字体 SC';text-align:center;letter-spacing:0px;word-spacing:0px;text-anchor:middle;fill:#000000;fill-opacity:1;stroke:none;stroke-width:0.937388"
       x="1347.8438"
       y="1263.5707"
       id="text4246-3-2-2-6-3-7-9-3-3-56-9-3-20-2-3-1-9-3"
       transform="matrix(0.86635975,-0.14936714,-0.07335974,1.1669027,0,0)"><tspan
         style="font-style:normal;font-variant:normal;font-weight:normal;font-stretch:normal;font-size:58.1184px;font-family:'小赖字体 SC';-inkscape-font-specification:'小赖字体 SC';stroke-width:0.937388"
         sodipodi:role="line"
         x="1347.8438"
         y="1263.5707"
         id="tspan1348-6">走呀！！！</tspan></text>
    <text
       xml:space="preserve"
       style="font-style:normal;font-variant:normal;font-weight:normal;font-stretch:normal;font-size:50.4579px;line-height:1.25;font-family:'小赖字体 SC';-inkscape-font-specification:'小赖字体 SC';text-align:center;letter-spacing:0px;word-spacing:0px;text-anchor:middle;fill:#000000;fill-opacity:1;stroke:none;stroke-width:0.813831"
       x="1462.5415"
       y="1381.1226"
       id="text4246-3-2-2-6-3-7-9-3-3-56-9-3-20-2-3-1-9-3-7"
       transform="matrix(0.87716024,-0.14752798,-0.07427428,1.1525346,0,0)"><tspan
         style="font-style:normal;font-variant:normal;font-weight:normal;font-stretch:normal;font-size:50.4579px;font-family:'小赖字体 SC';-inkscape-font-specification:'小赖字体 SC';stroke-width:0.813831"
         sodipodi:role="line"
         x="1462.5415"
         y="1381.1226"
         id="tspan1348-6-5">走呀！！</tspan></text>
    <text
       xml:space="preserve"
       style="font-style:normal;font-variant:normal;font-weight:normal;font-stretch:normal;font-size:80px;line-height:1.25;font-family:'小赖字体 SC';-inkscape-font-specification:'小赖字体 SC';letter-spacing:0px;word-spacing:0px;fill:#ffffff;fill-opacity:1;stroke:#ffffff;stroke-width:0.668774;stroke-miterlimit:4;stroke-dasharray:none;stroke-opacity:1;filter:url(#filter4375-4-1-1-1-9-5-8-8-5-5-3-3-3)"
       id="text4580-6-0-0-0-9-3-3-2"
       transform="matrix(0.98036614,-0.39223296,-0.53756803,0.90481848,1667.7584,648.06357)"
       x="-607.91235"
       y="1245.0809"><tspan
         style="font-style:normal;font-variant:normal;font-weight:normal;font-stretch:normal;font-size:110px;font-family:'小赖字体 SC';-inkscape-font-specification:'小赖字体 SC'"
         id="tspan1073">卡啦啦~~~</tspan><tspan
         id="tspan1534"
         style="font-style:normal;font-variant:normal;font-weight:normal;font-stretch:normal;font-size:61.3371px;font-family:'小赖字体 SC';-inkscape-font-specification:'小赖字体 SC'" /></text>
    <text
       xml:space="preserve"
       style="font-style:normal;font-variant:normal;font-weight:normal;font-stretch:normal;font-size:56.9751px;line-height:1.25;font-family:'小赖字体 SC';-inkscape-font-specification:'小赖字体 SC';text-align:center;letter-spacing:0px;word-spacing:0px;text-anchor:middle;fill:#000000;fill-opacity:1;stroke:none;stroke-width:1.26611"
       x="2114.8765"
       y="1192.864"
       id="text4246-3-2-2-6-3-7-9-3-3"
       transform="scale(0.96063492,1.0409782)"><tspan
         style="font-style:normal;font-variant:normal;font-weight:normal;font-stretch:normal;font-size:56.9751px;font-family:'小赖字体 SC';-inkscape-font-specification:'小赖字体 SC';stroke-width:1.26611"
         sodipodi:role="line"
         x="2114.8765"
         y="1192.864"
         id="tspan861-4">哎呦！</tspan></text>
    <text
       xml:space="preserve"
       style="font-style:normal;font-variant:normal;font-weight:normal;font-stretch:normal;font-size:45px;line-height:1.25;font-family:'小赖字体 SC';-inkscape-font-specification:'小赖字体 SC';text-align:center;letter-spacing:0px;word-spacing:0px;text-anchor:middle;fill:#000000;fill-opacity:1;stroke:none;stroke-width:0.965425"
       x="2422.3325"
       y="1291.8102"
       id="text4246-3-2-2-6-3-7-9-3-3-7"
       transform="matrix(0.96542494,0,-0.15822218,1.0358133,0,0)"><tspan
         style="font-style:normal;font-variant:normal;font-weight:normal;font-stretch:normal;font-size:45px;font-family:'小赖字体 SC';-inkscape-font-specification:'小赖字体 SC';stroke-width:0.965425"
         sodipodi:role="line"
         x="2422.3325"
         y="1291.8102"
         id="tspan212">嘿！这样就…</tspan><tspan
         id="tspan204"
         style="font-style:normal;font-variant:normal;font-weight:normal;font-stretch:normal;font-size:45px;font-family:'小赖字体 SC';-inkscape-font-specification:'小赖字体 SC';stroke-width:0.965425"
         sodipodi:role="line"
         x="2422.3325"
         y="1348.0602">哎呦…</tspan><tspan
         id="tspan206"
         style="font-style:normal;font-variant:normal;font-weight:normal;font-stretch:normal;font-size:45px;font-family:'小赖字体 SC';-inkscape-font-specification:'小赖字体 SC';stroke-width:0.965425"
         sodipodi:role="line"
         x="2422.3325"
         y="1404.3102">不够朋友了！</tspan></text>
    <text
       xml:space="preserve"
       style="font-style:normal;font-variant:normal;font-weight:normal;font-stretch:normal;font-size:131.375px;line-height:1.25;font-family:'小赖字体 SC';-inkscape-font-specification:'小赖字体 SC';letter-spacing:0px;word-spacing:0px;fill:#ffffff;fill-opacity:1;stroke:#ffffff;stroke-width:0.668774;stroke-miterlimit:4;stroke-dasharray:none;stroke-opacity:1;filter:url(#filter4375-4-1-1-1-9-5-8-8-5-5-3-3-3-4)"
       id="text4580-6-0-0-0-9-3-3-2-4"
       transform="matrix(0.52711832,-0.15981063,-0.17435696,0.64729748,2672.6758,794.5647)"
       x="-607.91235"
       y="1245.0809">砰 !</text>
    <text
       xml:space="preserve"
       style="font-style:normal;font-variant:normal;font-weight:normal;font-stretch:normal;font-size:131.375px;line-height:1.25;font-family:'小赖字体 SC';-inkscape-font-specification:'小赖字体 SC';letter-spacing:0px;word-spacing:0px;fill:#ffffff;fill-opacity:1;stroke:#ffffff;stroke-width:0.668774;stroke-miterlimit:4;stroke-dasharray:none;stroke-opacity:1;filter:url(#filter4375-4-1-1-1-9-5-8-8-5-5-3-3-3-4-9)"
       id="text4580-6-0-0-0-9-3-3-2-4-8"
       transform="matrix(0.53051157,-0.11435771,-0.18857697,0.63128406,1994.6316,826.53325)"
       x="-607.91235"
       y="1245.0809">砰 !</text>
    <text
       xml:space="preserve"
       style="font-style:normal;font-variant:normal;font-weight:normal;font-stretch:normal;font-size:131.375px;line-height:1.25;font-family:'小赖字体 SC';-inkscape-font-specification:'小赖字体 SC';letter-spacing:0px;word-spacing:0px;fill:#ffffff;fill-opacity:1;stroke:#ffffff;stroke-width:0.668774;stroke-miterlimit:4;stroke-dasharray:none;stroke-opacity:1;filter:url(#filter4375-4-1-1-1-9-5-8-8-5-5-3-3-3-4-9-64)"
       id="text4580-6-0-0-0-9-3-3-2-4-8-1"
       transform="matrix(0.55959564,-0.12001132,-0.19891527,0.6787384,2053.839,1100.5323)"
       x="-607.91235"
       y="1245.0809">啪 !</text>
    <text
       xml:space="preserve"
       style="font-style:normal;font-variant:normal;font-weight:normal;font-stretch:normal;font-size:40px;line-height:1.25;font-family:'小赖字体 SC';-inkscape-font-specification:'小赖字体 SC';text-align:center;letter-spacing:0px;word-spacing:0px;text-anchor:middle;fill:#000000;fill-opacity:1;stroke:none;stroke-width:0.989704"
       x="1368.2677"
       y="2190.0793"
       id="text4246-3-2-2-6-3-7-9-3-3-56-9-3-20-3-3"
       transform="skewX(-7.1285625)"><tspan
         style="font-style:normal;font-variant:normal;font-weight:normal;font-stretch:normal;font-size:40px;font-family:'小赖字体 SC';-inkscape-font-specification:'小赖字体 SC';stroke-width:0.989704"
         sodipodi:role="line"
         x="1368.2677"
         y="2190.0793"
         id="tspan218">七味粉！小辣椒！</tspan><tspan
         id="tspan213"
         style="font-style:normal;font-variant:normal;font-weight:normal;font-stretch:normal;font-size:40px;font-family:'小赖字体 SC';-inkscape-font-specification:'小赖字体 SC';stroke-width:0.989704"
         sodipodi:role="line"
         x="1368.2677"
         y="2240.0793">你们住手呀！</tspan></text>
    <text
       xml:space="preserve"
       style="font-style:normal;font-variant:normal;font-weight:normal;font-stretch:normal;font-size:45px;line-height:1.25;font-family:'小赖字体 SC';-inkscape-font-specification:'小赖字体 SC';text-align:center;letter-spacing:0px;word-spacing:0px;text-anchor:middle;fill:#000000;fill-opacity:1;stroke:none"
       x="1454.755"
       y="2537.0627"
       id="text4246-3-2-2-6-3-7-9-3-3-56-9-3-20-3-36"><tspan
         style="font-style:normal;font-variant:normal;font-weight:normal;font-stretch:normal;font-size:45px;font-family:'小赖字体 SC';-inkscape-font-specification:'小赖字体 SC'"
         sodipodi:role="line"
         x="1454.755"
         y="2537.0627"
         id="tspan1032">等会儿。</tspan></text>
    <text
       xml:space="preserve"
       style="font-style:normal;font-variant:normal;font-weight:normal;font-stretch:normal;font-size:45px;line-height:1.25;font-family:'小赖字体 SC';-inkscape-font-specification:'小赖字体 SC';text-align:center;letter-spacing:0px;word-spacing:0px;text-anchor:middle;fill:#000000;fill-opacity:1;stroke:none;stroke-width:0.965425"
       x="2300.9597"
       y="2665.2209"
       id="text4246-3-2-2-6-3-7-9-3-3-7-0"
       transform="matrix(0.96542494,0,-0.15822218,1.0358133,0,0)"><tspan
         style="font-style:normal;font-variant:normal;font-weight:normal;font-stretch:normal;font-size:45px;font-family:'小赖字体 SC';-inkscape-font-specification:'小赖字体 SC';stroke-width:0.965425"
         sodipodi:role="line"
         x="2300.9597"
         y="2665.2209"
         id="tspan1573">哼！</tspan></text>
    <text
       xml:space="preserve"
       style="font-style:normal;font-variant:normal;font-weight:normal;font-stretch:normal;font-size:45px;line-height:1.25;font-family:'小赖字体 SC';-inkscape-font-specification:'小赖字体 SC';text-align:center;letter-spacing:0px;word-spacing:0px;text-anchor:middle;fill:#000000;fill-opacity:1;stroke:none"
       x="334.78134"
       y="2968.0999"
       id="text4246-3-2-2-6-3-7-9-3-9"><tspan
         style="font-style:normal;font-variant:normal;font-weight:normal;font-stretch:normal;font-size:45px;font-family:'小赖字体 SC';-inkscape-font-specification:'小赖字体 SC'"
         sodipodi:role="line"
         x="334.78134"
         y="2968.0999"
         id="tspan1611">好！</tspan></text>
    <text
       xml:space="preserve"
       style="font-style:normal;font-variant:normal;font-weight:normal;font-stretch:normal;font-size:49.6053px;line-height:1.25;font-family:'小赖字体 SC';-inkscape-font-specification:'小赖字体 SC';text-align:center;letter-spacing:0px;word-spacing:0px;text-anchor:middle;fill:#000000;fill-opacity:1;stroke:none;stroke-width:1.10234"
       x="310.77844"
       y="3041.9373"
       id="text4246-3-2-2-6-3-7-9-3-9-9"><tspan
         style="font-style:normal;font-variant:normal;font-weight:normal;font-stretch:normal;font-size:49.6053px;font-family:'小赖字体 SC';-inkscape-font-specification:'小赖字体 SC';stroke-width:1.10234"
         sodipodi:role="line"
         x="310.77844"
         y="3041.9373"
         id="tspan225">这是你</tspan><tspan
         id="tspan219"
         style="font-style:normal;font-variant:normal;font-weight:normal;font-stretch:normal;font-size:49.6053px;font-family:'小赖字体 SC';-inkscape-font-specification:'小赖字体 SC';stroke-width:1.10234"
         sodipodi:role="line"
         x="310.77844"
         y="3103.9438">自找的！</tspan></text>
    <text
       xml:space="preserve"
       style="font-style:normal;font-variant:normal;font-weight:normal;font-stretch:normal;font-size:80px;line-height:1.25;font-family:'小赖字体 SC';-inkscape-font-specification:'小赖字体 SC';letter-spacing:0px;word-spacing:0px;fill:#ffffff;fill-opacity:1;stroke:#ffffff;stroke-width:0.668774;stroke-miterlimit:4;stroke-dasharray:none;stroke-opacity:1;filter:url(#filter4375-4-1-1-1-9-5-8-8-5-5-3-3-3-0)"
       id="text4580-6-0-0-0-9-3-3-2-0"
       transform="matrix(1.4640851,-0.3812188,-0.80280752,2.6992234,3645.3529,-405.18199)"
       x="-607.91235"
       y="1245.0809"><tspan
         id="tspan1534-6"
         style="font-style:normal;font-variant:normal;font-weight:normal;font-stretch:normal;font-size:61.3371px;font-family:'小赖字体 SC';-inkscape-font-specification:'小赖字体 SC'"><tspan
           style="font-style:normal;font-variant:normal;font-weight:normal;font-stretch:normal;font-size:82.2859px;font-family:'小赖字体 SC';-inkscape-font-specification:'小赖字体 SC'"
           id="tspan1814">嗡~~</tspan></tspan></text>
  </g>
</svg>
