<?xml version="1.0" encoding="UTF-8" standalone="no"?>
<svg
   id="svg2"
   version="1.1"
   inkscape:version="1.1 (c68e22c387, 2021-05-23)"
   width="2481"
   height="3503"
   sodipodi:docname="E11P05.svg"
   xmlns:inkscape="http://www.inkscape.org/namespaces/inkscape"
   xmlns:sodipodi="http://sodipodi.sourceforge.net/DTD/sodipodi-0.dtd"
   xmlns:xlink="http://www.w3.org/1999/xlink"
   xmlns="http://www.w3.org/2000/svg"
   xmlns:svg="http://www.w3.org/2000/svg"
   xmlns:rdf="http://www.w3.org/1999/02/22-rdf-syntax-ns#"
   xmlns:cc="http://creativecommons.org/ns#"
   xmlns:dc="http://purl.org/dc/elements/1.1/">
  <sodipodi:namedview
     pagecolor="#ffffff"
     bordercolor="#666666"
     inkscape:pageopacity="0"
     inkscape:pageshadow="2"
     inkscape:window-width="1920"
     inkscape:window-height="1057"
     id="namedview70"
     showgrid="false"
     inkscape:zoom="0.28284272"
     inkscape:cx="830.85045"
     inkscape:cy="1511.4407"
     inkscape:current-layer="layer1"
     inkscape:document-rotation="0"
     inkscape:window-x="1358"
     inkscape:window-y="-8"
     inkscape:window-maximized="1"
     borderopacity="1.0"
     inkscape:pagecheckerboard="0" />
  <metadata
     id="metadata8">
    <rdf:RDF>
      <cc:Work
         rdf:about="">
        <dc:format>image/svg+xml</dc:format>
        <dc:type
           rdf:resource="http://purl.org/dc/dcmitype/StillImage" />
        <dc:title />
      </cc:Work>
    </rdf:RDF>
  </metadata>
  <defs
     id="defs6">
    <filter
       style="color-interpolation-filters:sRGB"
       id="filter4375-4-1-1"
       inkscape:label="deevad outline effect"
       x="-0.006410528"
       y="-0.015024861"
       width="1.0128211"
       height="1.0300497">
      <feFlood
         id="feFlood4377-7-9-0"
         flood-opacity="1"
         flood-color="rgb(118,29,43)"
         result="flood" />
      <feComposite
         id="feComposite4379-3-8-8"
         in2="SourceGraphic"
         in="flood"
         operator="in"
         result="composite1" />
      <feMorphology
         id="feMorphology4393-1-0-49"
         operator="dilate"
         radius="4"
         result="result3" />
      <feComposite
         id="feComposite4385-9-5-7"
         in2="result3"
         in="SourceGraphic"
         operator="over"
         result="composite2" />
    </filter>
    <filter
       style="color-interpolation-filters:sRGB"
       id="filter4375-4-1-1-9"
       inkscape:label="deevad outline effect">
      <feFlood
         id="feFlood4377-7-9-0-2"
         flood-opacity="1"
         flood-color="rgb(0,0,0)"
         result="flood" />
      <feComposite
         id="feComposite4379-3-8-8-5"
         in2="SourceGraphic"
         in="flood"
         operator="in"
         result="composite1" />
      <feMorphology
         id="feMorphology4393-1-0-49-5"
         operator="dilate"
         radius="4"
         result="result3" />
      <feComposite
         id="feComposite4385-9-5-7-5"
         in2="result3"
         in="SourceGraphic"
         operator="over"
         result="composite2" />
    </filter>
  </defs>
  <sodipodi:namedview
     pagecolor="#ffffff"
     bordercolor="#666666"
     borderopacity="1"
     objecttolerance="10"
     gridtolerance="10"
     guidetolerance="10"
     inkscape:pageopacity="0"
     inkscape:pageshadow="2"
     inkscape:window-width="1920"
     inkscape:window-height="1025"
     id="namedview4"
     showgrid="false"
     inkscape:zoom="0.34782609"
     inkscape:cx="849.68266"
     inkscape:cy="571.54505"
     inkscape:window-x="0"
     inkscape:window-y="26"
     inkscape:window-maximized="1"
     inkscape:current-layer="layer1" />
  <g
     inkscape:groupmode="layer"
     id="layer2"
     inkscape:label="artwork"
     sodipodi:insensitive="true">
    <image
       xlink:href="../gfx_Pepper-and-Carrot_by-David-Revoy_E11P05.png"
       width="2481"
       height="3503"
       id="image10"
       x="0"
       y="0" />
  </g>
  <g
     inkscape:groupmode="layer"
     id="layer3"
     inkscape:label="speechbubbles" />
  <g
     inkscape:groupmode="layer"
     id="layer1"
     inkscape:label="txt">
    <flowRoot
       xml:space="preserve"
       id="flowRoot2987-7-9-9-7-0-3-4"
       style="font-style:normal;font-variant:normal;font-weight:normal;font-stretch:normal;line-height:0.01%;font-family:'linja sike';letter-spacing:0px;word-spacing:0px;fill:#000000;fill-opacity:1;stroke:#000000;stroke-width:0.992362;stroke-miterlimit:4;stroke-dasharray:none;stroke-opacity:1;filter:url(#filter4375-4-1-1)"
       transform="matrix(0.72826899,-0.81755759,0.24767521,2.1649058,787.1265,-276.56588)"><flowRegion
         id="flowRegion2989-4-5-8-7-41-7-62"
         style="stroke-width:5.40286"><rect
           id="rect2991-45-1-3-3-8-0-4"
           width="319.66232"
           height="56.089447"
           x="120.55251"
           y="265.53046"
           style="font-style:normal;font-variant:normal;font-weight:normal;font-stretch:normal;font-family:'linja sike';-inkscape-font-specification:'linja sike;fill:#000000;fill-opacity:1;stroke:#000000;stroke-width:0.99236238;stroke-miterlimit:4;stroke-dasharray:none;stroke-opacity:1" /></flowRegion><flowPara
         id="flowPara2995-4-1-5-0-7-2-6"
         style="font-weight:normal;font-size:66.6667px;line-height:1.25;-inkscape-font-specification:Lavi;letter-spacing:7.06853px;fill:#ffffff;fill-opacity:1;stroke:#ffffff;stroke-width:0.992362;stroke-linejoin:miter;stroke-miterlimit:4;stroke-dasharray:none;stroke-opacity:1">Wawa</flowPara></flowRoot>
    <path
       style="color:#000000;display:inline;overflow:visible;visibility:visible;fill:#ffffff;fill-opacity:1;fill-rule:nonzero;stroke:none;stroke-width:0.683295px;marker:none;enable-background:accumulate"
       d="m 1313.7622,1105.846 c -6.6146,0.4026 -12.518,2.3277 -16.2753,5.6442 -9.7378,-9.3191 -23.4074,0.7574 -24.6647,2.8625 -12.2525,-5.1089 -29.5354,-1.7967 -36.3706,3.2413 -16.2689,-7.5347 -51.237,3.4283 -50.5455,18.7417 -19.0455,10.84 -20.2612,23.8552 -14.6416,31.8328 -14.6237,8.9275 -22.7926,50.9714 18.1413,55.6435 11.2395,15.9552 42.3768,23.3049 57.0003,14.3773 19.7373,4.4733 32.0908,8.4963 37.1203,0.076 7.9012,7.5615 26.1231,9.2862 28.965,1.2814 14.1258,7.9348 33.7223,10.1485 44.4465,3.6014 19.7373,4.4734 32.0909,8.4978 37.1204,0.077 9.7374,9.3191 26.3141,11.6725 35.3191,-0.058 16.8971,6.0035 19.5924,2.2245 31.0848,-3.9368 18.8592,12.3736 36.1581,7.0033 43.3974,-3.5958 26.791,5.372 31.5428,-13.0489 30.3705,-19.9805 23.7399,-6.5379 30.6235,-23.0559 13.3314,-37.2644 5.8399,-17.0978 -1.831,-37.1979 -37.0859,-45.8879 -8.2775,-13.5932 -37.0012,-24.068 -57.1015,-13.2922 -13.8554,-10.6602 -36.1068,-10.9233 -45.3555,-2.7595 -6.991,-6.6904 -15.9849,-3.3838 -20.9812,-0.2072 -12.5227,-6.771 -30.3917,-9.3936 -44.1951,-1.9934 -8.2267,-6.3295 -19.4127,-8.9927 -29.0801,-8.4038 z"
       id="path4043"
       inkscape:connector-curvature="0"
       sodipodi:nodetypes="ccccccccccccccccccccccc" />
    <flowRoot
       xml:space="preserve"
       id="flowRoot2987-4-9-3-5-9-8-3-5-4-0-5-5"
       style="font-style:normal;font-variant:normal;font-weight:normal;font-stretch:normal;font-size:60px;line-height:0.01%;font-family:'linja sike';text-align:center;letter-spacing:0px;word-spacing:0px;text-anchor:middle;fill:#000000;fill-opacity:1;stroke:none"
       transform="translate(996.95336,878.89393)"><flowRegion
         id="flowRegion2989-5-4-5-8-9-5-4-2-2-5-0-8"
         style="font-size:60px"><rect
           id="rect2991-7-9-6-5-7-5-4-9-5-4-3-2"
           width="493.73337"
           height="314.38708"
           x="120.55251"
           y="265.53046"
           style="font-style:normal;font-variant:normal;font-weight:normal;font-stretch:normal;font-family:'linja sike';text-align:center;text-anchor:middle;font-size:60px" /></flowRegion><flowPara
         style="font-size:60px;line-height:1.25;text-align:center;text-anchor:middle"
         id="flowPara4272-0">sina en mi li sama+lili…</flowPara></flowRoot>
    <path
       style="color:#000000;display:inline;overflow:visible;visibility:visible;fill:#ffffff;fill-opacity:1;fill-rule:nonzero;stroke:none;stroke-width:1px;marker:none;enable-background:accumulate"
       d="m 1263.0275,1261.586 c 3.2526,-13.9142 12.362,-12.7945 19.7109,-8.2909 7.1257,-0.1505 15.5492,0.9462 9.5739,13.2654 4.4484,3.5928 10.3777,11.5837 -2.1306,18.3276 -1.7432,6.2934 -19.9536,11.285 -26.591,-2.8511 -12.9529,-6.0801 -17.4582,-18.2401 -0.5632,-20.451 z"
       id="path4051"
       inkscape:connector-curvature="0"
       sodipodi:nodetypes="cccccc" />
    <path
       style="color:#000000;display:inline;overflow:visible;visibility:visible;fill:#ffffff;fill-opacity:1;fill-rule:nonzero;stroke:none;stroke-width:1px;marker:none;enable-background:accumulate"
       d="m 1286.2708,1309.2578 c 3.6765,-1.0212 6.7369,1.1598 9.1289,4.1414 11.2359,-14.5964 27.0112,26.7457 -0.4784,19.6785 -16.7378,5.7055 -18.2129,-9.5291 -11.4815,-14.9079 -2.5821,-3.2186 -0.8455,-7.8909 2.831,-8.912 z"
       id="path4059"
       inkscape:connector-curvature="0"
       sodipodi:nodetypes="zcccz" />
    <path
       style="color:#000000;display:inline;overflow:visible;visibility:visible;fill:#ffffff;fill-opacity:1;fill-rule:nonzero;stroke:none;stroke-width:0.738537px;marker:none;enable-background:accumulate"
       d="m 917.11362,2375.7845 c 3.07461,-0.5176 5.79337,-2.3865 7.49002,-5.4552 4.68635,8.1455 10.89107,-1.2315 11.44271,-3.1528 5.78978,4.3028 13.78674,0.9197 16.8893,-3.7686 7.69988,6.3882 23.81124,-4.2865 23.24189,-18.0317 8.69641,-10.1899 9.05254,-21.9146 6.30604,-28.9515 6.6676,-8.3668 9.79385,-46.3421 -9.34888,-49.5776 -5.49308,-14.0737 -20.11564,-19.9459 -26.78322,-11.5788 -9.26603,-3.5557 -15.08535,-6.8803 -17.29216,0.8052 -3.80251,-6.6095 -12.31826,-7.7304 -13.51274,-0.4701 -6.70803,-6.7982 -15.87197,-8.3265 -20.76168,-2.1906 -9.26596,-3.5555 -15.08536,-6.8814 -17.29216,0.8042 -4.68622,-8.1454 -12.44576,-9.8704 -16.45095,0.8829 -7.96772,-4.9974 -9.16217,-1.538 -14.41595,4.2692 -8.98446,-10.6757 -16.95567,-5.4426 -20.15671,4.2528 -12.56619,-4.1973 -14.48212,12.4687 -13.82412,18.6702 -10.95263,6.434 -13.89235,21.44 -5.60812,33.8017 -2.44419,15.5024 1.45355,33.3851 18.01582,40.3648 4.07524,12.021 17.6241,20.7583 26.81298,10.6015 6.62606,9.2538 16.9951,8.9666 21.17142,1.4127 3.36442,5.8477 7.50051,2.6646 9.7765,-0.3076 5.94248,5.7901 14.30834,7.7264 20.6186,0.7514 3.93425,5.4945 9.18775,7.6246 13.68141,6.8679 z"
       id="path4043-4"
       inkscape:connector-curvature="0"
       sodipodi:nodetypes="ccccccccccccccccccccccc" />
    <flowRoot
       xml:space="preserve"
       id="flowRoot2987-4-9-3-5-9-8-3-5-4-0-5-5-7"
       style="font-style:normal;font-variant:normal;font-weight:normal;font-stretch:normal;font-size:60px;line-height:0.01%;font-family:'linja sike';text-align:center;letter-spacing:0px;word-spacing:0px;text-anchor:middle;fill:#000000;fill-opacity:1;stroke:none"
       transform="translate(528.87792,2008.1239)"><flowRegion
         id="flowRegion2989-5-4-5-8-9-5-4-2-2-5-0-8-9"
         style="font-size:60px"><rect
           id="rect2991-7-9-6-5-7-5-4-9-5-4-3-2-2"
           width="493.73337"
           height="314.38708"
           x="120.55251"
           y="265.53046"
           style="font-style:normal;font-variant:normal;font-weight:normal;font-stretch:normal;font-family:'linja sike';text-align:center;text-anchor:middle;font-size:60px" /></flowRegion><flowPara
         style="font-size:60px;line-height:1.25;text-align:center;text-anchor:middle"
         id="flowPara4272-0-7">li lili+sama…</flowPara></flowRoot>
    <path
       style="color:#000000;display:inline;overflow:visible;visibility:visible;fill:#ffffff;fill-opacity:1;fill-rule:nonzero;stroke:none;stroke-width:1.08062px;marker:none;enable-background:accumulate"
       d="m 1068.089,2487.0196 c 5.3116,-0.5983 10.0084,-2.7585 12.9396,-6.3056 8.096,9.4153 18.8151,-1.4234 19.7681,-3.6442 10.0021,4.9735 23.8176,1.0631 29.1775,-4.3559 13.3021,7.3839 41.1357,-4.9547 40.1521,-20.8423 15.0236,-11.7783 15.6389,-25.3306 10.8941,-33.4643 11.5188,-9.6709 16.9196,-53.5654 -16.1508,-57.3051 -9.4898,-16.2675 -34.7514,-23.0549 -46.2701,-13.3837 -16.0077,-4.1098 -26.061,-7.9526 -29.8734,0.9307 -6.5691,-7.6396 -21.2807,-8.9353 -23.3442,-0.5433 -11.5887,-7.8578 -27.4201,-9.6244 -35.8673,-2.532 -16.0077,-4.1097 -26.0611,-7.9541 -29.87358,0.9295 -8.09565,-9.415 -21.50092,-11.4089 -28.42018,1.0205 -13.76482,-5.7764 -15.82833,-1.7777 -24.9046,4.9347 -15.52133,-12.3398 -29.29218,-6.291 -34.8222,4.9156 -21.70901,-4.8515 -25.01891,14.4122 -23.88216,21.5804 -18.92147,7.4369 -24.00005,24.7818 -9.68846,39.0703 -4.22251,17.9188 2.51112,38.5889 31.12365,46.6564 7.04026,13.8948 30.44693,23.9939 46.32139,12.254 11.44699,10.6962 29.36028,10.3642 36.57517,1.633 5.81232,6.7591 12.95767,3.0798 16.88967,-0.3557 10.2659,6.6926 24.7187,8.9308 35.62,0.8686 6.7968,6.3509 15.8726,8.813 23.6357,7.9384 z"
       id="path4043-4-9"
       inkscape:connector-curvature="0"
       sodipodi:nodetypes="ccccccccccccccccccccccc" />
    <flowRoot
       xml:space="preserve"
       id="flowRoot2987-4-9-3-5-9-8-3-5-4-0-5-5-7-1"
       style="font-style:normal;font-variant:normal;font-weight:normal;font-stretch:normal;font-size:60px;line-height:0.01%;font-family:'linja sike';text-align:center;letter-spacing:0px;word-spacing:0px;text-anchor:middle;fill:#000000;fill-opacity:1;stroke:none"
       transform="translate(668.11252,2105.665)"><flowRegion
         id="flowRegion2989-5-4-5-8-9-5-4-2-2-5-0-8-9-8"
         style="font-size:60px"><rect
           id="rect2991-7-9-6-5-7-5-4-9-5-4-3-2-2-3"
           width="493.73337"
           height="314.38708"
           x="120.55252"
           y="265.53046"
           style="font-style:normal;font-variant:normal;font-weight:normal;font-stretch:normal;font-family:'linja sike';text-align:center;text-anchor:middle;stroke-width:1;font-size:60px" /></flowRegion><flowPara
         style="font-size:60px;line-height:1.25;text-align:center;text-anchor:middle"
         id="flowPara51">li pilin+sama pi+__wan __taso…</flowPara></flowRoot>
    <path
       style="color:#000000;display:inline;overflow:visible;visibility:visible;fill:#ffffff;fill-opacity:1;fill-rule:nonzero;stroke:none;stroke-width:0.789838px;marker:none;enable-background:accumulate"
       d="m 1713.0292,2601.3246 c 4.8069,-0.7381 9.0572,-3.4028 11.7098,-7.7784 7.3264,11.6143 17.0268,-1.7559 17.8892,-4.4952 9.0515,6.135 21.5537,1.3112 26.4042,-5.3736 12.0379,9.1086 37.2258,-6.1118 36.3359,-25.7102 13.5955,-14.5292 14.1524,-31.2468 9.8585,-41.2804 10.4241,-11.9297 15.3115,-66.0763 -14.6157,-70.6897 -8.5877,-20.0668 -31.4482,-28.4397 -41.8722,-16.5096 -14.4863,-5.0698 -23.584,-9.8102 -27.034,1.1482 -5.9447,-9.4241 -19.2581,-11.0225 -21.1254,-0.6704 -10.4873,-9.693 -24.8139,-11.8721 -32.4584,-3.1234 -14.4861,-5.0696 -23.584,-9.8119 -27.0341,1.1466 -7.3262,-11.614 -19.4573,-14.0736 -25.7189,1.259 -12.4565,-7.1256 -14.3238,-2.193 -22.5376,6.0872 -14.0459,-15.2219 -26.5079,-7.7605 -31.5123,6.0638 -19.6456,-5.9847 -22.6409,17.7784 -21.6123,26.6208 -17.123,9.1739 -21.719,30.57 -8.7675,48.1959 -3.8212,22.1038 2.2724,47.6018 28.1654,57.5536 6.3712,17.1401 27.553,29.598 41.9187,15.1161 10.3589,13.1945 26.5696,12.785 33.0988,2.0143 5.2599,8.3379 11.7261,3.7994 15.2843,-0.4385 9.2903,8.2558 22.3693,11.0165 32.2345,1.0714 6.1508,7.8343 14.3639,10.8714 21.3891,9.7925 z"
       id="path4043-4-9-1"
       inkscape:connector-curvature="0"
       sodipodi:nodetypes="ccccccccccccccccccccccc" />
    <flowRoot
       xml:space="preserve"
       id="flowRoot2987-4-9-3-5-9-8-3-5-4-0-5-5-7-1-9"
       style="font-style:normal;font-variant:normal;font-weight:normal;font-stretch:normal;line-height:0.01%;font-family:'linja sike';text-align:center;letter-spacing:0px;word-spacing:0px;text-anchor:middle;fill:#000000;fill-opacity:1;stroke:none"
       transform="translate(1308.8506,2188.3034)"><flowRegion
         id="flowRegion2989-5-4-5-8-9-5-4-2-2-5-0-8-9-8-8"><rect
           id="rect2991-7-9-6-5-7-5-4-9-5-4-3-2-2-3-4"
           width="493.73337"
           height="314.38708"
           x="120.55251"
           y="265.53046"
           style="font-style:normal;font-variant:normal;font-weight:normal;font-stretch:normal;font-family:'linja sike';-inkscape-font-specification:'linja sike;text-align:center;text-anchor:middle" /></flowRegion><flowPara
         style="font-size:45px;line-height:1.25;text-align:center;text-anchor:middle"
         id="flowPara4435">…li wile e nasin ante </flowPara><flowPara
         style="font-size:45px;line-height:1.25;text-align:center;text-anchor:middle"
         id="flowPara52">lon nasin ante ala.</flowPara></flowRoot>
    <path
       style="color:#000000;display:inline;overflow:visible;visibility:visible;fill:#ffffff;fill-opacity:1;fill-rule:nonzero;stroke:none;stroke-width:1px;marker:none;enable-background:accumulate"
       d="m 1199.2151,2323.7893 c 2.225,-9.385 13.0044,-12.9003 20.604,-6.006 5.7937,-4.4838 15.1847,0.9709 10.4045,11.3728 7.9371,3.6245 10.2853,20.5369 -3.8877,20.7106 -3.8301,8.4751 -19.496,8.8047 -25.723,-3.4794 -10.5094,4.3941 -19.2873,-20.2128 -1.3978,-22.598 z"
       id="path4051-1"
       inkscape:connector-curvature="0"
       sodipodi:nodetypes="cccccc" />
    <path
       style="color:#000000;display:inline;overflow:visible;visibility:visible;fill:#ffffff;fill-opacity:1;fill-rule:nonzero;stroke:none;stroke-width:1px;marker:none;enable-background:accumulate"
       d="m 1261.6184,2282.2669 c 3.7043,-1.6524 6.641,0 8.8742,2.5696 6.3848,-5.2404 23.2295,7.2113 -1.4295,19.7477 -9.1804,4.5419 -17.6092,-6.4102 -10.6909,-12.9246 -2.4109,-2.7727 -0.4581,-7.7403 3.2462,-9.3927 z"
       id="path4059-6"
       inkscape:connector-curvature="0"
       sodipodi:nodetypes="zcccz" />
    <path
       style="color:#000000;display:inline;overflow:visible;visibility:visible;fill:#ffffff;fill-opacity:1;fill-rule:nonzero;stroke:none;stroke-width:1px;marker:none;enable-background:accumulate"
       d="m 1765.5082,2376.4339 c 14.1067,14.7269 5.3775,33.1901 -19.7909,27.1407 -14.6783,6.3004 -38.9492,-22.0463 -11.6312,-27.7892 -1.0944,-13.4466 34.9155,-16.36 31.4221,0.6485 z"
       id="path4051-1-3"
       inkscape:connector-curvature="0"
       sodipodi:nodetypes="cccc" />
    <path
       style="color:#000000;display:inline;overflow:visible;visibility:visible;fill:#ffffff;fill-opacity:1;fill-rule:nonzero;stroke:none;stroke-width:1px;marker:none;enable-background:accumulate"
       d="m 1734.4609,2345.1465 c -3.6004,3.1824 -7.7715,3.0113 -11.5262,1.6893 -2.5115,3.1494 -25.5738,-4.2698 -7.1025,-18.6006 8.7242,-8.2935 23.4543,-2.1601 18.2536,6.9001 4.0532,1.4271 3.9754,6.829 0.3751,10.0112 z"
       id="path4059-6-7"
       inkscape:connector-curvature="0"
       sodipodi:nodetypes="zcccz" />
  </g>
</svg>
