<?xml version="1.0" encoding="UTF-8" standalone="no"?>
<!-- Created with Inkscape (http://www.inkscape.org/) -->

<svg
   xmlns:dc="http://purl.org/dc/elements/1.1/"
   xmlns:cc="http://creativecommons.org/ns#"
   xmlns:rdf="http://www.w3.org/1999/02/22-rdf-syntax-ns#"
   xmlns:svg="http://www.w3.org/2000/svg"
   xmlns="http://www.w3.org/2000/svg"
   xmlns:xlink="http://www.w3.org/1999/xlink"
   xmlns:sodipodi="http://sodipodi.sourceforge.net/DTD/sodipodi-0.dtd"
   xmlns:inkscape="http://www.inkscape.org/namespaces/inkscape"
   id="svg2"
   version="1.1"
   inkscape:version="0.92.4 (5da689c313, 2019-01-14)"
   width="2481"
   height="3503"
   sodipodi:docname="E22P04.svg">
  <metadata
     id="metadata8">
    <rdf:RDF>
      <cc:Work
         rdf:about="">
        <dc:format>image/svg+xml</dc:format>
        <dc:type
           rdf:resource="http://purl.org/dc/dcmitype/StillImage" />
        <dc:title />
      </cc:Work>
    </rdf:RDF>
  </metadata>
  <defs
     id="defs6">
    <filter
       style="color-interpolation-filters:sRGB"
       id="filter4375-4-1-1-1-9-6-9-2-1"
       inkscape:label="deevad outline effect">
      <feFlood
         id="feFlood4377-7-9-0-8-1-0-2-2-06"
         flood-opacity="1"
         flood-color="rgb(0,0,0)"
         result="flood" />
      <feComposite
         id="feComposite4379-3-8-8-2-77-6-0-8-3"
         in2="SourceGraphic"
         in="flood"
         operator="in"
         result="composite1" />
      <feMorphology
         id="feMorphology4393-1-0-49-8-9-2-2-9-2"
         operator="dilate"
         radius="4"
         result="result3" />
      <feComposite
         id="feComposite4385-9-5-7-0-8-6-3-7-0"
         in2="result3"
         in="SourceGraphic"
         operator="over"
         result="composite2" />
    </filter>
    <filter
       style="color-interpolation-filters:sRGB"
       id="filter4375-4-1-1-1-9-6-9-2-1-8"
       inkscape:label="deevad outline effect">
      <feFlood
         id="feFlood4377-7-9-0-8-1-0-2-2-06-9"
         flood-opacity="1"
         flood-color="rgb(0,0,0)"
         result="flood" />
      <feComposite
         id="feComposite4379-3-8-8-2-77-6-0-8-3-7"
         in2="SourceGraphic"
         in="flood"
         operator="in"
         result="composite1" />
      <feMorphology
         id="feMorphology4393-1-0-49-8-9-2-2-9-2-3"
         operator="dilate"
         radius="3.6000000000000001"
         result="result3" />
      <feComposite
         id="feComposite4385-9-5-7-0-8-6-3-7-0-6"
         in2="result3"
         in="SourceGraphic"
         operator="over"
         result="composite2" />
    </filter>
    <filter
       style="color-interpolation-filters:sRGB"
       id="filter4375-4-1-1-1-9-6-9-2-1-8-4"
       inkscape:label="deevad outline effect">
      <feFlood
         id="feFlood4377-7-9-0-8-1-0-2-2-06-9-5"
         flood-opacity="1"
         flood-color="rgb(0,0,0)"
         result="flood" />
      <feComposite
         id="feComposite4379-3-8-8-2-77-6-0-8-3-7-0"
         in2="SourceGraphic"
         in="flood"
         operator="in"
         result="composite1" />
      <feMorphology
         id="feMorphology4393-1-0-49-8-9-2-2-9-2-3-3"
         operator="dilate"
         radius="3.6000000000000001"
         result="result3" />
      <feComposite
         id="feComposite4385-9-5-7-0-8-6-3-7-0-6-6"
         in2="result3"
         in="SourceGraphic"
         operator="over"
         result="composite2" />
    </filter>
    <filter
       style="color-interpolation-filters:sRGB"
       id="filter4375-4-1-1-1-9-6-9-2-1-8-6"
       inkscape:label="deevad outline effect">
      <feFlood
         id="feFlood4377-7-9-0-8-1-0-2-2-06-9-3"
         flood-opacity="1"
         flood-color="rgb(0,0,0)"
         result="flood" />
      <feComposite
         id="feComposite4379-3-8-8-2-77-6-0-8-3-7-2"
         in2="SourceGraphic"
         in="flood"
         operator="in"
         result="composite1" />
      <feMorphology
         id="feMorphology4393-1-0-49-8-9-2-2-9-2-3-0"
         operator="dilate"
         radius="3.6000000000000001"
         result="result3" />
      <feComposite
         id="feComposite4385-9-5-7-0-8-6-3-7-0-6-61"
         in2="result3"
         in="SourceGraphic"
         operator="over"
         result="composite2" />
    </filter>
    <filter
       style="color-interpolation-filters:sRGB"
       id="filter4375-4-1-1-1-9-6-9-2-1-8-6-4"
       inkscape:label="deevad outline effect">
      <feFlood
         id="feFlood4377-7-9-0-8-1-0-2-2-06-9-3-7"
         flood-opacity="1"
         flood-color="rgb(0,0,0)"
         result="flood" />
      <feComposite
         id="feComposite4379-3-8-8-2-77-6-0-8-3-7-2-6"
         in2="SourceGraphic"
         in="flood"
         operator="in"
         result="composite1" />
      <feMorphology
         id="feMorphology4393-1-0-49-8-9-2-2-9-2-3-0-5"
         operator="dilate"
         radius="3.6000000000000001"
         result="result3" />
      <feComposite
         id="feComposite4385-9-5-7-0-8-6-3-7-0-6-61-6"
         in2="result3"
         in="SourceGraphic"
         operator="over"
         result="composite2" />
    </filter>
    <filter
       style="color-interpolation-filters:sRGB"
       id="filter4375-4-1-1-1-9-6-9-2-1-8-6-4-7"
       inkscape:label="deevad outline effect">
      <feFlood
         id="feFlood4377-7-9-0-8-1-0-2-2-06-9-3-7-4"
         flood-opacity="1"
         flood-color="rgb(0,0,0)"
         result="flood" />
      <feComposite
         id="feComposite4379-3-8-8-2-77-6-0-8-3-7-2-6-5"
         in2="SourceGraphic"
         in="flood"
         operator="in"
         result="composite1" />
      <feMorphology
         id="feMorphology4393-1-0-49-8-9-2-2-9-2-3-0-5-2"
         operator="dilate"
         radius="3.6000000000000001"
         result="result3" />
      <feComposite
         id="feComposite4385-9-5-7-0-8-6-3-7-0-6-61-6-5"
         in2="result3"
         in="SourceGraphic"
         operator="over"
         result="composite2" />
    </filter>
    <filter
       style="color-interpolation-filters:sRGB"
       id="filter4375-4-1-1-1-9-6-9-2-1-4-6"
       inkscape:label="deevad outline effect">
      <feFlood
         id="feFlood4377-7-9-0-8-1-0-2-2-06-7-1"
         flood-opacity="1"
         flood-color="rgb(0,0,0)"
         result="flood" />
      <feComposite
         id="feComposite4379-3-8-8-2-77-6-0-8-3-8-0"
         in2="SourceGraphic"
         in="flood"
         operator="in"
         result="composite1" />
      <feMorphology
         id="feMorphology4393-1-0-49-8-9-2-2-9-2-4-6"
         operator="dilate"
         radius="5.9000000000000004"
         result="result3" />
      <feComposite
         id="feComposite4385-9-5-7-0-8-6-3-7-0-5-3"
         in2="result3"
         in="SourceGraphic"
         operator="over"
         result="composite2" />
    </filter>
    <filter
       style="color-interpolation-filters:sRGB"
       id="filter4375-4-1-1-1-9-6-9-2-1-4-6-3"
       inkscape:label="deevad outline effect">
      <feFlood
         id="feFlood4377-7-9-0-8-1-0-2-2-06-7-1-6"
         flood-opacity="1"
         flood-color="rgb(0,0,0)"
         result="flood" />
      <feComposite
         id="feComposite4379-3-8-8-2-77-6-0-8-3-8-0-7"
         in2="SourceGraphic"
         in="flood"
         operator="in"
         result="composite1" />
      <feMorphology
         id="feMorphology4393-1-0-49-8-9-2-2-9-2-4-6-5"
         operator="dilate"
         radius="5.9000000000000004"
         result="result3" />
      <feComposite
         id="feComposite4385-9-5-7-0-8-6-3-7-0-5-3-3"
         in2="result3"
         in="SourceGraphic"
         operator="over"
         result="composite2" />
    </filter>
    <filter
       style="color-interpolation-filters:sRGB"
       id="filter4375-4-1-1-1-9-6-9-2-1-8-3"
       inkscape:label="deevad outline effect">
      <feFlood
         id="feFlood4377-7-9-0-8-1-0-2-2-06-9-6"
         flood-opacity="1"
         flood-color="rgb(0,0,0)"
         result="flood" />
      <feComposite
         id="feComposite4379-3-8-8-2-77-6-0-8-3-7-7"
         in2="SourceGraphic"
         in="flood"
         operator="in"
         result="composite1" />
      <feMorphology
         id="feMorphology4393-1-0-49-8-9-2-2-9-2-3-5"
         operator="dilate"
         radius="3.6000000000000001"
         result="result3" />
      <feComposite
         id="feComposite4385-9-5-7-0-8-6-3-7-0-6-3"
         in2="result3"
         in="SourceGraphic"
         operator="over"
         result="composite2" />
    </filter>
    <filter
       style="color-interpolation-filters:sRGB"
       id="filter4375-4-1-1-1-9-6-9-2-1-8-9"
       inkscape:label="deevad outline effect">
      <feFlood
         id="feFlood4377-7-9-0-8-1-0-2-2-06-9-1"
         flood-opacity="1"
         flood-color="rgb(0,0,0)"
         result="flood" />
      <feComposite
         id="feComposite4379-3-8-8-2-77-6-0-8-3-7-27"
         in2="SourceGraphic"
         in="flood"
         operator="in"
         result="composite1" />
      <feMorphology
         id="feMorphology4393-1-0-49-8-9-2-2-9-2-3-09"
         operator="dilate"
         radius="3.6000000000000001"
         result="result3" />
      <feComposite
         id="feComposite4385-9-5-7-0-8-6-3-7-0-6-36"
         in2="result3"
         in="SourceGraphic"
         operator="over"
         result="composite2" />
    </filter>
  </defs>
  <sodipodi:namedview
     pagecolor="#ffffff"
     bordercolor="#666666"
     borderopacity="1"
     objecttolerance="10"
     gridtolerance="10"
     guidetolerance="10"
     inkscape:pageopacity="0"
     inkscape:pageshadow="2"
     inkscape:window-width="1201"
     inkscape:window-height="777"
     id="namedview4"
     showgrid="false"
     inkscape:zoom="0.3117891"
     inkscape:cx="1378.2721"
     inkscape:cy="984.6617"
     inkscape:window-x="71"
     inkscape:window-y="-8"
     inkscape:window-maximized="1"
     inkscape:current-layer="layer1" />
  <g
     inkscape:groupmode="layer"
     id="layer2"
     inkscape:label="artwork"
     sodipodi:insensitive="true">
    <image
       sodipodi:absref="../gfx_Pepper-and-Carrot_by-David-Revoy_E22P04.png"
       xlink:href="../gfx_Pepper-and-Carrot_by-David-Revoy_E22P04.png"
       width="2481"
       height="3503"
       id="image10"
       x="0"
       y="0" />
  </g>
  <g
     inkscape:groupmode="layer"
     id="layer3"
     inkscape:label="speechbubbles"
     style="display:inline">
    <path
       style="color:#000000;display:inline;overflow:visible;visibility:visible;fill:#fff6d5;fill-opacity:1;fill-rule:nonzero;stroke:none;stroke-width:1px;marker:none;enable-background:accumulate"
       d="m 2137.6375,3089.6966 c 30.6229,-37.2868 41.2749,-148.8377 -32.7313,-201.3675 -6.6613,-56.2921 -25.291,-111.1007 -86.6064,-148.4118 42.1369,39.8288 62.4263,68.3872 67.9235,152.0634 35.896,34.159 83.0295,119.0957 35.4227,174.0685 -47.607,54.9729 -47.6952,32.5389 -47.6952,32.5389 l 62.3885,-4.6364 z"
       id="path5074"
       inkscape:connector-curvature="0"
       sodipodi:nodetypes="ccccsccc" />
    <rect
       style="color:#000000;clip-rule:nonzero;display:inline;overflow:visible;visibility:visible;opacity:1;isolation:auto;mix-blend-mode:normal;color-interpolation:sRGB;color-interpolation-filters:linearRGB;solid-color:#000000;solid-opacity:1;fill:#fff6d5;fill-opacity:1;fill-rule:nonzero;stroke:none;stroke-width:2.5999999;stroke-linecap:butt;stroke-linejoin:miter;stroke-miterlimit:4;stroke-dasharray:none;stroke-dashoffset:0;stroke-opacity:1;marker:none;color-rendering:auto;image-rendering:auto;shape-rendering:auto;text-rendering:auto;enable-background:accumulate"
       id="rect4632-8-6-1-3-2-2"
       width="418.08786"
       height="179.96251"
       x="1922.505"
       y="3083.1199"
       ry="40"
       rx="40" />
    <path
       style="fill:#fff6d5;fill-opacity:1;stroke:none"
       d="m 1351.1227,2005.8305 c 22.8979,28.1254 38.7657,31.0873 50.501,42.4003 11.7354,11.3133 2.5255,39.7321 6.4125,48.5066 4.3732,8.1875 2.5073,14.6502 30.9093,32.3769 -43.2344,-13.7795 -39.8876,-25.364 -43.9184,-32.974 -5.5411,-10.4613 0.3082,-24.4236 -11.8796,-33.002 -11.8055,-8.3094 -53.7812,-30.7237 -63.8915,-50.2485 -10.1106,-19.525 -14.1199,-20.2875 -14.1199,-20.2875 z"
       id="path3282"
       inkscape:connector-curvature="0"
       sodipodi:nodetypes="csccssscc" />
    <rect
       style="color:#000000;display:inline;overflow:visible;visibility:visible;fill:#fff6d5;fill-opacity:1;fill-rule:nonzero;stroke:none;stroke-width:2.82353973;marker:none;enable-background:accumulate"
       id="rect4632-8-6-1-3"
       width="485.06158"
       height="153.51431"
       x="949.49695"
       y="1883.045"
       ry="37.248592"
       rx="44.355011" />
    <path
       style="color:#000000;display:inline;overflow:visible;visibility:visible;fill:#ffffff;fill-opacity:1;fill-rule:nonzero;stroke:none;stroke-width:1px;marker:none;enable-background:accumulate"
       d="m 395.9861,2199.6475 c 15.51627,-99.2631 4.92603,-151.591 -7.44816,-200.6818 -5.82227,-23.0984 -47.01199,-0.2196 -47.01199,-0.2196 l 18.78249,44.8656 c 0,0 38.2768,67.6897 35.67766,156.0358 z"
       id="path4000"
       inkscape:connector-curvature="0"
       sodipodi:nodetypes="csccc" />
    <path
       style="color:#000000;display:inline;overflow:visible;visibility:visible;fill:#ffffff;fill-opacity:1;fill-rule:nonzero;stroke:none;stroke-width:0.91128296px;marker:none;enable-background:accumulate"
       d="m 152.58201,1964.5757 c -6.5792,-90.8589 32.36583,-130.7899 199.12436,-127.2723 183.61347,3.8732 212.46951,42.0983 211.10657,114.4389 -0.55224,29.3106 -17.2023,76.811 -41.73449,84.1305 -24.53205,7.3194 -142.53604,20.5796 -183.42296,14.7242 -40.88666,-5.8555 -104.61806,-4.9891 -136.85708,-22.7266 -30.52712,-16.7954 -43.56391,-35.9077 -48.2164,-63.2947 z"
       id="path3365"
       inkscape:connector-curvature="0"
       sodipodi:nodetypes="csssssc" />
    <path
       style="color:#000000;display:inline;overflow:visible;visibility:visible;fill:#ffffff;fill-opacity:1;fill-rule:nonzero;stroke:none;stroke-width:1.03241801px;marker:none;enable-background:accumulate"
       d="m 408.72502,3191.8527 c 34.81999,-33.7232 343.61878,-33.631 399.13263,4.4828 66.91692,45.9428 27.90281,148.6095 -34.80266,167.692 -68.23672,20.7658 -276.00409,19.1124 -336.85234,0.2316 -51.40958,-15.9522 -60.05813,-21.1789 -69.43454,-79.5906 -4.52006,-28.1584 7.13675,-59.0924 41.95691,-92.8158 z"
       id="path4040-4"
       inkscape:connector-curvature="0"
       sodipodi:nodetypes="zssssz" />
    <path
       style="color:#000000;fill:#ffffff;fill-opacity:1;fill-rule:nonzero;stroke:none;stroke-width:1px;marker:none;visibility:visible;display:inline;overflow:visible;enable-background:accumulate"
       d="m 1644.9584,1289.8491 c 7.1898,-42.6016 83.8373,-73.3174 281.3341,-66.9507 103.9561,3.3512 210.0582,1.9636 216.5885,68.5076 6.1403,62.5701 -182.0364,61.5639 -217.7376,63.1801 -35.7013,1.6163 -213.8985,-5.0717 -245.8871,-26.1435 -20.0242,-13.1904 -35.1898,-25.4054 -34.2979,-38.5935 z"
       id="path4546-6"
       inkscape:connector-curvature="0"
       sodipodi:nodetypes="cssssc" />
    <path
       style="color:#000000;display:inline;overflow:visible;visibility:visible;fill:#ffffff;fill-opacity:1;fill-rule:nonzero;stroke:none;stroke-width:1px;marker:none;enable-background:accumulate"
       d="m 618.68758,1408.8289 c -7.67447,42.5869 55.50566,65.021 107.82446,37.8192 -21.52031,12.2763 -65.51877,60.1685 -150.03649,-23.9195 -38.23119,-38.0368 27.92049,-9.1126 27.92049,-9.1126 z"
       id="path4035"
       inkscape:connector-curvature="0"
       sodipodi:nodetypes="ccscc" />
    <path
       style="fill:#ffffff;stroke:none;stroke-width:1.06671667"
       d="m 203.22973,1385.1617 c 5.93234,-29.4934 26.4257,-57.723 149.92498,-61.5149 61.74969,-1.8961 180.77775,-2.6989 240.03597,11.0769 59.25823,13.7758 58.74657,42.1301 59.01625,53.2955 0.26962,11.1654 5.22233,38.8429 -55.64344,49.6928 -60.86584,10.8499 -187.55009,4.8724 -237.43516,5.2937 -99.77022,0.8427 -152.66279,-0.1211 -155.8986,-57.844 z"
       id="path3270-6"
       inkscape:connector-curvature="0"
       sodipodi:nodetypes="csssssc" />
    <path
       style="color:#000000;display:inline;overflow:visible;visibility:visible;fill:#ffffff;fill-opacity:1;fill-rule:nonzero;stroke:none;stroke-width:0.81976128px;marker:none;enable-background:accumulate"
       d="m 316.19314,1288.3585 c 3.91192,-35.197 36.72332,-59.7411 119.31395,-49.7613 44.23999,5.3457 94.53831,9.7095 89.32243,61.2915 -5.21593,51.5818 -77.58662,47.334 -92.58237,47.9408 -14.99577,0.6069 -92.66094,-7.9542 -105.62215,-26.0944 -8.11343,-11.3554 -11.08384,-22.4533 -10.43186,-33.3766 z"
       id="path4546-2"
       inkscape:connector-curvature="0"
       sodipodi:nodetypes="cssssc" />
    <path
       style="fill:#ffffff;stroke:none;stroke-width:0.78489655"
       d="m 299.11831,1202.9232 c 0.49554,-35.7542 18.78079,-67.9038 101.84968,-62.1655 83.06889,5.7383 110.34784,9.5906 110.51774,58.34 0.17781,51.0191 -41.13051,63.0186 -104.00593,64.9935 -64.81775,2.036 -108.10496,-18.6976 -108.36149,-61.168 z"
       id="path3280"
       inkscape:connector-curvature="0"
       sodipodi:nodetypes="csssc" />
    <path
       style="color:#000000;display:inline;overflow:visible;visibility:visible;fill:#ffffff;fill-opacity:1;fill-rule:nonzero;stroke:none;stroke-width:1px;marker:none;enable-background:accumulate"
       d="m 1295.5741,250.08696 c 7.4205,-78.51153 72.2857,-113.22612 216.7827,-100.01606 84.3153,7.70819 193.9164,-1.80306 179.9653,120.79969 -13.0482,114.66807 -170.4325,91.84916 -198.8782,93.20279 -28.4459,1.35378 -137.9847,3.58286 -170.3392,-29.38639 -24.8571,-25.32938 -28.7674,-60.23427 -27.5306,-84.60003 z"
       id="path4546"
       inkscape:connector-curvature="0"
       sodipodi:nodetypes="cssssc" />
    <path
       style="display:inline;fill:#ffffff;stroke:none"
       d="m 1289.8877,134.40086 c 30.5751,-1.68186 42.778,11.06423 53.4436,22.64678 10.3593,11.24995 12.8847,21.65687 12.8847,21.65687 l 29.7703,-7.32346 -22.5213,-21.59716 c 0,0 -32.0507,-31.78511 -73.5773,-15.38303 z"
       id="path3063-1"
       inkscape:connector-curvature="0"
       sodipodi:nodetypes="cscccc" />
    <path
       style="color:#000000;fill:#ffffff;fill-opacity:1;fill-rule:nonzero;stroke:none;stroke-width:1px;marker:none;visibility:visible;display:inline;overflow:visible;enable-background:accumulate"
       d="m 1692.0855,1310.6401 c -0.293,39.1252 -57.7197,62.9987 -101.2055,49.758 55.5704,38.0317 158.8616,-8.6506 137.2323,-37.5739 -12.4923,-16.7051 -36.0268,-12.1841 -36.0268,-12.1841 z"
       id="path5010"
       inkscape:connector-curvature="0"
       sodipodi:nodetypes="ccsc" />
    <path
       style="color:#000000;fill:#ffffff;fill-opacity:1;fill-rule:nonzero;stroke:none;stroke-width:1px;marker:none;visibility:visible;display:inline;overflow:visible;enable-background:accumulate"
       d="m 626.11412,3177.9202 c 21.02103,-42.255 24.56937,-134.801 -19.9338,-149.816 45.27002,27.8302 -4.02345,139.5852 -14.2218,150.7129 -10.106,11.027 34.1556,-0.8969 34.1556,-0.8969 z"
       id="path3978"
       inkscape:connector-curvature="0"
       sodipodi:nodetypes="ccsc" />
    <rect
       style="color:#000000;clip-rule:nonzero;display:inline;overflow:visible;visibility:visible;opacity:1;isolation:auto;mix-blend-mode:normal;color-interpolation:sRGB;color-interpolation-filters:linearRGB;solid-color:#000000;solid-opacity:1;fill:#fff6d5;fill-opacity:1;fill-rule:nonzero;stroke:none;stroke-width:2.83415341;stroke-linecap:butt;stroke-linejoin:miter;stroke-miterlimit:4;stroke-dasharray:none;stroke-dashoffset:0;stroke-opacity:1;marker:none;color-rendering:auto;image-rendering:auto;shape-rendering:auto;text-rendering:auto;enable-background:accumulate"
       id="rect4632-8-6-1-3-2"
       width="243.38129"
       height="108.33208"
       x="2018.4929"
       y="2938.5608"
       ry="40"
       rx="47.529148" />
  </g>
  <g
     inkscape:groupmode="layer"
     id="layer1"
     inkscape:label="txt">
    <use
       x="0"
       y="0"
       xlink:href="#text4580-1-7-3-6"
       id="use4170"
       transform="matrix(0.81539896,0,0,0.82993126,301.55108,162.83227)"
       width="100%"
       height="100%" />
    <use
       x="0"
       y="0"
       xlink:href="#text4580-1-7-3-6"
       id="use4172"
       transform="matrix(0.68857181,0,0,0.71216056,371.09359,274.83254)"
       width="100%"
       height="100%" />
    <use
       x="0"
       y="0"
       xlink:href="#text4580-1-7-3-6"
       id="use4174"
       transform="matrix(0.73335406,0,0,0.75434516,429.1849,137.42441)"
       width="100%"
       height="100%" />
    <use
       x="0"
       y="0"
       xlink:href="#text4580-1-7-3-6"
       id="use4176"
       transform="matrix(0.83604977,0,0,0.93337593,1141.1718,-212.01013)"
       width="100%"
       height="100%" />
    <use
       x="0"
       y="0"
       xlink:href="#text4580-1-7-3-6"
       id="use4178"
       transform="matrix(0.73302267,0,0,0.75322672,1226.5637,-69.640871)"
       width="100%"
       height="100%" />
    <text
       xml:space="preserve"
       style="font-style:normal;font-variant:normal;font-weight:normal;font-stretch:normal;line-height:0%;font-family:Lavi;-inkscape-font-specification:Lavi;letter-spacing:0px;word-spacing:0px;display:inline;fill:#ffffff;fill-opacity:1;stroke:#ffffff;stroke-width:1.8942405;stroke-miterlimit:4;stroke-dasharray:none;stroke-opacity:1;filter:url(#filter4375-4-1-1-1-9-6-9-2-1-4-6)"
       x="787.65729"
       y="1584.5073"
       id="text4580-1-7-3-6-0-2"
       transform="matrix(0.47631253,-0.23734805,-0.08793431,0.62892825,572.95592,31.122194)"><tspan
         sodipodi:role="line"
         id="tspan4582-8-5-6-1-3-0"
         x="787.65729"
         y="1584.5073"
         style="font-size:70px;line-height:1.25;fill:#ffffff;fill-opacity:1;stroke:#ffffff;stroke-width:1.8942405;stroke-miterlimit:4;stroke-dasharray:none;stroke-opacity:1">tik</tspan></text>
    <text
       xml:space="preserve"
       style="font-style:normal;font-variant:normal;font-weight:normal;font-stretch:normal;line-height:0%;font-family:Lavi;-inkscape-font-specification:Lavi;text-align:center;letter-spacing:0px;word-spacing:0px;text-anchor:middle;display:inline;fill:#000000;fill-opacity:1;stroke:none"
       x="1494.8328"
       y="213.53923"
       id="text4246-2-3-1-3-9-0-5"><tspan
         sodipodi:role="line"
         style="font-size:45px;line-height:1.25"
         x="1494.8328"
         y="213.53923"
         id="tspan4898"
         dx="0 0 0 0 0 0 0 0 0 -8">banli je'u fa</tspan><tspan
         sodipodi:role="line"
         style="font-size:45px;line-height:1.25"
         x="1494.8328"
         y="269.78925"
         id="tspan135">le tadji .i ie pei</tspan><tspan
         sodipodi:role="line"
         style="font-size:45px;line-height:1.25"
         x="1494.8328"
         y="326.03925"
         id="tspan139">doi karot.</tspan></text>
    <text
       xml:space="preserve"
       style="font-style:normal;font-variant:normal;font-weight:normal;font-stretch:normal;line-height:0%;font-family:Lavi;-inkscape-font-specification:Lavi;text-align:center;letter-spacing:0px;word-spacing:0px;text-anchor:middle;display:inline;fill:#000000;fill-opacity:1;stroke:none"
       x="408.05801"
       y="1212.715"
       id="text4246-2-3-1-3-9-0-5-3"><tspan
         sodipodi:role="line"
         style="font-size:45px;line-height:1.25"
         x="408.05801"
         y="1212.715"
         id="tspan4211-5">.i cnino</tspan></text>
    <text
       xml:space="preserve"
       style="font-style:normal;font-variant:normal;font-weight:normal;font-stretch:normal;line-height:0%;font-family:Lavi;-inkscape-font-specification:Lavi;text-align:center;letter-spacing:0px;word-spacing:0px;text-anchor:middle;display:inline;fill:#000000;fill-opacity:1;stroke:none"
       x="423.25507"
       y="1303.389"
       id="text4246-2-3-1-3-9-0-5-3-3"><tspan
         sodipodi:role="line"
         style="font-size:45px;line-height:1.25"
         x="423.25507"
         y="1303.389"
         id="tspan4211-5-5">.i zdile</tspan></text>
    <text
       xml:space="preserve"
       style="font-style:normal;font-variant:normal;font-weight:normal;font-stretch:normal;line-height:0%;font-family:Lavi;-inkscape-font-specification:Lavi;text-align:center;letter-spacing:0px;word-spacing:0px;text-anchor:middle;display:inline;fill:#000000;fill-opacity:1;stroke:none"
       x="426.78308"
       y="1400.8781"
       id="text4246-2-3-1-3-9-0-5-3-3-6"><tspan
         sodipodi:role="line"
         style="font-size:45px;line-height:1.25"
         x="426.78308"
         y="1400.8781"
         id="tspan4211-5-5-2"
         dx="0 0 0 0 0 0 0 0 0 0 0 0 0 0 0 0 0 0 0 0 0">.i lo'e so'a da jdice</tspan></text>
    <text
       xml:space="preserve"
       style="font-style:normal;font-variant:normal;font-weight:normal;font-stretch:normal;line-height:0%;font-family:Lavi;-inkscape-font-specification:Lavi;text-align:center;letter-spacing:0px;word-spacing:0px;text-anchor:middle;display:inline;fill:#000000;fill-opacity:1;stroke:none"
       x="1810.743"
       y="1300.967"
       id="text4246-2-3-1-3-9-0-5-3-3-6-9"><tspan
         sodipodi:role="line"
         style="font-size:45px;line-height:1.25"
         x="1810.743"
         y="1300.967"
         id="tspan4282"
         dx="0 0 0 0 0 0 0">i prane tadji</tspan></text>
    <text
       xml:space="preserve"
       style="font-style:normal;font-variant:normal;font-weight:normal;font-stretch:normal;line-height:0%;font-family:Lavi;-inkscape-font-specification:Lavi;text-align:center;letter-spacing:0px;word-spacing:0px;text-anchor:middle;display:inline;fill:#000000;fill-opacity:1;stroke:none"
       x="355.67532"
       y="1901.8898"
       id="text4246-2-3-1-3-9-0-5-3-3-6-9-3"><tspan
         sodipodi:role="line"
         style="font-size:45px;line-height:1.25"
         x="355.67532"
         y="1901.8898"
         id="tspan147"
         dx="0 0 0 0 0 -8">i ba'o ku le ka</tspan><tspan
         sodipodi:role="line"
         style="font-size:45px;line-height:1.25"
         x="355.67532"
         y="1958.1398"
         id="tspan153">pajni le nu certu</tspan><tspan
         sodipodi:role="line"
         style="font-size:45px;line-height:1.25"
         x="355.67532"
         y="2014.3898"
         dx="0 0 0 0 0 0 0 0 0 0 -8"
         id="tspan143">cu .ei ba'e jibri</tspan></text>
    <text
       xml:space="preserve"
       style="font-style:normal;font-variant:normal;font-weight:normal;font-stretch:normal;line-height:0%;font-family:Lavi;-inkscape-font-specification:Lavi;text-align:center;letter-spacing:0px;word-spacing:0px;text-anchor:middle;display:inline;fill:#000000;fill-opacity:1;stroke:none"
       x="598.46289"
       y="3231.7009"
       id="text4246-2-3-1-3-9-0-5-3-3-6-9-3-6"><tspan
         sodipodi:role="line"
         style="font-size:45px;line-height:1.25"
         x="598.46289"
         y="3231.7009"
         id="tspan4918">.i zabna ui nu farvi</tspan><tspan
         sodipodi:role="line"
         style="font-size:45px;line-height:1.25"
         x="598.46289"
         y="3287.9509"
         id="tspan160"
         dx="0 0 0 0 0 0 -8">.i ja'a ku le cedra</tspan><tspan
         sodipodi:role="line"
         style="font-size:45px;line-height:1.25"
         x="598.46289"
         y="3344.2009"
         id="tspan162"
         dx="0 0 0 0 0 0 -8">pe ma'a cu banli</tspan></text>
    <text
       xml:space="preserve"
       style="font-style:normal;font-variant:normal;font-weight:normal;font-stretch:normal;line-height:0%;font-family:Lavi;-inkscape-font-specification:Lavi;text-align:center;letter-spacing:0px;word-spacing:0px;text-anchor:middle;display:inline;fill:#000000;fill-opacity:1;stroke:none"
       x="1192.7061"
       y="1943.9911"
       id="text4246-2-3-1-3-9-0-5-3-3-6-9-3-7"><tspan
         sodipodi:role="line"
         style="font-size:45px;line-height:1.25"
         x="1192.7061"
         y="1943.9911"
         id="tspan4922">i xu doi ro do do jgari</tspan><tspan
         sodipodi:role="line"
         style="font-size:45px;line-height:1.25"
         x="1192.7061"
         y="2000.2411"
         id="tspan166"
         dx="0 0">pa tutci be le nu jitro</tspan></text>
    <text
       xml:space="preserve"
       style="font-style:normal;font-variant:normal;font-weight:normal;font-stretch:normal;line-height:0%;font-family:Lavi;-inkscape-font-specification:Lavi;letter-spacing:0px;word-spacing:0px;display:inline;fill:#000000;fill-opacity:1;stroke:#000000;stroke-width:1.51447606;stroke-miterlimit:4;stroke-dasharray:none;stroke-opacity:1;filter:url(#filter4375-4-1-1-1-9-6-9-2-1-8-4)"
       x="787.65729"
       y="1584.5073"
       id="text4580-1-7-3-6-7-1"
       transform="matrix(0.58440427,-0.36119693,-0.16794112,1.0851187,1168.1881,1415.6263)"><tspan
         sodipodi:role="line"
         id="tspan4582-8-5-6-1-8-0"
         x="787.65729"
         y="1584.5073"
         style="font-size:70px;line-height:1.25;fill:#ffffff;stroke-width:1.51447606">banli!</tspan></text>
    <text
       xml:space="preserve"
       style="font-style:normal;font-variant:normal;font-weight:normal;font-stretch:normal;line-height:0%;font-family:Lavi;-inkscape-font-specification:Lavi;letter-spacing:0px;word-spacing:0px;display:inline;fill:#000000;fill-opacity:1;stroke:#000000;stroke-width:1.58756113;stroke-miterlimit:4;stroke-dasharray:none;stroke-opacity:1;filter:url(#filter4375-4-1-1-1-9-6-9-2-1-8-6)"
       x="787.65729"
       y="1584.5073"
       id="text4580-1-7-3-6-7-5"
       transform="matrix(0.67179423,-0.36609698,-0.12402312,0.84446362,1152.7248,1811.8428)"><tspan
         sodipodi:role="line"
         id="tspan4582-8-5-6-1-8-5"
         x="787.65729"
         y="1584.5073"
         style="font-size:70px;line-height:1.25;fill:#ffffff;stroke-width:1.58756113"
         dx="0 0 0 0 0 0 -8">mi go'i</tspan></text>
    <text
       xml:space="preserve"
       style="font-style:normal;font-variant:normal;font-weight:normal;font-stretch:normal;line-height:0%;font-family:Lavi;-inkscape-font-specification:Lavi;letter-spacing:0px;word-spacing:0px;display:inline;fill:#000000;fill-opacity:1;stroke:#000000;stroke-width:1.3062278;stroke-miterlimit:4;stroke-dasharray:none;stroke-opacity:1;filter:url(#filter4375-4-1-1-1-9-6-9-2-1-8)"
       x="787.65729"
       y="1584.5073"
       id="text4580-1-7-3-6-7"
       transform="matrix(0.81587216,-0.42930057,-0.15062203,1.0241628,1637.3038,1424.9108)"><tspan
         sodipodi:role="line"
         id="tspan4582-8-5-6-1-8"
         x="787.65729"
         y="1584.5073"
         style="font-size:70px;line-height:1.25;fill:#ffffff;stroke-width:1.3062278"
         dx="0 0 0 -8 8">ja'a!</tspan></text>
    <text
       xml:space="preserve"
       style="font-style:normal;font-variant:normal;font-weight:normal;font-stretch:normal;line-height:0%;font-family:Lavi;-inkscape-font-specification:Lavi;letter-spacing:0px;word-spacing:0px;display:inline;fill:#000000;fill-opacity:1;stroke:#000000;stroke-width:1.13860536;stroke-miterlimit:4;stroke-dasharray:none;stroke-opacity:1;filter:url(#filter4375-4-1-1-1-9-6-9-2-1-8-3)"
       x="787.65729"
       y="1584.5073"
       id="text4580-1-7-3-6-7-56"
       transform="matrix(0.93886251,-0.49099037,-0.17332786,1.1713333,1704.185,1253.4202)"><tspan
         sodipodi:role="line"
         id="tspan4582-8-5-6-1-8-2"
         x="787.65729"
         y="1584.5073"
         style="font-size:70px;line-height:1.25;fill:#ffffff;stroke-width:1.13860536">bredi!</tspan></text>
    <text
       xml:space="preserve"
       style="font-style:normal;font-variant:normal;font-weight:normal;font-stretch:normal;line-height:0%;font-family:Lavi;-inkscape-font-specification:Lavi;letter-spacing:0px;word-spacing:0px;display:inline;fill:#000000;fill-opacity:1;stroke:#000000;stroke-width:1.56492543;stroke-miterlimit:4;stroke-dasharray:none;stroke-opacity:1;filter:url(#filter4375-4-1-1-1-9-6-9-2-1-8-9)"
       x="787.65729"
       y="1584.5073"
       id="text4580-1-7-3-6-7-0"
       transform="matrix(0.69288181,-0.35218833,-0.1279162,0.84019963,1903.616,1524.9096)"><tspan
         sodipodi:role="line"
         id="tspan4582-8-5-6-1-8-6"
         x="787.65729"
         y="1584.5073"
         style="font-size:70px;line-height:1.25;fill:#ffffff;stroke-width:1.56492543">jetnu!</tspan></text>
    <text
       xml:space="preserve"
       style="font-style:normal;font-variant:normal;font-weight:normal;font-stretch:normal;line-height:0%;font-family:Lavi;-inkscape-font-specification:Lavi;text-align:center;letter-spacing:0px;word-spacing:0px;text-anchor:middle;display:inline;fill:#000000;fill-opacity:1;stroke:#000000;stroke-width:1.60000002;stroke-miterlimit:4;stroke-dasharray:none;stroke-opacity:1"
       x="2135.6626"
       y="3008.0222"
       id="text4246-2-3-1-3-9-0-5-3-3-6-9-3-7-3"><tspan
         sodipodi:role="line"
         style="font-size:51.07199478px;line-height:1.25;letter-spacing:2px;stroke:#000000;stroke-width:1.60000002;stroke-miterlimit:4;stroke-dasharray:none;stroke-opacity:1"
         x="2136.6626"
         y="3008.0222"
         id="tspan4509-5">.i zabna</tspan></text>
    <text
       xml:space="preserve"
       style="font-style:normal;font-variant:normal;font-weight:normal;font-stretch:normal;line-height:0%;font-family:Lavi;-inkscape-font-specification:Lavi;text-align:center;letter-spacing:0px;word-spacing:0px;text-anchor:middle;display:inline;fill:#000000;fill-opacity:1;stroke:none"
       x="2139.2859"
       y="3150.7898"
       id="text4246-2-3-1-3-9-0-5-3-3-6-9-3-7-3-9"><tspan
         sodipodi:role="line"
         style="font-size:45px;line-height:1.25"
         x="2139.2859"
         y="3150.7898"
         id="tspan4579"
         dx="0 0 0 0 0 0 -8">.i ko'oi le nu jivna</tspan></text>
    <text
       xml:space="preserve"
       style="font-style:normal;font-variant:normal;font-weight:normal;font-stretch:normal;line-height:0%;font-family:Lavi;-inkscape-font-specification:Lavi;text-align:center;letter-spacing:0px;word-spacing:0px;text-anchor:middle;display:inline;fill:#000000;fill-opacity:1;stroke:none"
       x="3324.5437"
       y="2866.6912"
       id="text4246-2-3-1-3-9-0-5-3-3-6-9-3-7-3-9-4"
       transform="matrix(0.88919225,0,-0.2888612,1.1246162,0,0)"><tspan
         sodipodi:role="line"
         style="font-size:56.26209641px;line-height:1.25;stroke:#000000;stroke-width:3.5999999;stroke-miterlimit:4;stroke-dasharray:none;stroke-opacity:1"
         x="3324.5437"
         y="2866.6912"
         id="tspan4579-4">cu cfari</tspan></text>
  </g>
  <g
     inkscape:groupmode="layer"
     id="layer4"
     inkscape:label="notes"
     style="display:inline">
    <path
       style="color:#000000;clip-rule:nonzero;display:inline;overflow:visible;visibility:visible;opacity:0.481;isolation:auto;mix-blend-mode:normal;color-interpolation:sRGB;color-interpolation-filters:linearRGB;solid-color:#000000;solid-opacity:1;fill:#ffe680;fill-opacity:1;fill-rule:nonzero;stroke:#565656;stroke-width:1.20000005;stroke-linecap:butt;stroke-linejoin:miter;stroke-miterlimit:4;stroke-dasharray:none;stroke-dashoffset:0;stroke-opacity:1;marker:none;color-rendering:auto;image-rendering:auto;shape-rendering:auto;text-rendering:auto;enable-background:accumulate"
       d="m -457.7227,437.06757 0,189.0351 203.83,0 0,-90.9805 10,0 0,15.6308 30.9825,-26.9824 -30.9825,-26.9804 0,16.6171 -10,0 0,-76.3397 -203.83,0 z"
       id="rect4191-6"
       inkscape:connector-curvature="0" />
    <text
       xml:space="preserve"
       style="font-style:normal;font-variant:normal;font-weight:normal;font-stretch:normal;line-height:0%;font-family:Lavi;-inkscape-font-specification:Lavi;letter-spacing:0px;word-spacing:0px;display:inline;fill:#000000;fill-opacity:1;stroke:#000000;stroke-width:0.99236238;stroke-miterlimit:4;stroke-dasharray:none;stroke-opacity:1;filter:url(#filter4375-4-1-1-1-9-6-9-2-1)"
       x="787.65729"
       y="1584.5073"
       id="text4580-1-7-3-6"
       transform="matrix(0.96380061,-0.56217228,-0.1779318,1.4896521,-670.63471,-1338.1747)"><tspan
         sodipodi:role="line"
         id="tspan4582-8-5-6-1"
         x="787.65729"
         y="1584.5073"
         style="font-size:70px;line-height:1.25;fill:#ffffff">lak</tspan></text>
    <flowRoot
       xml:space="preserve"
       id="flowRoot4212-7"
       style="font-style:normal;font-variant:normal;font-weight:normal;font-stretch:normal;line-height:0.01%;font-family:Lavi;-inkscape-font-specification:'Lavi, Normal';text-align:center;letter-spacing:0px;word-spacing:0px;writing-mode:lr-tb;text-anchor:middle;display:inline;opacity:0.481;fill:#000000;fill-opacity:1;stroke:none;stroke-width:1px;stroke-linecap:butt;stroke-linejoin:miter;stroke-opacity:1"
       transform="translate(-228.11008,-578.82443)"><flowRegion
         id="flowRegion4214-5"><rect
           id="rect4216-3"
           width="291.95547"
           height="247.52747"
           x="-275.14545"
           y="1061.6674" /></flowRegion><flowPara
         id="flowPara4218-5"
         style="font-size:25.3241539px;line-height:1.25">Edit this one,</flowPara><flowPara
         id="flowPara4562"
         style="font-size:25.3241539px;line-height:1.25">all others</flowPara><flowPara
         id="flowPara4564"
         style="font-size:25.3241539px;line-height:1.25">are linked</flowPara></flowRoot>  </g>
</svg>
