<?xml version="1.0" encoding="UTF-8" standalone="no"?>
<!-- Created with Inkscape (http://www.inkscape.org/) -->

<svg
   id="svg2"
   version="1.1"
   inkscape:version="1.2.1 (9c6d41e410, 2022-07-14)"
   width="2481"
   height="3503"
   sodipodi:docname="E36P01.svg"
   xmlns:inkscape="http://www.inkscape.org/namespaces/inkscape"
   xmlns:sodipodi="http://sodipodi.sourceforge.net/DTD/sodipodi-0.dtd"
   xmlns:xlink="http://www.w3.org/1999/xlink"
   xmlns="http://www.w3.org/2000/svg"
   xmlns:svg="http://www.w3.org/2000/svg"
   xmlns:rdf="http://www.w3.org/1999/02/22-rdf-syntax-ns#"
   xmlns:cc="http://creativecommons.org/ns#"
   xmlns:dc="http://purl.org/dc/elements/1.1/">
  <metadata
     id="metadata8">
    <rdf:RDF>
      <cc:Work
         rdf:about="">
        <dc:format>image/svg+xml</dc:format>
        <dc:type
           rdf:resource="http://purl.org/dc/dcmitype/StillImage" />
      </cc:Work>
    </rdf:RDF>
  </metadata>
  <defs
     id="defs6" />
  <sodipodi:namedview
     pagecolor="#1e1e1e"
     bordercolor="#111111"
     borderopacity="1"
     objecttolerance="10"
     gridtolerance="10"
     guidetolerance="10"
     inkscape:pageopacity="0"
     inkscape:pageshadow="2"
     inkscape:window-width="2560"
     inkscape:window-height="1388"
     id="namedview4"
     showgrid="false"
     inkscape:zoom="0.43852551"
     inkscape:cx="1238.2404"
     inkscape:cy="2267.827"
     inkscape:window-x="0"
     inkscape:window-y="52"
     inkscape:window-maximized="1"
     inkscape:current-layer="layer3"
     inkscape:pagecheckerboard="0"
     inkscape:snap-global="false"
     inkscape:showpageshadow="2"
     inkscape:deskcolor="#1e1e1e" />
  <g
     inkscape:groupmode="layer"
     id="layer2"
     inkscape:label="artwork"
     sodipodi:insensitive="true">
    <image
       xlink:href="../gfx_Pepper-and-Carrot_by-David-Revoy_E36P01.png"
       y="0"
       x="0"
       id="image10"
       height="3503"
       width="2481" />
  </g>
  <g
     inkscape:groupmode="layer"
     id="layer3"
     inkscape:label="speechbubbles"
     style="display:inline">
    <path
       style="display:inline;fill:#ffffff;fill-rule:evenodd;stroke:none;stroke-width:0.718839px;stroke-linecap:butt;stroke-linejoin:miter;stroke-opacity:1"
       d="m 1031.8034,1847.5959 c 41.4686,18.6105 65.0898,11.0422 64.3781,-32.2181 19.7844,46.7485 33.514,57.2039 41.6565,34.1707 26.1934,19.7977 42.5533,14.244 55.5421,0 4.8413,18.3191 13.0706,14.5249 35.9187,-5.7092 -4.2491,10.0936 -8.709,34.4674 32.7278,3.7392 -19.0852,18.0948 -5.1912,18.4416 18.8615,6.2791 -7.8918,18.5144 22.0441,5.0828 47.56,-21.8825 -18.3188,27.9112 -10.9344,31.7885 5.3711,19.9666 -7.4548,12.7207 -3.2102,20.4672 19.8752,4.4408 -9.6965,23.4798 0.4901,14.092 37.3334,-8.3845 -30.4042,24.7902 -41.9435,44.7944 -19.6609,45.4838 -6.8945,2.1213 -22.8482,13.7517 30.2958,25.3834 -12.4373,1.1149 -35.5772,4.0323 -13.6106,14.3005 -13.2613,-3.3575 -19.1473,2.6484 -0.6882,12.4053 -13.2825,-1.5599 -28.6788,-5.5525 -7.9556,9.7127 -23.3061,-0.5186 -19.7862,3.0634 -2.6754,15.9405 -33.7507,-16.5183 -30.9147,29.9177 -31.9139,36.5278 -42.2996,-22.5203 -30.9573,-11.1813 -36.6673,-6.4906 -20.6181,0.1753 -42.3986,-37.2176 -63.0167,-12.1028 -5.3995,-15.6207 -16.2249,-0.9052 -61.8536,10.1428 20.0345,-19.8729 -16.0308,-2.2747 -37.8594,5.913 11.9538,-24.8258 -7.6722,-22.5923 -46.0936,1.5612 21.5157,-27.4145 -6.068,-35.1285 -42.2787,-15.6644 13.6813,-26.9322 -8.6004,-39.9566 -61.85382,-41.0047 25.04142,-10.5776 40.35232,-21.9399 13.88562,-43.9327 29.8356,6.4756 38.7352,0.4606 17.6725,-23.4313 32.5426,19.6102 17.7466,-8.8333 5.0494,-35.1466 z"
       id="path4508-2"
       inkscape:connector-curvature="0"
       sodipodi:nodetypes="cccccccccccccccccccccccccccc" />
    <path
       style="display:inline;fill:#ffffff;fill-rule:evenodd;stroke:none;stroke-width:0.729165px;stroke-linecap:butt;stroke-linejoin:miter;stroke-opacity:1"
       d="m 1402.1481,2114.8904 c -37.5412,-23.4966 -63.2282,-27.7732 -54.4675,18.5945 -36.6408,-45.4606 -41.7758,-27.1852 -49.242,-2.5679 -32.5044,-35.4026 -46.6827,-15.2793 -53.7452,0.9011 -7.3161,-33.0962 -19.4101,-7.9644 -27.1982,2.0655 2.0861,-29.0753 -7.2105,-32.5903 -32.776,-0.2189 5.0056,-12.9683 12.7031,-37.4137 -25.6872,-9.7537 7.5453,-27.1723 -17.461,-8.8652 -38.7278,15.8288 11.7942,-33.0439 -4.2899,-25.6648 -19.8561,-12.8333 6.9856,-13.6435 23.454,-34.8845 -11.1243,-18.3146 16.5812,-19.9519 0.3711,-15.6157 -30.5192,4.5607 25.6615,-26.0237 48.5934,-45.8162 13.9416,-41.5316 4.7092,-7.8931 21.8625,-14.9892 -29.7708,-26.492 9.5108,-5.4625 38.951,1.7931 14.1228,-20.2423 -3.3199,-2.5689 7.6194,-4.3551 -13.4267,-10.9136 12.3627,0.2635 19.9114,-1.5433 8.3578,-11.5589 22.5616,0.1732 13.9425,-10.418 -2.8458,-23.8292 32.9551,17.0119 29.122,-15.5887 29.9703,-22.6318 41.3352,23.2536 46.3769,8.6143 51.818,3.5354 19.9477,-0.5209 39.1395,20.1123 58.64,-6.9201 5.5052,16.5178 16.9565,19.9472 60.911,7.4626 -19.03,21.4505 18.19,6.7566 39.1657,-2.3012 -11.1219,26.5846 14.2478,20.3789 50.993,-5.9202 -20.328,29.4915 37.5271,13.4561 55.5082,4.6815 -2.2052,11.908 -17.8523,51.6778 33.6971,51.9281 -24.4898,10.74 -32.8073,20.8825 -6.8024,43.8322 -28.9866,-6.3998 -37.4905,0.1388 -16.6807,25.195 -41.9753,-12.0114 -25.2456,16.4256 -4.2556,37.4439 z"
       id="path4508-2-3"
       inkscape:connector-curvature="0"
       sodipodi:nodetypes="cccccccccccccccccccccccccccc" />
    <path
       style="fill:#ffffff;fill-rule:evenodd;stroke:none;stroke-width:1.01927px;stroke-linecap:butt;stroke-linejoin:miter;stroke-opacity:1"
       d="m 795.85859,2075.6026 c 68.17018,-19.9402 107.76468,-24.6985 129.19825,-26.9041 -9.4626,14.6823 -10.93703,18.8605 -3.60753,19.5618 12.56737,1.2024 323.02739,-38.3324 323.02739,-38.3324 l -134.9102,-3.9965 c 0,0 -88.3447,16.493 -115.60557,20.8649 -27.26123,4.3719 -53.63946,7.3565 -53.63946,7.3565 0,0 11.08456,-17.0097 8.79652,-16.5151 -9.73596,2.1047 -32.55208,-8.0957 -153.2594,37.9649 z"
       id="path891"
       inkscape:connector-curvature="0"
       sodipodi:nodetypes="ccsccscsc" />
    <path
       style="display:inline;fill:#ffffff;fill-rule:evenodd;stroke:none;stroke-width:1.36381px;stroke-linecap:butt;stroke-linejoin:miter;stroke-opacity:1"
       d="m 934.10999,2491.7438 c 35.08914,39.4423 53.22164,70.326 1.64747,42.8678 25.79094,24.903 18.8818,28.7397 -4.38622,35.1306 20.51689,16.6981 50.11796,53.5109 7.93401,65.748 60.83315,10.9529 28.30497,42.5101 -3.47472,65.5012 92.83777,-26.3913 82.57797,3.2478 61.9827,33.4525 46.06227,-37.8561 48.20857,-26.6215 27.34557,23.7943 30.0106,-36.4394 38.0246,-46.984 37.4489,-4.8909 18.5611,-34.8324 42.7552,-56.4666 60.7103,-16.3881 24.2209,-57.6101 51.3379,-7.3718 71.9401,12.5992 5.0542,-42.8068 23.9961,-53.9328 57.9661,-11.4854 3.4316,-25.8761 32.1284,-25.1512 56.7308,11.8903 -30.7798,-72.7601 22.9258,-7.2513 31.8816,-2.9455 -14.5988,-37.4397 19.3661,-43.8584 80.2273,-11.815 -43.669,-34.9548 -35.4345,-51.2623 2.6524,-66.0599 -36.6589,-16.3021 -45.3706,-55.1196 14.9509,-56.7776 -75.4631,-24.7459 -19.5401,-63.7515 15.5829,-87.2323 -66.0154,13.9467 -119.6999,20.5739 -85.0736,-31.5569 -75.574,33.7214 -61.8675,14.9618 -52.2316,-1.4056 -50.4747,41.0146 -51.5615,3.075 -50.1603,-8.7075 -67.8064,44.6082 -107.596,14.8765 -122.7847,-18.3291 -17.8071,46.6832 -51.4309,24.3859 -72.1336,0.8485 10.8164,43.8937 -11.0103,40.4255 -32.9502,22.3474 5.3982,29.5048 -15.1378,54.9969 -50.82251,13.4319 11.86311,20.5929 10.6314,50.7559 -54.9836,-10.0179 z"
       id="path4289-9"
       inkscape:connector-curvature="0"
       sodipodi:nodetypes="ccccccccccccccccccccccccc" />
    <path
       style="display:inline;fill:#ffffff;fill-rule:evenodd;stroke:none;stroke-width:1px;stroke-linecap:butt;stroke-linejoin:miter;stroke-opacity:1"
       d="m 839.35758,2683.1542 126.85528,-18.3923 -13.09351,-16.3937 103.27445,-9.3803 -13.3725,-26.4414 -117.98262,26.0585 15.22178,19.3955 z"
       id="path4667"
       inkscape:connector-curvature="0"
       sodipodi:nodetypes="cccccccc" />
  </g>
  <g
     inkscape:groupmode="layer"
     id="layer1"
     inkscape:label="txt"
     style="display:inline">
    <text
       xml:space="preserve"
       style="font-style:normal;font-variant:normal;font-weight:normal;font-stretch:normal;font-size:45px;line-height:1.25;font-family:Lavi;-inkscape-font-specification:Lavi;text-align:center;letter-spacing:0px;word-spacing:0px;text-anchor:middle;fill:#000000;fill-opacity:1;stroke:none;stroke-width:0.818387"
       x="1435.8097"
       y="1934.3174"
       id="text4246-3-2-2-6-3-7-9-3-3-56-9-3-20-3-3-2"
       transform="skewX(-7.1285625)"><tspan
         style="font-style:normal;font-variant:normal;font-weight:bold;font-stretch:normal;font-size:45px;font-family:Lavi;-inkscape-font-specification:'Lavi Bold';stroke-width:0.818387"
         sodipodi:role="line"
         x="1435.8097"
         y="1934.3174"
         id="tspan146">EXCUSES?!</tspan></text>
    <text
       id="text4246-4-2-7"
       y="2023.0114"
       x="1227.6958"
       style="font-style:normal;font-variant:normal;font-weight:normal;font-stretch:normal;line-height:0%;font-family:Lavi;-inkscape-font-specification:Lavi;text-align:center;letter-spacing:0px;word-spacing:0px;text-anchor:middle;fill:#000000;fill-opacity:1;stroke:none"
       xml:space="preserve"
       inkscape:label="pepperB"><tspan
         y="2023.0114"
         x="1227.6958"
         style="font-size:45px;line-height:1.25"
         sodipodi:role="line"
         id="tspan290">Wat denk je</tspan><tspan
         y="2079.2612"
         x="1227.6958"
         style="font-size:45px;line-height:1.25"
         sodipodi:role="line"
         id="tspan348">wel niet?!</tspan></text>
    <text
       xml:space="preserve"
       style="font-style:normal;font-variant:normal;font-weight:normal;font-stretch:normal;font-size:45px;line-height:1.25;font-family:Lavi;-inkscape-font-specification:Lavi;text-align:center;letter-spacing:0px;word-spacing:0px;text-anchor:middle;fill:#000000;fill-opacity:1;stroke:none;stroke-width:0.818387"
       x="1515.949"
       y="2564.3274"
       id="text4246-3-2-2-6-3-7-9-3-3-56-9-3-20-3-3-2-7"
       transform="skewX(-7.1285625)"><tspan
         style="font-style:normal;font-variant:normal;font-weight:bold;font-stretch:normal;font-size:45px;font-family:Lavi;-inkscape-font-specification:'Lavi Bold';stroke-width:0.818387"
         sodipodi:role="line"
         x="1515.949"
         y="2564.3274"
         id="tspan29437">GOOI HAAR</tspan><tspan
         style="font-style:normal;font-variant:normal;font-weight:bold;font-stretch:normal;font-size:45px;font-family:Lavi;-inkscape-font-specification:'Lavi Bold';stroke-width:0.818387"
         sodipodi:role="line"
         x="1515.949"
         y="2620.5774"
         id="tspan299">DIRECT IN</tspan><tspan
         style="font-style:normal;font-variant:normal;font-weight:bold;font-stretch:normal;font-size:45px;font-family:Lavi;-inkscape-font-specification:'Lavi Bold';stroke-width:0.818387"
         sodipodi:role="line"
         x="1515.949"
         y="2676.8274"
         id="tspan372">DE GEVANGENIS!</tspan></text>
  </g>
</svg>
