<?xml version="1.0" encoding="UTF-8" standalone="no"?>
<svg
   xmlns:dc="http://purl.org/dc/elements/1.1/"
   xmlns:cc="http://creativecommons.org/ns#"
   xmlns:rdf="http://www.w3.org/1999/02/22-rdf-syntax-ns#"
   xmlns:svg="http://www.w3.org/2000/svg"
   xmlns="http://www.w3.org/2000/svg"
   xmlns:xlink="http://www.w3.org/1999/xlink"
   xmlns:sodipodi="http://sodipodi.sourceforge.net/DTD/sodipodi-0.dtd"
   xmlns:inkscape="http://www.inkscape.org/namespaces/inkscape"
   sodipodi:docname="E28P03.svg"
   height="2410"
   width="2481"
   inkscape:version="1.0 (4035a4fb49, 2020-05-01)"
   version="1.1"
   id="svg2">
  <metadata
     id="metadata8">
    <rdf:RDF>
      <cc:Work
         rdf:about="">
        <dc:format>image/svg+xml</dc:format>
        <dc:type
           rdf:resource="http://purl.org/dc/dcmitype/StillImage" />
        <dc:title />
      </cc:Work>
    </rdf:RDF>
  </metadata>
  <defs
     id="defs6" />
  <sodipodi:namedview
     inkscape:document-rotation="0"
     inkscape:current-layer="layer3"
     inkscape:window-maximized="1"
     inkscape:window-y="24"
     inkscape:window-x="49"
     inkscape:cy="1338.592"
     inkscape:cx="1240.5"
     inkscape:zoom="0.37427386"
     showgrid="false"
     id="namedview4"
     inkscape:window-height="1056"
     inkscape:window-width="1871"
     inkscape:pageshadow="2"
     inkscape:pageopacity="0"
     guidetolerance="10"
     gridtolerance="10"
     objecttolerance="10"
     borderopacity="1"
     bordercolor="#666666"
     pagecolor="#ffffff" />
  <g
     sodipodi:insensitive="true"
     transform="translate(0,-1093)"
     inkscape:label="artwork"
     id="layer2"
     inkscape:groupmode="layer">
    <image
       sodipodi:absref="C:\Users\stero\Documents\Kernewek\Pepper and Carrot\webcomics\ep28_The-Festivities\lang\gfx_Pepper-and-Carrot_by-David-Revoy_E28P03.png"
       xlink:href="../gfx_Pepper-and-Carrot_by-David-Revoy_E28P03.png"
       width="2481"
       height="2351"
       id="image10"
       x="0"
       y="1152" />
  </g>
  <g
     style="display:inline"
     transform="translate(0,-1093)"
     inkscape:label="speechbubbles"
     id="layer3"
     inkscape:groupmode="layer">
    <rect
       y="1251.5823"
       x="128.54442"
       height="153.04008"
       width="493.94315"
       id="rect932"
       style="color:#000000;clip-rule:nonzero;display:inline;overflow:visible;visibility:visible;opacity:0.7;isolation:auto;mix-blend-mode:normal;color-interpolation:sRGB;color-interpolation-filters:linearRGB;solid-color:#000000;solid-opacity:1;vector-effect:none;fill:#ffffff;fill-opacity:1;fill-rule:nonzero;stroke:none;stroke-width:1.39515;stroke-linecap:butt;stroke-linejoin:miter;stroke-miterlimit:4;stroke-dasharray:none;stroke-dashoffset:0;stroke-opacity:1;marker:none;paint-order:stroke fill markers;color-rendering:auto;image-rendering:auto;shape-rendering:auto;text-rendering:auto;enable-background:accumulate" />
    <rect
       y="2162.7354"
       x="156.89981"
       height="328.92682"
       width="569.82361"
       id="rect934"
       style="color:#000000;clip-rule:nonzero;display:inline;overflow:visible;visibility:visible;opacity:0.7;isolation:auto;mix-blend-mode:normal;color-interpolation:sRGB;color-interpolation-filters:linearRGB;solid-color:#000000;solid-opacity:1;vector-effect:none;fill:#ffffff;fill-opacity:1;fill-rule:nonzero;stroke:none;stroke-width:1.57286;stroke-linecap:butt;stroke-linejoin:miter;stroke-miterlimit:4;stroke-dasharray:none;stroke-dashoffset:0;stroke-opacity:1;marker:none;paint-order:stroke fill markers;color-rendering:auto;image-rendering:auto;shape-rendering:auto;text-rendering:auto;enable-background:accumulate" />
    <path
       sodipodi:nodetypes="ccccccccccccccc"
       inkscape:connector-curvature="0"
       id="path936"
       d="m 2240.2609,3047.9208 c 26.5645,-31.6712 12.8824,-35.1698 2.8427,-41.2181 12.5876,-3.3841 14.2979,-13.4315 2.1319,-31.9795 22.9974,16.7561 27.4459,25.9666 34.1115,-15.6344 3.1109,15.4886 13.3404,45.5682 32.6902,-1.4213 -5.5781,41.5813 2.8,25.7987 29.8476,-5.6853 -11.9519,32.2805 -23.4421,82.4499 34.1114,46.9033 -13.6949,13.4967 -58.5519,31.0144 -19.1877,37.6648 -18.0834,6.5392 -21.3828,2.7647 6.3959,33.4008 -32.4351,-19.1257 -32.5575,4.4012 -17.7664,47.614 -13.7969,-15.4134 -30.2178,-53.1302 -36.9541,-8.5279 -8.7127,-59.5706 -27.6823,-3.7504 -43.35,14.9238 2.8808,-21.1808 20.565,-66.275 1.4213,-51.8779 4.9509,-16.5998 -5.9062,-5.5354 -15.6344,3.5533 11.5886,-21.1927 13.575,-34.8047 -10.6599,-27.7156 z"
       style="fill:#ffffff;fill-opacity:1;fill-rule:evenodd;stroke:none;stroke-width:1px;stroke-linecap:butt;stroke-linejoin:miter;stroke-opacity:1" />
  </g>
  <g
     transform="translate(0,-1093)"
     inkscape:label="txt"
     id="layer1"
     inkscape:groupmode="layer">
    <text
       id="text4246"
       y="1314.6937"
       x="373.07007"
       style="font-style:normal;font-variant:normal;font-weight:normal;font-stretch:normal;line-height:0%;font-family:Lavi;-inkscape-font-specification:Lavi;text-align:center;letter-spacing:0px;word-spacing:0px;text-anchor:middle;fill:#000000;fill-opacity:1;stroke:none"
       xml:space="preserve"><tspan
         id="tspan825"
         y="1314.6937"
         x="373.07007"
         style="font-size:45px;line-height:1.2"
         sodipodi:role="line">An golyow a dhallathas</tspan><tspan
         id="tspan26"
         y="1368.6937"
         x="373.07007"
         style="font-size:45px;line-height:1.2"
         sodipodi:role="line">a verr spys a-wosa.</tspan></text>
    <text
       id="text4246-3"
       y="2233.4272"
       x="437.6442"
       style="font-style:normal;font-variant:normal;font-weight:normal;font-stretch:normal;line-height:0%;font-family:Lavi;-inkscape-font-specification:Lavi;text-align:center;letter-spacing:0px;word-spacing:0px;text-anchor:middle;fill:#000000;fill-opacity:1;stroke:none"
       xml:space="preserve"><tspan
         id="tspan886"
         y="2233.4272"
         x="437.6442"
         style="font-size:45px;line-height:1.2"
         sodipodi:role="line">Kevewi kowrek gans oll</tspan><tspan
         id="tspan42"
         y="2287.4272"
         x="437.6442"
         style="font-size:45px;line-height:1.2"
         sodipodi:role="line">an skolyow a hus ha</tspan><tspan
         id="tspan44"
         y="2341.4272"
         x="437.6442"
         style="font-size:45px;line-height:1.2"
         sodipodi:role="line">kansow a westoryon a vri</tspan><tspan
         id="tspan46"
         y="2395.4272"
         x="437.6442"
         style="font-size:45px;line-height:1.2"
         sodipodi:role="line">dhyworth oll a-dreus</tspan><tspan
         id="tspan48"
         y="2449.4272"
         x="437.6442"
         style="font-size:45px;line-height:1.2"
         sodipodi:role="line">Hereva.</tspan></text>
    <text
       transform="scale(0.93610966,1.0682509)"
       id="text4246-3-3"
       y="2864.187"
       x="2452.738"
       style="font-style:normal;font-variant:normal;font-weight:normal;font-stretch:normal;font-size:19.6737px;line-height:0%;font-family:Lavi;-inkscape-font-specification:Lavi;text-align:center;letter-spacing:0px;word-spacing:0px;text-anchor:middle;fill:#000000;fill-opacity:1;stroke:none;stroke-width:1"
       xml:space="preserve"><tspan
         id="tspan886-1"
         y="2864.187"
         x="2452.738"
         style="font-size:73.7765px;line-height:1.2;stroke-width:1"
         sodipodi:role="line">!?</tspan></text>
  </g>
</svg>
