<?xml version="1.0" encoding="UTF-8" standalone="no"?>
<!-- Created with Inkscape (http://www.inkscape.org/) -->

<svg
   id="svg2"
   version="1.1"
   inkscape:version="1.1.1 (3bf5ae0d25, 2021-09-20)"
   width="2481"
   height="3503"
   sodipodi:docname="E36P06.svg"
   xmlns:inkscape="http://www.inkscape.org/namespaces/inkscape"
   xmlns:sodipodi="http://sodipodi.sourceforge.net/DTD/sodipodi-0.dtd"
   xmlns:xlink="http://www.w3.org/1999/xlink"
   xmlns="http://www.w3.org/2000/svg"
   xmlns:svg="http://www.w3.org/2000/svg"
   xmlns:rdf="http://www.w3.org/1999/02/22-rdf-syntax-ns#"
   xmlns:cc="http://creativecommons.org/ns#"
   xmlns:dc="http://purl.org/dc/elements/1.1/">
  <metadata
     id="metadata8">
    <rdf:RDF>
      <cc:Work
         rdf:about="">
        <dc:format>image/svg+xml</dc:format>
        <dc:type
           rdf:resource="http://purl.org/dc/dcmitype/StillImage" />
        <dc:title />
      </cc:Work>
    </rdf:RDF>
  </metadata>
  <defs
     id="defs6" />
  <sodipodi:namedview
     pagecolor="#1e1e1e"
     bordercolor="#111111"
     borderopacity="1"
     objecttolerance="10"
     gridtolerance="10"
     guidetolerance="10"
     inkscape:pageopacity="0"
     inkscape:pageshadow="2"
     inkscape:window-width="1920"
     inkscape:window-height="967"
     id="namedview4"
     showgrid="false"
     inkscape:zoom="0.65053827"
     inkscape:cx="591.04901"
     inkscape:cy="2340.3696"
     inkscape:window-x="0"
     inkscape:window-y="72"
     inkscape:window-maximized="1"
     inkscape:current-layer="layer1"
     inkscape:pagecheckerboard="0"
     inkscape:snap-global="false" />
  <g
     inkscape:groupmode="layer"
     id="layer2"
     inkscape:label="artwork"
     sodipodi:insensitive="true">
    <image
       xlink:href="../gfx_Pepper-and-Carrot_by-David-Revoy_E36P06.png"
       y="0"
       x="0"
       id="image10"
       height="3503"
       width="2481" />
  </g>
  <g
     inkscape:groupmode="layer"
     id="layer3"
     inkscape:label="speechbubbles"
     style="display:inline">
    <path
       style="color:#000000;display:inline;overflow:visible;visibility:visible;fill:#ffffff;fill-opacity:1;fill-rule:nonzero;stroke:none;stroke-width:0.825943px;marker:none;enable-background:accumulate"
       d="m 577.39062,1890.3496 c 13.55459,4.6614 27.39899,10.6876 36.98583,21.7461 6.87829,8.625 7.56098,20.6709 4.66066,30.9708 -1.44275,5.9611 -3.11819,12.8374 0.29351,18.4496 3.25292,4.4413 8.97247,5.7004 13.65335,8.0759 1.68146,0.5503 3.16657,2.0604 4.93205,2.0447 3.65441,-0.7862 8.30688,-4.5636 7.78517,-7.7805 0.4108,-14.3571 1.10006,-28.425 -3.6806,-42.3235 -4.09402,-10.8462 -16.4336,-19.4968 -27.02744,-23.2608 -13.09899,-5.2184 -27.0995,-7.7878 -41.09862,-9.0336 1.16537,0.3704 2.33073,0.7409 3.49609,1.1113 z"
       id="path4064-5-5"
       inkscape:connector-curvature="0"
       sodipodi:nodetypes="ccszccccccc" />
    <path
       style="color:#000000;display:inline;overflow:visible;visibility:visible;fill:#ffffff;fill-opacity:1;fill-rule:nonzero;stroke:none;stroke-width:1.1757px;marker:none;enable-background:accumulate"
       d="m 486.13707,2089.5623 c -0.0298,-44.823 22.43236,-87.455 54.95505,-113.4173 24.30541,-19.6802 54.86758,-30.2277 85.04489,-27.5433 33.34155,1.6467 66.82753,11.8265 94.46433,32.9355 24.16495,18.1882 44.17287,45.4107 49.61652,77.7374 6.23871,35.0869 7.18286,74.0359 -16.33906,97.6685 -14.56169,14.8881 -47.80568,22.6998 -67.20496,27.1598 -42.23952,10.166 -101.90795,9.7645 -143.86363,-1.9034 -36.28042,-14.5874 -48.06135,-51.5537 -56.67314,-92.6372 z"
       id="path3365-8"
       inkscape:connector-curvature="0"
       sodipodi:nodetypes="cssccsccc" />
    <path
       style="color:#000000;display:inline;overflow:visible;visibility:visible;fill:#ffffff;fill-opacity:1;fill-rule:nonzero;stroke:none;stroke-width:1.48514px;marker:none;enable-background:accumulate"
       d="m 1904.1973,1549.0547 c -61.736,5.2262 -137.3648,-1.0137 -181.027,40.1408 -43.2642,46.889 -38.8261,125.014 7.3724,168.9259 48.513,33.635 122.0747,21.1546 183.1226,25.8049 67.5037,1.2444 138.0362,0.2045 201.6075,-18.546 47.8426,-12.7375 64.6496,-70.1951 57.7045,-111.4483 -7.8317,-46.5195 -45.9011,-94.4731 -102.6335,-97.4419 -54.8627,-6.8055 -110.8464,-4.8454 -166.1465,-7.4354 z"
       id="path3525-1"
       inkscape:connector-curvature="0"
       sodipodi:nodetypes="cccccacc" />
    <path
       style="color:#000000;display:inline;overflow:visible;visibility:visible;fill:#ffffff;fill-opacity:1;fill-rule:nonzero;stroke:none;stroke-width:0.844663px;marker:none;enable-background:accumulate"
       d="m 2080.9687,1842.4052 c -18.1752,-11.0216 -34.1079,-35.6909 -38.6041,-62.1813 -3.212,-15.891 -4.9491,-32.3534 -3.0603,-47.1809 2.5292,-4.9506 8.5452,-3.2093 12.36,1.2176 6.174,5.2735 12.9392,8.5628 18.8573,14.6149 3.5725,5.1778 3.8133,12.417 2.6585,17.788 -1.1636,10.2097 -2.5765,21.1708 0.8478,32.3369 4.2315,15.7365 13.9898,28.6271 24.2515,37.2817 12.3531,10.7595 26.1526,15.1864 39.0912,15.7949 0.045,0.4487 -1.409,0.4203 -1.8941,0.6592 -17.1414,4.2654 -36.4098,1.3261 -54.5078,-10.331 z"
       id="path4064-5"
       inkscape:connector-curvature="0"
       sodipodi:nodetypes="ccszc" />
    <path
       style="fill:#ffffff;stroke:none;stroke-width:1.29168"
       d="m 432.41892,2274.0147 c -57.81045,0.7266 -116.0699,0.4642 -173.12786,10.0414 -20.95454,3.5289 -42.08305,8.3841 -60.58585,18.2501 -14.29102,7.6229 -26.33471,18.84 -33.49156,32.4248 -9.72293,18.3562 -11.30446,39.6762 -6.78223,59.4484 5.71551,24.7766 21.94075,47.8461 45.72629,61.5678 18.2873,10.7258 39.95725,15.9294 61.56486,17.2676 40.68791,3.9084 81.47033,6.9938 122.31173,9.2475 28.50921,1.6133 57.02814,3.1895 85.57624,4.1063 58.82691,1.2318 117.7619,-2.4334 175.90348,-10.554 21.36502,-3.4538 42.89858,-9.8906 59.6345,-22.8016 15.62597,-12.0501 24.97334,-29.5674 28.99289,-47.5343 3.63571,-15.3575 4.62754,-31.2491 2.86534,-46.8723 -2.00184,-14.3377 -8.08699,-28.5569 -19.32892,-39.0727 -12.48558,-12.3857 -29.43034,-20.7657 -47.42695,-24.5541 -19.17613,-4.774 -38.97806,-6.8962 -58.5412,-9.9334 -60.63519,-8.176 -122.01585,-11.2963 -183.29076,-11.0315 z"
       id="path3100-2"
       inkscape:connector-curvature="0" />
    <path
       style="fill:#ffffff;stroke:none;stroke-width:1.15228"
       d="m 432.73227,2403.1355 c -56.45653,1.4255 -113.70433,1.592 -168.63149,14.9613 -22.33379,5.5849 -44.63515,16.109 -57.76167,34.6065 -17.80917,26.9283 -15.62575,62.8095 0.79216,90.1445 14.82945,24.9652 43.37538,41.749 73.38834,44.4582 39.61714,4.2758 79.3983,6.9026 119.20382,8.5905 20.59125,0.8358 41.1661,2.1318 61.75881,2.863 52.26775,1.2179 104.56301,-2.3285 156.17741,-9.5113 21.92127,-3.1885 44.41386,-8.9344 61.51354,-22.783 11.94029,-9.4092 19.51834,-22.8156 23.4486,-36.8796 5.55609,-19.3058 5.64313,-39.7754 2.68032,-59.5531 -2.8782,-15.7827 -10.75891,-32.1256 -26.02669,-40.5249 -16.35601,-9.0909 -35.6979,-10.1793 -53.86451,-13.6435 -63.62985,-10.3541 -128.28159,-13.9631 -192.67864,-12.7286 z"
       id="path3100-2-1"
       inkscape:connector-curvature="0" />
    <path
       style="fill:#ffffff;stroke:none;stroke-width:1.25761"
       d="m 547.3229,2549.8463 c -67.7912,3.2557 -139.08031,-0.022 -202.08212,30.8316 -32.84674,18.7498 -47.36564,60.2161 -44.00721,98.0957 1.67784,49.6041 15.08653,97.4042 82.86874,108.7634 50.2414,6.6848 100.93175,9.9193 151.51985,12.4244 66.4048,2.0134 134.32892,-0.3719 198.16274,-21.4517 32.41033,-13.7635 50.68159,-49.8269 52.76678,-85.4257 6.87525,-44.6192 -7.64552,-97.2272 -48.23773,-118.4303 -35.78599,-15.4717 -75.34212,-16.9512 -113.33933,-21.8202 -25.82167,-2.2685 -51.74306,-3.2354 -77.65172,-2.9872 z"
       id="path3100-2-1-9"
       inkscape:connector-curvature="0"
       sodipodi:nodetypes="cccccccccc" />
    <path
       style="fill:#ffffff;fill-rule:evenodd;stroke:none;stroke-width:1px;stroke-linecap:butt;stroke-linejoin:miter;stroke-opacity:1"
       d="m 565.35803,2748.8183 c 0,0 15.49435,31.1557 18.76123,47.2541 3.26688,16.0984 -2.23396,98.2886 -54.0297,124.672 60.58129,-13.8373 97.25045,-97.2182 74.9118,-174.2445 -8.13467,-28.0492 -39.64333,2.3184 -39.64333,2.3184 z"
       id="path1357"
       inkscape:connector-curvature="0"
       sodipodi:nodetypes="cscsc" />
    <path
       style="color:#000000;display:inline;overflow:visible;visibility:visible;fill:#ffffff;fill-opacity:1;fill-rule:nonzero;stroke:none;stroke-width:1.00343px;marker:none;enable-background:accumulate"
       d="m 1119.1207,1613.416 c -24.0508,0.665 -48.6733,4.8405 -70.166,17.7518 -18.4233,11.7343 -31.2529,32.595 -37.8091,55.0672 -4.591,14.3929 -7.2371,30.6636 -2.5331,45.4728 5.8059,18.412 20.3743,31.7974 36.3626,37.9765 25.663,11.2748 53.535,12.4073 80.7077,13.4689 29.455,0.8833 58.9949,1.6213 88.3947,-1.086 16.0217,-1.7873 32.2481,-6.7791 45.2522,-17.9635 10.6953,-8.7548 19.4443,-21.8232 20.9228,-37.0517 2.1462,-17.9924 -2.0554,-36.2294 -8.7305,-52.4672 -9.0726,-21.0264 -25.2139,-38.1831 -44.704,-46.1168 -24.8167,-10.962 -51.7325,-12.5985 -78.0291,-14.3303 -9.8789,-0.5894 -19.775,-0.9884 -29.6682,-0.7217 z"
       id="path4546-6-89"
       inkscape:connector-curvature="0"
       sodipodi:nodetypes="cssssc" />
    <path
       style="color:#000000;display:inline;overflow:visible;visibility:visible;fill:#ffffff;fill-opacity:1;fill-rule:nonzero;stroke:none;stroke-width:1px;marker:none;enable-background:accumulate"
       d="m 1191.4693,1723.1631 c 34.2678,49.2543 68.9523,97.6924 121.3421,87.479 -53.9312,29.956 -129.2913,-39.4416 -157.7344,-79.0515 -24.1583,-33.6427 36.3923,-8.4275 36.3923,-8.4275 z"
       id="path4480-3"
       inkscape:connector-curvature="0"
       sodipodi:nodetypes="ccsc" />
    <path
       style="color:#000000;display:inline;overflow:visible;visibility:visible;fill:#ffffff;fill-opacity:1;fill-rule:nonzero;stroke:none;stroke-width:0.959768px;marker:none;enable-background:accumulate"
       d="m 943.55868,2378.7386 c 0.8143,-41.5238 43.01652,-72.0916 158.62302,-64.8041 61.925,3.9043 132.1062,6.3303 131.6287,67.1567 -0.4778,60.8263 -101.1911,59.7186 -121.8655,61.2348 -20.6741,1.5161 -129.2785,-4.3702 -149.58702,-24.9684 -12.71266,-12.8943 -18.27393,-25.7617 -18.7992,-38.619 z"
       id="path4546-6-89-3"
       inkscape:connector-curvature="0"
       sodipodi:nodetypes="cssssc" />
    <path
       style="fill:#ffffff;stroke:none;stroke-width:0.839867"
       d="m 1193.5529,2402.9909 c 150.9265,6.7192 207.154,19.5302 216.3967,155.2432 12.7932,187.8267 -115.1561,197.1988 -292.2193,188.4577 -191.03973,-9.4312 -194.42365,-120.0862 -190.85335,-210.3553 6.16049,-155.7746 111.89835,-136.4675 266.67595,-133.3456 z"
       id="path3280-8-0"
       inkscape:connector-curvature="0"
       sodipodi:nodetypes="csssc" />
    <path
       style="color:#000000;display:inline;overflow:visible;visibility:visible;fill:#ffffff;fill-opacity:1;fill-rule:nonzero;stroke:none;stroke-width:1px;marker:none;enable-background:accumulate"
       d="m 1210.7284,2694.9039 c -14.7937,34.7302 -29.7284,103.9977 49.732,149.2666 -38.7431,-11.0789 -115.7589,-45.8618 -84.4037,-150.4179 9.0983,-30.339 16.322,-15.8945 23.6557,-14.9665 7.3338,0.9279 11.016,16.1178 11.016,16.1178 z"
       id="path4064-3"
       inkscape:connector-curvature="0"
       sodipodi:nodetypes="ccszc" />
    <path
       style="color:#000000;display:inline;overflow:visible;visibility:visible;fill:#ffffff;fill-opacity:1;fill-rule:nonzero;stroke:none;stroke-width:0.704533px;marker:none;enable-background:accumulate"
       d="m 1640.9215,2304.8762 c 35.8068,-39.6682 97.0483,-42.2159 149.1148,-42.2394 49.0199,1.0129 100.2318,3.7125 145.2438,22.7913 29.0062,12.2041 48.6153,44.8101 32.3453,72.1033 -20.0697,23.4202 -56.4311,23.0482 -85.6483,29.5615 -57.6489,7.4345 -115.9894,0.6211 -173.37,-5.5691 -26.1624,-4.6029 -58.3577,-9.8591 -69.0618,-35.6353 -6.0771,-12.5917 -8.8113,-29.5328 1.3762,-41.0123 z"
       id="path3533-6"
       inkscape:connector-curvature="0" />
    <path
       style="fill:#ffffff;fill-rule:evenodd;stroke:none;stroke-width:1.38581px;stroke-linecap:butt;stroke-linejoin:miter;stroke-opacity:1"
       d="m 1854.546,2372.7244 c 38.9505,26.0497 41.6227,92.7882 26.6214,123.6319 14.1425,-16.2403 51.5149,-98.8625 -6.7766,-150.4117 -47.9683,-42.42 -26.0826,20.6575 -26.0826,20.6575 z"
       id="path4248"
       inkscape:connector-curvature="0"
       sodipodi:nodetypes="ccscc" />
    <path
       style="display:inline;fill:#ffffff;stroke:none;stroke-width:0.994595"
       d="m 2064.8877,2363.4786 c 0.6414,-46.798 24.3072,-88.8773 131.8193,-81.3665 107.5122,7.5106 142.8181,12.5528 143.038,76.3598 0.2301,66.7772 -53.2334,82.483 -134.6101,85.0678 -83.8905,2.6644 -139.9151,-24.4731 -140.2472,-80.0611 z"
       id="path3280-64"
       inkscape:connector-curvature="0"
       sodipodi:nodetypes="csssc" />
    <path
       style="color:#000000;display:inline;overflow:visible;visibility:visible;fill:#ffffff;fill-opacity:1;fill-rule:nonzero;stroke:none;stroke-width:1.00876px;marker:none;enable-background:accumulate"
       d="m 2225.6941,2499.207 c 29.3281,-35.4419 42.8909,-48.473 14.1537,-86.3903 -28.7372,-37.9162 -14.1521,-48.0944 -14.1521,-48.0944 l 30.5785,11.3041 c 0,0 63.9999,68.3303 -30.5801,123.1806 z"
       id="path3072-56"
       inkscape:connector-curvature="0"
       sodipodi:nodetypes="ccccc" />
    <path
       style="color:#000000;display:inline;overflow:visible;visibility:visible;fill:#ffffff;fill-opacity:1;fill-rule:nonzero;stroke:none;stroke-width:0.719299px;marker:none;enable-background:accumulate"
       d="m 2128.8746,2851.2795 c 16.7613,-10.6828 136.3147,-20.9136 170.2493,6.5509 28.3247,22.9241 26.5072,67.8338 0.5658,84.713 -26.4284,17.1953 -127.1439,11.1221 -166.0708,2.8873 -36.6568,-7.7541 -35.9935,-26.4975 -34.9936,-59.1682 0.4081,-13.3336 13.4881,-24.3009 30.2493,-34.983 z"
       id="path4040-4-5-3-6"
       inkscape:connector-curvature="0"
       sodipodi:nodetypes="zssssz" />
    <path
       style="color:#000000;display:inline;overflow:visible;visibility:visible;fill:#ffffff;fill-opacity:1;fill-rule:nonzero;stroke:none;stroke-width:0.76562px;marker:none;enable-background:accumulate"
       d="m 2214.4759,2928.4 c -29.9031,0.6316 -60.0137,2.982 -88.9939,10.9109 -17.1392,4.0545 -37.9829,3.8099 -53.4131,12.9849 -12.9098,7.523 -21.7066,20.0591 -31.4096,31.5172 -5.8656,7.7924 -8.5482,17.6862 -8.4746,27.4195 -1.0781,15.4992 1.3842,32.014 10.6042,44.8056 9.4212,13.069 24.0222,21.1024 38.9139,26.0235 38.4201,14.0901 79.6234,17.4838 120.1732,18.1236 33.4794,0.2798 67.3392,0.3205 100.1925,-7.0998 13.3768,-3.0705 26.6175,-7.1845 38.9649,-13.2999 19.4896,-11.1731 31.6788,-33.2491 32.9856,-55.7133 1.5017,-19.8201 -4.6904,-40.8065 -18.909,-54.8546 -11.5409,-10.8765 -26.9213,-15.9054 -41.8212,-19.9398 -25.9859,-6.7335 -51.4627,-15.9193 -78.1244,-19.6367 -6.8539,-0.9349 -13.7744,-1.3317 -20.6885,-1.2411 z"
       id="path4040-4-5-3"
       inkscape:connector-curvature="0"
       sodipodi:nodetypes="zsssszccccccccz" />
    <path
       style="display:inline;fill:#ffffff;fill-rule:evenodd;stroke:none;stroke-width:1px;stroke-linecap:butt;stroke-linejoin:miter;stroke-opacity:1"
       d="m 2233.8905,2901.4843 c -59.0902,-10.6562 16.1202,-61.0715 -1.0396,-83.0609 -8.296,-10.6309 -45.3019,13.7249 -85.4552,-27.1328 44.274,25.5713 73.4492,-3.2499 94.1628,5.6982 39.3401,16.9937 6.1746,61.0235 5.4438,70.8494 -0.9776,13.1415 -13.1118,33.6461 -13.1118,33.6461 z"
       id="path4186-80"
       inkscape:connector-curvature="0"
       sodipodi:nodetypes="cscssc" />
  </g>
  <g
     inkscape:groupmode="layer"
     id="layer1"
     inkscape:label="txt"
     style="display:inline">
    <text
       id="text4246-4-2-7"
       y="2033.6505"
       x="628.56891"
       style="font-style:normal;font-variant:normal;font-weight:normal;font-stretch:normal;line-height:0%;font-family:Lavi;-inkscape-font-specification:Lavi;text-align:center;letter-spacing:0px;word-spacing:0px;text-anchor:middle;fill:#000000;fill-opacity:1;stroke:none"
       xml:space="preserve"><tspan
         y="2033.6505"
         x="628.56891"
         style="font-size:45px;line-height:1.25"
         sodipodi:role="line"
         id="tspan5816">Men me</tspan><tspan
         y="2089.9004"
         x="628.56891"
         style="font-size:45px;line-height:1.25"
         sodipodi:role="line"
         id="tspan85972">klarte det</tspan><tspan
         y="2146.1504"
         x="628.56891"
         style="font-size:45px;line-height:1.25"
         sodipodi:role="line"
         id="tspan5547">nesten ...</tspan></text>
    <text
       id="text4246-4-2-7-3-2"
       y="1686.8354"
       x="1146.1353"
       style="font-style:normal;font-variant:normal;font-weight:normal;font-stretch:normal;line-height:0%;font-family:Lavi;-inkscape-font-specification:Lavi;text-align:center;letter-spacing:0px;word-spacing:0px;text-anchor:middle;fill:#000000;fill-opacity:1;stroke:none"
       xml:space="preserve"><tspan
         y="1686.8354"
         x="1146.1353"
         style="font-size:45px;line-height:1.25"
         sodipodi:role="line"
         id="tspan103302">Ja,</tspan><tspan
         y="1743.0854"
         x="1146.1353"
         style="font-size:45px;line-height:1.25"
         sodipodi:role="line"
         id="tspan11289">nesten ...</tspan></text>
    <text
       id="text4246-4-2-7-3"
       y="1623.4836"
       x="1934.7073"
       style="font-style:normal;font-variant:normal;font-weight:normal;font-stretch:normal;line-height:0%;font-family:Lavi;-inkscape-font-specification:Lavi;text-align:center;letter-spacing:0px;word-spacing:0px;text-anchor:middle;fill:#000000;fill-opacity:1;stroke:none"
       xml:space="preserve"><tspan
         y="1623.4836"
         x="1934.7073"
         style="font-size:45px;line-height:1.25"
         sodipodi:role="line"
         id="tspan26099">Veit du forresten</tspan><tspan
         y="1679.7336"
         x="1934.7073"
         style="font-size:45px;line-height:1.25"
         sodipodi:role="line"
         id="tspan92680">kvifor Wasabi har eit</tspan><tspan
         y="1735.9836"
         x="1934.7073"
         style="font-size:45px;line-height:1.25"
         sodipodi:role="line"
         id="tspan607">horn i sida til meg?</tspan></text>
    <text
       id="text4246-4-2-7-3-6-7"
       y="2350.5913"
       x="451.58252"
       style="font-style:normal;font-variant:normal;font-weight:normal;font-stretch:normal;line-height:0%;font-family:Lavi;-inkscape-font-specification:Lavi;text-align:center;letter-spacing:0px;word-spacing:0px;text-anchor:middle;fill:#000000;fill-opacity:1;stroke:none"
       xml:space="preserve"><tspan
         y="2350.5913"
         x="451.58252"
         style="font-size:45px;line-height:1.25;fill:#000000"
         sodipodi:role="line"
         id="tspan32649">Ho er redd for de</tspan><tspan
         y="2406.8413"
         x="451.58252"
         style="font-size:45px;line-height:1.25;fill:#000000"
         sodipodi:role="line"
         id="tspan100822">Kaosah-hekser, Pepar ...</tspan></text>
    <text
       id="text4246-4-2-7-3-6-7-6"
       y="2489.1367"
       x="452.73358"
       style="font-style:normal;font-variant:normal;font-weight:normal;font-stretch:normal;line-height:0%;font-family:Lavi;-inkscape-font-specification:Lavi;text-align:center;letter-spacing:0px;word-spacing:0px;text-anchor:middle;fill:#000000;fill-opacity:1;stroke:none"
       xml:space="preserve"><tspan
         y="2489.1367"
         x="452.73358"
         style="font-size:45px;line-height:1.25;fill:#000000"
         sodipodi:role="line"
         id="tspan104726">Og spesielt for <tspan
   style="font-weight:bold"
   id="tspan116392">kjede-</tspan></tspan><tspan
         y="2545.3867"
         x="452.73358"
         style="font-size:45px;line-height:1.25;fill:#000000"
         sodipodi:role="line"
         id="tspan111170"><tspan
   style="font-weight:bold"
   id="tspan116394">reaksjonane</tspan> dykkar.</tspan></text>
    <text
       id="text4246-4-2-7-3-6-7-6-6"
       y="2631.8279"
       x="547.58435"
       style="font-style:normal;font-variant:normal;font-weight:normal;font-stretch:normal;line-height:0%;font-family:Lavi;-inkscape-font-specification:Lavi;text-align:center;letter-spacing:0px;word-spacing:0px;text-anchor:middle;fill:#000000;fill-opacity:1;stroke:none"
       xml:space="preserve"><tspan
         y="2631.8279"
         x="547.58435"
         style="font-size:45px;line-height:1.25;fill:#000000"
         sodipodi:role="line"
         id="tspan61804">Ho meiner dei er</tspan><tspan
         y="2688.0779"
         x="547.58435"
         style="font-size:45px;line-height:1.25;fill:#000000"
         sodipodi:role="line"
         id="tspan119579">ein stor trugsel</tspan><tspan
         y="2744.3279"
         x="547.58435"
         style="font-size:45px;line-height:1.25;fill:#000000"
         sodipodi:role="line"
         id="tspan120325">mot planane hennar.</tspan></text>
    <text
       id="text4246-4-2-7-3-6-7-6-6-4"
       y="2392.926"
       x="1094.141"
       style="font-style:normal;font-variant:normal;font-weight:normal;font-stretch:normal;line-height:0%;font-family:Lavi;-inkscape-font-specification:Lavi;text-align:center;letter-spacing:0px;word-spacing:0px;text-anchor:middle;fill:#000000;fill-opacity:1;stroke:none"
       xml:space="preserve"><tspan
         y="2392.926"
         x="1094.141"
         style="font-size:45px;line-height:1.25;fill:#000000"
         sodipodi:role="line"
         id="tspan83621-1-4">Å, pfff ...</tspan></text>
    <text
       id="text4246-4-2-7-3-6-7-6-6-4-5"
       y="2485.6289"
       x="1168.401"
       style="font-style:normal;font-variant:normal;font-weight:normal;font-stretch:normal;line-height:0%;font-family:Lavi;-inkscape-font-specification:Lavi;text-align:center;letter-spacing:0px;word-spacing:0px;text-anchor:middle;fill:#000000;fill-opacity:1;stroke:none"
       xml:space="preserve"><tspan
         y="2485.6289"
         x="1168.401"
         style="font-size:45px;line-height:1.25;fill:#000000"
         sodipodi:role="line"
         id="tspan82280"><tspan
   style="font-style:italic"
   id="tspan29941">Der</tspan> treng ho iallfall</tspan><tspan
         y="2541.8789"
         x="1168.401"
         style="font-size:45px;line-height:1.25;fill:#000000"
         sodipodi:role="line"
         id="tspan124732">ikkje uroa seg;</tspan><tspan
         y="2598.1289"
         x="1168.401"
         style="font-size:45px;line-height:1.25;fill:#000000"
         sodipodi:role="line"
         id="tspan125890">eg har aldri heilt</tspan><tspan
         y="2654.3789"
         x="1168.401"
         style="font-size:45px;line-height:1.25;fill:#000000"
         sodipodi:role="line"
         id="tspan127108">fått til å skapa ein</tspan><tspan
         y="2710.6289"
         x="1168.401"
         style="font-size:45px;line-height:1.25;fill:#000000"
         sodipodi:role="line"
         id="tspan127322">einaste ein.</tspan></text>
    <text
       id="text4246-4-2-7-3-6-7-6-6-4-5-1"
       y="2340.7527"
       x="1800.5885"
       style="font-style:normal;font-variant:normal;font-weight:normal;font-stretch:normal;line-height:0%;font-family:Lavi;-inkscape-font-specification:Lavi;text-align:center;letter-spacing:0px;word-spacing:0px;text-anchor:middle;fill:#000000;fill-opacity:1;stroke:none"
       xml:space="preserve"><tspan
         y="2340.7527"
         x="1800.5885"
         style="font-size:45px;line-height:1.25;fill:#000000"
         sodipodi:role="line"
         id="tspan186800-2">Har du ikkje?</tspan></text>
    <text
       id="text4246-4-2-7-3-6-7-6-6-4-5-1-6"
       y="2351.1951"
       x="2205.0493"
       style="font-style:normal;font-variant:normal;font-weight:normal;font-stretch:normal;font-size:39px;line-height:0%;font-family:Lavi;-inkscape-font-specification:Lavi;text-align:center;letter-spacing:0px;word-spacing:0px;text-anchor:middle;fill:#000000;fill-opacity:1;stroke:none"
       xml:space="preserve"><tspan
         y="2351.1951"
         x="2205.0493"
         style="font-size:39px;line-height:1.25;fill:#000000"
         sodipodi:role="line"
         id="tspan94771">Nei, aldri,</tspan><tspan
         y="2399.9451"
         x="2205.0493"
         style="font-size:39px;line-height:1.25;fill:#000000"
         sodipodi:role="line"
         id="tspan134272">ha-ha-ha!</tspan></text>
    <text
       id="text4246-4-2-7-3-6-7-6-6-4-5-1-6-5"
       y="2913.3784"
       x="2208.719"
       style="font-style:normal;font-variant:normal;font-weight:normal;font-stretch:normal;font-size:42.5063px;line-height:0%;font-family:Lavi;-inkscape-font-specification:Lavi;text-align:center;letter-spacing:0px;word-spacing:0px;text-anchor:middle;fill:#000000;fill-opacity:1;stroke:none;stroke-width:1.0899"
       xml:space="preserve"><tspan
         y="2913.3784"
         x="2208.719"
         style="font-size:42.5063px;line-height:1.25;fill:#000000;stroke-width:1.0899"
         sodipodi:role="line"
         id="tspan201029-4">Hi-hi-hi!</tspan></text>
    <text
       id="text4246-4-2-7-3-6-7-6-6-4-5-1-6-5-7"
       y="3005.8147"
       x="2203.1985"
       style="font-style:normal;font-variant:normal;font-weight:normal;font-stretch:normal;font-size:39px;line-height:0%;font-family:Lavi;-inkscape-font-specification:Lavi;text-align:center;letter-spacing:0px;word-spacing:0px;text-anchor:middle;fill:#000000;fill-opacity:1;stroke:none"
       xml:space="preserve"><tspan
         y="3005.8147"
         x="2203.1985"
         style="font-size:39px;line-height:1.25;fill:#000000"
         sodipodi:role="line"
         id="tspan104571">Ho er verkeleg</tspan><tspan
         y="3054.5647"
         x="2203.1985"
         style="font-size:39px;line-height:1.25;fill:#000000"
         sodipodi:role="line"
         id="tspan139204">paranoid ...</tspan></text>
  </g>
</svg>
