<?xml version="1.0" encoding="UTF-8" standalone="no"?>
<!-- Created with Inkscape (http://www.inkscape.org/) -->

<svg
   id="svg2"
   version="1.1"
   inkscape:version="1.1.1 (3bf5ae0d25, 2021-09-20)"
   width="2481"
   height="3503"
   sodipodi:docname="E36P04.svg"
   xmlns:inkscape="http://www.inkscape.org/namespaces/inkscape"
   xmlns:sodipodi="http://sodipodi.sourceforge.net/DTD/sodipodi-0.dtd"
   xmlns:xlink="http://www.w3.org/1999/xlink"
   xmlns="http://www.w3.org/2000/svg"
   xmlns:svg="http://www.w3.org/2000/svg"
   xmlns:rdf="http://www.w3.org/1999/02/22-rdf-syntax-ns#"
   xmlns:cc="http://creativecommons.org/ns#"
   xmlns:dc="http://purl.org/dc/elements/1.1/">
  <metadata
     id="metadata8">
    <rdf:RDF>
      <cc:Work
         rdf:about="">
        <dc:format>image/svg+xml</dc:format>
        <dc:type
           rdf:resource="http://purl.org/dc/dcmitype/StillImage" />
        <dc:title />
      </cc:Work>
    </rdf:RDF>
  </metadata>
  <defs
     id="defs6">
    <filter
       inkscape:collect="always"
       style="color-interpolation-filters:sRGB"
       id="filter827"
       x="-0.0066607392"
       y="-0.0039446045"
       width="1.0133215"
       height="1.0078892">
      <feGaussianBlur
         inkscape:collect="always"
         stdDeviation="5.1724067"
         id="feGaussianBlur829" />
    </filter>
    <filter
       style="color-interpolation-filters:sRGB"
       id="filter5561-1"
       inkscape:label="deevad outline effect"
       x="-0.0040729675"
       y="-0.015367663"
       width="1.0081459"
       height="1.0307353">
      <feFlood
         id="feFlood5563-9"
         flood-opacity="1"
         flood-color="rgb(0,0,0)"
         result="flood" />
      <feComposite
         id="feComposite5565-0"
         in2="SourceGraphic"
         in="flood"
         operator="in"
         result="composite1" />
      <feMorphology
         id="feMorphology5567-7"
         operator="dilate"
         radius="1.8999999999999999 6.0999999999999996"
         result="result3" />
      <feComposite
         id="feComposite5569-2"
         in2="result3"
         in="SourceGraphic"
         operator="over"
         result="composite2" />
    </filter>
  </defs>
  <sodipodi:namedview
     pagecolor="#1e1e1e"
     bordercolor="#111111"
     borderopacity="1"
     objecttolerance="10"
     gridtolerance="10"
     guidetolerance="10"
     inkscape:pageopacity="0"
     inkscape:pageshadow="2"
     inkscape:window-width="1920"
     inkscape:window-height="967"
     id="namedview4"
     showgrid="false"
     inkscape:zoom="1.2167001"
     inkscape:cx="1036.8209"
     inkscape:cy="3114.5721"
     inkscape:window-x="0"
     inkscape:window-y="72"
     inkscape:window-maximized="1"
     inkscape:current-layer="layer4"
     inkscape:pagecheckerboard="0"
     inkscape:snap-global="false" />
  <g
     inkscape:groupmode="layer"
     id="layer2"
     inkscape:label="artwork"
     sodipodi:insensitive="true">
    <image
       xlink:href="../gfx_Pepper-and-Carrot_by-David-Revoy_E36P04.png"
       y="0"
       x="0"
       id="image10"
       height="3503"
       width="2481" />
  </g>
  <g
     inkscape:groupmode="layer"
     id="layer4"
     inkscape:label="speechbubbles-whisper"
     style="display:inline;opacity:0.7;mix-blend-mode:screen;filter:url(#filter827)">
    <path
       style="fill:#cdf0ff;fill-opacity:1;stroke:none;stroke-width:0.571523"
       d="m 136.33301,238.02884 c 6.40162,-61.37455 66.92602,-131.82212 208.92557,-121.68162 141.99954,10.13994 196.12232,53.90254 192.04856,137.69232 -4.07376,83.78973 -80.89318,116.34495 -200.19608,111.54172 C 217.80817,360.77805 129.34943,326.62174 136.33301,238.02884 Z"
       id="path3274"
       inkscape:connector-curvature="0" />
    <path
       style="color:#000000;display:inline;overflow:visible;visibility:visible;fill:#cdf0ff;fill-opacity:1;fill-rule:nonzero;stroke:none;stroke-width:1.2829px;marker:none;enable-background:accumulate"
       d="m 237.21621,333.3289 c -60.89615,44.87238 -75.82159,95.90727 -42.44689,136.76086 -66.94955,-55.398 -25.05599,-140.35221 2.50625,-158.22088 26.98706,-17.49572 39.94064,21.46002 39.94064,21.46002 z"
       id="path5010-4"
       inkscape:connector-curvature="0"
       sodipodi:nodetypes="ccsc" />
    <path
       style="fill:#cdf0ff;fill-opacity:1;stroke:none;stroke-width:0.828359"
       d="m 118.55309,1031.0637 c -0.60831,-49.35671 12.69411,-91.55994 152.97823,-91.59878 147.32567,-0.0405 176.73183,26.31197 183.40565,92.89738 9.41802,93.9654 -73.9573,89.5921 -160.97392,89.8308 -121.89156,0.3334 -167.61531,0.4126 -175.40996,-91.1294 z"
       id="path3280-10"
       inkscape:connector-curvature="0"
       sodipodi:nodetypes="csssc" />
    <path
       style="opacity:1;fill:#cdf0ff;fill-opacity:1;stroke:none;stroke-width:0.702417"
       d="m 435.14337,1139.5355 c -0.50321,-45.3262 10.50063,-84.083 126.54433,-84.1187 121.86851,-0.037 146.19343,24.1633 151.71404,85.3112 7.79064,86.2921 -61.17784,82.2759 -133.1584,82.4951 -100.82929,0.3061 -138.65221,0.3789 -145.09997,-83.6876 z"
       id="path3280-10-9"
       inkscape:connector-curvature="0"
       sodipodi:nodetypes="csssc" />
    <path
       style="fill:#cdf0ff;fill-opacity:1;stroke:none;stroke-width:0.9001"
       d="m 414.458,1041.2033 c 1.97328,-28.5636 12.16762,-52.98674 98.50721,-53.00954 90.67337,-0.027 107.51799,15.22754 108.45809,53.76114 1.32696,54.3791 -49.77831,51.8485 -103.34404,51.9869 -75.03384,0.1929 -103.17824,0.2384 -103.62126,-52.7385 z"
       id="path3280-1"
       inkscape:connector-curvature="0"
       sodipodi:nodetypes="csssc" />
    <path
       inkscape:connector-curvature="0"
       id="path1082-6"
       d="m 280.58037,1007.5411 c -1.05852,1.1484 -2.23987,0.5097 -1.98486,-0.6816 0.46134,-10.2919 -2.14669,-20.41668 -9.6319,-26.29329 -10.13751,-7.29069 -22.77075,-12.21022 -29.84045,-22.59504 -5.75745,-8.74427 -5.01971,-21.18698 -1.49413,-32.91007 4.31252,-14.84587 13.38648,-30.0739 26.78068,-41.34485 6.19451,-5.09695 13.0206,-9.28731 19.6858,-13.63981 1.70647,-1.09332 3.42181,-2.16912 5.1321,-3.25498 -15.98365,14.17836 -28.18362,32.92468 -31.66564,51.29818 -0.83521,11.52515 5.1122,20.58777 12.46283,27.38858 8.74595,8.67863 19.87856,15.63077 24.72663,27.4867 2.05504,6.07335 3.77199,13.18731 -0.0119,20.5838 -3.32768,5.64168 -9.09749,9.69898 -14.15911,13.96238 z"
       style="display:inline;fill:#cdf0ff;fill-opacity:1;fill-rule:evenodd;stroke:none;stroke-width:0.863514px;stroke-linecap:butt;stroke-linejoin:miter;stroke-opacity:1" />
    <path
       style="fill:#cdf0ff;fill-opacity:1;stroke:none;stroke-width:1.16513"
       d="m 1709.1339,126.3077 c -42.5041,1.51046 -85.0275,5.05596 -127.1587,12.92286 -24.0431,6.59891 -45.2323,30.67397 -53.2956,61.91686 -3.9104,17.81321 0.2218,37.60331 8.9753,51.62508 10.275,18.69061 25.6787,31.75573 42.3708,37.49094 12.6489,4.43501 25.7949,4.77764 38.7485,6.30343 13.2052,1.25531 26.4056,2.70418 39.5376,4.97173 30.7361,4.02135 61.655,3.55565 92.4952,4.47898 23.8838,0.61054 47.8131,0.45642 71.6235,-2.40353 29.7624,-3.19514 59.5117,-6.94007 89.0799,-12.55452 18.1213,-4.04413 36.3805,-11.30353 51.3317,-26.11039 11.2323,-11.60687 17.369,-30.75309 17.1224,-49.60645 -0.096,-20.83284 -7.428,-41.93077 -20.4401,-53.75084 -13.6729,-12.40151 -29.5984,-19.49672 -45.7006,-23.66377 -22.7219,-5.86592 -45.8797,-7.86428 -68.9618,-9.1359 -31.8389,-1.46073 -63.7008,-1.60579 -95.5523,-2.25378 -12.0717,-0.12102 -24.146,-0.56327 -36.2168,-0.35186 -1.3197,0.0404 -2.6394,0.0807 -3.959,0.12116 z"
       id="path3280-8-90"
       inkscape:connector-curvature="0"
       sodipodi:nodetypes="csssc" />
    <path
       style="color:#000000;display:inline;overflow:visible;visibility:visible;fill:#cdf0ff;fill-opacity:1;fill-rule:nonzero;stroke:none;stroke-width:1.45931px;marker:none;enable-background:accumulate"
       d="m 1894.2527,478.01503 c -46.7238,3.40887 -69.3017,-79.91577 -74.6609,-127.91878 -5.3593,-48.00301 8.584,-99.29915 8.584,-99.29915 l -48.7389,-16.48951 c 0,0 -2.5241,264.49574 114.8158,243.70744 z"
       id="path3072-5"
       inkscape:connector-curvature="0"
       inkscape:transform-center-x="-2.5695303"
       inkscape:transform-center-y="25.826442"
       sodipodi:nodetypes="czccc" />
    <path
       style="color:#000000;display:inline;overflow:visible;visibility:visible;fill:#cdf0ff;fill-opacity:1;fill-rule:nonzero;stroke:none;stroke-width:1.22256px;marker:none;enable-background:accumulate"
       d="m 1618.1099,1155.6744 c 0.9145,-55.4749 18.7278,-107.9364 176.6399,-106.1209 118.4032,1.3605 149.9346,44.1029 152.5579,100.1767 1.8488,39.5168 -62.2081,76.0945 -163.9369,74.1563 -97.2331,-1.8521 -158.1501,-25.906 -165.2609,-68.2121 z"
       id="path5026-3"
       inkscape:connector-curvature="0"
       sodipodi:nodetypes="csssc" />
    <path
       style="fill:#cdf0ff;fill-rule:evenodd;stroke:none;stroke-width:1.78217px;stroke-linecap:butt;stroke-linejoin:miter;stroke-opacity:1;fill-opacity:1"
       d="m 1876.9024,1072.4564 c 28.2335,-6.4279 93.4241,-58.729 105.0673,-115.8066 2.8219,25.56546 -15.0538,86.6026 -55.5282,133.1516 -63.168,72.6485 -68.303,-6.7555 -68.303,-6.7555 z"
       id="path4248"
       inkscape:connector-curvature="0"
       sodipodi:nodetypes="ccscc" />
    <path
       style="fill:#cdf0ff;fill-opacity:1;fill-rule:evenodd;stroke:none;stroke-width:1.22277px;stroke-linecap:butt;stroke-linejoin:miter;stroke-opacity:1"
       d="m 1153.7193,1796.0819 c 11.1487,-69.8256 58.2126,-86.0819 269.0124,-90.9145 149.293,-3.4225 215.6528,-0.6217 269.6945,45.3958 28.0054,23.8471 41.4682,176.9734 -33.4925,183.0805 -99.3644,16.1701 -200.47,17.0755 -300.744,16.0795 -59.5691,-4.9962 -125.4199,-8.3079 -175.9649,-47.4538 -24.3245,-26.918 -34.5621,-68.2546 -28.5055,-106.1875 z"
       id="path4246"
       inkscape:connector-curvature="0"
       sodipodi:nodetypes="sssssss" />
    <path
       style="fill:#cdf0ff;fill-opacity:1;stroke:none;stroke-width:0.862371"
       d="m 1469.203,1979.5854 c -34.3267,0.5558 -69.2936,3.663 -101.5708,16.7976 -19.3203,8.1448 -37.1185,22.6515 -45.8806,42.9025 -11.5639,25.8635 -12.0178,55.9628 -5.2991,83.3029 5.5512,22.3753 18.6055,42.9003 37.1466,55.6266 22.3146,16.2399 49.6056,23.4692 76.5065,24.2841 28.6664,1.3934 57.3654,0.087 86.0464,0.4212 28.7285,-0.09 57.9675,-0.4362 85.7818,-8.8673 24.5166,-8.1157 45.5353,-27.827 54.9877,-53.0549 7.1723,-18.1704 8.6962,-38.2087 7.3957,-57.6676 -1.029,-18.9823 -3.8519,-38.6419 -13.494,-55.1078 -7.3924,-12.6275 -18.6888,-22.4258 -31.517,-28.4747 -23.5917,-11.7252 -49.8652,-15.1167 -75.5544,-17.8202 -24.7787,-2.3674 -49.6879,-2.4949 -74.5488,-2.3424 z"
       id="path3280-10-5"
       inkscape:connector-curvature="0"
       sodipodi:nodetypes="csssc" />
    <path
       style="fill:#cdf0ff;fill-rule:evenodd;stroke:none;stroke-width:0.982814px;stroke-linecap:butt;stroke-linejoin:miter;stroke-opacity:1;fill-opacity:1"
       d="m 1452.8701,2063.1977 c 20.0222,-118.9472 -38.8836,-176.8263 -112.6674,-203.8912 -73.7839,-27.0648 -408.44801,-122.5007 -586.75006,31.3 164.14364,-172.6923 505.87416,-84.1291 578.34696,-59.2455 72.4727,24.8835 165.149,62.928 159.016,232.4228 -6.133,169.4949 -37.9455,-0.5861 -37.9455,-0.5861 z"
       id="path98507" />
    <path
       style="color:#000000;display:inline;overflow:visible;visibility:visible;fill:#cdf0ff;fill-opacity:1;fill-rule:nonzero;stroke:none;stroke-width:0.623202px;marker:none;enable-background:accumulate"
       d="m 172.21239,2845.2025 c 24.56093,-36.8211 160.75651,-31.1896 203.11889,-21.7058 46.23086,10.3497 60.46466,25.0144 62.53193,57.1557 0.63857,9.9277 -3.10093,54.9473 -25.84151,63.8101 -22.74053,8.8622 -87.8611,13.2936 -110.60169,13.2936 -22.74052,0 -95.33332,-5.6406 -113.70286,-18.6115 -17.57221,-12.407 -40.06575,-57.1216 -15.50476,-93.9421 z"
       id="path3330-0"
       inkscape:connector-curvature="0"
       sodipodi:nodetypes="zsssssz" />
    <path
       style="color:#000000;display:inline;overflow:visible;visibility:visible;fill:#cdf0ff;fill-opacity:1;fill-rule:nonzero;stroke:none;stroke-width:1.70608px;marker:none;enable-background:accumulate"
       d="m 304.73804,3036.9962 c -11.64934,-114.3446 91.03704,-183.9932 389.67862,-165.0661 154.91614,9.8182 343.33874,21.0994 331.65444,192.7716 -10.2978,151.3064 -263.84115,128.9025 -314.60939,130.688 -50.76901,1.7854 -315.13858,-6.8192 -363.42607,-60.1911 -30.22672,-33.4105 -42.9319,-66.0634 -43.2976,-98.2024 z"
       id="path4546-6-5-3"
       inkscape:connector-curvature="0"
       sodipodi:nodetypes="cssssc" />
    <path
       style="color:#000000;display:inline;overflow:visible;visibility:visible;fill:#cdf0ff;fill-opacity:1;fill-rule:nonzero;stroke:none;stroke-width:0.934404px;marker:none;enable-background:accumulate"
       d="m 1142.4474,3071.4609 c -49.3388,0.3416 -100.143,1.6341 -146.51711,17.7102 -29.41593,10.1644 -57.43002,26.0653 -74.61604,49.431 -10.5,14.7754 -16.04269,33.5443 -9.01929,50.3154 7.0969,15.5339 13.92259,34.0898 28.25933,44.3017 24.49732,17.4492 58.12871,19.2112 88.00481,21.3805 41.1098,2.9849 79.656,4.3939 123.465,6.8978 64.9804,2.3858 130.0909,-0.2084 194.8214,-5.2364 26.7835,-2.8405 54.4555,-8.281 76.2222,-22.7223 23.0061,-15.7864 35.3357,-41.6737 33.2559,-66.7609 -1.302,-22.3233 -14.2353,-44.2551 -35.6863,-57.2168 -27.8733,-18.219 -63.0478,-25.0055 -97.1038,-28.9408 -41.9829,-4.8843 -84.3662,-6.2658 -126.6272,-8.2836 -18.1429,-0.6271 -36.3009,-0.9397 -54.4589,-0.8758 z"
       id="path4546-1"
       inkscape:connector-curvature="0"
       sodipodi:nodetypes="csssascccccccc" />
    <path
       style="fill:#cdf0ff;fill-opacity:1;fill-rule:evenodd;stroke:none;stroke-width:0.8628px;stroke-linecap:butt;stroke-linejoin:miter;stroke-opacity:1"
       d="m 1489.2712,3247.2085 c -50.4862,11.4936 -118.5889,-1.8333 -151.4166,-46.2885 -32.8277,-44.4549 -2.6699,31.9178 -2.6699,31.9178 0,0 59.9464,55.1538 154.0865,14.3707 z"
       id="path914"
       inkscape:connector-curvature="0"
       sodipodi:nodetypes="cscc" />
  </g>
  <g
     inkscape:groupmode="layer"
     id="layer3"
     inkscape:label="speechbubbles"
     style="display:inline">
    <path
       style="color:#000000;display:inline;overflow:visible;visibility:visible;fill:#ffffff;fill-opacity:1;fill-rule:nonzero;stroke:none;stroke-width:0.76825px;marker:none;enable-background:accumulate"
       d="m 1286.1959,1984.1813 c -18.9485,13.729 -18.2881,22.2591 7.439,23.5835 -43.1447,24.7437 -7.8873,20.9995 -0.9332,27.2737 -33.8765,8.5275 -21.3092,19.6601 -12.6885,29.704 -42.1154,-16.2682 -27.7586,6.1339 -24.8515,20.7092 -11.8143,-9.8963 -30.9848,-19.7481 -22.9114,5.932 -25.7549,-20.467 -47.9262,-38.8367 -50.3894,-3.0184 -10.377,-18.0193 -36.8482,-21.3996 -36.0516,0.092 -21.402,-25.3028 -43.4646,-26.7823 -64.7833,-9.0768 0.7313,-11.3625 25.1813,-35.0922 -26.5648,-18.3608 21.2092,-15.8217 6.0255,-18.1254 -18.9581,-17.5242 20.011,-5.0513 23.6989,-10.2617 -13.4568,-15.8687 28.2734,-0.5427 54.6383,-1.6541 21.4676,-20.7759 10.4066,-0.4632 58.4658,15.3065 10.5872,-44.3656 17.8948,14.9491 52.4898,24.5281 47.3151,-8.6629 28.6587,27.3868 41.0685,13.7711 49.6189,-5.7696 20.1907,28.718 29.8395,23.0011 50.0885,2.0703 1.5387,13.2814 24.2569,30.3795 50.3608,12.8593 -14.218,21.0674 11.1217,26.7445 34.7115,21.1989 z"
       id="path3549-3-7-3"
       inkscape:connector-curvature="0"
       sodipodi:nodetypes="ccccccccccccccccccc" />
    <path
       style="color:#000000;display:inline;overflow:visible;visibility:visible;fill:#ffffff;fill-opacity:1;fill-rule:nonzero;stroke:none;stroke-width:0.837149px;marker:none;enable-background:accumulate"
       d="m 966.36472,2000.5771 c 42.82178,-22.7004 91.81268,-11.0807 106.41908,-4.0321 46.7932,22.5812 18.1866,37.5471 18.1866,37.5471 0.4518,-0.4935 -62.6742,-53.459 -124.60568,-33.515 z"
       id="path5002-7"
       inkscape:connector-curvature="0"
       sodipodi:nodetypes="cscc" />
  </g>
  <g
     inkscape:groupmode="layer"
     id="layer1"
     inkscape:label="txt"
     style="display:inline">
    <text
       id="text4246-4-2-7"
       y="195.1812"
       x="336.2168"
       style="font-style:normal;font-variant:normal;font-weight:normal;font-stretch:normal;line-height:0%;font-family:Lavi;-inkscape-font-specification:Lavi;text-align:center;letter-spacing:0px;word-spacing:0px;text-anchor:middle;fill:#000000;fill-opacity:1;stroke:none"
       xml:space="preserve"><tspan
         y="195.1812"
         x="336.2168"
         style="font-size:45px;line-height:1.25"
         sodipodi:role="line"
         id="tspan6111">Eg er ...</tspan><tspan
         y="251.4312"
         x="336.2168"
         style="font-size:45px;line-height:1.25"
         sodipodi:role="line"
         id="tspan11312">Eg er lei for det</tspan><tspan
         y="307.68121"
         x="336.2168"
         style="font-size:45px;line-height:1.25"
         sodipodi:role="line"
         id="tspan38625">som hende ...</tspan></text>
    <text
       id="text4246-4-2-7-3"
       y="1019.8065"
       x="289.55002"
       style="font-style:normal;font-variant:normal;font-weight:normal;font-stretch:normal;line-height:0%;font-family:Lavi;-inkscape-font-specification:Lavi;text-align:center;letter-spacing:0px;word-spacing:0px;text-anchor:middle;fill:#000000;fill-opacity:1;stroke:none"
       xml:space="preserve"><tspan
         y="1019.8065"
         x="289.55002"
         style="font-size:45px;line-height:1.25"
         sodipodi:role="line"
         id="tspan20199">... slåstinga</tspan><tspan
         y="1076.0565"
         x="289.55002"
         style="font-size:45px;line-height:1.25"
         sodipodi:role="line"
         id="tspan42601">vår, veit du.</tspan></text>
    <text
       id="text4246-4-2-7-3-1"
       y="1058.5084"
       x="524.69989"
       style="font-style:normal;font-variant:normal;font-weight:normal;font-stretch:normal;line-height:0%;font-family:Lavi;-inkscape-font-specification:Lavi;text-align:center;letter-spacing:0px;word-spacing:0px;text-anchor:middle;fill:#000000;fill-opacity:1;stroke:none"
       xml:space="preserve"><tspan
         y="1058.5084"
         x="524.69989"
         style="font-size:45px;line-height:1.25"
         sodipodi:role="line"
         id="tspan37052-0">Eg ...</tspan></text>
    <text
       id="text4246-4-2-7-3-5"
       y="1133.2123"
       x="577.88416"
       style="font-style:normal;font-variant:normal;font-weight:normal;font-stretch:normal;line-height:0%;font-family:Lavi;-inkscape-font-specification:Lavi;text-align:center;letter-spacing:0px;word-spacing:0px;text-anchor:middle;fill:#000000;fill-opacity:1;stroke:none"
       xml:space="preserve"><tspan
         y="1133.2123"
         x="577.88416"
         style="font-size:45px;line-height:1.25"
         sodipodi:role="line"
         id="tspan46443">eg<tspan
   style="font-style:italic"
   id="tspan2566"> </tspan><tspan
   style="font-style:italic;font-variant:normal;font-weight:normal;font-stretch:normal;font-family:Lavi;-inkscape-font-specification:'Lavi Italic'"
   id="tspan46445">måtte</tspan></tspan><tspan
         y="1189.4623"
         x="577.88416"
         style="font-size:45px;line-height:1.25"
         sodipodi:role="line"
         id="tspan30466">gjera det.</tspan></text>
    <text
       id="text4246-4-2-7-9"
       y="197.77901"
       x="1756.4863"
       style="font-style:normal;font-variant:normal;font-weight:normal;font-stretch:normal;line-height:0%;font-family:Lavi;-inkscape-font-specification:Lavi;text-align:center;letter-spacing:0px;word-spacing:0px;text-anchor:middle;fill:#000000;fill-opacity:1;stroke:none"
       xml:space="preserve"><tspan
         y="197.77901"
         x="1756.4863"
         style="font-size:45px;line-height:1.25"
         sodipodi:role="line"
         id="tspan64873">Eg skjønar.</tspan><tspan
         y="254.02901"
         x="1756.4863"
         style="font-size:45px;line-height:1.25"
         sodipodi:role="line"
         id="tspan48999">Ikkje tenk på det.</tspan></text>
    <text
       id="text4246-4-2-7-9-2"
       y="1126.0326"
       x="1781.5637"
       style="font-style:normal;font-variant:normal;font-weight:normal;font-stretch:normal;line-height:0%;font-family:Lavi;-inkscape-font-specification:Lavi;text-align:center;letter-spacing:0px;word-spacing:0px;text-anchor:middle;fill:#000000;fill-opacity:1;stroke:none"
       xml:space="preserve"><tspan
         y="1126.0326"
         x="1781.5637"
         style="font-size:45px;line-height:1.25"
         sodipodi:role="line"
         id="tspan72856">Takk for at</tspan><tspan
         y="1182.2826"
         x="1781.5637"
         style="font-size:45px;line-height:1.25"
         sodipodi:role="line"
         id="tspan49188">du er her.</tspan></text>
    <text
       id="text4246-4-2-7-9-2-7"
       y="1789.4633"
       x="1438.2168"
       style="font-style:normal;font-variant:normal;font-weight:normal;font-stretch:normal;line-height:0%;font-family:Lavi;-inkscape-font-specification:Lavi;text-align:center;letter-spacing:0px;word-spacing:0px;text-anchor:middle;fill:#000000;fill-opacity:1;stroke:none"
       xml:space="preserve"><tspan
         y="1789.4633"
         x="1438.2168"
         style="font-size:45px;line-height:1.25"
         sodipodi:role="line"
         id="tspan55800">Magien i cella er veldig</tspan><tspan
         y="1845.7133"
         x="1438.2168"
         style="font-size:45px;line-height:1.25"
         sodipodi:role="line"
         id="tspan55802">sterk – du har verkeleg</tspan><tspan
         y="1901.9633"
         x="1438.2168"
         style="font-size:45px;line-height:1.25"
         sodipodi:role="line"
         id="tspan12049">fått full pakke!</tspan></text>
    <text
       xml:space="preserve"
       style="font-style:normal;font-variant:normal;font-weight:normal;font-stretch:normal;line-height:0%;font-family:Lavi;-inkscape-font-specification:Lavi;text-align:center;letter-spacing:0px;word-spacing:0px;text-anchor:middle;display:inline;fill:#000000;fill-opacity:1;stroke:none"
       x="1168.7362"
       y="2033.7449"
       id="text4246-97"><tspan
         sodipodi:role="line"
         style="font-style:normal;font-variant:normal;font-weight:bold;font-stretch:normal;font-size:45px;line-height:1.25;font-family:Lavi;-inkscape-font-specification:'Lavi Bold'"
         x="1168.7362"
         y="2033.7449"
         id="tspan4252-99">Ha-ha!</tspan></text>
    <text
       id="text4246-4-2-7-9-2-7-0"
       y="2057.6248"
       x="1487.493"
       style="font-style:normal;font-variant:normal;font-weight:normal;font-stretch:normal;font-size:11.0752px;line-height:0%;font-family:Lavi;-inkscape-font-specification:Lavi;text-align:center;letter-spacing:0px;word-spacing:0px;text-anchor:middle;fill:#000000;fill-opacity:1;stroke:none;stroke-width:0.922932"
       xml:space="preserve"><tspan
         y="2057.6248"
         x="1487.493"
         style="font-size:41.5319px;line-height:1.25;stroke-width:0.922932"
         sodipodi:role="line"
         id="tspan98350">Ikkje så høgt,</tspan><tspan
         y="2109.5396"
         x="1487.493"
         style="font-size:41.5319px;line-height:1.25;stroke-width:0.922932"
         sodipodi:role="line"
         id="tspan59243">elles oppdagar</tspan><tspan
         y="2161.4546"
         x="1487.493"
         style="font-size:41.5319px;line-height:1.25;stroke-width:0.922932"
         sodipodi:role="line"
         id="tspan58131">dei oss ...</tspan></text>
    <text
       xml:space="preserve"
       style="color:#000000;font-style:normal;font-variant:normal;font-weight:normal;font-stretch:normal;font-size:7.41214px;line-height:0.01%;font-family:Arial;-inkscape-font-specification:Arial;letter-spacing:2.51825px;word-spacing:0px;display:inline;overflow:visible;visibility:visible;opacity:0.635039;fill:#e69d76;fill-opacity:1;fill-rule:nonzero;stroke:#e99f77;stroke-width:2.70666;stroke-opacity:1;marker:none;enable-background:accumulate"
       x="582.47729"
       y="3062.6494"
       id="text4246-1711"
       transform="matrix(0.87642423,-0.49049559,0.3850957,0.92547904,0,0)"><tspan
         sodipodi:role="line"
         x="583.73645"
         y="3062.6494"
         id="tspan1709"
         style="word-spacing:0px;fill:#ffffff;fill-opacity:1;stroke:#ffffff;stroke-width:2.70666;stroke-opacity:1"><tspan
           x="582.47729"
           y="3062.6494"
           style="color:#000000;font-style:normal;font-variant:normal;font-weight:normal;font-stretch:normal;font-size:39.5314px;line-height:1.25;font-family:Lavi;-inkscape-font-specification:Lavi;text-align:center;word-spacing:0px;text-anchor:middle;display:inline;overflow:visible;visibility:visible;fill:#ffffff;fill-opacity:1;fill-rule:nonzero;stroke:#ffffff;stroke-width:2.1336;stroke-miterlimit:4;stroke-dasharray:none;stroke-opacity:1;marker:none;enable-background:accumulate"
           id="tspan1707">SLIKK</tspan></tspan></text>
    <text
       xml:space="preserve"
       style="color:#000000;font-style:normal;font-variant:normal;font-weight:normal;font-stretch:normal;font-size:5.89332px;line-height:0.01%;font-family:Arial;-inkscape-font-specification:Arial;letter-spacing:2.00224px;word-spacing:0px;display:inline;overflow:visible;visibility:visible;opacity:0.635039;fill:#e69d76;fill-opacity:1;fill-rule:nonzero;stroke:#e99f77;stroke-width:2.15204;stroke-opacity:1;marker:none;enable-background:accumulate"
       x="633.88916"
       y="3083.699"
       id="text4246-8"
       transform="matrix(0.86624931,-0.49625693,0.3806249,0.93634967,0,0)"><tspan
         sodipodi:role="line"
         x="634.89026"
         y="3083.699"
         id="tspan1709-9"
         style="word-spacing:0px;fill:#ffffff;fill-opacity:1;stroke:#ffffff;stroke-width:2.15204;stroke-opacity:1"><tspan
           x="633.88916"
           y="3083.699"
           style="color:#000000;font-style:normal;font-variant:normal;font-weight:normal;font-stretch:normal;font-size:31.431px;line-height:1.25;font-family:Lavi;-inkscape-font-specification:Lavi;text-align:center;word-spacing:0px;text-anchor:middle;display:inline;overflow:visible;visibility:visible;fill:#ffffff;fill-opacity:1;fill-rule:nonzero;stroke:#ffffff;stroke-width:1.69641;stroke-miterlimit:4;stroke-dasharray:none;stroke-opacity:1;marker:none;enable-background:accumulate"
           id="tspan1707-7">SLIKK</tspan></tspan></text>
    <text
       xml:space="preserve"
       style="color:#000000;font-style:normal;font-variant:normal;font-weight:normal;font-stretch:normal;font-size:4.80028px;line-height:0.01%;font-family:Arial;-inkscape-font-specification:Arial;letter-spacing:1.63088px;word-spacing:0px;display:inline;overflow:visible;visibility:visible;opacity:0.635039;fill:#e69d76;fill-opacity:1;fill-rule:nonzero;stroke:#e99f77;stroke-width:1.7529;stroke-opacity:1;marker:none;enable-background:accumulate"
       x="646.56323"
       y="3116.2866"
       id="text4246-8-3"
       transform="matrix(0.86358569,-0.49778757,0.37945452,0.93923772,0,0)"><tspan
         sodipodi:role="line"
         x="647.37866"
         y="3116.2866"
         id="tspan1709-9-6"
         style="word-spacing:0px;fill:#ffffff;fill-opacity:1;stroke:#ffffff;stroke-width:1.7529;stroke-opacity:1"><tspan
           x="646.56323"
           y="3116.2866"
           style="color:#000000;font-style:normal;font-variant:normal;font-weight:normal;font-stretch:normal;font-size:25.6015px;line-height:1.25;font-family:Lavi;-inkscape-font-specification:Lavi;text-align:center;word-spacing:0px;text-anchor:middle;display:inline;overflow:visible;visibility:visible;fill:#ffffff;fill-opacity:1;fill-rule:nonzero;stroke:#ffffff;stroke-width:1.38177;stroke-miterlimit:4;stroke-dasharray:none;stroke-opacity:1;marker:none;enable-background:accumulate"
           id="tspan1707-7-1">SLIKK</tspan></tspan></text>
    <text
       id="text4246-4-2-7-9-2-7-0-9"
       y="2899.5105"
       x="296.33832"
       style="font-style:normal;font-variant:normal;font-weight:normal;font-stretch:normal;line-height:0%;font-family:Lavi;-inkscape-font-specification:Lavi;text-align:center;letter-spacing:0px;word-spacing:0px;text-anchor:middle;fill:#000000;fill-opacity:1;stroke:none"
       xml:space="preserve"><tspan
         y="2899.5105"
         x="296.33832"
         style="font-size:45px;line-height:1.25"
         sodipodi:role="line"
         id="tspan96797-9">Men du,</tspan></text>
    <text
       id="text4246-4-2-7-9-2-7-0-9-4"
       y="2968.8228"
       x="661.96979"
       style="font-style:normal;font-variant:normal;font-weight:normal;font-stretch:normal;line-height:0%;font-family:Lavi;-inkscape-font-specification:Lavi;text-align:center;letter-spacing:0px;word-spacing:0px;text-anchor:middle;fill:#000000;fill-opacity:1;stroke:none"
       xml:space="preserve"><tspan
         y="2968.8228"
         x="661.96979"
         style="font-size:45px;line-height:1.25"
         sodipodi:role="line"
         id="tspan7320">det er endå ein grunn til</tspan><tspan
         y="3025.0728"
         x="661.96979"
         style="font-size:45px;line-height:1.25"
         sodipodi:role="line"
         id="tspan16756">at eg er her. Like etter</tspan><tspan
         y="3081.3228"
         x="661.96979"
         style="font-size:45px;line-height:1.25"
         sodipodi:role="line"
         id="tspan32406">seremonien vart eg innlemma</tspan><tspan
         y="3137.5728"
         x="661.96979"
         style="font-size:45px;line-height:1.25"
         sodipodi:role="line"
         id="tspan35724">i Wasabis indre sirkel,</tspan></text>
    <text
       id="text4246-4-2-7-9-2-7-0-9-4-8"
       y="3155.363"
       x="1185.4913"
       style="font-style:normal;font-variant:normal;font-weight:normal;font-stretch:normal;line-height:0%;font-family:Lavi;-inkscape-font-specification:Lavi;text-align:center;letter-spacing:0px;word-spacing:0px;text-anchor:middle;fill:#000000;fill-opacity:1;stroke:none"
       xml:space="preserve"><tspan
         y="3155.363"
         x="1185.4913"
         style="font-size:45px;line-height:1.25"
         sodipodi:role="line"
         id="tspan46304">og då fekk eg vita</tspan><tspan
         y="3211.613"
         x="1185.4913"
         style="font-size:45px;line-height:1.25"
         sodipodi:role="line"
         id="tspan83433">om planane hennar ...</tspan></text>
  </g>
</svg>
