<?xml version="1.0" encoding="UTF-8" standalone="no"?>
<svg
   id="svg2"
   version="1.1"
   inkscape:version="1.1 (ce6663b3b7, 2021-05-25)"
   width="2481"
   height="3503"
   sodipodi:docname="E35P06.svg"
   xmlns:inkscape="http://www.inkscape.org/namespaces/inkscape"
   xmlns:sodipodi="http://sodipodi.sourceforge.net/DTD/sodipodi-0.dtd"
   xmlns:xlink="http://www.w3.org/1999/xlink"
   xmlns="http://www.w3.org/2000/svg"
   xmlns:svg="http://www.w3.org/2000/svg"
   xmlns:rdf="http://www.w3.org/1999/02/22-rdf-syntax-ns#"
   xmlns:cc="http://creativecommons.org/ns#"
   xmlns:dc="http://purl.org/dc/elements/1.1/">
  <metadata
     id="metadata8">
    <rdf:RDF>
      <cc:Work
         rdf:about="">
        <dc:format>image/svg+xml</dc:format>
        <dc:type
           rdf:resource="http://purl.org/dc/dcmitype/StillImage" />
        <dc:title />
      </cc:Work>
    </rdf:RDF>
  </metadata>
  <defs
     id="defs6" />
  <sodipodi:namedview
     pagecolor="#ffffff"
     bordercolor="#666666"
     borderopacity="1"
     objecttolerance="10"
     gridtolerance="10"
     guidetolerance="10"
     inkscape:pageopacity="0"
     inkscape:pageshadow="2"
     inkscape:window-width="1920"
     inkscape:window-height="1015"
     id="namedview4"
     showgrid="false"
     inkscape:zoom="0.52601302"
     inkscape:cx="1295.5953"
     inkscape:cy="2681.4926"
     inkscape:window-x="0"
     inkscape:window-y="0"
     inkscape:window-maximized="1"
     inkscape:current-layer="layer1"
     inkscape:document-rotation="0"
     inkscape:snap-global="false"
     inkscape:pagecheckerboard="0" />
  <g
     inkscape:groupmode="layer"
     id="layer2"
     inkscape:label="artwork"
     sodipodi:insensitive="true">
    <image
       xlink:href="../gfx_Pepper-and-Carrot_by-David-Revoy_E35P06.png"
       width="2481"
       height="3503"
       id="image10"
       x="0"
       y="0" />
  </g>
  <g
     inkscape:groupmode="layer"
     id="layer3"
     inkscape:label="speechbubbles"
     style="display:inline">
    <path
       style="fill:#ffffff;stroke:none;stroke-width:0.97766"
       d="m 599.00921,150.09323 c -16.31997,0.37448 -32.60831,1.65125 -48.8326,3.32662 -25.05411,2.79617 -50.10306,7.4231 -73.60065,16.42057 -27.89893,11.63979 -48.71638,36.95029 -55.34376,65.40864 -10.55187,33.97584 -11.41871,71.26746 0.67054,105.04083 7.94366,20.8283 25.6983,37.19314 46.16857,46.77304 33.14617,15.99456 70.19372,24.55756 107.2628,24.12994 22.5091,0.0766 45.03191,-0.74014 67.45012,-2.64691 27.47213,-2.62304 55.11566,-9.21579 78.69349,-23.44149 15.67336,-9.53042 28.37196,-23.83005 34.64698,-40.72639 5.5581,-14.26119 6.59238,-29.71791 5.95454,-44.82653 -0.42844,-25.63185 -1.45986,-51.74057 -9.87603,-76.30738 -5.6571,-15.87208 -17.90086,-28.94518 -32.19149,-38.22375 -9.82269,-6.37724 -20.79035,-10.84176 -31.63283,-15.31865 -25.82484,-10.19289 -53.18733,-17.01973 -81.01435,-19.23446 -2.78074,-0.20314 -5.56756,-0.32445 -8.35533,-0.37408 z"
       id="path3286-6"
       inkscape:connector-curvature="0"
       sodipodi:nodetypes="csssssssc" />
    <path
       style="display:inline;fill:#ffffff;fill-rule:evenodd;stroke:none;stroke-width:1.40915px;stroke-linecap:butt;stroke-linejoin:miter;stroke-opacity:1"
       d="m -11.698607,1502.9614 c 50.580598,0.9709 43.879136,18.9206 25.663848,40.2832 14.012801,-1.4369 46.785754,-21.2257 27.352808,10.0555 42.431863,-11.3646 60.352821,15.5887 56.904871,27.1509 20.84227,-3.9803 42.21576,-0.6376 20.47023,40.2724 21.00668,-9.167 39.40907,-36.8642 37.01676,7.2244 17.00618,-5.4725 39.35016,-26.5581 42.1859,9.4172 22.48033,-17.7601 44.81453,-32.9121 64.90024,-7.9194 20.8912,-36.1747 41.98012,-23.3546 56.26811,12.4772 6.71301,-43.4296 46.55976,-25.9104 71.56987,19.5777 -7.9411,-37.6335 -41.66102,-89.6447 58.48101,-13.5228 -42.49722,-55.9177 -47.71421,-77.4348 77.53989,-15.7856 -15.98355,-22.6503 -41.93078,-77.1061 60.24712,-18.4508 -69.34893,-67.3048 -28.43264,-74.4012 21.43484,-86.5626 -60.55637,-1.7957 -78.40743,-19.4105 -13.77845,-26.8793 -99.02986,-8.7403 -75.05366,-30.4201 -43.53209,-66.7128 -50.67592,27.6916 -43.40637,11.5769 -31.25727,-3.1512 -90.06858,29.1003 -52.50381,-16.958 -44.18706,-34.9119 -44.23934,19.0141 -57.94973,16.8415 -53.79342,-11.8494 -24.55793,24.5753 -50.5353,23.9494 -48.19691,14.2836 l -61.89268,-8.2257 -294.489568,5.4155 -12.9047109,88.2476 c 77.6851049,-4.1891 30.4490709,14.6958 -16.0033381,19.5663 z"
       id="path961"
       sodipodi:nodetypes="cccccccccccccccccccccccc" />
    <path
       style="color:#000000;display:inline;overflow:visible;visibility:visible;fill:#ffffff;fill-opacity:1;fill-rule:nonzero;stroke:none;stroke-width:0.859172px;marker:none;enable-background:accumulate"
       d="m 666.37564,2285.3556 c -5.52311,-35.9524 9.20544,-131.4529 122.43116,-123.5877 113.22571,7.8642 131.63644,52.8058 134.398,66.2874 2.76155,13.4827 26.69547,89.8831 -61.67577,110.1061 -88.37141,20.2239 -167.53729,-1.1239 -195.15339,-52.8058 z"
       id="path3525-0"
       inkscape:connector-curvature="0" />
    <path
       style="color:#000000;display:inline;overflow:visible;visibility:visible;fill:#ffffff;fill-opacity:1;fill-rule:nonzero;stroke:none;stroke-width:1px;marker:none;enable-background:accumulate"
       d="m 777.45911,2075.5812 c 24.221,32.672 31.0089,45.658 8.1243,87.146 -22.8847,41.487 -7.3195,49.577 -7.3195,49.577 l 28.2503,-15.376 c 0,0 42.659,-91.848 -29.0551,-121.347 z"
       id="path3072-56"
       inkscape:connector-curvature="0" />
    <path
       style="color:#000000;display:inline;overflow:visible;visibility:visible;fill:#ffffff;fill-opacity:1;fill-rule:nonzero;stroke:none;stroke-width:1px;marker:none;enable-background:accumulate"
       d="m 787.3973,441.92617 c -47.0829,-20.24287 -67.22496,-54.55991 -84.15983,-115.70701 -17.59681,-45.717 -36.07245,-33.52653 -36.07245,-33.52653 l 6.37734,17.91035 c 0,0 -3.04742,117.01808 113.85494,131.32319 z"
       id="path3072-5-5"
       inkscape:connector-curvature="0"
       sodipodi:nodetypes="ccccc" />
    <path
       style="display:inline;fill:#ffffff;fill-opacity:1;stroke:none;stroke-width:1.10947"
       d="m 393.56677,1606.3671 c 21.51156,33.7205 38.79051,39.1501 50.26035,53.0664 11.46981,13.9172 -2.88402,43.4737 0.19353,53.5399 3.70439,9.4958 0.69509,16.2497 29.83986,39.4536 -46.26,-20.9908 -40.86354,-33.0957 -44.26871,-41.9175 -4.68096,-12.128 3.84885,-26.4644 -8.51834,-37.4754 -11.9791,-10.667 -55.59571,-40.8524 -64.07404,-63.4543 -8.47865,-22.6019 -12.84256,-23.9886 -12.84256,-23.9886 z"
       id="path3282-7"
       inkscape:connector-curvature="0"
       sodipodi:nodetypes="csccssscc" />
  </g>
  <g
     inkscape:groupmode="layer"
     id="layer1"
     inkscape:label="txt">
    <text
       xml:space="preserve"
       style="font-style:normal;font-variant:normal;font-weight:normal;font-stretch:normal;font-size:45px;line-height:1.25;font-family:Lavi;-inkscape-font-specification:Lavi;text-align:center;letter-spacing:0px;word-spacing:0px;text-anchor:middle;fill:#000000;fill-opacity:1;stroke:none"
       x="583.06763"
       y="238.04738"
       id="text4246-3-2-2"><tspan
         style="font-size:45px"
         sodipodi:role="line"
         x="583.06763"
         y="238.04738"
         id="tspan905">La cova</tspan><tspan
         style="font-size:45px"
         sodipodi:role="line"
         x="583.06763"
         y="294.29736"
         id="tspan96079">del Llac de</tspan><tspan
         style="font-size:45px"
         sodipodi:role="line"
         x="583.06763"
         y="350.54736"
         id="tspan96083">les Banyes!</tspan></text>
    <text
       xml:space="preserve"
       style="font-style:normal;font-variant:normal;font-weight:normal;font-stretch:normal;font-size:45px;line-height:1.25;font-family:Lavi;-inkscape-font-specification:Lavi;text-align:center;letter-spacing:0px;word-spacing:0px;text-anchor:middle;fill:#000000;fill-opacity:1;stroke:none"
       x="312.00537"
       y="1497.3002"
       id="text4246-3-2-2-3"><tspan
         style="font-size:45px"
         sodipodi:role="line"
         x="312.00537"
         y="1497.3002"
         id="tspan905-3">Carrot, és la</tspan><tspan
         style="font-size:45px"
         sodipodi:role="line"
         x="312.00537"
         y="1553.5502"
         id="tspan916"> nostra oportunitat!</tspan></text>
    <text
       xml:space="preserve"
       style="font-style:normal;font-variant:normal;font-weight:normal;font-stretch:normal;font-size:45px;line-height:1.25;font-family:Lavi;-inkscape-font-specification:Lavi;text-align:center;letter-spacing:0px;word-spacing:0px;text-anchor:middle;fill:#000000;fill-opacity:1;stroke:none"
       x="807.18762"
       y="2241.9109"
       id="text4246-3-2-2-3-5"><tspan
         style="font-size:45px"
         sodipodi:role="line"
         x="807.18762"
         y="2241.9109"
         id="tspan916-2">Conec </tspan><tspan
         style="font-size:45px"
         sodipodi:role="line"
         x="807.18762"
         y="2298.1609"
         id="tspan958">la cova.</tspan></text>
    <text
       xml:space="preserve"
       style="font-style:normal;font-variant:normal;font-weight:normal;font-stretch:normal;font-size:45px;line-height:1.25;font-family:Lavi;-inkscape-font-specification:Lavi;text-align:center;letter-spacing:0px;word-spacing:0px;text-anchor:middle;fill:#ffffff;fill-opacity:1;stroke:none"
       x="201.94211"
       y="2549.3845"
       id="text4246-3-2-2-3-5-9"><tspan
         style="font-size:45px;text-align:start;text-anchor:start;fill:#ffffff"
         sodipodi:role="line"
         x="201.94211"
         y="2549.3845"
         id="tspan917">És un llarg passadís ondulant que</tspan><tspan
         style="font-size:45px;text-align:start;text-anchor:start;fill:#ffffff"
         sodipodi:role="line"
         x="201.94211"
         y="2605.6345"
         id="tspan924">acaba en una cambra que s'ha enderrocat.</tspan></text>
    <text
       xml:space="preserve"
       style="font-style:normal;font-variant:normal;font-weight:normal;font-stretch:normal;font-size:45px;line-height:1.25;font-family:Lavi;-inkscape-font-specification:Lavi;text-align:center;letter-spacing:0px;word-spacing:0px;text-anchor:middle;fill:#ffffff;fill-opacity:1;stroke:none"
       x="1335.3069"
       y="3059.7258"
       id="text4246-3-2-2-3-5-9-7"><tspan
         style="font-size:45px;text-align:end;text-anchor:end;fill:#ffffff"
         sodipodi:role="line"
         x="1335.3069"
         y="3059.7258"
         id="tspan875">Les estalactites de la secció enfonsada s'han</tspan><tspan
         style="font-size:45px;text-align:end;text-anchor:end;fill:#ffffff"
         sodipodi:role="line"
         x="1335.3069"
         y="3115.9758"
         id="tspan879">apilat fent un mur de punxes. És una trampa mortal!</tspan></text>
    <text
       xml:space="preserve"
       style="font-style:normal;font-variant:normal;font-weight:normal;font-stretch:normal;font-size:45px;line-height:1.25;font-family:Lavi;-inkscape-font-specification:Lavi;text-align:center;letter-spacing:0px;word-spacing:0px;text-anchor:middle;fill:#000000;fill-opacity:1;stroke:none"
       x="1482.9749"
       y="2753.425"
       id="text4246-3-2-2-3-5-9-7-3"><tspan
         style="font-size:45px;text-align:start;text-anchor:start;fill:#ffffff"
         sodipodi:role="line"
         x="1482.9749"
         y="2753.425"
         id="tspan904">Hi ha una petita obertura </tspan><tspan
         style="font-size:45px;text-align:start;text-anchor:start;fill:#ffffff"
         sodipodi:role="line"
         x="1482.9749"
         y="2809.675"
         id="tspan116523">de l'amplada justa perquè </tspan><tspan
         style="font-size:45px;text-align:start;text-anchor:start;fill:#ffffff"
         sodipodi:role="line"
         x="1482.9749"
         y="2865.925"
         id="tspan888">ens hi poguem escapolir,</tspan></text>
    <text
       xml:space="preserve"
       style="font-style:normal;font-variant:normal;font-weight:normal;font-stretch:normal;font-size:45px;line-height:1.25;font-family:Lavi;-inkscape-font-specification:Lavi;text-align:center;letter-spacing:0px;word-spacing:0px;text-anchor:middle;fill:#000000;fill-opacity:1;stroke:none;stroke-width:1.25015"
       x="2301.0408"
       y="3223.4587"
       id="text4246-3-2-2-3-5-9-7-3-3"><tspan
         style="font-size:45px;text-align:end;text-anchor:end;fill:#ffffff;stroke-width:1.25015"
         sodipodi:role="line"
         x="2301.0408"
         y="3223.4587"
         id="tspan123936">però el drac no podrà girar a temps</tspan><tspan
         style="font-size:45px;text-align:end;text-anchor:end;fill:#ffffff;stroke-width:1.25015"
         sodipodi:role="line"
         x="2301.0408"
         y="3279.7087"
         id="tspan125812"> i xocarà amb el mur a tota velocitat!</tspan><tspan
         style="font-size:45px;text-align:end;text-anchor:end;fill:#ffffff;stroke-width:1.25015"
         sodipodi:role="line"
         x="2301.0408"
         y="3335.9587"
         id="tspan898"> Muahahaha!</tspan></text>
  </g>
</svg>
