<?xml version="1.0" encoding="UTF-8" standalone="no"?>
<!-- Created with Inkscape (http://www.inkscape.org/) -->

<svg
   id="svg2"
   version="1.1"
   inkscape:version="1.1 (c68e22c387, 2021-05-23)"
   width="2481"
   height="3503"
   sodipodi:docname="E36P01.svg"
   xmlns:inkscape="http://www.inkscape.org/namespaces/inkscape"
   xmlns:sodipodi="http://sodipodi.sourceforge.net/DTD/sodipodi-0.dtd"
   xmlns:xlink="http://www.w3.org/1999/xlink"
   xmlns="http://www.w3.org/2000/svg"
   xmlns:svg="http://www.w3.org/2000/svg"
   xmlns:rdf="http://www.w3.org/1999/02/22-rdf-syntax-ns#"
   xmlns:cc="http://creativecommons.org/ns#"
   xmlns:dc="http://purl.org/dc/elements/1.1/">
  <metadata
     id="metadata8">
    <rdf:RDF>
      <cc:Work
         rdf:about="">
        <dc:format>image/svg+xml</dc:format>
        <dc:type
           rdf:resource="http://purl.org/dc/dcmitype/StillImage" />
      </cc:Work>
    </rdf:RDF>
  </metadata>
  <defs
     id="defs6" />
  <sodipodi:namedview
     pagecolor="#1e1e1e"
     bordercolor="#111111"
     borderopacity="1"
     objecttolerance="10"
     gridtolerance="10"
     guidetolerance="10"
     inkscape:pageopacity="0"
     inkscape:pageshadow="2"
     inkscape:window-width="1920"
     inkscape:window-height="1057"
     id="namedview4"
     showgrid="false"
     inkscape:zoom="0.52900002"
     inkscape:cx="931.94703"
     inkscape:cy="2411.153"
     inkscape:window-x="1358"
     inkscape:window-y="-8"
     inkscape:window-maximized="1"
     inkscape:current-layer="layer1"
     inkscape:pagecheckerboard="0"
     inkscape:snap-global="false" />
  <g
     inkscape:groupmode="layer"
     id="layer2"
     inkscape:label="artwork"
     sodipodi:insensitive="true">
    <image
       xlink:href="../gfx_Pepper-and-Carrot_by-David-Revoy_E36P01.png"
       y="0"
       x="0"
       id="image10"
       height="3503"
       width="2481" />
  </g>
  <g
     inkscape:groupmode="layer"
     id="layer3"
     inkscape:label="speechbubbles"
     style="display:inline">
    <path
       style="display:inline;fill:#ffffff;fill-rule:evenodd;stroke:none;stroke-width:0.976202px;stroke-linecap:butt;stroke-linejoin:miter;stroke-opacity:1"
       d="m 917.45284,1847.5959 c 76.47806,18.6105 120.04106,11.0422 118.72836,-32.2181 36.4874,46.7485 61.8081,57.2039 76.8245,34.1707 48.3069,19.7977 78.4781,14.244 102.4326,0 8.9285,18.3191 24.1053,14.5249 66.2426,-5.7092 -7.8364,10.0936 -16.0613,34.4674 60.3579,3.7392 -35.1978,18.0948 -9.5739,18.4416 34.785,6.2791 -14.5544,18.5144 40.6544,5.0828 87.7117,-21.8825 -33.7841,27.9112 -20.1657,31.7885 9.9057,19.9666 -13.7486,12.7207 -5.9204,20.4672 36.6545,4.4408 -17.8826,23.4798 0.904,14.092 68.8516,-8.3845 -56.0726,24.7902 -77.3538,44.7944 -36.2593,45.4838 -12.7152,2.1213 -42.1378,13.7517 55.8723,25.3834 -22.9372,1.1149 -65.6126,4.0323 -25.1011,14.3005 -24.4568,-3.3575 -35.3119,2.6484 -1.2693,12.4053 -24.4959,-1.5599 -52.8901,-5.5525 -14.6718,9.7127 -42.9821,-0.5186 -36.4904,3.0634 -4.9341,15.9405 -62.2441,-16.5183 -57.0142,29.9177 -58.8566,36.5278 -78.0104,-22.5203 -57.0927,-11.1813 -67.6232,-6.4906 -38.0246,0.1753 -78.1931,-37.2176 -116.2176,-12.1028 -9.9581,-15.6207 -29.9226,-0.9052 -114.0725,10.1428 36.9482,-19.8729 -29.5646,-2.2747 -69.8217,5.913 22.0453,-24.8258 -14.1494,-22.5923 -85.0073,1.5612 39.68,-27.4145 -11.191,-35.1285 -77.97208,-15.6644 25.23164,-26.9322 -15.86117,-39.9566 -114.07286,-41.0047 46.18223,-10.5776 74.4192,-21.9399 25.60829,-43.9327 55.02396,6.4756 71.43684,0.4606 32.59231,-23.4313 60.01627,19.6102 32.72886,-8.8333 9.31208,-35.1466 z"
       id="path4508-2"
       inkscape:connector-curvature="0"
       sodipodi:nodetypes="cccccccccccccccccccccccccccc" />
    <path
       style="display:inline;fill:#ffffff;fill-rule:evenodd;stroke:none;stroke-width:0.866577px;stroke-linecap:butt;stroke-linejoin:miter;stroke-opacity:1"
       d="m 1519.7393,2114.8904 c -53.0241,-23.4966 -89.3048,-27.7732 -76.931,18.5945 -51.7523,-45.4606 -59.005,-27.1852 -69.5505,-2.5679 -45.91,-35.4026 -65.9357,-15.2793 -75.911,0.9011 -10.3333,-33.0962 -27.4154,-7.9644 -38.4155,2.0655 2.9466,-29.0753 -10.1842,-32.5903 -46.2933,-0.2189 7.0697,-12.9683 17.9421,-37.4137 -36.2813,-9.7537 10.6572,-27.1723 -24.6623,-8.8652 -54.6999,15.8288 16.6581,-33.0439 -6.0594,-25.6648 -28.0455,-12.8333 9.8669,-13.6435 33.1272,-34.8845 -15.7119,-18.3146 23.4196,-19.9519 0.5241,-15.6157 -43.106,4.5607 36.2447,-26.0237 68.6344,-45.8162 19.6912,-41.5316 6.6515,-7.8931 30.8793,-14.9892 -42.0488,-26.492 13.433,-5.4625 55.0152,1.7931 19.9474,-20.2423 -4.6891,-2.5689 10.7617,-4.3551 -18.9642,-10.9136 17.4612,0.2635 28.1234,-1.5433 11.8046,-11.5589 31.8667,0.1732 19.6929,-10.418 -4.0193,-23.8292 46.5465,17.0119 41.1326,-15.5887 42.3307,-22.6318 58.3828,23.2536 65.5037,8.6143 73.1888,3.5354 28.1748,-0.5209 55.2814,20.1123 82.8246,-6.9201 7.7756,16.5178 23.9497,19.9472 86.0319,7.4626 -26.8784,21.4505 25.692,6.7566 55.3185,-2.3012 -15.7088,26.5846 20.1241,20.3789 72.0238,-5.9202 -28.7117,29.4915 53.0039,13.4561 78.4011,4.6815 -3.1147,11.908 -25.215,51.6778 47.5945,51.9281 -34.5901,10.74 -46.3379,20.8825 -9.6079,43.8322 -40.9413,-6.3998 -52.9524,0.1388 -23.5604,25.195 -59.2867,-12.0114 -35.6572,16.4256 -6.0106,37.4439 z"
       id="path4508-2-3"
       inkscape:connector-curvature="0"
       sodipodi:nodetypes="cccccccccccccccccccccccccccc" />
    <path
       style="fill:#ffffff;fill-rule:evenodd;stroke:none;stroke-width:1.01927px;stroke-linecap:butt;stroke-linejoin:miter;stroke-opacity:1"
       d="m 795.85859,2075.6026 c 68.17018,-19.9402 107.76468,-24.6985 129.19825,-26.9041 -9.4626,14.6823 -10.93703,18.8605 -3.60753,19.5618 12.56737,1.2024 323.02739,-38.3324 323.02739,-38.3324 l -134.9102,-3.9965 c 0,0 -88.3447,16.493 -115.60557,20.8649 -27.26123,4.3719 -53.63946,7.3565 -53.63946,7.3565 0,0 11.08456,-17.0097 8.79652,-16.5151 -9.73596,2.1047 -32.55208,-8.0957 -153.2594,37.9649 z"
       id="path891"
       inkscape:connector-curvature="0"
       sodipodi:nodetypes="ccsccscsc" />
    <path
       style="display:inline;fill:#ffffff;fill-rule:evenodd;stroke:none;stroke-width:1.38877px;stroke-linecap:butt;stroke-linejoin:miter;stroke-opacity:1"
       d="m 983.94201,2513.5778 c 42.10439,34.085 63.86239,60.774 1.97685,37.0453 30.94714,21.5205 22.65684,24.8361 -5.26315,30.3589 24.61889,14.4301 60.13799,46.2428 9.52024,56.8178 72.99535,9.4652 33.96385,36.7362 -4.16941,56.6045 111.39886,-22.8067 99.08786,2.8066 74.37496,28.9088 55.2713,-32.7144 57.8467,-23.0057 32.8126,20.5624 36.0107,-31.49 45.6271,-40.6024 44.9362,-4.2266 22.2718,-30.1013 51.303,-48.797 72.848,-14.1622 29.0632,-49.7852 61.6017,-6.3705 86.3229,10.8879 6.0645,-36.9925 28.7935,-46.6073 69.5551,-9.9254 4.1178,-22.3614 38.552,-21.735 68.0728,10.2753 -36.9335,-62.8774 27.5095,-6.2663 38.2556,-2.5454 -17.5174,-32.3544 23.238,-37.9013 96.2673,-10.2102 -52.3999,-30.2071 -42.519,-44.2996 3.1826,-57.0873 -43.988,-14.0879 -54.4416,-47.6329 17.9401,-49.0658 -90.5505,-21.3847 -23.4467,-55.0924 18.6981,-75.3839 -79.2136,12.0524 -143.6311,17.7795 -102.082,-27.2707 -90.6834,29.1411 -74.2367,12.9296 -62.6743,-1.2147 -60.566,35.4437 -61.8702,2.6573 -60.1887,-7.5248 -81.3628,38.5493 -129.1077,12.8559 -147.3329,-15.8395 -21.3674,40.3424 -61.7135,21.0737 -86.5552,0.7332 12.979,37.9319 -13.2117,34.9347 -39.538,19.3121 6.4775,25.4973 -18.1642,47.5269 -60.9832,11.6075 14.2348,17.7959 12.7568,43.8619 -65.97649,-8.6572 z"
       id="path4289-9"
       inkscape:connector-curvature="0"
       sodipodi:nodetypes="ccccccccccccccccccccccccc" />
    <path
       style="display:inline;fill:#ffffff;fill-rule:evenodd;stroke:none;stroke-width:1px;stroke-linecap:butt;stroke-linejoin:miter;stroke-opacity:1"
       d="m 839.35758,2683.1542 126.85528,-18.3923 -13.09351,-16.3937 103.27445,-9.3803 -13.3725,-26.4414 -117.98262,26.0585 15.22178,19.3955 z"
       id="path4667"
       inkscape:connector-curvature="0"
       sodipodi:nodetypes="cccccccc" />
  </g>
  <g
     inkscape:groupmode="layer"
     id="layer1"
     inkscape:label="txt"
     style="display:inline">
    <text
       xml:space="preserve"
       style="font-style:normal;font-variant:normal;font-weight:normal;font-stretch:normal;font-size:45px;line-height:1.25;font-family:Lavi;-inkscape-font-specification:Lavi;text-align:center;letter-spacing:0px;word-spacing:0px;text-anchor:middle;fill:#000000;fill-opacity:1;stroke:none;stroke-width:0.818387"
       x="1468.4034"
       y="1936.7717"
       id="text4246-3-2-2-6-3-7-9-3-3-56-9-3-20-3-3-2"
       transform="skewX(-7.1285625)"><tspan
         style="font-style:normal;font-variant:normal;font-weight:bold;font-stretch:normal;font-size:45px;font-family:Lavi;-inkscape-font-specification:'Lavi Bold';stroke-width:0.818387"
         sodipodi:role="line"
         x="1468.4034"
         y="1936.7717"
         id="tspan146">EINE ENTSCHULDIGUNG?</tspan></text>
    <text
       id="text4246-4-2-7"
       y="2025.6934"
       x="1276.6045"
       style="font-style:normal;font-variant:normal;font-weight:normal;font-stretch:normal;line-height:0%;font-family:Lavi;-inkscape-font-specification:Lavi;text-align:center;letter-spacing:0px;word-spacing:0px;text-anchor:middle;fill:#000000;fill-opacity:1;stroke:none"
       xml:space="preserve"
       inkscape:label="pepperB"><tspan
         y="2025.6934"
         x="1276.6045"
         style="font-size:45px;line-height:1.25"
         sodipodi:role="line"
         id="tspan2114">Das kann doch nicht </tspan><tspan
         y="2081.9434"
         x="1276.6045"
         style="font-size:45px;line-height:1.25"
         sodipodi:role="line"
         id="tspan2118">dein Ernst sein!</tspan></text>
    <text
       xml:space="preserve"
       style="font-style:normal;font-variant:normal;font-weight:normal;font-stretch:normal;font-size:45px;line-height:1.25;font-family:Lavi;-inkscape-font-specification:Lavi;text-align:center;letter-spacing:0px;word-spacing:0px;text-anchor:middle;fill:#000000;fill-opacity:1;stroke:none;stroke-width:0.818387"
       x="1609.2993"
       y="2609.0286"
       id="text4246-3-2-2-6-3-7-9-3-3-56-9-3-20-3-3-2-7"
       transform="skewX(-7.1285625)"><tspan
         style="font-style:normal;font-variant:normal;font-weight:bold;font-stretch:normal;font-size:45px;font-family:Lavi;-inkscape-font-specification:'Lavi Bold';stroke-width:0.818387"
         sodipodi:role="line"
         x="1609.2993"
         y="2609.0286"
         id="tspan4568">WERFT DIESE NÄRRIN </tspan><tspan
         style="font-style:normal;font-variant:normal;font-weight:bold;font-stretch:normal;font-size:45px;font-family:Lavi;-inkscape-font-specification:'Lavi Bold';stroke-width:0.818387"
         sodipodi:role="line"
         x="1609.2993"
         y="2665.2786"
         id="tspan4572">INS GEFÄNGNIS!</tspan></text>
  </g>
</svg>
