<?xml version="1.0" encoding="UTF-8" standalone="no"?>
<!-- Created with Inkscape (http://www.inkscape.org/) -->

<svg
   xmlns:dc="http://purl.org/dc/elements/1.1/"
   xmlns:cc="http://creativecommons.org/ns#"
   xmlns:rdf="http://www.w3.org/1999/02/22-rdf-syntax-ns#"
   xmlns:svg="http://www.w3.org/2000/svg"
   xmlns="http://www.w3.org/2000/svg"
   xmlns:xlink="http://www.w3.org/1999/xlink"
   xmlns:sodipodi="http://sodipodi.sourceforge.net/DTD/sodipodi-0.dtd"
   xmlns:inkscape="http://www.inkscape.org/namespaces/inkscape"
   id="svg2"
   version="1.1"
   inkscape:version="0.92.3 (2405546, 2018-03-11)"
   width="2481"
   height="3503"
   sodipodi:docname="E26P04.svg">
  <metadata
     id="metadata8">
    <rdf:RDF>
      <cc:Work
         rdf:about="">
        <dc:format>image/svg+xml</dc:format>
        <dc:type
           rdf:resource="http://purl.org/dc/dcmitype/StillImage" />
        <dc:title />
      </cc:Work>
    </rdf:RDF>
  </metadata>
  <defs
     id="defs6" />
  <sodipodi:namedview
     pagecolor="#ffffff"
     bordercolor="#666666"
     borderopacity="1"
     objecttolerance="10"
     gridtolerance="10"
     guidetolerance="10"
     inkscape:pageopacity="0"
     inkscape:pageshadow="2"
     inkscape:window-width="1920"
     inkscape:window-height="1058"
     id="namedview4"
     showgrid="false"
     inkscape:zoom="0.60491495"
     inkscape:cx="1260.6949"
     inkscape:cy="2971.0573"
     inkscape:window-x="1358"
     inkscape:window-y="-8"
     inkscape:window-maximized="1"
     inkscape:current-layer="layer1" />
  <g
     inkscape:groupmode="layer"
     id="layer2"
     inkscape:label="artwork"
     sodipodi:insensitive="true">
    <image
       sodipodi:absref="C:\Users\QuentinLipeck\Downloads\ep26_Books-Are-Great_lang-pack\lang\de\../gfx_Pepper-and-Carrot_by-David-Revoy_E26P04.png"
       xlink:href="../gfx_Pepper-and-Carrot_by-David-Revoy_E26P04.png"
       width="2481"
       height="3503"
       id="image10"
       x="0"
       y="0" />
  </g>
  <g
     inkscape:groupmode="layer"
     id="layer3"
     inkscape:label="speechbubbles">
    <path
       style="color:#000000;display:inline;overflow:visible;visibility:visible;fill:#ffffff;fill-opacity:1;fill-rule:nonzero;stroke:none;stroke-width:1.88838565px;marker:none;enable-background:accumulate"
       d="m 77.548085,1506.9232 c -4.8848,-67.4656 -3.365167,-126.5765 4.767551,-182.4591 5.050711,-34.7051 163.795014,-42.9783 218.595194,-36.6628 46.77007,5.3902 209.13333,20.0737 231.94047,68.4983 22.80726,48.4244 26.26395,123.5623 21.98247,170.8309 -4.28135,47.2686 -9.48269,57.3541 -52.20544,97.2147 -21.83412,20.3713 -205.20515,32.6947 -256.32087,35.7285 -52.70508,3.132 -126.11242,0.576 -152.094766,-31.0665 -26.341033,-32.079 -11.779946,-54.6183 -16.664609,-122.084 z"
       id="path3373"
       inkscape:connector-curvature="0"
       sodipodi:nodetypes="zsssssssz" />
    <path
       style="color:#000000;display:inline;overflow:visible;visibility:visible;fill:#ffffff;fill-opacity:1;fill-rule:nonzero;stroke:none;stroke-width:0.95470774;marker:none;enable-background:accumulate"
       d="M 369.79142,809.84364 C 305.75829,762.35821 198.20492,558.84155 249.43665,362.79562 266.81502,310.92732 307.36394,84.8784 238.16093,303.5743 c -69.203,218.6959 9.34385,417.00687 131.63049,506.26934 z"
       id="path3010"
       inkscape:connector-curvature="0"
       sodipodi:nodetypes="cczc" />
    <path
       style="color:#000000;display:inline;overflow:visible;visibility:visible;fill:#ffffff;fill-opacity:1;fill-rule:nonzero;stroke:none;stroke-width:0.92846394px;marker:none;enable-background:accumulate"
       d="m 760.75243,1017.8265 c -22.47857,-11.219 -27.79905,-26.61133 -25.55111,-33.02225 2.24784,-6.41084 22.47847,-39.26666 47.20477,-43.27347 24.72641,-4.00682 88.79012,-8.81495 103.40117,-4.80813 14.6111,4.00673 56.19637,30.45171 56.19637,44.07478 0,13.62316 -7.86752,40.06807 -30.34602,48.08167 -22.47851,8.0136 -123.93104,0.7406 -150.90518,-11.0526 z"
       id="path3349"
       inkscape:connector-curvature="0"
       sodipodi:nodetypes="ccscssc" />
    <path
       style="color:#000000;display:inline;overflow:visible;visibility:visible;fill:#ffffff;fill-opacity:1;fill-rule:nonzero;stroke:none;stroke-width:0.6686523px;marker:none;enable-background:accumulate"
       d="m 785.36072,1037.9825 c 17.05308,-19.5487 161.00046,-40.76767 211.59278,-0.4818 50.5923,40.2859 17.378,97.3247 -11.65045,112.7065 -29.02835,15.3818 -110.31095,19.2165 -150.90844,10.3485 -53.85165,-11.7632 -69.34469,-32.8926 -71.32689,-73.2471 -0.80901,-16.4701 5.23986,-29.7772 22.293,-49.3261 z"
       id="path4040"
       inkscape:connector-curvature="0"
       sodipodi:nodetypes="zssssz" />
    <path
       style="color:#000000;display:inline;overflow:visible;visibility:visible;fill:#ffffff;fill-opacity:1;fill-rule:nonzero;stroke:none;stroke-width:0.9220413px;marker:none;enable-background:accumulate"
       d="m 1556.6491,1184.577 c -4.6607,-31.4449 7.7677,-114.9705 103.3121,-108.0919 95.5443,6.8785 111.08,46.1846 113.4103,57.9765 2.3304,11.7918 22.5267,78.6124 -52.0444,96.3003 -74.5713,17.6877 -141.3745,-0.9828 -164.678,-46.1849 z"
       id="path3525"
       inkscape:connector-curvature="0" />
    <path
       style="color:#000000;display:inline;overflow:visible;visibility:visible;fill:#ffffff;fill-opacity:1;fill-rule:nonzero;stroke:none;stroke-width:1px;marker:none;enable-background:accumulate"
       d="m 938.35118,1086.2126 c 69.98612,31.0197 98.42482,29.5718 151.73632,-4.4587 -31.1182,24.6589 -43.6342,55.9553 -145.08715,33.1222 -40.4073,-9.0941 -6.64917,-28.6635 -6.64917,-28.6635 z"
       id="path4480"
       inkscape:connector-curvature="0"
       sodipodi:nodetypes="ccsc" />
    <path
       style="color:#000000;display:inline;overflow:visible;visibility:visible;fill:#ffffff;fill-opacity:1;fill-rule:nonzero;stroke:none;stroke-width:1px;marker:none;enable-background:accumulate"
       d="m 1496.1025,1128.3709 c 34.6297,22.4436 48.151,28.3727 87.526,0.3521 39.375,-28.0207 48.7701,-12.382 48.7701,-12.382 l -12.8989,31.2148 c 0,0 -87.8568,53.5997 -123.3972,-19.1849 z"
       id="path3072"
       inkscape:connector-curvature="0" />
    <path
       style="color:#000000;display:inline;overflow:visible;visibility:visible;fill:#ffffff;fill-opacity:1;fill-rule:nonzero;stroke:none;stroke-width:0.74193799px;marker:none;enable-background:accumulate"
       d="m 1921.2747,183.12255 c -0.7336,-19.20925 5.8514,-26.39203 36.6602,-38.93681 30.809,-12.54478 60.0351,-6.41212 87.8924,-3.85385 32.0305,2.94151 66.1693,7.50842 77.1725,21.62136 11.0032,14.11286 19.8057,19.60121 16.1379,32.93007 -3.6677,13.32878 -7.3354,27.44172 -20.5392,32.14599 -13.2039,4.70434 -107.0977,10.97669 -122.5021,7.84051 -15.4046,-3.13617 -40.3451,-3.92026 -53.5488,-13.32886 -13.3861,-9.53839 -20.5394,-19.20917 -21.2729,-38.41841 z"
       id="path3373-0"
       inkscape:connector-curvature="0"
       sodipodi:nodetypes="zsssssssz" />
    <path
       style="color:#000000;display:inline;overflow:visible;visibility:visible;fill:#ffffff;fill-opacity:1;fill-rule:nonzero;stroke:none;stroke-width:1.05252004px;marker:none;enable-background:accumulate"
       d="m 1893.5238,275.99898 c 2.6846,-45.42743 36.6881,-55.43685 72.4814,-57.74673 35.7933,-2.30988 50.1107,4.61975 59.9539,6.1596 9.8431,1.53995 102.0109,-4.61974 114.5385,-3.07979 12.5277,1.53994 71.5867,22.32874 68.9021,58.51664 -2.6844,36.18791 -42.9519,51.58702 -84.1143,53.89689 -41.1623,2.30988 -125.2765,0 -145.8576,4.61975 -20.5812,4.61975 -79.6402,-3.0798 -85.904,-62.36645 z"
       id="path5034"
       inkscape:connector-curvature="0" />
    <path
       style="color:#000000;display:inline;overflow:visible;visibility:visible;fill:#ffffff;fill-opacity:1;fill-rule:nonzero;stroke:none;stroke-width:1px;marker:none;enable-background:accumulate"
       d="m 2014.1421,464.34286 c -57.0243,-41.23372 -60.4397,-86.77108 -49.5441,-144.9504 10.8956,-58.17932 39.6811,-24.31559 39.6811,-24.31559 0,0 -65.1914,100.00192 9.863,169.26599 z"
       id="path5002"
       inkscape:connector-curvature="0"
       sodipodi:nodetypes="cscc" />
    <path
       style="color:#000000;display:inline;overflow:visible;visibility:visible;fill:#ffffff;fill-opacity:1;fill-rule:nonzero;stroke:none;stroke-width:0.77728993px;marker:none;enable-background:accumulate"
       d="m 1700.4279,2232.4771 c 1.9548,12.6252 -20.2332,66.0408 -111.3756,61.8839 -91.1424,-4.157 -112.9427,-36.8339 -112.8192,-53.7968 0.1234,-16.963 21.4964,-44.2602 34.7426,-49.1276 13.2461,-4.8673 52.126,-15.6749 87.6192,-10.6767 39.5028,5.5627 74.284,12.3263 88.2445,26.9259 13.9604,14.5994 11.9752,21.4764 13.5885,24.7913 z"
       id="path3365"
       inkscape:connector-curvature="0"
       sodipodi:nodetypes="ccccscc" />
    <path
       style="color:#000000;display:inline;overflow:visible;visibility:visible;fill:#ffffff;fill-opacity:1;fill-rule:nonzero;stroke:none;stroke-width:1.51043391px;marker:none;enable-background:accumulate"
       d="m 1483.8346,2316.1276 c 31.7101,-73.1257 205.5531,-73.4 258.9785,-40.9655 53.4254,32.4339 61.1502,72.1266 63.2032,91.6047 2.053,19.478 -6.4151,133.3004 -34.5653,150.6716 -28.1502,17.3706 -107.7578,25.3215 -135.4829,25.0108 -27.7254,-0.3107 -115.96,-12.557 -137.7342,-38.685 -20.8293,-24.9944 -46.1094,-114.5112 -14.3993,-187.6366 z"
       id="path3330"
       inkscape:connector-curvature="0"
       sodipodi:nodetypes="zsssssz" />
    <path
       style="color:#000000;display:inline;overflow:visible;visibility:visible;fill:#ffffff;fill-opacity:1;fill-rule:nonzero;stroke:none;stroke-width:1.07720649px;marker:none;enable-background:accumulate"
       d="m 1664.135,2448.2545 c -69.9893,51.1328 8.9085,162.5856 132.4832,191.8362 -158.9941,-19.5502 -214.8639,-129.8242 -184.2863,-182.6082 -12.1609,-26.4834 51.8031,-9.228 51.8031,-9.228 z"
       id="path4008"
       inkscape:connector-curvature="0"
       sodipodi:nodetypes="cccc" />
    <path
       style="color:#000000;display:inline;overflow:visible;visibility:visible;fill:#ffffff;fill-opacity:1;fill-rule:nonzero;stroke:none;stroke-width:0.92337912px;marker:none;enable-background:accumulate"
       d="M 91.805509,69.839589 C 118.1593,44.819976 365.91785,57.851953 421.96113,125.92711 478.00427,194.00223 376.70535,286.4242 335.87638,303.1038 295.04754,319.78343 170.58392,330.08958 120.32725,309.42951 53.662925,282.02438 38.98534,238.1613 45.525484,179.35037 48.194771,155.34755 65.45156,94.859486 91.805509,69.839589 Z"
       id="path4040-0"
       inkscape:connector-curvature="0"
       sodipodi:nodetypes="zssssz" />
    <path
       style="color:#000000;display:inline;overflow:visible;visibility:visible;fill:#ffffff;fill-opacity:1;fill-rule:nonzero;stroke:none;stroke-width:1.31624353px;marker:none;enable-background:accumulate"
       d="m 439.87684,468.55748 c 4.06309,22.56052 -27.2505,120.08167 -172.70425,118.8051 -145.45375,-1.27676 -182.62914,-58.53066 -183.709075,-89.02936 -1.0801,-30.49886 30.901265,-81.01756 51.629025,-90.66695 20.72762,-9.64922 81.82907,-31.71839 138.72683,-25.1469 63.32539,7.31362 119.22219,17.10676 142.55253,42.40015 23.33015,25.29305 20.68633,37.78918 23.50494,43.63796 z"
       id="path3365-6"
       inkscape:connector-curvature="0"
       sodipodi:nodetypes="ccccscc" />
    <path
       style="color:#000000;display:inline;overflow:visible;visibility:visible;fill:#ffffff;fill-opacity:1;fill-rule:nonzero;stroke:none;stroke-width:1.17923069px;marker:none;enable-background:accumulate"
       d="m 421.00062,1204.9587 c -82.04637,41.839 -98.69807,91.9551 -101.02486,156.986 -2.32681,65.0308 42.64616,29.4851 42.64616,29.4851 0,0 -53.69551,-114.8291 58.3787,-186.4711 z"
       id="path5002-1"
       inkscape:connector-curvature="0"
       sodipodi:nodetypes="cscc" />
  </g>
  <g
     inkscape:groupmode="layer"
     id="layer1"
     inkscape:label="txt">
    <text
       xml:space="preserve"
       style="font-style:normal;font-variant:normal;font-weight:normal;font-stretch:normal;line-height:0%;font-family:Lavi;-inkscape-font-specification:Lavi;text-align:center;letter-spacing:0px;word-spacing:0px;text-anchor:middle;fill:#000000;fill-opacity:1;stroke:none"
       x="129.66629"
       y="1365.2563"
       id="text4246-5-5"><tspan
         sodipodi:role="line"
         style="font-style:italic;font-variant:normal;font-weight:normal;font-stretch:normal;font-size:45px;line-height:1.25;font-family:Lavi;-inkscape-font-specification:'Lavi Italic';text-align:start;text-anchor:start"
         x="129.66629"
         y="1365.2563"
         id="tspan105">„Da Sie die </tspan><tspan
         sodipodi:role="line"
         style="font-style:italic;font-variant:normal;font-weight:normal;font-stretch:normal;font-size:45px;line-height:1.25;font-family:Lavi;-inkscape-font-specification:'Lavi Italic';text-align:start;text-anchor:start"
         x="129.66629"
         y="1421.5063"
         id="tspan109">Abkürzung </tspan><tspan
         sodipodi:role="line"
         style="font-style:italic;font-variant:normal;font-weight:normal;font-stretch:normal;font-size:45px;line-height:1.25;font-family:Lavi;-inkscape-font-specification:'Lavi Italic';text-align:start;text-anchor:start"
         x="129.66629"
         y="1477.7563"
         id="tspan115">genommen haben, </tspan><tspan
         sodipodi:role="line"
         style="font-style:italic;font-variant:normal;font-weight:normal;font-stretch:normal;font-size:45px;line-height:1.25;font-family:Lavi;-inkscape-font-specification:'Lavi Italic';text-align:start;text-anchor:start"
         x="129.66629"
         y="1534.0063"
         id="tspan137">sollten Sie nun zum </tspan><tspan
         sodipodi:role="line"
         style="font-style:italic;font-variant:normal;font-weight:normal;font-stretch:normal;font-size:45px;line-height:1.25;font-family:Lavi;-inkscape-font-specification:'Lavi Italic';text-align:start;text-anchor:start"
         x="129.66629"
         y="1590.2563"
         id="tspan118">Wächter gelangen.“</tspan></text>
    <text
       xml:space="preserve"
       style="font-style:normal;font-variant:normal;font-weight:normal;font-stretch:normal;line-height:0%;font-family:Lavi;-inkscape-font-specification:Lavi;text-align:center;letter-spacing:0px;word-spacing:0px;text-anchor:middle;fill:#000000;fill-opacity:1;stroke:none"
       x="841.59772"
       y="997.02594"
       id="text4246-5"><tspan
         sodipodi:role="line"
         style="font-size:45px;line-height:1.25"
         x="841.59772"
         y="997.02594"
         id="tspan859">Hmm...</tspan></text>
    <text
       xml:space="preserve"
       style="font-style:normal;font-variant:normal;font-weight:normal;font-stretch:normal;line-height:0%;font-family:Lavi;-inkscape-font-specification:Lavi;text-align:center;letter-spacing:0px;word-spacing:0px;text-anchor:middle;fill:#000000;fill-opacity:1;stroke:none"
       x="898.27435"
       y="1034.9119"
       id="text4246-5-3"><tspan
         sodipodi:role="line"
         style="font-size:45px;line-height:1.25"
         x="898.27435"
         y="1038.3599"
         id="tspan890" /><tspan
         sodipodi:role="line"
         style="font-size:45px;line-height:1.25"
         x="898.27435"
         y="1075.9667"
         id="tspan482">der End-</tspan><tspan
         sodipodi:role="line"
         style="font-size:45px;line-height:1.25"
         x="898.27435"
         y="1132.2167"
         id="tspan128">gegner?!?</tspan><tspan
         sodipodi:role="line"
         style="font-size:45px;line-height:1.25"
         x="898.27435"
         y="1150.8599"
         id="tspan917" /></text>
    <text
       xml:space="preserve"
       style="font-style:normal;font-variant:normal;font-weight:normal;font-stretch:normal;line-height:0%;font-family:Lavi;-inkscape-font-specification:Lavi;text-align:center;letter-spacing:0px;word-spacing:0px;text-anchor:middle;fill:#000000;fill-opacity:1;stroke:none"
       x="1665.2767"
       y="1096.7792"
       id="text4246-5-3-7"><tspan
         sodipodi:role="line"
         style="font-size:45px;line-height:1.25"
         x="1665.2767"
         y="1100.2272"
         id="tspan890-5" /><tspan
         sodipodi:role="line"
         style="font-size:45px;line-height:1.25"
         x="1665.2767"
         y="1137.834"
         id="tspan919-5">Wo</tspan><tspan
         sodipodi:role="line"
         style="font-size:45px;line-height:1.25"
         x="1665.2767"
         y="1194.084"
         id="tspan950">denn?</tspan><tspan
         sodipodi:role="line"
         style="font-size:45px;line-height:1.25"
         x="1665.2767"
         y="1212.7272"
         id="tspan917-6" /></text>
    <text
       xml:space="preserve"
       style="font-style:normal;font-variant:normal;font-weight:normal;font-stretch:normal;line-height:0%;font-family:Lavi;-inkscape-font-specification:Lavi;text-align:center;letter-spacing:0px;word-spacing:0px;text-anchor:middle;fill:#000000;fill-opacity:1;stroke:none"
       x="2031.5693"
       y="160.21571"
       id="text4246-5-3-7-2"><tspan
         sodipodi:role="line"
         style="font-size:45px;line-height:1.25"
         x="2031.5693"
         y="163.71317"
         id="tspan890-5-9" /><tspan
         sodipodi:role="line"
         style="font-size:45px;line-height:1.25"
         x="2031.5693"
         y="201.45618"
         id="tspan950-2">AH-HA...</tspan><tspan
         sodipodi:role="line"
         style="font-size:45px;line-height:1.25"
         x="2031.5693"
         y="219.96317"
         id="tspan917-6-7" /></text>
    <text
       xml:space="preserve"
       style="font-style:normal;font-variant:normal;font-weight:normal;font-stretch:normal;line-height:0%;font-family:Lavi;-inkscape-font-specification:Lavi;text-align:center;letter-spacing:0px;word-spacing:0px;text-anchor:middle;fill:#000000;fill-opacity:1;stroke:none"
       x="2052.343"
       y="246.80626"
       id="text4246-5-3-7-2-0"><tspan
         sodipodi:role="line"
         style="font-size:45px;line-height:1.25"
         x="2052.343"
         y="250.25423"
         id="tspan890-5-9-9" /><tspan
         sodipodi:role="line"
         style="font-style:normal;font-variant:normal;font-weight:bold;font-stretch:normal;font-size:53.33333206px;line-height:1.25;font-family:Lavi;-inkscape-font-specification:'Lavi Bold'"
         x="2052.343"
         y="295.46387"
         id="tspan950-2-3">Gefunden!</tspan><tspan
         sodipodi:role="line"
         style="font-style:normal;font-variant:normal;font-weight:bold;font-stretch:normal;font-size:53.33333206px;line-height:1.25;font-family:Lavi;-inkscape-font-specification:'Lavi Bold'"
         x="2052.343"
         y="316.9209"
         id="tspan917-6-7-6" /></text>
    <text
       xml:space="preserve"
       style="font-style:normal;font-variant:normal;font-weight:normal;font-stretch:normal;line-height:0%;font-family:Lavi;-inkscape-font-specification:Lavi;text-align:center;letter-spacing:0px;word-spacing:0px;text-anchor:middle;fill:#000000;fill-opacity:1;stroke:none"
       x="1587.4655"
       y="2208.7827"
       id="text4246-5-3-7-6"><tspan
         sodipodi:role="line"
         style="font-size:45px;line-height:1.25"
         x="1587.4655"
         y="2212.2803"
         id="tspan890-5-2" /><tspan
         sodipodi:role="line"
         style="font-style:italic;font-variant:normal;font-weight:normal;font-stretch:normal;font-size:45px;line-height:1.25;font-family:Lavi;-inkscape-font-specification:'Lavi Italic'"
         x="1587.4655"
         y="2250.0232"
         id="tspan917-6-8">Pfff...!</tspan></text>
    <text
       xml:space="preserve"
       style="font-style:normal;font-variant:normal;font-weight:normal;font-stretch:normal;line-height:0%;font-family:Lavi;-inkscape-font-specification:Lavi;text-align:center;letter-spacing:0px;word-spacing:0px;text-anchor:middle;fill:#000000;fill-opacity:1;stroke:none"
       x="1640.2002"
       y="2304.2234"
       id="text4246-5-3-79"><tspan
         sodipodi:role="line"
         style="font-size:45px;line-height:1.25"
         x="1640.2002"
         y="2307.7209"
         id="tspan890-2" /><tspan
         sodipodi:role="line"
         style="font-size:45px;line-height:1.25"
         x="1647.2314"
         y="2345.4639"
         id="tspan919-2">Zu einfach, </tspan><tspan
         sodipodi:role="line"
         style="font-size:45px;line-height:1.25"
         x="1647.2314"
         y="2401.7139"
         id="tspan1132">wenn man die </tspan><tspan
         sodipodi:role="line"
         style="font-size:45px;line-height:1.25"
         x="1647.2314"
         y="2457.9639"
         id="tspan1138">Schwachstelle </tspan><tspan
         sodipodi:role="line"
         style="font-size:45px;line-height:1.25"
         x="1640.2002"
         y="2514.2139"
         id="tspan110">kennt!</tspan><tspan
         sodipodi:role="line"
         style="font-size:45px;line-height:1.25"
         x="1640.2002"
         y="2532.7209"
         id="tspan917-3" /></text>
    <text
       xml:space="preserve"
       style="font-style:normal;font-variant:normal;font-weight:normal;font-stretch:normal;line-height:0%;font-family:Lavi;-inkscape-font-specification:Lavi;text-align:center;letter-spacing:0px;word-spacing:0px;text-anchor:middle;fill:#000000;fill-opacity:1;stroke:none"
       x="124.21524"
       y="161.71936"
       id="text4246-5-5-3"><tspan
         sodipodi:role="line"
         style="font-style:italic;font-variant:normal;font-weight:normal;font-stretch:normal;font-size:45px;line-height:1.25;font-family:Lavi;-inkscape-font-specification:'Lavi Italic';text-align:start;text-anchor:start"
         x="124.21524"
         y="161.71936"
         id="tspan78">„Auf dem Weg </tspan><tspan
         sodipodi:role="line"
         style="font-style:italic;font-variant:normal;font-weight:normal;font-stretch:normal;font-size:45px;line-height:1.25;font-family:Lavi;-inkscape-font-specification:'Lavi Italic';text-align:start;text-anchor:start"
         x="124.21524"
         y="217.96936"
         id="tspan80">eine Feder </tspan><tspan
         sodipodi:role="line"
         style="font-style:italic;font-variant:normal;font-weight:normal;font-stretch:normal;font-size:45px;line-height:1.25;font-family:Lavi;-inkscape-font-specification:'Lavi Italic';text-align:start;text-anchor:start"
         x="124.21524"
         y="274.21936"
         id="tspan79">aufheben.“</tspan></text>
    <text
       xml:space="preserve"
       style="font-style:normal;font-variant:normal;font-weight:normal;font-stretch:normal;font-size:11.12393284px;line-height:0%;font-family:Lavi;-inkscape-font-specification:Lavi;text-align:center;letter-spacing:0px;word-spacing:0px;text-anchor:middle;fill:#000000;fill-opacity:1;stroke:none;stroke-width:0.92699438"
       x="261.16489"
       y="450.48187"
       id="text4246-5-3-9"><tspan
         sodipodi:role="line"
         style="font-size:41.71474838px;line-height:1.25;stroke-width:0.92699438"
         x="268.49756"
         y="450.48187"
         id="tspan995">An Federn </tspan><tspan
         sodipodi:role="line"
         style="font-size:41.71474838px;line-height:1.25;stroke-width:0.92699438"
         x="268.49756"
         y="502.62531"
         id="tspan87">mangelt es hier </tspan><tspan
         sodipodi:role="line"
         style="font-size:41.71474838px;line-height:1.25;stroke-width:0.92699438"
         x="261.16489"
         y="554.76874"
         id="tspan89">nicht!</tspan></text>
    <text
       xml:space="preserve"
       style="font-style:normal;font-variant:normal;font-weight:normal;font-stretch:normal;font-size:9.62365437px;line-height:0%;font-family:Lavi;-inkscape-font-specification:Lavi;text-align:center;letter-spacing:0px;word-spacing:0px;text-anchor:middle;fill:#000000;fill-opacity:1;stroke:none;stroke-width:0.80197126"
       x="13.33729"
       y="2107.6648"
       id="text4246-5-5-8"
       transform="matrix(0.90354167,-0.46833278,0.47503417,0.86053134,0,0)"><tspan
         sodipodi:role="line"
         style="font-style:italic;font-variant:normal;font-weight:normal;font-stretch:normal;font-size:36.08870697px;line-height:1.25;font-family:Lavi;-inkscape-font-specification:'Lavi Italic';text-align:start;text-anchor:start;fill:#ffffff;fill-opacity:1;stroke-width:0.80197126"
         x="13.33729"
         y="2107.6648"
         id="tspan478-2">kitzel</tspan></text>
    <text
       xml:space="preserve"
       style="font-style:normal;font-variant:normal;font-weight:normal;font-stretch:normal;font-size:9.62365437px;line-height:0%;font-family:Lavi;-inkscape-font-specification:Lavi;text-align:center;letter-spacing:0px;word-spacing:0px;text-anchor:middle;fill:#000000;fill-opacity:1;stroke:none;stroke-width:0.80197126"
       x="50.222191"
       y="2071.1909"
       id="text4246-5-5-8-3"
       transform="matrix(0.90354167,-0.46833278,0.47503417,0.86053134,0,0)"
       inkscape:transform-center-x="-64.107832"
       inkscape:transform-center-y="11.506534"><tspan
         sodipodi:role="line"
         style="font-style:italic;font-variant:normal;font-weight:normal;font-stretch:normal;font-size:36.08870697px;line-height:1.25;font-family:Lavi;-inkscape-font-specification:'Lavi Italic';text-align:start;text-anchor:start;fill:#ffffff;fill-opacity:1;stroke-width:0.80197126"
         x="50.222191"
         y="2071.1909"
         id="tspan478-2-7">kitzel</tspan></text>
  </g>
</svg>
