<?xml version="1.0" encoding="UTF-8" standalone="no"?>
<!-- Created with Inkscape (http://www.inkscape.org/) -->

<svg
   xmlns:dc="http://purl.org/dc/elements/1.1/"
   xmlns:cc="http://creativecommons.org/ns#"
   xmlns:rdf="http://www.w3.org/1999/02/22-rdf-syntax-ns#"
   xmlns:svg="http://www.w3.org/2000/svg"
   xmlns="http://www.w3.org/2000/svg"
   xmlns:xlink="http://www.w3.org/1999/xlink"
   xmlns:sodipodi="http://sodipodi.sourceforge.net/DTD/sodipodi-0.dtd"
   xmlns:inkscape="http://www.inkscape.org/namespaces/inkscape"
   id="svg2"
   version="1.1"
   inkscape:version="0.92.1 r15371"
   width="2481"
   height="3503"
   sodipodi:docname="E28P05.svg"
   inkscape:export-filename="/home/dash/Downloads/pepper carrot EPS/ep28_The-Festivities_lang-pack/lang/ph/E28P05.svg.png"
   inkscape:export-xdpi="96"
   inkscape:export-ydpi="96">
  <metadata
     id="metadata8">
    <rdf:RDF>
      <cc:Work
         rdf:about="">
        <dc:format>image/svg+xml</dc:format>
        <dc:type
           rdf:resource="http://purl.org/dc/dcmitype/StillImage" />
        <dc:title />
      </cc:Work>
    </rdf:RDF>
  </metadata>
  <defs
     id="defs6">
    <inkscape:path-effect
       effect="spiro"
       id="path-effect7438"
       is_visible="true" />
    <inkscape:path-effect
       effect="spiro"
       id="path-effect7095"
       is_visible="true" />
    <inkscape:path-effect
       effect="spiro"
       id="path-effect7091"
       is_visible="true" />
    <inkscape:path-effect
       effect="spiro"
       id="path-effect7087"
       is_visible="true" />
    <marker
       inkscape:isstock="true"
       style="overflow:visible"
       id="marker6007"
       refX="0.0"
       refY="0.0"
       orient="auto"
       inkscape:stockid="Arrow1Lstart">
      <path
         transform="scale(0.8) translate(12.5,0)"
         style="fill-rule:evenodd;stroke:#ffffff;stroke-width:1pt;stroke-opacity:1;fill:#ffffff;fill-opacity:1"
         d="M 0.0,0.0 L 5.0,-5.0 L -12.5,0.0 L 5.0,5.0 L 0.0,0.0 z "
         id="path6005" />
    </marker>
    <inkscape:path-effect
       effect="spiro"
       id="path-effect5721"
       is_visible="true" />
    <inkscape:path-effect
       effect="spiro"
       id="path-effect5721-3"
       is_visible="true" />
    <inkscape:path-effect
       effect="spiro"
       id="path-effect7087-9"
       is_visible="true" />
    <inkscape:path-effect
       effect="spiro"
       id="path-effect7091-6"
       is_visible="true" />
    <inkscape:path-effect
       effect="spiro"
       id="path-effect7095-3"
       is_visible="true" />
    <inkscape:path-effect
       effect="spiro"
       id="path-effect7087-3"
       is_visible="true" />
    <inkscape:path-effect
       effect="spiro"
       id="path-effect7091-3"
       is_visible="true" />
    <inkscape:path-effect
       effect="spiro"
       id="path-effect7095-5"
       is_visible="true" />
    <inkscape:path-effect
       effect="spiro"
       id="path-effect7091-3-3"
       is_visible="true" />
    <inkscape:path-effect
       effect="spiro"
       id="path-effect7087-3-7"
       is_visible="true" />
    <inkscape:path-effect
       effect="spiro"
       id="path-effect7091-3-2"
       is_visible="true" />
    <inkscape:path-effect
       effect="spiro"
       id="path-effect7095-5-1"
       is_visible="true" />
    <inkscape:path-effect
       effect="spiro"
       id="path-effect7091-3-3-3"
       is_visible="true" />
    <inkscape:path-effect
       effect="spiro"
       id="path-effect7087-9-3"
       is_visible="true" />
    <inkscape:path-effect
       effect="spiro"
       id="path-effect7091-6-5"
       is_visible="true" />
    <inkscape:path-effect
       effect="spiro"
       id="path-effect7095-3-9"
       is_visible="true" />
    <inkscape:path-effect
       effect="spiro"
       id="path-effect7087-9-3-6"
       is_visible="true" />
    <inkscape:path-effect
       effect="spiro"
       id="path-effect7091-6-5-3"
       is_visible="true" />
    <inkscape:path-effect
       effect="spiro"
       id="path-effect7095-3-9-1"
       is_visible="true" />
  </defs>
  <sodipodi:namedview
     pagecolor="#ffffff"
     bordercolor="#666666"
     borderopacity="1"
     objecttolerance="10"
     gridtolerance="10"
     guidetolerance="10"
     inkscape:pageopacity="0"
     inkscape:pageshadow="2"
     inkscape:window-width="1920"
     inkscape:window-height="997"
     id="namedview4"
     showgrid="false"
     inkscape:zoom="0.72830183"
     inkscape:cx="422.12909"
     inkscape:cy="1804.1576"
     inkscape:window-x="0"
     inkscape:window-y="0"
     inkscape:window-maximized="1"
     inkscape:current-layer="layer1" />
  <g
     inkscape:groupmode="layer"
     id="layer2"
     inkscape:label="artwork"
     sodipodi:insensitive="true">
    <image
       sodipodi:absref="/home/dash/Downloads/pepper carrot EPS/ep28_The-Festivities_lang-pack/lang/ph/../gfx_Pepper-and-Carrot_by-David-Revoy_E28P05.png"
       xlink:href="../gfx_Pepper-and-Carrot_by-David-Revoy_E28P05.png"
       y="0"
       x="0"
       id="image10"
       height="3503"
       width="2481" />
  </g>
  <g
     inkscape:groupmode="layer"
     id="layer3"
     inkscape:label="speechbubbles">
    <path
       style="fill:#ffffff;fill-rule:evenodd;stroke:none;stroke-width:0.78709412px;stroke-linecap:butt;stroke-linejoin:miter;stroke-opacity:1"
       d="m 226.83392,200.88148 c 16.14377,-24.36339 40.15374,-36.79367 63.57729,-44.70599 21.91688,-7.53812 44.75323,-7.71811 67.23656,-6.08167 28.5113,2.15861 57.38979,4.81634 84.88587,15.49436 8.40662,3.12227 16.32224,8.82204 21.54941,18.1267 22.13531,31.50743 38.16825,72.53305 37.62724,115.96172 -2.22692,63.82216 -3.34096,127.72482 -6.50752,191.48704 -0.96124,20.99582 -4.71454,43.13732 -16.52929,58.57008 -13.56773,18.54734 -31.55704,31.06427 -50.72686,36.62115 -30.50009,9.38917 -62.03329,12.70286 -93.32993,11.98748 -12.23215,-1.72043 -24.45836,-4.01513 -36.65475,-6.30141 -26.13422,-5.84025 -54.20122,-14.82065 -72.94334,-41.03095 -14.88089,-20.89783 -23.12119,-49.09694 -24.65153,-77.26975 0.11577,-59.2462 3.17774,-118.4074 5.19903,-177.57861 0.72067,-15.97261 0.15574,-32.29486 4.53804,-47.55833 3.99047,-16.71214 9.17123,-33.16122 16.72978,-47.72182 z"
       id="path1006"
       inkscape:connector-curvature="0" />
    <path
       style="fill:#ffffff;fill-rule:evenodd;stroke:none;stroke-width:0.41885024px;stroke-linecap:butt;stroke-linejoin:miter;stroke-opacity:1"
       d="m 2012.9346,606.01587 c 19.1953,74.29767 33.274,34.11134 12.5774,72.28186 -20.3496,28.8135 -40.2768,4.46027 -37.5954,2.93555 2.6814,-1.52441 42.1757,11.60302 25.018,-75.21741 z"
       id="path1011"
       inkscape:connector-curvature="0"
       sodipodi:nodetypes="ccsc" />
    <path
       style="fill:#ffffff;fill-rule:evenodd;stroke:none;stroke-width:1.02114952px;stroke-linecap:butt;stroke-linejoin:miter;stroke-opacity:1"
       d="m 2075.964,454.2224 c 64.614,2.31111 98.7498,18.48887 112.1603,41.59997 13.4104,23.11108 31.6974,85.51104 25.6018,122.48878 -6.0957,36.97775 -29.2592,97.0666 -96.3116,92.44439 -67.0523,-4.62223 -115.8176,-27.73332 -131.6664,-73.95551 -15.8487,-46.22218 6.0957,-143.28877 31.6975,-159.46654 25.6018,-16.17776 29.2592,-20.79998 58.5184,-23.11109 z"
       id="path1013"
       inkscape:connector-curvature="0" />
    <path
       style="fill:#ffffff;fill-rule:evenodd;stroke:none;stroke-width:1.24479187px;stroke-linecap:butt;stroke-linejoin:miter;stroke-opacity:1"
       d="m 2036.2207,682.62847 c 45.8702,-103.30175 101.577,-96.41496 116.4848,-89.5282 14.9076,6.88682 52.2889,17.38489 80.2034,24.10377 12.9075,3.10675 60.2302,69.07683 63.6246,182.49974 2.0557,68.69811 0,137.73567 -32.1091,165.28279 -32.1091,27.54714 -79.3334,27.54714 -119.4697,24.10375 -40.1363,-3.4434 -85.7989,0 -109.8807,-61.98106 -24.0818,-61.98105 -30.9623,-148.06583 1.1467,-244.48079 z"
       id="path1015"
       inkscape:connector-curvature="0"
       sodipodi:nodetypes="cssssssc" />
    <path
       style="fill:#ffffff;fill-rule:evenodd;stroke:none;stroke-width:1.03499651px;stroke-linecap:butt;stroke-linejoin:miter;stroke-opacity:1;fill-opacity:0.91866028"
       d="m 341.59469,1099.0805 c 54.30478,2.5391 97.40381,2.5391 109.47153,27.9299 12.06774,25.391 35.34121,83.79 36.20319,139.6498 0.86198,55.8599 -0.86198,137.1107 -17.23961,175.197 -16.37763,38.0864 -45.68497,68.5554 -74.99232,81.2508 -29.30733,12.6954 -87.92201,12.6954 -107.74757,0 -19.82555,-12.6954 -54.30477,-55.8599 -58.61468,-99.0243 -4.3099,-43.1646 -6.03386,-149.8061 -0.86198,-192.9707 5.17189,-43.1645 30.16933,-96.4852 55.16676,-111.7197 24.99744,-15.2346 58.61468,-20.3128 58.61468,-20.3128 z"
       id="path1017"
       inkscape:connector-curvature="0" />
    <path
       style="fill:#ffffff;fill-opacity:0.708134;fill-rule:evenodd;stroke:none;stroke-width:1.10186768px;stroke-linecap:butt;stroke-linejoin:miter;stroke-opacity:1"
       d="m 2263.5421,1470.8662 c 20.7082,-1.0593 38.9137,-11.3068 61.7293,-18.8908 37.4472,32.5718 63.4252,98.351 63.7481,176.9845 0.4713,114.8199 -27.009,214.6634 -94.8728,214.0332 -67.8638,-0.6302 -126.232,-7.5162 -126.5619,-155.1559 -0.01,-3.8586 -1.053,-17.3763 0.9839,-20.5617 28.3916,-44.4009 19.1325,-91.5007 21.4969,-137.0209 11.9415,2.7105 22.7963,-5.8652 22.8547,-6.7942 0.08,-1.2644 -13.181,3.4194 -22.4257,0.2159 0.8409,-10.5916 2.4452,-21.0858 5.4404,-31.4281 5.5943,-2.4923 3.4787,-1.6517 18.6594,-10.4938 9.5498,-2.911 24.9157,-3.4247 48.9477,-10.8882 z"
       id="path1021"
       inkscape:connector-curvature="0"
       sodipodi:nodetypes="cccssccccccc" />
  </g>
  <g
     inkscape:groupmode="layer"
     id="layer1"
     inkscape:label="txt">
    <text
       xml:space="preserve"
       style="font-style:normal;font-variant:normal;font-weight:normal;font-stretch:normal;line-height:1;font-family:Lavi;-inkscape-font-specification:Lavi;text-align:center;letter-spacing:0px;word-spacing:0px;text-anchor:middle;fill:#000000;fill-opacity:1;stroke:none"
       x="2098.7068"
       y="537.55328"
       id="text4246-3"><tspan
         sodipodi:role="line"
         style="font-size:45px;line-height:1"
         x="2106.6169"
         y="537.55328"
         id="tspan833-2">Si </tspan><tspan
         sodipodi:role="line"
         style="font-size:45px;line-height:1"
         x="2098.7068"
         y="582.55328"
         id="tspan4621">Coriander,</tspan><tspan
         sodipodi:role="line"
         style="font-size:45px;line-height:1"
         x="2098.7068"
         y="627.55328"
         id="tspan898">Reigna.</tspan></text>
    <text
       xml:space="preserve"
       style="font-style:normal;font-variant:normal;font-weight:normal;font-stretch:normal;line-height:1;font-family:Lavi;-inkscape-font-specification:Lavi;text-align:center;letter-spacing:0px;word-spacing:0px;text-anchor:middle;fill:#000000;fill-opacity:1;stroke:none"
       x="2158.0388"
       y="746.08661"
       id="text4246-3-9"><tspan
         sodipodi:role="line"
         style="font-size:45px;line-height:1"
         x="2165.949"
         y="746.08661"
         id="tspan4615">Si </tspan><tspan
         sodipodi:role="line"
         style="font-size:45px;line-height:1"
         x="2165.949"
         y="791.08661"
         id="tspan4625">Saffron, </tspan><tspan
         sodipodi:role="line"
         style="font-size:45px;line-height:1"
         x="2165.949"
         y="836.08661"
         id="tspan4619">rich na, </tspan><tspan
         sodipodi:role="line"
         style="font-size:45px;line-height:1"
         x="2165.949"
         y="881.08661"
         id="tspan4613">superstar </tspan><tspan
         sodipodi:role="line"
         style="font-size:45px;line-height:1"
         x="2158.0388"
         y="926.08661"
         id="tspan4623">pa.</tspan></text>
    <text
       xml:space="preserve"
       style="font-style:normal;font-variant:normal;font-weight:normal;font-stretch:normal;line-height:0%;font-family:Lavi;-inkscape-font-specification:Lavi;text-align:center;letter-spacing:0px;word-spacing:0px;text-anchor:middle;fill:#000000;fill-opacity:1;stroke:none"
       x="349.55075"
       y="1208.8204"
       id="text4246-3-9-7"><tspan
         sodipodi:role="line"
         style="font-size:45px;line-height:1.20000005"
         x="357.46091"
         y="1208.8204"
         id="tspan923-9">Pati si </tspan><tspan
         sodipodi:role="line"
         style="font-size:45px;line-height:1.20000005"
         x="349.55075"
         y="1262.8204"
         id="tspan4627">Shichimi,</tspan><tspan
         sodipodi:role="line"
         style="font-size:45px;line-height:1.20000005"
         x="349.55075"
         y="1316.8204"
         id="tspan950">ang-</tspan><tspan
         sodipodi:role="line"
         style="font-size:45px;line-height:1.20000005"
         x="357.46091"
         y="1370.8204"
         id="tspan4633">prestigious </tspan><tspan
         sodipodi:role="line"
         style="font-size:45px;line-height:1.20000005"
         x="357.46091"
         y="1424.8204"
         id="tspan4631">ng school </tspan><tspan
         sodipodi:role="line"
         style="font-size:45px;line-height:1.20000005"
         x="349.55075"
         y="1478.8204"
         id="tspan4635">niya.</tspan></text>
    <text
       xml:space="preserve"
       style="font-style:normal;font-variant:normal;font-weight:normal;font-stretch:normal;line-height:0%;font-family:Lavi;-inkscape-font-specification:Lavi;text-align:center;letter-spacing:0px;word-spacing:0px;text-anchor:middle;fill:#000000;fill-opacity:1;stroke:none"
       x="2276.4526"
       y="1574.8503"
       id="text4246-3-9-7-3"><tspan
         sodipodi:role="line"
         style="font-size:45px;line-height:1.20000005"
         x="2276.4526"
         y="1574.8503"
         id="tspan950-6">Ako?</tspan><tspan
         sodipodi:role="line"
         style="font-size:45px;line-height:1.20000005"
         x="2284.3628"
         y="1628.8503"
         id="tspan981">Anong </tspan><tspan
         sodipodi:role="line"
         style="font-size:45px;line-height:1.20000005"
         x="2284.3628"
         y="1682.8503"
         id="tspan4639">pantapat </tspan><tspan
         sodipodi:role="line"
         style="font-size:45px;line-height:1.20000005"
         x="2276.4526"
         y="1736.8503"
         id="tspan4637">ko?</tspan></text>
    <text
       xml:space="preserve"
       style="font-style:normal;font-variant:normal;font-weight:normal;font-stretch:normal;font-size:24.55872726px;line-height:0%;font-family:Lavi;-inkscape-font-specification:Lavi;text-align:center;letter-spacing:0px;word-spacing:0px;text-anchor:middle;fill:#ff00ff;fill-opacity:1;stroke:#ffffff;stroke-width:4.11360693;opacity:1;stroke-miterlimit:4;stroke-dasharray:none;stroke-dashoffset:0;"
       x="1981.0983"
       y="2240.5933"
       id="text4246-3-9-7-3-2"
       transform="matrix(0.88995355,0.50244313,-0.48105245,0.85206526,0,0)"><tspan
         sodipodi:role="line"
         style="font-size:92.0952301px;line-height:1.20000005;stroke-width:4.11360693;fill:#ff00ff;stroke:#ffffff;stroke-miterlimit:4;stroke-dasharray:none;stroke-dashoffset:0;"
         x="1981.0983"
         y="2240.5933"
         id="tspan981-1">♥</tspan></text>
    <text
       xml:space="preserve"
       style="font-style:normal;font-variant:normal;font-weight:normal;font-stretch:normal;line-height:0%;font-family:Lavi;-inkscape-font-specification:Lavi;text-align:center;letter-spacing:0px;word-spacing:0px;text-anchor:middle;fill:#000000;fill-opacity:1;stroke:none"
       x="351.25226"
       y="250.88474"
       id="text4246-36"><tspan
         sodipodi:role="line"
         style="font-size:45px;line-height:1.20000005;fill:#000000"
         x="351.25226"
         y="250.88474"
         id="tspan4252-7">Successfull</tspan><tspan
         sodipodi:role="line"
         style="font-size:45px;line-height:1.20000005;fill:#000000"
         x="359.16241"
         y="304.88474"
         id="tspan4553">lahat ng </tspan><tspan
         sodipodi:role="line"
         style="font-size:45px;line-height:1.20000005;fill:#000000"
         x="351.25226"
         y="358.88474"
         id="tspan4587">friends ko,</tspan><tspan
         sodipodi:role="line"
         style="font-size:32px;line-height:1.20000005;fill:#000000"
         x="356.87726"
         y="401.30627"
         id="tspan4589">Minsan, iniisip ko, </tspan><tspan
         sodipodi:role="line"
         style="font-size:32px;line-height:1.20000005;fill:#000000"
         x="356.87726"
         y="439.7063"
         id="tspan4579">sana ako </tspan><tspan
         sodipodi:role="line"
         style="font-size:32px;line-height:1.20000005;fill:#000000"
         x="351.25226"
         y="478.10629"
         id="tspan4605">achieve din.</tspan><tspan
         sodipodi:role="line"
         style="font-size:32px;line-height:1.20000005;fill:#000000"
         x="351.25226"
         y="516.50629"
         id="tspan4581">kahit konti lang</tspan><tspan
         sodipodi:role="line"
         style="font-size:32px;line-height:1.20000005;fill:#000000"
         x="351.25226"
         y="554.90631"
         id="tspan4609">...</tspan></text>
    <text
       xml:space="preserve"
       style="font-style:normal;font-weight:normal;font-size:40px;line-height:1.25;font-family:sans-serif;letter-spacing:0px;word-spacing:0px;fill:#000000;fill-opacity:1;stroke:none"
       x="1033.0355"
       y="359.23224"
       id="text4585"><tspan
         sodipodi:role="line"
         id="tspan4583"
         x="1033.0355"
         y="359.23224" /></text>
    <text
       xml:space="preserve"
       style="font-style:normal;font-variant:normal;font-weight:normal;font-stretch:normal;font-size:11.64527416px;line-height:0%;font-family:Lavi;-inkscape-font-specification:Lavi;text-align:center;letter-spacing:0px;word-spacing:0px;text-anchor:middle;fill:#ffffff;fill-opacity:1;stroke:#ffffff;stroke-width:0.97043955;"
       x="884.52997"
       y="2654.7991"
       id="text4246-3-9-7-3-2-1"><tspan
         sodipodi:role="line"
         style="font-size:43.66978073px;line-height:1.20000005;fill:#ffffff;stroke-width:0.97043955;stroke:#ffffff;font-weight:normal"
         x="884.52997"
         y="2654.7991"
         id="tspan981-1-6">Facepalm</tspan></text>
    <text
       xml:space="preserve"
       style="font-style:normal;font-variant:normal;font-weight:normal;font-stretch:normal;font-size:15.51552486px;line-height:0%;font-family:Lavi;-inkscape-font-specification:Lavi;text-align:center;letter-spacing:0px;word-spacing:0px;text-anchor:middle;fill:#ff00ff;fill-opacity:1;stroke:#ffffff;stroke-width:5;opacity:1;stroke-miterlimit:4;stroke-dasharray:none;stroke-dashoffset:0"
       x="2944.8088"
       y="253.98888"
       id="text4246-3-9-7-3-2-9"
       transform="matrix(0.31686883,0.97162779,-0.93026235,0.30337867,0,0)"><tspan
         sodipodi:role="line"
         style="font-size:58.18321991px;line-height:1.20000005;stroke-width:5;fill:#ff00ff;stroke:#ffffff;stroke-miterlimit:4;stroke-dasharray:none;stroke-dashoffset:0"
         x="2944.8088"
         y="253.98888"
         id="tspan981-1-8">♥</tspan></text>
    <text
       xml:space="preserve"
       style="font-style:normal;font-variant:normal;font-weight:normal;font-stretch:normal;font-size:24.55872726px;line-height:0%;font-family:Lavi;-inkscape-font-specification:Lavi;text-align:center;letter-spacing:0px;word-spacing:0px;text-anchor:middle;opacity:1;fill:#ff00ff;fill-opacity:1;stroke:#ffffff;stroke-width:4.11360693;stroke-miterlimit:4;stroke-dasharray:none;stroke-dashoffset:0"
       x="-2127.8904"
       y="1621.7089"
       id="text4246-3-9-7-3-2-0"
       transform="matrix(0.47018964,-0.90740736,0.868776,0.4501721,0,0)"><tspan
         sodipodi:role="line"
         style="font-size:92.0952301px;line-height:1.20000005;fill:#ff00ff;stroke:#ffffff;stroke-width:4.11360693;stroke-miterlimit:4;stroke-dasharray:none;stroke-dashoffset:0"
         x="-2127.8904"
         y="1621.7089"
         id="tspan981-1-9">♥</tspan></text>
    <text
       xml:space="preserve"
       style="font-style:normal;font-variant:normal;font-weight:normal;font-stretch:normal;font-size:15.51552486px;line-height:0%;font-family:Lavi;-inkscape-font-specification:Lavi;text-align:center;letter-spacing:0px;word-spacing:0px;text-anchor:middle;opacity:1;fill:#ff00ff;fill-opacity:1;stroke:#ffffff;stroke-width:4;stroke-miterlimit:4;stroke-dasharray:none;stroke-dashoffset:0"
       x="-485.38086"
       y="2696.4966"
       id="text4246-3-9-7-3-2-9-2"
       transform="matrix(0.95963352,-0.35152515,0.33655955,0.91877872,0,0)"><tspan
         sodipodi:role="line"
         style="font-size:58.18321991px;line-height:1.20000005;fill:#ff00ff;stroke:#ffffff;stroke-width:4;stroke-miterlimit:4;stroke-dasharray:none;stroke-dashoffset:0"
         x="-485.38086"
         y="2696.4966"
         id="tspan981-1-8-9">♥</tspan></text>
    <path
       style="fill:none;stroke:#ffffff;stroke-width:6.73111963;stroke-linecap:round;stroke-linejoin:miter;stroke-miterlimit:4;stroke-dasharray:none;stroke-opacity:1"
       d="m 450.07241,2660.0059 c 8.52816,-0.2027 16.82231,-4.903 21.37831,-12.115 4.55599,-7.2121 5.23809,-16.721 1.75812,-24.5095 -1.89163,-4.2336 -4.89889,-7.9298 -6.48913,-12.2856 -2.07617,-5.6868 -1.47672,-12.2881 1.58987,-17.5079 3.0666,-5.2198 8.54094,-8.9571 14.51911,-9.9121"
       id="path5719"
       inkscape:connector-curvature="0"
       inkscape:path-effect="#path-effect5721"
       inkscape:original-d="m 450.07241,2660.0059 c 7.71249,-12.2091 15.42464,-24.4172 23.13643,-36.6245 7.71181,-12.2072 -4.32574,-8.1913 -6.48913,-12.2856 -2.16339,-4.0944 10.73968,-18.2809 16.10898,-27.42" />
    <path
       style="fill:none;stroke:#ffffff;stroke-width:5.92452717;stroke-linecap:round;stroke-linejoin:miter;stroke-miterlimit:4;stroke-dasharray:none;stroke-opacity:1"
       d="m 675.03084,2954.6231 c 0.42072,7.4965 4.79133,14.6594 11.26532,18.4624 6.47399,3.8029 14.85848,4.1327 21.61118,0.85 3.67059,-1.7844 6.83667,-4.535 10.62331,-6.0577 4.94377,-1.9881 10.76801,-1.6483 15.44711,0.901 4.67909,2.5494 8.12242,7.2591 9.13242,12.491"
       id="path5719-9"
       inkscape:connector-curvature="0"
       inkscape:path-effect="#path-effect5721-3"
       inkscape:original-d="m 675.03084,2954.6231 c 10.95963,6.4377 21.91846,12.8752 32.8765,19.3124 10.95803,6.4373 7.08303,-4.0382 10.62331,-6.0577 3.54037,-2.0195 16.38713,8.9283 24.57953,13.392" />
    <g
       id="g7100"
       style="stroke-width:4;stroke-miterlimit:4;stroke-dasharray:none"
       transform="translate(7.5244596,3.398143)">
      <g
         id="g7105-7-3"
         transform="matrix(0.50358025,0,0,0.50358025,867.2743,1124.4745)"
         style="stroke:#ffffff;stroke-width:9.92890453;stroke-miterlimit:4;stroke-dasharray:none">
        <g
           id="g7195-9"
           transform="translate(-100.2022,87.250897)"
           style="stroke:#ffffff">
          <g
             id="g7201-5"
             transform="translate(-2.7265905,76.344535)"
             style="stroke:#ffffff">
            <path
               style="fill:none;stroke:#ffffff;stroke-width:9.92890453;stroke-linecap:round;stroke-linejoin:miter;stroke-miterlimit:4;stroke-dasharray:none;stroke-opacity:1"
               d="m 1662.1958,2370.6031 c -4.9699,2.9171 -9.1105,7.23 -11.8227,12.3146 -2.7121,5.0846 -3.9878,10.9257 -3.6423,16.6781 0.3455,5.7524 2.3111,11.3988 5.6123,16.1222 3.3013,4.7235 7.9283,8.5098 13.2116,10.8111 5.0551,2.2019 10.6963,3.0411 16.1735,2.4059"
               id="path7085-2-3"
               inkscape:connector-curvature="0"
               inkscape:path-effect="#path-effect7087-3-7"
               inkscape:original-d="m 1662.1958,2370.6031 c 1.121,18.6417 2.2406,37.2837 3.3589,55.926 1.1182,18.6424 5.6433,2.7348 16.1735,2.4059"
               sodipodi:nodetypes="ccc" />
            <path
               style="fill:none;stroke:#ffffff;stroke-width:9.92890453;stroke-linecap:round;stroke-linejoin:miter;stroke-miterlimit:4;stroke-dasharray:none;stroke-opacity:1"
               d="m 1659.2448,2447.5786 c -7.034,-5.9731 -16.956,-8.372 -25.9418,-6.2721 -8.9859,2.0999 -16.8172,8.6476 -20.4755,17.1194 -1.6476,3.8155 -2.4806,7.9805 -2.4273,12.1362"
               id="path7089-0-2"
               inkscape:connector-curvature="0"
               inkscape:path-effect="#path-effect7091-3-2"
               inkscape:original-d="m 1659.2448,2447.5786 c -17.8987,-3.8288 -28.5166,14.6741 -46.4173,10.8473 -17.9007,-3.8268 -1.1318,2.1026 -2.4273,12.1362"
               sodipodi:nodetypes="csc" />
            <path
               style="fill:none;stroke:#ffffff;stroke-width:9.92890453;stroke-linecap:round;stroke-linejoin:miter;stroke-miterlimit:4;stroke-dasharray:none;stroke-opacity:1"
               d="m 1567.1108,2404.5319 c 8.5014,0.1307 16.8837,3.938 22.5757,10.2541 5.6921,6.316 8.61,15.0478 7.8588,23.517 -0.9107,10.2676 -7.3053,19.8866 -16.4203,24.7"
               id="path7093-7-4"
               inkscape:connector-curvature="0"
               inkscape:path-effect="#path-effect7095-5-1"
               inkscape:original-d="m 1567.1108,2404.5319 c 10.1451,11.2557 20.29,22.5127 30.4345,33.7711 10.1446,11.2584 -10.9467,16.4653 -16.4203,24.7"
               sodipodi:nodetypes="csc" />
            <path
               style="fill:none;stroke:#ffffff;stroke-width:9.92890453;stroke-linecap:round;stroke-linejoin:miter;stroke-miterlimit:4;stroke-dasharray:none;stroke-opacity:1"
               d="m 1583.6307,2388.8275 c 7.034,5.9731 16.956,8.372 25.9418,6.2721 8.9859,-2.0999 16.8172,-8.6476 20.4755,-17.1194 1.6476,-3.8155 2.4806,-7.9805 2.4273,-12.1362"
               id="path7089-0-8-8"
               inkscape:connector-curvature="0"
               inkscape:path-effect="#path-effect7091-3-3-3"
               inkscape:original-d="m 1583.6307,2388.8275 c 17.8987,3.8288 28.5166,-14.6741 46.4173,-10.8473 17.9007,3.8268 1.1318,-2.1026 2.4273,-12.1362"
               sodipodi:nodetypes="csc" />
          </g>
        </g>
      </g>
      <flowRoot
         xml:space="preserve"
         id="flowRoot7314-6"
         style="font-style:normal;font-weight:normal;font-size:40px;line-height:1.25;font-family:sans-serif;letter-spacing:0px;word-spacing:0px;fill:#ffffff;fill-opacity:1;stroke:none;stroke-width:10;stroke-miterlimit:4;stroke-dasharray:none;"
         transform="rotate(-18.890727,1413.9792,2558.6657)"><flowRegion
           id="flowRegion7316-6"
           style="stroke:none;stroke-width:10;stroke-miterlimit:4;stroke-dasharray:none;fill:#ffffff;"><rect
             id="rect7318-68"
             width="302.92017"
             height="133.98393"
             x="1427.2201"
             y="2902.9851"
             style="stroke:none;stroke-width:10;stroke-miterlimit:4;stroke-dasharray:none;fill:#ffffff;" /></flowRegion><flowPara
           id="flowPara7320-3"
           style="font-weight:bold;font-size:85.33333588px;fill:#ffffff;stroke:none;stroke-width:10;stroke-miterlimit:4;stroke-dasharray:none;">♩♪♫♬</flowPara></flowRoot>      <flowRoot
         xml:space="preserve"
         id="flowRoot7314-1-7"
         style="font-style:normal;font-weight:normal;font-size:40px;line-height:1.25;font-family:sans-serif;letter-spacing:0px;word-spacing:0px;fill:#ffffff;fill-opacity:1;stroke:none;stroke-width:10;stroke-miterlimit:4;stroke-dasharray:none;"
         transform="rotate(-18.890727,1222.0972,945.31942)"
         inkscape:transform-center-x="199.09328"
         inkscape:transform-center-y="60.414514"><flowRegion
           id="flowRegion7316-1-5"
           style="stroke:none;stroke-width:10;stroke-miterlimit:4;stroke-dasharray:none;fill:#ffffff;"><rect
             id="rect7318-6-4"
             width="302.92017"
             height="133.98393"
             x="1427.2201"
             y="2902.9851"
             style="stroke:none;stroke-width:10;stroke-miterlimit:4;stroke-dasharray:none;fill:#ffffff;" /></flowRegion><flowPara
           id="flowPara7320-2-6"
           style="font-weight:bold;font-size:85.33333588px;fill:#ffffff;stroke:none;stroke-width:10;stroke-linecap:round;stroke-miterlimit:4;stroke-dasharray:none;">♪♫</flowPara></flowRoot>      <text
         xml:space="preserve"
         style="font-style:normal;font-weight:normal;font-size:40px;line-height:1.25;font-family:sans-serif;letter-spacing:0px;word-spacing:0px;fill:#ffffff;fill-opacity:1;stroke:none"
         x="-282.75159"
         y="2842.4385"
         id="text7432"
         transform="rotate(-31.958913)"
         inkscape:transform-center-x="18.447062"
         inkscape:transform-center-y="26.214246"><tspan
           sodipodi:role="line"
           id="tspan7430"
           x="-282.75159"
           y="2842.4385"
           style="fill:#ffffff">💔</tspan></text>
      <path
         style="fill:none;stroke:#ffffff;stroke-width:3;stroke-linecap:butt;stroke-linejoin:miter;stroke-miterlimit:4;stroke-dasharray:none;stroke-opacity:1"
         d="m 1422.6915,2579.1073 48.0595,-10.1944 -1.9418,11.6508 23.3015,-24.7579 -20.8743,37.865 20.3889,-23.787 -1.9418,9.2235 14.5635,-11.1653 35.9232,-10.1944"
         id="path7481"
         inkscape:connector-curvature="0" />
    </g>
    <text
       xml:space="preserve"
       style="font-style:normal;font-variant:normal;font-weight:normal;font-stretch:normal;font-size:35.96505356px;line-height:0%;font-family:Lavi;-inkscape-font-specification:Lavi;text-align:center;letter-spacing:0px;word-spacing:0px;text-anchor:middle;opacity:1;fill:#ffffff;fill-opacity:1;stroke:#ffffff;stroke-width:2.71630359;stroke-miterlimit:4;stroke-dasharray:none;stroke-dashoffset:0;"
       x="3007.4211"
       y="1432.8616"
       id="text4246-3-9-7-3-2-17"
       transform="matrix(0.88995355,0.50244313,-0.48105245,0.85206526,0,0)"><tspan
         sodipodi:role="line"
         style="font-size:134.86895752px;line-height:1.20000005;fill:#ffffff;stroke:#ffffff;stroke-width:2.71630359;stroke-miterlimit:4;stroke-dasharray:none;stroke-dashoffset:0;"
         x="3007.4211"
         y="1432.8616"
         id="tspan981-1-3">♥</tspan></text>
    <text
       xml:space="preserve"
       style="font-style:normal;font-variant:normal;font-weight:normal;font-stretch:normal;font-size:20.27833176px;line-height:0%;font-family:Lavi;-inkscape-font-specification:Lavi;text-align:center;letter-spacing:0px;word-spacing:0px;text-anchor:middle;opacity:1;fill:#ffffff;fill-opacity:1;stroke:#ffffff;stroke-width:2.94656777;stroke-miterlimit:4;stroke-dasharray:none;stroke-dashoffset:0;"
       x="3171.676"
       y="-1069.4431"
       id="text4246-3-9-7-3-2-9-8"
       transform="matrix(0.31686883,0.97162779,-0.93026235,0.30337867,0,0)"><tspan
         sodipodi:role="line"
         style="font-size:76.04374695px;line-height:1.20000005;fill:#ffffff;stroke:#ffffff;stroke-width:2.94656777;stroke-miterlimit:4;stroke-dasharray:none;stroke-dashoffset:0;"
         x="3171.676"
         y="-1069.4431"
         id="tspan981-1-8-99">♥</tspan></text>
    <text
       xml:space="preserve"
       style="font-style:normal;font-variant:normal;font-weight:normal;font-stretch:normal;font-size:31.72637367px;line-height:0%;font-family:Lavi;-inkscape-font-specification:Lavi;text-align:center;letter-spacing:0px;word-spacing:0px;text-anchor:middle;opacity:1;fill:#ff7f2a;fill-opacity:1;stroke:#ffffff;stroke-width:2.39617229;stroke-miterlimit:4;stroke-dasharray:none;stroke-dashoffset:0"
       x="3007.4131"
       y="1428.387"
       id="text4246-3-9-7-3-2-17-9"
       transform="matrix(0.88995355,0.50244313,-0.48105245,0.85206526,0,0)"><tspan
         sodipodi:role="line"
         style="font-size:118.97390747px;line-height:1.20000005;fill:#ff7f2a;stroke:#ffffff;stroke-width:2.39617229;stroke-miterlimit:4;stroke-dasharray:none;stroke-dashoffset:0"
         x="3007.4131"
         y="1428.387"
         id="tspan981-1-3-9">♥</tspan></text>
    <text
       xml:space="preserve"
       style="font-style:normal;font-variant:normal;font-weight:normal;font-stretch:normal;font-size:16.62121582px;line-height:0%;font-family:Lavi;-inkscape-font-specification:Lavi;text-align:center;letter-spacing:0px;word-spacing:0px;text-anchor:middle;opacity:1;fill:#ff7f2a;fill-opacity:1;stroke:#ffffff;stroke-width:2.41516614;stroke-miterlimit:4;stroke-dasharray:none;stroke-dashoffset:0"
       x="3171.647"
       y="-1074.1871"
       id="text4246-3-9-7-3-2-9-8-8"
       transform="matrix(0.31686883,0.97162779,-0.93026235,0.30337867,0,0)"><tspan
         sodipodi:role="line"
         style="font-size:62.32956314px;line-height:1.20000005;fill:#ff7f2a;stroke:#ffffff;stroke-width:2.41516614;stroke-miterlimit:4;stroke-dasharray:none;stroke-dashoffset:0"
         x="3171.647"
         y="-1074.1871"
         id="tspan981-1-8-99-6">♥</tspan></text>
  </g>
</svg>
