<?xml version="1.0" encoding="UTF-8" standalone="no"?>
<svg
   xmlns:dc="http://purl.org/dc/elements/1.1/"
   xmlns:cc="http://creativecommons.org/ns#"
   xmlns:rdf="http://www.w3.org/1999/02/22-rdf-syntax-ns#"
   xmlns:svg="http://www.w3.org/2000/svg"
   xmlns="http://www.w3.org/2000/svg"
   xmlns:xlink="http://www.w3.org/1999/xlink"
   xmlns:sodipodi="http://sodipodi.sourceforge.net/DTD/sodipodi-0.dtd"
   xmlns:inkscape="http://www.inkscape.org/namespaces/inkscape"
   sodipodi:docname="E13P04.svg"
   height="3503"
   width="2481"
   inkscape:version="1.0 (4035a4fb49, 2020-05-01)"
   version="1.1"
   id="svg2">
  <sodipodi:namedview
     inkscape:document-rotation="0"
     inkscape:window-maximized="0"
     inkscape:window-y="26"
     inkscape:window-x="0"
     inkscape:snap-global="false"
     inkscape:current-layer="layer1"
     inkscape:cy="1652.3132"
     inkscape:cx="1574.5759"
     inkscape:zoom="0.37194735"
     showgrid="false"
     id="namedview70"
     inkscape:window-height="955"
     inkscape:window-width="1813"
     inkscape:pageshadow="2"
     inkscape:pageopacity="0"
     bordercolor="#666666"
     pagecolor="#ffffff" />
  <metadata
     id="metadata8">
    <rdf:RDF>
      <cc:Work
         rdf:about="">
        <dc:format>image/svg+xml</dc:format>
        <dc:type
           rdf:resource="http://purl.org/dc/dcmitype/StillImage" />
        <dc:title />
      </cc:Work>
    </rdf:RDF>
  </metadata>
  <defs
     id="defs6">
    <linearGradient
       id="linearGradient4313"
       inkscape:collect="always">
      <stop
         id="stop4315"
         offset="0"
         style="stop-color:#ff8bff;stop-opacity:1;" />
      <stop
         id="stop4317"
         offset="1"
         style="stop-color:#ffffff;stop-opacity:1" />
    </linearGradient>
    <filter
       inkscape:label="deevad outline effect"
       id="filter5561"
       style="color-interpolation-filters:sRGB">
      <feFlood
         result="flood"
         flood-color="rgb(0,0,0)"
         flood-opacity="1"
         id="feFlood5563" />
      <feComposite
         result="composite1"
         operator="in"
         in="flood"
         in2="SourceGraphic"
         id="feComposite5565" />
      <feMorphology
         result="result3"
         radius="5.5"
         operator="dilate"
         id="feMorphology5567" />
      <feComposite
         result="composite2"
         operator="over"
         in="SourceGraphic"
         in2="result3"
         id="feComposite5569" />
    </filter>
    <filter
       inkscape:menu-tooltip="Create a turbulent contour around"
       inkscape:menu="Distort"
       height="1.4"
       y="-0.2"
       inkscape:label="Rough and Dilate"
       id="filter5561-2"
       style="color-interpolation-filters:sRGB;">
      <feFlood
         result="flood"
         flood-color="rgb(0,0,0)"
         flood-opacity="1"
         id="feFlood5563-5" />
      <feComposite
         result="composite1"
         operator="in"
         in="flood"
         in2="SourceGraphic"
         id="feComposite5565-5" />
      <feMorphology
         result="result3"
         radius="5.5"
         operator="dilate"
         id="feMorphology5567-9" />
      <feComposite
         result="fbSourceGraphic"
         operator="over"
         in="SourceGraphic"
         in2="result3"
         id="feComposite5569-5" />
      <feColorMatrix
         id="feColorMatrix4476"
         values="0 0 0 -1 0 0 0 0 -1 0 0 0 0 -1 0 0 0 0 1 0"
         in="fbSourceGraphic"
         result="fbSourceGraphicAlpha" />
      <feMorphology
         in="fbSourceGraphic"
         result="result8"
         operator="dilate"
         radius="7"
         id="feMorphology4478" />
      <feComposite
         k3="0.5"
         k1="0.5"
         operator="arithmetic"
         in="fbSourceGraphic"
         result="result10"
         in2="result8"
         id="feComposite4480" />
      <feTurbulence
         baseFrequency="0.07"
         numOctaves="3"
         type="fractalNoise"
         result="result11"
         id="feTurbulence4482" />
      <feDisplacementMap
         scale="10"
         xChannelSelector="R"
         in="result10"
         result="result12"
         in2="result11"
         id="feDisplacementMap4484" />
      <feComposite
         k3="0.75"
         k2="0.25"
         k1="0.25"
         in="fbSourceGraphic"
         result="result13"
         operator="arithmetic"
         in2="result12"
         id="feComposite4486" />
    </filter>
    <filter
       inkscape:label="Roughen"
       id="filter5561-7"
       style="color-interpolation-filters:sRGB;">
      <feFlood
         result="flood"
         flood-color="rgb(95,27,88)"
         flood-opacity="1"
         id="feFlood5563-4" />
      <feComposite
         result="composite1"
         operator="in"
         in="flood"
         in2="SourceGraphic"
         id="feComposite5565-6" />
      <feMorphology
         result="result3"
         radius="5.5"
         operator="dilate"
         id="feMorphology5567-3" />
      <feComposite
         result="fbSourceGraphic"
         operator="over"
         in="SourceGraphic"
         in2="result3"
         id="feComposite5569-6" />
      <feColorMatrix
         id="feColorMatrix4681"
         values="0 0 0 -1 0 0 0 0 -1 0 0 0 0 -1 0 0 0 0 1 0"
         in="fbSourceGraphic"
         result="fbSourceGraphicAlpha" />
      <feTurbulence
         in="fbSourceGraphic"
         result="turbulence"
         baseFrequency="0.001 0.0199"
         seed="33"
         numOctaves="1"
         type="fractalNoise"
         id="feTurbulence4683" />
      <feDisplacementMap
         xChannelSelector="R"
         yChannelSelector="G"
         scale="37.8"
         in="fbSourceGraphic"
         in2="turbulence"
         id="feDisplacementMap4685" />
    </filter>
    <linearGradient
       gradientUnits="userSpaceOnUse"
       y2="1709.2629"
       x2="2493.7808"
       y1="1709.2629"
       x1="1636.8805"
       id="linearGradient4319"
       xlink:href="#linearGradient4313"
       inkscape:collect="always" />
    <filter
       inkscape:label="deevad outline effect"
       id="filter4375-5-4-9"
       style="color-interpolation-filters:sRGB">
      <feFlood
         result="flood"
         flood-color="rgb(255,255,255)"
         flood-opacity="1"
         id="feFlood4377-0-3-0" />
      <feComposite
         result="composite1"
         operator="in"
         in="flood"
         in2="SourceGraphic"
         id="feComposite4379-6-6-2" />
      <feMorphology
         result="result3"
         radius="4"
         operator="dilate"
         id="feMorphology4393-0-9-2" />
      <feComposite
         result="composite2"
         operator="over"
         in="SourceGraphic"
         in2="result3"
         id="feComposite4385-7-5-85" />
    </filter>
  </defs>
  <sodipodi:namedview
     inkscape:current-layer="layer1"
     inkscape:window-maximized="1"
     inkscape:window-y="26"
     inkscape:window-x="0"
     inkscape:cy="908.03109"
     inkscape:cx="1855.8737"
     inkscape:zoom="0.46000001"
     showgrid="false"
     id="namedview4"
     inkscape:window-height="1025"
     inkscape:window-width="1920"
     inkscape:pageshadow="2"
     inkscape:pageopacity="0"
     guidetolerance="10"
     gridtolerance="10"
     objecttolerance="10"
     borderopacity="1"
     bordercolor="#666666"
     pagecolor="#ffffff" />
  <g
     sodipodi:insensitive="true"
     inkscape:label="artwork"
     id="layer2"
     inkscape:groupmode="layer">
    <image
       sodipodi:absref="C:\Users\stero\Documents\Kernewek\Pepper and Carrot\webcomics\ep13_The-Pyjama-Party\lang\gfx_Pepper-and-Carrot_by-David-Revoy_E13P04.png"
       xlink:href="../gfx_Pepper-and-Carrot_by-David-Revoy_E13P04.png"
       width="2481"
       height="3503"
       id="image10"
       x="0"
       y="0" />
  </g>
  <g
     inkscape:label="speechbubbles"
     id="layer3"
     inkscape:groupmode="layer" />
  <g
     inkscape:label="txt"
     id="layer1"
     inkscape:groupmode="layer">
    <path
       sodipodi:nodetypes="czzsszzc"
       inkscape:connector-curvature="0"
       id="path3286-5"
       d="m 192.57408,1717.8802 c 2.9396,-75.0506 52.33553,-100.6911 104.48567,-115.6344 52.15019,-14.9431 251.64743,-8.2038 286.37284,-0.9295 34.72543,7.2745 86.95345,23.7596 103.25381,60.8195 16.30037,37.06 16.43348,110.5779 -0.19709,136.2262 -17.16196,26.4679 -40.67657,38.9647 -157.31391,47.4923 -116.63737,8.5275 -279.62711,-0.9849 -306.52145,-34.9707 -26.89438,-33.9857 -29.83248,-47.5964 -30.07987,-93.0034 z"
       style="fill:#ffffff;stroke:none;stroke-width:1.03640795" />
    <path
       sodipodi:nodetypes="ccccccccccccccccccc"
       inkscape:connector-curvature="0"
       id="path4772"
       d="m 333.3784,3035.1905 c 25.60091,4.7867 29.15684,-6.3823 10.66709,-33.5074 25.17472,14.8421 25.82493,-1.4971 22.93425,-22.3382 12.93818,15.244 21.72974,11.8803 26.13439,-11.1691 8.91774,3.6485 11.74778,23.2323 30.93457,0 11.02267,27.953 22.04533,10.778 33.068,0 -5.55411,23.0037 1.49226,28.0161 27.2011,6.3823 -12.30069,26.2842 -5.65206,28.7591 17.6007,10.3713 -16.79837,27.9876 1.86549,29.4529 18.13407,32.7097 -10.7893,16.2549 -12.29282,27.6078 1.06671,31.1139 -25.32117,2.7296 -21.48571,13.8462 -10.13375,27.125 -22.11183,-5.5013 -29.60746,-0.071 -17.6007,19.9449 -34.17608,-21.926 -28.6903,-5.9202 -30.40123,4.7868 -14.47015,-8.2656 -18.2249,-19.6075 -30.40122,3.1911 -7.23293,-7.0168 -8.37344,-23.6942 -31.46793,-0.7978 -5.32485,-25.8323 -18.88273,-7.224 -29.33451,-3.989 1.84383,-13.6123 3.34113,-26.8298 -24.00096,-7.1801 5.11171,-13.4442 8.81452,-26.0638 -18.13407,-20.7426 23.37457,-13.3462 13.70534,-24.6329 3.73349,-35.9008 z"
       style="fill:#ffffff;fill-rule:evenodd;stroke:none;stroke-width:1px;stroke-linecap:butt;stroke-linejoin:miter;stroke-opacity:1" />
    <path
       inkscape:connector-curvature="0"
       id="path3581"
       d="m 1846.3474,1924.1189 c 54.3098,-48.3252 137.7616,34.2953 137.7616,34.2953 l -23.8433,15.5888 c 0,0 -66.2317,-63.914 -113.9183,-49.8841 z"
       style="color:#000000;display:inline;overflow:visible;visibility:visible;fill:#ffffff;fill-opacity:1;fill-rule:nonzero;stroke:none;stroke-width:1px;marker:none;enable-background:accumulate" />
    <path
       sodipodi:nodetypes="czzzczzzzc"
       inkscape:connector-curvature="0"
       id="path3278"
       d="m 1901.6682,1949.8114 c 3.8664,-37.8654 19.9998,-69.5074 64.7282,-83.7107 44.7284,-14.2033 73.4984,-16.1921 135.033,-15.5033 61.5344,0.6886 182.5314,-4.4241 221.2909,25.5154 38.7596,29.9396 42.6139,33.9219 47.6222,55.7394 1.2625,39.9746 -18.1584,83.0581 -55.9524,92.3298 -37.7941,9.2716 -71.1353,10.6812 -104.282,12.9646 -33.1469,2.2833 -79.3373,1.4179 -120.7205,-3.0374 -41.3831,-4.4554 -85.1644,-4.1103 -129.516,-13.5736 -44.3514,-9.4632 -60.2726,-46.0611 -58.2034,-70.7242 z"
       style="fill:#ffffff;stroke:none;stroke-width:1.02684486" />
    <path
       inkscape:connector-curvature="0"
       id="path4018"
       d="m 813.82924,1837.1097 c -33.9191,-40.941 -65.92763,-19.5814 -77.33904,-16.6284 -11.4114,2.9531 -52.60696,13.9731 -78.13395,-21.0927 -25.52709,-35.0658 -73.65265,-32.0238 -73.65265,-32.0238 l 37.03502,53.2829 c 0,0 43.26371,26.3805 71.49065,25.0393 28.22696,-1.3413 64.27245,-20.6563 78.41788,-18.5689 14.14543,2.0872 29.27593,-0.6069 42.18209,9.9916 z"
       style="color:#000000;display:inline;overflow:visible;visibility:visible;fill:#ffffff;fill-opacity:1;fill-rule:nonzero;stroke:none;stroke-width:1px;marker:none;enable-background:accumulate" />
    <path
       sodipodi:nodetypes="czzsszzc"
       inkscape:connector-curvature="0"
       id="path3286"
       d="m 129.92266,1549.7261 c 2.05552,-52.9482 36.59557,-71.0376 73.06152,-81.5801 36.46597,-10.5423 175.96424,-5.7878 200.24597,-0.6557 24.28173,5.1322 60.80212,16.7623 72.20013,42.9081 11.39802,26.1458 11.4911,78.0127 -0.1378,96.1076 -12.0005,18.6731 -28.44307,27.4895 -110.00164,33.5058 -81.55857,6.0161 -195.52901,-0.6949 -214.33485,-24.6718 -18.80588,-23.9769 -20.86034,-33.5793 -21.03333,-65.6139 z"
       style="fill:#ffffff;stroke:none" />
    <path
       sodipodi:nodetypes="cscc"
       inkscape:connector-curvature="0"
       id="path5002-9"
       d="m 925.82015,1139.8112 c 16.63467,9.0232 47.05013,2.0854 61.28297,-23.6046 17.87068,-32.2563 -11.97622,-20.9955 -11.97622,-20.9955 0.0814,-0.061 -3.47121,44.011 -49.30675,44.6001 z"
       style="color:#000000;display:inline;overflow:visible;visibility:visible;fill:#ffffff;fill-opacity:1;fill-rule:nonzero;stroke:none;stroke-width:1px;marker:none;enable-background:accumulate" />
    <path
       sodipodi:nodetypes="cscc"
       inkscape:connector-curvature="0"
       id="path5002"
       d="m 1134.9962,1140.2619 c -25.741,11.1526 -80.3236,-13.645 -112.6963,-70.5424 -29.27128,-51.4465 30.2332,-17.5435 30.2332,-17.5435 4e-4,6e-4 11.568,79.3325 82.4631,88.0859 z"
       style="color:#000000;display:inline;overflow:visible;visibility:visible;fill:#ffffff;fill-opacity:1;fill-rule:nonzero;stroke:none;stroke-width:1px;marker:none;enable-background:accumulate" />
    <path
       sodipodi:nodetypes="cccccccc"
       inkscape:connector-curvature="0"
       id="path5066"
       d="m 1860.7345,1231.4626 c -29.3243,-17.0899 -69.3663,-25.6198 -78.1589,-28.7136 2.1366,12.1275 2.025,23.0126 2.0838,31.5199 -16.0062,-7.2575 -37.5948,-15.932 -65.1657,-36.5525 36.0806,42.3309 57.0072,53.741 83.8544,63.4589 1.7902,-11.0167 -1.9102,-22.0558 -0.8303,-27.815 13.5586,4.139 51.0032,27.6675 51.0032,27.6675 z"
       style="color:#000000;display:inline;overflow:visible;visibility:visible;fill:#ffffff;fill-opacity:1;fill-rule:nonzero;stroke:none;stroke-width:1px;marker:none;enable-background:accumulate" />
    <path
       sodipodi:nodetypes="zsssssz"
       inkscape:connector-curvature="0"
       id="path3330"
       d="m 1833.0433,1158.0788 c 47.6848,-64.6807 316.6948,-66.9234 406.907,-42.0532 90.2114,24.8701 128.6994,39.7688 133.6476,95.4876 2.7333,30.7787 -3.6348,94.6023 -48.982,111.1335 -45.3473,16.5314 -180.4227,20.1555 -226.1904,21.4567 -45.7678,1.3015 -192.1354,-4.2382 -229.7211,-25.4758 -35.9546,-20.3163 -83.3458,-95.8685 -35.6611,-160.5488 z"
       style="color:#000000;display:inline;overflow:visible;visibility:visible;fill:#ffffff;fill-opacity:1;fill-rule:nonzero;stroke:none;stroke-width:1.03213px;marker:none;enable-background:accumulate" />
    <text
       id="text4246"
       y="1172.4745"
       x="2097.5676"
       style="font-style:normal;font-variant:normal;font-weight:normal;font-stretch:normal;line-height:0%;font-family:Lavi;-inkscape-font-specification:Lavi;text-align:center;letter-spacing:0px;word-spacing:0px;text-anchor:middle;fill:#000000;fill-opacity:1;stroke:none"
       xml:space="preserve"><tspan
         id="tspan4152"
         y="1172.4745"
         x="2097.5676"
         style="font-size:45px;line-height:1.25"
         sodipodi:role="line">War yew, mowysi,</tspan><tspan
         id="tspan93"
         y="1228.7245"
         x="2097.5676"
         style="font-size:45px;line-height:1.25"
         sodipodi:role="line">prederyn,</tspan><tspan
         id="tspan95"
         y="1284.9745"
         x="2097.5676"
         style="font-size:45px;line-height:1.25"
         sodipodi:role="line">ogas dhe'n gorfen eson!</tspan></text>
    <path
       sodipodi:nodetypes="csssc"
       inkscape:connector-curvature="0"
       id="path3565"
       d="m 877.83523,1068.5833 c -0.12395,-43.0003 64.06816,-51.0724 152.02717,-48.9794 81.5044,1.9394 135.811,-2.4352 135.6573,41.4714 -0.2123,60.6403 -63.3287,52.2611 -142.6434,50.054 -70.63888,-1.9656 -144.2973,12.4305 -145.04107,-42.546 z"
       style="color:#000000;display:inline;overflow:visible;visibility:visible;fill:#ffffff;fill-opacity:1;fill-rule:nonzero;stroke:none;stroke-width:1px;marker:none;enable-background:accumulate" />
    <text
       id="text4246-2"
       y="1083.8337"
       x="1023.7598"
       style="font-style:normal;font-variant:normal;font-weight:normal;font-stretch:normal;line-height:0%;font-family:Lavi;-inkscape-font-specification:Lavi;text-align:center;letter-spacing:0px;word-spacing:0px;text-anchor:middle;fill:#000000;fill-opacity:1;stroke:none"
       xml:space="preserve"><tspan
         id="tspan4152-6"
         y="1083.8337"
         x="1023.7598"
         style="font-size:45px;line-height:1.25"
         sodipodi:role="line">Ti-hi-hiii!</tspan></text>
    <text
       id="text4246-9"
       y="1534.188"
       x="311.37515"
       style="font-style:normal;font-variant:normal;font-weight:normal;font-stretch:normal;line-height:0%;font-family:Lavi;-inkscape-font-specification:Lavi;text-align:center;letter-spacing:0px;word-spacing:0px;text-anchor:middle;fill:#000000;fill-opacity:1;stroke:none"
       xml:space="preserve"><tspan
         id="tspan4198"
         y="1534.188"
         x="311.37515"
         style="font-size:45px;line-height:1.25"
         sodipodi:role="line">Ogh,</tspan><tspan
         id="tspan99"
         y="1590.438"
         x="311.37515"
         style="font-size:45px;line-height:1.25"
         sodipodi:role="line">da lowr yw...!</tspan></text>
    <text
       id="text4246-9-0"
       y="1937.9561"
       x="2137.0076"
       style="font-style:normal;font-variant:normal;font-weight:normal;font-stretch:normal;line-height:0%;font-family:Lavi;-inkscape-font-specification:Lavi;text-align:center;letter-spacing:0px;word-spacing:0px;text-anchor:middle;fill:#000000;fill-opacity:1;stroke:none"
       xml:space="preserve"><tspan
         id="tspan3646"
         y="1937.9561"
         x="2144.0388"
         style="font-size:45px;line-height:1.25"
         sodipodi:role="line">...ha ny dhallethsyn </tspan><tspan
         id="tspan112"
         y="1994.2061"
         x="2137.0076"
         style="font-size:45px;line-height:1.25"
         sodipodi:role="line">hwath...</tspan></text>
    <text
       transform="matrix(1.2066724,-0.38117004,-1.2048155,2.6846741,210.8676,-1444.7715)"
       id="text4251"
       y="1742.2045"
       x="1705.2566"
       style="color:#000000;font-style:normal;font-variant:normal;font-weight:normal;font-stretch:normal;line-height:0%;font-family:Arial;-inkscape-font-specification:Arial;letter-spacing:0.0273496px;word-spacing:0px;display:inline;overflow:visible;visibility:visible;fill:url(#linearGradient4319);fill-opacity:1;fill-rule:nonzero;stroke:#ffffff;stroke-width:1.1156;stroke-linecap:butt;stroke-linejoin:miter;stroke-miterlimit:4;stroke-dasharray:none;stroke-dashoffset:0;stroke-opacity:1;marker:none;filter:url(#filter5561-7);enable-background:accumulate"
       xml:space="preserve"><tspan
         style="font-style:normal;font-variant:normal;font-weight:normal;font-stretch:normal;font-size:160.12px;line-height:1.25;font-family:Lavi;-inkscape-font-specification:Lavi;fill:url(#linearGradient4319);fill-opacity:1"
         y="1742.2045"
         x="1705.2566"
         id="tspan4253"
         sodipodi:role="line"><tspan
           id="tspan4349"
           style="font-size:90px;fill:url(#linearGradient4319);fill-opacity:1">PHRoooOwwoww</tspan><tspan
           style="font-size:45.5771px;fill:url(#linearGradient4319);fill-opacity:1"
           id="tspan4365"> ! </tspan><tspan
           style="font-size:55.844px;fill:url(#linearGradient4319);fill-opacity:1"
           id="tspan4311">! </tspan><tspan
           style="font-size:72.5136px;fill:url(#linearGradient4319);fill-opacity:1"
           id="tspan4369">!</tspan></tspan></text>
    <text
       transform="matrix(0.93976911,-0.43795269,-0.15709312,1.3120201,-958.24084,3010.993)"
       id="text4136"
       y="691.71692"
       x="1367.1063"
       style="color:#000000;font-style:normal;font-variant:normal;font-weight:normal;font-stretch:normal;line-height:0%;font-family:Lavi;-inkscape-font-specification:'Lavi, Normal';text-align:center;letter-spacing:0px;word-spacing:0px;writing-mode:lr-tb;text-anchor:middle;clip-rule:nonzero;display:inline;overflow:visible;visibility:visible;opacity:1;isolation:auto;mix-blend-mode:normal;color-interpolation:sRGB;color-interpolation-filters:linearRGB;solid-color:#000000;solid-opacity:1;fill:#000000;fill-opacity:1;fill-rule:nonzero;stroke:#000000;stroke-width:0.9;stroke-linecap:butt;stroke-linejoin:miter;stroke-miterlimit:4;stroke-dasharray:none;stroke-dashoffset:0;stroke-opacity:1;filter:url(#filter4375-5-4-9);color-rendering:auto;image-rendering:auto;shape-rendering:auto;text-rendering:auto;enable-background:accumulate"
       xml:space="preserve"><tspan
         style="font-size:47.0037px;line-height:1.25"
         y="691.71692"
         x="1367.1063"
         id="tspan4138"
         sodipodi:role="line">Shhshh</tspan></text>
    <path
       sodipodi:nodetypes="cccccccccccccccccccccccccc"
       inkscape:connector-curvature="0"
       id="path3549-3-3-0"
       d="m 1145.8121,3004.3887 c -48.8266,-24.6631 -98.6378,-49.1001 -9.322,-105.5357 -83.7977,12.6957 -31.9502,-18.4527 -10.9566,-39.6288 -150.05837,38.5784 -52.1721,-28.1113 -14.5643,-69.2092 -33.6141,15.8089 -87.6939,61.5934 -66.1212,-3.4269 -31.8085,26.76 -62.84139,28.84 -57.58403,2.4478 -13.624,16.0125 -22.27143,20.0738 -21.75983,2.1409 -12.83098,13.1422 -30.40781,25.5876 -16.51467,-39.116 -42.423,78.1529 -68.00874,66.3258 -83.46992,44.4767 -17.04941,29.1513 -28.43264,31.365 -54.30023,-22.7814 -19.2506,68.2496 -50.92532,31.9883 -75.40653,-15.6446 2.7149,90.0975 -71.65842,59.2792 -106.68477,29.7891 9.53803,43.7879 -9.29316,63.0406 -68.81173,17.5406 -3.61651,17.4025 -22.0475,23.9495 -53.69767,20.8107 31.99447,22.1142 33.36927,34.1882 -41.76818,21.1751 52.12724,18.9029 100.13163,37.6795 18.23508,52.4815 23.46813,9.4963 108.78901,5.3784 11.20641,73.3166 51.78013,-15.2743 138.77705,2.9616 105.03181,53.7344 40.73282,-32.6662 83.67663,-55.1513 77.7033,17.8145 40.45712,-75.6801 61.85078,-47.7548 65.21035,-3.6181 3.1882,-34.5099 28.9167,-91.7943 71.65635,-8.2274 -8.31182,-36.1815 5.27633,-76.9575 51.80558,19.0221 19.66783,-42.3536 -5.16469,-94.2997 94.41034,-15.675 -15.21706,-72.4569 35.04386,-34.3798 70.17484,-8.8165 -16.6039,-45.6446 26.7876,-22.4894 84.431,5.4484 -43.9062,-44.2015 2.0382,-30.9628 31.0966,-28.5188 z"
       style="color:#000000;display:inline;overflow:visible;visibility:visible;fill:#ffffff;fill-opacity:1;fill-rule:nonzero;stroke:none;stroke-width:1px;marker:none;enable-background:accumulate" />
    <text
       transform="scale(0.95730752,1.0445964)"
       id="text4246-9-0-7-1"
       y="2933.5452"
       x="442.97519"
       style="font-style:normal;font-variant:normal;font-weight:normal;font-stretch:normal;line-height:0%;font-family:Lavi;-inkscape-font-specification:Lavi;text-align:center;letter-spacing:0px;word-spacing:0px;text-anchor:middle;fill:#000000;fill-opacity:1;stroke:none;stroke-width:1.2;stroke-miterlimit:4;stroke-dasharray:none"
       xml:space="preserve"><tspan
         id="tspan4233-2-3"
         y="2933.5452"
         x="442.97519"
         style="font-size:68.7514px;line-height:1.25;stroke:#000000;stroke-width:1.83337;stroke-miterlimit:4;stroke-dasharray:none;stroke-opacity:1"
         sodipodi:role="line">?!!</tspan></text>
    <path
       inkscape:transform-center-y="5.8665716"
       inkscape:transform-center-x="-12.082509"
       sodipodi:nodetypes="ccccccccc"
       inkscape:connector-curvature="0"
       id="path4780"
       d="m 773.78167,3178.749 18.32267,-106.7687 -28.18166,5.4285 -0.52352,-31.4691 0.74104,-70.3298 26.77283,2.65 -3.34988,74.5691 30.45945,-5.9173 z"
       style="fill:#ffffff;fill-rule:evenodd;stroke:none;stroke-width:1px;stroke-linecap:butt;stroke-linejoin:miter;stroke-opacity:1" />
    <path
       sodipodi:nodetypes="cccccccc"
       inkscape:connector-curvature="0"
       id="path4782"
       d="m 503.71196,3181.8003 -28.43105,-56.3497 -25.3357,11.715 -29.60898,-52.061 22.6684,-5.0037 11.81036,40.4128 23.42857,-14.339 z"
       style="fill:#ffffff;fill-rule:evenodd;stroke:none;stroke-width:1px;stroke-linecap:butt;stroke-linejoin:miter;stroke-opacity:1" />
    <text
       transform="scale(0.95790111,1.0439491)"
       id="text4246-9-0-9"
       y="2822.2231"
       x="842.24982"
       style="font-style:normal;font-variant:normal;font-weight:normal;font-stretch:normal;line-height:0%;font-family:Lavi;-inkscape-font-specification:Lavi;text-align:center;letter-spacing:0px;word-spacing:0px;text-anchor:middle;fill:#000000;fill-opacity:1;stroke:#000000;stroke-width:2.299;stroke-miterlimit:4;stroke-dasharray:none;stroke-opacity:1"
       xml:space="preserve"><tspan
         id="tspan4206-3"
         y="2822.2231"
         x="842.24982"
         style="font-style:normal;font-variant:normal;font-weight:bold;font-stretch:normal;font-size:60.6184px;line-height:1.25;font-family:Lavi;-inkscape-font-specification:'Lavi Bold';stroke:none;stroke-width:2.299;stroke-miterlimit:4;stroke-dasharray:none;stroke-opacity:1"
         sodipodi:role="line"><tspan
           id="tspan4275"
           style="font-style:normal;font-variant:normal;font-weight:bold;font-stretch:normal;font-size:87.5425px;font-family:Lavi;-inkscape-font-specification:'Lavi Bold';stroke:none;stroke-width:2.299;stroke-miterlimit:4;stroke-dasharray:none">PEPPER!</tspan><tspan
           id="tspan4208"
           style="font-style:normal;font-variant:normal;font-weight:bold;font-stretch:normal;font-size:93.75px;font-family:Lavi;-inkscape-font-specification:'Lavi Bold';stroke:none;stroke-width:2.299;stroke-miterlimit:4;stroke-dasharray:none">!!</tspan></tspan></text>
    <text
       xml:space="preserve"
       style="font-style:normal;font-variant:normal;font-weight:normal;font-stretch:normal;line-height:0%;font-family:Lavi;-inkscape-font-specification:Lavi;text-align:center;letter-spacing:0px;word-spacing:0px;text-anchor:middle;fill:#000000;fill-opacity:1;stroke:none"
       x="443.13419"
       y="1693.4954"
       id="text4210"><tspan
         id="tspan3638"
         sodipodi:role="line"
         style="font-size:45px;line-height:1.25"
         x="443.13419"
         y="1693.4954">Res yw dhis amyttya</tspan><tspan
         id="tspan106"
         sodipodi:role="line"
         style="font-size:45px;line-height:1.25"
         x="443.13419"
         y="1749.7454">bos an hwithrans ma</tspan><tspan
         id="tspan108"
         sodipodi:role="line"
         style="font-size:45px;line-height:1.25"
         x="443.13419"
         y="1805.9954">pur es...</tspan></text>
  </g>
</svg>
