<?xml version="1.0" encoding="UTF-8" standalone="no"?>
<!-- Created with Inkscape (http://www.inkscape.org/) -->

<svg
   xmlns:dc="http://purl.org/dc/elements/1.1/"
   xmlns:cc="http://creativecommons.org/ns#"
   xmlns:rdf="http://www.w3.org/1999/02/22-rdf-syntax-ns#"
   xmlns:svg="http://www.w3.org/2000/svg"
   xmlns="http://www.w3.org/2000/svg"
   xmlns:xlink="http://www.w3.org/1999/xlink"
   xmlns:sodipodi="http://sodipodi.sourceforge.net/DTD/sodipodi-0.dtd"
   xmlns:inkscape="http://www.inkscape.org/namespaces/inkscape"
   id="svg2"
   version="1.1"
   inkscape:version="0.92.3 (2405546, 2018-03-11)"
   width="2481"
   height="3503"
   sodipodi:docname="E31P06.svg">
  <metadata
     id="metadata8">
    <rdf:RDF>
      <cc:Work
         rdf:about="">
        <dc:format>image/svg+xml</dc:format>
        <dc:type
           rdf:resource="http://purl.org/dc/dcmitype/StillImage" />
        <dc:title />
      </cc:Work>
    </rdf:RDF>
  </metadata>
  <defs
     id="defs6">
    <filter
       style="color-interpolation-filters:sRGB"
       id="filter4375-4-1-1-1-9-5-8-3-8"
       inkscape:label="Drop Shadow">
      <feFlood
         id="feFlood4377-7-9-0-8-1-7-3-8-3"
         flood-opacity="1"
         flood-color="rgb(39,39,39)"
         result="flood" />
      <feComposite
         id="feComposite4379-3-8-8-2-77-4-1-8-7"
         in2="SourceGraphic"
         in="flood"
         operator="in"
         result="composite1" />
      <feMorphology
         id="feMorphology4393-1-0-49-8-9-3-0-31-8"
         operator="dilate"
         radius="6.2000000000000002"
         result="result3" />
      <feComposite
         id="feComposite4385-9-5-7-0-8-8-7-8-2"
         in2="result3"
         in="SourceGraphic"
         operator="over"
         result="fbSourceGraphic" />
      <feColorMatrix
         result="fbSourceGraphicAlpha"
         in="fbSourceGraphic"
         values="0 0 0 -1 0 0 0 0 -1 0 0 0 0 -1 0 0 0 0 1 0"
         id="feColorMatrix4544-96-1" />
      <feTurbulence
         id="feTurbulence4546-4-0"
         type="fractalNoise"
         numOctaves="3"
         seed="37"
         baseFrequency="0.129 0.0050000000000000001"
         result="turbulence" />
      <feDisplacementMap
         id="feDisplacementMap4548-3-5"
         in2="turbulence"
         in="fbSourceGraphic"
         scale="6.6"
         yChannelSelector="G"
         xChannelSelector="R"
         result="fbSourceGraphic" />
      <feColorMatrix
         result="fbSourceGraphicAlpha"
         in="fbSourceGraphic"
         values="0 0 0 -1 0 0 0 0 -1 0 0 0 0 -1 0 0 0 0 1 0"
         id="feColorMatrix4670-33-8" />
      <feFlood
         id="feFlood4672-8-5"
         flood-opacity="0.40999999999999998"
         flood-color="rgb(0,0,0)"
         result="flood"
         in="fbSourceGraphic" />
      <feComposite
         id="feComposite4674-6-5"
         in2="fbSourceGraphic"
         in="flood"
         operator="in"
         result="composite1" />
      <feGaussianBlur
         id="feGaussianBlur4676-0-0"
         in="composite1"
         stdDeviation="0"
         result="blur" />
      <feOffset
         id="feOffset4678-4-7"
         dx="6"
         dy="6"
         result="offset" />
      <feComposite
         id="feComposite4680-8-3"
         in2="offset"
         in="fbSourceGraphic"
         operator="over"
         result="composite2" />
    </filter>
    <filter
       style="color-interpolation-filters:sRGB"
       id="filter4375-4-1-1-1-9-0"
       inkscape:label="deevad outline effect">
      <feFlood
         id="feFlood4377-7-9-0-8-1-9"
         flood-opacity="1"
         flood-color="rgb(0,0,0)"
         result="flood" />
      <feComposite
         id="feComposite4379-3-8-8-2-77-1"
         in2="SourceGraphic"
         in="flood"
         operator="in"
         result="composite1" />
      <feMorphology
         id="feMorphology4393-1-0-49-8-9-9"
         operator="dilate"
         radius="3"
         result="result3" />
      <feComposite
         id="feComposite4385-9-5-7-0-8-6"
         in2="result3"
         in="SourceGraphic"
         operator="over"
         result="composite2" />
    </filter>
    <filter
       style="color-interpolation-filters:sRGB"
       id="filter4375-4-1-1-1-9-0-5"
       inkscape:label="deevad outline effect">
      <feFlood
         id="feFlood4377-7-9-0-8-1-9-6"
         flood-opacity="1"
         flood-color="rgb(0,0,0)"
         result="flood" />
      <feComposite
         id="feComposite4379-3-8-8-2-77-1-2"
         in2="SourceGraphic"
         in="flood"
         operator="in"
         result="composite1" />
      <feMorphology
         id="feMorphology4393-1-0-49-8-9-9-9"
         operator="dilate"
         radius="3"
         result="result3" />
      <feComposite
         id="feComposite4385-9-5-7-0-8-6-1"
         in2="result3"
         in="SourceGraphic"
         operator="over"
         result="composite2" />
    </filter>
  </defs>
  <sodipodi:namedview
     pagecolor="#ffffff"
     bordercolor="#666666"
     borderopacity="1"
     objecttolerance="10"
     gridtolerance="10"
     guidetolerance="10"
     inkscape:pageopacity="0"
     inkscape:pageshadow="2"
     inkscape:window-width="1680"
     inkscape:window-height="987"
     id="namedview4"
     showgrid="false"
     inkscape:zoom="0.64686496"
     inkscape:cx="1910.3864"
     inkscape:cy="2575.6348"
     inkscape:window-x="-8"
     inkscape:window-y="24"
     inkscape:window-maximized="1"
     inkscape:current-layer="layer3"
     inkscape:snap-global="false" />
  <g
     inkscape:groupmode="layer"
     id="layer2"
     inkscape:label="artwork"
     sodipodi:insensitive="true">
    <image
       sodipodi:absref="C:\Users\ato\OneDrive - Høgskulen i Volda\Vevsida\Teikneseriesida\Pepar &amp; Gulrot\ep31_The-Fight_lang-pack\lang\nn\../gfx_Pepper-and-Carrot_by-David-Revoy_E31P06.png"
       xlink:href="../gfx_Pepper-and-Carrot_by-David-Revoy_E31P06.png"
       y="0"
       x="0"
       id="image10"
       height="3503"
       width="2481" />
  </g>
  <g
     inkscape:groupmode="layer"
     id="layer3"
     inkscape:label="speechbubbles">
    <path
       style="color:#000000;display:inline;overflow:visible;visibility:visible;fill:#ffffff;fill-opacity:1;fill-rule:nonzero;stroke:none;stroke-width:1.13598561px;marker:none;enable-background:accumulate"
       d="m 903.04064,2934.9681 c -14.80028,-3.0753 -58.45766,-31.0327 -6.72605,-31.992 -38.6631,-10.7706 -34.90211,-36.1548 -4.41813,-52.3649 -40.82017,5.0058 -71.54896,0.2287 -51.76978,-26.7489 -59.75395,19.5804 -86.47836,24.2844 -75.75637,-12.7729 -26.37374,31.4363 -53.44242,27.1345 -62.14965,-7.7042 -4.94369,26.527 -45.87541,36.8922 -94.6941,4.185 16.63089,30.8416 26.07486,46.8938 -60.70537,42.3823 33.65993,16.7365 55.04665,27.4574 -0.22941,37.9391 28.79808,6.861 47.46713,17.1507 4.1581,37.0684 28.9419,4.2054 74.18851,0.3429 20.88649,36.9929 35.46738,-17.8244 96.60337,-9.1912 71.84071,17.9721 69.62268,-32.5667 83.69967,-25.4803 95.5098,-5.1642 24.87407,-31.8112 76.75374,-37.7434 99.89334,-21.0916 -12.19597,-26.5151 31.503,-17.1146 64.16042,-18.7011 z"
       id="path3549-3-78-5-3"
       inkscape:connector-curvature="0"
       sodipodi:nodetypes="ccccccccccccccc" />
    <path
       style="color:#000000;display:inline;overflow:visible;visibility:visible;fill:#ffffff;fill-opacity:1;fill-rule:nonzero;stroke:none;stroke-width:1.06885004px;marker:none;enable-background:accumulate"
       d="m 838.39132,3030.5222 c -9.65537,-3.2491 -19.61694,-24.3323 -3.92746,-38.4923 -13.0184,-0.7505 -20.4687,-7.9976 -8.18888,-22.8342 -27.29792,18.5751 -34.53445,-6.6639 -25.60372,-36.3179 -40.06678,14.2437 -57.84889,17.148 -49.52226,-14.0927 -18.45714,25.7789 -36.16094,20.9676 -40.72156,-9.189 -4.15929,22.4777 -13.03837,34.7623 -39.50569,6.4609 -1.94826,8.2475 7.01731,35.3729 -50.0544,27.8836 21.62865,15.7208 34.60529,18.607 -2.20024,25.2574 18.75744,7.0723 43.68607,17.6778 14.45197,32.8982 18.94231,4.8072 36.70581,9.5491 0.31487,38.6598 23.9922,-13.7584 49.52162,-4.8427 32.27172,17.3497 47.01469,-24.9359 56.0571,-18.287 63.15618,-0.4196 17.48094,-26.1623 42.74406,-23.1991 57.43826,-7.9911 -7.14336,-23.1846 30.50245,-19.1825 52.09121,-19.1728 z"
       id="path3549-3-78-5"
       inkscape:connector-curvature="0"
       sodipodi:nodetypes="ccccccccccccccc" />
    <path
       style="fill:#ffffff;fill-opacity:1;stroke:none;stroke-width:0.99690831"
       d="m 2336.0954,607.49643 c -15.6561,3.86007 -21.6824,7.46431 -18.8791,9.6977 -6.422,1.09817 -8.8959,30.03928 -2.8898,35.3413 0.3997,0.55806 3.2046,2.23433 2,2.50979 -1.2039,0.27548 -8.4238,-0.5762 -9.6299,0.53413 -1.2062,1.11089 10.7934,17.00347 9.1873,17.5563 -1.6061,0.55338 -38.4928,-10.10974 -43.7142,-7.61678 -5.2215,2.49298 -2.4277,8.9012 -4.0331,9.17575 -1.6053,0.27454 -16.4464,-1.42978 -18.4529,-1.15616 -2.0067,0.2736 -5.6367,8.61487 -7.6433,8.88847 -2.0069,0.27362 -11.2256,-3.64446 -12.8309,-3.36991 -1.6056,0.27454 -0.8192,7.23467 -2.8257,7.50829 -2.0068,0.2736 -10.8192,-5.86981 -12.0236,-5.59434 -1.2041,0.27548 -5.6495,14.1817 -7.6573,15.01188 -2.0081,0.83018 -14.8093,-15.34253 -16.0125,-15.62363 -1.2029,-0.28165 -8.87,18.90564 -10.4753,19.18018 -1.6058,0.27454 -9.5989,-13.1041 -10.8034,-12.82862 -1.2042,0.27548 -8.8449,8.05138 -10.451,8.60421 -1.6061,0.55283 -11.9964,-17.28455 -13.6014,-17.28829 -1.6048,-0.004 -15.2631,7.47929 -16.4699,8.86791 -1.2069,1.38917 -2.3905,-7.24215 -3.9953,-7.24589 -1.6047,-0.004 -20.0719,4.96349 -20.4724,4.68427 -0.4007,-0.27923 2.8213,-5.56029 1.6177,-5.56309 -1.2036,-0.003 -20.0762,6.9115 -20.8756,5.5182 5.5049,-20.42315 -40.7036,6.15199 -43.7448,5.74316 -2.8059,-1.12024 18.1068,-22.78124 16.1047,-24.45617 -2.0023,-1.6744 -9.2286,0.25676 -9.6279,-0.57903 -0.3991,-0.83579 4.4237,-4.44284 3.2226,-5.55878 -1.2011,-1.1165 -14.8318,-5.60143 -16.0321,-6.99566 -1.2005,-1.3948 6.0295,-4.99624 4.4266,-5.83483 -1.603,-0.83915 -25.262,-6.18233 -25.66,-7.57524 -0.3979,-1.39237 12.055,-8.04334 10.4546,-9.99509 -1.6002,-1.95229 -6.0119,-2.79743 -5.6074,-4.18848 0.4046,-1.39049 8.0312,-3.04299 7.6333,-4.43535 -0.398,-1.39238 -4.3941,-8.36054 -5.5951,-9.47648 -1.2011,-1.11595 8.4267,-0.53694 8.4292,-1.65008 0,-1.11369 -1.8557,-23.5183 -16.0863,-33.66701 24.9155,6.75864 35.4159,3.53587 48.661,1.34045 13.245,-2.19598 8.0611,-16.12464 10.0692,-16.95484 8.1475,5.17921 21.2023,27.89768 23.2764,1.91714 -0.4121,-1.85524 14.3463,11.16727 16.3528,10.89366 2.0067,-0.27361 18.548,-14.7864 21.357,-15.05814 2.8091,-0.27174 13.6302,4.76377 16.0366,5.04767 2.4068,0.2839 4.4287,-6.66969 6.4335,-6.10843 2.0049,0.56124 14.8318,5.60143 16.839,5.04953 2.0074,-0.55245 3.6173,-2.775 5.221,-2.21468 1.6033,0.56031 8.82,2.80399 8.82,2.80399 0,0 5.2196,-1.65812 7.6267,-1.65251 2.4073,0.006 18.8356,9.22905 20.8403,9.79031 2.0047,0.56124 22.6225,-9.43403 21.4228,-11.10655 2.5393,7.31416 14.8803,0.65375 17.4916,1.02589 2.8063,0.84196 11.2376,-1.64353 12.0381,-0.80679 0.8003,0.83672 3.1974,5.29601 5.6039,5.57991 2.4068,0.2839 8.0209,1.41013 8.0209,1.41013 l -0.8061,1.6684 c 0,0 16.8608,6.87013 18.8709,5.20508 7.2204,-0.92566 6.8997,1.56665 25.4343,-6.34533 -14.8466,16.83134 -24.7015,35.87639 6.2107,28.12884 -25.7048,7.40389 -14.3215,13.68463 7.1936,12.26364 z"
       id="path5888-3-2"
       inkscape:connector-curvature="0"
       sodipodi:nodetypes="cccsccsscccccccsccscscsccsccccccsccscsccccsccscsccccccccccc" />
    <path
       style="fill:#ffffff;fill-opacity:1;stroke:none;stroke-width:0.98381102"
       d="m 2210.9408,412.77614 c -0.051,0.004 -0.1036,0.019 -0.1548,0.0443 -1.6404,0.81026 -7.7707,8.54351 -9.411,7.73325 -1.6404,-0.81106 -9.1413,-8.00184 -10.4537,-7.19158 -1.3122,0.81024 -6.1243,11.95244 -6.1243,11.95244 0,0 -7.956,-5.3641 -16.2623,-11.90343 -2.45,6.38573 -4.6626,18.45423 -6.3031,19.2645 -1.6403,0.81027 -18.4812,-13.80996 -25.1416,-18.87449 -2.4542,6.68865 -4.5461,19.96207 -6.6821,20.49497 -2.2965,1.2162 -16.831,-14.28262 -17.487,-13.06722 -0.6562,1.2154 5.0194,19.55128 3.0509,19.95641 -1.9685,0.40513 -6.5612,2.02561 -6.5612,2.02561 l 0.6553,2.43073 c 0,0 -13.7794,-6.48402 -15.4198,-8.9148 -1.6403,-2.43156 0.9849,10.53653 1.9692,13.77837 -5.9056,-3.24184 -23.2935,-10.13142 -24.6057,-12.15788 -1.3123,-2.02563 2.2968,7.29428 4.2652,10.13016 -2.6246,-1.21538 -4.9221,-1.62048 -4.9221,-1.62048 l 7.5465,9.72503 -2.296,0.81025 c 0,0 4.9206,4.45631 4.9206,6.48194 0,2.02646 -12.7955,4.45844 -12.7955,4.45844 14.5154,12.13951 5.3708,15.72235 -5.9044,17.82959 6.1251,2.71552 10.4246,5.33468 13.0128,7.68675 l -12.4998,4.01535 12.9817,8.17207 -6.9241,3.50262 6.9241,5.8384 -19.0408,9.341 19.9072,5.8384 -14.7145,10.50996 14.7145,5.8384 -7.7905,8.17207 17.4407,1.56984 c 0,3.3958 -5.0782,20.57142 -7.6076,25.14075 9.9629,-0.0328 26.5262,0.1456 38.5664,0.1456 0.022,1.25794 0.094,2.16783 0.4738,2.28513 0.6446,0.19901 3.9141,-0.28977 7.2557,-0.78702 l 10.6308,4.78128 c 1.253,3.40685 2.5421,7.12967 3.4394,7.35127 1.0253,0.2532 4.3566,-1.86762 7.0318,-3.395 6e-4,-2.8e-4 0,2.7e-4 0,0 l 3.8335,-0.98115 c 0.8227,2.07324 0.4713,10.09307 1.9284,10.45298 1.6405,0.40514 8.8584,-8.50757 9.8426,-8.10243 0.9842,0.40511 4.5925,20.66537 6.2327,21.88078 1.6405,1.21538 12.1397,-22.28591 13.1241,-22.69103 0.9841,-0.40594 7.2163,27.5525 8.5286,27.95762 1.3124,0.40514 7.8745,-19.04496 8.8588,-18.63982 0.9843,0.40511 7.2181,11.75274 8.5303,12.56299 1.3124,0.81026 9.8424,-25.12388 11.1548,-25.12388 1.3123,0 12.4666,10.94037 13.4509,12.96602 0.9843,2.02646 1.969,-10.53529 3.2813,-10.53529 1.3124,0 16.4025,7.29432 16.7306,6.88919 0.3282,-0.40514 -2.2965,-8.10456 -1.3122,-8.10456 0.9842,0 16.4045,10.13018 17.0607,8.10456 0.656,-2.02646 28.1681,3.74443 35.7602,8.50967 -5.8876,-10.32914 -14.7642,-33.22548 -13.1239,-35.65706 1.6404,-2.43076 7.547,0.40515 7.8751,-0.81024 0.328,-1.21538 -3.6086,-6.48405 -2.6244,-8.10454 0.9842,-1.62133 12.1381,-8.1045 13.1222,-10.13017 0.9842,-2.02643 -4.9204,-7.29217 -3.6082,-8.50755 1.3123,-1.21619 20.6692,-8.91606 20.9973,-10.9425 0.328,-2.02565 -9.8426,-11.7506 -8.5303,-14.5865 1.3123,-2.8367 4.9218,-4.05037 4.5936,-6.07683 -0.3281,-2.02562 -6.5623,-4.45842 -6.2342,-6.48406 0.328,-2.02564 3.6094,-12.15573 4.5935,-13.77625 0.9844,-1.62051 -6.8895,-0.81021 -6.8895,-2.43073 0,-1.62133 -18.0024,-10.51709 2.2298,-34.50841 -28.9632,5.12202 -18.9619,-1.14858 -29.7884,-4.3896 -10.8267,-3.24185 -6.5615,-23.50338 -8.2018,-24.71876 -1.6405,-1.21621 -13.7797,6.88923 -15.42,4.05332 -1.6404,-2.83671 -2.2975,-8.10454 -3.6099,-8.10454 -1.3121,0 -15.41,8.71178 -17.0504,8.30665 -1.6404,-0.40514 -10.5075,-15.60095 -12.8041,-16.00608 -2.2965,-0.40514 -11.1555,6.88918 -13.124,7.2943 -1.9068,0.39247 -3.5044,-9.10197 -5.094,-8.9591 z"
       id="path5888-3"
       inkscape:connector-curvature="0"
       sodipodi:nodetypes="ccccccccccscccccccccscccccccccccccccscccccccccccccscsssccccccccccccsccccsccccc" />
    <path
       style="color:#000000;display:inline;overflow:visible;visibility:visible;fill:#ffffff;fill-opacity:1;fill-rule:nonzero;stroke:none;stroke-width:0.99999994px;marker:none;enable-background:accumulate"
       d="m 1272.5449,3077.9523 c -78.231,15.2781 -158.5825,23.1124 -234.3525,47.042 l 48.6913,-38.9221 c -31.113,-0.2775 -62.6052,11.89 -93.96922,19.832 l 24.81112,-26.6421 c -73.62433,-0.043 -140.93978,19.5825 -211.30464,29.7017 l 48.37788,-44.8304 c 71.35729,-4.7997 140.74069,-1.8479 214.31916,-15.3676 l -20.5535,27.1733 c 25.7084,-2.3825 51.5171,-5.4463 77.7719,-11.5491 l -30.1046,33.1547 z"
       id="path4032-1"
       inkscape:connector-curvature="0"
       sodipodi:nodetypes="cccccccccccc" />
    <path
       style="display:inline;fill:#ffffff;fill-rule:evenodd;stroke:none;stroke-width:0.83085799px;stroke-linecap:butt;stroke-linejoin:miter;stroke-opacity:1"
       d="m 568.82409,2995.1939 c 37.01855,22.4885 68.99556,39.5533 43.89224,-24.1524 29.89526,47.5957 41.95288,26.4896 49.22157,-1.3419 23.38246,23.9224 39.5285,45.0663 51.12335,27.8543 4.32167,22.1355 13.58962,13.2028 21.61049,12.1031 2.64169,5.0087 -16.45305,-11.3641 20.20321,-27.9415 -4.56354,-31.7912 23.30332,3.6929 44.77476,-11.0036 5.56257,26.9052 2.46565,43.5576 33.98484,5.6067 -11.39134,37.3263 -6.66782,42.5982 7.88796,28.3131 -6.65479,15.3714 -10.63503,27.2704 14.64899,1.1793 -8.65598,28.3723 21.92723,9.6244 51.83333,-19.5051 -28.45961,32.3012 -68.08237,68.5435 -36.05729,64.3341 -4.46612,8.88 -20.39639,16.6169 27.04438,30.6725 -8.85655,6.0255 -35.89533,-2.7803 -13.34013,22.733 3.02194,2.9828 -7.0948,4.8037 12.21328,12.6581 -11.39777,-0.5344 -18.38776,1.3738 -7.888,12.9765 -20.80514,-0.6275 -13.02076,11.5726 2.25374,27.133 -39.0169,-30.4512 -51.5211,-35.9994 -32.67877,-4.7186 -37.76019,-27.2119 -51.05177,-23.7289 -46.23982,-1.3569 -16.07367,-23.7541 -34.47895,-27.9079 -49.38691,-0.4652 -15.89513,-28.3168 -26.72465,-25.4156 -59.8789,-4.0765 17.88444,-24.0131 -7.55848,-8.7143 -27.04448,1.1793 10.67092,-29.9977 -16.41034,-10.3098 -50.7084,18.8751 19.20675,-33.1254 -2.6076,-21.1595 -34.93247,2.3593 12.21334,-32.543 -7.6772,-48.2808 -55.21578,-49.5468 22.75337,-11.7389 36.02196,-26.5119 12.39545,-53.0869 26.63379,7.8251 34.57825,0.5565 15.7759,-28.3124 29.0504,23.6955 15.84226,-10.6739 4.50746,-42.4696 z"
       id="path4508-9"
       inkscape:connector-curvature="0"
       sodipodi:nodetypes="cccccccccccccccccccccccccccc" />
    <path
       style="color:#000000;display:inline;overflow:visible;visibility:visible;fill:#ffffff;fill-opacity:1;fill-rule:nonzero;stroke:none;stroke-width:1px;marker:none;enable-background:accumulate"
       d="m 2279.1877,625.34512 c -0.091,3.76817 51.831,-6.4041 51.831,-6.4041 0,0 1.5665,29.95657 4.6782,32.0986 11.0733,-0.0391 21.0624,-5.37296 21.0624,-5.37296 l 18.0133,48.73793 -20.0054,-31.72225 c -9.8867,-0.91886 -20.0127,-0.88091 -32.7339,9.5382 l -4.3594,-32.26765 -34.1656,7.80769 z"
       id="path4448"
       inkscape:connector-curvature="0"
       sodipodi:nodetypes="cccccccccc" />
  </g>
  <g
     inkscape:groupmode="layer"
     id="layer1"
     inkscape:label="txt">
    <text
       xml:space="preserve"
       style="font-style:normal;font-variant:normal;font-weight:normal;font-stretch:normal;font-size:15.89058971px;line-height:0%;font-family:Lavi;-inkscape-font-specification:Lavi;text-align:center;letter-spacing:0px;word-spacing:0px;text-anchor:middle;fill:#000000;fill-opacity:1;stroke:none;stroke-width:1.17751098"
       x="2198.7708"
       y="493.047"
       id="text4246-1-3-2-8"
       transform="scale(0.99789912,1.0021053)"><tspan
         sodipodi:role="line"
         style="font-style:normal;font-variant:normal;font-weight:bold;font-stretch:normal;font-size:46.66666794px;line-height:1.25;font-family:Lavi;-inkscape-font-specification:'Lavi Bold';stroke-width:1.17751098"
         x="2198.7708"
         y="493.047"
         id="tspan829">Eg sa</tspan><tspan
         sodipodi:role="line"
         style="font-style:normal;font-variant:normal;font-weight:bold;font-stretch:normal;font-size:46.66666794px;line-height:1.25;font-family:Lavi;-inkscape-font-specification:'Lavi Bold';stroke-width:1.17751098"
         x="2198.7708"
         y="551.38037"
         id="tspan6205">STOPP!</tspan></text>
    <text
       xml:space="preserve"
       style="font-style:normal;font-variant:normal;font-weight:normal;font-stretch:normal;font-size:15.89058971px;line-height:0%;font-family:Lavi;-inkscape-font-specification:Lavi;text-align:center;letter-spacing:0px;word-spacing:0px;text-anchor:middle;fill:#000000;fill-opacity:1;stroke:none;stroke-width:1.17751098"
       x="2172.7688"
       y="636.37701"
       id="text4246-1-3-2-8-3"
       transform="scale(0.99789912,1.0021053)"><tspan
         sodipodi:role="line"
         style="font-style:normal;font-variant:normal;font-weight:bold;font-stretch:normal;font-size:46.66666794px;line-height:1.25;font-family:Lavi;-inkscape-font-specification:'Lavi Bold';stroke-width:1.17751098"
         x="2172.7688"
         y="636.37701"
         id="tspan829-7">Det held!</tspan></text>
    <text
       xml:space="preserve"
       style="font-style:normal;font-variant:normal;font-weight:normal;font-stretch:normal;line-height:0%;font-family:Lavi;-inkscape-font-specification:Lavi;letter-spacing:0px;word-spacing:0px;fill:#000000;fill-opacity:1;stroke:#ffffff;stroke-width:2.66678286;stroke-miterlimit:4;stroke-dasharray:none;stroke-opacity:1;filter:url(#filter4375-4-1-1-1-9-0)"
       x="787.65729"
       y="1584.5073"
       id="text4580-25"
       transform="matrix(0.55718765,-0.37423929,0.21813977,1.0749149,-120.92735,-234.76499)"><tspan
         sodipodi:role="line"
         id="tspan4582-4"
         x="787.65729"
         y="1584.5073"
         style="font-size:70px;line-height:100%;letter-spacing:4.88345098px;fill:#ffffff;stroke:#ffffff;stroke-width:2.66678286;stroke-miterlimit:4;stroke-dasharray:none;stroke-opacity:1"><tspan
           style="font-size:80.40014648px;line-height:100%;letter-spacing:4.88345098px;stroke:#ffffff;stroke-width:2.66678286;stroke-miterlimit:4;stroke-dasharray:none;stroke-opacity:1"
           id="tspan4617-9">Knips!</tspan></tspan></text>
    <text
       xml:space="preserve"
       style="font-style:normal;font-variant:normal;font-weight:normal;font-stretch:normal;line-height:0%;font-family:Lavi;-inkscape-font-specification:Lavi;letter-spacing:0px;word-spacing:0px;display:inline;fill:#ffffff;fill-opacity:1;stroke:#000000;stroke-width:0.48148537;stroke-miterlimit:4;stroke-dasharray:none;stroke-opacity:1;filter:url(#filter4375-4-1-1-1-9-5-8-3-8)"
       x="787.65729"
       y="1584.5073"
       id="text4580-6-0-8-8"
       transform="matrix(1.5492299,-0.0813593,-0.87667877,1.9075458,1570.733,-1836.1775)"><tspan
         sodipodi:role="line"
         id="tspan4582-1-1-8-2"
         x="787.65729"
         y="1584.5073"
         style="font-style:normal;font-variant:normal;font-weight:bold;font-stretch:normal;font-size:70px;line-height:1.25;font-family:'Noto Sans';-inkscape-font-specification:'Noto Sans Bold';letter-spacing:5.87610865px;fill:#ffffff;fill-opacity:1;stroke:#000000;stroke-width:0.48148537;stroke-opacity:1"><tspan
           style="font-style:normal;font-variant:normal;font-weight:bold;font-stretch:normal;font-size:94.98365046px;font-family:'Noto Sans';-inkscape-font-specification:'Noto Sans Bold';letter-spacing:5.87610865px;fill:#ffffff;fill-opacity:1;stroke:#000000;stroke-width:0.48148537;stroke-opacity:1"
           id="tspan4315-8-97-3">POFF</tspan><tspan
           style="font-style:normal;font-variant:normal;font-weight:bold;font-stretch:normal;font-size:114.73223114px;font-family:'Noto Sans';-inkscape-font-specification:'Noto Sans Bold';letter-spacing:5.87610865px;fill:#ffffff;fill-opacity:1;stroke:#000000;stroke-width:0.48148537;stroke-opacity:1"
           id="tspan4313-2-76-0">!</tspan></tspan></text>
    <text
       xml:space="preserve"
       style="font-style:normal;font-variant:normal;font-weight:normal;font-stretch:normal;line-height:0%;font-family:Lavi;-inkscape-font-specification:Lavi;letter-spacing:0px;word-spacing:0px;fill:#000000;fill-opacity:1;stroke:#ffffff;stroke-width:4.21925974;stroke-miterlimit:4;stroke-dasharray:none;stroke-opacity:1;filter:url(#filter4375-4-1-1-1-9-0-5)"
       x="787.65729"
       y="1584.5073"
       id="text4580-25-2"
       transform="matrix(0.37191843,0.11061463,-0.38324889,0.61702867,2371.8774,1301.4149)"><tspan
         sodipodi:role="line"
         id="tspan4582-4-7"
         x="787.65729"
         y="1584.5073"
         style="font-style:normal;font-variant:normal;font-weight:bold;font-stretch:normal;font-size:80.40014648px;line-height:100%;font-family:'Noto Sans';-inkscape-font-specification:'Noto Sans Bold';letter-spacing:4.88345098px;fill:#ffffff;stroke:#ffffff;stroke-width:4.21925974;stroke-miterlimit:4;stroke-dasharray:none;stroke-opacity:1">Rist!</tspan></text>
    <text
       xml:space="preserve"
       style="font-style:normal;font-variant:normal;font-weight:normal;font-stretch:normal;font-size:15.89058971px;line-height:0%;font-family:Lavi;-inkscape-font-specification:Lavi;text-align:center;letter-spacing:0px;word-spacing:0px;text-anchor:middle;fill:#000000;fill-opacity:1;stroke:none;stroke-width:1.17751098"
       x="728.97247"
       y="2904.7632"
       id="text4246-1-3-2-8-3-3"
       transform="scale(0.99789912,1.0021053)"><tspan
         sodipodi:role="line"
         style="font-style:normal;font-variant:normal;font-weight:bold;font-stretch:normal;font-size:46.66666794px;line-height:1.25;font-family:Lavi;-inkscape-font-specification:'Lavi Bold';stroke-width:1.17751098"
         x="728.97247"
         y="2904.7632"
         id="tspan829-7-6">Kom HIT!</tspan></text>
    <text
       xml:space="preserve"
       style="font-style:normal;font-variant:normal;font-weight:normal;font-stretch:normal;font-size:15.89058971px;line-height:0%;font-family:Lavi;-inkscape-font-specification:Lavi;text-align:center;letter-spacing:0px;word-spacing:0px;text-anchor:middle;fill:#000000;fill-opacity:1;stroke:none;stroke-width:1.17751098"
       x="727.13654"
       y="2991.8647"
       id="text4246-1-3-2-8-3-3-7"
       transform="scale(0.99789912,1.0021053)"><tspan
         sodipodi:role="line"
         style="font-style:normal;font-variant:normal;font-weight:bold;font-stretch:normal;font-size:46.66666794px;line-height:1.25;font-family:Lavi;-inkscape-font-specification:'Lavi Bold';stroke-width:1.17751098"
         x="727.13654"
         y="2991.8647"
         id="tspan829-7-6-5">NO!</tspan></text>
    <text
       xml:space="preserve"
       style="font-style:normal;font-variant:normal;font-weight:normal;font-stretch:normal;font-size:15.89058971px;line-height:0%;font-family:Lavi;-inkscape-font-specification:Lavi;text-align:center;letter-spacing:0px;word-spacing:0px;text-anchor:middle;fill:#000000;fill-opacity:1;stroke:none;stroke-width:1.17751098"
       x="720.96954"
       y="3078.6636"
       id="text4246-1-3-2-8-36-2"
       transform="scale(0.99789912,1.0021053)"><tspan
         sodipodi:role="line"
         style="font-style:normal;font-variant:normal;font-weight:bold;font-stretch:normal;font-size:46.66666794px;line-height:1.25;font-family:Lavi;-inkscape-font-specification:'Lavi Bold';stroke-width:1.17751098"
         x="720.96954"
         y="3078.6636"
         id="tspan1020-8">Begge to!</tspan></text>
  </g>
</svg>
