<?xml version="1.0" encoding="UTF-8" standalone="no"?>
<!-- Created with Inkscape (http://www.inkscape.org/) -->

<svg
   xmlns:dc="http://purl.org/dc/elements/1.1/"
   xmlns:cc="http://creativecommons.org/ns#"
   xmlns:rdf="http://www.w3.org/1999/02/22-rdf-syntax-ns#"
   xmlns:svg="http://www.w3.org/2000/svg"
   xmlns="http://www.w3.org/2000/svg"
   xmlns:xlink="http://www.w3.org/1999/xlink"
   xmlns:sodipodi="http://sodipodi.sourceforge.net/DTD/sodipodi-0.dtd"
   xmlns:inkscape="http://www.inkscape.org/namespaces/inkscape"
   id="svg2"
   version="1.1"
   inkscape:version="0.92.3 (2405546, 2018-03-11)"
   width="2481"
   height="663"
   sodipodi:docname="E04P00.svg">
  <sodipodi:namedview
     pagecolor="#ffffff"
     bordercolor="#666666"
     inkscape:pageopacity="0"
     inkscape:pageshadow="2"
     inkscape:window-width="1813"
     inkscape:window-height="955"
     id="namedview70"
     showgrid="false"
     inkscape:zoom="0.34782609"
     inkscape:cx="458.35531"
     inkscape:cy="209.35096"
     inkscape:current-layer="layer1"
     inkscape:snap-global="false"
     inkscape:window-x="101"
     inkscape:window-y="40"
     inkscape:window-maximized="0" />
  <metadata
     id="metadata8">
    <rdf:RDF>
      <cc:Work
         rdf:about="">
        <dc:format>image/svg+xml</dc:format>
        <dc:type
           rdf:resource="http://purl.org/dc/dcmitype/StillImage" />
        <dc:title></dc:title>
      </cc:Work>
    </rdf:RDF>
  </metadata>
  <defs
     id="defs6">
    <linearGradient
       inkscape:collect="always"
       id="linearGradient823">
      <stop
         style="stop-color:#fdfeff;stop-opacity:1"
         offset="0"
         id="stop819" />
      <stop
         id="stop827"
         offset="0.48474982"
         style="stop-color:#fefeff;stop-opacity:0.33333334" />
      <stop
         style="stop-color:#ffffff;stop-opacity:0"
         offset="1"
         id="stop821" />
    </linearGradient>
    <radialGradient
       inkscape:collect="always"
       xlink:href="#linearGradient823"
       id="radialGradient1322"
       gradientUnits="userSpaceOnUse"
       gradientTransform="matrix(0.54100296,-0.02286667,0.01943866,0.51081019,1463.0061,233.3132)"
       cx="505.43463"
       cy="218.57224"
       fx="505.43463"
       fy="218.57224"
       r="25.183058" />
    <radialGradient
       inkscape:collect="always"
       xlink:href="#linearGradient823"
       id="radialGradient1466"
       gradientUnits="userSpaceOnUse"
       gradientTransform="matrix(0.54100296,-0.02286667,0.01943866,0.51081019,1463.0061,233.3132)"
       cx="505.43463"
       cy="218.57224"
       fx="505.43463"
       fy="218.57224"
       r="25.183058" />
    <radialGradient
       inkscape:collect="always"
       xlink:href="#linearGradient823"
       id="radialGradient1545"
       gradientUnits="userSpaceOnUse"
       gradientTransform="matrix(0.54100296,-0.02286667,0.01943866,0.51081019,1463.0061,233.3132)"
       cx="505.43463"
       cy="218.57224"
       fx="505.43463"
       fy="218.57224"
       r="25.183058" />
    <radialGradient
       inkscape:collect="always"
       xlink:href="#linearGradient823"
       id="radialGradient1609"
       gradientUnits="userSpaceOnUse"
       gradientTransform="matrix(0.54100296,-0.02286667,0.01943866,0.51081019,792.4052,215.67757)"
       cx="505.43463"
       cy="218.57224"
       fx="505.43463"
       fy="218.57224"
       r="25.183058" />
    <radialGradient
       inkscape:collect="always"
       xlink:href="#linearGradient823"
       id="radialGradient1688"
       gradientUnits="userSpaceOnUse"
       gradientTransform="matrix(0.54100296,-0.02286667,0.01943866,0.51081019,792.4052,215.67757)"
       cx="505.43463"
       cy="218.57224"
       fx="505.43463"
       fy="218.57224"
       r="25.183058" />
    <radialGradient
       inkscape:collect="always"
       xlink:href="#linearGradient823"
       id="radialGradient1767"
       gradientUnits="userSpaceOnUse"
       gradientTransform="matrix(0.54100296,-0.02286667,0.01943866,0.51081019,792.4052,215.67757)"
       cx="505.43463"
       cy="218.57224"
       fx="505.43463"
       fy="218.57224"
       r="25.183058" />
    <radialGradient
       inkscape:collect="always"
       xlink:href="#linearGradient823"
       id="radialGradient1989"
       gradientUnits="userSpaceOnUse"
       gradientTransform="matrix(0.54100296,-0.02286667,0.01943866,0.51081019,792.4052,215.67757)"
       cx="505.43463"
       cy="218.57224"
       fx="505.43463"
       fy="218.57224"
       r="25.183058" />
    <radialGradient
       inkscape:collect="always"
       xlink:href="#linearGradient823"
       id="radialGradient2079"
       gradientUnits="userSpaceOnUse"
       gradientTransform="matrix(0.54100296,-0.02286667,0.01943866,0.51081019,254.51369,229.03274)"
       cx="505.43463"
       cy="218.57224"
       fx="505.43463"
       fy="218.57224"
       r="25.183058" />
    <radialGradient
       inkscape:collect="always"
       xlink:href="#linearGradient823"
       id="radialGradient2171"
       gradientUnits="userSpaceOnUse"
       gradientTransform="matrix(0.54100296,-0.02286667,0.01943866,0.51081019,254.51369,229.03274)"
       cx="505.43463"
       cy="218.57224"
       fx="505.43463"
       fy="218.57224"
       r="25.183058" />
    <radialGradient
       inkscape:collect="always"
       xlink:href="#linearGradient823"
       id="radialGradient2198"
       gradientUnits="userSpaceOnUse"
       gradientTransform="matrix(0.54100296,-0.02286667,0.01943866,0.51081019,254.51369,229.03274)"
       cx="505.43463"
       cy="218.57224"
       fx="505.43463"
       fy="218.57224"
       r="25.183058" />
    <radialGradient
       inkscape:collect="always"
       xlink:href="#linearGradient823"
       id="radialGradient2291"
       gradientUnits="userSpaceOnUse"
       gradientTransform="matrix(0.54100296,-0.02286667,0.01943866,0.51081019,254.51369,229.03274)"
       cx="505.43463"
       cy="218.57224"
       fx="505.43463"
       fy="218.57224"
       r="25.183058" />
    <radialGradient
       inkscape:collect="always"
       xlink:href="#linearGradient823"
       id="radialGradient2331"
       gradientUnits="userSpaceOnUse"
       gradientTransform="matrix(0.54100296,-0.02286667,0.01943866,0.51081019,254.51369,229.03274)"
       cx="505.43463"
       cy="218.57224"
       fx="505.43463"
       fy="218.57224"
       r="25.183058" />
    <radialGradient
       inkscape:collect="always"
       xlink:href="#linearGradient823"
       id="radialGradient2397"
       gradientUnits="userSpaceOnUse"
       gradientTransform="matrix(0.54100296,-0.02286667,0.01943866,0.51081019,254.51369,229.03274)"
       cx="505.43463"
       cy="218.57224"
       fx="505.43463"
       fy="218.57224"
       r="25.183058" />
    <radialGradient
       inkscape:collect="always"
       xlink:href="#linearGradient823"
       id="radialGradient2450"
       gradientUnits="userSpaceOnUse"
       gradientTransform="matrix(0.54100296,-0.02286667,0.01943866,0.51081019,254.51369,229.03274)"
       cx="505.43463"
       cy="218.57224"
       fx="505.43463"
       fy="218.57224"
       r="25.183058" />
    <radialGradient
       inkscape:collect="always"
       xlink:href="#linearGradient823"
       id="radialGradient2490"
       gradientUnits="userSpaceOnUse"
       gradientTransform="matrix(0.54100296,-0.02286667,0.01943866,0.51081019,254.51369,229.03274)"
       cx="505.43463"
       cy="218.57224"
       fx="505.43463"
       fy="218.57224"
       r="25.183058" />
  </defs>
  <sodipodi:namedview
     pagecolor="#ffffff"
     bordercolor="#666666"
     borderopacity="1"
     objecttolerance="10"
     gridtolerance="10"
     guidetolerance="10"
     inkscape:pageopacity="0"
     inkscape:pageshadow="2"
     inkscape:window-width="1920"
     inkscape:window-height="1025"
     id="namedview4"
     showgrid="false"
     inkscape:zoom="0.46082619"
     inkscape:cx="1227.2287"
     inkscape:cy="64.11223"
     inkscape:window-x="0"
     inkscape:window-y="26"
     inkscape:window-maximized="1"
     inkscape:current-layer="layer1" />
  <g
     inkscape:groupmode="layer"
     id="layer2"
     inkscape:label="artwork" />
  <g
     inkscape:groupmode="layer"
     id="layer1"
     inkscape:label="txt"
     style="display:inline">
    <flowRoot
       xml:space="preserve"
       id="episode-title"
       style="font-style:normal;font-variant:normal;font-weight:normal;font-stretch:normal;line-height:0.01%;font-family:Arial;-inkscape-font-specification:Arial;letter-spacing:0px;word-spacing:0px;display:inline;fill:#2e5188;fill-opacity:1;stroke:none"
       transform="translate(-727.11815,-120.8471)"><flowRegion
         id="flowRegion2989"><rect
           id="rect2991"
           width="2405.8"
           height="107.55731"
           x="739.22333"
           y="644.36664"
           style="fill:#2e5188;fill-opacity:1" /></flowRegion><flowPara
         id="flowPara2993"
         style="font-style:normal;font-variant:normal;font-weight:normal;font-stretch:normal;font-size:72px;line-height:1.25;font-family:Lavi;-inkscape-font-specification:Lavi;text-align:center;text-anchor:middle;fill:#2e5188;fill-opacity:1">গল্প ৪: প্রতিভার আভা</flowPara></flowRoot>    <image
       style="display:inline"
       y="199.59776"
       x="455.64365"
       id="image3403"
       xlink:href="data:image/png;base64,iVBORw0KGgoAAAANSUhEUgAABKcAAADuCAYAAADsmGTKAAAABmJLR0QA/wD/AP+gvaeTAAAACXBI WXMAAAsTAAALEwEAmpwYAAAAB3RJTUUH3wkMEAUJcPc2AgAAABl0RVh0Q29tbWVudABDcmVhdGVk IHdpdGggR0lNUFeBDhcAABbESURBVHja7d1ZchtHEgDQkYMHs4/lE+hY1s00Hw7alsQF6K6q3N6L mL+xCHRn5cYG+L//AQAAAAAAAAAAAAAAAAAAAAAAAAAAAAAAAAAAAAAAAAAAAAAAAAAAAAAAAAAA AAAAAAAAAAAAAAAAAAAAAAAAAEA2Xzq/uT++fvu+49/968/fvwgdxDUAAADc12YY3TWwG+oR1wAA ALBP6eEzcnA31COuAQAA4L5yw2bWwd1Aj7gGAACA55UZMKsN7wZ6xDUAAAB8Lv1Q2WF4N8wjrgEA AOBtaYfJjsO7gR5xDQAAAD9KN0BOGd4N87OIawAAAHhbqsFx6gBvmO9NXItrAAAA3pdiYDS8G+Y7 EtfiGgAAgM+FD4oGeMN8R+JaXAMAAPCY0AHRAG+Q70hci2sAAAAeFzIcRgzvdwfhDAsHw3xu4lpc AwAA8LzjQ+GJYfjUsBs12Bvm8xHX4hoAAIBrjg6DO4feDIPtyaHeIJ+HuBbXAAAAXHdsENw14GYd Zk8N9Ib5nvdZXItrAACAKcp+TKjK8Nrp416Ia3ENAADAatuHv9VDbOWBdfdAb5ivey/FtbgGAACY qsxyqtOA2v07iiYQ1+IaAACANbYOfAZ4w7z7Jq7FNQAAAB/ZNuitGFCnDKLTvlR7+r0S164fAAAA /0q7nJo4gBrm+98jcS2uAQAA+NGW4c4An2+YN8iLa3ENAABARssHOwN83mHetRXX4hoAAIBsfsv0 YgyZe6/Hzi+qRlyLawAAAK5I8+SUAf7sAO56i2txDQAAQAYpnmAwUMYM8667uBbXAAAARPvNJahl 5eDt41CIawAAAKKFD4Secogfwt0DcS2uAQAAiOLJqcJWDd+eNEFcAwAAECX0ySlPNsRde/dEXItr AAAAMvDkVAN//fn7F0+bIK7FNQAAQEVhyylPMuS9pgZ5cS2uAQAAOGXJcsrQZ5DvyDUQ1wAAAOzn Y31NB/kVw7xBHnENAADAbpZTzYd5gzziWlwDAABkZjllkDfII64BAAAIYzllkDfII64BAAAIYzll kDfII64BAAAIYzk1bJC/O8wb5BHXAAAArGQ5NXSYdxUQ1wAAAGRgOWWQtwBAXItrAACAMJZTBnkD POIaAACAMJZTBvkvK/9/IK4BAAB4xrLB7NkvFDYU5vLR/Zt8r8S1uAYAPU6/2jn9/QNkE/bklL+O lct7xVYRFtfiGgAAgJ18rI93B3YDPOIaAACA3V5cAgzuiGsAAACihD455SNQdCSuAQAA4HHLllOe TKAjcQ0AAAB7hX/nlKdM6EhcAwAAwGN8IToAAAAAYZYup65+BMpTJmQmrgEAAGAfT04BAAAAEGb5 cspTJnQkrgEAAGCPVE9OGeTpSFwDAADA+7Ysp64+ZWKQJzNxDQAAAOul/M4pgzwdiWsAAAD41bbl 1J2nTAzyZCWuAQAAYK0vu3/AimH87kIAxDUAcKL2V6nvV3qZTr3L9PcPkM2RBGuQZ3KTKq4BYE5t r1LzLacspwAy+eJjRgDzaLCJHtbFIJ3ju8IZ6DIDXL2OZiCAXF5cAgDg9MD288+xrKJjnD/6GsS/ 6wgwneUUABjsDJiI9QSvTey7jgBTWU4BgEE97WszZNI51t97reLedQSYxnIKAAzphkzEu7hvGQOu IUANllMAYEg3rCPexX3beHD9APL7zSUAAIN6pffjr2wxJd7FvbgAmMJyCgAMs4ZNxLu4d+0ACGM5 BQCGsLLv08DJtBgQ92IFoCPLKQAwtBo4ce+9d9cNgDCWUwBg4PL+KXe/3XNxD0AfIX+54tlC2uEv bEx8zxpE91gsiAUMqKc5T+I9Uzydeq1XXueV15blfEXlPPllxn13n3F+Ys7Ci9sEAJr13U3Kqdfp z8aL90yD6c//1q7XPy3uX9+rxbyz7zxBH5ZTAKBZ3zqgv/fvGdTpGu+P/JzV7+f137OkwtkHKvKd UwCgWf9n0Hv936nBctfPM8yI92diMOI9if2119IpcfadI6jNcgoABjfrpxdSJwd1w4V4PxlvYj/+ OjotAHVZTgHAwEE903C+83VZUIn3CnEv9tddQ6fG+V91ptQPOMtyCgAGDeqZh/Ndr9OAwWtMVXmd liyod/cXU64i1GI5BQBDBvOKzboBw3Aq9uOvoZxBxbO/Iib8cgPOsZwCgObNevVhzZAu3ifH/t33 YEGF+69+QAWWUwCgSTekk4bF1Pr3IvaZcv7fOysWlpCf5RQANG3WOzbjBgzEfszQLwaYfM8teGE/ y6lmgwgAGECY3P90jg+xj/N//WxY8EJullMA0LBZN8QaLibemwlxf+cjrp6eQm5WQyAryykAaNro //w/QyedTYsJCyp4/iz4AxuQl+VU8sHCVQBgZV3pVFsM53qelQPnpDPgGtHl/EfdX3UE1rOcAoCm A7ummgksH+QAiMgZzhGsZTmleQBAfRk/ZCAWnQHXiFrn/859taBiyvmq9NS85ZSmDQD1BUqydHAd EPNqKfwYj1W/xsFyCgCGNzGGFCrGn/vuerg+ZIkJCyqia2mH7xW1nDI8AIC6CoZtKJGHV8a5BRWV z0+3P3RjOaWRBkB9UV8oxRLGtYGMZ6bbsoB8/VrnGLOcMkAAAJTpaSxfuErsOP+n/l0zGytjacrS 03JqUDIHAKA/SxiIPzeeouJu7EyLH8upwgHrKgCgrgAnBm0Q09frqxqLWPmc5ZRBAgCgRA9j4QLs tDPHWFLxUVyIDcupNsHsSgAAcGrQdk24M79kjxFLKszx5724BH2CW7EF2Ns0y7MQOzC6CqhRzw+z Hc5OxHv468/fv+xcHrz+25Xuz8/XQ17ef34nsZxqFuwSBIAmAbh/9rv0VLsHbOjsxPn577+fLe98 9t7Nn/rNlSynmga+JAGgKQZN+vWf+dZ/o78CtfhkrorIOc++V/NnrnpXuae0nGp8ECQIAJ5pWrxf Ot2vHU145iccqg8lGNYz5+uoM7RzWbX6/Zg/99afCX2O5dSAQyFJAKAJRDzs+zl6rVos67gz7EfG Tva4nT5/Rt+f6tfdX+tzSABInE9PNBoGa7qcz6iep0Kv5ZyDsyQn9qs/r39dskNcenJqWIKQTAFq NsJ+0QC5hyC9Fsyqy5nyT9bc3D0fRi6kOl5PT04lT3g7DpAkCkCXBkdNmx2jGe9/5l7L4gycKTW6 5nvr9ITUezw5lTzZ7Qp6v92jcpIXt6gJmmrUiwqv0Rmj0nyQ9f1WeY1+WaL+TD0Dq1hODS9AllRU TOof/fdiGTVhTrNz9VrIEwaDk69VvMGcGl0tR526JmqPPuURllPDhpHPDpsGiurJfOef3IUOza8z gXpy/jVnOne+ww5y12nm1p7pPZrlVKEkd+JQWFLRbYDwp77pOqQ90/x2jH1N/7z7Vvmee4IKZvYY k+vV5Ce0p12nVSynDFEfHkSHhU7Dg0UVHYdMsYzaIneA2Ms9w3XJY+qO/m0nyynJ7aFD6fDQbXAQ 2zAz3zjz6oslgY/24SxHznETrkXlWmspFcdyqviBP72kcqDo1mhYUoGcw+wh8XS8eYoFmLSo0mOY oR9lOdUksUV94bRDJoF3ey9iGmYMA8Tdg8ja8WwM7BogLahw/nkvL2W5RpPul6VUDpZTzZLa6QRi oJ+pc6ES0yD30H/4q9RrAfJVxEfNpvxV4F3X1izxPMuppsksaknlIBoOO71PsTwnbxo25R5mDXoZ ei11BtiRx8xl8b2F637Nby5B3wQWdSj++PrtuyFCAu/yfsUyzkKP661RNNAZPpgc11Xrlnp7fQ6M yFFV8uKuHj9yBu/AcmpIcoo89IqK4dB7B5w/Tg4vp/qfuz9DfANqb/33Zim1ho/1DWsEoxKN7/GR xDtcA/EL1/LB1bOzKvc4uzN7npM/T50EmDnT6DHWsZwa3LBFNFKWVJL46oR++i9Vil3kgvv/7SPn yGKqfz/SaUi4837UFnBGus2ZE2YaMbmej/UNTyCRH/lzB3oPo4/E3qq/nnTys/U+qqqhmpjHVr/X zz727Yw5d5V6GoMK7D8n6gKZ+hj5fg/LKcK+NM+QPy+Jn4izk0sqUYJcsLYWrK4Lmse+g2rW+yzm yBxrehcmxsnqvkKe38dyivADZ0klie+M5Z0/W9wiF+T9WZrH3kN2tyFBPQHnZGIerzbTuNN7WU4R NtgrOArV6XgWtyC2qV8vsi+lDDCw74yoTZyOFU9LneML0XmqgJz4eIfGrk8izxrLGhtWnhf5ynIA 9w3UrfO9qpzBxHmmM8spUg73Bj6JfHccr4xh8donv1lcrs0FkXUKgN41N6L/euY1V6xHV+5Jtvdp MVWX5RS3D+uuIcbAbzA88TpXxa94BfkHVg7eIM4e67925v871/e//636dDYe9BM1+c4plhzeXZ/F 1djVSuYVE/nK1yxeocdZBtDz1evBVv7CcfUfbPIHoOrMMvqJOJ6cYkuR8ZEpRaHS0Og3j8hRAFC/ B7vytFLEX6bVN5yZQa7MscSxnGJboVmZ7A1/+RN69UK8KmYtuTTJxOYxtQJQt7yH7D1ZxppV9fum LKb68LE+thebVYfdwNhjeMx+HxUnqJ9nXAUAudJ9cP30/rVYTlFq4JfA+xSSzPdSkUJukmMA0Hvp IcQd51hOcfTwr0gAEnifgmhBhXuPhh9Ajpxef9Wr89dMv5eP5RQKD4qxWAU5BsQdeusU72Vq/yVv nLtWevycLKcoWUQlbwVGw4c4FvfP3Bt1A0Ad0kus+7l6ZFaznCK06EhqVBjsxSkGg3M1YWdtsKAC 5Gz9F3oU/UBOllMopoNlu4buKRriedfhvWXUriWVPINaBrXq0LSaLIecu84//89ViWU5BSjISYZ0 xO+k2H904NgxmGhAUWOgVk7MekZ2PfWrTsXEhEVVrBeXgCzJRRJAnELv2L/TSL7+t84ghnyY2adE 14FHf6EiH/TL536BcIYnp0hXcMD3H+Be57weV34zvPo3yqv+LUMDQM2cuPv7CVf9rM7fi5SlRzr1 OjxRdYYnpyhfSA2QgLw0ryld8YSAGkKG4V4Mki03Vq1H0U/4fvTvWWr0zPXy91qWUwAaP9zrsffH gorVwwpUjuPK+fCz126poBfYlfvF0xo+1gcABtXSTamrQNXzLn5Rv87Wi6i//uevk/c/N+7VfZZT GEpA7MHo86ihROwgJ+K+uLYraoK6cJ3lFIAmA/fZfYILQ4iYRWwDb50h5+h5llMohAByWgt3hn33 C5APmXhfutS/rNdWf/E4yykAzR84k3Bw2BCnVIhzV8G9qNgDRH2vmHt4n+UUGOKATWdFM+J+YUhU e6na58mJVI//TMsqT1F97sUlAAAAgzq8FfcWqnTwcxxH5fTXn+tc/cqTU5Rt+BxoshY73GcDrfuF PkW9QI8Cuc9G5FNV+o1fWU6BxKxpAYDNA4R6S9VezxDNhDMSsajyUb8fWU4B7Zoor5ls91nj4VxS k8UUqGPM6x1OL6qcr79ZTqHYoWkGUJf4KQYsptDrwexYOrmk0ntYTiEp4t7CkRjVdMgp1LDyrIo/ nA3kkR734MR9mH7GLKdQ5EhT+KoXX80DQO2exGIKvZ7eHTHw0Rnandsnfw+V5RSQopHWxDPhrGjq 69wv92rWoLX6fqtpdO715EfXzjk6s6Sadl0tpyiXnDV8+ZsW9xQ0GzD1PKppODswZ27amfOnnTPL KRQ0QhtrTTzOCRDRh1hMoX7p52HVmdqV/yedM8spDIMcT7LuJwZjDT1Enb1d509NY2JPrZ65Vuyf n6bEjuUUEjPHm+2Tf5a1w/XC/ca94n7vsbP/EF9Mzot6e7WL/fdtwjmznOJ4cyg510ywdxdKK/4N kA+BZ8/Z7rOmroGaVvn6yGF75yfn7HEvwga4U8DeSpKKHNPOxNVm4Y+v3747L9CjHsK0Gqamwdkz 1v2cWU5xjKemNOcAoPZB3+HZgmrdDOQ69qsZztnHfKyP1ElZYga6D6o+CgE5z+Z7/56+BGdFXXMt cM7Ws5xCUgYIbjjkSZg1VIDBGZwz5+xHllNoBAEAvcQH/71+BOfF4Hzy/cs5/c+Zv5b5K8spJGWA BE293zJD70EdzALet7zDjnvd5ZxZTqEYASRpNORNyHEuPS2F87J2JphU39RyIs5bh7iznCJlUtYQ AvIncHoAsJSCfb149/q2YglXJf/oVfKft4osp0iXrBxOQJOBRprTZ9a5hf21rOtTVGoMGc5b9Ti0 nCJVYtYYApoMTS6cOpeWUhDTm3eqc6vei1zE9AWV5RSKDICcCuMGAIMgnBuY36tzlWvdytcfnY/k w17nreq5spwizRAlKQIajB7NRccahXMJzs2+HF0tT698vXISYuJvllOkSM6SMqDB2N8Aoy4B3MmL 05dUq1+jWoP+8V+WU4QnZ0kZoF+DAYChOXLG6P6a9CbOWrd7ZDlFaKBbTAGaC02g5hlgXl17JH9H LoV2/3xzECfipFIf9OJ2522msyYsiymAaznPosTQBaCu3Z8/duTpkzVanUEP+SvLKUKStoQMaC6u 5WD5M+egAaCuxef3R2pkZG3IXMP9Eq3vWavSP1pOcbzJN1gBmot7Cyq59FzNAuCx3j5D3s2c+9Xt Xj1ExP3svkD0nVOJk1GWwFv5WWtJGaB/Az6tXgMgf068Nt16kWfm3qjvQ7saSxXuleUUx4JYwQJY mw8tqFwXgGz1Tc9vBqrYN9z5yJwruIbllAZ7+QGVlAHO5UVN0brroVYBrKtx03OqazBn3j7di3WN K8spQfTLwVp9uCRlgL350YLKdQAw/3jf7ldc32BBdZ/llGZ768+xmAI4kyenL2buvn/1CmBfnZuS Yyc+LeUXQ3HXolusWU4J9G1f5qbRBzibL6O+nFNjDMAjta7rfOAjfHoH7rOcKjSArH7scOcQIzkD xOXNSQ3XiveqZgGcrXddljmWUkT3YJ3iz3JqWLCf+K26BA0Qnz+7L6hW1TM1CyC27lXLw52Wa+qi e5bJi1sZEzx3GurX//aRIDw5nEhkAPE14mq9qGTV9VG3APIN11l/uaJmfFyXK10fH+nLyXKq8PCR 6VBJ1gC5asRb9aJDrtZQAvSvgRnyvvmGyb1jBMspJG6AIU1G5SXV6muhdgHUnjVW1gU1YX8PAp+x nHLoJXGAYXWi0pLKX5MFQC7Pr9pH+/SN+fhCdElVMQAYmm9P/JGMbK9N/QIA9I35eHIqSQBV2XBq 6gHicu+uWvHffzcyz/trsgBgRvXeZvLkVLLBw2sEIDIPvz6xdKppO/Xz1DAA2F/TXQVz+1WenEoW RBkPtIYeYGateOvn3KkJ/uISANC9T3MVrrGcGjx0OFgAtRufiHpR6bei6hgA9JhNvbf+78/H+jTT b/58DT2AeuHaAADPmPzRPr3HPZZTiQP7dHBbSgGoF5pDAEC/4P2dZjk1fOh4/fc18gAaEDUTALjb X0z8CgD9x32+c6rgobl72B0cgN61YuIj9WobAHC1h7jaO+k/1rGc0oAD0LROTFhSqYkAsL/WPttT /PH12/dKNfpK71Th/VX6YnTLKQBo3Ew+22hVe28AADv6i5/7J73HXpZTADCk0eqwpNIYAkBM/Z32 tQFdeo4q984XogPAoCaraqPly84BoJaJ34HJdZo8ANA4pmQZBQAwg6YPAPhH9LLKQgoAYB4NIADw rp3LKosoAAAAAAAAAAAAAAAAAAAAAAAAAAAAAAAAAAAAAAAAAAAAAAAAAAAAAAAAAAAAAAAAAAAA AAAAAAAAAAAAAAAAAAAAAAAAAAAAAAAAAAAAAAAY7v/p0+DoOSU2wAAAAABJRU5ErkJggg== "
       preserveAspectRatio="none"
       height="297.5"
       width="1488.75" />
  </g>
</svg>
