<?xml version="1.0" encoding="UTF-8" standalone="no"?>
<svg
   xmlns:dc="http://purl.org/dc/elements/1.1/"
   xmlns:cc="http://creativecommons.org/ns#"
   xmlns:rdf="http://www.w3.org/1999/02/22-rdf-syntax-ns#"
   xmlns:svg="http://www.w3.org/2000/svg"
   xmlns="http://www.w3.org/2000/svg"
   xmlns:xlink="http://www.w3.org/1999/xlink"
   xmlns:sodipodi="http://sodipodi.sourceforge.net/DTD/sodipodi-0.dtd"
   xmlns:inkscape="http://www.inkscape.org/namespaces/inkscape"
   sodipodi:docname="E35P04.svg"
   height="3503"
   width="2481"
   inkscape:version="0.91 r13725"
   version="1.1"
   id="svg2">
  <metadata
     id="metadata8">
    <rdf:RDF>
      <cc:Work
         rdf:about="">
        <dc:format>image/svg+xml</dc:format>
        <dc:type
           rdf:resource="http://purl.org/dc/dcmitype/StillImage" />
        <dc:title />
      </cc:Work>
    </rdf:RDF>
  </metadata>
  <defs
     id="defs6">
    <filter
       inkscape:auto-region="false"
       height="1.5"
       width="1.5"
       y="-0.10000000000000001"
       x="-0.10000000000000001"
       inkscape:label="soundFX1"
       id="filter4375-4-1-1-1-9-5-8-8-5-5-3-3"
       style="color-interpolation-filters:sRGB">
      <feFlood
         result="flood"
         flood-color="rgb(52,52,52)"
         flood-opacity="1"
         id="feFlood4377-7-9-0-8-1-7-3-1-2-7-6-6" />
      <feComposite
         baseFrequency="0.053999999999999999 0.053999999999999999"
         result="composite1"
         operator="in"
         in="flood"
         in2="SourceGraphic"
         id="feComposite4379-3-8-8-2-77-4-1-0-6-4-7-7" />
      <feMorphology
         result="result3"
         radius="9.350875432312252"
         operator="dilate"
         id="feMorphology4393-1-0-49-8-9-3-0-1-9-9-5-5" />
      <feComposite
         result="fbSourceGraphic"
         operator="over"
         in="SourceGraphic"
         in2="result3"
         id="feComposite4385-9-5-7-0-8-8-7-5-4-9-3-3" />
      <feColorMatrix
         id="feColorMatrix4544-9-4-4-5-5"
         values="0 0 0 -1 0 0 0 0 -1 0 0 0 0 -1 0 0 0 0 1 0"
         in="fbSourceGraphic"
         result="fbSourceGraphicAlpha" />
      <feTurbulence
         result="turbulence"
         baseFrequency="0.053999999999999999 0.054054054054054057"
         seed="147"
         numOctaves="4"
         type="fractalNoise"
         id="feTurbulence4546-3-6-5-6-6" />
      <feDisplacementMap
         result="fbSourceGraphic"
         xChannelSelector="R"
         yChannelSelector="G"
         scale="10.561763"
         in="fbSourceGraphic"
         in2="turbulence"
         id="feDisplacementMap4548-8-0-9-2-2" />
      <feColorMatrix
         id="feColorMatrix4670-7-7-3-9-9"
         values="0 0 0 -1 0 0 0 0 -1 0 0 0 0 -1 0 0 0 0 1 0"
         in="fbSourceGraphic"
         result="fbSourceGraphicAlpha" />
      <feFlood
         in="fbSourceGraphic"
         result="flood"
         flood-color="rgb(28,28,28)"
         flood-opacity="1"
         id="feFlood4672-4-4-5-1-1" />
      <feComposite
         result="composite1"
         operator="in"
         in="flood"
         in2="fbSourceGraphic"
         id="feComposite4674-8-3-7-2-2" />
      <feGaussianBlur
         result="blur"
         stdDeviation="0"
         in="composite1"
         id="feGaussianBlur4676-3-7-08-7-7" />
      <feOffset
         result="offset"
         dy="0.39217365321829334"
         dx="-10.48377497279229"
         id="feOffset4678-6-9-1-0-0" />
      <feComposite
         result="composite2"
         operator="over"
         in="fbSourceGraphic"
         in2="offset"
         id="feComposite4680-4-0-9-9-9" />
    </filter>
    <filter
       height="1.0140257"
       width="1.0255357"
       y="-0.0044205808"
       x="-0.024770067"
       inkscape:label="soundFX1"
       id="filter4375-4-1-1-1-9-5-8-8-5-5-3-3-3"
       style="color-interpolation-filters:sRGB">
      <feFlood
         result="flood"
         flood-color="rgb(52,52,52)"
         flood-opacity="1"
         id="feFlood4377-7-9-0-8-1-7-3-1-2-7-6-6-5" />
      <feComposite
         baseFrequency="0.053999999999999999 0.053999999999999999"
         result="composite1"
         operator="in"
         in="flood"
         in2="SourceGraphic"
         id="feComposite4379-3-8-8-2-77-4-1-0-6-4-7-7-6" />
      <feMorphology
         result="result3"
         radius="4.0330969769021738"
         operator="dilate"
         id="feMorphology4393-1-0-49-8-9-3-0-1-9-9-5-5-2" />
      <feComposite
         result="fbSourceGraphic"
         operator="over"
         in="SourceGraphic"
         in2="result3"
         id="feComposite4385-9-5-7-0-8-8-7-5-4-9-3-3-9" />
      <feColorMatrix
         id="feColorMatrix4544-9-4-4-5-5-1"
         values="0 0 0 -1 0 0 0 0 -1 0 0 0 0 -1 0 0 0 0 1 0"
         in="fbSourceGraphic"
         result="fbSourceGraphicAlpha" />
      <feTurbulence
         result="turbulence"
         baseFrequency="0.046080819231719368"
         seed="147"
         numOctaves="4"
         type="fractalNoise"
         id="feTurbulence4546-3-6-5-6-6-2" />
      <feDisplacementMap
         result="fbSourceGraphic"
         xChannelSelector="R"
         yChannelSelector="G"
         scale="13.20326"
         in="fbSourceGraphic"
         in2="turbulence"
         id="feDisplacementMap4548-8-0-9-2-2-7" />
      <feColorMatrix
         id="feColorMatrix4670-7-7-3-9-9-0"
         values="0 0 0 -1 0 0 0 0 -1 0 0 0 0 -1 0 0 0 0 1 0"
         in="fbSourceGraphic"
         result="fbSourceGraphicAlpha" />
      <feFlood
         in="fbSourceGraphic"
         result="flood"
         flood-color="rgb(28,28,28)"
         flood-opacity="1"
         id="feFlood4672-4-4-5-1-1-9" />
      <feComposite
         result="composite1"
         operator="in"
         in="flood"
         in2="fbSourceGraphic"
         id="feComposite4674-8-3-7-2-2-3" />
      <feGaussianBlur
         result="blur"
         stdDeviation="0"
         in="composite1"
         id="feGaussianBlur4676-3-7-08-7-7-6" />
      <feOffset
         result="offset"
         dy="0.39217365321829334"
         dx="-10.48377497279229"
         id="feOffset4678-6-9-1-0-0-0" />
      <feComposite
         result="composite2"
         operator="over"
         in="fbSourceGraphic"
         in2="offset"
         id="feComposite4680-4-0-9-9-9-6" />
    </filter>
  </defs>
  <sodipodi:namedview
     inkscape:current-layer="layer1"
     inkscape:cy="540.46398"
     inkscape:cx="1293.6738"
     inkscape:zoom="0.35930633"
     inkscape:pagecheckerboard="0"
     inkscape:snap-global="false"
     inkscape:document-rotation="0"
     inkscape:window-maximized="1"
     inkscape:window-y="24"
     inkscape:window-x="65"
     showgrid="false"
     id="namedview4"
     inkscape:window-height="576"
     inkscape:window-width="959"
     inkscape:pageshadow="2"
     inkscape:pageopacity="0"
     guidetolerance="10"
     gridtolerance="10"
     objecttolerance="10"
     borderopacity="1"
     bordercolor="#666666"
     pagecolor="#ffffff" />
  <g
     sodipodi:insensitive="true"
     inkscape:label="artwork"
     id="layer2"
     inkscape:groupmode="layer">
    <image
       sodipodi:absref="/home/denez/Desktop/Link to Projet ADG/AdG 2-Travaux/5-BD pepper trad/35/gfx_Pepper-and-Carrot_by-David-Revoy_E35P04.png"
       xlink:href="../gfx_Pepper-and-Carrot_by-David-Revoy_E35P04.png"
       width="2481"
       height="3503"
       id="image10"
       x="0"
       y="0" />
  </g>
  <g
     inkscape:label="speechbubbles"
     id="layer3"
     inkscape:groupmode="layer">
    <path
       sodipodi:nodetypes="ccccccccccccccccccccccccccccccccccccccccc"
       inkscape:connector-curvature="0"
       id="path1311"
       d="m 1990.6841,68.129186 40.8894,-58.1643763 10.7703,72.2694093 16.0195,-10.797383 -1.1205,12.424853 77.5078,-87.8692186 -17.3836,103.4133266 28.6218,-11.512543 -26.2092,30.449126 71.5505,-11.92249 -52.0274,36.07877 109.7994,-20.18457 -86.5737,48.35085 68.7817,15.87944 -76.9714,21.31793 82.325,34.53867 -128.9502,0.0335 23.8906,14.29195 -47.765,-3.52361 4.7183,31.7206 -28.459,-22.54414 -2.5496,19.73937 -12.2434,-13.74773 -45.6264,71.52464 -14.9509,-66.61322 -34.159,25.24735 9.0138,-34.41797 -80.516,13.14666 59.4356,-35.61674 -52.3321,-12.33614 13.2762,-25.24301 -19.2203,-3.63745 19.8777,-40.2119 -5.8639,-29.82786 6.0608,-43.514206 14.6237,-6.146039 16.6659,2.371306 -14.9767,-17.873766 43.9064,21.730774 12.0993,-4.199085 z"
       style="fill:#ffffff;fill-rule:evenodd;stroke:none;stroke-width:1.3803px;stroke-linecap:butt;stroke-linejoin:miter;stroke-opacity:1" />
    <path
       sodipodi:nodetypes="cccccccccccccccccccccccc"
       inkscape:connector-curvature="0"
       id="path4289-9-3"
       d="m 1942.6098,964.73497 c 23.0381,32.25057 22.4087,51.44963 -0.4637,36.36393 20.5858,22.0731 14.6182,25.0583 -5.1972,29.5815 38.7189,51.4034 19.0901,81.6079 -1.911,111.3139 54.5187,-11.1938 51.26,15.989 60.6541,34.7683 18.7355,-35.3496 19.7575,-11.9446 15.8371,27.8546 21.1372,-45.8379 30.0157,-49.0683 27.7185,-13.4454 17.0882,-28.7875 33.7721,-39.2629 49.9909,-28.6902 39.8834,-25.4603 45.1292,12.8494 61.5703,30.548 6.089,-36.0564 22.4754,-44.7548 49.174,-7.5122 3.9968,-21.7812 28.0647,-20.0714 47.1293,12.2355 -22.7131,-62.7898 19.5653,-5.2648 26.9007,-1.2768 -10.6464,-32.2619 22.7407,-32.2351 67.883,-6.9409 -15.1119,-14.8537 -27.1369,-45.9079 5.4856,-56.9842 -30.083,-15.2049 -26.1916,-30.8411 -4.4518,-46.7043 -32.091,-27.3345 -1.1891,-50.09 23.3809,-73.536 -41.0497,9.5146 -59.1371,8.1019 -57.577,-29.36993 -64.9191,25.66923 -52.6003,10.30687 -43.8029,-3.1851 -44.1552,32.80383 -43.433,0.63459 -41.7485,-9.28942 -58.8654,35.18515 -95.359,-6.19711 -110.3725,-30.86373 -19.8073,49.77197 -36.1926,29.33898 -52.5642,8.61655 7.1921,37.58296 -10.9882,33.81239 -28.634,17.66574 3.2618,25.19132 -15.0826,45.99379 -43.259,9.43317 9.0752,17.89156 -11.107,25.43652 -45.7426,-10.58301 z"
       style="display:inline;fill:#ffffff;fill-rule:evenodd;stroke:none;stroke-width:1.15142px;stroke-linecap:butt;stroke-linejoin:miter;stroke-opacity:1" />
    <path
       sodipodi:nodetypes="ccccccccccccccc"
       inkscape:connector-curvature="0"
       id="path3549-3-8"
       d="m 1939.1741,1934.971 c 9.8826,-14.9726 20.1591,-35.7858 23.8355,-5.3013 27.0685,-40.8191 60.473,-26.4356 67.8775,-20.4876 -3.4169,-12.0842 3.4721,-33.8053 23.1477,-28.4646 -3.7385,-11.6741 1.906,-20.4399 15.9223,-26.6098 -19.8636,-5.4615 -24.0618,-12.5657 10.8853,-23.7804 -27.2137,1.6813 -52.6866,2.3839 -23.3108,-27.7406 -10.0505,0.2441 -31.693,25.1224 -26.6716,-42.41 -15.2491,22.8526 -32.5067,36.2631 -59.537,-6.2759 -5.4681,18.2557 -14.9492,31.1057 -37.4502,8.9055 3.3969,46.8177 -26.7148,23.6021 -36.4997,18.8055 24.5248,24.178 36.1626,51.7113 -4.087,34.244 44.6161,31.5109 12.6873,38.46 6.8212,48.0033 33.6239,9.2096 39.3039,22.9789 20.1474,41.0257 37.4287,-2.8622 20.7777,21.5037 18.9194,30.0862 z"
       style="color:#000000;display:inline;overflow:visible;visibility:visible;fill:#ffffff;fill-opacity:1;fill-rule:nonzero;stroke:none;stroke-width:0.770816px;marker:none;enable-background:accumulate" />
    <path
       inkscape:transform-center-y="-43.686552"
       inkscape:transform-center-x="-57.216036"
       inkscape:connector-curvature="0"
       id="path5066-8"
       d="m 1926.248,1843.0789 c -20.822,12.3713 -43.9112,29.9401 -49.0115,34.7313 7.6441,4.8958 13.7298,10.7762 18.5416,15.2652 -10.1989,7.8557 -59.6343,40.9724 -74.2202,42.5016 36.2511,-2.0413 75.4853,-23.85 91.2102,-38.3345 -5.5183,-7.1796 -9.6233,-10.7039 -12.4531,-14.5629 7.5084,-7.7245 36.8287,-25.7792 36.8287,-25.7792 z"
       style="color:#000000;display:inline;overflow:visible;visibility:visible;fill:#ffffff;fill-opacity:1;fill-rule:nonzero;stroke:none;stroke-width:0.953405px;marker:none;enable-background:accumulate" />
    <path
       inkscape:connector-curvature="0"
       id="path4197"
       d="m 1627.2335,2705.2373 c -23.1037,-13.8585 -36.5299,-36.912 -34.9094,-59.863 0.021,-3.5135 -0.4441,-8.0219 1.7675,-2.246 2.0614,4.0298 8.3884,13.6182 10.9735,12.5222 -1.4798,-8.8501 -0.3232,-17.6718 1.2074,-26.4179 1.0016,-9.1477 8.8287,10.9922 13.4853,3.0445 -2.5178,-3.3793 -1.4443,-11.9763 3.1404,-4.5199 6.2141,6.2476 7.8286,0.1269 9.2363,-3.1599 6.2642,4.3437 7.7826,0.9638 10.2781,-2.1934 5.2,2.8325 9.3716,2.6051 11.5761,-1.8567 8.0067,0.054 18.5192,4.6724 20.0622,-5.2373 3.8657,-4.6515 7.5525,5.8393 14.149,2.8279 13.2978,-1.1697 26.4936,1.5185 39.7605,1.9774 11.1466,1.1427 19.7935,7.5219 28.5211,12.1511 -0.8513,-3.4387 -1.5562,-6.9813 4.245,-3.573 5.1328,-0.083 -6.9949,-13.324 1.9604,-5.6321 11.3875,9.143 18.7251,20.825 28.1567,31.1801 8.4588,10.8464 19.5201,20.4605 25.6892,32.4118 5.303,9.259 9.5979,19.2126 11.6765,29.1222 -1.977,-3.6809 -9.9563,-11.6388 -9.1101,-2.7516 0.5484,3.9719 -2.226,16.6007 -6.7939,8.7104 -4.5624,-2.1273 -6.8154,3.3442 -8.1965,-2.5626 -2.2232,-3.8578 -10.9709,-16.3625 -9.7892,-5.2596 -0.2047,4.4625 -0.3337,15.7557 -7.2454,15.2981 -0.605,-4.3369 -3.6967,-4.5846 -6.3515,-1.9329 -2.9555,-2.7725 -5.6694,-4.3471 -8.9552,-2.5997 -7.2138,-4.1244 -16.9121,-4.5374 -24.2207,-0.3415 -8.1262,2.9169 -10.6334,12.2104 -21.0337,10.295 -7.7629,1.0738 -13.8353,5.2852 -21.9309,1.7588 -7.2919,2.5269 -16.3312,1.4423 -23.8805,-0.7309 -2.8033,-0.9719 -9.8751,-5.9972 -9.6676,-0.5102 -5.4697,1.613 -16.751,-5.5606 -17.0508,-3.6972 1.5499,7.42 -9.1456,-4.0575 -11.2929,-6.1815 -5.6254,-6.3934 -12.6142,-12.4102 -15.4569,-20.0326 z"
       style="display:inline;fill:#ffffff;fill-rule:evenodd;stroke:none;stroke-width:0.757251px;stroke-linecap:butt;stroke-linejoin:miter;stroke-opacity:1" />
    <path
       sodipodi:nodetypes="ccccccccccccccccccccccccccccccc"
       inkscape:connector-curvature="0"
       id="path4236"
       d="m 1781.5106,2665.8758 c -11.309,12.0584 -4.9704,29.2333 -2.5375,43.214 -0.4976,9.5398 11.0739,23.2873 9.8114,27.7617 -4.5451,-3.6308 -11.3327,-7.4072 -6.3639,1.4199 6.3197,25.0404 25.2942,45.0994 45.1075,62.02 6.0735,3.7476 24.7237,15.4095 23.4147,7.2098 11.3711,6.5911 24.9454,9.3623 37.8766,11.905 14.624,-0.4207 28.8671,2.6291 42.2253,8.1528 13.3435,3.5837 27.9775,8.7977 41.7343,4.0031 -5.4029,-17.0973 17.8173,-1.0951 26.4955,-7.1827 7.7621,2.4651 27.2642,-1.9658 40.3507,-4.6829 13.0945,-2.8295 26.106,-6.8221 38.1367,-12.4557 8.4061,0.4718 22.4986,-3.5214 31.5122,-13.0735 7.8622,2.3036 17.4539,-30.7262 14.78,-37.8391 -2.1195,-11.8704 -1.1754,-25.015 -3.7202,-34.3533 -1.258,-11.1091 -11.8183,-17.0434 -15.5213,-27.5766 -8.7427,-18.6614 -24.6147,-33.5751 -43.6039,-43.3921 -15.8206,-8.1804 -32.5374,-16.3408 -50.4903,-19.1618 -11.7094,-0.3067 10.0355,11.945 -4.4846,5.3985 -10.9789,-6.9478 1.4836,8.9211 -6.9753,2.3264 -4.7527,-5.187 -14.468,-9.5039 -10.8365,1.8219 -0.5834,4.5202 -4.626,0.806 -7.1347,4.7945 -12.5564,-7.1592 -26.6603,-1.8024 -40.4894,-1.7096 -7.622,-0.8454 -19.4341,4.2876 -22.934,-4.9449 0.069,11.1871 -11.9987,0.3865 -13.274,11.2764 -5.7604,-2.8135 -15.2754,-9.2314 -16.284,1.011 -9.6309,8.7256 -22.9767,-7.5828 -29.0511,-4.0596 3.405,17.2919 -13.2601,2.5498 -19.3867,-1.4893 -1.3185,19.1789 -21.349,-3.6906 -30.0552,-0.8195 9.2743,10.9733 -3.1083,21.1581 -15.0668,13.842 5.6672,17.5446 -5.9289,4.0414 -13.2355,6.5836 z"
       style="display:inline;fill:#ffffff;fill-rule:evenodd;stroke:none;stroke-width:0.608365px;stroke-linecap:butt;stroke-linejoin:miter;stroke-opacity:1" />
    <path
       inkscape:connector-curvature="0"
       id="path4293"
       d="m 2040.4712,2973.7641 c 16.3129,-104.9146 -18.3515,-177.7317 -52.9957,-199.8323 -34.6434,-22.0999 -57.1191,-12.3122 -34.9033,9.9761 22.215,22.2877 85.0927,37.2478 87.899,189.8562 z"
       style="display:inline;fill:#ffffff;fill-rule:evenodd;stroke:none;stroke-width:1px;stroke-linecap:butt;stroke-linejoin:miter;stroke-opacity:1" />
  </g>
  <g
     inkscape:label="txt"
     id="layer1"
     inkscape:groupmode="layer">
    <text
       y="435.11505"
       x="181.50571"
       transform="matrix(0.72171902,-0.19475033,-0.09884871,0.93569498,1272.6817,455.79978)"
       id="text4580-6-0-0-0-9-3-3"
       style="font-style:normal;font-variant:normal;font-weight:normal;font-stretch:normal;font-size:179.149px;line-height:1.25;font-family:Lavi;-inkscape-font-specification:Lavi;letter-spacing:0px;word-spacing:0px;display:inline;fill:#ffffff;fill-opacity:1;stroke:#ffffff;stroke-width:0.741719;stroke-miterlimit:4;stroke-dasharray:none;stroke-opacity:1;filter:url(#filter4375-4-1-1-1-9-5-8-8-5-5-3-3)"
       xml:space="preserve"><textPath
         style="font-style:normal;font-variant:normal;font-weight:bold;font-stretch:normal;font-size:179.149px;font-family:Lavi;-inkscape-font-specification:'Lavi Bold';stroke-width:0.741719"
         id="textPath2837"
         xlink:href="#path974"><tspan
   id="tspan936"
   style="font-style:normal;font-variant:normal;font-weight:bold;font-stretch:normal;font-size:228.21px;font-family:Lavi;-inkscape-font-specification:'Lavi Bold'">Ba</tspan><tspan
   style="font-style:normal;font-variant:normal;font-weight:bold;font-stretch:normal;font-size:205.585px;font-family:Lavi;-inkscape-font-specification:'Lavi Bold'"
   id="tspan880">OU</tspan><tspan
   id="tspan876"
   style="font-style:normal;font-variant:normal;font-weight:bold;font-stretch:normal;font-size:200.696px;font-family:Lavi;-inkscape-font-specification:'Lavi Bold'">M</tspan><tspan
   style="font-style:normal;font-variant:normal;font-weight:bold;font-stretch:normal;font-size:222.316px;font-family:Lavi;-inkscape-font-specification:'Lavi Bold'"
   id="tspan884">!</tspan></textPath></text>
    <text
       transform="scale(1.0052596,0.99476792)"
       id="text4246-3-2-2"
       y="205.81461"
       x="2052.2439"
       style="font-style:normal;font-variant:normal;font-weight:normal;font-stretch:normal;font-size:50.17520142px;line-height:1.25;font-family:Lavi;-inkscape-font-specification:Lavi;text-align:center;letter-spacing:0px;word-spacing:0px;text-anchor:middle;fill:#000000;fill-opacity:1;stroke:none;stroke-width:1.11500001"
       xml:space="preserve"><tspan
         id="tspan905"
         y="205.81461"
         x="2052.2439"
         sodipodi:role="line"
         style="font-style:normal;font-variant:normal;font-weight:bold;font-stretch:normal;font-size:50.17520142px;font-family:Lavi;-inkscape-font-specification:'Lavi Bold';stroke-width:1.11500001">QHI ?!</tspan></text>
    <text
       id="text4246-3-2-2-3"
       y="1061.0594"
       x="2146.032"
       style="font-style:normal;font-variant:normal;font-weight:normal;font-stretch:normal;font-size:45px;line-height:1.25;font-family:Lavi;-inkscape-font-specification:Lavi;text-align:center;letter-spacing:0px;word-spacing:0px;text-anchor:middle;fill:#000000;fill-opacity:1;stroke:none"
       xml:space="preserve"><tspan
         id="tspan900"
         y="1061.0594"
         x="2146.032"
         sodipodi:role="line"
         style="font-size:45px">Il ont passae le</tspan><tspan
         y="1117.3094"
         x="2146.032"
         sodipodi:role="line"
         style="font-size:45px"
         id="tspan4366">mur du son ?!</tspan></text>
    <text
       transform="scale(1.0399735,0.96156296)"
       id="text4246-3-2-2-3-5"
       y="1946.7604"
       x="1899.1366"
       style="font-style:normal;font-variant:normal;font-weight:normal;font-stretch:normal;font-size:69.6081px;line-height:1.25;font-family:Lavi;-inkscape-font-specification:Lavi;text-align:center;letter-spacing:0px;word-spacing:0px;text-anchor:middle;fill:#000000;fill-opacity:1;stroke:none;stroke-width:1.54685"
       xml:space="preserve"><tspan
         id="tspan905-3-1"
         y="1946.7604"
         x="1899.1366"
         sodipodi:role="line"
         style="font-style:normal;font-variant:normal;font-weight:bold;font-stretch:normal;font-size:69.6081px;font-family:Lavi;-inkscape-font-specification:'Lavi Bold';stroke-width:1.54685">!<tspan
   id="tspan1014"
   style="font-size:79.6081px">!</tspan><tspan
   style="font-size:89.6081px"
   id="tspan1018">!</tspan></tspan></text>
    <text
       y="1245.0809"
       x="-607.91235"
       transform="matrix(0.80003598,-0.79061533,0.21633545,1.1521123,363.87713,1065.1365)"
       id="text4580-6-0-0-0-9-3-3-2"
       style="font-style:normal;font-variant:normal;font-weight:normal;font-stretch:normal;font-size:80px;line-height:1.25;font-family:Lavi;-inkscape-font-specification:Lavi;letter-spacing:0px;word-spacing:0px;display:inline;fill:#ffffff;fill-opacity:1;stroke:#ffffff;stroke-width:0.668774;stroke-miterlimit:4;stroke-dasharray:none;stroke-opacity:1;filter:url(#filter4375-4-1-1-1-9-5-8-8-5-5-3-3-3)"
       xml:space="preserve"><tspan
         style="font-size:99.052px"
         id="tspan1510">WOous</tspan><tspan
         style="font-size:74.7304px"
         id="tspan1083">H </tspan><tspan
         style="font-size:44.312px"
         id="tspan1530">!</tspan><tspan
         style="font-size:61.3371px"
         id="tspan1534">!!</tspan></text>
    <text
       id="text4246-3-2-2-3-2"
       y="2692.6509"
       x="1703.0199"
       style="font-style:normal;font-variant:normal;font-weight:normal;font-stretch:normal;font-size:45px;line-height:1.25;font-family:Lavi;-inkscape-font-specification:Lavi;text-align:center;letter-spacing:0px;word-spacing:0px;text-anchor:middle;fill:#000000;fill-opacity:1;stroke:none"
       xml:space="preserve"><tspan
         id="tspan905-3-3"
         y="2692.6509"
         x="1703.0199"
         sodipodi:role="line"
         style="font-style:normal;font-variant:normal;font-weight:bold;font-stretch:normal;font-size:45px;font-family:Lavi;-inkscape-font-specification:'Lavi Bold'">Grrr !</tspan></text>
    <text
       id="text4246-3-2-2-3-2-6"
       y="2728.387"
       x="1961.0925"
       style="font-style:normal;font-variant:normal;font-weight:normal;font-stretch:normal;font-size:45px;line-height:1.25;font-family:Lavi;-inkscape-font-specification:Lavi;text-align:center;letter-spacing:0px;word-spacing:0px;text-anchor:middle;fill:#000000;fill-opacity:1;stroke:none"
       xml:space="preserve"><tspan
         id="tspan904"
         y="2728.387"
         x="1961.0925"
         sodipodi:role="line"
         style="font-style:normal;font-variant:normal;font-weight:normal;font-stretch:normal;font-size:45px;font-family:Lavi;-inkscape-font-specification:Lavi">Acreye-tai,</tspan><tspan
         y="2784.637"
         x="1961.0925"
         sodipodi:role="line"
         style="font-style:normal;font-variant:normal;font-weight:normal;font-stretch:normal;font-size:45px;font-family:Lavi;-inkscape-font-specification:Lavi"
         id="tspan4370"> Carote !</tspan></text>
    <path
       sodipodi:nodetypes="cccccccc"
       inkscape:connector-curvature="0"
       id="path5066-7"
       d="m 2039.7365,1002.7266 c 9.861,-32.35369 17.4578,-71.3509 18.3464,-80.70229 -11.8043,4.23219 -24.3456,2.67351 -32.9969,4.198 3.2732,-17.30307 13.3579,-99.34384 26.4548,-116.22599 -34.0773,40.53356 -42.4573,105.79489 -45.4461,134.39433 11.6836,-0.10269 18.7989,-1.64982 24.9438,-1.55895 -0.7263,14.31116 -14.0636,60.3846 -14.0636,60.3846 z"
       style="color:#000000;display:inline;overflow:visible;visibility:visible;fill:#ffffff;fill-opacity:1;fill-rule:nonzero;stroke:none;stroke-width:0.721774px;marker:none;enable-background:accumulate" />
  </g>
</svg>
