<?xml version="1.0" encoding="UTF-8" standalone="no"?>
<!-- Created with Inkscape (http://www.inkscape.org/) -->

<svg
   xmlns:dc="http://purl.org/dc/elements/1.1/"
   xmlns:cc="http://creativecommons.org/ns#"
   xmlns:rdf="http://www.w3.org/1999/02/22-rdf-syntax-ns#"
   xmlns:svg="http://www.w3.org/2000/svg"
   xmlns="http://www.w3.org/2000/svg"
   xmlns:xlink="http://www.w3.org/1999/xlink"
   xmlns:sodipodi="http://sodipodi.sourceforge.net/DTD/sodipodi-0.dtd"
   xmlns:inkscape="http://www.inkscape.org/namespaces/inkscape"
   id="svg2"
   version="1.1"
   inkscape:version="0.92.3 (2405546, 2018-03-11)"
   width="2481"
   height="3503"
   sodipodi:docname="E26P03_092.svg">
  <sodipodi:namedview pagecolor="#ffffff" bordercolor="#666666" inkscape:pageopacity="0" inkscape:pageshadow="2" inkscape:window-width="1813" inkscape:window-height="955" id="namedview70" showgrid="false" inkscape:zoom="0.4" inkscape:cx="1284.4231" inkscape:cy="2618.6204" inkscape:current-layer="layer1" /><metadata
     id="metadata8">
    <rdf:RDF>
      <cc:Work
         rdf:about="">
        <dc:format>image/svg+xml</dc:format>
        <dc:type
           rdf:resource="http://purl.org/dc/dcmitype/StillImage" />
        <dc:title />
      </cc:Work>
    </rdf:RDF>
  </metadata>
  <defs
     id="defs6" />
  <sodipodi:namedview
     pagecolor="#ffffff"
     bordercolor="#666666"
     borderopacity="1"
     objecttolerance="10"
     gridtolerance="10"
     guidetolerance="10"
     inkscape:pageopacity="0"
     inkscape:pageshadow="2"
     inkscape:window-width="1280"
     inkscape:window-height="756"
     id="namedview4"
     showgrid="false"
     inkscape:zoom="0.40200776"
     inkscape:cx="1141.039"
     inkscape:cy="776.09585"
     inkscape:window-x="0"
     inkscape:window-y="47"
     inkscape:window-maximized="0"
     inkscape:current-layer="layer1" />
  <g
     inkscape:groupmode="layer"
     id="layer2"
     inkscape:label="artwork"
     sodipodi:insensitive="true">
    <image
       sodipodi:absref="/home/deevad/peppercarrot/webcomics/ep26_Books-Are-Great/lang/vi/../gfx_Pepper-and-Carrot_by-David-Revoy_E26P03.png"
       xlink:href="../gfx_Pepper-and-Carrot_by-David-Revoy_E26P03.png"
       width="2481"
       height="3503"
       id="image10"
       x="0"
       y="0" />
  </g>
  <g
     inkscape:groupmode="layer"
     id="layer3"
     inkscape:label="speechbubbles"
     style="opacity:1">
    <path
       style="color:#000000;display:inline;overflow:visible;visibility:visible;fill:#ffffff;fill-opacity:1;fill-rule:nonzero;stroke:none;stroke-width:0.87265897px;marker:none;enable-background:accumulate"
       d="m 267.45576,637.37235 c 19.45013,-24.92834 259.38495,-42.6815 314.81256,13.69819 38.62751,39.29098 23.72621,114.63931 -9.38255,134.25405 -33.1087,19.61483 -192.9554,25.13898 -238.38659,15.15 -40.8542,-8.98267 -83.73663,-28.31692 -85.99746,-79.77635 -0.92271,-21.00262 -0.49615,-58.39747 18.95404,-83.32589 z"
       id="path4040"
       inkscape:connector-curvature="0"
       sodipodi:nodetypes="zssssz" />
    <path
       style="fill:#ffffff;stroke:none;stroke-width:0.99999994"
       d="m 628.34471,847.51507 c -38.61917,12.80883 -55.09288,-0.0828 -66.95346,-14.05699 -11.86058,-13.97408 -28.36174,-20.89656 -39.29055,-22.32443 -10.92881,-1.42786 -28.67404,2.49427 -37.73175,7.41599 -9.05781,4.92182 -23.30007,-9.35873 -32.51481,-17.85685 -12.1752,-11.22835 -10.17368,-21.3089 -10.17368,-21.3089 0,0 -63.56569,-10.64656 -52.32882,1.21103 11.23688,11.85757 53.851,43.51663 59.4257,47.15218 5.57479,3.63555 23.61454,12.58563 34.54483,10.2648 10.93033,-2.32073 19.07986,-12.5098 32.07626,-12.9737 13.38845,-0.4779 22.37583,3.75223 33.30162,12.67727 10.92577,8.92503 37.52895,25.44728 54.48293,19.70573 16.95397,-5.74156 25.16173,-9.90613 25.16173,-9.90613 z"
       id="path3023"
       inkscape:connector-curvature="0"
       sodipodi:nodetypes="csssscssssssc" />
    <path
       style="color:#000000;display:inline;overflow:visible;visibility:visible;fill:#ffffff;fill-opacity:1;fill-rule:nonzero;stroke:none;stroke-width:0.84983093px;marker:none;enable-background:accumulate"
       d="m 232.67034,1804.1035 c -2.68476,-11.2964 20.91072,-72.9271 120.5528,-70.9357 99.64209,1.9915 123.14345,44.1649 123.74969,59.3952 0.60623,15.2301 -21.52489,40.1431 -35.7674,44.7655 -14.2424,4.6224 -51.50581,15.8906 -76.11721,14.2311 -24.61125,-1.6597 -57.55035,6.4881 -95.49777,-11.3158 -30.1609,-14.1508 -35.01483,-33.1953 -36.92011,-36.1403 z"
       id="path3365"
       inkscape:connector-curvature="0"
       sodipodi:nodetypes="cssccsc" />
    <path
       style="color:#000000;display:inline;overflow:visible;visibility:visible;fill:#ffffff;fill-opacity:1;fill-rule:nonzero;stroke:none;stroke-width:1.00914943px;marker:none;enable-background:accumulate"
       d="m 1102.2198,2238.3052 c -4.418,-22.1849 -13.1391,-149.6664 182.4138,-141.2009 171.4874,7.4239 196.775,110.4476 197.5419,140.3152 0.7668,29.8679 -12.6649,60.2079 -43.1168,77.7478 -32.6411,16.8163 -90.2679,26.4305 -132.6238,22.8289 -42.3556,-3.6018 -99.1414,-0.5615 -142.766,-17.7756 -30.0078,-11.8408 -56.6223,-50.8963 -61.4491,-81.9154 z"
       id="path3365-5"
       inkscape:connector-curvature="0"
       sodipodi:nodetypes="cssccsc" />
    <path
       style="color:#000000;display:inline;overflow:visible;visibility:visible;fill:#ffffff;fill-opacity:1;fill-rule:nonzero;stroke:none;stroke-width:1px;marker:none;enable-background:accumulate"
       d="m 377.75121,1797.7955 c 0.14136,37.7496 7.44343,98.937 94.82871,86.7057 -14.99489,10.61 -114.59779,34.3786 -127.13109,-74.0559 -3.63685,-31.4647 8.70865,-21.0527 15.81183,-23.0996 7.10319,-2.047 16.49055,10.4498 16.49055,10.4498 z"
       id="path4064"
       inkscape:connector-curvature="0"
       sodipodi:nodetypes="ccszc" />
    <path
       style="color:#000000;display:inline;overflow:visible;visibility:visible;fill:#ffffff;fill-opacity:1;fill-rule:nonzero;stroke:none;stroke-width:1px;marker:none;enable-background:accumulate"
       d="m 1237.4731,2165.1562 c 16.4769,-33.9641 36.832,-92.1267 -47.0265,-119.5779 18.1333,-2.9332 118.0386,19.5304 81.6003,122.4254 -10.5733,29.8573 -17.0809,15.0765 -24.3604,13.7904 -7.2795,-1.2859 -10.2134,-16.6379 -10.2134,-16.6379 z"
       id="path4064-3"
       inkscape:connector-curvature="0"
       sodipodi:nodetypes="ccszc" />
    <path
       style="fill:#ffffff;stroke:none;stroke-width:0.89359224"
       d="m 89.771572,2704.4937 c -26.024726,-185.1501 55.468798,-164.2112 264.987138,-165.3841 266.98835,-1.4948 268.67362,40.514 266.45524,119.7494 -4.79875,171.3991 -59.05248,220.9102 -335.25878,209.7352 C 43.576142,2858.788 64.214231,2807.3641 89.771572,2704.4937 Z"
       id="path3280-8"
       inkscape:connector-curvature="0"
       sodipodi:nodetypes="csssc" />
    <path
       style="color:#000000;display:inline;overflow:visible;visibility:visible;fill:#ffffff;fill-opacity:1;fill-rule:nonzero;stroke:none;stroke-width:1.09098148px;marker:none;enable-background:accumulate"
       d="m 541.6664,2826.0288 c 14.75467,36.3891 56.10784,84.8029 132.56738,64.1383 -52.93998,24.1174 -112.04254,21.8254 -162.9129,-49.9788 -68.01242,-96.0004 -45.71056,-118.3536 -45.71056,-118.3536 z"
       id="path4064-6"
       inkscape:connector-curvature="0"
       sodipodi:nodetypes="ccscc" />
    <path
       style="color:#000000;display:inline;overflow:visible;visibility:visible;fill:#ffffff;fill-opacity:1;fill-rule:nonzero;stroke:none;stroke-width:1.04645622px;marker:none;enable-background:accumulate"
       d="m 1845.8821,2967.1271 c -2.5323,-17.8749 36.6493,-97.3439 191.1244,-85.4272 154.4751,11.9166 176.446,54.5174 177.9856,94.0272 -2.6691,40.7155 -33.64,70.4216 -56.4314,76.3799 -22.7914,5.9583 -57.0494,14.2286 -120.2881,15.4915 -73.0589,0.057 -116.1271,-2.4468 -162.3892,-34.9007 -44.1283,-28.7858 -27.4689,-60.8041 -30.0013,-65.5707 z"
       id="path3365-7"
       inkscape:connector-curvature="0"
       sodipodi:nodetypes="cscsccc" />
    <path
       style="color:#000000;display:inline;overflow:visible;visibility:visible;fill:#ffffff;fill-opacity:1;fill-rule:nonzero;stroke:none;stroke-width:1px;marker:none;enable-background:accumulate"
       d="m 1963.5548,2926.8144 c -22.0372,-41.7339 -131.901,-116.3258 -202.9973,-80.3598 84.8906,-21.0574 174.3494,70.9697 177.3562,85.6217 3.0068,14.6521 25.6411,-5.2619 25.6411,-5.2619 z"
       id="path3978"
       inkscape:connector-curvature="0"
       sodipodi:nodetypes="cccc" />
    <path
       style="color:#000000;display:inline;overflow:visible;visibility:visible;fill:#ffffff;fill-opacity:1;fill-rule:nonzero;stroke:none;stroke-width:0.55986059px;marker:none;enable-background:accumulate"
       d="m 253.93874,526.58536 c 13.93749,-14.31867 167.43235,-24.51596 207.15038,7.86814 27.6795,22.56846 26.21979,63.39355 2.49489,74.66012 -23.72487,11.26661 -138.26698,14.43965 -170.82182,8.70205 -29.27509,-5.15958 -60.00356,-16.26504 -61.6236,-45.82297 -0.6612,-12.06376 8.86264,-31.08864 22.80015,-45.40734 z"
       id="path4040-3"
       inkscape:connector-curvature="0"
       sodipodi:nodetypes="zssssz" />
  </g>
  <g
     inkscape:groupmode="layer"
     id="layer1"
     inkscape:label="txt">
    <text
       xml:space="preserve"
       style="font-style:normal;font-variant:normal;font-weight:normal;font-stretch:normal;line-height:0%;font-family:ComicSpice;-inkscape-font-specification:ComicSpice;text-align:center;letter-spacing:0px;word-spacing:0px;text-anchor:middle;fill:#000000;fill-opacity:1;stroke:none;stroke-width:0.8825497"
       x="422.30801"
       y="675.82751"
       id="text4246-5"><tspan
         sodipodi:role="line"
         style="font-style:normal;font-variant:normal;font-weight:normal;font-stretch:normal;font-size:39.71473694px;line-height:1.25;font-family:ComicSpice;-inkscape-font-specification:ComicSpice;stroke-width:0.8825497"
         x="422.30801"
         y="675.82751"
         id="tspan439">Tôi biết con mèo</tspan><tspan
         sodipodi:role="line"
         style="font-style:normal;font-variant:normal;font-weight:normal;font-stretch:normal;font-size:39.71473694px;line-height:1.25;font-family:ComicSpice;-inkscape-font-specification:ComicSpice;stroke-width:0.8825497"
         x="422.30801"
         y="725.47095"
         id="tspan17128">rất không ưa</tspan><tspan
         sodipodi:role="line"
         style="font-style:normal;font-variant:normal;font-weight:normal;font-stretch:normal;font-size:39.71473694px;line-height:1.25;font-family:ComicSpice;-inkscape-font-specification:ComicSpice;stroke-width:0.8825497"
         x="422.30801"
         y="775.11438"
         id="tspan17130">lông ướt.</tspan></text>
    <text
       xml:space="preserve"
       style="font-style:normal;font-variant:normal;font-weight:bold;font-stretch:normal;line-height:0%;font-family:ComicSpice;-inkscape-font-specification:'ComicSpice Bold';text-align:center;letter-spacing:0px;word-spacing:0px;text-anchor:middle;fill:#000000;fill-opacity:1;stroke:none"
       x="351.44214"
       y="1811.9678"
       id="text4246-1"><tspan
         sodipodi:role="line"
         style="font-style:normal;font-variant:normal;font-weight:bold;font-stretch:normal;font-size:48px;line-height:1.25;font-family:ComicSpice;-inkscape-font-specification:'ComicSpice Bold'"
         x="351.44214"
         y="1811.9678"
         id="tspan887">Đừng lo!</tspan></text>
    <text
       xml:space="preserve"
       style="font-style:normal;font-variant:normal;font-weight:bold;font-stretch:normal;line-height:0%;font-family:ComicSpice;-inkscape-font-specification:'ComicSpice Bold';text-align:center;letter-spacing:0px;word-spacing:0px;text-anchor:middle;fill:#000000;fill-opacity:1;stroke:none;stroke-width:0.99999994"
       x="1288.4023"
       y="2174.0071"
       id="text4246-1-3"
       transform="scale(0.99789912,1.0021053)"><tspan
         sodipodi:role="line"
         style="font-style:normal;font-variant:normal;font-weight:bold;font-stretch:normal;font-size:50.60649872px;line-height:1.25;font-family:ComicSpice;-inkscape-font-specification:'ComicSpice Bold';stroke-width:0.99999994"
         x="1288.4023"
         y="2174.0071"
         id="tspan914">Cuốn sách</tspan><tspan
         sodipodi:role="line"
         style="font-style:normal;font-variant:normal;font-weight:bold;font-stretch:normal;font-size:50.60649872px;line-height:1.25;font-family:ComicSpice;-inkscape-font-specification:'ComicSpice Bold';stroke-width:0.99999994"
         x="1288.4023"
         y="2237.2651"
         id="tspan17137">cũng tốt cho</tspan><tspan
         sodipodi:role="line"
         style="font-style:normal;font-variant:normal;font-weight:bold;font-stretch:normal;font-size:50.60649872px;line-height:1.25;font-family:ComicSpice;-inkscape-font-specification:'ComicSpice Bold';stroke-width:0.99999994"
         x="1288.4023"
         y="2300.5234"
         id="tspan17139">che mưa!</tspan></text>
    <text
       xml:space="preserve"
       style="font-style:normal;font-variant:normal;font-weight:normal;font-stretch:normal;line-height:0%;font-family:ComicSpice;-inkscape-font-specification:ComicSpice;text-align:center;letter-spacing:0px;word-spacing:0px;text-anchor:middle;fill:#000000;fill-opacity:1;stroke:none"
       x="121.25092"
       y="2608.8384"
       id="text4246-5-5"><tspan
         sodipodi:role="line"
         style="font-style:normal;font-variant:normal;font-weight:normal;font-stretch:normal;font-size:42.7738533px;line-height:1.25;font-family:ComicSpice;-inkscape-font-specification:ComicSpice;text-align:start;text-anchor:start"
         x="121.25092"
         y="2608.8384"
         id="tspan17763">Sau khoảng 10 phút vào</tspan><tspan
         sodipodi:role="line"
         style="font-style:normal;font-variant:normal;font-weight:normal;font-stretch:normal;font-size:42.7738533px;line-height:1.25;font-family:ComicSpice;-inkscape-font-specification:ComicSpice;text-align:start;text-anchor:start"
         x="121.25092"
         y="2662.3057"
         id="tspan17759">hầm tù, tôi đang</tspan><tspan
         sodipodi:role="line"
         style="font-style:normal;font-variant:normal;font-weight:normal;font-stretch:normal;font-size:42.7738533px;line-height:1.25;font-family:ComicSpice;-inkscape-font-specification:ComicSpice;text-align:start;text-anchor:start"
         x="121.25092"
         y="2715.7729"
         id="tspan17771">ngồi trong phòng</tspan><tspan
         sodipodi:role="line"
         style="font-style:normal;font-variant:normal;font-weight:normal;font-stretch:normal;font-size:42.7738533px;line-height:1.25;font-family:ComicSpice;-inkscape-font-specification:ComicSpice;text-align:start;text-anchor:start"
         x="121.25092"
         y="2769.2402"
         id="tspan17749">kho báu hái lá từ cây</tspan><tspan
         sodipodi:role="line"
         style="font-style:normal;font-variant:normal;font-weight:normal;font-stretch:normal;font-size:42.7738533px;line-height:1.25;font-family:ComicSpice;-inkscape-font-specification:ComicSpice;text-align:start;text-anchor:start"
         x="121.25092"
         y="2822.7078"
         id="tspan17751">Thủy Mộc hiếm gặp. </tspan></text>
    <text
       xml:space="preserve"
       style="font-style:normal;font-variant:normal;font-weight:bold;font-stretch:normal;line-height:0%;font-family:ComicSpice;-inkscape-font-specification:'ComicSpice Bold';text-align:center;letter-spacing:0px;word-spacing:0px;text-anchor:middle;fill:#000000;fill-opacity:1;stroke:none;stroke-width:0.99999994"
       x="2037.9746"
       y="2955.3962"
       id="text4246-1-3-2"
       transform="scale(0.99789912,1.0021053)"><tspan
         sodipodi:role="line"
         style="font-style:normal;font-variant:normal;font-weight:bold;font-stretch:normal;font-size:50.60649872px;line-height:1.25;font-family:ComicSpice;-inkscape-font-specification:'ComicSpice Bold';stroke-width:0.99999994"
         x="2037.9746"
         y="2955.3962"
         id="tspan914-2">Cuốn sách có</tspan><tspan
         sodipodi:role="line"
         style="font-style:normal;font-variant:normal;font-weight:bold;font-stretch:normal;font-size:50.60649872px;line-height:1.25;font-family:ComicSpice;-inkscape-font-specification:'ComicSpice Bold';stroke-width:0.99999994"
         x="2037.9746"
         y="3018.6543"
         id="tspan17113">phép thuật!</tspan></text>
    <text
       xml:space="preserve"
       style="font-style:normal;font-variant:normal;font-weight:normal;font-stretch:normal;line-height:0%;font-family:ComicSpice;-inkscape-font-specification:ComicSpice;text-align:center;letter-spacing:0px;word-spacing:0px;text-anchor:middle;fill:#000000;fill-opacity:1;stroke:none;stroke-width:0.8825497"
       x="357.39139"
       y="579.64038"
       id="text4246-5-6"><tspan
         sodipodi:role="line"
         style="font-style:normal;font-variant:normal;font-weight:normal;font-stretch:normal;font-size:39.71473694px;line-height:1.25;font-family:ComicSpice;-inkscape-font-specification:ComicSpice;stroke-width:0.8825497"
         x="357.39139"
         y="579.64038"
         id="tspan439-5">Ồ, Củ Đỏ;</tspan></text>
  </g>
</svg>
