<?xml version="1.0" encoding="UTF-8" standalone="no"?>
<!-- Created with Inkscape (http://www.inkscape.org/) -->

<svg
   xmlns:dc="http://purl.org/dc/elements/1.1/"
   xmlns:cc="http://creativecommons.org/ns#"
   xmlns:rdf="http://www.w3.org/1999/02/22-rdf-syntax-ns#"
   xmlns:svg="http://www.w3.org/2000/svg"
   xmlns="http://www.w3.org/2000/svg"
   xmlns:xlink="http://www.w3.org/1999/xlink"
   xmlns:sodipodi="http://sodipodi.sourceforge.net/DTD/sodipodi-0.dtd"
   xmlns:inkscape="http://www.inkscape.org/namespaces/inkscape"
   id="svg2"
   version="1.1"
   inkscape:version="0.92.3 (2405546, 2018-03-11)"
   width="2481"
   height="5350"
   sodipodi:docname="E26P07_092.svg">
  <sodipodi:namedview pagecolor="#ffffff" bordercolor="#666666" inkscape:pageopacity="0" inkscape:pageshadow="2" inkscape:window-width="1813" inkscape:window-height="955" id="namedview70" showgrid="false" inkscape:zoom="0.4" inkscape:cx="1284.4231" inkscape:cy="2618.6204" inkscape:current-layer="layer1" /><metadata
     id="metadata8">
    <rdf:RDF>
      <cc:Work
         rdf:about="">
        <dc:format>image/svg+xml</dc:format>
        <dc:type
           rdf:resource="http://purl.org/dc/dcmitype/StillImage" />
        <dc:title />
      </cc:Work>
    </rdf:RDF>
  </metadata>
  <defs
     id="defs6">
    <filter
       inkscape:label="Drop Shadow"
       id="filter5546"
       style="color-interpolation-filters:sRGB">
      <feFlood
         flood-opacity="1"
         flood-color="rgb(0,0,0)"
         result="flood"
         id="feFlood5548" />
      <feComposite
         in="flood"
         in2="SourceGraphic"
         operator="in"
         result="composite1"
         id="feComposite5550" />
      <feGaussianBlur
         in="composite1"
         stdDeviation="1"
         result="blur"
         id="feGaussianBlur5552" />
      <feOffset
         dx="2.5"
         dy="2.5"
         result="offset"
         id="feOffset5554" />
      <feComposite
         in="SourceGraphic"
         in2="offset"
         operator="over"
         result="composite2"
         id="feComposite5556" />
    </filter>
  </defs>
  <sodipodi:namedview
     pagecolor="#ffffff"
     bordercolor="#666666"
     borderopacity="1"
     objecttolerance="10"
     gridtolerance="10"
     guidetolerance="10"
     inkscape:pageopacity="0"
     inkscape:pageshadow="2"
     inkscape:window-width="1280"
     inkscape:window-height="756"
     id="namedview4"
     showgrid="false"
     inkscape:zoom="0.54"
     inkscape:cx="1341.5612"
     inkscape:cy="4712.3729"
     inkscape:window-x="45"
     inkscape:window-y="26"
     inkscape:window-maximized="0"
     inkscape:current-layer="layer2"
     inkscape:object-nodes="true"
     showguides="true"
     inkscape:guide-bbox="true">
    <sodipodi:guide
       position="1663.7082,5257.4089"
       orientation="0,1"
       id="guide4214"
       inkscape:locked="false" />
  </sodipodi:namedview>
  <g
     inkscape:groupmode="layer"
     id="layer1"
     inkscape:label="artwork"
     style="display:inline"
     transform="translate(0,1374)"
     sodipodi:insensitive="true">
    <image
       sodipodi:absref="/home/deevad/peppercarrot/webcomics/ep26_Books-Are-Great/lang/vi/../gfx_Pepper-and-Carrot_by-David-Revoy_E26P07.png"
       xlink:href="../gfx_Pepper-and-Carrot_by-David-Revoy_E26P07.png"
       width="2481"
       height="5350"
       preserveAspectRatio="none"
       style="image-rendering:optimizeQuality"
       id="image4223"
       x="0.54707891"
       y="-1373.3771" />
  </g>
  <g
     inkscape:groupmode="layer"
     id="layer3"
     inkscape:label="speechbubbles"
     style="display:inline"
     transform="translate(0,1374)" />
  <g
     inkscape:groupmode="layer"
     id="layer2"
     inkscape:label="text"
     style="display:inline;opacity:0.85500004"
     transform="translate(0,1374)">
    <text
       xml:space="preserve"
       style="font-style:normal;font-variant:normal;font-weight:normal;font-stretch:normal;line-height:0%;font-family:ComicSpice;-inkscape-font-specification:ComicSpice;text-align:center;letter-spacing:0px;word-spacing:0px;text-anchor:middle;fill:#000000;fill-opacity:1;stroke:none"
       x="1258.3041"
       y="-504.4682"
       id="text4246-42"><tspan
         sodipodi:role="line"
         style="font-style:normal;font-variant:normal;font-weight:bold;font-stretch:normal;font-size:36.73472214px;line-height:1.25;font-family:ComicSpice;-inkscape-font-specification:'ComicSpice Bold';fill:#000000;fill-opacity:1;stroke:none"
         x="1261.8197"
         y="-504.4682"
         id="tspan873"> </tspan></text>
    <text
       id="text4151"
       y="-1282.7114"
       x="1258.21"
       style="color:#000000;font-style:normal;font-variant:normal;font-weight:normal;font-stretch:normal;line-height:0%;font-family:ComicSpice;-inkscape-font-specification:ComicSpice;text-indent:0;text-align:center;text-decoration:none;text-decoration-line:none;letter-spacing:0px;word-spacing:0px;text-transform:none;writing-mode:lr-tb;direction:ltr;baseline-shift:baseline;text-anchor:middle;display:inline;overflow:visible;visibility:visible;opacity:0.85500004;fill:#060404;fill-opacity:1;fill-rule:nonzero;stroke:none;enable-background:accumulate"
       xml:space="preserve"><tspan
         y="-1282.7114"
         x="1261.947"
         style="color:#000000;font-style:normal;font-variant:normal;font-weight:normal;font-stretch:normal;font-size:39.04876709px;line-height:125%;font-family:ComicSpice;-inkscape-font-specification:ComicSpice;text-indent:0;text-align:center;text-decoration:none;text-decoration-line:none;letter-spacing:0px;word-spacing:0px;text-transform:none;writing-mode:lr-tb;direction:ltr;baseline-shift:baseline;text-anchor:middle;display:inline;overflow:visible;visibility:visible;fill:#060404;fill-opacity:1;fill-rule:nonzero;stroke:none;enable-background:accumulate"
         sodipodi:role="line"
         id="tspan1030"> </tspan><tspan
         y="-1235.0557"
         x="1261.8182"
         style="color:#000000;font-style:normal;font-variant:normal;font-weight:normal;font-stretch:normal;font-size:37.70225906px;line-height:125%;font-family:ComicSpice;-inkscape-font-specification:ComicSpice;text-indent:0;text-align:center;text-decoration:none;text-decoration-line:none;letter-spacing:0px;word-spacing:0px;text-transform:none;writing-mode:lr-tb;direction:ltr;baseline-shift:baseline;text-anchor:middle;display:inline;overflow:visible;visibility:visible;fill:#060404;fill-opacity:1;fill-rule:nonzero;stroke:none;enable-background:accumulate"
         sodipodi:role="line"
         id="tspan1042"> </tspan><tspan
         y="-1187.9277"
         x="1258.21"
         style="color:#000000;font-style:normal;font-variant:normal;font-weight:normal;font-stretch:normal;font-size:37.70225906px;line-height:125%;font-family:ComicSpice;-inkscape-font-specification:ComicSpice;text-indent:0;text-align:center;text-decoration:none;text-decoration-line:none;letter-spacing:0px;word-spacing:0px;text-transform:none;writing-mode:lr-tb;direction:ltr;baseline-shift:baseline;text-anchor:middle;display:inline;overflow:visible;visibility:visible;fill:#060404;fill-opacity:1;fill-rule:nonzero;stroke:none;enable-background:accumulate"
         sodipodi:role="line"
         id="tspan1046"><tspan
   style="font-style:normal;font-variant:normal;font-weight:normal;font-stretch:normal;font-family:ComicSpice;-inkscape-font-specification:'ComicSpice Medium'"
   id="tspan36034">Giấy Phép:</tspan> Creative Commons Ghi nhận công của tác giả 4.0.</tspan><tspan
         y="-1140.7999"
         x="1258.21"
         style="color:#000000;font-style:normal;font-variant:normal;font-weight:normal;font-stretch:normal;font-size:37.70225906px;line-height:125%;font-family:ComicSpice;-inkscape-font-specification:ComicSpice;text-indent:0;text-align:center;text-decoration:none;text-decoration-line:none;letter-spacing:0px;word-spacing:0px;text-transform:none;writing-mode:lr-tb;direction:ltr;baseline-shift:baseline;text-anchor:middle;display:inline;overflow:visible;visibility:visible;fill:#060404;fill-opacity:1;fill-rule:nonzero;stroke:none;enable-background:accumulate"
         sodipodi:role="line"
         id="tspan1097"><tspan
   style="font-style:normal;font-variant:normal;font-weight:500;font-stretch:normal;font-family:ComicSpice;-inkscape-font-specification:'ComicSpice Medium'"
   id="tspan36050">Phần Mềm:</tspan> Krita 4.1, Inkscape 0.92.3 với  Kubuntu 17.10.</tspan><tspan
         y="-1093.6721"
         x="1261.8182"
         style="color:#000000;font-style:normal;font-variant:normal;font-weight:normal;font-stretch:normal;font-size:37.70225906px;line-height:125%;font-family:ComicSpice;-inkscape-font-specification:ComicSpice;text-indent:0;text-align:center;text-decoration:none;text-decoration-line:none;letter-spacing:0px;word-spacing:0px;text-transform:none;writing-mode:lr-tb;direction:ltr;baseline-shift:baseline;text-anchor:middle;display:inline;overflow:visible;visibility:visible;fill:#060404;fill-opacity:1;fill-rule:nonzero;stroke:none;enable-background:accumulate"
         sodipodi:role="line"
         id="tspan938"> </tspan><tspan
         y="-1046.5443"
         x="1258.21"
         style="color:#000000;font-style:normal;font-variant:normal;font-weight:normal;font-stretch:normal;font-size:37.70225906px;line-height:125%;font-family:ComicSpice;-inkscape-font-specification:ComicSpice;text-indent:0;text-align:center;text-decoration:none;text-decoration-line:none;letter-spacing:0px;word-spacing:0px;text-transform:none;writing-mode:lr-tb;direction:ltr;baseline-shift:baseline;text-anchor:middle;display:inline;overflow:visible;visibility:visible;fill:#060404;fill-opacity:1;fill-rule:nonzero;stroke:none;enable-background:accumulate"
         sodipodi:role="line"
         id="tspan1101"><tspan
   style="font-style:normal;font-variant:normal;font-weight:500;font-stretch:normal;font-family:ComicSpice;-inkscape-font-specification:'ComicSpice Medium'"
   id="tspan36036">Nghệ Thuật &amp; Câu Truyện:</tspan> David Revoy.</tspan><tspan
         y="-999.4165"
         x="1258.21"
         style="color:#000000;font-style:normal;font-variant:normal;font-weight:normal;font-stretch:normal;font-size:37.70225906px;line-height:125%;font-family:ComicSpice;-inkscape-font-specification:ComicSpice;text-indent:0;text-align:center;text-decoration:none;text-decoration-line:none;letter-spacing:0px;word-spacing:0px;text-transform:none;writing-mode:lr-tb;direction:ltr;baseline-shift:baseline;text-anchor:middle;display:inline;overflow:visible;visibility:visible;fill:#060404;fill-opacity:1;fill-rule:nonzero;stroke:none;enable-background:accumulate"
         sodipodi:role="line"
         id="tspan943"><tspan
   style="font-style:normal;font-variant:normal;font-weight:500;font-stretch:normal;font-size:37.70225906px;font-family:ComicSpice;-inkscape-font-specification:'ComicSpice Medium';fill:#060404;fill-opacity:1"
   id="tspan945">Biên Kịch:</tspan> Craig Maloney.</tspan><tspan
         y="-952.2887"
         x="1258.21"
         style="color:#000000;font-style:normal;font-variant:normal;font-weight:normal;font-stretch:normal;font-size:37.70225906px;line-height:125%;font-family:ComicSpice;-inkscape-font-specification:ComicSpice;text-indent:0;text-align:center;text-decoration:none;text-decoration-line:none;letter-spacing:0px;word-spacing:0px;text-transform:none;writing-mode:lr-tb;direction:ltr;baseline-shift:baseline;text-anchor:middle;display:inline;overflow:visible;visibility:visible;fill:#060404;fill-opacity:1;fill-rule:nonzero;stroke:none;enable-background:accumulate"
         sodipodi:role="line"
         id="tspan35408"><tspan
   style="font-style:normal;font-variant:normal;font-weight:500;font-stretch:normal;font-family:ComicSpice;-inkscape-font-specification:'ComicSpice Medium'"
   id="tspan292">Đọc giả chỉnh sửa:</tspan> Ambernite, Craig Maloney, CalimeroTeknik, Jookia, Midgard, Nartance, Popolon, Quiralta, Valvin, xHire, Zeograd.</tspan><tspan
         y="-905.16083"
         x="1261.8182"
         style="color:#000000;font-style:normal;font-variant:normal;font-weight:normal;font-stretch:normal;font-size:37.70225906px;line-height:125%;font-family:ComicSpice;-inkscape-font-specification:ComicSpice;text-indent:0;text-align:center;text-decoration:none;text-decoration-line:none;letter-spacing:0px;word-spacing:0px;text-transform:none;writing-mode:lr-tb;direction:ltr;baseline-shift:baseline;text-anchor:middle;display:inline;overflow:visible;visibility:visible;fill:#060404;fill-opacity:1;fill-rule:nonzero;stroke:none;enable-background:accumulate"
         sodipodi:role="line"
         id="tspan285"> </tspan><tspan
         y="-858.03302"
         x="1258.21"
         style="color:#000000;font-style:normal;font-variant:normal;font-weight:normal;font-stretch:normal;font-size:37.70225906px;line-height:125%;font-family:ComicSpice;-inkscape-font-specification:ComicSpice;text-indent:0;text-align:center;text-decoration:none;text-decoration-line:none;letter-spacing:0px;word-spacing:0px;text-transform:none;writing-mode:lr-tb;direction:ltr;baseline-shift:baseline;text-anchor:middle;display:inline;overflow:visible;visibility:visible;fill:#060404;fill-opacity:1;fill-rule:nonzero;stroke:none;enable-background:accumulate"
         sodipodi:role="line"
         id="tspan1018"><tspan
   style="font-style:normal;font-variant:normal;font-weight:500;font-stretch:normal;font-family:ComicSpice;-inkscape-font-specification:'ComicSpice Medium'"
   id="tspan36052">Phiên bản tiếng Việt:</tspan> Hồ Nhựt Châu.</tspan><tspan
         y="-810.90521"
         x="1261.8182"
         style="color:#000000;font-style:normal;font-variant:normal;font-weight:normal;font-stretch:normal;font-size:37.70225906px;line-height:125%;font-family:ComicSpice;-inkscape-font-specification:ComicSpice;text-indent:0;text-align:center;text-decoration:none;text-decoration-line:none;letter-spacing:0px;word-spacing:0px;text-transform:none;writing-mode:lr-tb;direction:ltr;baseline-shift:baseline;text-anchor:middle;display:inline;overflow:visible;visibility:visible;fill:#060404;fill-opacity:1;fill-rule:nonzero;stroke:none;enable-background:accumulate"
         sodipodi:role="line"
         id="tspan36046"> </tspan><tspan
         y="-763.7774"
         x="1258.21"
         style="color:#000000;font-style:normal;font-variant:normal;font-weight:500;font-stretch:normal;font-size:37.70225906px;line-height:125%;font-family:ComicSpice;-inkscape-font-specification:'ComicSpice Medium';text-indent:0;text-align:center;text-decoration:none;text-decoration-line:none;letter-spacing:0px;word-spacing:0px;text-transform:none;writing-mode:lr-tb;direction:ltr;baseline-shift:baseline;text-anchor:middle;display:inline;overflow:visible;visibility:visible;fill:#060404;fill-opacity:1;fill-rule:nonzero;stroke:none;enable-background:accumulate"
         sodipodi:role="line"
         id="tspan1028">Sáng chế từ vũ trụ Hà Nhất Hạ</tspan><tspan
         y="-716.64954"
         x="1258.21"
         style="color:#000000;font-style:normal;font-variant:normal;font-weight:normal;font-stretch:normal;font-size:37.70225906px;line-height:125%;font-family:ComicSpice;-inkscape-font-specification:ComicSpice;text-indent:0;text-align:center;text-decoration:none;text-decoration-line:none;letter-spacing:0px;word-spacing:0px;text-transform:none;writing-mode:lr-tb;direction:ltr;baseline-shift:baseline;text-anchor:middle;display:inline;overflow:visible;visibility:visible;fill:#060404;fill-opacity:1;fill-rule:nonzero;stroke:none;enable-background:accumulate"
         sodipodi:role="line"
         id="tspan979"><tspan
   style="font-style:normal;font-variant:normal;font-weight:500;font-stretch:normal;font-size:37.70225906px;font-family:ComicSpice;-inkscape-font-specification:'ComicSpice Medium'"
   id="tspan987">Sáng tạo:</tspan> David Revoy.</tspan><tspan
         y="-669.52173"
         x="1258.21"
         style="color:#000000;font-style:normal;font-variant:normal;font-weight:normal;font-stretch:normal;font-size:37.70225906px;line-height:125%;font-family:ComicSpice;-inkscape-font-specification:ComicSpice;text-indent:0;text-align:center;text-decoration:none;text-decoration-line:none;letter-spacing:0px;word-spacing:0px;text-transform:none;writing-mode:lr-tb;direction:ltr;baseline-shift:baseline;text-anchor:middle;display:inline;overflow:visible;visibility:visible;fill:#060404;fill-opacity:1;fill-rule:nonzero;stroke:none;enable-background:accumulate"
         sodipodi:role="line"
         id="tspan15905"><tspan
   style="font-weight:bold"
   id="tspan15925">Bảo trì chánh:</tspan> Craig Maloney.</tspan><tspan
         y="-622.39392"
         x="1258.21"
         style="color:#000000;font-style:normal;font-variant:normal;font-weight:normal;font-stretch:normal;font-size:37.70225906px;line-height:125%;font-family:ComicSpice;-inkscape-font-specification:ComicSpice;text-indent:0;text-align:center;text-decoration:none;text-decoration-line:none;letter-spacing:0px;word-spacing:0px;text-transform:none;writing-mode:lr-tb;direction:ltr;baseline-shift:baseline;text-anchor:middle;display:inline;overflow:visible;visibility:visible;fill:#060404;fill-opacity:1;fill-rule:nonzero;stroke:none;enable-background:accumulate"
         sodipodi:role="line"
         id="tspan15907"><tspan
   style="font-weight:bold"
   id="tspan15927">Tắc giả:</tspan> Craig Maloney, Nartance, Scribblemaniac, Valvin.</tspan><tspan
         y="-575.26611"
         x="1258.21"
         style="color:#000000;font-style:normal;font-variant:normal;font-weight:normal;font-stretch:normal;font-size:37.70225906px;line-height:125%;font-family:ComicSpice;-inkscape-font-specification:ComicSpice;text-indent:0;text-align:center;text-decoration:none;text-decoration-line:none;letter-spacing:0px;word-spacing:0px;text-transform:none;writing-mode:lr-tb;direction:ltr;baseline-shift:baseline;text-anchor:middle;display:inline;overflow:visible;visibility:visible;fill:#060404;fill-opacity:1;fill-rule:nonzero;stroke:none;enable-background:accumulate"
         sodipodi:role="line"
         id="tspan15909"><tspan
   style="font-weight:bold"
   id="tspan15929">Chính sửa:</tspan> Willem Sonke, Moini, Hali, CGand, Alex Gryson.</tspan><tspan
         y="-528.13824"
         x="1261.8182"
         style="color:#000000;font-style:normal;font-variant:normal;font-weight:normal;font-stretch:normal;font-size:37.70225906px;line-height:125%;font-family:ComicSpice;-inkscape-font-specification:ComicSpice;text-indent:0;text-align:center;text-decoration:none;text-decoration-line:none;letter-spacing:0px;word-spacing:0px;text-transform:none;writing-mode:lr-tb;direction:ltr;baseline-shift:baseline;text-anchor:middle;display:inline;overflow:visible;visibility:visible;fill:#060404;fill-opacity:1;fill-rule:nonzero;stroke:none;enable-background:accumulate"
         sodipodi:role="line"
         id="tspan1052"> </tspan><tspan
         y="-481.01044"
         x="1258.21"
         style="color:#000000;font-style:normal;font-variant:normal;font-weight:500;font-stretch:normal;font-size:37.70225906px;line-height:125%;font-family:ComicSpice;-inkscape-font-specification:'ComicSpice Medium';text-indent:0;text-align:center;text-decoration:none;text-decoration-line:none;letter-spacing:0px;word-spacing:0px;text-transform:none;writing-mode:lr-tb;direction:ltr;baseline-shift:baseline;text-anchor:middle;display:inline;overflow:visible;visibility:visible;fill:#060404;fill-opacity:1;fill-rule:nonzero;stroke:none;enable-background:accumulate"
         sodipodi:role="line"
         id="tspan995">28.07.2018</tspan><tspan
         y="-433.8826"
         x="1258.21"
         style="color:#000000;font-style:normal;font-variant:normal;font-weight:500;font-stretch:normal;font-size:37.70225906px;line-height:125%;font-family:ComicSpice;-inkscape-font-specification:'ComicSpice Medium';text-indent:0;text-align:center;text-decoration:none;text-decoration-line:none;letter-spacing:0px;word-spacing:0px;text-transform:none;writing-mode:lr-tb;direction:ltr;baseline-shift:baseline;text-anchor:middle;display:inline;overflow:visible;visibility:visible;fill:#060404;fill-opacity:1;fill-rule:nonzero;stroke:none;enable-background:accumulate"
         sodipodi:role="line"
         id="tspan999">www.peppercarrot.com</tspan><tspan
         y="-386.75479"
         x="1261.8182"
         style="color:#000000;font-style:normal;font-variant:normal;font-weight:normal;font-stretch:normal;font-size:37.70225906px;line-height:125%;font-family:ComicSpice;-inkscape-font-specification:ComicSpice;text-indent:0;text-align:center;text-decoration:none;text-decoration-line:none;letter-spacing:0px;word-spacing:0px;text-transform:none;writing-mode:lr-tb;direction:ltr;baseline-shift:baseline;text-anchor:middle;display:inline;overflow:visible;visibility:visible;fill:#060404;fill-opacity:1;fill-rule:nonzero;stroke:none;enable-background:accumulate"
         sodipodi:role="line"
         id="tspan838"> </tspan><tspan
         y="-339.62695"
         x="1261.8182"
         style="color:#000000;font-style:normal;font-variant:normal;font-weight:normal;font-stretch:normal;font-size:37.70225906px;line-height:125%;font-family:ComicSpice;-inkscape-font-specification:ComicSpice;text-indent:0;text-align:center;text-decoration:none;text-decoration-line:none;letter-spacing:0px;word-spacing:0px;text-transform:none;writing-mode:lr-tb;direction:ltr;baseline-shift:baseline;text-anchor:middle;display:inline;overflow:visible;visibility:visible;fill:#060404;fill-opacity:1;fill-rule:nonzero;stroke:none;enable-background:accumulate"
         sodipodi:role="line"
         id="tspan840"> </tspan><tspan
         y="-292.49915"
         x="1261.8182"
         style="color:#000000;font-style:normal;font-variant:normal;font-weight:normal;font-stretch:normal;font-size:37.70225906px;line-height:125%;font-family:ComicSpice;-inkscape-font-specification:ComicSpice;text-indent:0;text-align:center;text-decoration:none;text-decoration-line:none;letter-spacing:0px;word-spacing:0px;text-transform:none;writing-mode:lr-tb;direction:ltr;baseline-shift:baseline;text-anchor:middle;display:inline;overflow:visible;visibility:visible;fill:#060404;fill-opacity:1;fill-rule:nonzero;stroke:none;enable-background:accumulate"
         sodipodi:role="line"
         id="tspan842"> </tspan></text>
    <text
       xml:space="preserve"
       style="color:#000000;font-style:normal;font-variant:normal;font-weight:normal;font-stretch:normal;line-height:0%;font-family:ComicSpice;-inkscape-font-specification:ComicSpice;text-indent:0;text-align:center;text-decoration:none;text-decoration-line:none;letter-spacing:0px;word-spacing:0px;text-transform:none;writing-mode:lr-tb;direction:ltr;baseline-shift:baseline;text-anchor:middle;display:inline;overflow:visible;visibility:visible;opacity:0.85500004;fill:#020101;fill-opacity:1;fill-rule:nonzero;stroke:none;enable-background:accumulate"
       x="1991.2159"
       y="-910.79004"
       id="text4246-42-4"><tspan
         sodipodi:role="line"
         style="color:#000000;font-style:normal;font-variant:normal;font-weight:normal;font-stretch:normal;font-size:37.33333206px;line-height:125%;font-family:ComicSpice;-inkscape-font-specification:ComicSpice;text-indent:0;text-align:center;text-decoration:none;text-decoration-line:none;letter-spacing:0px;word-spacing:0px;text-transform:none;writing-mode:lr-tb;direction:ltr;baseline-shift:baseline;text-anchor:middle;display:inline;overflow:visible;visibility:visible;fill:#020101;fill-opacity:1;fill-rule:nonzero;stroke:none;enable-background:accumulate"
         x="1994.7888"
         y="-910.79004"
         id="tspan927"> </tspan></text>
    <text
       xml:space="preserve"
       style="font-style:normal;font-variant:normal;font-weight:normal;font-stretch:normal;line-height:0%;font-family:Arial;-inkscape-font-specification:Arial;text-align:center;letter-spacing:0px;word-spacing:0px;text-anchor:middle;display:inline;opacity:0.85500004;fill:#000000;fill-opacity:1;stroke:none"
       x="1261.562"
       y="-551.26312"
       id="text4229"><tspan
         sodipodi:role="line"
         x="1265.1349"
         y="-551.26312"
         style="font-style:normal;font-variant:normal;font-weight:bold;font-stretch:normal;font-size:37.33333206px;line-height:1.25;font-family:ComicSpice;-inkscape-font-specification:'ComicSpice Bold';fill:#000000;fill-opacity:1;stroke:none"
         id="tspan4169"> </tspan></text>
    <text
       id="text4179"
       y="-1150.819"
       x="1280.0332"
       style="font-style:normal;font-variant:normal;font-weight:normal;font-stretch:normal;line-height:0%;font-family:Arial;-inkscape-font-specification:Arial;text-align:center;letter-spacing:0px;word-spacing:0px;text-anchor:middle;display:inline;opacity:0.85500004;fill:#241c1c;fill-opacity:1;stroke:none"
       xml:space="preserve"><tspan
         id="tspan4181"
         style="font-style:normal;font-variant:normal;font-weight:bold;font-stretch:normal;font-size:35px;line-height:1.25;font-family:ComicSpice;-inkscape-font-specification:'ComicSpice Bold';fill:#241c1c;stroke:none"
         y="-1150.819"
         x="1283.3828"
         sodipodi:role="line"> </tspan></text>
    <text
       xml:space="preserve"
       style="font-style:normal;font-variant:normal;font-weight:normal;font-stretch:normal;line-height:0%;font-family:ComicSpice;-inkscape-font-specification:ComicSpice;text-align:center;letter-spacing:0px;word-spacing:0px;text-anchor:middle;display:inline;opacity:0.85500004;fill:#483e37;fill-opacity:1;stroke:none;filter:url(#filter4155)"
       x="1240.1191"
       y="3863.2971"
       id="text4221-3"><tspan
         sodipodi:role="line"
         id="tspan4223-6"
         x="1240.1191"
         y="3863.2971"
         style="font-style:normal;font-variant:normal;font-weight:normal;font-stretch:normal;font-size:40px;line-height:1.25;font-family:ComicSpice;-inkscape-font-specification:ComicSpice;fill:#483e37">Bạn cũng có thể hỗ trợ Củ Đỏ &amp; Hạt Tiêu tại www.patreon.com/davidrevoy</tspan></text>
    <text
       xml:space="preserve"
       style="font-style:normal;font-variant:normal;font-weight:normal;font-stretch:normal;line-height:0%;font-family:ComicSpice;-inkscape-font-specification:ComicSpice;text-align:center;letter-spacing:0px;word-spacing:0px;text-anchor:middle;display:inline;opacity:0.85500004;fill:#483e37;fill-opacity:1;stroke:none;filter:url(#filter4155)"
       x="1243.3711"
       y="-375.95468"
       id="text4162-7"><tspan
         sodipodi:role="line"
         x="1243.3711"
         y="-375.95468"
         style="font-style:normal;font-variant:normal;font-weight:normal;font-stretch:normal;font-size:40px;line-height:1.25;font-family:ComicSpice;-inkscape-font-specification:ComicSpice;fill:#483e37"
         id="tspan862">Hạt Tiêu &amp; Vả Củ Đỏ hoàn toàn tự do,</tspan><tspan
         sodipodi:role="line"
         x="1243.3711"
         y="-325.95468"
         style="font-style:normal;font-variant:normal;font-weight:normal;font-stretch:normal;font-size:40px;line-height:1.25;font-family:ComicSpice;-inkscape-font-specification:ComicSpice;fill:#483e37"
         id="tspan35417">nguồn mở, và được tài trở bởi đọc giả.</tspan><tspan
         sodipodi:role="line"
         x="1243.3711"
         y="-275.95468"
         style="font-style:normal;font-variant:normal;font-weight:normal;font-stretch:normal;font-size:40px;line-height:1.25;font-family:ComicSpice;-inkscape-font-specification:ComicSpice;fill:#483e37"
         id="tspan35419">Chân thành cảm ơn 1098 người hỗ trợ tập này:</tspan></text>
  </g>
  <g
     inkscape:groupmode="layer"
     id="layer4"
     inkscape:label="notes"
     sodipodi:insensitive="true">
    <path
       transform="translate(0,1374)"
       style="opacity:0.481;color:#000000;fill:#ffe680;fill-opacity:1;fill-rule:nonzero;stroke:#565656;stroke-width:1.20000005;stroke-linecap:butt;stroke-linejoin:miter;stroke-miterlimit:4;stroke-opacity:1;stroke-dasharray:none;stroke-dashoffset:0;marker:none;visibility:visible;display:inline;overflow:visible;enable-background:accumulate"
       d="m -1036.4092,-1026.4079 v 295.55649 H -48.424149 V -918.9249 h 10 v 15.6308 l 30.9825,-26.9824 -30.9825,-26.9804 v 16.6171 h -10 v -85.7681 z"
       id="rect4191-6"
       inkscape:connector-curvature="0"
       sodipodi:nodetypes="cccccccccccc" />
    <flowRoot
       xml:space="preserve"
       id="flowRoot4212-7"
       style="font-style:normal;font-variant:normal;font-weight:normal;font-stretch:normal;line-height:0.01%;font-family:'Rounded M';-inkscape-font-specification:'ComicSpice, Normal';text-align:center;letter-spacing:0px;word-spacing:0px;writing-mode:lr-tb;text-anchor:middle;display:inline;opacity:0.68900003;fill:#000000;fill-opacity:1;stroke:none"
       transform="matrix(1.2506418,0,0,1.2506418,-671.18097,-956.9049)"><flowRegion
         id="flowRegion4214-5"><rect
           id="rect4216-3"
           width="756.58167"
           height="267.66235"
           x="-275.14545"
           y="1061.6674" /></flowRegion><flowPara
         style="font-size:25.3241539px;line-height:1.25"
         id="flowPara920">Xóa tên các người giúp dịch phiên bản tiếng Việt và thay vào các người giúp bạn dịch tập tin này. Bạn có thể ghi tên cho người phiên dịch, chỉnh sửa, v.v. tùy ý bạn.</flowPara><flowPara
         style="font-size:25.3241539px;line-height:1.25"
         id="flowPara915"> </flowPara><flowPara
         style="font-size:25.3241539px;line-height:1.25"
         id="flowPara913">Lưu ý: trong Inkscape, nếu bấm nút Enter để tạo một hàng trống rỗng, hàng đó sẽ không xuất hiện nhưng nếu gõ một dấu cách (sau bấm Enter) hàng trống rỗng sẽ xuất hiện. </flowPara></flowRoot>  </g>
</svg>
