<?xml version="1.0" encoding="UTF-8" standalone="no"?>
<svg
   xmlns:dc="http://purl.org/dc/elements/1.1/"
   xmlns:cc="http://creativecommons.org/ns#"
   xmlns:rdf="http://www.w3.org/1999/02/22-rdf-syntax-ns#"
   xmlns:svg="http://www.w3.org/2000/svg"
   xmlns="http://www.w3.org/2000/svg"
   xmlns:xlink="http://www.w3.org/1999/xlink"
   xmlns:sodipodi="http://sodipodi.sourceforge.net/DTD/sodipodi-0.dtd"
   xmlns:inkscape="http://www.inkscape.org/namespaces/inkscape"
   sodipodi:docname="E22P07.svg"
   height="3503"
   width="2481"
   inkscape:version="1.0 (4035a4fb49, 2020-05-01)"
   version="1.1"
   id="svg2">
  <sodipodi:namedview
     inkscape:window-maximized="0"
     inkscape:window-y="0"
     inkscape:window-x="0"
     inkscape:document-rotation="0"
     inkscape:current-layer="layer1"
     inkscape:cy="2693.6204"
     inkscape:cx="1220.2492"
     inkscape:zoom="0.4"
     showgrid="false"
     id="namedview70"
     inkscape:window-height="955"
     inkscape:window-width="1136"
     inkscape:pageshadow="2"
     inkscape:pageopacity="0"
     bordercolor="#666666"
     pagecolor="#ffffff" />
  <metadata
     id="metadata8">
    <rdf:RDF>
      <cc:Work
         rdf:about="">
        <dc:format>image/svg+xml</dc:format>
        <dc:type
           rdf:resource="http://purl.org/dc/dcmitype/StillImage" />
        <dc:title />
      </cc:Work>
    </rdf:RDF>
  </metadata>
  <defs
     id="defs6">
    <linearGradient
       inkscape:collect="always"
       id="linearGradient4863">
      <stop
         style="stop-color:#b5e407;stop-opacity:1"
         offset="0"
         id="stop4865" />
      <stop
         style="stop-color:#d5ce22;stop-opacity:1"
         offset="1"
         id="stop4867" />
    </linearGradient>
    <linearGradient
       id="linearGradient4540"
       inkscape:collect="always">
      <stop
         style="stop-color:#85314d;stop-opacity:1"
         offset="0"
         id="stop4544" />
      <stop
         style="stop-color:#0f0f0f;stop-opacity:1;"
         offset="1"
         id="stop4542" />
    </linearGradient>
    <linearGradient
       id="linearGradient4288"
       inkscape:collect="always">
      <stop
         id="stop4290"
         offset="0"
         style="stop-color:#07b5e4;stop-opacity:1;" />
      <stop
         id="stop4292"
         offset="1"
         style="stop-color:#d0f5ff;stop-opacity:1" />
    </linearGradient>
    <linearGradient
       id="linearGradient4197"
       inkscape:collect="always">
      <stop
         id="stop4199"
         offset="0"
         style="stop-color:#ffd005;stop-opacity:1" />
      <stop
         id="stop4201"
         offset="1"
         style="stop-color:#fff798;stop-opacity:1" />
    </linearGradient>
    <linearGradient
       id="linearGradient4145"
       inkscape:collect="always">
      <stop
         id="stop4147"
         offset="0"
         style="stop-color:#2b48d0;stop-opacity:1;" />
      <stop
         id="stop4149"
         offset="1"
         style="stop-color:#00cae8;stop-opacity:1" />
    </linearGradient>
    <filter
       x="-0.15000001"
       width="1.3"
       y="-0.15000001"
       height="1.3"
       inkscape:menu-tooltip="Something like a water noise"
       inkscape:menu="Distort"
       inkscape:label="Aquah-speechbubble-FX"
       id="filter3018"
       style="color-interpolation-filters:sRGB">
      <feTurbulence
         stdDeviation="8.6999999999999993"
         result="result1"
         baseFrequency="0.068000000000000005"
         type="fractalNoise"
         seed="0"
         numOctaves="5"
         id="feTurbulence3020" />
      <feGaussianBlur
         result="result2"
         stdDeviation="8.7225789473684205"
         id="feGaussianBlur3022" />
      <feDisplacementMap
         result="result3"
         in="SourceGraphic"
         xChannelSelector="R"
         yChannelSelector="B"
         scale="50"
         in2="result2"
         id="feDisplacementMap3024" />
    </filter>
    <radialGradient
       gradientUnits="userSpaceOnUse"
       gradientTransform="matrix(1,0,0,0.36177454,0,152.18656)"
       r="354.62043"
       fy="238.45266"
       fx="441.06806"
       cy="238.45266"
       cx="441.06806"
       id="radialGradient4151"
       xlink:href="#linearGradient4145"
       inkscape:collect="always" />
    <filter
       id="filter4183"
       inkscape:label="Aquah-spell-font-glow-FX"
       style="color-interpolation-filters:sRGB;">
      <feFlood
         id="feFlood4185"
         result="flood"
         flood-color="rgb(255,255,255)"
         flood-opacity="0.5" />
      <feComposite
         stdDeviation="3"
         id="feComposite4187"
         result="composite1"
         operator="in"
         in2="SourceGraphic"
         in="flood" />
      <feGaussianBlur
         id="feGaussianBlur4189"
         result="blur"
         stdDeviation="2.9991500586166469"
         in="composite1" />
      <feOffset
         id="feOffset4191"
         result="offset"
         dy="0"
         dx="0" />
      <feComposite
         id="feComposite4193"
         result="composite2"
         operator="over"
         in2="offset"
         in="SourceGraphic" />
    </filter>
    <filter
       inkscape:label="soundFX-Kraken"
       id="filter4375-4-1-1-1-9-5-8-8-5"
       style="color-interpolation-filters:sRGB">
      <feFlood
         result="flood"
         flood-color="rgb(67,92,189)"
         flood-opacity="1"
         id="feFlood4377-7-9-0-8-1-7-3-1-2" />
      <feComposite
         baseFrequency="0.053999999999999999 0.053999999999999999"
         result="composite1"
         operator="in"
         in="flood"
         in2="SourceGraphic"
         id="feComposite4379-3-8-8-2-77-4-1-0-6" />
      <feMorphology
         result="result3"
         radius="6.2000000000000002"
         operator="dilate"
         id="feMorphology4393-1-0-49-8-9-3-0-1-9" />
      <feComposite
         result="fbSourceGraphic"
         operator="over"
         in="SourceGraphic"
         in2="result3"
         id="feComposite4385-9-5-7-0-8-8-7-5-4" />
      <feColorMatrix
         id="feColorMatrix4544-9-4"
         values="0 0 0 -1 0 0 0 0 -1 0 0 0 0 -1 0 0 0 0 1 0"
         in="fbSourceGraphic"
         result="fbSourceGraphicAlpha" />
      <feTurbulence
         result="turbulence"
         baseFrequency="0.053999999999999999 0.054054054054054057"
         seed="174"
         numOctaves="5"
         type="fractalNoise"
         id="feTurbulence4546-3-6" />
      <feDisplacementMap
         result="fbSourceGraphic"
         xChannelSelector="R"
         yChannelSelector="G"
         scale="6.6"
         in="fbSourceGraphic"
         in2="turbulence"
         id="feDisplacementMap4548-8-0" />
      <feColorMatrix
         id="feColorMatrix4670-7-7"
         values="0 0 0 -1 0 0 0 0 -1 0 0 0 0 -1 0 0 0 0 1 0"
         in="fbSourceGraphic"
         result="fbSourceGraphicAlpha" />
      <feFlood
         in="fbSourceGraphic"
         result="flood"
         flood-color="rgb(39,84,60)"
         flood-opacity="1"
         id="feFlood4672-4-4" />
      <feComposite
         result="composite1"
         operator="in"
         in="flood"
         in2="fbSourceGraphic"
         id="feComposite4674-8-3" />
      <feGaussianBlur
         result="blur"
         stdDeviation="0"
         in="composite1"
         id="feGaussianBlur4676-3-7" />
      <feOffset
         result="offset"
         dy="6"
         dx="6"
         id="feOffset4678-6-9" />
      <feComposite
         result="composite2"
         operator="over"
         in="fbSourceGraphic"
         in2="offset"
         id="feComposite4680-4-0" />
    </filter>
    <filter
       inkscape:label="external-outline-sound-FX"
       id="filter4375-4-1-1-1-9-6-9-2-1-5-7"
       style="color-interpolation-filters:sRGB">
      <feFlood
         result="flood"
         flood-color="rgb(0,0,0)"
         flood-opacity="1"
         id="feFlood4377-7-9-0-8-1-0-2-2-06-5-0" />
      <feComposite
         result="composite1"
         operator="in"
         in="flood"
         in2="SourceGraphic"
         id="feComposite4379-3-8-8-2-77-6-0-8-3-8-6" />
      <feMorphology
         result="result3"
         radius="4"
         operator="dilate"
         id="feMorphology4393-1-0-49-8-9-2-2-9-2-7-0" />
      <feComposite
         result="composite2"
         operator="over"
         in="SourceGraphic"
         in2="result3"
         id="feComposite4385-9-5-7-0-8-6-3-7-0-1-4" />
    </filter>
    <filter
       inkscape:label="Score-style"
       id="filter4375-4-1-1-1-9-5-8-8-8"
       style="color-interpolation-filters:sRGB">
      <feFlood
         result="flood"
         flood-color="rgb(210,55,0)"
         flood-opacity="1"
         id="feFlood4377-7-9-0-8-1-7-3-1-45" />
      <feComposite
         baseFrequency="0.053999999999999999 0.053999999999999999"
         result="composite1"
         operator="in"
         in="flood"
         in2="SourceGraphic"
         id="feComposite4379-3-8-8-2-77-4-1-0-0" />
      <feMorphology
         result="result3"
         radius="3.7999999999999998"
         operator="dilate"
         id="feMorphology4393-1-0-49-8-9-3-0-1-36" />
      <feComposite
         result="fbSourceGraphic"
         operator="over"
         in="SourceGraphic"
         in2="result3"
         id="feComposite4385-9-5-7-0-8-8-7-5-1" />
      <feColorMatrix
         id="feColorMatrix4544-9-0"
         values="0 0 0 -1 0 0 0 0 -1 0 0 0 0 -1 0 0 0 0 1 0"
         in="fbSourceGraphic"
         result="fbSourceGraphicAlpha" />
      <feTurbulence
         result="turbulence"
         baseFrequency="0 0"
         seed="174"
         numOctaves="5"
         type="fractalNoise"
         id="feTurbulence4546-3-63" />
      <feDisplacementMap
         result="fbSourceGraphic"
         xChannelSelector="R"
         yChannelSelector="G"
         scale="0"
         in="fbSourceGraphic"
         in2="turbulence"
         id="feDisplacementMap4548-8-2" />
      <feColorMatrix
         id="feColorMatrix4670-7-0"
         values="0 0 0 -1 0 0 0 0 -1 0 0 0 0 -1 0 0 0 0 1 0"
         in="fbSourceGraphic"
         result="fbSourceGraphicAlpha" />
      <feFlood
         stdDeviation="2.7999999999999998"
         in="fbSourceGraphic"
         result="flood"
         flood-color="rgb(255,255,255)"
         flood-opacity="1"
         id="feFlood4672-4-6" />
      <feComposite
         result="composite1"
         operator="in"
         in="flood"
         in2="fbSourceGraphic"
         id="feComposite4674-8-1" />
      <feGaussianBlur
         result="blur"
         stdDeviation="0.01"
         in="composite1"
         id="feGaussianBlur4676-3-5" />
      <feOffset
         stdDeviation="4.7000000000000002"
         result="offset"
         dy="0"
         dx="0"
         id="feOffset4678-6-5" />
      <feComposite
         result="composite2"
         operator="over"
         in="fbSourceGraphic"
         in2="offset"
         id="feComposite4680-4-47" />
    </filter>
    <linearGradient
       gradientUnits="userSpaceOnUse"
       y2="414.89822"
       x2="1292.6337"
       y1="356.86307"
       x1="1294.5955"
       id="linearGradient4203"
       xlink:href="#linearGradient4197"
       inkscape:collect="always" />
    <linearGradient
       gradientUnits="userSpaceOnUse"
       y2="1552.0064"
       x2="1186.035"
       y1="1552.0064"
       x1="754.64326"
       id="linearGradient4294"
       xlink:href="#linearGradient4288"
       inkscape:collect="always" />
    <filter
       inkscape:label="deevad outline effect"
       id="filter4375-4-1-1-1-9-6-9-2-1"
       style="color-interpolation-filters:sRGB">
      <feFlood
         result="flood"
         flood-color="rgb(0,0,0)"
         flood-opacity="1"
         id="feFlood4377-7-9-0-8-1-0-2-2-06" />
      <feComposite
         result="composite1"
         operator="in"
         in="flood"
         in2="SourceGraphic"
         id="feComposite4379-3-8-8-2-77-6-0-8-3" />
      <feMorphology
         result="result3"
         radius="4"
         operator="dilate"
         id="feMorphology4393-1-0-49-8-9-2-2-9-2" />
      <feComposite
         result="composite2"
         operator="over"
         in="SourceGraphic"
         in2="result3"
         id="feComposite4385-9-5-7-0-8-6-3-7-0" />
    </filter>
    <filter
       x="-0.15000001"
       width="1.3"
       y="-0.15000001"
       height="1.3"
       inkscape:menu-tooltip="Something like a water noise"
       inkscape:menu="Distort"
       inkscape:label="Lapping"
       id="filter3018-9"
       style="color-interpolation-filters:sRGB">
      <feTurbulence
         result="result1"
         baseFrequency="0.045999999999999999"
         type="fractalNoise"
         seed="0"
         numOctaves="5"
         id="feTurbulence3020-3" />
      <feGaussianBlur
         result="result2"
         stdDeviation="2"
         id="feGaussianBlur3022-77" />
      <feDisplacementMap
         in="SourceGraphic"
         xChannelSelector="R"
         yChannelSelector="B"
         scale="50"
         in2="result2"
         id="feDisplacementMap3024-6" />
    </filter>
    <radialGradient
       gradientUnits="userSpaceOnUse"
       gradientTransform="matrix(1,0,0,0.29151827,0,178.3746)"
       r="498.03591"
       fy="251.77022"
       fx="551.16196"
       cy="251.77022"
       cx="551.16196"
       id="radialGradient4546"
       xlink:href="#linearGradient4540"
       inkscape:collect="always" />
    <filter
       id="filter4183-3"
       inkscape:label="Aquah-spell-font-glow-FX"
       style="color-interpolation-filters:sRGB">
      <feFlood
         id="feFlood4185-8"
         result="flood"
         flood-color="rgb(255,255,255)"
         flood-opacity="0.5" />
      <feComposite
         stdDeviation="3"
         id="feComposite4187-9"
         result="composite1"
         operator="in"
         in2="SourceGraphic"
         in="flood" />
      <feGaussianBlur
         id="feGaussianBlur4189-5"
         result="blur"
         stdDeviation="2.9991500586166469"
         in="composite1" />
      <feOffset
         id="feOffset4191-0"
         result="offset"
         dy="0"
         dx="0" />
      <feComposite
         id="feComposite4193-1"
         result="composite2"
         operator="over"
         in2="offset"
         in="SourceGraphic" />
    </filter>
    <filter
       inkscape:label="soundFX-Mortus"
       id="filter4375-4-1-1-1-9-5-8-8-5-6"
       style="color-interpolation-filters:sRGB">
      <feFlood
         result="flood"
         flood-color="rgb(108,63,78)"
         flood-opacity="1"
         id="feFlood4377-7-9-0-8-1-7-3-1-2-7" />
      <feComposite
         baseFrequency="0.053999999999999999 0.053999999999999999"
         result="composite1"
         operator="in"
         in="flood"
         in2="SourceGraphic"
         id="feComposite4379-3-8-8-2-77-4-1-0-6-5" />
      <feMorphology
         result="result3"
         radius="6.2000000000000002"
         operator="dilate"
         id="feMorphology4393-1-0-49-8-9-3-0-1-9-9" />
      <feComposite
         result="fbSourceGraphic"
         operator="over"
         in="SourceGraphic"
         in2="result3"
         id="feComposite4385-9-5-7-0-8-8-7-5-4-3" />
      <feColorMatrix
         id="feColorMatrix4544-9-4-9"
         values="0 0 0 -1 0 0 0 0 -1 0 0 0 0 -1 0 0 0 0 1 0"
         in="fbSourceGraphic"
         result="fbSourceGraphicAlpha" />
      <feTurbulence
         result="turbulence"
         baseFrequency="0.080000000000000002 0.050000000000000003"
         seed="174"
         numOctaves="3.085747392815759"
         type="fractalNoise"
         id="feTurbulence4546-3-6-9" />
      <feDisplacementMap
         result="fbSourceGraphic"
         xChannelSelector="R"
         yChannelSelector="G"
         scale="6.6"
         in="fbSourceGraphic"
         in2="turbulence"
         id="feDisplacementMap4548-8-0-7" />
      <feColorMatrix
         id="feColorMatrix4670-7-7-9"
         values="0 0 0 -1 0 0 0 0 -1 0 0 0 0 -1 0 0 0 0 1 0"
         in="fbSourceGraphic"
         result="fbSourceGraphicAlpha" />
      <feFlood
         numOctaves="3"
         in="fbSourceGraphic"
         result="flood"
         flood-color="rgb(54,30,18)"
         flood-opacity="1"
         id="feFlood4672-4-4-7" />
      <feComposite
         result="composite1"
         operator="in"
         in="flood"
         in2="fbSourceGraphic"
         id="feComposite4674-8-3-3" />
      <feGaussianBlur
         result="blur"
         stdDeviation="0"
         in="composite1"
         id="feGaussianBlur4676-3-7-5" />
      <feOffset
         result="offset"
         dy="6"
         dx="6"
         id="feOffset4678-6-9-0" />
      <feComposite
         result="composite2"
         operator="over"
         in="fbSourceGraphic"
         in2="offset"
         id="feComposite4680-4-0-4" />
    </filter>
    <linearGradient
       gradientUnits="userSpaceOnUse"
       y2="1552.0063"
       x2="1186.035"
       y1="1552.0063"
       x1="754.64325"
       id="linearGradient4752"
       xlink:href="#linearGradient4288"
       inkscape:collect="always" />
    <linearGradient
       gradientUnits="userSpaceOnUse"
       y2="1552.0063"
       x2="1186.035"
       y1="1552.0063"
       x1="754.64325"
       id="linearGradient4760"
       xlink:href="#linearGradient4288"
       inkscape:collect="always" />
    <linearGradient
       gradientUnits="userSpaceOnUse"
       y2="1552.0063"
       x2="1186.035"
       y1="1552.0063"
       x1="754.64325"
       id="linearGradient4768"
       xlink:href="#linearGradient4288"
       inkscape:collect="always" />
    <linearGradient
       gradientUnits="userSpaceOnUse"
       y2="1552.0063"
       x2="1186.035"
       y1="1552.0063"
       x1="754.64325"
       id="linearGradient4776"
       xlink:href="#linearGradient4288"
       inkscape:collect="always" />
    <linearGradient
       y2="1552.0064"
       x2="1186.035"
       y1="1552.0064"
       x1="754.64326"
       gradientUnits="userSpaceOnUse"
       id="linearGradient4855"
       xlink:href="#linearGradient4863"
       inkscape:collect="always" />
    <filter
       inkscape:label="deevad outline effect"
       id="filter4375-4-1-1-1-9-6-9-2-1-6"
       style="color-interpolation-filters:sRGB">
      <feFlood
         result="flood"
         flood-color="rgb(0,0,0)"
         flood-opacity="1"
         id="feFlood4377-7-9-0-8-1-0-2-2-06-4" />
      <feComposite
         result="composite1"
         operator="in"
         in="flood"
         in2="SourceGraphic"
         id="feComposite4379-3-8-8-2-77-6-0-8-3-2" />
      <feMorphology
         result="result3"
         radius="4"
         operator="dilate"
         id="feMorphology4393-1-0-49-8-9-2-2-9-2-2" />
      <feComposite
         result="composite2"
         operator="over"
         in="SourceGraphic"
         in2="result3"
         id="feComposite4385-9-5-7-0-8-6-3-7-0-7" />
    </filter>
    <filter
       inkscape:label="soundFX-squeletons"
       id="filter4375-4-1-1-1-9-5-8-8-5-1"
       style="color-interpolation-filters:sRGB">
      <feFlood
         result="flood"
         flood-color="rgb(36,36,36)"
         flood-opacity="1"
         id="feFlood4377-7-9-0-8-1-7-3-1-2-1" />
      <feComposite
         baseFrequency="0.053999999999999999 0.053999999999999999"
         result="composite1"
         operator="in"
         in="flood"
         in2="SourceGraphic"
         id="feComposite4379-3-8-8-2-77-4-1-0-6-3" />
      <feMorphology
         result="result3"
         radius="8"
         operator="dilate"
         id="feMorphology4393-1-0-49-8-9-3-0-1-9-0" />
      <feComposite
         result="fbSourceGraphic"
         operator="over"
         in="SourceGraphic"
         in2="result3"
         id="feComposite4385-9-5-7-0-8-8-7-5-4-6" />
      <feColorMatrix
         id="feColorMatrix4544-9-4-4"
         values="0 0 0 -1 0 0 0 0 -1 0 0 0 0 -1 0 0 0 0 1 0"
         in="fbSourceGraphic"
         result="fbSourceGraphicAlpha" />
      <feTurbulence
         result="turbulence"
         baseFrequency="0.053999999999999999 0.054054054054054057"
         seed="174"
         numOctaves="5"
         type="fractalNoise"
         id="feTurbulence4546-3-6-4" />
      <feDisplacementMap
         result="fbSourceGraphic"
         xChannelSelector="R"
         yChannelSelector="G"
         scale="6.6"
         in="fbSourceGraphic"
         in2="turbulence"
         id="feDisplacementMap4548-8-0-75" />
      <feColorMatrix
         id="feColorMatrix4670-7-7-3"
         values="0 0 0 -1 0 0 0 0 -1 0 0 0 0 -1 0 0 0 0 1 0"
         in="fbSourceGraphic"
         result="fbSourceGraphicAlpha" />
      <feFlood
         in="fbSourceGraphic"
         result="flood"
         flood-color="rgb(255,255,255)"
         flood-opacity="1"
         id="feFlood4672-4-4-8" />
      <feComposite
         result="composite1"
         operator="in"
         in="flood"
         in2="fbSourceGraphic"
         id="feComposite4674-8-3-2" />
      <feGaussianBlur
         result="blur"
         stdDeviation="0"
         in="composite1"
         id="feGaussianBlur4676-3-7-7" />
      <feOffset
         result="offset"
         dy="0"
         dx="0"
         id="feOffset4678-6-9-3" />
      <feComposite
         result="composite2"
         operator="over"
         in="fbSourceGraphic"
         in2="offset"
         id="feComposite4680-4-0-5" />
    </filter>
    <linearGradient
       gradientUnits="userSpaceOnUse"
       y2="1552.0063"
       x2="1186.035"
       y1="1552.0063"
       x1="754.64325"
       id="linearGradient4932"
       xlink:href="#linearGradient4288"
       inkscape:collect="always" />
    <linearGradient
       gradientUnits="userSpaceOnUse"
       y2="1552.0063"
       x2="1186.035"
       y1="1552.0063"
       x1="754.64325"
       id="linearGradient4940"
       xlink:href="#linearGradient4288"
       inkscape:collect="always" />
    <linearGradient
       gradientUnits="userSpaceOnUse"
       y2="1552.0063"
       x2="1186.035"
       y1="1552.0063"
       x1="754.64325"
       id="linearGradient4948"
       xlink:href="#linearGradient4288"
       inkscape:collect="always" />
    <linearGradient
       gradientUnits="userSpaceOnUse"
       y2="1552.0063"
       x2="1186.035"
       y1="1552.0063"
       x1="754.64325"
       id="linearGradient4956"
       xlink:href="#linearGradient4288"
       inkscape:collect="always" />
    <linearGradient
       y2="1552.0064"
       x2="1186.035"
       y1="1552.0064"
       x1="754.64326"
       gradientUnits="userSpaceOnUse"
       id="linearGradient5035"
       xlink:href="#linearGradient4288"
       inkscape:collect="always" />
    <filter
       inkscape:label="soundFX-Kraken"
       id="filter4375-4-1-1-1-9-5-8-8-5-1-1"
       style="color-interpolation-filters:sRGB">
      <feFlood
         result="flood"
         flood-color="rgb(36,36,36)"
         flood-opacity="1"
         id="feFlood4377-7-9-0-8-1-7-3-1-2-1-6" />
      <feComposite
         baseFrequency="0.053999999999999999 0.053999999999999999"
         result="composite1"
         operator="in"
         in="flood"
         in2="SourceGraphic"
         id="feComposite4379-3-8-8-2-77-4-1-0-6-3-4" />
      <feMorphology
         result="result3"
         radius="8"
         operator="dilate"
         id="feMorphology4393-1-0-49-8-9-3-0-1-9-0-5" />
      <feComposite
         result="fbSourceGraphic"
         operator="over"
         in="SourceGraphic"
         in2="result3"
         id="feComposite4385-9-5-7-0-8-8-7-5-4-6-8" />
      <feColorMatrix
         id="feColorMatrix4544-9-4-4-3"
         values="0 0 0 -1 0 0 0 0 -1 0 0 0 0 -1 0 0 0 0 1 0"
         in="fbSourceGraphic"
         result="fbSourceGraphicAlpha" />
      <feTurbulence
         result="turbulence"
         baseFrequency="0.053999999999999999 0.054054054054054057"
         seed="174"
         numOctaves="5"
         type="fractalNoise"
         id="feTurbulence4546-3-6-4-1" />
      <feDisplacementMap
         result="fbSourceGraphic"
         xChannelSelector="R"
         yChannelSelector="G"
         scale="6.6"
         in="fbSourceGraphic"
         in2="turbulence"
         id="feDisplacementMap4548-8-0-75-2" />
      <feColorMatrix
         id="feColorMatrix4670-7-7-3-2"
         values="0 0 0 -1 0 0 0 0 -1 0 0 0 0 -1 0 0 0 0 1 0"
         in="fbSourceGraphic"
         result="fbSourceGraphicAlpha" />
      <feFlood
         in="fbSourceGraphic"
         result="flood"
         flood-color="rgb(255,255,255)"
         flood-opacity="1"
         id="feFlood4672-4-4-8-9" />
      <feComposite
         result="composite1"
         operator="in"
         in="flood"
         in2="fbSourceGraphic"
         id="feComposite4674-8-3-2-5" />
      <feGaussianBlur
         result="blur"
         stdDeviation="0"
         in="composite1"
         id="feGaussianBlur4676-3-7-7-5" />
      <feOffset
         result="offset"
         dy="0"
         dx="0"
         id="feOffset4678-6-9-3-4" />
      <feComposite
         result="composite2"
         operator="over"
         in="fbSourceGraphic"
         in2="offset"
         id="feComposite4680-4-0-5-6" />
    </filter>
    <filter
       inkscape:label="soundFX-squeletons"
       id="filter4375-4-1-1-1-9-5-8-8-5-1-1-5"
       style="color-interpolation-filters:sRGB">
      <feFlood
         result="flood"
         flood-color="rgb(36,36,36)"
         flood-opacity="1"
         id="feFlood4377-7-9-0-8-1-7-3-1-2-1-6-1" />
      <feComposite
         baseFrequency="0.053999999999999999 0.053999999999999999"
         result="composite1"
         operator="in"
         in="flood"
         in2="SourceGraphic"
         id="feComposite4379-3-8-8-2-77-4-1-0-6-3-4-9" />
      <feMorphology
         result="result3"
         radius="9.5999999999999996"
         operator="dilate"
         id="feMorphology4393-1-0-49-8-9-3-0-1-9-0-5-4" />
      <feComposite
         result="fbSourceGraphic"
         operator="over"
         in="SourceGraphic"
         in2="result3"
         id="feComposite4385-9-5-7-0-8-8-7-5-4-6-8-4" />
      <feColorMatrix
         baseFrequency="0.055 0.054054054054054057"
         id="feColorMatrix4544-9-4-4-3-6"
         values="0 0 0 -1 0 0 0 0 -1 0 0 0 0 -1 0 0 0 0 1 0"
         in="fbSourceGraphic"
         result="fbSourceGraphicAlpha" />
      <feTurbulence
         scale="10.199999999999999"
         result="turbulence"
         baseFrequency="0.055029585798816567 0.054054054054054057"
         seed="174"
         numOctaves="5"
         type="fractalNoise"
         id="feTurbulence4546-3-6-4-1-8" />
      <feDisplacementMap
         result="fbSourceGraphic"
         xChannelSelector="R"
         yChannelSelector="G"
         scale="10.196987253765933"
         in="fbSourceGraphic"
         in2="turbulence"
         id="feDisplacementMap4548-8-0-75-2-1" />
      <feColorMatrix
         scale="9.1999999999999993"
         id="feColorMatrix4670-7-7-3-2-0"
         values="0 0 0 -1 0 0 0 0 -1 0 0 0 0 -1 0 0 0 0 1 0"
         in="fbSourceGraphic"
         result="fbSourceGraphicAlpha" />
      <feFlood
         in="fbSourceGraphic"
         result="flood"
         flood-color="rgb(255,255,255)"
         flood-opacity="1"
         id="feFlood4672-4-4-8-9-8" />
      <feComposite
         result="composite1"
         operator="in"
         in="flood"
         in2="fbSourceGraphic"
         id="feComposite4674-8-3-2-5-1" />
      <feGaussianBlur
         result="blur"
         stdDeviation="0"
         in="composite1"
         id="feGaussianBlur4676-3-7-7-5-2" />
      <feOffset
         result="offset"
         dy="0"
         dx="0"
         id="feOffset4678-6-9-3-4-9" />
      <feComposite
         result="composite2"
         operator="over"
         in="fbSourceGraphic"
         in2="offset"
         id="feComposite4680-4-0-5-6-8" />
    </filter>
    <linearGradient
       gradientUnits="userSpaceOnUse"
       y2="414.89822"
       x2="1292.6337"
       y1="356.86307"
       x1="1294.5955"
       id="linearGradient4203-2"
       xlink:href="#linearGradient4197"
       inkscape:collect="always" />
    <filter
       inkscape:label="Score-style"
       id="filter4375-4-1-1-1-9-5-8-8-8-8"
       style="color-interpolation-filters:sRGB">
      <feFlood
         result="flood"
         flood-color="rgb(210,55,0)"
         flood-opacity="1"
         id="feFlood4377-7-9-0-8-1-7-3-1-45-1" />
      <feComposite
         baseFrequency="0.053999999999999999 0.053999999999999999"
         result="composite1"
         operator="in"
         in="flood"
         in2="SourceGraphic"
         id="feComposite4379-3-8-8-2-77-4-1-0-0-5" />
      <feMorphology
         result="result3"
         radius="3.7999999999999998"
         operator="dilate"
         id="feMorphology4393-1-0-49-8-9-3-0-1-36-6" />
      <feComposite
         result="fbSourceGraphic"
         operator="over"
         in="SourceGraphic"
         in2="result3"
         id="feComposite4385-9-5-7-0-8-8-7-5-1-4" />
      <feColorMatrix
         id="feColorMatrix4544-9-0-6"
         values="0 0 0 -1 0 0 0 0 -1 0 0 0 0 -1 0 0 0 0 1 0"
         in="fbSourceGraphic"
         result="fbSourceGraphicAlpha" />
      <feTurbulence
         result="turbulence"
         baseFrequency="0 0"
         seed="174"
         numOctaves="5"
         type="fractalNoise"
         id="feTurbulence4546-3-63-8" />
      <feDisplacementMap
         result="fbSourceGraphic"
         xChannelSelector="R"
         yChannelSelector="G"
         scale="0"
         in="fbSourceGraphic"
         in2="turbulence"
         id="feDisplacementMap4548-8-2-6" />
      <feColorMatrix
         id="feColorMatrix4670-7-0-3"
         values="0 0 0 -1 0 0 0 0 -1 0 0 0 0 -1 0 0 0 0 1 0"
         in="fbSourceGraphic"
         result="fbSourceGraphicAlpha" />
      <feFlood
         stdDeviation="2.7999999999999998"
         in="fbSourceGraphic"
         result="flood"
         flood-color="rgb(255,255,255)"
         flood-opacity="1"
         id="feFlood4672-4-6-5" />
      <feComposite
         result="composite1"
         operator="in"
         in="flood"
         in2="fbSourceGraphic"
         id="feComposite4674-8-1-7" />
      <feGaussianBlur
         result="blur"
         stdDeviation="0.01"
         in="composite1"
         id="feGaussianBlur4676-3-5-4" />
      <feOffset
         stdDeviation="4.7000000000000002"
         result="offset"
         dy="0"
         dx="0"
         id="feOffset4678-6-5-2" />
      <feComposite
         result="composite2"
         operator="over"
         in="fbSourceGraphic"
         in2="offset"
         id="feComposite4680-4-47-4" />
    </filter>
    <linearGradient
       gradientUnits="userSpaceOnUse"
       y2="414.89822"
       x2="1292.6337"
       y1="356.86307"
       x1="1294.5955"
       id="linearGradient5201"
       xlink:href="#linearGradient4197"
       inkscape:collect="always" />
    <linearGradient
       gradientUnits="userSpaceOnUse"
       y2="414.89822"
       x2="1292.6337"
       y1="356.86307"
       x1="1294.5955"
       id="linearGradient5209"
       xlink:href="#linearGradient4197"
       inkscape:collect="always" />
    <filter
       inkscape:label="soundFX-Kraken"
       id="filter4375-4-1-1-1-9-5-8-8-5-7"
       style="color-interpolation-filters:sRGB">
      <feFlood
         result="flood"
         flood-color="rgb(67,92,189)"
         flood-opacity="1"
         id="feFlood4377-7-9-0-8-1-7-3-1-2-5" />
      <feComposite
         baseFrequency="0.053999999999999999 0.053999999999999999"
         result="composite1"
         operator="in"
         in="flood"
         in2="SourceGraphic"
         id="feComposite4379-3-8-8-2-77-4-1-0-6-35" />
      <feMorphology
         result="result3"
         radius="6.2000000000000002"
         operator="dilate"
         id="feMorphology4393-1-0-49-8-9-3-0-1-9-6" />
      <feComposite
         result="fbSourceGraphic"
         operator="over"
         in="SourceGraphic"
         in2="result3"
         id="feComposite4385-9-5-7-0-8-8-7-5-4-2" />
      <feColorMatrix
         id="feColorMatrix4544-9-4-91"
         values="0 0 0 -1 0 0 0 0 -1 0 0 0 0 -1 0 0 0 0 1 0"
         in="fbSourceGraphic"
         result="fbSourceGraphicAlpha" />
      <feTurbulence
         result="turbulence"
         baseFrequency="0.053999999999999999 0.054054054054054057"
         seed="174"
         numOctaves="5"
         type="fractalNoise"
         id="feTurbulence4546-3-6-2" />
      <feDisplacementMap
         result="fbSourceGraphic"
         xChannelSelector="R"
         yChannelSelector="G"
         scale="6.6"
         in="fbSourceGraphic"
         in2="turbulence"
         id="feDisplacementMap4548-8-0-70" />
      <feColorMatrix
         id="feColorMatrix4670-7-7-93"
         values="0 0 0 -1 0 0 0 0 -1 0 0 0 0 -1 0 0 0 0 1 0"
         in="fbSourceGraphic"
         result="fbSourceGraphicAlpha" />
      <feFlood
         in="fbSourceGraphic"
         result="flood"
         flood-color="rgb(39,84,60)"
         flood-opacity="1"
         id="feFlood4672-4-4-6" />
      <feComposite
         result="composite1"
         operator="in"
         in="flood"
         in2="fbSourceGraphic"
         id="feComposite4674-8-3-0" />
      <feGaussianBlur
         result="blur"
         stdDeviation="0"
         in="composite1"
         id="feGaussianBlur4676-3-7-6" />
      <feOffset
         result="offset"
         dy="6"
         dx="6"
         id="feOffset4678-6-9-2" />
      <feComposite
         result="composite2"
         operator="over"
         in="fbSourceGraphic"
         in2="offset"
         id="feComposite4680-4-0-6" />
    </filter>
    <linearGradient
       gradientUnits="userSpaceOnUse"
       y2="1552.0063"
       x2="1186.035"
       y1="1552.0063"
       x1="754.64325"
       id="linearGradient4549"
       xlink:href="#linearGradient4288"
       inkscape:collect="always" />
    <linearGradient
       gradientUnits="userSpaceOnUse"
       y2="1552.0063"
       x2="1186.035"
       y1="1552.0063"
       x1="754.64325"
       id="linearGradient4557"
       xlink:href="#linearGradient4288"
       inkscape:collect="always" />
    <linearGradient
       gradientUnits="userSpaceOnUse"
       y2="1552.0063"
       x2="1186.035"
       y1="1552.0063"
       x1="754.64325"
       id="linearGradient4565"
       xlink:href="#linearGradient4288"
       inkscape:collect="always" />
    <linearGradient
       gradientUnits="userSpaceOnUse"
       y2="1552.0063"
       x2="1186.035"
       y1="1552.0063"
       x1="754.64325"
       id="linearGradient4573"
       xlink:href="#linearGradient4288"
       inkscape:collect="always" />
    <linearGradient
       y2="1552.0064"
       x2="1186.035"
       y1="1552.0064"
       x1="754.64326"
       gradientUnits="userSpaceOnUse"
       id="linearGradient4652"
       xlink:href="#linearGradient4288"
       inkscape:collect="always" />
  </defs>
  <sodipodi:namedview
     inkscape:current-layer="layer1"
     inkscape:window-maximized="1"
     inkscape:window-y="26"
     inkscape:window-x="0"
     inkscape:cy="701.22806"
     inkscape:cx="894.84147"
     inkscape:zoom="0.33720864"
     showgrid="false"
     id="namedview4"
     inkscape:window-height="1025"
     inkscape:window-width="1920"
     inkscape:pageshadow="2"
     inkscape:pageopacity="0"
     guidetolerance="10"
     gridtolerance="10"
     objecttolerance="10"
     borderopacity="1"
     bordercolor="#666666"
     pagecolor="#ffffff" />
  <g
     sodipodi:insensitive="true"
     inkscape:label="artwork"
     id="layer2"
     inkscape:groupmode="layer">
    <image
       sodipodi:absref="C:\Users\stero\Documents\Kernewek\Pepper and Carrot\webcomics\ep22_The-Voting-System\lang\gfx_Pepper-and-Carrot_by-David-Revoy_E22P07.png"
       xlink:href="../gfx_Pepper-and-Carrot_by-David-Revoy_E22P07.png"
       y="0"
       x="0"
       id="image10"
       height="3503"
       width="2481" />
  </g>
  <g
     style="display:inline"
     inkscape:label="speechbubbles"
     id="layer3"
     inkscape:groupmode="layer">
    <path
       transform="matrix(0.72973347,0,0,1.292523,287.41136,1490.9161)"
       sodipodi:nodetypes="sssssssssssssssssssssss"
       inkscape:connector-curvature="0"
       id="path3986-4"
       d="m 534.21094,140.10547 c -70.94132,1.3914 -142.04266,-0.48637 -212.81763,5.5261 -20.99028,2.95153 -40.61686,12.02894 -61.73497,14.38683 -17.39088,2.37307 -35.68483,-0.26016 -52.32059,6.39575 -8.55683,3.71054 -15.19833,10.67879 -21.17734,17.64096 -15.11883,18.43511 -21.97283,43.96432 -15.89692,67.26931 6.47565,28.20057 27.85878,51.8538 54.34482,62.95398 18.67103,9.64409 40.7515,13.66513 61.35038,8.53194 10.5574,-1.31383 21.12418,3.65866 27.96368,11.58001 8.806,8.21552 17.18932,18.53217 29.60866,21.02831 11.75149,1.53729 22.04732,-5.61728 31.53274,-11.47881 15.95025,-8.57394 34.56731,-7.27622 52.04464,-8.5596 18.07928,-2.28446 35.84284,-10.30756 54.32456,-6.9616 18.63048,3.42181 38.54301,6.01722 54.06677,17.83275 8.52439,6.51407 16.117,16.01258 27.51281,17.12202 11.56601,0.90749 21.69244,-6.18951 30.48745,-12.81287 24.048,-19.11429 78.87472,-44.90849 103.11774,-63.76289 8.21998,-6.70807 1.03745,-27.22428 8.20859,-35.08053 11.96165,-13.70212 245.10274,36.622 228.81713,20.05624 -4.77924,-4.86146 -237.23308,-39.02893 -241.35244,-96.71282 -0.89005,-12.46351 -26.78543,-15.92438 -41.96341,-14.84589 -24.23243,-1.15874 -48.18138,-6.40898 -70.92271,-14.77173 -14.70556,-3.95047 -29.9874,-5.54107 -45.19396,-5.33746 z"
       style="color:#000000;display:inline;overflow:visible;visibility:visible;fill:url(#radialGradient4546);fill-opacity:1;fill-rule:nonzero;stroke:none;stroke-width:1px;marker:none;filter:url(#filter3018-9);enable-background:accumulate" />
    <rect
       rx="41.383858"
       ry="40"
       y="2153.3284"
       x="1697.3107"
       height="197.43452"
       width="620.78149"
       id="rect4632-8-6-1-3-6-7-1-2"
       style="color:#000000;fill:#fff6d5;fill-opacity:1;fill-rule:nonzero;stroke:none;stroke-width:2.5999999;marker:none;visibility:visible;display:inline;overflow:visible;enable-background:accumulate" />
    <path
       inkscape:transform-center-y="19.232018"
       inkscape:transform-center-x="-42.632095"
       sodipodi:nodetypes="cccscccc"
       inkscape:connector-curvature="0"
       id="path4456-4-0"
       d="m 1653.3402,2116.4782 c 40.8664,7.2845 61.322,26.7019 66.0469,36.0434 -2.4251,2.7108 -18.3469,10.2597 -18.3469,10.2597 0,0 46.9189,31.8887 46.9963,47.4286 0.046,9.1571 -13.1022,30.3511 -13.1022,30.3511 5.4177,-1.7376 -44.3356,-75.2626 -59.6128,-78.7295 7.7976,-7.2008 21.5234,-12.2687 25.1074,-13.9389 0.9942,-10.1659 -33.9926,-29.7334 -47.0887,-31.4144 z"
       style="color:#000000;display:inline;overflow:visible;visibility:visible;fill:#fff6d5;fill-opacity:1;fill-rule:nonzero;stroke:none;stroke-width:1px;marker:none;enable-background:accumulate" />
    <rect
       rx="40"
       ry="40"
       y="140.4917"
       x="1774.9883"
       height="197.43452"
       width="586.97937"
       id="rect4632-8-6-1-3-6-7-1"
       style="color:#000000;clip-rule:nonzero;display:inline;overflow:visible;visibility:visible;opacity:1;isolation:auto;mix-blend-mode:normal;color-interpolation:sRGB;color-interpolation-filters:linearRGB;solid-color:#000000;solid-opacity:1;fill:#fff6d5;fill-opacity:1;fill-rule:nonzero;stroke:none;stroke-width:2.5999999;stroke-linecap:butt;stroke-linejoin:miter;stroke-miterlimit:4;stroke-dasharray:none;stroke-dashoffset:0;stroke-opacity:1;marker:none;color-rendering:auto;image-rendering:auto;shape-rendering:auto;text-rendering:auto;enable-background:accumulate" />
    <path
       inkscape:transform-center-y="19.232018"
       inkscape:transform-center-x="-42.632095"
       sodipodi:nodetypes="cccscccc"
       inkscape:connector-curvature="0"
       id="path4456-4"
       d="m 1722.3222,105.81549 c 40.8664,7.2845 61.322,26.70183 66.0469,36.04339 -2.4251,2.71082 -18.3469,10.25969 -18.3469,10.25969 0,0 46.9189,31.88867 46.9963,47.42862 0.046,9.15708 -13.1022,30.35103 -13.1022,30.35103 5.4177,-1.7376 -44.3356,-75.26258 -59.6128,-78.7295 7.7976,-7.20079 21.5234,-12.26863 25.1074,-13.93886 0.9942,-10.1659 -33.9926,-29.73342 -47.0887,-31.41437 z"
       style="color:#000000;display:inline;overflow:visible;visibility:visible;fill:#fff6d5;fill-opacity:1;fill-rule:nonzero;stroke:none;stroke-width:1px;marker:none;enable-background:accumulate" />
    <path
       transform="matrix(0.68186754,0,0,1.0026704,209.79939,0.68679561)"
       sodipodi:nodetypes="csssssssssssssssssssssssc"
       inkscape:connector-curvature="0"
       id="path3986"
       d="m 388.78711,144.27344 c -36.45642,1.51217 -72.8945,4.57712 -108.93559,10.3508 -20.6417,3.82532 -40.55481,11.52696 -58.33237,22.70373 -11.0153,6.49623 -22.27231,12.70141 -32.51563,20.38986 -5.64023,4.74753 -10.71993,11.53706 -10.07873,19.29207 0.10911,9.6053 3.42671,18.9263 2.87882,28.5714 0.81001,11.48971 2.40247,23.46883 8.8089,33.33653 6.09648,10.79089 15.43089,19.1512 24.06996,27.84451 9.49905,8.68838 21.55199,14.58952 34.32256,16.40073 20.76808,4.19225 41.77821,7.04733 62.77756,9.78861 31.96134,3.71919 64.10478,5.50545 96.2041,7.54152 8.32866,0.16818 16.44589,-2.39541 24.7479,-2.41153 7.0733,0.61129 14.26684,3.02899 21.32556,0.97094 4.64669,-0.79624 10.20318,-1.93323 14.12972,1.45757 3.87943,3.68981 3.60516,9.64442 2.27988,14.40921 -5.59832,33.53375 -19.36103,64.87987 -32.43236,96.02213 -12.04506,28.63993 -23.64352,57.46508 -35.61752,86.13474 -1.87498,4.53383 -3.74996,9.06765 -5.62495,13.60147 34.10553,-57.33423 70.41147,-113.4438 101.12267,-172.72709 4.63686,-10.14991 9.40666,-20.26194 15.06679,-29.89009 11.53862,-7.65169 25.64413,-9.07679 38.87837,-11.80202 18.17907,-3.79562 36.87587,-6.98294 55.4714,-4.64561 17.89546,0.41795 34.95719,-6.19953 51.02807,-13.39261 16.45026,-7.2324 30.27276,-19.47617 41.16557,-33.61836 8.18714,-9.42938 16.90186,-19.25451 20.1484,-31.62345 2.06131,-10.31031 -1.88034,-20.62889 -6.64938,-29.61154 -5.87347,-12.27743 -11.51308,-25.39069 -22.19991,-34.33443 -11.08894,-9.24913 -24.45057,-15.06694 -37.28435,-21.41884 -26.70446,-12.19874 -56.13331,-18.93148 -85.56121,-17.76423 -26.61712,0.19211 -53.28808,1.01487 -79.85006,-1.19672 -33.08533,-1.98591 -66.16683,-4.93094 -99.34417,-4.3793 z"
       style="color:#000000;display:inline;overflow:visible;visibility:visible;fill:url(#radialGradient4151);fill-opacity:1;fill-rule:nonzero;stroke:none;stroke-width:1px;marker:none;filter:url(#filter3018);enable-background:accumulate" />
    <ellipse
       ry="12.359235"
       rx="13.43395"
       cy="153.11006"
       cx="377.7627"
       id="path4550"
       style="color:#000000;clip-rule:nonzero;display:inline;overflow:visible;visibility:visible;opacity:1;isolation:auto;mix-blend-mode:normal;color-interpolation:sRGB;color-interpolation-filters:linearRGB;solid-color:#000000;solid-opacity:1;fill:#0ca7e2;fill-opacity:1;fill-rule:evenodd;stroke:none;stroke-width:4.5;stroke-linecap:round;stroke-linejoin:miter;stroke-miterlimit:4;stroke-dasharray:none;stroke-dashoffset:0;stroke-opacity:1;marker:none;color-rendering:auto;image-rendering:auto;shape-rendering:auto;text-rendering:auto;enable-background:accumulate" />
    <ellipse
       ry="7.2543335"
       rx="8.3290491"
       cy="156.06554"
       cx="350.08878"
       id="path4550-4"
       style="color:#000000;clip-rule:nonzero;display:inline;overflow:visible;visibility:visible;opacity:1;isolation:auto;mix-blend-mode:normal;color-interpolation:sRGB;color-interpolation-filters:linearRGB;solid-color:#000000;solid-opacity:1;fill:#0ca7e2;fill-opacity:1;fill-rule:evenodd;stroke:none;stroke-width:4.5;stroke-linecap:round;stroke-linejoin:miter;stroke-miterlimit:4;stroke-dasharray:none;stroke-dashoffset:0;stroke-opacity:1;marker:none;color-rendering:auto;image-rendering:auto;shape-rendering:auto;text-rendering:auto;enable-background:accumulate" />
    <ellipse
       ry="12.359235"
       rx="13.43395"
       cy="159.55836"
       cx="607.75195"
       id="path4550-1"
       style="color:#000000;clip-rule:nonzero;display:inline;overflow:visible;visibility:visible;opacity:1;isolation:auto;mix-blend-mode:normal;color-interpolation:sRGB;color-interpolation-filters:linearRGB;solid-color:#000000;solid-opacity:1;fill:#0ca7e2;fill-opacity:1;fill-rule:evenodd;stroke:none;stroke-width:4.5;stroke-linecap:round;stroke-linejoin:miter;stroke-miterlimit:4;stroke-dasharray:none;stroke-dashoffset:0;stroke-opacity:1;marker:none;color-rendering:auto;image-rendering:auto;shape-rendering:auto;text-rendering:auto;enable-background:accumulate" />
    <ellipse
       ry="7.7916918"
       rx="8.3290491"
       cy="158.75233"
       cx="633.27637"
       id="path4550-1-9"
       style="color:#000000;clip-rule:nonzero;display:inline;overflow:visible;visibility:visible;opacity:1;isolation:auto;mix-blend-mode:normal;color-interpolation:sRGB;color-interpolation-filters:linearRGB;solid-color:#000000;solid-opacity:1;fill:#0ca7e2;fill-opacity:1;fill-rule:evenodd;stroke:none;stroke-width:4.5;stroke-linecap:round;stroke-linejoin:miter;stroke-miterlimit:4;stroke-dasharray:none;stroke-dashoffset:0;stroke-opacity:1;marker:none;color-rendering:auto;image-rendering:auto;shape-rendering:auto;text-rendering:auto;enable-background:accumulate" />
    <ellipse
       ry="12.359235"
       rx="13.43395"
       cy="298.7341"
       cx="656.65149"
       id="path4550-1-6"
       style="color:#000000;clip-rule:nonzero;display:inline;overflow:visible;visibility:visible;opacity:1;isolation:auto;mix-blend-mode:normal;color-interpolation:sRGB;color-interpolation-filters:linearRGB;solid-color:#000000;solid-opacity:1;fill:#0ca7e2;fill-opacity:1;fill-rule:evenodd;stroke:none;stroke-width:4.5;stroke-linecap:round;stroke-linejoin:miter;stroke-miterlimit:4;stroke-dasharray:none;stroke-dashoffset:0;stroke-opacity:1;marker:none;color-rendering:auto;image-rendering:auto;shape-rendering:auto;text-rendering:auto;enable-background:accumulate" />
    <ellipse
       ry="7.2543335"
       rx="7.7916913"
       cy="350.05176"
       cx="560.73309"
       id="path4550-1-6-8"
       style="color:#000000;clip-rule:nonzero;display:inline;overflow:visible;visibility:visible;opacity:1;isolation:auto;mix-blend-mode:normal;color-interpolation:sRGB;color-interpolation-filters:linearRGB;solid-color:#000000;solid-opacity:1;fill:#0ca7e2;fill-opacity:1;fill-rule:evenodd;stroke:none;stroke-width:4.5;stroke-linecap:round;stroke-linejoin:miter;stroke-miterlimit:4;stroke-dasharray:none;stroke-dashoffset:0;stroke-opacity:1;marker:none;color-rendering:auto;image-rendering:auto;shape-rendering:auto;text-rendering:auto;enable-background:accumulate" />
    <ellipse
       ry="7.2543335"
       rx="7.7916913"
       cy="133.22783"
       cx="511.0275"
       id="path4550-1-6-8-0"
       style="color:#000000;clip-rule:nonzero;display:inline;overflow:visible;visibility:visible;opacity:1;isolation:auto;mix-blend-mode:normal;color-interpolation:sRGB;color-interpolation-filters:linearRGB;solid-color:#000000;solid-opacity:1;fill:#0ca7e2;fill-opacity:1;fill-rule:evenodd;stroke:none;stroke-width:4.5;stroke-linecap:round;stroke-linejoin:miter;stroke-miterlimit:4;stroke-dasharray:none;stroke-dashoffset:0;stroke-opacity:1;marker:none;color-rendering:auto;image-rendering:auto;shape-rendering:auto;text-rendering:auto;enable-background:accumulate" />
    <ellipse
       ry="6.1796174"
       rx="5.6422591"
       cy="334.73709"
       cx="355.19363"
       id="path4550-1-6-8-0-9"
       style="color:#000000;clip-rule:nonzero;display:inline;overflow:visible;visibility:visible;opacity:1;isolation:auto;mix-blend-mode:normal;color-interpolation:sRGB;color-interpolation-filters:linearRGB;solid-color:#000000;solid-opacity:1;fill:#0ca7e2;fill-opacity:1;fill-rule:evenodd;stroke:none;stroke-width:4.5;stroke-linecap:round;stroke-linejoin:miter;stroke-miterlimit:4;stroke-dasharray:none;stroke-dashoffset:0;stroke-opacity:1;marker:none;color-rendering:auto;image-rendering:auto;shape-rendering:auto;text-rendering:auto;enable-background:accumulate" />
    <ellipse
       ry="6.1796174"
       rx="5.6422591"
       cy="296.58466"
       cx="333.16199"
       id="path4550-1-6-8-0-9-3"
       style="color:#000000;clip-rule:nonzero;display:inline;overflow:visible;visibility:visible;opacity:1;isolation:auto;mix-blend-mode:normal;color-interpolation:sRGB;color-interpolation-filters:linearRGB;solid-color:#000000;solid-opacity:1;fill:#0ca7e2;fill-opacity:1;fill-rule:evenodd;stroke:none;stroke-width:4.5;stroke-linecap:round;stroke-linejoin:miter;stroke-miterlimit:4;stroke-dasharray:none;stroke-dashoffset:0;stroke-opacity:1;marker:none;color-rendering:auto;image-rendering:auto;shape-rendering:auto;text-rendering:auto;enable-background:accumulate" />
    <ellipse
       ry="6.1796174"
       rx="5.6422591"
       cy="339.5733"
       cx="433.11057"
       id="path4550-1-6-8-0-9-3-6"
       style="color:#000000;clip-rule:nonzero;display:inline;overflow:visible;visibility:visible;opacity:1;isolation:auto;mix-blend-mode:normal;color-interpolation:sRGB;color-interpolation-filters:linearRGB;solid-color:#000000;solid-opacity:1;fill:#0ca7e2;fill-opacity:1;fill-rule:evenodd;stroke:none;stroke-width:4.5;stroke-linecap:round;stroke-linejoin:miter;stroke-miterlimit:4;stroke-dasharray:none;stroke-dashoffset:0;stroke-opacity:1;marker:none;color-rendering:auto;image-rendering:auto;shape-rendering:auto;text-rendering:auto;enable-background:accumulate" />
  </g>
  <g
     inkscape:label="txt"
     id="layer1"
     inkscape:groupmode="layer">
    <text
       id="text4246-2-3-1-3-9-9-3-2"
       y="228.40021"
       x="517.27045"
       style="font-style:normal;font-variant:normal;font-weight:normal;font-stretch:normal;line-height:0%;font-family:'Drukaatie burti';-inkscape-font-specification:'Drukaatie burti, Normal';text-align:center;letter-spacing:0px;word-spacing:0px;writing-mode:lr-tb;text-anchor:middle;display:inline;fill:#ffffff;fill-opacity:1;stroke:none;filter:url(#filter4183)"
       xml:space="preserve"><tspan
         style="font-size:52.8913px;line-height:1.25"
         y="228.40021"
         x="523.88184"
         id="tspan4390"
         sodipodi:role="line">RELEASUS </tspan><tspan
         style="font-size:52.8913px;line-height:1.25"
         y="294.51428"
         x="517.27045"
         id="tspan4392"
         sodipodi:role="line">KRAKENIS!</tspan></text>
    <text
       inkscape:transform-center-y="-82.119963"
       inkscape:transform-center-x="-63.131284"
       transform="matrix(0.53701218,-0.18511943,-0.12960973,0.84567385,69.581212,-730.83161)"
       id="text4580-6-0-0-0-18"
       y="1584.5073"
       x="787.65729"
       style="font-style:normal;font-variant:normal;font-weight:normal;font-stretch:normal;line-height:0%;font-family:Lavi;-inkscape-font-specification:Lavi;letter-spacing:0px;word-spacing:0px;fill:url(#linearGradient4652);fill-opacity:1;stroke:none;stroke-width:0.763978;stroke-miterlimit:4;stroke-dasharray:none;stroke-opacity:0;filter:url(#filter4375-4-1-1-1-9-5-8-8-5-7)"
       xml:space="preserve"><tspan
         style="font-size:70px;line-height:1.25;fill:url(#linearGradient4652);fill-opacity:1;stroke:none;stroke-width:0.763978;stroke-miterlimit:4;stroke-dasharray:none;stroke-opacity:0"
         y="1584.5073"
         x="787.65729"
         id="tspan4582-1-1-0-2-79"
         sodipodi:role="line"><tspan
           id="tspan4315-8-9-2-2"
           style="font-size:93.1495px;fill:url(#linearGradient4652);fill-opacity:1;stroke:none;stroke-width:0.763978;stroke-miterlimit:4;stroke-dasharray:none;stroke-opacity:0">Www<tspan
   id="tspan4241-3"
   style="font-size:69.3801px;fill:url(#linearGradient4652);fill-opacity:1">lou!</tspan></tspan></tspan></text>
    <text
       transform="matrix(0.9402645,-0.62735016,-0.22693607,1.4682625,884.30284,-1068.9221)"
       id="text4580-6-0-0-0"
       y="1584.5073"
       x="787.65729"
       style="font-style:normal;font-variant:normal;font-weight:normal;font-stretch:normal;line-height:0%;font-family:Lavi;-inkscape-font-specification:Lavi;letter-spacing:0px;word-spacing:0px;fill:url(#linearGradient4294);fill-opacity:1;stroke:none;stroke-width:0.763978;stroke-miterlimit:4;stroke-dasharray:none;stroke-opacity:0;filter:url(#filter4375-4-1-1-1-9-5-8-8-5)"
       xml:space="preserve"><tspan
         style="font-size:70px;line-height:1.25;fill:url(#linearGradient4294);fill-opacity:1;stroke:none;stroke-width:0.763978;stroke-miterlimit:4;stroke-dasharray:none;stroke-opacity:0"
         y="1584.5073"
         x="787.65729"
         id="tspan4582-1-1-0-2"
         sodipodi:role="line"><tspan
           id="tspan4315-8-9-2"
           style="font-size:93.1495px;fill:url(#linearGradient4294);fill-opacity:1;stroke:none;stroke-width:0.763978;stroke-miterlimit:4;stroke-dasharray:none;stroke-opacity:0">Plowgh!</tspan></tspan></text>
    <text
       id="text4246-2-3-1-3-9-9-9"
       y="199.65723"
       x="2060.9438"
       style="font-style:normal;font-variant:normal;font-weight:normal;font-stretch:normal;line-height:0%;font-family:Lavi;-inkscape-font-specification:Lavi;text-align:center;letter-spacing:0px;word-spacing:0px;text-anchor:middle;display:inline;fill:#000000;fill-opacity:1;stroke:none"
       xml:space="preserve"><tspan
         id="tspan266"
         y="199.65723"
         x="2060.9438"
         style="font-size:45px;line-height:1.25"
         sodipodi:role="line">Teg! Nerthek! Spirulina </tspan><tspan
         id="tspan272"
         y="255.90723"
         x="2060.9438"
         style="font-size:45px;line-height:1.25"
         sodipodi:role="line">a wayn an kynsa le!</tspan><tspan
         id="tspan268"
         y="312.15723"
         x="2060.9438"
         style="font-size:45px;line-height:1.25"
         sodipodi:role="line">Coriander, dhiso jy!</tspan></text>
    <text
       transform="matrix(1.6804587,0,0,1.6667549,-101.48776,-116.11499)"
       id="text4246-3-8"
       y="286.89603"
       x="1276.0023"
       style="font-style:normal;font-variant:normal;font-weight:normal;font-stretch:normal;line-height:0%;font-family:Lavi;-inkscape-font-specification:Lavi;text-align:center;letter-spacing:0px;word-spacing:0px;text-anchor:middle;opacity:0.702;fill:url(#linearGradient4203);fill-opacity:1;stroke:#ffffff;stroke-width:2.68883;stroke-linecap:round;stroke-miterlimit:4;stroke-dasharray:none;stroke-opacity:1;filter:url(#filter4375-4-1-1-1-9-5-8-8-8)"
       xml:space="preserve"><tspan
         id="tspan4252-5-6"
         y="286.89603"
         x="1294.312"
         style="font-style:normal;font-variant:normal;font-weight:normal;font-stretch:normal;font-size:91.2551px;line-height:1.25;font-family:Fondamento;-inkscape-font-specification:Fondamento;letter-spacing:7.1702px;fill:url(#linearGradient4203);fill-opacity:1;stroke:#ffffff;stroke-width:2.68883;stroke-linecap:round;stroke-miterlimit:4;stroke-dasharray:none;stroke-opacity:1"
         sodipodi:role="line"> </tspan><tspan
         dx="0"
         id="tspan5535-8"
         y="407.63681"
         x="1280.4836"
         style="font-style:normal;font-variant:normal;font-weight:normal;font-stretch:normal;font-size:91.2551px;line-height:1.25;font-family:Combat;-inkscape-font-specification:Combat;letter-spacing:8.96275px;word-spacing:0px;fill:url(#linearGradient4203);fill-opacity:1;stroke:#ffffff;stroke-width:2.68883;stroke-linecap:round;stroke-miterlimit:4;stroke-dasharray:none;stroke-opacity:1"
         sodipodi:role="line">6225</tspan></text>
    <text
       transform="matrix(0.56312247,-0.2879856,-0.10396071,0.76310836,1901.0722,85.212845)"
       id="text4580-1-7-3-6-1"
       y="1584.5073"
       x="787.65729"
       style="font-style:normal;font-variant:normal;font-weight:normal;font-stretch:normal;line-height:0%;font-family:Lavi;-inkscape-font-specification:Lavi;letter-spacing:0px;word-spacing:0px;display:inline;fill:#ffffff;fill-opacity:1;stroke:#ffffff;stroke-width:1.6559;stroke-miterlimit:4;stroke-dasharray:none;stroke-opacity:1;filter:url(#filter4375-4-1-1-1-9-6-9-2-1-5-7)"
       xml:space="preserve"><tspan
         style="font-size:70px;line-height:1.25;letter-spacing:2.96623px;fill:#ffffff;stroke:#ffffff;stroke-width:1.6559;stroke-miterlimit:4;stroke-dasharray:none;stroke-opacity:1"
         y="1584.5073"
         x="787.65729"
         id="tspan4582-8-5-6-1-3"
         sodipodi:role="line">Tapp</tspan></text>
    <use
       height="100%"
       width="100%"
       transform="matrix(0.71462642,0,0,0.70662414,323.15618,694.76721)"
       id="use4516"
       xlink:href="#text4580-1-7-3-6"
       y="0"
       x="0" />
    <use
       height="100%"
       width="100%"
       transform="matrix(1,0,0,0.94327603,106.52173,-14.977466)"
       id="use4518"
       xlink:href="#use4516"
       y="0"
       x="0" />
    <use
       height="100%"
       width="100%"
       transform="matrix(0.71462642,0,0,0.63994781,168.80836,644.5661)"
       id="use4520"
       xlink:href="#text4580-1-7-3-6"
       y="0"
       x="0" />
    <use
       height="100%"
       width="100%"
       transform="matrix(0.87817455,0,0,0.87251953,522.81234,274.89067)"
       id="use4522"
       xlink:href="#use4520"
       y="0"
       x="0" />
    <use
       height="100%"
       width="100%"
       transform="matrix(0.69521504,0,0,0.73182177,580.97091,305.58742)"
       id="use4524"
       xlink:href="#use4522"
       y="0"
       x="0" />
    <text
       id="text4246-2-3-1-3-9-9-3-2-7"
       y="1782.8469"
       x="603.33606"
       style="font-style:normal;font-variant:normal;font-weight:normal;font-stretch:normal;line-height:0%;font-family:Lavi;-inkscape-font-specification:Lavi;text-align:center;letter-spacing:0px;word-spacing:0px;text-anchor:middle;display:inline;fill:#ffffff;fill-opacity:1;stroke:none;filter:url(#filter4183-3)"
       xml:space="preserve"><tspan
         id="tspan4341-5-7-1"
         y="1782.8469"
         x="603.33606"
         style="font-style:normal;font-variant:normal;font-weight:normal;font-stretch:normal;font-size:52.8911px;line-height:1.25;font-family:'Drukaatie burti';-inkscape-font-specification:'Drukaatie burti';fill:#ffffff;fill-opacity:1"
         sodipodi:role="line">MORTUS</tspan><tspan
         id="tspan4161-9"
         y="1848.9608"
         x="603.33606"
         style="font-style:normal;font-variant:normal;font-weight:normal;font-stretch:normal;font-size:52.8911px;line-height:1.25;font-family:'Drukaatie burti';-inkscape-font-specification:'Drukaatie burti';fill:#ffffff;fill-opacity:1"
         sodipodi:role="line">REDITUS!</tspan></text>
    <text
       transform="matrix(1.0148884,0.0915085,0.12705357,1.1473536,-416.95443,377.60437)"
       id="text4580-6-0-0-0-1"
       y="1584.5073"
       x="787.65729"
       style="font-style:normal;font-variant:normal;font-weight:normal;font-stretch:normal;line-height:0%;font-family:Lavi;-inkscape-font-specification:Lavi;letter-spacing:0px;word-spacing:0px;fill:url(#linearGradient4855);fill-opacity:1;stroke:none;stroke-width:0.763978;stroke-miterlimit:4;stroke-dasharray:none;stroke-opacity:0;filter:url(#filter4375-4-1-1-1-9-5-8-8-5-6)"
       xml:space="preserve"><tspan
         style="font-size:70px;line-height:1.25;fill:url(#linearGradient4855);fill-opacity:1;stroke:none;stroke-width:0.763978;stroke-miterlimit:4;stroke-dasharray:none;stroke-opacity:0"
         y="1584.5073"
         x="787.65729"
         id="tspan4582-1-1-0-2-9"
         sodipodi:role="line"><tspan
           id="tspan4315-8-9-2-4"
           style="font-size:93.1495px;fill:url(#linearGradient4855);fill-opacity:1;stroke:none;stroke-width:0.763978;stroke-miterlimit:4;stroke-dasharray:none;stroke-opacity:0">Grou<tspan
   id="tspan4869"
   style="font-size:69.9101px;fill:url(#linearGradient4855)">wouu</tspan>!</tspan></tspan></text>
    <text
       id="text4246-2-3-1-3-9-9-9-1"
       y="2210.3201"
       x="2008.3097"
       style="font-style:normal;font-variant:normal;font-weight:normal;font-stretch:normal;line-height:0%;font-family:Lavi;-inkscape-font-specification:Lavi;text-align:center;letter-spacing:0px;word-spacing:0px;text-anchor:middle;display:inline;fill:#000000;fill-opacity:1;stroke:none"
       xml:space="preserve"><tspan
         id="tspan281"
         y="2210.3201"
         x="2008.3097"
         style="font-size:45px;line-height:1.25"
         sodipodi:role="line">O, dell hevel nyns yw eskern </tspan><tspan
         id="tspan279"
         y="2266.5701"
         x="2008.3097"
         style="font-size:45px;line-height:1.25"
         sodipodi:role="line">an gis... Lemmyn, rag </tspan><tspan
         id="tspan289"
         y="2322.8201"
         x="2008.3097"
         style="font-size:45px;line-height:1.25"
         sodipodi:role="line">agan Saffron guv!</tspan></text>
    <text
       transform="matrix(1.6804587,0,0,1.6667549,-150.21136,1822.619)"
       id="text4246-3-8-0"
       y="286.89603"
       x="1276.0023"
       style="font-style:normal;font-variant:normal;font-weight:normal;font-stretch:normal;line-height:0%;font-family:Lavi;-inkscape-font-specification:Lavi;text-align:center;letter-spacing:0px;word-spacing:0px;text-anchor:middle;opacity:0.702;fill:url(#linearGradient4203-2);fill-opacity:1;stroke:#ffffff;stroke-width:2.68883;stroke-linecap:round;stroke-miterlimit:4;stroke-dasharray:none;stroke-opacity:1;filter:url(#filter4375-4-1-1-1-9-5-8-8-8-8)"
       xml:space="preserve"><tspan
         id="tspan4252-5-6-2"
         y="286.89603"
         x="1294.312"
         style="font-style:normal;font-variant:normal;font-weight:normal;font-stretch:normal;font-size:91.2551px;line-height:1.25;font-family:Fondamento;-inkscape-font-specification:Fondamento;letter-spacing:7.1702px;fill:url(#linearGradient4203-2);fill-opacity:1;stroke:#ffffff;stroke-width:2.68883;stroke-linecap:round;stroke-miterlimit:4;stroke-dasharray:none;stroke-opacity:1"
         sodipodi:role="line"> </tspan><tspan
         id="tspan5535-8-7"
         y="407.63681"
         x="1280.4836"
         style="font-style:normal;font-variant:normal;font-weight:normal;font-stretch:normal;font-size:91.2551px;line-height:1.25;font-family:Combat;-inkscape-font-specification:Combat;letter-spacing:8.96275px;fill:url(#linearGradient4203-2);fill-opacity:1;stroke:#ffffff;stroke-width:2.68883;stroke-linecap:round;stroke-miterlimit:4;stroke-dasharray:none;stroke-opacity:1"
         sodipodi:role="line">2023</tspan></text>
  </g>
  <g
     inkscape:label="notes"
     id="layer4"
     inkscape:groupmode="layer">
    <path
       inkscape:connector-curvature="0"
       id="rect4191-6"
       d="m 2951.2513,951.50507 0,189.03513 -203.83,0 0,-90.9805 -10,0 0,15.6308 -30.9825,-26.9824 30.9825,-26.9804 0,16.6171 10,0 0,-76.33973 203.83,0 z"
       style="color:#000000;clip-rule:nonzero;display:inline;overflow:visible;visibility:visible;opacity:0.481;isolation:auto;mix-blend-mode:normal;color-interpolation:sRGB;color-interpolation-filters:linearRGB;solid-color:#000000;solid-opacity:1;fill:#ffe680;fill-opacity:1;fill-rule:nonzero;stroke:#565656;stroke-width:1.20000005;stroke-linecap:butt;stroke-linejoin:miter;stroke-miterlimit:4;stroke-dasharray:none;stroke-dashoffset:0;stroke-opacity:1;marker:none;color-rendering:auto;image-rendering:auto;shape-rendering:auto;text-rendering:auto;enable-background:accumulate" />
    <flowRoot
       transform="translate(2985.8156,-56.738497)"
       style="font-style:normal;font-variant:normal;font-weight:normal;font-stretch:normal;line-height:0.01%;font-family:Lavi;-inkscape-font-specification:'Lavi, Normal';text-align:center;letter-spacing:0px;word-spacing:0px;writing-mode:lr-tb;text-anchor:middle;display:inline;opacity:0.481;fill:#000000;fill-opacity:1;stroke:none;stroke-width:1px;stroke-linecap:butt;stroke-linejoin:miter;stroke-opacity:1"
       id="flowRoot4212-7"
       xml:space="preserve"><flowRegion
         id="flowRegion4214-5"><rect
           y="1061.6674"
           x="-275.14545"
           height="247.52747"
           width="291.95547"
           id="rect4216-3" /></flowRegion><flowPara
         style="font-size:25.3242px;line-height:1.25"
         id="flowPara4218-5">Edit this one,</flowPara><flowPara
         style="font-size:25.3242px;line-height:1.25"
         id="flowPara4562">all others</flowPara><flowPara
         style="font-size:25.3242px;line-height:1.25"
         id="flowPara4564">are linked</flowPara></flowRoot>
    <text
       transform="matrix(0.96380061,-0.56217228,-0.1779318,1.4896521,2059.8648,-790.00354)"
       id="text4580-1-7-3-6"
       y="1584.5073"
       x="787.65729"
       style="font-style:normal;font-variant:normal;font-weight:normal;font-stretch:normal;line-height:0%;font-family:Lavi;-inkscape-font-specification:Lavi;letter-spacing:0px;word-spacing:0px;display:inline;fill:#ffffff;fill-opacity:1;stroke:#ffffff;stroke-width:0.865258;stroke-miterlimit:4;stroke-dasharray:none;stroke-opacity:1;filter:url(#filter4375-4-1-1-1-9-6-9-2-1)"
       xml:space="preserve"><tspan
         style="font-size:70px;line-height:1.25;fill:#ffffff;fill-opacity:1;stroke:#ffffff;stroke-width:0.865258;stroke-miterlimit:4;stroke-dasharray:none;stroke-opacity:1"
         y="1584.5073"
         x="787.65729"
         id="tspan4582-8-5-6-1"
         sodipodi:role="line">Tack</tspan></text>
  </g>
</svg>
