<?xml version="1.0" encoding="UTF-8" standalone="no"?>
<!-- Created with Inkscape (http://www.inkscape.org/) -->

<svg
   xmlns:dc="http://purl.org/dc/elements/1.1/"
   xmlns:cc="http://creativecommons.org/ns#"
   xmlns:rdf="http://www.w3.org/1999/02/22-rdf-syntax-ns#"
   xmlns:svg="http://www.w3.org/2000/svg"
   xmlns="http://www.w3.org/2000/svg"
   xmlns:xlink="http://www.w3.org/1999/xlink"
   xmlns:sodipodi="http://sodipodi.sourceforge.net/DTD/sodipodi-0.dtd"
   xmlns:inkscape="http://www.inkscape.org/namespaces/inkscape"
   id="svg2"
   version="1.1"
   inkscape:version="0.92.4 (5da689c313, 2019-01-14)"
   width="2481"
   height="2410"
   sodipodi:docname="E28P03.svg">
  <metadata
     id="metadata8">
    <rdf:RDF>
      <cc:Work
         rdf:about="">
        <dc:format>image/svg+xml</dc:format>
        <dc:type
           rdf:resource="http://purl.org/dc/dcmitype/StillImage" />
        <dc:title />
      </cc:Work>
    </rdf:RDF>
  </metadata>
  <defs
     id="defs6" />
  <sodipodi:namedview
     pagecolor="#ffffff"
     bordercolor="#666666"
     borderopacity="1"
     objecttolerance="10"
     gridtolerance="10"
     guidetolerance="10"
     inkscape:pageopacity="0"
     inkscape:pageshadow="2"
     inkscape:window-width="1871"
     inkscape:window-height="1056"
     id="namedview4"
     showgrid="false"
     inkscape:zoom="0.37427386"
     inkscape:cx="1240.5"
     inkscape:cy="777.50554"
     inkscape:window-x="49"
     inkscape:window-y="24"
     inkscape:window-maximized="1"
     inkscape:current-layer="layer1" />
  <g
     inkscape:groupmode="layer"
     id="layer2"
     inkscape:label="artwork"
     transform="translate(0,-1093)"
     sodipodi:insensitive="true">
    <image
       sodipodi:absref="/felles/omsetting/pepper-carrot/webcomics/ep28_The-Festivities/lang/nn/../gfx_Pepper-and-Carrot_by-David-Revoy_E28P03.png"
       xlink:href="../gfx_Pepper-and-Carrot_by-David-Revoy_E28P03.png"
       y="1152"
       x="0"
       id="image10"
       height="2351"
       width="2481" />
  </g>
  <g
     inkscape:groupmode="layer"
     id="layer3"
     inkscape:label="speechbubbles"
     transform="translate(0,-1093)"
     style="display:inline">
    <rect
       style="color:#000000;clip-rule:nonzero;display:inline;overflow:visible;visibility:visible;opacity:0.7;isolation:auto;mix-blend-mode:normal;color-interpolation:sRGB;color-interpolation-filters:linearRGB;solid-color:#000000;solid-opacity:1;vector-effect:none;fill:#ffffff;fill-opacity:1;fill-rule:nonzero;stroke:none;stroke-width:1.30951142;stroke-linecap:butt;stroke-linejoin:miter;stroke-miterlimit:4;stroke-dasharray:none;stroke-dashoffset:0;stroke-opacity:1;marker:none;paint-order:stroke fill markers;color-rendering:auto;image-rendering:auto;shape-rendering:auto;text-rendering:auto;enable-background:accumulate"
       id="rect932"
       width="388.40546"
       height="153.04008"
       x="128.54442"
       y="1251.5823" />
    <rect
       style="color:#000000;clip-rule:nonzero;display:inline;overflow:visible;visibility:visible;opacity:0.7;isolation:auto;mix-blend-mode:normal;color-interpolation:sRGB;color-interpolation-filters:linearRGB;solid-color:#000000;solid-opacity:1;vector-effect:none;fill:#ffffff;fill-opacity:1;fill-rule:nonzero;stroke:none;stroke-width:1.50502002;stroke-linecap:butt;stroke-linejoin:miter;stroke-miterlimit:4;stroke-dasharray:none;stroke-dashoffset:0;stroke-opacity:1;marker:none;paint-order:stroke fill markers;color-rendering:auto;image-rendering:auto;shape-rendering:auto;text-rendering:auto;enable-background:accumulate"
       id="rect934"
       width="599.1908"
       height="270.22501"
       x="156.89981"
       y="2162.7354" />
    <path
       style="fill:#ffffff;fill-opacity:1;fill-rule:evenodd;stroke:none;stroke-width:1px;stroke-linecap:butt;stroke-linejoin:miter;stroke-opacity:1"
       d="m 2240.2609,3047.9208 c 26.5645,-31.6712 12.8824,-35.1698 2.8427,-41.2181 12.5876,-3.3841 14.2979,-13.4315 2.1319,-31.9795 22.9974,16.7561 27.4459,25.9666 34.1115,-15.6344 3.1109,15.4886 13.3404,45.5682 32.6902,-1.4213 -5.5781,41.5813 2.8,25.7987 29.8476,-5.6853 -11.9519,32.2805 -23.4421,82.4499 34.1114,46.9033 -13.6949,13.4967 -58.5519,31.0144 -19.1877,37.6648 -18.0834,6.5392 -21.3828,2.7647 6.3959,33.4008 -32.4351,-19.1257 -32.5575,4.4012 -17.7664,47.614 -13.7969,-15.4134 -30.2178,-53.1302 -36.9541,-8.5279 -8.7127,-59.5706 -27.6823,-3.7504 -43.35,14.9238 2.8808,-21.1808 20.565,-66.275 1.4213,-51.8779 4.9509,-16.5998 -5.9062,-5.5354 -15.6344,3.5533 11.5886,-21.1927 13.575,-34.8047 -10.6599,-27.7156 z"
       id="path936"
       inkscape:connector-curvature="0"
       sodipodi:nodetypes="ccccccccccccccc" />
  </g>
  <g
     inkscape:groupmode="layer"
     id="layer1"
     inkscape:label="txt"
     transform="translate(0,-1093)">
    <text
       xml:space="preserve"
       style="font-style:normal;font-variant:normal;font-weight:normal;font-stretch:normal;line-height:0%;font-family:Lavi;-inkscape-font-specification:Lavi;text-align:center;letter-spacing:0px;word-spacing:0px;text-anchor:middle;fill:#000000;fill-opacity:1;stroke:none"
       x="325.25201"
       y="1316.8018"
       id="text4246"><tspan
         sodipodi:role="line"
         style="font-size:45px;line-height:1.20000005"
         x="325.25201"
         y="1316.8018"
         id="tspan825">Og etterpå</tspan><tspan
         sodipodi:role="line"
         style="font-size:45px;line-height:1.20000005"
         x="325.25201"
         y="1370.8018"
         id="tspan831">var det feiring.</tspan></text>
    <text
       xml:space="preserve"
       style="font-style:normal;font-variant:normal;font-weight:normal;font-stretch:normal;line-height:0%;font-family:Lavi;-inkscape-font-specification:Lavi;text-align:center;letter-spacing:0px;word-spacing:0px;text-anchor:middle;fill:#000000;fill-opacity:1;stroke:none"
       x="459.34067"
       y="2230.6797"
       id="text4246-3"><tspan
         sodipodi:role="line"
         style="font-size:45px;line-height:1.20000005"
         x="459.34067"
         y="2230.6797"
         id="tspan886">Eit storslege selskap –</tspan><tspan
         sodipodi:role="line"
         style="font-size:45px;line-height:1.20000005"
         x="459.34067"
         y="2284.6797"
         id="tspan847">med alle trolldomsskulane,</tspan><tspan
         sodipodi:role="line"
         style="font-size:45px;line-height:1.20000005"
         x="459.34067"
         y="2338.6797"
         id="tspan849">og hundrevis av viktige</tspan><tspan
         sodipodi:role="line"
         style="font-size:45px;line-height:1.20000005"
         x="459.34067"
         y="2392.6797"
         id="tspan851">gjestar frå heile Hereva.</tspan></text>
    <text
       xml:space="preserve"
       style="font-style:normal;font-variant:normal;font-weight:normal;font-stretch:normal;font-size:19.67373848px;line-height:0%;font-family:Lavi;-inkscape-font-specification:Lavi;text-align:center;letter-spacing:0px;word-spacing:0px;text-anchor:middle;fill:#000000;fill-opacity:1;stroke:none;stroke-width:1"
       x="2452.738"
       y="2864.187"
       id="text4246-3-3"
       transform="scale(0.93610966,1.0682509)"><tspan
         sodipodi:role="line"
         style="font-size:73.77651978px;line-height:1.20000005;stroke-width:1"
         x="2452.738"
         y="2864.187"
         id="tspan886-1">!?</tspan></text>
  </g>
</svg>
