<?xml version="1.0" encoding="UTF-8" standalone="no"?>
<svg
   id="svg2"
   version="1.1"
   inkscape:version="1.1 (c68e22c387, 2021-05-23)"
   width="2481"
   height="3503"
   sodipodi:docname="E33P08.svg"
   xmlns:inkscape="http://www.inkscape.org/namespaces/inkscape"
   xmlns:sodipodi="http://sodipodi.sourceforge.net/DTD/sodipodi-0.dtd"
   xmlns:xlink="http://www.w3.org/1999/xlink"
   xmlns="http://www.w3.org/2000/svg"
   xmlns:svg="http://www.w3.org/2000/svg"
   xmlns:rdf="http://www.w3.org/1999/02/22-rdf-syntax-ns#"
   xmlns:cc="http://creativecommons.org/ns#"
   xmlns:dc="http://purl.org/dc/elements/1.1/">
  <metadata
     id="metadata8">
    <rdf:RDF>
      <cc:Work
         rdf:about="">
        <dc:format>image/svg+xml</dc:format>
        <dc:type
           rdf:resource="http://purl.org/dc/dcmitype/StillImage" />
        <dc:title />
      </cc:Work>
    </rdf:RDF>
  </metadata>
  <defs
     id="defs6">
    <filter
       style="color-interpolation-filters:sRGB"
       id="filter4375-4-1-1-1-9-5-8-8-3-3-3-6-1-6"
       inkscape:label="magic-numbers_orange"
       height="1.1483773"
       width="1.0688259"
       x="-0.041496546"
       y="-0.019026992">
      <feFlood
         id="feFlood4377-7-9-0-8-1-7-3-1-6-61-6-2-0-2"
         flood-opacity="1"
         flood-color="rgb(216,88,33)"
         result="flood"
         radius="5.0999999999999996" />
      <feComposite
         id="feComposite4379-3-8-8-2-77-4-1-0-7-2-7-6-6-6"
         in2="SourceGraphic"
         in="flood"
         operator="in"
         result="composite1"
         baseFrequency="0.053999999999999999 0.053999999999999999" />
      <feMorphology
         id="feMorphology4393-1-0-49-8-9-3-0-1-5-9-5-1-3-1"
         operator="dilate"
         radius="0.96959439099754563"
         result="result3" />
      <feComposite
         id="feComposite4385-9-5-7-0-8-8-7-5-3-3-3-8-2-8"
         in2="result3"
         in="SourceGraphic"
         operator="over"
         result="fbSourceGraphic"
         numOctaves="4" />
      <feColorMatrix
         result="fbSourceGraphicAlpha"
         in="fbSourceGraphic"
         values="0 0 0 -1 0 0 0 0 -1 0 0 0 0 -1 0 0 0 0 1 0"
         id="feColorMatrix4544-9-5-1-5-7-0-7" />
      <feTurbulence
         id="feTurbulence4546-3-6-9-6-9-6-9"
         type="fractalNoise"
         numOctaves="4.4123222748815163"
         seed="172"
         baseFrequency="0.062 0.054054054054054057"
         result="turbulence" />
      <feDisplacementMap
         id="feDisplacementMap4548-8-2-4-2-2-1-20"
         in2="turbulence"
         in="fbSourceGraphic"
         scale="11.642079"
         yChannelSelector="G"
         xChannelSelector="R"
         result="fbSourceGraphic" />
      <feColorMatrix
         result="fbSourceGraphicAlpha"
         in="fbSourceGraphic"
         values="0 0 0 -1 0 0 0 0 -1 0 0 0 0 -1 0 0 0 0 1 0"
         id="feColorMatrix4670-7-9-7-9-0-5-2"
         scale="10.800000000000001" />
      <feComposite
         id="feComposite4674-8-2-4-1-2-5-3"
         in2="fbSourceGraphic"
         in="flood"
         operator="in"
         result="composite1" />
      <feGaussianBlur
         id="feGaussianBlur4676-3-7-50-2-3-4-7"
         in="composite1"
         stdDeviation="0.01"
         result="blur" />
      <feOffset
         id="feOffset4678-6-0-3-7-7-7-5"
         dx="-0.42771311737301687"
         dy="5.2374444725016502"
         result="offset" />
      <feComposite
         id="feComposite4680-4-9-6-0-5-6-9"
         in2="offset"
         in="fbSourceGraphic"
         operator="over"
         result="composite2" />
      <feGaussianBlur
         id="feGaussianBlur58-9-9-5-2"
         stdDeviation="0.01" />
      <feOffset
         id="feOffset60-3-2-6-2"
         dy="0"
         dx="0" />
    </filter>
    <filter
       x="-0.1556289"
       width="1.2980375"
       height="1.2903217"
       inkscape:label="magic-numbers_cyan"
       id="filter4375-4-1-1-1-9-5-8-8-3-3-7-4-1"
       style="color-interpolation-filters:sRGB"
       y="-0.092776331">
      <feFlood
         radius="5.0999999999999996"
         result="flood"
         flood-color="rgb(15,126,119)"
         flood-opacity="1"
         id="feFlood4377-7-9-0-8-1-7-3-1-6-61-3-5-4" />
      <feComposite
         baseFrequency="0.053999999999999999 0.053999999999999999"
         result="composite1"
         operator="in"
         in="flood"
         in2="SourceGraphic"
         id="feComposite4379-3-8-8-2-77-4-1-0-7-2-6-2-9" />
      <feMorphology
         result="result3"
         radius="0.96959439099754563"
         operator="dilate"
         id="feMorphology4393-1-0-49-8-9-3-0-1-5-9-1-5-2" />
      <feComposite
         numOctaves="4"
         result="fbSourceGraphic"
         operator="over"
         in="SourceGraphic"
         in2="result3"
         id="feComposite4385-9-5-7-0-8-8-7-5-3-3-2-4-0" />
      <feColorMatrix
         id="feColorMatrix4544-9-5-1-9-7-6"
         values="0 0 0 -1 0 0 0 0 -1 0 0 0 0 -1 0 0 0 0 1 0"
         in="fbSourceGraphic"
         result="fbSourceGraphicAlpha" />
      <feTurbulence
         result="turbulence"
         baseFrequency="0.062 0.054054054054054057"
         seed="172"
         numOctaves="4.4123222748815163"
         type="fractalNoise"
         id="feTurbulence4546-3-6-9-3-4-8" />
      <feDisplacementMap
         result="fbSourceGraphic"
         xChannelSelector="R"
         yChannelSelector="G"
         scale="11.642079"
         in="fbSourceGraphic"
         in2="turbulence"
         id="feDisplacementMap4548-8-2-4-1-4-9" />
      <feColorMatrix
         scale="10.800000000000001"
         id="feColorMatrix4670-7-9-7-9-3-2"
         values="0 0 0 -1 0 0 0 0 -1 0 0 0 0 -1 0 0 0 0 1 0"
         in="fbSourceGraphic"
         result="fbSourceGraphicAlpha" />
      <feComposite
         result="composite1"
         operator="in"
         in="flood"
         in2="fbSourceGraphic"
         id="feComposite4674-8-2-4-4-0-6" />
      <feGaussianBlur
         result="blur"
         stdDeviation="1.5865199271065846"
         in="composite1"
         id="feGaussianBlur4676-3-7-50-7-7-6" />
      <feOffset
         result="offset"
         dy="5.2374444725016502"
         dx="-0.42771311737301687"
         id="feOffset4678-6-0-3-8-8-4" />
      <feComposite
         result="composite2"
         operator="over"
         in="fbSourceGraphic"
         in2="offset"
         id="feComposite4680-4-9-6-4-6-9" />
      <feGaussianBlur
         stdDeviation="0.01"
         id="feGaussianBlur58-5-8-5" />
      <feOffset
         dx="0"
         dy="0"
         id="feOffset60-0-8-0" />
    </filter>
    <filter
       height="1.0245627"
       y="-0.012281361"
       x="-0.0051899746"
       inkscape:label="soundFX-background"
       id="filter4375-4-1-1-1-9-5-8-6-4"
       style="color-interpolation-filters:sRGB"
       width="1.0103799">
      <feFlood
         result="flood"
         flood-color="rgb(46,52,54)"
         flood-opacity="1"
         id="feFlood4377-7-9-0-8-1-7-3-7-8" />
      <feComposite
         result="composite1"
         operator="in"
         in="flood"
         in2="SourceGraphic"
         id="feComposite4379-3-8-8-2-77-4-1-5-1" />
      <feMorphology
         result="result3"
         radius="6.2000000000000002"
         operator="dilate"
         id="feMorphology4393-1-0-49-8-9-3-0-3-2" />
      <feComposite
         result="fbSourceGraphic"
         operator="over"
         in="SourceGraphic"
         in2="result3"
         id="feComposite4385-9-5-7-0-8-8-7-56-9" />
      <feColorMatrix
         id="feColorMatrix4544-2-3"
         values="0 0 0 -1 0 0 0 0 -1 0 0 0 0 -1 0 0 0 0 1 0"
         in="fbSourceGraphic"
         result="fbSourceGraphicAlpha" />
      <feTurbulence
         result="turbulence"
         baseFrequency="0.129 0.0050000000000000001"
         seed="37"
         numOctaves="3"
         type="fractalNoise"
         id="feTurbulence4546-9-9" />
      <feDisplacementMap
         result="fbSourceGraphic"
         xChannelSelector="B"
         yChannelSelector="A"
         scale="10"
         in="fbSourceGraphic"
         in2="turbulence"
         id="feDisplacementMap4548-1-0" />
      <feColorMatrix
         id="feColorMatrix4670-2-8"
         values="0 0 0 -1 0 0 0 0 -1 0 0 0 0 -1 0 0 0 0 1 0"
         in="fbSourceGraphic"
         result="fbSourceGraphicAlpha" />
      <feFlood
         in="fbSourceGraphic"
         result="flood"
         flood-color="rgb(17,52,65)"
         flood-opacity="1"
         id="feFlood4672-7-8" />
      <feComposite
         result="composite1"
         operator="in"
         in="flood"
         in2="fbSourceGraphic"
         id="feComposite4674-0-5" />
      <feComposite
         result="composite2"
         operator="over"
         in="fbSourceGraphic"
         in2="composite1"
         id="feComposite4680-6-0" />
      <feGaussianBlur
         id="feGaussianBlur1513"
         stdDeviation="0.027533236" />
    </filter>
  </defs>
  <sodipodi:namedview
     pagecolor="#ffffff"
     bordercolor="#666666"
     borderopacity="1"
     objecttolerance="10"
     gridtolerance="10"
     guidetolerance="10"
     inkscape:pageopacity="0"
     inkscape:pageshadow="2"
     inkscape:window-width="1285"
     inkscape:window-height="745"
     id="namedview4"
     showgrid="false"
     inkscape:zoom="0.529"
     inkscape:cx="1803.4026"
     inkscape:cy="2734.4045"
     inkscape:window-x="73"
     inkscape:window-y="-8"
     inkscape:window-maximized="1"
     inkscape:current-layer="layer1"
     inkscape:document-rotation="0"
     inkscape:snap-global="false"
     inkscape:pagecheckerboard="0" />
  <g
     inkscape:groupmode="layer"
     id="layer2"
     inkscape:label="artwork"
     sodipodi:insensitive="true">
    <image
       xlink:href="../gfx_Pepper-and-Carrot_by-David-Revoy_E33P08.png"
       y="0"
       x="0"
       id="image10"
       height="3503"
       width="2481" />
  </g>
  <g
     inkscape:groupmode="layer"
     id="layer3"
     inkscape:label="speechbubbles">
    <path
       inkscape:connector-curvature="0"
       id="path3278-12"
       d="m 2086.916,2126.7461 c -39.8666,1.3827 -79.7129,3.2847 -119.5701,4.9029 -17.2796,0.837 -35.0168,2.9903 -50.6241,10.9561 -15.843,8.2398 -28.6453,21.4304 -38.4932,36.1681 -7.9052,11.9506 -14.5978,24.9526 -17.6185,39.053 -3.021,13.2594 -2.8925,27.2216 0.5624,40.386 7.7333,30.8511 31.8388,57.347 62.3141,66.9097 44.6754,15.803 92.3315,21.9641 139.585,21.5737 42.9254,-0.558 85.8574,-6.5147 127.0939,-18.5367 13.1265,-4.3549 26.2685,-10.6286 35.2676,-21.4748 12.8229,-15.5492 21.7545,-34.8957 22.7244,-55.2087 0.056,-13.859 -1.2463,-27.8223 -4.8995,-41.2251 -6.1185,-22.8458 -21.098,-42.7023 -40.0213,-56.6108 -16.2793,-12.1301 -35.8563,-19.5781 -55.9803,-21.9669 -19.7774,-3.0186 -39.7837,-4.2358 -59.7607,-4.9271 -0.1932,2e-4 -0.3864,4e-4 -0.5797,6e-4 z"
       style="display:inline;fill:#ffffff;stroke:none;stroke-width:0.999996" />
    <path
       sodipodi:nodetypes="cccccccccccccccccccc"
       inkscape:connector-curvature="0"
       id="path3549-3-7-9-6"
       d="m 1864.39,1951.9372 c 13.6591,62.0845 -49.6439,30.9035 -67.9107,23.2832 33.6201,25.6039 32.9299,42.2275 -11.6491,46.2827 64.103,18.386 39.8341,38.9999 3.0781,52.9743 55.9902,5.1487 61.0666,26.5673 23.61,57.0249 68.2895,-18.7572 53.0051,-0.5433 27.7655,25.3448 50.0025,-18.4097 73.2689,-26.5375 54.4744,4.0538 -0.093,-7.8907 44.6327,-55.0654 112.4665,6.3104 -2.4967,-32.6792 19.928,-40.1587 42.6411,4.35 -8.521,-48.7113 68.0233,-37.0708 108.7828,-23.0469 -21.1984,-28.9781 21.1295,-34.1166 55.5672,-29.3462 -63.422,-28.5607 -18.2354,-39.0575 21.5196,-43.0439 -34.9995,-8.67 -41.6786,-18.5889 22.5064,-31.629 -49.0982,0.5726 -97.0492,-19.2128 -38.3691,-39.1608 -39.2461,2.8291 -69.8664,-5.03 -42.602,-59.3108 -30.2572,30.0962 -96.6132,47.551 -106.1794,-12.2714 -28.2685,44.6484 -52.5239,47.2522 -68.4084,9.7501 -4.8879,16.373 -26.8359,23.1989 -45.5901,24.5594 -7.4372,-6.1927 -15.1654,-14.6834 -23.2945,-25.8735 -12.1101,24.4643 -30.7682,41.3327 -68.4083,9.7489 z"
       style="color:#000000;display:inline;overflow:visible;visibility:visible;fill:#ffffff;fill-opacity:1;fill-rule:nonzero;stroke:none;stroke-width:1.08502px;marker:none;enable-background:accumulate" />
    <path
       sodipodi:nodetypes="cccccccc"
       inkscape:connector-curvature="0"
       id="path1111-3"
       d="m 1898.8813,2451.7612 c 42.1845,-19.5414 70.0418,-49.0032 96.7552,-81.9101 -13.1979,1.1047 -25.5175,2.2354 -38.607,4.1405 43.281,-46.672 75.3438,-81.9823 86.1468,-97.7689 20.0156,-39.712 -8.5318,-31.4429 -30.6261,0.5558 -15.3856,23.3313 -64.2407,81.9966 -95.3964,117.5241 l 38.8332,-3.5957 c -11.3666,17.29 -37.7387,44.1736 -57.1057,61.0543 z"
       style="fill:#ffffff;fill-rule:evenodd;stroke:none;stroke-width:1px;stroke-linecap:butt;stroke-linejoin:miter;stroke-opacity:1" />
    <path
       sodipodi:nodetypes="ccsccc"
       inkscape:connector-curvature="0"
       id="path4440-3"
       d="m 799.91121,1322.9095 c 12.09998,40.2931 0.7359,97.4999 -82.41882,127.139 67.88362,-35.9777 55.50716,-89.1882 53.98696,-117.9025 C 758.78158,1092.3042 423.05815,974.65211 346.8056,1011.7822 l 4.83646,-35.57511 c 346.83972,1.96835 465.22644,318.36431 448.26915,346.70241 z"
       style="color:#000000;display:inline;overflow:visible;visibility:visible;fill:#ffffff;fill-opacity:1;fill-rule:nonzero;stroke:none;stroke-width:0.999998px;marker:none;enable-background:accumulate" />
    <path
       sodipodi:nodetypes="cssssc"
       inkscape:connector-curvature="0"
       id="path3238-0"
       d="m 347.57692,887.5357 c -45.39835,0.18449 -91.72939,4.73481 -131.99489,17.16561 -44.14078,14.37928 -71.27186,43.30217 -70.33116,72.09939 -1.40441,26.8758 -5.67179,54.1013 3.58414,80.6965 6.71864,18.9311 18.74858,37.8702 41.36363,52.5819 18.70663,10.7655 45.30936,15.6447 71.23445,17.0853 41.79166,3.4811 83.66483,6.9112 125.83055,8.5069 56.75487,1.4013 113.41494,-1.7141 170.02508,-3.5343 31.12173,-1.4723 62.7306,-3.5368 91.93178,-10.2048 27.69007,-7.4957 47.23053,-22.6057 56.39845,-39.0055 12.8787,-21.162 11.56786,-43.9005 10.66195,-65.97 -0.70875,-19.3775 -2.9336,-39.28243 -16.56114,-57.3083 -14.38627,-20.12289 -41.17193,-37.22934 -74.62735,-47.6473 -20.43338,-6.73567 -43.67486,-9.75229 -66.47201,-12.6852 -63.54726,-8.64167 -129.07424,-11.38527 -194.24811,-11.7566 -5.59824,-0.0307 -11.19692,-0.0298 -16.79537,-0.0236 z"
       style="display:inline;fill:#ffffff;fill-opacity:1;stroke:none;stroke-width:0.910823" />
    <path
       sodipodi:nodetypes="csssssc"
       inkscape:connector-curvature="0"
       id="path3365-74"
       d="m 729.64793,1205.8632 c -30.1799,0.7312 -60.51289,15.2734 -80.05527,41.4774 -10.89638,16.2417 -12.72263,38.299 -8.15308,57.5504 4.81718,22.1743 20.25376,40.9368 39.54202,48.1422 23.53745,10.2703 48.69341,14.4113 73.56073,18.3681 41.03961,5.3576 83.81694,-1.2227 120.89363,-22.2083 13.70219,-8.3919 23.43378,-23.8877 26.76591,-40.9073 6.19938,-26.0757 -1.43714,-56.0836 -20.05464,-73.4793 -12.87576,-11.4952 -29.10996,-16.5289 -44.86201,-20.6227 -28.94494,-6.9907 -58.68529,-7.5885 -88.16798,-8.2226 -6.48933,-0.099 -12.97948,-0.1066 -19.46931,-0.099 z"
       style="color:#000000;display:inline;overflow:visible;visibility:visible;fill:#ffffff;fill-opacity:1;fill-rule:nonzero;stroke:none;stroke-width:0.999998px;marker:none;enable-background:accumulate" />
  </g>
  <g
     id="layer1"
     inkscape:label="txt"
     inkscape:groupmode="layer">
    <text
       id="text4246-3-2-2"
       y="964.68097"
       x="-236.69489"
       style="font-style:normal;font-variant:normal;font-weight:normal;font-stretch:normal;line-height:0%;font-family:Lavi;-inkscape-font-specification:Lavi;text-align:center;letter-spacing:0px;word-spacing:0px;text-anchor:middle;fill:#000000;fill-opacity:1;stroke:none"
       xml:space="preserve"
       inkscape:label="pepperA"><tspan
         id="tspan949"
         y="964.68097"
         x="-236.69489"
         style="font-size:45px;line-height:1.25"
         sodipodi:role="line" /></text>
    <text
       id="text4246-3-2-9-6"
       y="968.95209"
       x="434.78912"
       style="font-style:normal;font-variant:normal;font-weight:normal;font-stretch:normal;font-size:11.9062px;line-height:0%;font-family:Lavi;-inkscape-font-specification:Lavi;text-align:center;letter-spacing:0px;word-spacing:0px;text-anchor:middle;fill:#000000;fill-opacity:1;stroke:none;stroke-width:0.992184"
       xml:space="preserve"
       inkscape:label="pepperB"><tspan
         id="tspan958"
         y="968.95209"
         x="434.78912"
         style="font-size:44.6482px;line-height:1.25;stroke-width:0.992184"
         sodipodi:role="line">Teď, když už znáte </tspan><tspan
         y="1025.8798"
         x="434.78912"
         style="font-size:44.6482px;line-height:1.25;stroke-width:0.992184"
         sodipodi:role="line"
         id="tspan7889">pravidla, vymažu body</tspan><tspan
         id="tspan972"
         y="1082.8074"
         x="434.78912"
         style="font-size:44.6482px;line-height:1.25;stroke-width:0.992184"
         sodipodi:role="line">a můžeme začít znovu.</tspan></text>
    <text
       id="text4246-3-2-9"
       y="1277.8757"
       x="779.69745"
       style="font-style:normal;font-variant:normal;font-weight:normal;font-stretch:normal;font-size:10.9475px;line-height:0%;font-family:Lavi;-inkscape-font-specification:Lavi;text-align:center;letter-spacing:0px;word-spacing:0px;text-anchor:middle;fill:#000000;fill-opacity:1;stroke:none;stroke-width:0.999998"
       xml:space="preserve"
       inkscape:label="pepperC"><tspan
         y="1277.8757"
         x="779.69745"
         style="font-size:41.0531px;line-height:1.25;stroke-width:0.999998"
         sodipodi:role="line"
         id="tspan65">Bude to</tspan><tspan
         y="1329.1921"
         x="779.69745"
         style="font-size:41.0531px;line-height:1.25;stroke-width:0.999998"
         sodipodi:role="line"
         id="tspan10127">férovější.</tspan></text>
    <text
       xml:space="preserve"
       style="font-style:normal;font-variant:normal;font-weight:normal;font-stretch:normal;line-height:0%;font-family:Lavi;-inkscape-font-specification:Lavi;letter-spacing:3.03024px;word-spacing:0px;opacity:0.414404;fill:#fff4b7;fill-opacity:1;stroke:#aa7640;stroke-width:1.71056;stroke-miterlimit:4;stroke-dasharray:none;stroke-opacity:1;filter:url(#filter4375-4-1-1-1-9-5-8-8-3-3-3-6-1-6)"
       x="787.65729"
       y="1584.5073"
       id="text4580-6-0-0-3-3-8-1"
       transform="matrix(0.58085508,0.0196807,-0.00871911,0.96825701,795.76505,769.46879)"
       inkscape:label="scoreP1"><tspan
         sodipodi:role="line"
         id="tspan4582-1-1-0-6-9-9-4"
         x="787.65729"
         y="1584.5073"
         style="font-style:normal;font-variant:normal;font-weight:bold;font-stretch:normal;font-size:64.9472px;line-height:1.25;font-family:Drukah;-inkscape-font-specification:'Drukah Bold';fill:#fff4b7;fill-opacity:1;stroke:#aa7640;stroke-width:1.71056;stroke-miterlimit:4;stroke-dasharray:none;stroke-opacity:1">64</tspan></text>
    <text
       xml:space="preserve"
       style="font-style:normal;font-variant:normal;font-weight:normal;font-stretch:normal;line-height:0%;font-family:Lavi;-inkscape-font-specification:Lavi;letter-spacing:1.14398px;word-spacing:0px;opacity:0.526676;fill:#b5ffe1;fill-opacity:1;stroke:#316983;stroke-width:1.49852;stroke-miterlimit:4;stroke-dasharray:none;stroke-opacity:1;filter:url(#filter4375-4-1-1-1-9-5-8-8-3-3-7-4-1)"
       x="787.65729"
       y="1584.5073"
       id="text4580-6-0-0-3-36-7"
       transform="matrix(0.64289671,-0.04761937,-0.00965042,1.1409372,796.71425,531.51997)"
       inkscape:label="scoreP2"><tspan
         sodipodi:role="line"
         id="tspan4582-1-1-0-6-1-4"
         x="787.65729"
         y="1584.5073"
         style="font-style:normal;font-variant:normal;font-weight:bold;font-stretch:normal;font-size:69.5991px;line-height:1.25;font-family:Drukah;-inkscape-font-specification:'Drukah Bold';fill:#b5ffe1;fill-opacity:1;stroke:#316983;stroke-width:1.49852;stroke-miterlimit:4;stroke-dasharray:none;stroke-opacity:1">45</tspan></text>
    <text
       transform="matrix(0.76490014,0.02494015,-0.01148179,1.2270126,757.96076,313.10087)"
       id="text4580-6-0-0-3-3-8"
       y="1584.5073"
       x="787.65729"
       style="font-style:normal;font-variant:normal;font-weight:normal;font-stretch:normal;line-height:0%;font-family:Lavi;-inkscape-font-specification:Lavi;letter-spacing:3.03024px;word-spacing:0px;opacity:0.504709;fill:#fff4b7;fill-opacity:1;stroke:#aa7640;stroke-width:1.32415;stroke-miterlimit:4;stroke-dasharray:none;stroke-opacity:1;filter:url(#filter4375-4-1-1-1-9-5-8-8-3-3-3-6-1-6)"
       xml:space="preserve"
       inkscape:label="scoreP3"><tspan
         style="font-style:normal;font-variant:normal;font-weight:bold;font-stretch:normal;font-size:64.9472px;line-height:1.25;font-family:Drukah;-inkscape-font-specification:'Drukah Bold';fill:#fff4b7;fill-opacity:1;stroke:#aa7640;stroke-width:1.32415;stroke-miterlimit:4;stroke-dasharray:none;stroke-opacity:1"
         y="1584.5073"
         x="787.65729"
         id="tspan4582-1-1-0-6-9-9"
         sodipodi:role="line">6</tspan></text>
    <text
       transform="matrix(0.79148797,-0.04842097,-0.01188089,1.1601433,778.60793,463.05385)"
       id="text4580-6-0-0-3-36"
       y="1584.5073"
       x="787.65729"
       style="font-style:normal;font-variant:normal;font-weight:normal;font-stretch:normal;line-height:0%;font-family:Lavi;-inkscape-font-specification:Lavi;letter-spacing:2.67495px;word-spacing:0px;opacity:0.615798;fill:#b5ffe1;fill-opacity:1;stroke:#316983;stroke-width:1.33932;stroke-miterlimit:4;stroke-dasharray:none;stroke-opacity:1;filter:url(#filter4375-4-1-1-1-9-5-8-8-3-3-7-4-1)"
       xml:space="preserve"
       inkscape:label="scoreP4"><tspan
         style="font-style:normal;font-variant:normal;font-weight:bold;font-stretch:normal;font-size:69.5991px;line-height:1.25;font-family:Drukah;-inkscape-font-specification:'Drukah Bold';fill:#b5ffe1;fill-opacity:1;stroke:#316983;stroke-width:1.33932;stroke-miterlimit:4;stroke-dasharray:none;stroke-opacity:1"
         y="1584.5073"
         x="787.65729"
         id="tspan4582-1-1-0-6-1"
         sodipodi:role="line">2</tspan></text>
    <text
       transform="matrix(0.72200038,0.02127932,-0.01083782,1.0469063,876.7455,580.14461)"
       id="text4580-6-0-0-3-3-8-3-1"
       y="1584.5073"
       x="787.65729"
       style="font-style:normal;font-variant:normal;font-weight:normal;font-stretch:normal;line-height:0%;font-family:Lavi;-inkscape-font-specification:Lavi;letter-spacing:3.03024px;word-spacing:0px;opacity:0.67509;fill:#fff4b7;fill-opacity:1;stroke:#aa7640;stroke-width:1.47551;stroke-miterlimit:4;stroke-dasharray:none;stroke-opacity:1;filter:url(#filter4375-4-1-1-1-9-5-8-8-3-3-3-6-1-6)"
       xml:space="preserve"
       inkscape:label="scoreP5"><tspan
         style="font-style:normal;font-variant:normal;font-weight:bold;font-stretch:normal;font-size:64.9472px;line-height:1.25;font-family:Lavi;-inkscape-font-specification:'Lavi Bold';fill:#fff4b7;fill-opacity:1;stroke:#aa7640;stroke-width:1.47551;stroke-miterlimit:4;stroke-dasharray:none;stroke-opacity:1"
         y="1584.5073"
         x="787.65729"
         id="tspan4582-1-1-0-6-9-9-7-0"
         sodipodi:role="line">0</tspan></text>
    <text
       transform="matrix(0.74585099,-0.04732194,-0.01119584,1.1338115,921.63161,494.98929)"
       id="text4580-6-0-0-3-36-4-4"
       y="1584.5073"
       x="787.65729"
       style="font-style:normal;font-variant:normal;font-weight:normal;font-stretch:normal;line-height:0%;font-family:Lavi;-inkscape-font-specification:Lavi;letter-spacing:2.67495px;word-spacing:0px;fill:#b5ffe1;fill-opacity:1;stroke:#316983;stroke-width:1.39562;stroke-miterlimit:4;stroke-dasharray:none;stroke-opacity:1;filter:url(#filter4375-4-1-1-1-9-5-8-8-3-3-7-4-1)"
       xml:space="preserve"
       inkscape:label="scoreP6"><tspan
         style="font-style:normal;font-variant:normal;font-weight:bold;font-stretch:normal;font-size:69.5991px;line-height:1.25;font-family:Lavi;-inkscape-font-specification:'Lavi Bold';fill:#b5ffe1;fill-opacity:1;stroke:#316983;stroke-width:1.39562;stroke-miterlimit:4;stroke-dasharray:none;stroke-opacity:1"
         y="1584.5073"
         x="787.65729"
         id="tspan4582-1-1-0-6-1-3-8"
         sodipodi:role="line">0</tspan></text>
    <text
       xml:space="preserve"
       style="font-style:normal;font-variant:normal;font-weight:normal;font-stretch:normal;line-height:0%;font-family:Lavi;-inkscape-font-specification:Lavi;letter-spacing:3.03024px;word-spacing:0px;fill:#fff4b7;fill-opacity:1;stroke:#aa7640;stroke-width:0.960021;stroke-miterlimit:4;stroke-dasharray:none;stroke-opacity:1;filter:url(#filter4375-4-1-1-1-9-5-8-8-3-3-3-6-1-6)"
       x="787.65729"
       y="1584.5073"
       id="text4580-6-0-0-3-3-8-3"
       transform="matrix(1.1433172,0.03174263,-0.01716214,1.5616829,712.82242,-239.84599)"
       inkscape:label="scoreP7"><tspan
         sodipodi:role="line"
         id="tspan4582-1-1-0-6-9-9-7"
         x="787.65729"
         y="1584.5073"
         style="font-style:normal;font-variant:normal;font-weight:bold;font-stretch:normal;font-size:64.9472px;line-height:1.25;font-family:Lavi;-inkscape-font-specification:'Lavi Bold';fill:#fff4b7;fill-opacity:1;stroke:#aa7640;stroke-width:0.960021;stroke-miterlimit:4;stroke-dasharray:none;stroke-opacity:1">0</tspan></text>
    <text
       xml:space="preserve"
       style="font-style:normal;font-variant:normal;font-weight:normal;font-stretch:normal;line-height:0%;font-family:Lavi;-inkscape-font-specification:Lavi;letter-spacing:2.67495px;word-spacing:0px;fill:#b5ffe1;fill-opacity:1;stroke:#316983;stroke-width:0.807391;stroke-miterlimit:4;stroke-dasharray:none;stroke-opacity:1;filter:url(#filter4375-4-1-1-1-9-5-8-8-3-3-7-4-1)"
       x="787.65729"
       y="1584.5073"
       id="text4580-6-0-0-3-36-4-4-6"
       transform="matrix(1.3732529,-0.07679437,-0.02061366,1.8399568,668.51631,-563.0911)"
       inkscape:label="scoreP8"><tspan
         sodipodi:role="line"
         id="tspan4582-1-1-0-6-1-3-8-2"
         x="787.65729"
         y="1584.5073"
         style="font-style:normal;font-variant:normal;font-weight:bold;font-stretch:normal;font-size:69.5991px;line-height:1.25;font-family:Lavi;-inkscape-font-specification:'Lavi Bold';fill:#b5ffe1;fill-opacity:1;stroke:#316983;stroke-width:0.807391;stroke-miterlimit:4;stroke-dasharray:none;stroke-opacity:1">0</tspan></text>
    <text
       xml:space="preserve"
       style="font-style:normal;font-variant:normal;font-weight:normal;font-stretch:normal;line-height:0%;font-family:Lavi;-inkscape-font-specification:Lavi;letter-spacing:3.03024px;word-spacing:0px;opacity:0.39945017;fill:#fff4b7;fill-opacity:1;stroke:#aa7640;stroke-width:1.5234;stroke-miterlimit:4;stroke-dasharray:none;stroke-opacity:1;filter:url(#filter4375-4-1-1-1-9-5-8-8-3-3-3-6-1-6);"
       x="787.65729"
       y="1584.5073"
       id="text4580-6-0-0-3-3-8-8"
       transform="matrix(0.7183239,0.04312147,-0.01078263,0.98679735,571.61175,959.64749)"
       inkscape:label="scoreC1"><tspan
         sodipodi:role="line"
         id="tspan4582-1-1-0-6-9-9-1"
         x="787.65729"
         y="1584.5073"
         style="font-style:normal;font-variant:normal;font-weight:bold;font-stretch:normal;font-size:64.9472px;line-height:1.25;font-family:Drukah;-inkscape-font-specification:'Drukah Bold';fill:#fff4b7;fill-opacity:1;stroke:#aa7640;stroke-width:1.5234;stroke-miterlimit:4;stroke-dasharray:none;stroke-opacity:1;">9</tspan></text>
    <text
       xml:space="preserve"
       style="font-style:normal;font-variant:normal;font-weight:normal;font-stretch:normal;line-height:0%;font-family:Lavi;-inkscape-font-specification:Lavi;letter-spacing:2.67495px;word-spacing:0px;opacity:0.600398;fill:#b5ffe1;fill-opacity:1;stroke:#316983;stroke-width:1.61255;stroke-miterlimit:4;stroke-dasharray:none;stroke-opacity:1;filter:url(#filter4375-4-1-1-1-9-5-8-8-3-3-7-4-1)"
       x="787.65729"
       y="1584.5073"
       id="text4580-6-0-0-3-36-1"
       transform="matrix(0.66279197,-0.29884292,-0.00994906,0.95956644,654.27727,1292.5405)"
       inkscape:label="scoreC2"><tspan
         sodipodi:role="line"
         id="tspan4582-1-1-0-6-1-9"
         x="787.65729"
         y="1584.5073"
         style="font-style:normal;font-variant:normal;font-weight:bold;font-stretch:normal;font-size:69.5991px;line-height:1.25;font-family:Drukah;-inkscape-font-specification:'Drukah Bold';fill:#b5ffe1;fill-opacity:1;stroke:#316983;stroke-width:1.61255;stroke-miterlimit:4;stroke-dasharray:none;stroke-opacity:1">5</tspan></text>
    <text
       xml:space="preserve"
       style="font-style:normal;font-variant:normal;font-weight:normal;font-stretch:normal;line-height:0%;font-family:Lavi;-inkscape-font-specification:Lavi;letter-spacing:3.03024px;word-spacing:0px;fill:#fff4b7;fill-opacity:1;stroke:#aa7640;stroke-width:1.55416;stroke-miterlimit:4;stroke-dasharray:none;stroke-opacity:1;filter:url(#filter4375-4-1-1-1-9-5-8-8-3-3-3-6-1-6)"
       x="787.65729"
       y="1584.5073"
       id="text4580-6-0-0-3-3-8-3-1-3"
       transform="matrix(0.63993057,0.10211521,-0.00960589,1.0634303,721.841,832.98518)"
       inkscape:label="scoreC3"><tspan
         sodipodi:role="line"
         id="tspan4582-1-1-0-6-9-9-7-0-9"
         x="787.65729"
         y="1584.5073"
         style="font-style:normal;font-variant:normal;font-weight:bold;font-stretch:normal;font-size:64.9472px;line-height:1.25;font-family:Lavi;-inkscape-font-specification:'Lavi Bold';fill:#fff4b7;fill-opacity:1;stroke:#aa7640;stroke-width:1.55416;stroke-miterlimit:4;stroke-dasharray:none;stroke-opacity:1">0</tspan></text>
    <text
       xml:space="preserve"
       style="font-style:normal;font-variant:normal;font-weight:normal;font-stretch:normal;line-height:0%;font-family:Lavi;-inkscape-font-specification:Lavi;letter-spacing:2.67495px;word-spacing:0px;fill:#b5ffe1;fill-opacity:1;stroke:#316983;stroke-width:1.55131;stroke-miterlimit:4;stroke-dasharray:none;stroke-opacity:1;filter:url(#filter4375-4-1-1-1-9-5-8-8-3-3-7-4-1)"
       x="787.65729"
       y="1584.5073"
       id="text4580-6-0-0-3-36-4-4-3"
       transform="matrix(0.62043393,0.0078806,-0.00931322,1.1023271,815.30942,907.10667)"
       inkscape:label="scoreC4"><tspan
         sodipodi:role="line"
         id="tspan4582-1-1-0-6-1-3-8-1"
         x="787.65729"
         y="1584.5073"
         style="font-style:normal;font-variant:normal;font-weight:bold;font-stretch:normal;font-size:69.5991px;line-height:1.25;font-family:Lavi;-inkscape-font-specification:'Lavi Bold';fill:#b5ffe1;fill-opacity:1;stroke:#316983;stroke-width:1.55131;stroke-miterlimit:4;stroke-dasharray:none;stroke-opacity:1">0</tspan></text>
    <text
       transform="matrix(0.99320406,0.12366577,-0.01490882,1.7228446,613.7137,-57.733034)"
       id="text4580-6-0-0-3-3-8-3-10"
       y="1584.5073"
       x="787.65729"
       style="font-style:normal;font-variant:normal;font-weight:normal;font-stretch:normal;line-height:0%;font-family:Lavi;-inkscape-font-specification:Lavi;letter-spacing:3.03024px;word-spacing:0px;fill:#fff4b7;fill-opacity:1;stroke:#aa7640;stroke-width:0.980281;stroke-miterlimit:4;stroke-dasharray:none;stroke-opacity:1;filter:url(#filter4375-4-1-1-1-9-5-8-8-3-3-3-6-1-6)"
       xml:space="preserve"
       inkscape:label="scoreC5"><tspan
         style="font-style:normal;font-variant:normal;font-weight:bold;font-stretch:normal;font-size:64.9472px;line-height:1.25;font-family:Lavi;-inkscape-font-specification:'Lavi Bold';fill:#fff4b7;fill-opacity:1;stroke:#aa7640;stroke-width:0.980281;stroke-miterlimit:4;stroke-dasharray:none;stroke-opacity:1"
         y="1584.5073"
         x="787.65729"
         id="tspan4582-1-1-0-6-9-9-7-3"
         sodipodi:role="line">0</tspan></text>
    <text
       transform="matrix(0.51552495,0.09969835,-0.36461778,0.72279881,2190.7581,1253.6202)"
       id="text4580-6-0-06-9-3-7"
       y="1584.5073"
       x="787.65729"
       style="font-style:normal;font-variant:normal;font-weight:normal;font-stretch:normal;line-height:0%;font-family:Lavi;-inkscape-font-specification:Lavi;letter-spacing:0px;word-spacing:0px;opacity:1;mix-blend-mode:normal;fill:#ffffff;fill-opacity:1;stroke:#98b9ca;stroke-width:1.27857;stroke-miterlimit:4;stroke-dasharray:none;stroke-opacity:1;filter:url(#filter4375-4-1-1-1-9-5-8-6-4)"
       xml:space="preserve"
       inkscape:label="weaponFXA"><tspan
         style="font-size:70px;line-height:1.25;fill:#ffffff;fill-opacity:1;stroke:#98b9ca;stroke-width:1.27857;stroke-opacity:1"
         y="1584.5073"
         x="787.65729"
         id="tspan4582-1-1-2-63-0-5"
         sodipodi:role="line"><tspan
           id="tspan4315-8-6-8-9-4"
           style="font-size:93.1495px;fill:#ffffff;fill-opacity:1;stroke:#98b9ca;stroke-width:1.27857;stroke-opacity:1">Svist!</tspan></tspan></text>
    <text
       xml:space="preserve"
       style="font-style:normal;font-variant:normal;font-weight:normal;font-stretch:normal;line-height:0%;font-family:Lavi;-inkscape-font-specification:Lavi;letter-spacing:0px;word-spacing:0px;opacity:1;mix-blend-mode:normal;fill:#ffffff;fill-opacity:1;stroke:#98b9ca;stroke-width:1.23972;stroke-miterlimit:4;stroke-dasharray:none;stroke-opacity:1;filter:url(#filter4375-4-1-1-1-9-5-8-6-4)"
       x="787.65729"
       y="1584.5073"
       id="text4580-6-0-06-9-3-7-4"
       transform="matrix(0.4023734,0.40258973,-0.70109371,0.37963743,2672.7552,1828.2703)"
       inkscape:label="weaponFXB"><tspan
         sodipodi:role="line"
         id="tspan4582-1-1-2-63-0-5-8"
         x="787.65729"
         y="1584.5073"
         style="font-size:70px;line-height:1.25;fill:#ffffff;fill-opacity:1;stroke:#98b9ca;stroke-width:1.23972;stroke-opacity:1"><tspan
           style="font-size:93.1495px;fill:#ffffff;fill-opacity:1;stroke:#98b9ca;stroke-width:1.23972;stroke-opacity:1"
           id="tspan4315-8-6-8-9-4-7">Zuuu!</tspan></tspan></text>
    <text
       transform="matrix(0.3827755,-0.26874723,0.21370456,0.59515549,1555.9951,2398.5686)"
       id="text4580-6-0-06-9-3-7-4-4"
       y="1584.5073"
       x="787.65729"
       style="font-style:normal;font-variant:normal;font-weight:normal;font-stretch:normal;line-height:0%;font-family:Lavi;-inkscape-font-specification:Lavi;letter-spacing:0px;word-spacing:0px;opacity:1;mix-blend-mode:normal;fill:#ffffff;fill-opacity:1;stroke:#98b9ca;stroke-width:1.53096;stroke-miterlimit:4;stroke-dasharray:none;stroke-opacity:1;filter:url(#filter4375-4-1-1-1-9-5-8-6-4)"
       xml:space="preserve"
       inkscape:label="weaponFXC"><tspan
         style="font-size:70px;line-height:1.25;fill:#ffffff;fill-opacity:1;stroke:#98b9ca;stroke-width:1.53096;stroke-opacity:1"
         y="1584.5073"
         x="787.65729"
         id="tspan4582-1-1-2-63-0-5-8-9"
         sodipodi:role="line"><tspan
           id="tspan4315-8-6-8-9-4-7-0"
           style="font-size:93.1495px;fill:#ffffff;fill-opacity:1;stroke:#98b9ca;stroke-width:1.53096;stroke-opacity:1">buch!</tspan></tspan></text>
    <text
       xml:space="preserve"
       style="font-style:normal;font-variant:normal;font-weight:normal;font-stretch:normal;line-height:0%;font-family:Lavi;-inkscape-font-specification:Lavi;letter-spacing:0px;word-spacing:0px;opacity:1;mix-blend-mode:normal;fill:#ffffff;fill-opacity:1;stroke:#98b9ca;stroke-width:1.58161;stroke-miterlimit:4;stroke-dasharray:none;stroke-opacity:1;filter:url(#filter4375-4-1-1-1-9-5-8-6-4)"
       x="787.65729"
       y="1584.5073"
       id="text4580-6-0-06-9-3-7-4-4-6"
       transform="matrix(0.39417058,-0.24452937,0.22006646,0.54152369,989.12821,2486.0635)"
       inkscape:label="weaponFXD"><tspan
         sodipodi:role="line"
         id="tspan4582-1-1-2-63-0-5-8-9-5"
         x="787.65729"
         y="1584.5073"
         style="font-size:70px;line-height:1.25;fill:#ffffff;fill-opacity:1;stroke:#98b9ca;stroke-width:1.58161;stroke-opacity:1"><tspan
           style="font-size:93.1495px;fill:#ffffff;fill-opacity:1;stroke:#98b9ca;stroke-width:1.58161;stroke-opacity:1"
           id="tspan4315-8-6-8-9-4-7-0-6">bac!</tspan></tspan></text>
    <text
       id="text4246-3-2-9-6-6-0"
       y="2043.4531"
       x="2014.4553"
       style="font-style:normal;font-variant:normal;font-weight:normal;font-stretch:normal;font-size:13.6968px;line-height:0%;font-family:Lavi;-inkscape-font-specification:Lavi;text-align:center;letter-spacing:0px;word-spacing:0px;text-anchor:middle;fill:#000000;fill-opacity:1;stroke:none;stroke-width:1"
       xml:space="preserve"
       inkscape:label="pepperE"><tspan
         y="2043.4531"
         x="2014.4553"
         style="font-style:normal;font-variant:normal;font-weight:bold;font-stretch:normal;font-size:51.3627px;line-height:1.25;font-family:Lavi;-inkscape-font-specification:'Lavi Bold';stroke-width:1"
         sodipodi:role="line"
         id="tspan114">Rychleji,,</tspan><tspan
         y="2107.6565"
         x="2014.4553"
         style="font-style:normal;font-variant:normal;font-weight:bold;font-stretch:normal;font-size:51.3627px;line-height:1.25;font-family:Lavi;-inkscape-font-specification:'Lavi Bold';stroke-width:1"
         sodipodi:role="line"
         id="tspan12719">Karotko!</tspan></text>
    <text
       id="text4246-3-2-9-6-6-0-3"
       y="2192.8535"
       x="2048.5525"
       style="font-style:normal;font-variant:normal;font-weight:normal;font-stretch:normal;line-height:0%;font-family:Lavi;-inkscape-font-specification:Lavi;text-align:center;letter-spacing:0px;word-spacing:0px;text-anchor:middle;fill:#000000;fill-opacity:1;stroke:none"
       xml:space="preserve"
       inkscape:label="pepperF"><tspan
         y="2192.8535"
         x="2048.5525"
         style="font-size:45px;line-height:1.25"
         sodipodi:role="line"
         id="tspan141">Kouzlo už </tspan><tspan
         y="2250.2297"
         x="2048.5525"
         style="font-size:45px;line-height:1.25"
         sodipodi:role="line"
         id="tspan15462">moc dlouho </tspan><tspan
         y="2306.4797"
         x="2048.5525"
         style="font-size:45px;line-height:1.25"
         sodipodi:role="line"
         id="tspan21698">nevydží!</tspan></text>
    <text
       transform="matrix(0.85852879,0,-0.29243083,1.1647833,0,0)"
       id="text4213-7"
       y="2985.2324"
       x="2454.97"
       style="font-style:normal;font-variant:normal;font-weight:normal;font-stretch:normal;font-size:10.7631px;line-height:0%;font-family:Lavi;-inkscape-font-specification:Lavi;text-align:center;letter-spacing:0px;word-spacing:0px;text-anchor:middle;display:inline;opacity:1;fill:#241c1c;fill-opacity:1;stroke:#000000;stroke-width:0;stroke-miterlimit:4;stroke-dasharray:none;stroke-opacity:1"
       xml:space="preserve"
       inkscape:label="fin"><tspan
         style="font-style:normal;font-variant:normal;font-weight:bold;font-stretch:normal;font-size:64.7408px;line-height:1.25;font-family:Lavi;-inkscape-font-specification:'Lavi Bold';fill:#000000;fill-opacity:1;stroke:none;stroke-width:0;stroke-miterlimit:4;stroke-dasharray:none"
         y="2985.2324"
         x="2454.97"
         id="tspan3562-5"
         sodipodi:role="line">- KONEC -</tspan></text>
  </g>
</svg>
