<?xml version="1.0" encoding="UTF-8" standalone="no"?>
<svg
   xmlns:dc="http://purl.org/dc/elements/1.1/"
   xmlns:cc="http://creativecommons.org/ns#"
   xmlns:rdf="http://www.w3.org/1999/02/22-rdf-syntax-ns#"
   xmlns:svg="http://www.w3.org/2000/svg"
   xmlns="http://www.w3.org/2000/svg"
   xmlns:xlink="http://www.w3.org/1999/xlink"
   xmlns:sodipodi="http://sodipodi.sourceforge.net/DTD/sodipodi-0.dtd"
   xmlns:inkscape="http://www.inkscape.org/namespaces/inkscape"
   id="svg2"
   version="1.1"
   inkscape:version="1.0.2 (e86c870879, 2021-01-15)"
   width="2481"
   height="6200"
   sodipodi:docname="E32P08.svg"
   inkscape:export-filename="credit.png"
   inkscape:export-xdpi="90"
   inkscape:export-ydpi="90">
  <metadata
     id="metadata8">
    <rdf:RDF>
      <cc:Work
         rdf:about="">
        <dc:format>image/svg+xml</dc:format>
        <dc:type
           rdf:resource="http://purl.org/dc/dcmitype/StillImage" />
        <dc:title />
      </cc:Work>
    </rdf:RDF>
  </metadata>
  <defs
     id="defs6">
    <filter
       inkscape:label="Drop Shadow"
       id="filter5546"
       style="color-interpolation-filters:sRGB">
      <feFlood
         flood-opacity="1"
         flood-color="rgb(0,0,0)"
         result="flood"
         id="feFlood5548" />
      <feComposite
         in="flood"
         in2="SourceGraphic"
         operator="in"
         result="composite1"
         id="feComposite5550" />
      <feGaussianBlur
         in="composite1"
         stdDeviation="1"
         result="blur"
         id="feGaussianBlur5552" />
      <feOffset
         dx="2.5"
         dy="2.5"
         result="offset"
         id="feOffset5554" />
      <feComposite
         in="SourceGraphic"
         in2="offset"
         operator="over"
         result="composite2"
         id="feComposite5556" />
    </filter>
  </defs>
  <sodipodi:namedview
     pagecolor="#ffffff"
     bordercolor="#666666"
     borderopacity="1"
     objecttolerance="10"
     gridtolerance="10"
     guidetolerance="10"
     inkscape:pageopacity="0"
     inkscape:pageshadow="2"
     inkscape:window-width="960"
     inkscape:window-height="1022"
     id="namedview4"
     showgrid="false"
     inkscape:zoom="0.92"
     inkscape:cx="852.29686"
     inkscape:cy="5610.5428"
     inkscape:window-x="0"
     inkscape:window-y="28"
     inkscape:window-maximized="0"
     inkscape:current-layer="layer2"
     inkscape:object-nodes="true"
     showguides="true"
     inkscape:guide-bbox="true"
     inkscape:snap-global="false"
     inkscape:document-rotation="0">
    <sodipodi:guide
       position="1570,6115"
       orientation="0,1"
       id="guide171"
       inkscape:locked="false" />
  </sodipodi:namedview>
  <g
     inkscape:groupmode="layer"
     id="layer1"
     inkscape:label="artwork"
     style="display:inline"
     transform="translate(0,2224)"
     sodipodi:insensitive="true">
    <image
       sodipodi:absref="/home/cherry/Workspace/peppercarrot/webcomics/ep32_The-Battlefield/lang/gfx_Pepper-and-Carrot_by-David-Revoy_E32P08.png"
       xlink:href="../gfx_Pepper-and-Carrot_by-David-Revoy_E32P08.png"
       y="-2224.0303"
       x="0"
       id="image4223"
       style="image-rendering:optimizeQuality"
       preserveAspectRatio="none"
       height="6200"
       width="2481" />
  </g>
  <g
     inkscape:groupmode="layer"
     id="layer3"
     inkscape:label="speechbubbles"
     style="display:inline"
     transform="translate(0,2224)">
    <path
       style="color:#000000;display:inline;overflow:visible;visibility:visible;opacity:1;fill:#ffffff;fill-opacity:1;fill-rule:nonzero;stroke:none;stroke-width:0.826598px;marker:none;enable-background:accumulate"
       d="m 1199.9117,-865.19683 c 5.5761,-101.70673 25.4911,-118.04753 201.0614,-120.75813 96.167,-1.4847 222.7511,-7.5259 222.5647,154.45746 -0.1968,171.15897 -142.5867,134.08212 -224.7401,132.95914 -95.5834,-1.30655 -160.8917,-5.45605 -181.552,-37.7503 -18.906,-29.55202 -17.8785,-97.40666 -17.334,-128.90817 z"
       id="path4546-6"
       inkscape:connector-curvature="0"
       sodipodi:nodetypes="cssssc" />
    <path
       style="color:#000000;display:inline;overflow:visible;visibility:visible;fill:#ffffff;fill-opacity:1;fill-rule:nonzero;stroke:none;stroke-width:1px;marker:none;enable-background:accumulate"
       d="m 1565.9239,-744.28229 c -8.7999,-64.22524 -27.7612,-150.29135 234.2999,-140.37165 201.754,7.63693 246.6288,35.32977 246.2251,146.40598 -1.6469,40.22833 -8.7867,83.93829 -80.6869,112.63954 -47.0412,18.75772 -128.1636,8.09223 -206.1515,14.9621 -83.8739,0.89668 -190.6181,-39.4061 -193.6866,-133.63597 z"
       id="path3365"
       inkscape:connector-curvature="0"
       sodipodi:nodetypes="cscccc" />
    <path
       style="fill:#ffffff;stroke:none;stroke-width:1"
       d="m 872.55605,-963.13496 c 50.81358,-32.3879 129.46405,-43.64824 168.21135,0.1997 23.4771,26.56752 33.1071,45.02242 33.1071,45.02242 l 23.8879,-32.88042 -23.9282,-31.3954 c 0,0 -88.73129,-64.76174 -201.27815,19.0537 z"
       id="path3063"
       inkscape:connector-curvature="0"
       sodipodi:nodetypes="cscccc" />
    <path
       style="color:#000000;display:inline;overflow:visible;visibility:visible;fill:#ffffff;fill-opacity:1;fill-rule:nonzero;stroke:none;stroke-width:0.964514px;marker:none;enable-background:accumulate"
       d="m 463.20931,3305.8567 c 30.60251,-47.7434 267.49575,-92.1682 343.64086,11.2773 76.14508,103.4457 21.80017,276.0612 -27.62613,312.707 -49.42623,36.6463 -220.76123,50.5317 -282.091,15.3545 -61.32986,-35.1775 -80.26635,-116.8984 -77.47164,-217.6479 1.14062,-41.1198 12.94527,-73.9474 43.54791,-121.6909 z"
       id="path4040"
       inkscape:connector-curvature="0"
       sodipodi:nodetypes="zssssz" />
    <path
       style="color:#000000;display:inline;overflow:visible;visibility:visible;fill:#ffffff;fill-opacity:1;fill-rule:nonzero;stroke:none;stroke-width:0.99999994px;marker:none;enable-background:accumulate"
       d="m 794.81027,3503.9749 c -3.17177,-84.7363 16.84208,-125.2915 90.24998,-161.5948 69.94832,-26.4599 256.50535,-16.7025 286.17335,19.3703 29.6681,36.0727 53.2608,72.8665 49.8374,105.1423 -3.4232,32.2756 2.4981,66.7726 -55.5273,107.7854 -40.0376,28.299 -160.4481,23.9605 -221.84431,20.5478 -53.02307,-3.4124 -153.45348,-17.2068 -148.88912,-91.251 z"
       id="path3517"
       inkscape:connector-curvature="0"
       sodipodi:nodetypes="cccsscc" />
    <path
       style="color:#000000;display:inline;overflow:visible;visibility:visible;fill:#ffffff;fill-opacity:1;fill-rule:nonzero;stroke:none;stroke-width:0.99999988px;marker:none;enable-background:accumulate"
       d="m 1162.1295,3514.1886 c -6.7822,-81.1939 144.2051,-93.8241 254.052,-93.001 109.8471,0.8229 252.899,28.8095 258.8884,88.4464 10.8528,101.1661 -165.6552,114.8727 -262.694,115.9951 -45.4388,0.069 -263.4797,-8.9755 -250.2464,-111.4405 z"
       id="path4974"
       inkscape:connector-curvature="0"
       sodipodi:nodetypes="csccc" />
    <path
       style="fill:#ffffff;fill-opacity:1;stroke:none;stroke-width:0.94239348"
       d="m 2095.1618,3703.7812 c -2.4947,-24.9075 14.0519,-37.2977 29.1177,-43.1671 19.0937,-7.4386 143.8638,-5.1704 166.97,11.8391 20.3954,15.0141 32.6685,47.784 -13.0403,65.2222 -45.7087,17.4382 -121.9934,7.8865 -134.9788,4.716 -12.9855,-3.1707 -45.4716,-11.6604 -48.0686,-38.6102 z"
       id="path3659-8"
       inkscape:connector-curvature="0"
       sodipodi:nodetypes="cssssc" />
    <path
       style="color:#000000;display:inline;overflow:visible;visibility:visible;fill:#ffffff;fill-opacity:1;fill-rule:nonzero;stroke:none;stroke-width:1px;marker:none;enable-background:accumulate"
       d="m 1815.9787,3458.3614 c -145.0577,-17.8084 -151.3521,38.1867 -173.8389,41.2954 -47.8722,6.6181 -34.2474,16.1578 -34.2474,16.1578 l 14.6011,-30.4558 c 0,0 76.6292,-84.3387 193.4852,-26.9974 z"
       id="path3072"
       inkscape:connector-curvature="0"
       sodipodi:nodetypes="csccc" />
    <path
       style="color:#000000;display:inline;overflow:visible;visibility:visible;fill:#ffffff;fill-opacity:1;fill-rule:nonzero;stroke:none;stroke-width:1px;marker:none;enable-background:accumulate"
       d="m 2144.8841,3684.561 c -34.7278,-9.2362 -63.5331,-24.713 -62.0215,-60.0508 -13.1987,53.9008 44.5176,88.9089 63.4118,97.7471 18.8944,8.8383 -1.3903,-37.6963 -1.3903,-37.6963 z"
       id="path5010"
       inkscape:connector-curvature="0" />
    <path
       style="color:#000000;display:inline;overflow:visible;visibility:visible;opacity:1;fill:#ffffff;fill-opacity:1;fill-rule:nonzero;stroke:none;stroke-width:1px;marker:none;enable-background:accumulate"
       d="m 1252.7013,-916.55194 c -4.15,56.05753 -15.9257,64.82543 -118.5005,64.11844 -56.1844,-0.38727 -130.1754,1.35842 -128.6445,-88.03084 1.6175,-94.45276 84.4622,-72.20506 132.4383,-70.55456 55.8189,1.9203 93.9292,5.0296 105.7136,23.11064 10.7836,16.5457 9.5877,53.97882 8.9931,71.35632 z"
       id="path4546-6-4"
       inkscape:connector-curvature="0"
       sodipodi:nodetypes="cssssc" />
  </g>
  <g
     inkscape:groupmode="layer"
     id="layer2"
     inkscape:label="text"
     style="display:inline;opacity:0.85500004"
     transform="translate(0,2224)">
    <text
       xml:space="preserve"
       style="font-style:normal;font-variant:normal;font-weight:normal;font-stretch:normal;line-height:0%;font-family:Lavi;-inkscape-font-specification:Lavi;text-align:center;letter-spacing:0px;word-spacing:0px;text-anchor:middle;fill:#000000;fill-opacity:1;stroke:none"
       x="1258.3041"
       y="-504.4682"
       id="text4246-42" />
    <text
       xml:space="preserve"
       style="color:#000000;font-style:normal;font-variant:normal;font-weight:normal;font-stretch:normal;line-height:0%;font-family:Lavi;-inkscape-font-specification:Lavi;text-indent:0;text-align:center;text-decoration:none;text-decoration-line:none;letter-spacing:0px;word-spacing:0px;text-transform:none;writing-mode:lr-tb;direction:ltr;baseline-shift:baseline;text-anchor:middle;display:inline;overflow:visible;visibility:visible;opacity:0.855;fill:#020101;fill-opacity:1;fill-rule:nonzero;stroke:none;enable-background:accumulate"
       x="1991.2159"
       y="-910.79004"
       id="text4246-42-4" />
    <text
       xml:space="preserve"
       style="font-style:normal;font-variant:normal;font-weight:normal;font-stretch:normal;line-height:0%;font-family:Arial;-inkscape-font-specification:Arial;text-align:center;letter-spacing:0px;word-spacing:0px;text-anchor:middle;display:inline;opacity:0.855;fill:#000000;fill-opacity:1;stroke:none"
       x="1261.562"
       y="-551.26312"
       id="text4229" />
    <text
       id="text4179"
       y="-1150.819"
       x="1280.0332"
       style="font-style:normal;font-variant:normal;font-weight:normal;font-stretch:normal;line-height:0%;font-family:Arial;-inkscape-font-specification:Arial;text-align:center;letter-spacing:0px;word-spacing:0px;text-anchor:middle;display:inline;opacity:0.855;fill:#241c1c;fill-opacity:1;stroke:none"
       xml:space="preserve" />
    <g
       id="layer1-8"
       inkscape:label="Layer 1"
       transform="matrix(2.2032985,0,0,2.2032985,1108.3021,-1214.7884)"
       style="opacity:0.60700001;stroke-width:0.45386502">
      <g
         inkscape:export-ydpi="300.23013"
         inkscape:export-xdpi="300.23013"
         inkscape:export-filename="/mnt/hgfs/Bov/Documents/Work/2007/cc/identity/srr buttons/big/by.png"
         id="g260"
         transform="matrix(0.9937728,0,0,0.9936696,-177.69267,6.25128e-7)"
         style="stroke-width:0.45386502">
        <path
           style="fill:#aab2ab;stroke-width:0.45386502"
           d="m 181.96579,0.51074 114.06396,0.20264 c 1.59375,0 3.01758,-0.23633 3.01758,3.18066 l -0.13965,37.56689 H 179.08737 V 3.75439 c 0,-1.68505 0.16309,-3.24365 2.87842,-3.24365 z"
           nodetypes="ccccccc"
           id="path3817_1_"
           inkscape:connector-curvature="0" />
        <path
           id="path263"
           d="m 297.29636,0 h -116.229 c -1.24658,0 -2.26123,1.01416 -2.26123,2.26074 v 39.49658 c 0,0.28174 0.229,0.51025 0.51074,0.51025 h 119.73047 c 0.28174,0 0.51074,-0.22852 0.51074,-0.51025 V 2.26074 C 299.55807,1.01416 298.54343,0 297.29636,0 Z M 181.06735,1.02148 h 116.229 c 0.68408,0 1.24023,0.55566 1.24023,1.23926 0,0 0,15.94824 0,27.44971 h -83.34424 c -3.04492,5.50586 -8.91113,9.24414 -15.64355,9.24414 -6.73535,0 -12.6001,-3.73486 -15.64355,-9.24414 h -4.07764 c 0,-11.50146 0,-27.44971 0,-27.44971 1e-5,-0.68359 0.55616,-1.23926 1.23975,-1.23926 z"
           inkscape:connector-curvature="0"
           style="stroke-width:0.45386502" />
        <g
           id="g265"
           enable-background="new    "
           style="stroke-width:0.45386502">
          <path
             style="fill:#ffffff;stroke-width:0.45386502"
             id="path267"
             d="m 253.07761,32.95605 c 0.31738,0 0.60742,0.02832 0.87012,0.08398 0.26172,0.05566 0.48535,0.14746 0.67285,0.27539 0.18652,0.12695 0.33203,0.29688 0.43457,0.50781 0.10254,0.21191 0.1543,0.47266 0.1543,0.78418 0,0.33594 -0.0762,0.61523 -0.22949,0.83887 -0.15234,0.22461 -0.37891,0.40723 -0.67773,0.55078 0.41211,0.11816 0.71973,0.3252 0.92285,0.62109 0.20312,0.29589 0.30469,0.65234 0.30469,1.06934 0,0.33594 -0.0654,0.62695 -0.19629,0.87305 -0.13086,0.24512 -0.30762,0.44629 -0.52832,0.60156 -0.22168,0.15625 -0.47461,0.27148 -0.75781,0.3457 -0.28418,0.0752 -0.5752,0.1123 -0.875,0.1123 H 249.936 v -6.66406 h 3.14161 z m -0.1875,2.69532 c 0.26172,0 0.47656,-0.0625 0.64551,-0.18652 0.16797,-0.12402 0.25195,-0.3252 0.25195,-0.60449 0,-0.15527 -0.0283,-0.2832 -0.084,-0.38184 -0.0566,-0.09961 -0.13086,-0.17676 -0.22461,-0.2334 -0.0937,-0.05566 -0.20117,-0.09473 -0.32227,-0.11621 -0.1211,-0.02148 -0.24805,-0.03223 -0.37793,-0.03223 h -1.37402 v 1.55469 z m 0.0859,2.82812 c 0.14355,0 0.28027,-0.01367 0.41113,-0.04199 0.13086,-0.02832 0.24609,-0.0752 0.34668,-0.13965 0.0996,-0.06543 0.17871,-0.1543 0.23828,-0.2666 0.0596,-0.11133 0.0889,-0.25488 0.0889,-0.42871 0,-0.3418 -0.0967,-0.58594 -0.29004,-0.73242 -0.19336,-0.14551 -0.44922,-0.21875 -0.7666,-0.21875 h -1.59961 v 1.82812 z"
             inkscape:connector-curvature="0" />
          <path
             style="fill:#ffffff;stroke-width:0.45386502"
             id="path269"
             d="m 255.78854,32.95605 h 1.64355 l 1.56055,2.63184 1.55078,-2.63184 h 1.63379 l -2.47363,4.10645 v 2.55762 h -1.46875 v -2.59473 z"
             inkscape:connector-curvature="0" />
        </g>
        <g
           transform="matrix(0.872921,0,0,0.872921,50.12536,143.2144)"
           id="g5908_1_"
           style="stroke-width:0.45386502">
          <path
             style="fill:#ffffff;stroke-width:0.45386502"
             d="m 186.90065,-141.46002 c 0.006,8.68079 -7.02786,15.7215 -15.70808,15.72711 -8.68022,0.006 -15.72206,-7.02734 -15.7271,-15.70807 0,-0.006 0,-0.0123 0,-0.019 -0.005,-8.68079 7.02786,-15.7215 15.70808,-15.72656 8.68135,-0.006 15.72206,7.02734 15.7271,15.70813 0,0.006 0,0.0123 0,0.0184 z"
             rx="22.939548"
             type="arc"
             cy="264.3577"
             ry="22.939548"
             cx="296.35416"
             id="path5906_1_"
             inkscape:connector-curvature="0" />
          <g
             transform="translate(-289.6157,99.0653)"
             id="g5706_1_"
             style="stroke-width:0.45386502">
            <path
               d="m 473.57574,-253.32751 c 3.48541,3.48541 5.22839,7.75391 5.22839,12.80219 0,5.04938 -1.71277,9.27203 -5.13831,12.66791 -3.63531,3.5766 -7.93182,5.36432 -12.88947,5.36432 -4.89777,0 -9.11987,-1.77319 -12.66513,-5.31952 -3.54581,-3.54584 -5.31845,-7.78302 -5.31845,-12.71271 0,-4.92859 1.77264,-9.19598 5.31845,-12.80219 3.4552,-3.48651 7.67728,-5.22949 12.66513,-5.22949 5.0483,-10e-6 9.31404,1.74297 12.79939,5.22949 z m -23.11798,2.34484 c -2.94672,2.97638 -4.41953,6.46289 -4.41953,10.46234 0,3.99835 1.45828,7.45526 4.37424,10.37067 2.9165,2.9165 6.38849,4.37421 10.41705,4.37421 4.02856,0 7.53015,-1.47223 10.50653,-4.4184 2.82593,-2.73645 4.23944,-6.17706 4.23944,-10.32648 0,-4.11804 -1.43646,-7.61346 -4.30768,-10.48468 -2.87067,-2.87067 -6.34991,-4.30658 -10.43829,-4.30658 -4.0884,1e-5 -7.54638,1.44318 -10.37176,4.32892 z m 7.75449,8.70319 c -0.45029,-0.98169 -1.1243,-1.47284 -2.02322,-1.47284 -1.58917,0 -2.38345,1.07007 -2.38345,3.20911 0,2.13953 0.79428,3.2085 2.38345,3.2085 1.04938,0 1.79892,-0.52075 2.24866,-1.56451 l 2.20276,1.17297 c -1.04993,1.86548 -2.62509,2.79846 -4.72549,2.79846 -1.6199,0 -2.91763,-0.4967 -3.89206,-1.48901 -0.9761,-0.99341 -1.46274,-2.36273 -1.46274,-4.10852 0,-1.71503 0.50229,-3.07654 1.50748,-4.08502 1.00519,-1.00854 2.25702,-1.51257 3.75781,-1.51257 2.22012,0 3.80981,0.87488 4.77081,2.62286 z m 10.36337,0 c -0.45087,-0.98169 -1.11145,-1.47284 -1.98242,-1.47284 -1.62103,0 -2.43213,1.07007 -2.43213,3.20911 0,2.13953 0.8111,3.2085 2.43213,3.2085 1.05109,0 1.78717,-0.52075 2.20728,-1.56451 l 2.25201,1.17297 c -1.04828,1.86548 -2.62122,2.79846 -4.71771,2.79846 -1.61768,0 -2.9126,-0.4967 -3.88647,-1.48901 -0.97217,-0.99341 -1.45935,-2.36273 -1.45935,-4.10852 0,-1.71503 0.49445,-3.07654 1.48285,-4.08502 0.98785,-1.00854 2.2453,-1.51257 3.7735,-1.51257 2.21619,0 3.80365,0.87488 4.76129,2.62286 z"
               id="path5708_1_"
               inkscape:connector-curvature="0"
               style="stroke-width:0.45386502" />
          </g>
        </g>
        <g
           id="g275"
           style="stroke-width:0.45386502">
          <circle
             style="fill:#ffffff;stroke-width:0.45386502"
             id="circle277"
             r="10.80664"
             cy="15.31348"
             cx="255.55124" />
          <g
             id="g279"
             style="stroke-width:0.45386502">
            <path
               id="path281"
               d="m 258.67819,12.18701 c 0,-0.4165 -0.33789,-0.75391 -0.75293,-0.75391 h -4.77344 c -0.41504,0 -0.75293,0.3374 -0.75293,0.75391 v 4.77295 h 1.33105 v 5.65186 h 3.61719 v -5.65186 h 1.33105 v -4.77295 z"
               inkscape:connector-curvature="0"
               style="stroke-width:0.45386502" />
            <circle
               id="circle283"
               r="1.63281"
               cy="9.1723604"
               cx="255.53854"
               style="stroke-width:0.45386502" />
          </g>
          <path
             style="clip-rule:evenodd;fill-rule:evenodd;stroke-width:0.45386502"
             id="path285"
             d="m 255.5239,3.40723 c -3.23242,0 -5.96875,1.12793 -8.20801,3.38379 -2.29785,2.3335 -3.44629,5.0957 -3.44629,8.28467 0,3.18897 1.14844,5.93164 3.44629,8.22656 2.29785,2.29443 5.03418,3.44189 8.20801,3.44189 3.21289,0 5.99805,-1.15625 8.35352,-3.47119 2.21973,-2.19727 3.33008,-4.92969 3.33008,-8.19727 0,-3.26758 -1.12988,-6.02881 -3.3877,-8.28467 -2.25977,-2.25585 -5.02442,-3.38378 -8.2959,-3.38378 z m 0.0293,2.09961 c 2.64844,0 4.89746,0.93408 6.74707,2.80127 1.86914,1.84717 2.80371,4.10303 2.80371,6.76758 0,2.68359 -0.91504,4.91064 -2.74512,6.68018 -1.92871,1.90625 -4.19629,2.85889 -6.80566,2.85889 -2.61035,0 -4.85938,-0.94287 -6.74707,-2.82959 -1.88965,-1.88672 -2.83301,-4.12305 -2.83301,-6.70947 0,-2.58691 0.9541,-4.84229 2.8623,-6.76758 1.83009,-1.8672 4.06934,-2.80128 6.71778,-2.80128 z"
             inkscape:connector-curvature="0" />
        </g>
      </g>
    </g>
    <text
       id="text4151-0"
       y="-1312.6042"
       x="524.67108"
       style="color:#000000;font-style:normal;font-variant:normal;font-weight:normal;font-stretch:normal;font-size:18.3026px;line-height:0%;font-family:Lavi;-inkscape-font-specification:Lavi;text-indent:0;text-align:center;text-decoration:none;text-decoration-line:none;letter-spacing:0px;word-spacing:0px;text-transform:none;writing-mode:lr-tb;direction:ltr;baseline-shift:baseline;text-anchor:middle;display:inline;overflow:visible;visibility:visible;opacity:0.855;fill:#060404;fill-opacity:1;fill-rule:nonzero;stroke:none;stroke-width:1.11319;enable-background:accumulate"
       xml:space="preserve"
       transform="scale(1.0032295,0.9967809)" />
    <text
       xml:space="preserve"
       style="font-style:normal;font-variant:normal;font-weight:normal;font-stretch:normal;font-size:23.4607px;line-height:0.95;font-family:'Nanum Pen Script OTF';-inkscape-font-specification:'Nanum Pen Script OTF';text-align:center;letter-spacing:0px;word-spacing:0px;text-anchor:middle;display:inline;opacity:0.855;fill:#000000;fill-opacity:1;stroke:none;stroke-width:1.27425;filter:url(#filter4155)"
       x="1841.722"
       y="-769.53821"
       id="text236"
       transform="scale(0.97948259,1.0209472)"><tspan
         sodipodi:role="line"
         x="1841.722"
         y="-769.53821"
         style="font-style:normal;font-variant:normal;font-weight:normal;font-stretch:normal;font-size:63.1773px;font-family:'Nanum Pen Script OTF';-inkscape-font-specification:'Nanum Pen Script OTF';fill:#000000;fill-opacity:1;stroke-width:1.27425"
         id="tspan234">이번 화에 도움을 주신</tspan><tspan
         sodipodi:role="line"
         x="1841.722"
         y="-709.51978"
         style="font-style:normal;font-variant:normal;font-weight:normal;font-stretch:normal;font-size:63.1773px;font-family:'Nanum Pen Script OTF';-inkscape-font-specification:'Nanum Pen Script OTF';fill:#000000;fill-opacity:1;stroke-width:1.27425"
         id="tspan1237">1121명의 후원자분께</tspan><tspan
         sodipodi:role="line"
         x="1841.722"
         y="-649.50134"
         style="font-style:normal;font-variant:normal;font-weight:normal;font-stretch:normal;font-size:63.1773px;font-family:'Nanum Pen Script OTF';-inkscape-font-specification:'Nanum Pen Script OTF';fill:#000000;fill-opacity:1;stroke-width:1.27425"
         id="tspan1239">감사드립니다!</tspan></text>
    <text
       xml:space="preserve"
       style="font-style:normal;font-variant:normal;font-weight:normal;font-stretch:normal;font-size:19.622px;line-height:0.95;font-family:'Nanum Pen Script OTF';-inkscape-font-specification:'Nanum Pen Script OTF';text-align:center;letter-spacing:0px;word-spacing:0px;text-anchor:middle;display:inline;opacity:0.855;fill:#181412;fill-opacity:1;stroke:none;stroke-width:1.40555;filter:url(#filter4155)"
       x="1012.342"
       y="3402.8606"
       id="text1275"><tspan
         sodipodi:role="line"
         x="1012.342"
         y="3402.8606"
         style="font-style:normal;font-variant:normal;font-weight:normal;font-stretch:normal;font-size:52.4738px;font-family:'Nanum Pen Script OTF';-inkscape-font-specification:'Nanum Pen Script OTF';fill:#181412;fill-opacity:1;stroke-width:1.40555"
         id="tspan1273">후원은</tspan><tspan
         sodipodi:role="line"
         x="1012.342"
         y="3452.7107"
         style="font-style:normal;font-variant:normal;font-weight:normal;font-stretch:normal;font-size:52.4738px;font-family:'Nanum Pen Script OTF';-inkscape-font-specification:'Nanum Pen Script OTF';fill:#181412;fill-opacity:1;stroke-width:1.40555"
         id="tspan1283">Patreon, Tipeee,</tspan><tspan
         sodipodi:role="line"
         x="1012.342"
         y="3502.5608"
         style="font-style:normal;font-variant:normal;font-weight:normal;font-stretch:normal;font-size:52.4738px;font-family:'Nanum Pen Script OTF';-inkscape-font-specification:'Nanum Pen Script OTF';fill:#181412;fill-opacity:1;stroke-width:1.40555"
         id="tspan1285">PayPal, Liberapay</tspan><tspan
         sodipodi:role="line"
         x="1012.342"
         y="3552.4109"
         style="font-style:normal;font-variant:normal;font-weight:normal;font-stretch:normal;font-size:52.4738px;font-family:'Nanum Pen Script OTF';-inkscape-font-specification:'Nanum Pen Script OTF';fill:#181412;fill-opacity:1;stroke-width:1.40555"
         id="tspan1287">...등으로 할 수 있어요!</tspan></text>
    <text
       id="text335"
       y="-2084.5691"
       x="1248.1853"
       style="color:#000000;font-style:normal;font-variant:normal;font-weight:normal;font-stretch:normal;font-size:17.1664px;line-height:0.86;font-family:'Nanum Pen Script OTF';-inkscape-font-specification:'Nanum Pen Script OTF';text-indent:0;text-align:center;text-decoration:none;text-decoration-line:none;letter-spacing:0px;word-spacing:0px;text-transform:none;writing-mode:lr-tb;direction:ltr;baseline-shift:baseline;text-anchor:middle;display:inline;overflow:visible;visibility:visible;opacity:0.855;fill:#000000;fill-opacity:1;fill-rule:nonzero;stroke:none;stroke-width:1.4945;enable-background:accumulate"
       xml:space="preserve"
       transform="scale(0.99514974,1.0048739)"><tspan
         style="color:#000000;font-style:normal;font-variant:normal;font-weight:normal;font-stretch:normal;font-size:50.1217px;font-family:'Nanum Pen Script OTF';-inkscape-font-specification:'Nanum Pen Script OTF';text-indent:0;text-align:center;text-decoration:none;text-decoration-line:none;letter-spacing:0px;word-spacing:0px;text-transform:none;writing-mode:lr-tb;direction:ltr;baseline-shift:baseline;text-anchor:middle;display:inline;overflow:visible;visibility:visible;fill:#000000;fill-opacity:1;fill-rule:nonzero;stroke:#000000;stroke-width:1.4945;stroke-opacity:1;enable-background:accumulate"
         sodipodi:role="line"
         id="tspan339"
         x="1248.1853"
         y="-2084.5691">2020년 3월 31일</tspan><tspan
         y="-2036.7582"
         x="1248.1853"
         style="color:#000000;font-style:normal;font-variant:normal;font-weight:normal;font-stretch:normal;font-size:57.2819px;font-family:'Nanum Pen Script OTF';-inkscape-font-specification:'Nanum Pen Script OTF';text-indent:0;text-align:center;text-decoration:none;text-decoration-line:none;letter-spacing:0px;word-spacing:0px;text-transform:none;writing-mode:lr-tb;direction:ltr;baseline-shift:baseline;text-anchor:middle;display:inline;overflow:visible;visibility:visible;fill:#000000;fill-opacity:1;fill-rule:nonzero;stroke:none;stroke-width:1.4945;enable-background:accumulate"
         sodipodi:role="line"
         id="tspan270"> </tspan><tspan
         y="-1987.4958"
         x="1248.1853"
         style="color:#000000;font-style:normal;font-variant:normal;font-weight:normal;font-stretch:normal;font-size:57.2819px;font-family:'Nanum Pen Script OTF';-inkscape-font-specification:'Nanum Pen Script OTF';text-indent:0;text-align:center;text-decoration:none;text-decoration-line:none;letter-spacing:0px;word-spacing:0px;text-transform:none;writing-mode:lr-tb;direction:ltr;baseline-shift:baseline;text-anchor:middle;display:inline;overflow:visible;visibility:visible;fill:#000000;fill-opacity:1;fill-rule:nonzero;stroke:none;stroke-width:1.4945;enable-background:accumulate"
         sodipodi:role="line"
         id="tspan274"><tspan
   style="stroke:#000000;stroke-opacity:1"
   id="tspan1165">그림 및 이야기:</tspan> David Revoy.</tspan><tspan
         y="-1964.6002"
         x="1248.1853"
         sodipodi:role="line"
         id="tspan276"
         style="stroke-width:1.4945" /><tspan
         y="-1949.837"
         x="1248.1853"
         sodipodi:role="line"
         id="tspan278"
         style="stroke-width:1.4945" /><tspan
         y="-1908.7072"
         x="1248.1853"
         style="color:#000000;font-style:normal;font-variant:normal;font-weight:normal;font-stretch:normal;font-size:57.2819px;font-family:'Nanum Pen Script OTF';-inkscape-font-specification:'Nanum Pen Script OTF';text-indent:0;text-align:center;text-decoration:none;text-decoration-line:none;letter-spacing:0px;word-spacing:0px;text-transform:none;writing-mode:lr-tb;direction:ltr;baseline-shift:baseline;text-anchor:middle;display:inline;overflow:visible;visibility:visible;fill:#000000;fill-opacity:1;fill-rule:nonzero;stroke:none;stroke-width:1.4945;enable-background:accumulate"
         sodipodi:role="line"
         id="tspan282"><tspan
   style="stroke:#000000;stroke-opacity:1"
   id="tspan1167">베타 독자:</tspan> Craig Maloney, Martin Disch, Arlo James Barnes,</tspan><tspan
         y="-1859.4447"
         x="1248.1853"
         style="color:#000000;font-style:normal;font-variant:normal;font-weight:normal;font-stretch:normal;font-size:57.2819px;font-family:'Nanum Pen Script OTF';-inkscape-font-specification:'Nanum Pen Script OTF';text-indent:0;text-align:center;text-decoration:none;text-decoration-line:none;letter-spacing:0px;word-spacing:0px;text-transform:none;writing-mode:lr-tb;direction:ltr;baseline-shift:baseline;text-anchor:middle;display:inline;overflow:visible;visibility:visible;fill:#000000;fill-opacity:1;fill-rule:nonzero;stroke:none;stroke-width:1.4945;enable-background:accumulate"
         sodipodi:role="line"
         id="tspan284"> Nicolas Artance, Parnikkapore, Stephen Paul Weber, Valvin, Vejvej.</tspan><tspan
         y="-1810.1823"
         x="1248.1853"
         style="color:#000000;font-style:normal;font-variant:normal;font-weight:normal;font-stretch:normal;font-size:57.2819px;font-family:'Nanum Pen Script OTF';-inkscape-font-specification:'Nanum Pen Script OTF';text-indent:0;text-align:center;text-decoration:none;text-decoration-line:none;letter-spacing:0px;word-spacing:0px;text-transform:none;writing-mode:lr-tb;direction:ltr;baseline-shift:baseline;text-anchor:middle;display:inline;overflow:visible;visibility:visible;fill:#000000;fill-opacity:1;fill-rule:nonzero;stroke:none;stroke-width:1.4945;enable-background:accumulate"
         sodipodi:role="line"
         id="tspan286"> </tspan><tspan
         y="-1760.9198"
         x="1248.1853"
         style="color:#000000;font-style:normal;font-variant:normal;font-weight:normal;font-stretch:normal;font-size:57.2819px;font-family:'Nanum Pen Script OTF';-inkscape-font-specification:'Nanum Pen Script OTF';text-indent:0;text-align:center;text-decoration:none;text-decoration-line:none;letter-spacing:0px;word-spacing:0px;text-transform:none;writing-mode:lr-tb;direction:ltr;baseline-shift:baseline;text-anchor:middle;display:inline;overflow:visible;visibility:visible;fill:#000000;fill-opacity:1;fill-rule:nonzero;stroke:#000000;stroke-width:1.4945;stroke-opacity:1;enable-background:accumulate"
         sodipodi:role="line"
         id="tspan288">한글판</tspan><tspan
         y="-1711.6575"
         x="1248.1853"
         style="color:#000000;font-style:normal;font-variant:normal;font-weight:normal;font-stretch:normal;font-size:50.1217px;font-family:'Nanum Pen Script OTF';-inkscape-font-specification:'Nanum Pen Script OTF';text-indent:0;text-align:center;text-decoration:none;text-decoration-line:none;letter-spacing:0px;word-spacing:0px;text-transform:none;writing-mode:lr-tb;direction:ltr;baseline-shift:baseline;text-anchor:middle;display:inline;overflow:visible;visibility:visible;fill:#000000;fill-opacity:1;fill-rule:nonzero;stroke:none;stroke-width:1.4945;enable-background:accumulate"
         sodipodi:role="line"
         id="tspan297"><tspan
   style="font-style:normal;font-variant:normal;font-weight:normal;font-stretch:normal;font-size:57.2819px;font-family:'Nanum Pen Script OTF';-inkscape-font-specification:'Nanum Pen Script OTF';fill:#000000;fill-opacity:1;stroke-width:1.4945"
   id="tspan290"><tspan
   style="stroke:#000000;stroke-opacity:1"
   id="tspan1181">번역:</tspan> Jihoon Kim</tspan>.</tspan><tspan
         y="-1662.395"
         x="1248.1853"
         style="color:#000000;font-style:normal;font-variant:normal;font-weight:normal;font-stretch:normal;font-size:57.2819px;font-family:'Nanum Pen Script OTF';-inkscape-font-specification:'Nanum Pen Script OTF';text-indent:0;text-align:center;text-decoration:none;text-decoration-line:none;letter-spacing:0px;word-spacing:0px;text-transform:none;writing-mode:lr-tb;direction:ltr;baseline-shift:baseline;text-anchor:middle;display:inline;overflow:visible;visibility:visible;fill:#000000;fill-opacity:1;fill-rule:nonzero;stroke:none;stroke-width:1.4945;enable-background:accumulate"
         sodipodi:role="line"
         id="tspan299"> </tspan><tspan
         y="-1622.5449"
         x="1248.1853"
         style="color:#000000;font-style:normal;font-variant:normal;font-weight:normal;font-stretch:normal;font-size:42.9615px;font-family:'Nanum Pen Script OTF';-inkscape-font-specification:'Nanum Pen Script OTF';text-indent:0;text-align:center;text-decoration:none;text-decoration-line:none;letter-spacing:0px;word-spacing:0px;text-transform:none;writing-mode:lr-tb;direction:ltr;baseline-shift:baseline;text-anchor:middle;display:inline;overflow:visible;visibility:visible;fill:#000000;fill-opacity:1;fill-rule:nonzero;stroke:#000000;stroke-width:1.4945;stroke-opacity:1;enable-background:accumulate"
         sodipodi:role="line"
         id="tspan301">헤레바 세계관을 기반으로 함</tspan><tspan
         y="-1585.598"
         x="1248.1853"
         style="color:#000000;font-style:normal;font-variant:normal;font-weight:normal;font-stretch:normal;font-size:42.9615px;font-family:'Nanum Pen Script OTF';-inkscape-font-specification:'Nanum Pen Script OTF';text-indent:0;text-align:center;text-decoration:none;text-decoration-line:none;letter-spacing:0px;word-spacing:0px;text-transform:none;writing-mode:lr-tb;direction:ltr;baseline-shift:baseline;text-anchor:middle;display:inline;overflow:visible;visibility:visible;fill:#000000;fill-opacity:1;fill-rule:nonzero;stroke:none;stroke-width:1.4945;enable-background:accumulate"
         sodipodi:role="line"
         id="tspan305"><tspan
   style="stroke:#000000;stroke-opacity:1"
   id="tspan1183">원작자:</tspan> David Revoy.</tspan><tspan
         y="-1548.6511"
         x="1248.1853"
         style="color:#000000;font-style:normal;font-variant:normal;font-weight:normal;font-stretch:normal;font-size:42.9615px;font-family:'Nanum Pen Script OTF';-inkscape-font-specification:'Nanum Pen Script OTF';text-indent:0;text-align:center;text-decoration:none;text-decoration-line:none;letter-spacing:0px;word-spacing:0px;text-transform:none;writing-mode:lr-tb;direction:ltr;baseline-shift:baseline;text-anchor:middle;display:inline;overflow:visible;visibility:visible;fill:#000000;fill-opacity:1;fill-rule:nonzero;stroke:none;stroke-width:1.4945;enable-background:accumulate"
         sodipodi:role="line"
         id="tspan309"><tspan
   style="stroke:#000000;stroke-opacity:1"
   id="tspan1185">수석 감독:</tspan> Craig Maloney.</tspan><tspan
         y="-1511.7043"
         x="1248.1853"
         style="color:#000000;font-style:normal;font-variant:normal;font-weight:normal;font-stretch:normal;font-size:42.9615px;font-family:'Nanum Pen Script OTF';-inkscape-font-specification:'Nanum Pen Script OTF';text-indent:0;text-align:center;text-decoration:none;text-decoration-line:none;letter-spacing:0px;word-spacing:0px;text-transform:none;writing-mode:lr-tb;direction:ltr;baseline-shift:baseline;text-anchor:middle;display:inline;overflow:visible;visibility:visible;fill:#000000;fill-opacity:1;fill-rule:nonzero;stroke:none;stroke-width:1.4945;enable-background:accumulate"
         sodipodi:role="line"
         id="tspan313"><tspan
   style="stroke:#000000;stroke-opacity:1"
   id="tspan1187">작가:</tspan> Craig Maloney, Nartance, Scribblemaniac, Valvin.</tspan><tspan
         y="-1470.0511"
         x="1248.1853"
         style="color:#000000;font-style:normal;font-variant:normal;font-weight:normal;font-stretch:normal;font-size:50.1217px;font-family:'Nanum Pen Script OTF';-inkscape-font-specification:'Nanum Pen Script OTF';text-indent:0;text-align:center;text-decoration:none;text-decoration-line:none;letter-spacing:0px;word-spacing:0px;text-transform:none;writing-mode:lr-tb;direction:ltr;baseline-shift:baseline;text-anchor:middle;display:inline;overflow:visible;visibility:visible;fill:#000000;fill-opacity:1;fill-rule:nonzero;stroke:none;stroke-width:1.4945;enable-background:accumulate"
         sodipodi:role="line"
         id="tspan319"><tspan
   style="font-style:normal;font-variant:normal;font-weight:normal;font-stretch:normal;font-size:42.9615px;font-family:'Nanum Pen Script OTF';-inkscape-font-specification:'Nanum Pen Script OTF';fill:#000000;fill-opacity:1;stroke-width:1.4945"
   id="tspan315"><tspan
   style="stroke:#000000;stroke-opacity:1"
   id="tspan1189">수정:</tspan> Willem Sonke, Moini, Hali, CGand, Alex Gryson</tspan>.</tspan><tspan
         y="-1422.2404"
         x="1248.1853"
         style="color:#000000;font-style:normal;font-variant:normal;font-weight:normal;font-stretch:normal;font-size:57.2819px;font-family:'Nanum Pen Script OTF';-inkscape-font-specification:'Nanum Pen Script OTF';text-indent:0;text-align:center;text-decoration:none;text-decoration-line:none;letter-spacing:0px;word-spacing:0px;text-transform:none;writing-mode:lr-tb;direction:ltr;baseline-shift:baseline;text-anchor:middle;display:inline;overflow:visible;visibility:visible;fill:#000000;fill-opacity:1;fill-rule:nonzero;stroke:none;stroke-width:1.4945;enable-background:accumulate"
         sodipodi:role="line"
         id="tspan321"> </tspan><tspan
         y="-1399.3447"
         x="1248.1853"
         sodipodi:role="line"
         id="tspan323"
         style="stroke-width:1.4945" /><tspan
         y="-1362.921"
         x="1248.1853"
         style="color:#000000;font-style:normal;font-variant:normal;font-weight:normal;font-stretch:normal;font-size:50.1217px;font-family:'Nanum Pen Script OTF';-inkscape-font-specification:'Nanum Pen Script OTF';text-indent:0;text-align:center;text-decoration:none;text-decoration-line:none;letter-spacing:0px;word-spacing:0px;text-transform:none;writing-mode:lr-tb;direction:ltr;baseline-shift:baseline;text-anchor:middle;display:inline;overflow:visible;visibility:visible;fill:#000000;fill-opacity:1;fill-rule:nonzero;stroke:none;stroke-width:1.4945;enable-background:accumulate"
         sodipodi:role="line"
         id="tspan327"><tspan
   style="stroke:#000000;stroke-opacity:1"
   id="tspan1191">소프트웨어:</tspan> 쿠분투 19.10에서 크리타 4.2.9-beta, 잉크스케이프 0.92.3 사용.</tspan><tspan
         y="-1319.8163"
         x="1248.1853"
         style="color:#000000;font-style:normal;font-variant:normal;font-weight:normal;font-stretch:normal;font-size:50.1217px;font-family:'Nanum Pen Script OTF';-inkscape-font-specification:'Nanum Pen Script OTF';text-indent:0;text-align:center;text-decoration:none;text-decoration-line:none;letter-spacing:0px;word-spacing:0px;text-transform:none;writing-mode:lr-tb;direction:ltr;baseline-shift:baseline;text-anchor:middle;display:inline;overflow:visible;visibility:visible;fill:#000000;fill-opacity:1;fill-rule:nonzero;stroke:none;stroke-width:1.4945;enable-background:accumulate"
         sodipodi:role="line"
         id="tspan331"
         dy="0 0 0 0 0"><tspan
   style="stroke:#000000;stroke-opacity:1"
   id="tspan1193"
   dy="0">라이선스:</tspan> 크리에이티브 커먼즈 저작자표시 4.0.</tspan><tspan
         y="-1272.0055"
         x="1248.1853"
         style="color:#000000;font-style:normal;font-variant:normal;font-weight:normal;font-stretch:normal;font-size:57.2819px;font-family:'Nanum Pen Script OTF';-inkscape-font-specification:'Nanum Pen Script OTF';text-indent:0;text-align:center;text-decoration:none;text-decoration-line:none;letter-spacing:0px;word-spacing:0px;text-transform:none;writing-mode:lr-tb;direction:ltr;baseline-shift:baseline;text-anchor:middle;display:inline;overflow:visible;visibility:visible;fill:#000000;fill-opacity:1;fill-rule:nonzero;stroke:none;stroke-width:1.4945;enable-background:accumulate"
         sodipodi:role="line"
         id="tspan333">www.peppercarrot.com</tspan></text>
    <text
       xml:space="preserve"
       style="font-style:normal;font-variant:normal;font-weight:normal;font-stretch:normal;line-height:0%;font-family:'Nanum Pen Script OTF';-inkscape-font-specification:'Nanum Pen Script OTF';text-align:center;letter-spacing:0px;word-spacing:0px;text-anchor:middle;fill:#000000;fill-opacity:1;stroke:none;"
       x="1258.3041"
       y="-504.4682"
       id="text162" />
    <text
       xml:space="preserve"
       style="color:#000000;font-style:normal;font-variant:normal;font-weight:normal;font-stretch:normal;line-height:0%;font-family:'Nanum Pen Script OTF';-inkscape-font-specification:'Nanum Pen Script OTF';text-indent:0;text-align:center;text-decoration:none;text-decoration-line:none;letter-spacing:0px;word-spacing:0px;text-transform:none;writing-mode:lr-tb;direction:ltr;baseline-shift:baseline;text-anchor:middle;display:inline;overflow:visible;visibility:visible;opacity:0.855;fill:#020101;fill-opacity:1;fill-rule:nonzero;stroke:none;enable-background:accumulate;"
       x="1991.2159"
       y="-910.79004"
       id="text164" />
    <text
       xml:space="preserve"
       style="font-style:normal;font-variant:normal;font-weight:normal;font-stretch:normal;line-height:0%;font-family:'Nanum Pen Script OTF';-inkscape-font-specification:'Nanum Pen Script OTF';text-align:center;letter-spacing:0px;word-spacing:0px;text-anchor:middle;display:inline;opacity:0.855;fill:#000000;fill-opacity:1;stroke:none;"
       x="1261.562"
       y="-551.26312"
       id="text166" />
    <text
       id="text168"
       y="-1150.819"
       x="1280.0332"
       style="font-style:normal;font-variant:normal;font-weight:normal;font-stretch:normal;line-height:0%;font-family:'Nanum Pen Script OTF';-inkscape-font-specification:'Nanum Pen Script OTF';text-align:center;letter-spacing:0px;word-spacing:0px;text-anchor:middle;display:inline;opacity:0.855;fill:#241c1c;fill-opacity:1;stroke:none;"
       xml:space="preserve" />
    <text
       xml:space="preserve"
       style="font-style:normal;font-variant:normal;font-weight:normal;font-stretch:normal;font-size:23.5631px;line-height:0.95;font-family:'Nanum Pen Script OTF';-inkscape-font-specification:'Nanum Pen Script OTF';text-align:center;letter-spacing:0px;word-spacing:0px;text-anchor:middle;display:inline;opacity:0.855;fill:#000000;fill-opacity:1;stroke:none;stroke-width:1.378;stroke-miterlimit:4;stroke-dasharray:none;filter:url(#filter4155)"
       x="634.05878"
       y="3349.7251"
       id="text182"
       transform="scale(0.99748275,1.0025236)"><tspan
         sodipodi:role="line"
         x="634.05878"
         y="3349.7251"
         style="font-style:normal;font-variant:normal;font-weight:normal;font-stretch:normal;font-size:66.1339px;font-family:'Nanum Pen Script OTF';-inkscape-font-specification:'Nanum Pen Script OTF';fill:#000000;fill-opacity:1;stroke-width:1.378;stroke-miterlimit:4;stroke-dasharray:none"
         id="tspan180">여러분도</tspan><tspan
         sodipodi:role="line"
         x="634.05878"
         y="3412.5522"
         style="font-style:normal;font-variant:normal;font-weight:normal;font-stretch:normal;font-size:66.1339px;font-family:'Nanum Pen Script OTF';-inkscape-font-specification:'Nanum Pen Script OTF';fill:#000000;fill-opacity:1;stroke-width:1.378;stroke-miterlimit:4;stroke-dasharray:none"
         id="tspan1250">후추와 당근의</tspan><tspan
         sodipodi:role="line"
         x="634.05878"
         y="3475.3794"
         style="font-style:normal;font-variant:normal;font-weight:normal;font-stretch:normal;font-size:66.1339px;font-family:'Nanum Pen Script OTF';-inkscape-font-specification:'Nanum Pen Script OTF';fill:#000000;fill-opacity:1;stroke-width:1.378;stroke-miterlimit:4;stroke-dasharray:none"
         id="tspan1252">후원자가 되어서</tspan><tspan
         sodipodi:role="line"
         x="634.05878"
         y="3538.2068"
         style="font-style:normal;font-variant:normal;font-weight:normal;font-stretch:normal;font-size:66.1339px;font-family:'Nanum Pen Script OTF';-inkscape-font-specification:'Nanum Pen Script OTF';fill:#000000;fill-opacity:1;stroke:#000000;stroke-width:1.378;stroke-miterlimit:4;stroke-dasharray:none;stroke-opacity:1"
         id="tspan1254">여기에 이름을</tspan><tspan
         sodipodi:role="line"
         x="634.05878"
         y="3601.0339"
         style="font-style:normal;font-variant:normal;font-weight:normal;font-stretch:normal;font-size:66.1339px;font-family:'Nanum Pen Script OTF';-inkscape-font-specification:'Nanum Pen Script OTF';fill:#000000;fill-opacity:1;stroke:#000000;stroke-width:1.378;stroke-miterlimit:4;stroke-dasharray:none;stroke-opacity:1"
         id="tspan1256">올려보세요!</tspan></text>
    <text
       xml:space="preserve"
       style="font-style:normal;font-variant:normal;font-weight:normal;font-stretch:normal;font-size:19.1661px;line-height:0.95;font-family:'Nanum Pen Script OTF';-inkscape-font-specification:'Nanum Pen Script OTF';text-align:center;letter-spacing:0px;word-spacing:0px;text-anchor:middle;display:inline;opacity:0.855;fill:#000000;fill-opacity:1;stroke:none;stroke-width:1.29031;filter:url(#filter4155)"
       x="1465.7368"
       y="-865.34406"
       id="text192"
       transform="scale(0.96265765,1.0387909)"><tspan
         sodipodi:role="line"
         x="1465.7368"
         y="-865.34406"
         style="font-style:normal;font-variant:normal;font-weight:normal;font-stretch:normal;font-size:51.6123px;font-family:'Nanum Pen Script OTF';-inkscape-font-specification:'Nanum Pen Script OTF';fill:#000000;fill-opacity:1;stroke-width:1.29031"
         id="tspan190">후추와 당근은 완전히</tspan><tspan
         sodipodi:role="line"
         x="1465.7368"
         y="-816.31238"
         style="font-style:normal;font-variant:normal;font-weight:normal;font-stretch:normal;font-size:51.6123px;font-family:'Nanum Pen Script OTF';-inkscape-font-specification:'Nanum Pen Script OTF';fill:#000000;fill-opacity:1;stroke-width:1.29031"
         id="tspan1226">자유 오픈소스이고</tspan><tspan
         sodipodi:role="line"
         x="1465.7368"
         y="-767.2807"
         style="font-style:normal;font-variant:normal;font-weight:normal;font-stretch:normal;font-size:51.6123px;font-family:'Nanum Pen Script OTF';-inkscape-font-specification:'Nanum Pen Script OTF';fill:#000000;fill-opacity:1;stroke-width:1.29031"
         id="tspan1228">독자들의 후원을 받아</tspan><tspan
         sodipodi:role="line"
         x="1465.7368"
         y="-718.24902"
         style="font-style:normal;font-variant:normal;font-weight:normal;font-stretch:normal;font-size:51.6123px;font-family:'Nanum Pen Script OTF';-inkscape-font-specification:'Nanum Pen Script OTF';fill:#000000;fill-opacity:1;stroke-width:1.29031"
         id="tspan1230">운영하고 있습니다.</tspan></text>
    <g
       id="g226"
       inkscape:label="Layer 1"
       transform="matrix(2.2032985,0,0,2.2032985,1108.3021,-1214.7884)"
       style="opacity:0.60700001;stroke-width:0.45386502;">
      <g
         inkscape:export-ydpi="300.23013"
         inkscape:export-xdpi="300.23013"
         inkscape:export-filename="/mnt/hgfs/Bov/Documents/Work/2007/cc/identity/srr buttons/big/by.png"
         id="g224"
         transform="matrix(0.9937728,0,0,0.9936696,-177.69267,6.25128e-7)"
         style="stroke-width:0.45386502;">
        <path
           style="fill:#aab2ab;stroke-width:0.45386502;"
           d="m 181.96579,0.51074 114.06396,0.20264 c 1.59375,0 3.01758,-0.23633 3.01758,3.18066 l -0.13965,37.56689 H 179.08737 V 3.75439 c 0,-1.68505 0.16309,-3.24365 2.87842,-3.24365 z"
           nodetypes="ccccccc"
           id="path194"
           inkscape:connector-curvature="0" />
        <path
           id="path196"
           d="m 297.29636,0 h -116.229 c -1.24658,0 -2.26123,1.01416 -2.26123,2.26074 v 39.49658 c 0,0.28174 0.229,0.51025 0.51074,0.51025 h 119.73047 c 0.28174,0 0.51074,-0.22852 0.51074,-0.51025 V 2.26074 C 299.55807,1.01416 298.54343,0 297.29636,0 Z M 181.06735,1.02148 h 116.229 c 0.68408,0 1.24023,0.55566 1.24023,1.23926 0,0 0,15.94824 0,27.44971 h -83.34424 c -3.04492,5.50586 -8.91113,9.24414 -15.64355,9.24414 -6.73535,0 -12.6001,-3.73486 -15.64355,-9.24414 h -4.07764 c 0,-11.50146 0,-27.44971 0,-27.44971 1e-5,-0.68359 0.55616,-1.23926 1.23975,-1.23926 z"
           inkscape:connector-curvature="0"
           style="stroke-width:0.45386502;" />
        <g
           id="g202"
           enable-background="new    "
           style="stroke-width:0.45386502;">
          <path
             style="fill:#ffffff;stroke-width:0.45386502;"
             id="path198"
             d="m 253.07761,32.95605 c 0.31738,0 0.60742,0.02832 0.87012,0.08398 0.26172,0.05566 0.48535,0.14746 0.67285,0.27539 0.18652,0.12695 0.33203,0.29688 0.43457,0.50781 0.10254,0.21191 0.1543,0.47266 0.1543,0.78418 0,0.33594 -0.0762,0.61523 -0.22949,0.83887 -0.15234,0.22461 -0.37891,0.40723 -0.67773,0.55078 0.41211,0.11816 0.71973,0.3252 0.92285,0.62109 0.20312,0.29589 0.30469,0.65234 0.30469,1.06934 0,0.33594 -0.0654,0.62695 -0.19629,0.87305 -0.13086,0.24512 -0.30762,0.44629 -0.52832,0.60156 -0.22168,0.15625 -0.47461,0.27148 -0.75781,0.3457 -0.28418,0.0752 -0.5752,0.1123 -0.875,0.1123 H 249.936 v -6.66406 h 3.14161 z m -0.1875,2.69532 c 0.26172,0 0.47656,-0.0625 0.64551,-0.18652 0.16797,-0.12402 0.25195,-0.3252 0.25195,-0.60449 0,-0.15527 -0.0283,-0.2832 -0.084,-0.38184 -0.0566,-0.09961 -0.13086,-0.17676 -0.22461,-0.2334 -0.0937,-0.05566 -0.20117,-0.09473 -0.32227,-0.11621 -0.1211,-0.02148 -0.24805,-0.03223 -0.37793,-0.03223 h -1.37402 v 1.55469 z m 0.0859,2.82812 c 0.14355,0 0.28027,-0.01367 0.41113,-0.04199 0.13086,-0.02832 0.24609,-0.0752 0.34668,-0.13965 0.0996,-0.06543 0.17871,-0.1543 0.23828,-0.2666 0.0596,-0.11133 0.0889,-0.25488 0.0889,-0.42871 0,-0.3418 -0.0967,-0.58594 -0.29004,-0.73242 -0.19336,-0.14551 -0.44922,-0.21875 -0.7666,-0.21875 h -1.59961 v 1.82812 z"
             inkscape:connector-curvature="0" />
          <path
             style="fill:#ffffff;stroke-width:0.45386502;"
             id="path200"
             d="m 255.78854,32.95605 h 1.64355 l 1.56055,2.63184 1.55078,-2.63184 h 1.63379 l -2.47363,4.10645 v 2.55762 h -1.46875 v -2.59473 z"
             inkscape:connector-curvature="0" />
        </g>
        <g
           transform="matrix(0.872921,0,0,0.872921,50.12536,143.2144)"
           id="g210"
           style="stroke-width:0.45386502;">
          <path
             style="fill:#ffffff;stroke-width:0.45386502;"
             d="m 186.90065,-141.46002 c 0.006,8.68079 -7.02786,15.7215 -15.70808,15.72711 -8.68022,0.006 -15.72206,-7.02734 -15.7271,-15.70807 0,-0.006 0,-0.0123 0,-0.019 -0.005,-8.68079 7.02786,-15.7215 15.70808,-15.72656 8.68135,-0.006 15.72206,7.02734 15.7271,15.70813 0,0.006 0,0.0123 0,0.0184 z"
             rx="22.939548"
             type="arc"
             cy="264.3577"
             ry="22.939548"
             cx="296.35416"
             id="path204"
             inkscape:connector-curvature="0" />
          <g
             transform="translate(-289.6157,99.0653)"
             id="g208"
             style="stroke-width:0.45386502;">
            <path
               d="m 473.57574,-253.32751 c 3.48541,3.48541 5.22839,7.75391 5.22839,12.80219 0,5.04938 -1.71277,9.27203 -5.13831,12.66791 -3.63531,3.5766 -7.93182,5.36432 -12.88947,5.36432 -4.89777,0 -9.11987,-1.77319 -12.66513,-5.31952 -3.54581,-3.54584 -5.31845,-7.78302 -5.31845,-12.71271 0,-4.92859 1.77264,-9.19598 5.31845,-12.80219 3.4552,-3.48651 7.67728,-5.22949 12.66513,-5.22949 5.0483,-10e-6 9.31404,1.74297 12.79939,5.22949 z m -23.11798,2.34484 c -2.94672,2.97638 -4.41953,6.46289 -4.41953,10.46234 0,3.99835 1.45828,7.45526 4.37424,10.37067 2.9165,2.9165 6.38849,4.37421 10.41705,4.37421 4.02856,0 7.53015,-1.47223 10.50653,-4.4184 2.82593,-2.73645 4.23944,-6.17706 4.23944,-10.32648 0,-4.11804 -1.43646,-7.61346 -4.30768,-10.48468 -2.87067,-2.87067 -6.34991,-4.30658 -10.43829,-4.30658 -4.0884,1e-5 -7.54638,1.44318 -10.37176,4.32892 z m 7.75449,8.70319 c -0.45029,-0.98169 -1.1243,-1.47284 -2.02322,-1.47284 -1.58917,0 -2.38345,1.07007 -2.38345,3.20911 0,2.13953 0.79428,3.2085 2.38345,3.2085 1.04938,0 1.79892,-0.52075 2.24866,-1.56451 l 2.20276,1.17297 c -1.04993,1.86548 -2.62509,2.79846 -4.72549,2.79846 -1.6199,0 -2.91763,-0.4967 -3.89206,-1.48901 -0.9761,-0.99341 -1.46274,-2.36273 -1.46274,-4.10852 0,-1.71503 0.50229,-3.07654 1.50748,-4.08502 1.00519,-1.00854 2.25702,-1.51257 3.75781,-1.51257 2.22012,0 3.80981,0.87488 4.77081,2.62286 z m 10.36337,0 c -0.45087,-0.98169 -1.11145,-1.47284 -1.98242,-1.47284 -1.62103,0 -2.43213,1.07007 -2.43213,3.20911 0,2.13953 0.8111,3.2085 2.43213,3.2085 1.05109,0 1.78717,-0.52075 2.20728,-1.56451 l 2.25201,1.17297 c -1.04828,1.86548 -2.62122,2.79846 -4.71771,2.79846 -1.61768,0 -2.9126,-0.4967 -3.88647,-1.48901 -0.97217,-0.99341 -1.45935,-2.36273 -1.45935,-4.10852 0,-1.71503 0.49445,-3.07654 1.48285,-4.08502 0.98785,-1.00854 2.2453,-1.51257 3.7735,-1.51257 2.21619,0 3.80365,0.87488 4.76129,2.62286 z"
               id="path206"
               inkscape:connector-curvature="0"
               style="stroke-width:0.45386502;" />
          </g>
        </g>
        <g
           id="g222"
           style="stroke-width:0.45386502;">
          <circle
             style="fill:#ffffff;stroke-width:0.45386502;"
             id="circle212"
             r="10.80664"
             cy="15.31348"
             cx="255.55124" />
          <g
             id="g218"
             style="stroke-width:0.45386502;">
            <path
               id="path214"
               d="m 258.67819,12.18701 c 0,-0.4165 -0.33789,-0.75391 -0.75293,-0.75391 h -4.77344 c -0.41504,0 -0.75293,0.3374 -0.75293,0.75391 v 4.77295 h 1.33105 v 5.65186 h 3.61719 v -5.65186 h 1.33105 v -4.77295 z"
               inkscape:connector-curvature="0"
               style="stroke-width:0.45386502;" />
            <circle
               id="circle216"
               r="1.63281"
               cy="9.1723604"
               cx="255.53854"
               style="stroke-width:0.45386502;" />
          </g>
          <path
             style="clip-rule:evenodd;fill-rule:evenodd;stroke-width:0.45386502;"
             id="path220"
             d="m 255.5239,3.40723 c -3.23242,0 -5.96875,1.12793 -8.20801,3.38379 -2.29785,2.3335 -3.44629,5.0957 -3.44629,8.28467 0,3.18897 1.14844,5.93164 3.44629,8.22656 2.29785,2.29443 5.03418,3.44189 8.20801,3.44189 3.21289,0 5.99805,-1.15625 8.35352,-3.47119 2.21973,-2.19727 3.33008,-4.92969 3.33008,-8.19727 0,-3.26758 -1.12988,-6.02881 -3.3877,-8.28467 -2.25977,-2.25585 -5.02442,-3.38378 -8.2959,-3.38378 z m 0.0293,2.09961 c 2.64844,0 4.89746,0.93408 6.74707,2.80127 1.86914,1.84717 2.80371,4.10303 2.80371,6.76758 0,2.68359 -0.91504,4.91064 -2.74512,6.68018 -1.92871,1.90625 -4.19629,2.85889 -6.80566,2.85889 -2.61035,0 -4.85938,-0.94287 -6.74707,-2.82959 -1.88965,-1.88672 -2.83301,-4.12305 -2.83301,-6.70947 0,-2.58691 0.9541,-4.84229 2.8623,-6.76758 1.83009,-1.8672 4.06934,-2.80128 6.71778,-2.80128 z"
             inkscape:connector-curvature="0" />
        </g>
      </g>
    </g>
    <text
       id="text228"
       y="-1312.6042"
       x="524.67108"
       style="color:#000000;font-style:normal;font-variant:normal;font-weight:normal;font-stretch:normal;font-size:18.3026px;line-height:0%;font-family:'Nanum Pen Script OTF';-inkscape-font-specification:'Nanum Pen Script OTF';text-indent:0;text-align:center;text-decoration:none;text-decoration-line:none;letter-spacing:0px;word-spacing:0px;text-transform:none;writing-mode:lr-tb;direction:ltr;baseline-shift:baseline;text-anchor:middle;display:inline;overflow:visible;visibility:visible;opacity:0.855;fill:#060404;fill-opacity:1;fill-rule:nonzero;stroke:none;stroke-width:1.11319;enable-background:accumulate;"
       xml:space="preserve"
       transform="scale(1.0032295,0.9967809)" />
    <text
       xml:space="preserve"
       style="font-style:normal;font-variant:normal;font-weight:normal;font-stretch:normal;font-size:16.2862px;line-height:0.95;font-family:'Nanum Pen Script OTF';-inkscape-font-specification:'Nanum Pen Script OTF';text-align:center;letter-spacing:0px;word-spacing:0px;text-anchor:middle;display:inline;opacity:0.855;fill:#100e0c;fill-opacity:1;stroke:none;stroke-width:1.35719;filter:url(#filter4155)"
       x="1410.6747"
       y="3487.3262"
       id="text244"><tspan
         sodipodi:role="line"
         x="1410.6747"
         y="3487.3262"
         style="font-style:normal;font-variant:normal;font-weight:normal;font-stretch:normal;font-size:50.6682px;font-family:'Nanum Pen Script OTF';-inkscape-font-specification:'Nanum Pen Script OTF';fill:#100e0c;fill-opacity:1;stroke-width:1.35719"
         id="tspan242">자세한 내용은</tspan><tspan
         sodipodi:role="line"
         x="1410.6747"
         y="3535.4609"
         style="font-style:normal;font-variant:normal;font-weight:normal;font-stretch:normal;font-size:50.6682px;font-family:'Nanum Pen Script OTF';-inkscape-font-specification:'Nanum Pen Script OTF';fill:#100e0c;fill-opacity:1;stroke-width:1.35719"
         id="tspan1293">www.peppercarrot.com을</tspan><tspan
         sodipodi:role="line"
         x="1410.6747"
         y="3583.5957"
         style="font-style:normal;font-variant:normal;font-weight:normal;font-stretch:normal;font-size:50.6682px;font-family:'Nanum Pen Script OTF';-inkscape-font-specification:'Nanum Pen Script OTF';fill:#100e0c;fill-opacity:1;stroke-width:1.35719"
         id="tspan1295">참고하세요!</tspan></text>
    <text
       xml:space="preserve"
       style="font-style:normal;font-variant:normal;font-weight:normal;font-stretch:normal;font-size:13.3074px;line-height:0%;font-family:'Nanum Pen Script OTF';-inkscape-font-specification:'Nanum Pen Script OTF';text-align:center;letter-spacing:0px;word-spacing:0px;text-anchor:middle;display:inline;opacity:0.855;fill:#000000;fill-opacity:1;stroke:none;stroke-width:1.2874;filter:url(#filter4155)"
       x="2200.5295"
       y="3714.9485"
       id="text260"><tspan
         sodipodi:role="line"
         x="2200.5295"
         y="3714.9485"
         style="font-style:normal;font-variant:normal;font-weight:normal;font-stretch:normal;font-size:41.1967px;line-height:1.25;font-family:'Nanum Pen Script OTF';-inkscape-font-specification:'Nanum Pen Script OTF';fill:#000000;fill-opacity:1;stroke-width:1.2874"
         id="tspan256">감사합니다!</tspan><tspan
         sodipodi:role="line"
         x="2200.5295"
         y="3734.3579"
         id="tspan258"
         style="stroke-width:1.2874" /></text>
    <text
       xml:space="preserve"
       style="font-style:normal;font-variant:normal;font-weight:normal;font-stretch:normal;font-size:23.3874px;line-height:0.9;font-family:'Nanum Pen Script OTF';-inkscape-font-specification:'Nanum Pen Script OTF';text-align:center;letter-spacing:0px;word-spacing:0px;text-anchor:middle;display:inline;opacity:0.855;fill:#000000;fill-opacity:1;stroke:none;stroke-width:1.36479;filter:url(#filter4155)"
       x="1172.9197"
       y="-902.74329"
       id="text266"
       transform="scale(0.96265764,1.0387909)"><tspan
         sodipodi:role="line"
         x="1172.9197"
         y="-902.74329"
         style="font-style:normal;font-variant:normal;font-weight:normal;font-stretch:normal;font-size:62.98px;font-family:'Nanum Pen Script OTF';-inkscape-font-specification:'Nanum Pen Script OTF';fill:#000000;fill-opacity:1;stroke-width:1.36479"
         id="tspan264">그거</tspan><tspan
         sodipodi:role="line"
         x="1172.9197"
         y="-846.06128"
         style="font-style:normal;font-variant:normal;font-weight:normal;font-stretch:normal;font-size:62.98px;font-family:'Nanum Pen Script OTF';-inkscape-font-specification:'Nanum Pen Script OTF';fill:#000000;fill-opacity:1;stroke-width:1.36479"
         id="tspan1215">아세요?</tspan></text>
  </g>
  <g
     inkscape:groupmode="layer"
     id="layer4"
     inkscape:label="notes"
     style="opacity:0.55699978"
     transform="translate(0,850)"
     sodipodi:insensitive="true">
    <path
       style="color:#000000;clip-rule:nonzero;display:inline;overflow:visible;visibility:visible;opacity:1;isolation:auto;mix-blend-mode:normal;color-interpolation:sRGB;color-interpolation-filters:linearRGB;solid-color:#000000;solid-opacity:1;fill:#fff3c0;fill-opacity:1;fill-rule:nonzero;stroke:#565656;stroke-width:1.20000005;stroke-linecap:butt;stroke-linejoin:miter;stroke-miterlimit:4;stroke-dasharray:none;stroke-dashoffset:0;stroke-opacity:1;marker:none;color-rendering:auto;image-rendering:auto;shape-rendering:auto;text-rendering:auto;enable-background:accumulate"
       d="M -574.6862,-488.95855 V -197.9117 H -69.701155 V -488.95855 Z"
       id="rect4191-6"
       inkscape:connector-curvature="0"
       sodipodi:nodetypes="ccccc" />
    <path
       sodipodi:nodetypes="ccccc"
       inkscape:connector-curvature="0"
       id="path1126"
       d="M -574.6862,-67.041416 V 45.107424 H -69.701155 V -67.041416 Z"
       style="color:#000000;clip-rule:nonzero;display:inline;overflow:visible;visibility:visible;opacity:1;isolation:auto;mix-blend-mode:normal;color-interpolation:sRGB;color-interpolation-filters:linearRGB;solid-color:#000000;solid-opacity:1;fill:#fff3c0;fill-opacity:1;fill-rule:nonzero;stroke:#565656;stroke-width:1.20000005;stroke-linecap:butt;stroke-linejoin:miter;stroke-miterlimit:4;stroke-dasharray:none;stroke-dashoffset:0;stroke-opacity:1;marker:none;color-rendering:auto;image-rendering:auto;shape-rendering:auto;text-rendering:auto;enable-background:accumulate" />
    <rect
       ry="6.828125"
       rx="6.828125"
       y="-42.801579"
       x="-550.34448"
       height="40.609375"
       width="40.609375"
       id="rect1119"
       style="opacity:1;vector-effect:none;fill:#ffffff;fill-opacity:1;fill-rule:nonzero;stroke:#565656;stroke-width:2;stroke-linecap:butt;stroke-linejoin:miter;stroke-miterlimit:4;stroke-dasharray:none;stroke-dashoffset:0;stroke-opacity:1;paint-order:fill markers stroke" />
    <flowRoot
       xml:space="preserve"
       id="flowRoot4212-7"
       style="font-style:normal;font-variant:normal;font-weight:normal;font-stretch:normal;font-size:32.5133px;line-height:0.01%;font-family:Lavi;-inkscape-font-specification:'Lavi, Normal';font-variant-ligatures:normal;font-variant-caps:normal;font-variant-numeric:normal;font-feature-settings:normal;text-align:center;letter-spacing:0px;word-spacing:0px;writing-mode:lr-tb;text-anchor:middle;display:inline;opacity:0.86;fill:#000000;fill-opacity:1;stroke:none;stroke-width:0.903147px;stroke-linecap:butt;stroke-linejoin:miter;stroke-opacity:1"
       transform="matrix(1.1072392,0,0,1.1072392,-254.26383,-1642.0391)"><flowRegion
         id="flowRegion4214-5"
         style="font-style:normal;font-variant:normal;font-weight:normal;font-stretch:normal;font-size:32.5133px;font-family:Lavi;-inkscape-font-specification:'Lavi, Normal';font-variant-ligatures:normal;font-variant-caps:normal;font-variant-numeric:normal;font-feature-settings:normal;text-align:center;writing-mode:lr-tb;text-anchor:middle;stroke-width:0.903147px"><rect
           id="rect4216-3"
           width="426.3205"
           height="405.5687"
           x="-275.14545"
           y="1061.6674"
           style="font-style:normal;font-variant:normal;font-weight:normal;font-stretch:normal;font-size:32.51329803px;font-family:Lavi;-inkscape-font-specification:'Lavi, Normal';font-variant-ligatures:normal;font-variant-caps:normal;font-variant-numeric:normal;font-feature-settings:normal;text-align:center;writing-mode:lr-tb;text-anchor:middle;stroke-width:0.90314716px" /></flowRegion><flowPara
         style="font-style:normal;font-variant:normal;font-weight:bold;font-stretch:normal;font-size:24.0839px;line-height:1.25;font-family:Lavi;-inkscape-font-specification:'Lavi, Normal';font-variant-ligatures:normal;font-variant-caps:normal;font-variant-numeric:normal;font-feature-settings:normal;text-align:center;writing-mode:lr-tb;text-anchor:middle;stroke-width:0.903147px"
         id="flowPara885">NOTE FOR TRANSLATORS</flowPara><flowPara
         style="font-style:normal;font-variant:normal;font-weight:normal;font-stretch:normal;font-size:12.042px;line-height:1.25;font-family:Lavi;-inkscape-font-specification:'Lavi, Normal';font-variant-ligatures:normal;font-variant-caps:normal;font-variant-numeric:normal;font-feature-settings:normal;text-align:center;writing-mode:lr-tb;text-anchor:middle;stroke-width:0.903147px"
         id="flowPara145"> </flowPara><flowPara
         style="font-style:normal;font-variant:normal;font-weight:normal;font-stretch:normal;font-size:32.5133px;line-height:1.25;font-family:Lavi;-inkscape-font-specification:'Lavi, Normal';font-variant-ligatures:normal;font-variant-caps:normal;font-variant-numeric:normal;font-feature-settings:normal;text-align:center;writing-mode:lr-tb;text-anchor:middle;stroke-width:0.903147px"
         id="flowPara877" /><flowPara
         style="font-style:normal;font-variant:normal;font-weight:normal;font-stretch:normal;font-size:32.5133px;line-height:1.25;font-family:Lavi;-inkscape-font-specification:'Lavi, Normal';font-variant-ligatures:normal;font-variant-caps:normal;font-variant-numeric:normal;font-feature-settings:normal;text-align:center;writing-mode:lr-tb;text-anchor:middle;stroke-width:0.903147px"
         id="flowPara542">Replace this section, e.g.:</flowPara><flowPara
         style="font-style:normal;font-variant:normal;font-weight:normal;font-stretch:normal;font-size:12.042px;line-height:1.25;font-family:Lavi;-inkscape-font-specification:'Lavi, Normal';font-variant-ligatures:normal;font-variant-caps:normal;font-variant-numeric:normal;font-feature-settings:normal;text-align:center;writing-mode:lr-tb;text-anchor:middle;stroke-width:0.903147px"
         id="flowPara552"> </flowPara><flowPara
         style="font-style:normal;font-variant:normal;font-weight:bold;font-stretch:normal;font-size:32.5133px;line-height:1.25;font-family:Lavi;-inkscape-font-specification:'Lavi, Normal';font-variant-ligatures:normal;font-variant-caps:normal;font-variant-numeric:normal;font-feature-settings:normal;text-align:center;writing-mode:lr-tb;text-anchor:middle;stroke-width:0.903147px"
         id="flowPara544">French version</flowPara><flowPara
         style="font-style:normal;font-variant:normal;font-weight:normal;font-stretch:normal;font-size:32.5133px;line-height:1.25;font-family:Lavi;-inkscape-font-specification:'Lavi, Normal';font-variant-ligatures:normal;font-variant-caps:normal;font-variant-numeric:normal;font-feature-settings:normal;text-align:center;writing-mode:lr-tb;text-anchor:middle;stroke-width:0.903147px"
         id="flowPara554"><flowSpan
   style="font-weight:bold"
   id="flowSpan155">Translation:</flowSpan> My Name.</flowPara><flowPara
         style="font-style:normal;font-variant:normal;font-weight:normal;font-stretch:normal;font-size:32.5133px;line-height:1.25;font-family:Lavi;-inkscape-font-specification:'Lavi, Normal';font-variant-ligatures:normal;font-variant-caps:normal;font-variant-numeric:normal;font-feature-settings:normal;text-align:center;writing-mode:lr-tb;text-anchor:middle;stroke-width:0.903147px"
         id="flowPara1038"><flowSpan
   style="font-weight:bold"
   id="flowSpan157">Proofreading:</flowSpan> Other Name.</flowPara></flowRoot>
    <flowRoot
       xml:space="preserve"
       id="flowRoot147"
       style="font-style:normal;font-variant:normal;font-weight:normal;font-stretch:normal;font-size:13.3333px;line-height:140%;font-family:sans-serif;-inkscape-font-specification:'sans-serif, Normal';font-variant-ligatures:normal;font-variant-caps:normal;font-variant-numeric:normal;font-feature-settings:normal;text-align:center;letter-spacing:0px;word-spacing:0px;writing-mode:lr-tb;text-anchor:middle;fill:#000000;fill-opacity:1;stroke:none;stroke-width:1px;stroke-linecap:butt;stroke-linejoin:miter;stroke-opacity:1"
       transform="translate(0,-850)"><flowRegion
         id="flowRegion149"><rect
           id="rect151"
           width="127.9375"
           height="74.75"
           x="-209.875"
           y="445.68756" /></flowRegion><flowPara
         id="flowPara153" /></flowRoot>
    <rect
       style="opacity:1;vector-effect:none;fill:#ffffff;fill-opacity:1;fill-rule:nonzero;stroke:#565656;stroke-width:2;stroke-linecap:butt;stroke-linejoin:miter;stroke-miterlimit:4;stroke-dasharray:none;stroke-dashoffset:0;stroke-opacity:1;paint-order:fill markers stroke"
       id="rect1053"
       width="40.609375"
       height="40.609375"
       x="-516.38354"
       y="-17.825018"
       rx="6.828125"
       ry="6.828125" />
    <g
       aria-label="文"
       style="font-style:normal;font-variant:normal;font-weight:500;font-stretch:normal;font-size:53.33333206px;line-height:139.99999762%;font-family:Beteckna;-inkscape-font-specification:'Beteckna, Medium';font-variant-ligatures:normal;font-variant-caps:normal;font-variant-numeric:normal;font-feature-settings:normal;text-align:center;letter-spacing:0px;word-spacing:0px;writing-mode:lr-tb;text-anchor:middle;fill:#000000;fill-opacity:1;stroke:#000000;stroke-width:1px;stroke-linecap:butt;stroke-linejoin:miter;stroke-opacity:1"
       id="text1042"
       transform="matrix(0.59407669,0,0,0.59407669,-163.26261,107.22294)">
      <path
         d="m -579.73479,-186.8389 q -1.06667,0 -1.81333,-0.74666 -0.74667,-0.74667 -0.74667,-1.81334 0,-1.01333 0.74667,-1.76 0.74666,-0.74666 1.81333,-0.74666 h 17.49333 q 0.48,0 0.48,-0.48 v -4.21334 q 0,-1.22666 0.85334,-2.08 0.90666,-0.85333 2.08,-0.85333 1.17333,0 2.02666,0.85333 0.90667,0.85334 0.90667,2.08 v 4.21334 q 0,0.48 0.48,0.48 h 17.54666 q 1.01334,0 1.76,0.74666 0.74667,0.69334 0.74667,1.76 0,1.06667 -0.74667,1.81334 -0.74666,0.74666 -1.76,0.74666 h -4.26666 q -0.42667,0 -0.58667,0.42667 -4.58667,13.92 -11.57333,21.12 -0.32,0.32 0.0533,0.58667 6.02667,4.16 16.48,7.46666 1.01333,0.32 1.49333,1.28 0.48,0.96 0.16,1.97334 -0.37333,1.06666 -1.33333,1.54666 -0.96,0.48 -1.97333,0.16 -11.89334,-3.68 -19.04,-8.8 -0.37333,-0.26666 -0.74667,0 -7.14666,5.17334 -19.04,8.8 -1.01333,0.32 -1.97333,-0.16 -0.96,-0.48 -1.33333,-1.54666 -0.32,-1.01334 0.16,-1.97334 0.48,-0.96 1.49333,-1.28 10.50667,-3.36 16.48,-7.52 0.37333,-0.21333 0.0533,-0.53333 -5.81333,-5.97333 -9.76,-15.68 -0.42666,-1.01333 0.10667,-2.02667 0.53333,-1.06666 1.65333,-1.33333 1.17334,-0.32 2.18667,0.26667 1.06667,0.53333 1.49333,1.65333 3.36,8.42667 8.48,13.6 0.26667,0.26667 0.58667,-0.0533 5.76,-6.08 9.70666,-17.54667 0.10667,-0.42667 -0.32,-0.42667 z"
         id="path1044"
         inkscape:connector-curvature="0"
         style="stroke:#000000;stroke-opacity:1" />
    </g>
    <flowRoot
       transform="matrix(1.1072392,0,0,1.1072392,-152.13883,-1229.3068)"
       style="font-style:normal;font-variant:normal;font-weight:normal;font-stretch:normal;font-size:32.5133px;line-height:0.01%;font-family:Lavi;-inkscape-font-specification:'Lavi, Normal';font-variant-ligatures:normal;font-variant-caps:normal;font-variant-numeric:normal;font-feature-settings:normal;text-align:start;letter-spacing:0px;word-spacing:0px;writing-mode:lr-tb;text-anchor:start;display:inline;opacity:0.86;fill:#000000;fill-opacity:1;stroke:none;stroke-width:0.903147px;stroke-linecap:butt;stroke-linejoin:miter;stroke-opacity:1"
       id="flowRoot1089"
       xml:space="preserve"><flowRegion
         style="font-style:normal;font-variant:normal;font-weight:normal;font-stretch:normal;font-size:32.5133px;font-family:Lavi;-inkscape-font-specification:'Lavi, Normal';font-variant-ligatures:normal;font-variant-caps:normal;font-variant-numeric:normal;font-feature-settings:normal;text-align:start;writing-mode:lr-tb;text-anchor:start;stroke-width:0.903147px"
         id="flowRegion1067"><rect
           style="font-style:normal;font-variant:normal;font-weight:normal;font-stretch:normal;font-size:32.51329803px;font-family:Lavi;-inkscape-font-specification:'Lavi, Normal';font-variant-ligatures:normal;font-variant-caps:normal;font-variant-numeric:normal;font-feature-settings:normal;text-align:start;writing-mode:lr-tb;text-anchor:start;stroke-width:0.90314716px"
           y="1061.6674"
           x="-275.14545"
           height="150.45786"
           width="328.94995"
           id="rect1065" /></flowRegion><flowPara
         id="flowPara1087"
         style="font-style:normal;font-variant:normal;font-weight:normal;font-stretch:normal;font-size:32.5133px;line-height:1.25;font-family:Lavi;-inkscape-font-specification:'Lavi, Normal';font-variant-ligatures:normal;font-variant-caps:normal;font-variant-numeric:normal;font-feature-settings:normal;text-align:start;writing-mode:lr-tb;text-anchor:start;stroke-width:0.903147px">You can also translate</flowPara><flowPara
         style="font-style:normal;font-variant:normal;font-weight:normal;font-stretch:normal;font-size:32.5133px;line-height:1.25;font-family:Lavi;-inkscape-font-specification:'Lavi, Normal';font-variant-ligatures:normal;font-variant-caps:normal;font-variant-numeric:normal;font-feature-settings:normal;text-align:start;writing-mode:lr-tb;text-anchor:start;stroke-width:0.903147px"
         id="flowPara1115">this page if you want.</flowPara></flowRoot>
    <path
       style="color:#000000;clip-rule:nonzero;display:inline;overflow:visible;visibility:visible;opacity:1;isolation:auto;mix-blend-mode:normal;color-interpolation:sRGB;color-interpolation-filters:linearRGB;solid-color:#000000;solid-opacity:1;fill:#fff3c0;fill-opacity:1;fill-rule:nonzero;stroke:#565656;stroke-width:1.6226846;stroke-linecap:butt;stroke-linejoin:miter;stroke-miterlimit:4;stroke-dasharray:none;stroke-dashoffset:0;stroke-opacity:1;marker:none;color-rendering:auto;image-rendering:auto;shape-rendering:auto;text-rendering:auto;enable-background:accumulate"
       d="m -574.47486,-784.21994 v 205.24103 h 504.562363 v -205.24103 z"
       id="path158"
       inkscape:connector-curvature="0"
       sodipodi:nodetypes="ccccc" />
    <flowRoot
       xml:space="preserve"
       id="flowRoot180"
       style="font-style:normal;font-variant:normal;font-weight:normal;font-stretch:normal;font-size:32.5133px;line-height:0.01%;font-family:Lavi;-inkscape-font-specification:'Lavi, Normal';font-variant-ligatures:normal;font-variant-caps:normal;font-variant-numeric:normal;font-feature-settings:normal;text-align:start;letter-spacing:0px;word-spacing:0px;writing-mode:lr-tb;text-anchor:start;display:inline;opacity:0.86;fill:#000000;fill-opacity:1;stroke:none;stroke-width:0.903147px;stroke-linecap:butt;stroke-linejoin:miter;stroke-opacity:1"
       transform="matrix(1.1072392,0,0,1.1072392,-167.38582,-1946.6967)"><flowRegion
         id="flowRegion174"
         style="font-style:normal;font-variant:normal;font-weight:normal;font-stretch:normal;font-size:32.5133px;font-family:Lavi;-inkscape-font-specification:'Lavi, Normal';font-variant-ligatures:normal;font-variant-caps:normal;font-variant-numeric:normal;font-feature-settings:normal;text-align:start;writing-mode:lr-tb;text-anchor:start;stroke-width:0.903147px"><rect
           id="rect172"
           width="353.73645"
           height="212.88319"
           x="-275.14545"
           y="1061.6674"
           style="font-style:normal;font-variant:normal;font-weight:normal;font-stretch:normal;font-size:32.51329803px;font-family:Lavi;-inkscape-font-specification:'Lavi, Normal';font-variant-ligatures:normal;font-variant-caps:normal;font-variant-numeric:normal;font-feature-settings:normal;text-align:start;writing-mode:lr-tb;text-anchor:start;stroke-width:0.90314716px" /></flowRegion><flowPara
         id="flowPara178"
         style="font-style:normal;font-variant:normal;font-weight:normal;font-stretch:normal;font-size:32.5133px;line-height:1.25;font-family:Lavi;-inkscape-font-specification:'Lavi, Normal';font-variant-ligatures:normal;font-variant-caps:normal;font-variant-numeric:normal;font-feature-settings:normal;text-align:start;writing-mode:lr-tb;text-anchor:start;stroke-width:0.903147px">Beta readers help with the story, proofreaders give feedback about the text.</flowPara></flowRoot>
    <g
       id="g1043"
       transform="translate(-8.1317279,2.3451697)">
      <path
         inkscape:connector-curvature="0"
         id="rect192"
         d="m -518.53699,-666.84645 c -0.61422,0 -1.11032,0.44692 -1.11032,1.00248 v 12.91861 c 0,0.55556 0.4961,1.00249 1.11032,1.00249 h 1.73686 v 0.60907 c 0,0.76558 0.61574,1.38132 1.38132,1.38132 h 6.37043 c 0.76558,0 1.38133,-0.61574 1.38133,-1.38132 v -0.60907 h 1.73685 c 0.61423,0 1.11031,-0.44693 1.11031,-1.00249 v -12.91861 c 0,-0.55556 -0.49608,-1.00248 -1.11031,-1.00248 z"
         style="opacity:1;vector-effect:none;fill:#cccccc;fill-opacity:1;fill-rule:nonzero;stroke:#787878;stroke-width:2;stroke-linecap:butt;stroke-linejoin:miter;stroke-miterlimit:4;stroke-dasharray:none;stroke-dashoffset:0;stroke-opacity:1;paint-order:fill markers stroke" />
      <path
         sodipodi:nodetypes="ssscsscsss"
         inkscape:connector-curvature="0"
         id="path184"
         d="m -512.23359,-731.76886 c -20.17859,0 -27.20983,14.91405 -27.20983,25.74398 0,18.52719 18.63045,25.28436 18.63045,37.26089 v 2.29638 c 0,0.73518 0.59075,1.32595 1.32595,1.32595 h 14.50685 c 0.7352,0 1.32597,-0.59077 1.32597,-1.32595 v -2.29638 c 0,-11.97653 18.63043,-18.7337 18.63043,-37.26089 0,-10.82993 -7.03125,-25.74398 -27.20982,-25.74398 z"
         style="opacity:1;vector-effect:none;fill:#ffff98;fill-opacity:1;fill-rule:nonzero;stroke:#787878;stroke-width:2;stroke-linecap:butt;stroke-linejoin:miter;stroke-miterlimit:4;stroke-dasharray:none;stroke-dashoffset:0;stroke-opacity:1;paint-order:fill markers stroke" />
      <path
         sodipodi:nodetypes="ccccccc"
         inkscape:connector-curvature="0"
         d="m -507.44236,-664.67965 c -2.02309,-12.0089 -0.93024,-25.69888 3.20539,-31.87898 l 2e-5,-1.4e-4 c -0.69465,2.89489 -6.40555,2.16513 -6.6718,-0.75503 -1.0292,0.75759 -2.788,0.37964 -3.26183,0.2394 -0.0566,5.19286 -5.00817,-2.69192 -6.34424,0.51563 3.22578,4.01626 4.8117,19.84006 3.01482,31.87912"
         style="fill:none;fill-rule:evenodd;stroke:#787878;stroke-width:1px;stroke-linecap:butt;stroke-linejoin:miter;stroke-opacity:1"
         id="path1016" />
    </g>
  </g>
</svg>
