<?xml version="1.0" encoding="UTF-8" standalone="no"?>
<svg
   xmlns:dc="http://purl.org/dc/elements/1.1/"
   xmlns:cc="http://creativecommons.org/ns#"
   xmlns:rdf="http://www.w3.org/1999/02/22-rdf-syntax-ns#"
   xmlns:svg="http://www.w3.org/2000/svg"
   xmlns="http://www.w3.org/2000/svg"
   xmlns:xlink="http://www.w3.org/1999/xlink"
   xmlns:sodipodi="http://sodipodi.sourceforge.net/DTD/sodipodi-0.dtd"
   xmlns:inkscape="http://www.inkscape.org/namespaces/inkscape"
   sodipodi:docname="E27P01.svg"
   height="3503"
   width="2481"
   inkscape:version="1.0 (4035a4fb49, 2020-05-01)"
   version="1.1"
   id="svg2">
  <metadata
     id="metadata8">
    <rdf:RDF>
      <cc:Work
         rdf:about="">
        <dc:format>image/svg+xml</dc:format>
        <dc:type
           rdf:resource="http://purl.org/dc/dcmitype/StillImage" />
        <dc:title />
      </cc:Work>
    </rdf:RDF>
  </metadata>
  <defs
     id="defs6">
    <linearGradient
       id="linearGradient964"
       inkscape:collect="always">
      <stop
         id="stop960"
         offset="0"
         style="stop-color:#918a6f;stop-opacity:1;" />
      <stop
         id="stop962"
         offset="1"
         style="stop-color:#c2bb9f;stop-opacity:1" />
    </linearGradient>
    <linearGradient
       id="linearGradient928"
       inkscape:collect="always">
      <stop
         id="stop924"
         offset="0"
         style="stop-color:#f3efe0;stop-opacity:1" />
      <stop
         id="stop926"
         offset="1"
         style="stop-color:#d9cc9d;stop-opacity:1" />
    </linearGradient>
    <radialGradient
       gradientUnits="userSpaceOnUse"
       gradientTransform="matrix(1.118507,-0.00767018,0.00833117,1.2148946,-40.100433,-47.142096)"
       r="182.11266"
       fy="230.87151"
       fx="322.14978"
       cy="230.87151"
       cx="322.14978"
       id="radialGradient932"
       xlink:href="#linearGradient928"
       inkscape:collect="always" />
    <linearGradient
       gradientTransform="translate(68.793336)"
       gradientUnits="userSpaceOnUse"
       y2="254.66634"
       x2="521.5141"
       y1="252.79726"
       x1="483.93088"
       id="linearGradient966"
       xlink:href="#linearGradient964"
       inkscape:collect="always" />
    <filter
       height="1.0091056"
       y="-0.0045528179"
       width="1.0031157"
       x="-0.0015578248"
       id="filter4210"
       style="color-interpolation-filters:sRGB"
       inkscape:collect="always">
      <feGaussianBlur
         id="feGaussianBlur4212"
         stdDeviation="0.2079876"
         inkscape:collect="always" />
    </filter>
    <filter
       height="1.0091056"
       y="-0.0045528179"
       width="1.0031157"
       x="-0.0015578248"
       id="filter4210-3"
       style="color-interpolation-filters:sRGB"
       inkscape:collect="always">
      <feGaussianBlur
         id="feGaussianBlur4212-9"
         stdDeviation="0.2079876"
         inkscape:collect="always" />
    </filter>
  </defs>
  <sodipodi:namedview
     inkscape:document-rotation="0"
     inkscape:snap-global="false"
     inkscape:current-layer="layer1"
     inkscape:window-maximized="1"
     inkscape:window-y="26"
     inkscape:window-x="0"
     inkscape:cy="2537.2788"
     inkscape:cx="1213.4843"
     inkscape:zoom="0.36102684"
     showgrid="false"
     id="namedview4"
     inkscape:window-height="1025"
     inkscape:window-width="1920"
     inkscape:pageshadow="2"
     inkscape:pageopacity="0"
     guidetolerance="10"
     gridtolerance="10"
     objecttolerance="10"
     borderopacity="1"
     bordercolor="#666666"
     pagecolor="#ffffff" />
  <g
     sodipodi:insensitive="true"
     inkscape:label="artwork"
     id="layer2"
     inkscape:groupmode="layer">
    <image
       sodipodi:absref="C:\Users\stero\Documents\Kernewek\Pepper and Carrot\webcomics\ep27_Coriander-s-Invention\lang\gfx_Pepper-and-Carrot_by-David-Revoy_E27P01.png"
       xlink:href="../gfx_Pepper-and-Carrot_by-David-Revoy_E27P01.png"
       y="0"
       x="0"
       id="image10"
       height="3503"
       width="2481" />
  </g>
  <g
     inkscape:label="speechbubbles"
     id="layer3"
     inkscape:groupmode="layer">
    <g
       id="g975">
      <path
         style="fill:url(#linearGradient966);fill-opacity:1;fill-rule:evenodd;stroke:none;stroke-width:0.99999994px;stroke-linecap:butt;stroke-linejoin:miter;stroke-opacity:1"
         d="m 549.88676,190.72919 c -3.54348,-0.0348 -7.29462,0.1157 -11.15995,0.53804 0,0 -30.0934,106.15112 -34.39246,120.39084 11.46417,0 17.19658,2.58826 28.66075,3.88278 11.46419,1.29452 32.95953,-2.58907 41.55766,-3.23633 8.59813,-0.64726 15.76193,2.58904 44.42238,0 -2.86603,0.64726 -12.18043,-6.47148 -16.47949,-9.06051 -4.29907,-2.58904 -2.86564,-7.7685 -5.73169,-13.59384 -7.1651,4.53081 -12.18133,-3e-5 -15.76388,-3.23633 -3.58256,-3.2363 0,-4.52924 0,-4.52924 l 11.4634,-8.41405 c 0,0 -3.58217,-14.24033 -5.7317,-17.47663 -2.14954,-3.2363 2.86698,-16.18167 2.86698,-16.18167 0,0 3.58164,-9.0614 0.71562,-14.88673 -2.86604,-5.82535 4.29867,-7.11997 5.73169,-9.70901 1.43304,-2.58904 9.31656,-12.29889 9.31656,-12.29889 l 7.88082,-3.88279 19.34646,-0.64645 10.74778,-5.82622 -16.48174,0.64645 -24.3603,2.58989 -25.79378,-1.29494 c 0,0 -11.46004,-3.62374 -26.81511,-3.77437 z m 14.40511,63.85728 c 0,0 11.92148,1.46891 13.54683,3.42659 1.62535,1.95768 4.33226,0.4895 6.4994,1.95776 2.16714,1.46826 4.87786,9.7878 2.71073,10.76663 -2.16714,0.97885 -5.41927,3.42554 -7.58642,2.44669 -2.16713,-0.97883 -4.87568,-5.87327 -4.87568,-5.87327 -0.54179,-4.40479 0,-6.85113 0,-6.85113 z"
         id="path101"
         inkscape:connector-curvature="0" />
      <path
         sodipodi:nodetypes="ccscccccc"
         style="fill:#6c6753;fill-rule:evenodd;stroke:#6c6753;stroke-width:1px;stroke-linecap:butt;stroke-linejoin:miter;stroke-opacity:1"
         d="m 504.79715,310.61856 c 0,0 8.1984,-5.23752 15.06909,-6.63932 6.87069,-1.40181 24.66762,-6.18478 30.68906,-7.94356 l 6.13248,-1.15243 -4.75833,-30.62178 -8.70287,-22.89613 -30.68908,2.80361 -5.49655,49.06313 z"
         id="path958"
         inkscape:connector-curvature="0" />
      <path
         sodipodi:nodetypes="ccsssccccccccccccssssccsscccccccscc"
         style="fill:url(#radialGradient932);fill-opacity:1;fill-rule:evenodd;stroke:none;stroke-width:0.99999994px;stroke-linecap:butt;stroke-linejoin:miter;stroke-opacity:1"
         d="m 567.53094,152.34375 c -0.14714,0.0194 -0.29648,0.0584 -0.44937,0.11719 -4.89222,1.87969 -40.11706,-0.93945 -46.96617,3.75976 -6.84911,4.69921 -93.63782,-0.94062 -110.27137,-2.82031 -16.63354,-1.87968 -133.80309,7.8e-4 -147.50129,2.82031 -13.69822,2.81953 -48.9227,6.57969 -91.97424,2.82032 l 2.93411,9.39843 0.98007,7.51758 -3.91418,7.51953 h 2.93411 l 15.65675,5.63867 v 8.45899 l -6.85034,6.57812 -10.76248,1.88086 -13.69865,40.41211 c 0,0 1.9565,6.57852 0.97805,10.33789 -0.97844,3.75937 -10.76128,15.97738 -18.58883,46.99219 18.59043,-1.87969 37.18053,-3.75937 59.68474,-4.69922 22.50421,-0.93984 128.91044,10.33789 143.5871,10.33789 14.67666,0 46.9658,-2.81915 67.51312,-5.63867 20.54732,-2.81953 96.57437,-2.81992 107.33725,-3.75977 10.76288,-0.93985 24.46114,-7.51873 39.1378,-4.69921 -1.95688,-11.27811 -0.97967,-15.03595 -1.95811,-22.55469 -0.97845,-7.51874 8.80561,-29.13674 10.76249,-38.53516 1.95689,-9.39843 1.95811,-18.79493 1.95811,-23.49414 0,-4.69921 4.89223,-6.58008 4.89223,-6.58008 l -4.89223,-9.39843 c 0,0 3.91378,-12.21799 4.89223,-18.79688 0.94786,-6.37331 -0.85928,-24.21344 -5.4209,-23.61328 z m -391.06648,68.12891 c 1.88302,0.02 3.3984,0.6712 3.61122,2.30664 0.48646,3.73815 2.43327,8.87803 -0.97194,11.68164 -3.40522,2.80361 -12.16143,-0.46687 -12.16143,-2.33594 0,-1.86907 2.43188,-9.3457 2.43188,-9.3457 1.64181,-1.31419 4.66925,-2.33231 7.09027,-2.30664 z"
         id="path99"
         inkscape:connector-curvature="0" />
      <path
         style="opacity:0.53299997;fill:#cbc29a;fill-opacity:1;fill-rule:evenodd;stroke:none;stroke-width:0.99999994px;stroke-linecap:butt;stroke-linejoin:miter;stroke-opacity:1"
         d="m 500.39935,227.45228 c 4.8646,-2.80361 12.64794,-2.33634 14.59378,0.46727 1.94585,2.80361 7.78336,6.07448 6.32398,8.87809 -1.45938,2.80361 -4.8646,8.41082 -7.78336,8.41082 -2.91876,0 -11.18856,1.86907 -13.62086,-2.33634 -2.4323,-4.20541 -4.37814,-8.87809 -3.40521,-11.21443 0.97291,-2.33634 3.89167,-4.20541 3.89167,-4.20541 z"
         id="path109"
         inkscape:connector-curvature="0" />
      <path
         style="opacity:0.53299997;vector-effect:none;fill:#cbc29a;fill-opacity:1;fill-rule:evenodd;stroke:none;stroke-width:0.99999994px;stroke-linecap:butt;stroke-linejoin:miter;stroke-miterlimit:4;stroke-dasharray:none;stroke-dashoffset:0;stroke-opacity:1"
         d="m 526.66816,190.53812 c 7.29689,-4.20541 14.59379,-4.20541 16.05316,0.93454 1.45939,5.13994 4.8646,8.87808 0.48646,10.74716 -4.37813,1.86907 -10.7021,9.81262 -13.62086,4.20541 -2.91876,-5.60722 -9.72919,-8.41082 -8.75627,-9.81263 0.97291,-1.4018 5.83751,-6.07448 5.83751,-6.07448 z"
         id="path111"
         inkscape:connector-curvature="0" />
      <path
         style="opacity:0.53299997;vector-effect:none;fill:#cbc29a;fill-opacity:1;fill-rule:evenodd;stroke:none;stroke-width:0.99999994px;stroke-linecap:butt;stroke-linejoin:miter;stroke-miterlimit:4;stroke-dasharray:none;stroke-dashoffset:0;stroke-opacity:1"
         d="m 517.91189,269.50639 c 4.8646,-2.80361 8.75627,0 8.75627,3.27087 0,3.27088 2.4323,6.54175 -2.91875,6.54175 -5.35106,0 -9.72919,0.46727 -9.72919,-3.27087 0,-3.73814 3.89167,-6.54175 3.89167,-6.54175 z"
         id="path113"
         inkscape:connector-curvature="0" />
      <path
         style="opacity:0.53299997;vector-effect:none;fill:#cbc29a;fill-opacity:1;fill-rule:evenodd;stroke:none;stroke-width:0.99999994px;stroke-linecap:butt;stroke-linejoin:miter;stroke-miterlimit:4;stroke-dasharray:none;stroke-dashoffset:0;stroke-opacity:1"
         d="m 499.42643,283.05716 c 3.40522,-6.07449 6.81043,-4.67268 6.81043,-4.67268 l 4.37813,4.67268 -5.35104,5.60721 z"
         id="path115"
         inkscape:connector-curvature="0" />
    </g>
    <path
       sodipodi:nodetypes="csccscscsc"
       inkscape:connector-curvature="0"
       id="path1371"
       d="m 410.23752,1797.171 c 0.15899,-42.2598 50.27719,-58.327 73.54153,-64.4994 23.26432,-6.1724 177.05416,-17.0792 219.95584,-15.7583 42.90166,1.321 168.02647,6.5203 203.72097,22.7436 35.69451,16.2231 62.4081,43.6165 65.90881,63.51 3.5007,19.8936 -4.62267,44.7448 -24.33952,58.3813 -19.71685,13.6366 -81.48467,33.4043 -113.67378,35.8317 -32.1891,2.4273 -198.44185,-0.3609 -227.04142,-1.6559 -28.59956,-1.295 -98.29432,-8.8793 -123.28093,-20.1113 -24.98663,-11.232 -67.84153,-24.9824 -74.7915,-78.4417 z"
       style="fill:#ffffff;fill-rule:evenodd;stroke:none;stroke-width:1.1845px;stroke-linecap:butt;stroke-linejoin:miter;stroke-opacity:1" />
    <path
       sodipodi:nodetypes="cscccc"
       inkscape:connector-curvature="0"
       id="path1373"
       d="m 719.6986,1880.2247 c 41.7521,49.0647 77.40561,72.1949 212.89328,65.9802 135.48772,-6.2147 243.84902,-47.8428 311.59282,-14.2833 -66.7457,-31.1157 -224.3366,21.7759 -289.77021,25.4908 -80.46971,6.1866 -186.856,15.5262 -254.59985,-67.7509 -3.62912,-26.1017 19.88396,-9.4368 19.88396,-9.4368 z"
       style="fill:#ffffff;fill-rule:evenodd;stroke:none;stroke-width:0.969744px;stroke-linecap:butt;stroke-linejoin:miter;stroke-opacity:1" />
    <path
       sodipodi:nodetypes="csssscccsc"
       inkscape:connector-curvature="0"
       id="path1381"
       d="m 271.6145,2394.9256 c 14.09764,-34.7742 46.99213,-47.932 70.4882,-55.4507 23.49606,-7.5187 97.74362,-10.3383 120.29985,-8.4586 22.55622,1.8797 122.17953,10.3383 149.43497,23.4961 27.25543,13.1578 48.87181,35.714 46.05228,70.4882 -1.63963,20.2221 -4.69921,76.1272 -34.77417,93.9843 -30.07497,17.857 -100.56316,25.3757 -141.91623,27.2554 -41.35308,1.8796 -109.02174,1.8796 -145.6756,-16.9172 -36.65386,-18.7969 -49.81165,-50.7515 -59.21008,-68.6085 -9.39842,-17.857 -4.69922,-65.789 -4.69922,-65.789 z"
       style="fill:#ffffff;fill-rule:evenodd;stroke:none;stroke-width:1px;stroke-linecap:butt;stroke-linejoin:miter;stroke-opacity:1" />
    <path
       sodipodi:nodetypes="csscsccc"
       inkscape:connector-curvature="0"
       id="path1383"
       d="m 521.21334,2517.9278 c 14.59223,33.5128 26.0029,48.9812 67.83396,39.5558 41.83105,-9.4256 108.5282,-16.3248 141.78674,1.4788 29.28137,15.6746 51.90739,13.079 121.7666,131.8501 -56.77814,-114.9266 -99.32551,-134.2862 -123.35037,-143.8201 -24.59626,-9.7606 -55.76454,-20.3814 -126.39262,-4.6406 -32.1029,7.3309 -47.44956,5.5181 -53.3456,-33.119 -10.70097,-20.9453 -28.29871,8.695 -28.29871,8.695 z"
       style="fill:#ffffff;fill-rule:evenodd;stroke:none;stroke-width:0.99999994px;stroke-linecap:butt;stroke-linejoin:miter;stroke-opacity:1" />
    <path
       sodipodi:nodetypes="zssssz"
       inkscape:connector-curvature="0"
       id="path4040"
       d="m 403.76127,2589.1185 c 49.65938,-25.847 172.46228,-16.9783 206.20629,16.9264 33.744,33.9048 34.04317,75.0683 -14.48262,110.5221 -19.28444,14.0897 -114.56982,13.3758 -144.34174,8.3719 -39.34278,-6.6125 -81.63871,-27.8931 -89.00124,-56.8389 -6.89687,-27.1152 -8.04008,-53.1343 41.61931,-78.9815 z"
       style="color:#000000;display:inline;overflow:visible;visibility:visible;fill:#ffffff;fill-opacity:1;fill-rule:nonzero;stroke:none;stroke-width:1px;marker:none;enable-background:accumulate" />
    <path
       sodipodi:nodetypes="cccccccc"
       inkscape:connector-curvature="0"
       id="path1391"
       d="m 592.9793,2688.296 c 6.2779,5.7652 17.59909,17.4223 21.13933,28.7257 3.46311,11.4895 -12.47795,24.7828 -8.01922,31.4781 2.84262,5.6853 15.43964,23.6392 31.35903,13.9966 -16.26214,14.8047 -31.96506,-0.6746 -39.07162,-10.6237 -7.10656,-9.9492 7.60797,-24.6926 3.34403,-31.0885 -4.26393,-6.3959 -19.70358,-20.8255 -19.70358,-20.8255 z"
       style="fill:#ffffff;fill-rule:evenodd;stroke:none;stroke-width:1px;stroke-linecap:butt;stroke-linejoin:miter;stroke-opacity:1" />
    <path
       inkscape:connector-curvature="0"
       id="path1393"
       d="m 1556.8051,2535.9913 c 57.8025,83.2771 163.4984,70.8477 203.1343,72.0906 39.636,1.2429 153.5895,7.4577 181.6649,2.4859 28.0755,-4.9718 105.696,-34.8024 112.3021,-42.26 6.6059,-7.4577 3.3031,-298.3061 3.3031,-298.3061 H 1553.502 Z"
       style="fill:#ffffff;fill-rule:evenodd;stroke:none;stroke-width:1.15269px;stroke-linecap:butt;stroke-linejoin:miter;stroke-opacity:1" />
    <path
       sodipodi:nodetypes="cssscscccc"
       inkscape:connector-curvature="0"
       id="path1395"
       d="m 1940.7749,2518.045 c 0,0 17.857,53.571 17.857,79.8866 0,26.3156 -21.6164,50.7515 -17.857,75.1874 3.7594,24.4359 29.1351,57.3304 29.1351,81.7663 0,24.4359 -31.9546,53.571 -52.6311,70.4882 32.8944,-38.5335 52.6311,-56.3906 31.0148,-95.8639 -21.6164,-39.4734 -29.1352,-55.4508 -28.1953,-71.4281 0.9398,-15.9773 13.1987,-40.9036 7.5596,-68.159 -5.639,-27.2554 -26.193,-59.2509 -26.193,-59.2509 z"
       style="fill:#ffffff;fill-rule:evenodd;stroke:none;stroke-width:1px;stroke-linecap:butt;stroke-linejoin:miter;stroke-opacity:1" />
    <path
       inkscape:connector-curvature="0"
       id="path1397"
       d="m 2108.2281,2399.5845 c 4.6992,-28.9913 13.1578,-42.1693 31.0148,-50.076 17.857,-7.9067 78.9468,-10.5423 97.7436,-6.1497 18.7969,4.3926 46.9921,8.7853 55.4507,26.3558 8.4586,17.5705 12.218,36.8981 4.6992,46.5619 -7.5187,9.6637 -19.7367,26.3557 -37.5937,33.3839 -17.857,7.0282 -102.4428,-3.5141 -115.6006,-9.6638 -13.1578,-6.1496 -34.7742,-18.449 -35.714,-40.4121 z"
       style="fill:#ffffff;fill-rule:evenodd;stroke:none;stroke-width:1px;stroke-linecap:butt;stroke-linejoin:miter;stroke-opacity:1" />
    <path
       inkscape:connector-curvature="0"
       id="path1399"
       d="m 2202.8184,2429.6998 c 0,0 -15.0375,20.6765 -21.6164,31.0148 -6.5789,10.3383 -24.4359,33.8343 -12.218,71.428 -34.7741,-63.9093 4.6993,-93.0444 15.0375,-108.0819 10.3383,-15.0375 18.7969,5.6391 18.7969,5.6391 z"
       style="fill:#ffffff;fill-rule:evenodd;stroke:none;stroke-width:1px;stroke-linecap:butt;stroke-linejoin:miter;stroke-opacity:1" />
  </g>
  <g
     inkscape:label="txt"
     id="layer1"
     inkscape:groupmode="layer">
    <text
       id="text4246"
       y="216.16245"
       x="358.75275"
       style="font-style:italic;font-variant:normal;font-weight:normal;font-stretch:normal;font-size:45px;line-height:1.2;font-family:Fondamento;-inkscape-font-specification:'Fondamento Italic';text-anchor:middle"
       xml:space="preserve"><tspan
         id="tspan4252"
         y="216.16245"
         x="358.75275"
         sodipodi:role="line">Kwalicita</tspan><tspan
         id="tspan923"
         y="270.16245"
         x="358.75275"
         sodipodi:role="line">y'n androweyth</tspan></text>
    <text
       id="text4246-4"
       y="1793.0994"
       x="702.14465"
       style="font-style:normal;font-variant:normal;font-weight:normal;font-stretch:normal;line-height:0%;font-family:Lavi;-inkscape-font-specification:Lavi;text-align:center;letter-spacing:0px;word-spacing:0px;text-anchor:middle;fill:#000000;fill-opacity:1;stroke:none"
       xml:space="preserve"><tspan
         id="tspan49"
         y="1793.0994"
         x="702.14465"
         style="font-size:45px;line-height:1.2"
         sodipodi:role="line">Pennseviges Coriander,</tspan><tspan
         id="tspan103"
         y="1847.0994"
         x="702.14465"
         style="font-size:45px;line-height:1.2"
         sodipodi:role="line">my a'gas <tspan
   id="tspan114"
   style="font-style:italic">pys</tspan>...</tspan></text>
    <text
       id="text4246-5"
       y="2400.3777"
       x="466.49915"
       style="font-style:normal;font-variant:normal;font-weight:normal;font-stretch:normal;line-height:0%;font-family:Lavi;-inkscape-font-specification:Lavi;text-align:center;letter-spacing:0px;word-spacing:0px;text-anchor:middle;fill:#000000;fill-opacity:1;stroke:none"
       xml:space="preserve"><tspan
         id="tspan63"
         y="2400.3777"
         x="466.49915"
         style="font-size:45px;line-height:1.2"
         sodipodi:role="line">A wrewgh hwi</tspan><tspan
         id="tspan122"
         y="2454.3777"
         x="466.49915"
         style="font-size:45px;line-height:1.2"
         sodipodi:role="line">hedhi gwaya</tspan><tspan
         id="tspan124"
         y="2508.3777"
         x="466.49915"
         style="font-size:45px;line-height:1.2"
         sodipodi:role="line">yn feur?</tspan></text>
    <text
       id="text4246-8"
       y="2637.249"
       x="498.26331"
       style="font-style:normal;font-variant:normal;font-weight:normal;font-stretch:normal;line-height:0%;font-family:Lavi;-inkscape-font-specification:Lavi;text-align:center;letter-spacing:0px;word-spacing:0px;text-anchor:middle;fill:#000000;fill-opacity:1;stroke:none"
       xml:space="preserve"><tspan
         id="tspan73"
         y="2637.249"
         x="498.26331"
         style="font-size:45px;line-height:1.2"
         sodipodi:role="line">Da lowr,</tspan><tspan
         id="tspan128"
         y="2691.249"
         x="498.26331"
         style="font-size:45px;line-height:1.2"
         sodipodi:role="line">da lowr...</tspan></text>
    <text
       id="text4246-3"
       y="2344.9854"
       x="1808.3252"
       style="font-style:normal;font-variant:normal;font-weight:normal;font-stretch:normal;line-height:0%;font-family:Lavi;-inkscape-font-specification:Lavi;text-align:center;letter-spacing:0px;word-spacing:0px;text-anchor:middle;fill:#000000;fill-opacity:1;stroke:none"
       xml:space="preserve"><tspan
         id="tspan89"
         y="2344.9854"
         x="1808.3252"
         style="font-size:45px;line-height:1.2"
         sodipodi:role="line">Yma termyn ow </tspan><tspan
         id="tspan144"
         y="2398.9854"
         x="1808.3252"
         style="font-size:45px;line-height:1.2"
         sodipodi:role="line">tifygya ha solempnita </tspan><tspan
         id="tspan152"
         y="2452.9854"
         x="1808.3252"
         style="font-size:45px;line-height:1.2"
         sodipodi:role="line">agas kurunyans</tspan><tspan
         id="tspan146"
         y="2506.9854"
         x="1808.3252"
         style="font-size:45px;line-height:1.2"
         sodipodi:role="line">a wra dalleth </tspan><tspan
         id="tspan154"
         y="2560.9854"
         x="1808.3252"
         style="font-size:45px;line-height:1.2"
         sodipodi:role="line">dhe benn tri our.</tspan></text>
    <text
       id="text4246-0"
       y="2401.189"
       x="2209.603"
       style="font-style:normal;font-variant:normal;font-weight:normal;font-stretch:normal;line-height:0%;font-family:Lavi;-inkscape-font-specification:Lavi;text-align:center;letter-spacing:0px;word-spacing:0px;text-anchor:middle;fill:#000000;fill-opacity:1;stroke:none"
       xml:space="preserve"><tspan
         id="tspan4252-1"
         y="2401.189"
         x="2209.603"
         style="font-size:45px;line-height:1.25"
         sodipodi:role="line">...</tspan></text>
    <text
       transform="matrix(0.44442565,-0.06560914,-0.0201348,0.66427422,1033.483,1073.7613)"
       id="text4246-5-9"
       y="1085.962"
       x="1174.0292"
       style="font-style:normal;font-variant:normal;font-weight:normal;font-stretch:normal;line-height:0%;font-family:Lavi;-inkscape-font-specification:Lavi;text-align:center;letter-spacing:0px;word-spacing:0px;text-anchor:middle;display:inline;opacity:0.6;fill:#fff6d5;fill-opacity:1;stroke:#fff6d5;stroke-width:2.68153;stroke-miterlimit:4;stroke-dasharray:none;filter:url(#filter4210)"
       xml:space="preserve"><tspan
         id="tspan754"
         y="1085.962"
         x="1174.0292"
         style="font-style:normal;font-variant:normal;font-weight:normal;font-stretch:normal;font-size:39.3513px;line-height:1;font-family:Fondamento;-inkscape-font-specification:Fondamento;fill:#fff6d5;stroke:#fff6d5;stroke-width:2.68153;stroke-miterlimit:4;stroke-dasharray:none;stroke-opacity:1"
         sodipodi:role="line">KURUNYANS</tspan><tspan
         id="tspan110"
         y="1129.4252"
         x="1174.0292"
         style="font-style:normal;font-variant:normal;font-weight:normal;font-stretch:normal;font-size:45.0081px;line-height:1;font-family:Fondamento;-inkscape-font-specification:Fondamento;fill:#fff6d5;stroke:#fff6d5;stroke-width:2.68153;stroke-miterlimit:4;stroke-dasharray:none;stroke-opacity:1"
         sodipodi:role="line">HY</tspan><tspan
         id="tspan112"
         y="1174.4333"
         x="1174.0292"
         style="font-style:normal;font-variant:normal;font-weight:normal;font-stretch:normal;font-size:45.0081px;line-height:1;font-family:Fondamento;-inkscape-font-specification:Fondamento;fill:#fff6d5;stroke:#fff6d5;stroke-width:2.68153;stroke-miterlimit:4;stroke-dasharray:none;stroke-opacity:1"
         sodipodi:role="line">MEUREDH</tspan></text>
    <text
       transform="matrix(0.52324579,-0.03659865,-0.0134484,0.76213062,932.37771,1247.0066)"
       id="text4246-5-9-4"
       y="1085.962"
       x="1174.0292"
       style="font-style:normal;font-variant:normal;font-weight:normal;font-stretch:normal;line-height:0%;font-family:Lavi;-inkscape-font-specification:Lavi;text-align:center;letter-spacing:0px;word-spacing:0px;text-anchor:middle;display:inline;opacity:0.6;fill:#fff6d5;fill-opacity:1;stroke:#fff6d5;stroke-width:2.70249;stroke-miterlimit:4;stroke-dasharray:none;filter:url(#filter4210-3)"
       xml:space="preserve"><tspan
         id="tspan115"
         y="1085.962"
         x="1174.0292"
         style="font-style:normal;font-variant:normal;font-weight:normal;font-stretch:normal;font-size:42.2541px;line-height:1;font-family:Fondamento;-inkscape-font-specification:Fondamento;fill:#fff6d5;stroke:#fff6d5;stroke-width:2.70249;stroke-miterlimit:4;stroke-dasharray:none;stroke-opacity:1"
         sodipodi:role="line">MYGHTERNES</tspan><tspan
         id="tspan121"
         y="1130.218"
         x="1174.0292"
         style="font-style:normal;font-variant:normal;font-weight:normal;font-stretch:normal;font-size:45.0081px;line-height:1;font-family:Fondamento;-inkscape-font-specification:Fondamento;fill:#fff6d5;stroke:#fff6d5;stroke-width:2.70249;stroke-miterlimit:4;stroke-dasharray:none;stroke-opacity:1"
         sodipodi:role="line">CORIANDER</tspan></text>
    <use
       inkscape:transform-center-y="4.0349738"
       inkscape:transform-center-x="4.1379444"
       style="stroke-width:0.90093011"
       height="100%"
       width="100%"
       transform="matrix(1.1113945,0.36442722,-0.03562426,1.0968541,-1262.1471,-468.88376)"
       id="use1080"
       xlink:href="#text4246-5-9"
       y="0"
       x="0" />
    <use
       height="100%"
       width="100%"
       transform="matrix(0.98565026,0.2354674,-0.06673647,0.99861562,-1003.2813,-308.32021)"
       id="use1082"
       xlink:href="#text4246-5-9-4"
       y="0"
       x="0" />
    <use
       style="stroke-width:1.53159201"
       height="100%"
       width="100%"
       transform="matrix(0.6150991,0.28683471,0.05373313,0.71811363,1058.565,362.8446)"
       id="use1084"
       xlink:href="#text4246-5-9"
       y="0"
       x="0" />
    <use
       style="stroke-width:1.58885944"
       height="100%"
       width="100%"
       transform="matrix(0.60149161,0.21273108,0.05905291,0.68112177,1054.2567,397.89184)"
       id="use1086"
       xlink:href="#text4246-5-9-4"
       y="0"
       x="0" />
  </g>
  <g
     sodipodi:insensitive="true"
     inkscape:label="notes"
     id="layer4"
     inkscape:groupmode="layer">
    <path
       sodipodi:nodetypes="cccccccccccc"
       inkscape:connector-curvature="0"
       id="rect4191-6"
       d="m -491.70805,1691.6386 v 509.9547 h 423.636685 v -373.4851 h 13.923338 v 21.7545 l 43.137977,-37.5533 -43.137977,-37.5506 v 23.1272 h -13.923338 v -106.2474 z"
       style="color:#000000;clip-rule:nonzero;display:inline;overflow:visible;visibility:visible;opacity:0.5;isolation:auto;mix-blend-mode:normal;color-interpolation:sRGB;color-interpolation-filters:linearRGB;solid-color:#000000;solid-opacity:1;fill:#ffe680;fill-opacity:1;fill-rule:nonzero;stroke:#565656;stroke-width:1.20000005;stroke-linecap:butt;stroke-linejoin:miter;stroke-miterlimit:4;stroke-dasharray:none;stroke-dashoffset:0;stroke-opacity:1;marker:none;color-rendering:auto;image-rendering:auto;shape-rendering:auto;text-rendering:auto;enable-background:accumulate" />
    <flowRoot
       transform="matrix(1.3923338,0,0,1.391772,-88.183544,272.03294)"
       style="font-style:normal;font-variant:normal;font-weight:normal;font-stretch:normal;line-height:0.01%;font-family:Lavi;-inkscape-font-specification:'Lavi, Normal';text-align:center;letter-spacing:0px;word-spacing:0px;writing-mode:lr-tb;text-anchor:middle;display:inline;opacity:0.5;fill:#000000;fill-opacity:1;stroke:none;stroke-width:0.718364px;stroke-linecap:butt;stroke-linejoin:miter;stroke-opacity:1"
       id="flowRoot4212-7"
       xml:space="preserve"><flowRegion
         style="stroke-width:0.718364px"
         id="flowRegion4214-5"><rect
           style="stroke-width:0.71836352px"
           y="1061.6674"
           x="-275.14545"
           height="318.06064"
           width="271.92325"
           id="rect4216-3" /></flowRegion><flowPara
         id="flowPara1114"
         style="font-size:25.3242px;line-height:1.25;stroke-width:0.718364px">Translate “Her Majesty’s Coronation” and “Queen Coriander”</flowPara><flowPara
         id="flowPara1116"
         style="font-size:25.3242px;line-height:1.25;stroke-width:0.718364px">on the banner</flowPara><flowPara
         id="flowPara119"
         style="font-size:25.3242px;line-height:1.25;stroke-width:0.718364px">on the building</flowPara><flowPara
         id="flowPara1118"
         style="font-size:25.3242px;line-height:1.25;stroke-width:0.718364px">(in the middle).</flowPara><flowPara
         id="flowPara1120"
         style="font-size:25.3242px;line-height:1.25;stroke-width:0.718364px" /><flowPara
         id="flowPara1122"
         style="font-size:25.3242px;line-height:1.25;stroke-width:0.718364px">The other text boxes</flowPara><flowPara
         id="flowPara1124"
         style="font-size:25.3242px;line-height:1.25;stroke-width:0.718364px">will update automatically</flowPara><flowPara
         id="flowPara1126"
         style="font-size:25.3242px;line-height:1.25;stroke-width:0.718364px">(they are clones).</flowPara></flowRoot>
    <flowRoot
       transform="matrix(1.3923338,0,0,1.391772,-103.52319,226.44878)"
       style="font-style:normal;font-variant:normal;font-weight:normal;font-stretch:normal;line-height:0.01%;font-family:Lavi;-inkscape-font-specification:'Lavi, Normal';text-align:center;letter-spacing:0px;word-spacing:0px;writing-mode:lr-tb;text-anchor:middle;display:inline;opacity:0.5;fill:#000000;fill-opacity:1;stroke:none;stroke-width:0.718364px;stroke-linecap:butt;stroke-linejoin:miter;stroke-opacity:1"
       id="flowRoot4212-7-6"
       xml:space="preserve"><flowRegion
         style="stroke-width:0.718364px"
         id="flowRegion4214-5-2"><rect
           style="stroke-width:0.71836352px"
           y="1061.6674"
           x="-275.14545"
           height="323.61441"
           width="294.12939"
           id="rect4216-3-6" /></flowRegion><flowPara
         id="flowPara1220"
         style="font-style:normal;font-variant:normal;font-weight:bold;font-stretch:normal;font-size:18.6667px;line-height:1.25;font-family:Lavi;-inkscape-font-specification:'Lavi Bold';stroke-width:0.718364px">NOTE FOR TRANSLATORS</flowPara></flowRoot>
    <path
       sodipodi:nodetypes="cccccccccccc"
       inkscape:connector-curvature="0"
       id="rect4191-6-6"
       d="M -430.25364,116.98448 V 365.20819 H -71.78786 V 218.47397 h 13.92334 v 21.7545 l 43.13797,-37.5533 -43.13797,-37.5506 v 23.1272 h -13.92334 v -71.26729 z"
       style="color:#000000;clip-rule:nonzero;display:inline;overflow:visible;visibility:visible;opacity:0.5;isolation:auto;mix-blend-mode:normal;color-interpolation:sRGB;color-interpolation-filters:linearRGB;solid-color:#000000;solid-opacity:1;fill:#ffe680;fill-opacity:1;fill-rule:nonzero;stroke:#565656;stroke-width:1.20000005;stroke-linecap:butt;stroke-linejoin:miter;stroke-miterlimit:4;stroke-dasharray:none;stroke-dashoffset:0;stroke-opacity:1;marker:none;color-rendering:auto;image-rendering:auto;shape-rendering:auto;text-rendering:auto;enable-background:accumulate" />
    <flowRoot
       transform="matrix(1.3923338,0,0,1.391772,-36.204082,-1303.3246)"
       style="font-style:normal;font-variant:normal;font-weight:normal;font-stretch:normal;line-height:0.01%;font-family:Lavi;-inkscape-font-specification:'Lavi, Normal';text-align:center;letter-spacing:0px;word-spacing:0px;writing-mode:lr-tb;text-anchor:middle;display:inline;opacity:0.5;fill:#000000;fill-opacity:1;stroke:none;stroke-width:0.718364px;stroke-linecap:butt;stroke-linejoin:miter;stroke-opacity:1"
       id="flowRoot4212-7-7"
       xml:space="preserve"><flowRegion
         style="stroke-width:0.718364px"
         id="flowRegion4214-5-3"><rect
           style="stroke-width:0.71836352px"
           y="1061.6674"
           x="-275.14545"
           height="175.29474"
           width="241.20609"
           id="rect4216-3-60" /></flowRegion><flowPara
         id="flowPara1339"
         style="font-size:25.3242px;line-height:1.25;stroke-width:0.718364px">You can strech the scroll and translate “Qualicity” to</flowPara><flowPara
         id="flowPara1357"
         style="font-size:25.3242px;line-height:1.25;stroke-width:0.718364px">“City of Qualicity”.</flowPara></flowRoot>
    <flowRoot
       transform="matrix(1.3923338,0,0,1.391772,-72.256293,-1348.2053)"
       style="font-style:normal;font-variant:normal;font-weight:normal;font-stretch:normal;line-height:0.01%;font-family:Lavi;-inkscape-font-specification:'Lavi, Normal';text-align:center;letter-spacing:0px;word-spacing:0px;writing-mode:lr-tb;text-anchor:middle;display:inline;opacity:0.5;fill:#000000;fill-opacity:1;stroke:none;stroke-width:0.718364px;stroke-linecap:butt;stroke-linejoin:miter;stroke-opacity:1"
       id="flowRoot4212-7-6-2"
       xml:space="preserve"><flowRegion
         style="stroke-width:0.718364px"
         id="flowRegion4214-5-2-4"><rect
           style="stroke-width:0.71836352px"
           y="1061.6674"
           x="-275.14545"
           height="323.61441"
           width="294.12939"
           id="rect4216-3-6-0" /></flowRegion><flowPara
         id="flowPara1220-6"
         style="font-style:normal;font-variant:normal;font-weight:bold;font-stretch:normal;font-size:18.6667px;line-height:1.25;font-family:Lavi;-inkscape-font-specification:'Lavi Bold';stroke-width:0.718364px">NOTE FOR TRANSLATORS</flowPara></flowRoot>
  </g>
</svg>
