<?xml version="1.0" encoding="UTF-8" standalone="no"?>
<!-- Created with Inkscape (http://www.inkscape.org/) -->

<svg
   xmlns:dc="http://purl.org/dc/elements/1.1/"
   xmlns:cc="http://creativecommons.org/ns#"
   xmlns:rdf="http://www.w3.org/1999/02/22-rdf-syntax-ns#"
   xmlns:svg="http://www.w3.org/2000/svg"
   xmlns="http://www.w3.org/2000/svg"
   xmlns:xlink="http://www.w3.org/1999/xlink"
   xmlns:sodipodi="http://sodipodi.sourceforge.net/DTD/sodipodi-0.dtd"
   xmlns:inkscape="http://www.inkscape.org/namespaces/inkscape"
   id="svg2"
   version="1.1"
   inkscape:version="0.48.5 r10040"
   width="2481"
   height="3503"
   sodipodi:docname="E31P07.svg">
  <metadata
     id="metadata8">
    <rdf:RDF>
      <cc:Work
         rdf:about="">
        <dc:format>image/svg+xml</dc:format>
        <dc:type
           rdf:resource="http://purl.org/dc/dcmitype/StillImage" />
        <dc:title />
      </cc:Work>
    </rdf:RDF>
  </metadata>
  <defs
     id="defs6">
    <filter
       style="color-interpolation-filters:sRGB"
       id="filter4375-4-1-1-1-9-6-9-2-1-7-1"
       inkscape:label="deevad outline effect">
      <feFlood
         id="feFlood4377-7-9-0-8-1-0-2-2-06-3-9"
         flood-opacity="1"
         flood-color="rgb(0,0,0)"
         result="flood" />
      <feComposite
         id="feComposite4379-3-8-8-2-77-6-0-8-3-6-4"
         in2="SourceGraphic"
         in="flood"
         operator="in"
         result="composite1" />
      <feMorphology
         id="feMorphology4393-1-0-49-8-9-2-2-9-2-1-7"
         operator="dilate"
         radius="4"
         result="result3" />
      <feComposite
         id="feComposite4385-9-5-7-0-8-6-3-7-0-2-8"
         in2="result3"
         in="SourceGraphic"
         operator="over"
         result="composite2" />
    </filter>
    <filter
       style="color-interpolation-filters:sRGB"
       id="filter4375-4-1-1-1-9-6-9-2-1-7-1-3"
       inkscape:label="deevad outline effect">
      <feFlood
         id="feFlood4377-7-9-0-8-1-0-2-2-06-3-9-6"
         flood-opacity="1"
         flood-color="rgb(0,0,0)"
         result="flood" />
      <feComposite
         id="feComposite4379-3-8-8-2-77-6-0-8-3-6-4-7"
         in2="SourceGraphic"
         in="flood"
         operator="in"
         result="composite1" />
      <feMorphology
         id="feMorphology4393-1-0-49-8-9-2-2-9-2-1-7-5"
         operator="dilate"
         radius="4"
         result="result3" />
      <feComposite
         id="feComposite4385-9-5-7-0-8-6-3-7-0-2-8-3"
         in2="result3"
         in="SourceGraphic"
         operator="over"
         result="composite2" />
    </filter>
    <filter
       inkscape:collect="always"
       style="color-interpolation-filters:sRGB"
       id="filter4213"
       x="-0.0010298714"
       width="1.0020597"
       y="-0.0014578935"
       height="1.0029159">
      <feGaussianBlur
         inkscape:collect="always"
         stdDeviation="0.24308766"
         id="feGaussianBlur4215" />
    </filter>
    <filter
       inkscape:collect="always"
       style="color-interpolation-filters:sRGB"
       id="filter4213-8"
       x="-0.0010298714"
       width="1.0020597"
       y="-0.0014578935"
       height="1.0029159">
      <feGaussianBlur
         inkscape:collect="always"
         stdDeviation="0.24308766"
         id="feGaussianBlur4215-7" />
    </filter>
    <filter
       inkscape:collect="always"
       style="color-interpolation-filters:sRGB"
       id="filter1266"
       x="-0.013221323"
       width="1.0264426"
       y="-0.024911748"
       height="1.0498235">
      <feGaussianBlur
         inkscape:collect="always"
         stdDeviation="0.78825367"
         id="feGaussianBlur1268" />
    </filter>
    <filter
       inkscape:collect="always"
       style="color-interpolation-filters:sRGB"
       id="filter4213-0"
       x="-0.0010298714"
       width="1.0020597"
       y="-0.0014578935"
       height="1.0029159">
      <feGaussianBlur
         inkscape:collect="always"
         stdDeviation="0.24308766"
         id="feGaussianBlur4215-2" />
    </filter>
    <filter
       inkscape:collect="always"
       style="color-interpolation-filters:sRGB"
       id="filter1266-5"
       x="-0.013221323"
       width="1.0264426"
       y="-0.024911748"
       height="1.0498235">
      <feGaussianBlur
         inkscape:collect="always"
         stdDeviation="0.78825367"
         id="feGaussianBlur1268-9" />
    </filter>
    <filter
       inkscape:collect="always"
       style="color-interpolation-filters:sRGB"
       id="filter4213-8-8"
       x="-0.0010298714"
       width="1.0020597"
       y="-0.0014578935"
       height="1.0029159">
      <feGaussianBlur
         inkscape:collect="always"
         stdDeviation="0.24308766"
         id="feGaussianBlur4215-7-9" />
    </filter>
    <filter
       inkscape:collect="always"
       style="color-interpolation-filters:sRGB"
       id="filter1266-5-1"
       x="-0.013221323"
       width="1.0264426"
       y="-0.024911748"
       height="1.0498235">
      <feGaussianBlur
         inkscape:collect="always"
         stdDeviation="0.78825367"
         id="feGaussianBlur1268-9-2" />
    </filter>
    <filter
       inkscape:collect="always"
       style="color-interpolation-filters:sRGB"
       id="filter4213-1"
       x="-0.0010298714"
       width="1.0020597"
       y="-0.0014578935"
       height="1.0029159">
      <feGaussianBlur
         inkscape:collect="always"
         stdDeviation="0.24308766"
         id="feGaussianBlur4215-9" />
    </filter>
    <filter
       inkscape:collect="always"
       style="color-interpolation-filters:sRGB"
       id="filter1395"
       x="-0.01195875"
       width="1.0239175"
       y="-0.014728761"
       height="1.0294575">
      <feGaussianBlur
         inkscape:collect="always"
         stdDeviation="0.26634151"
         id="feGaussianBlur1397" />
    </filter>
    <filter
       inkscape:collect="always"
       style="color-interpolation-filters:sRGB"
       id="filter1639"
       x="-0.022949615"
       width="1.0458992"
       y="-0.048711938"
       height="1.0974239">
      <feGaussianBlur
         inkscape:collect="always"
         stdDeviation="0.45636794"
         id="feGaussianBlur1641" />
    </filter>
  </defs>
  <sodipodi:namedview
     pagecolor="#ffffff"
     bordercolor="#666666"
     borderopacity="1"
     objecttolerance="10"
     gridtolerance="10"
     guidetolerance="10"
     inkscape:pageopacity="0"
     inkscape:pageshadow="2"
     inkscape:window-width="1276"
     inkscape:window-height="756"
     id="namedview4"
     showgrid="false"
     inkscape:zoom="0.31984174"
     inkscape:cx="1810.7548"
     inkscape:cy="1199.5159"
     inkscape:window-x="354"
     inkscape:window-y="0"
     inkscape:window-maximized="0"
     inkscape:current-layer="layer1"
     inkscape:snap-global="false" />
  <g
     inkscape:groupmode="layer"
     id="layer2"
     inkscape:label="artwork"
     sodipodi:insensitive="true">
    <image
       sodipodi:absref="/Users/su_huynh/Downloads/lang/vi/../gfx_Pepper-and-Carrot_by-David-Revoy_E31P07.png"
       xlink:href="../gfx_Pepper-and-Carrot_by-David-Revoy_E31P07.png"
       width="2481"
       height="3503"
       id="image10"
       x="0"
       y="0" />
  </g>
  <g
     inkscape:groupmode="layer"
     id="layer3"
     inkscape:label="speechbubbles"
     style="opacity:1">
    <path
       style="fill:#ffffff;stroke:none;stroke-width:1"
       d="m 1106.0698,2364.2966 c -11.6691,-1.8294 -24.0895,-4.612 -32.8712,-13.0801 -5.3332,-4.801 -7.3799,-11.8865 -9.0134,-18.6167 -1.7512,-7.2534 -4.0169,-15.0959 -10.2535,-19.8117 -8.1983,-7.1963 -20.6303,-6.3017 -28.5569,-13.9283 -7.9089,-11.2207 -5.5612,-26.5213 -13.792,-37.5876 -6.0341,-8.2415 -13.21645,-15.534 -20.08555,-23.0643 -3.25505,3.9734 -0.85984,9.2711 -1.37949,13.849 -0.8446,4.1744 -0.45106,8.5017 -0.35229,12.7431 0.56185,11.6716 3.48347,23.4796 10.14381,33.2232 3.53272,5.8733 6.60632,12.8834 13.20942,15.8976 6.8374,2.8369 14.9959,5.2953 20.9776,7.1591 5.9817,1.8638 11.038,1.7891 13.084,6.9271 2.3464,5.0542 4.4303,10.2451 6.6776,15.3527 2.545,5.7563 6.3126,11.1817 11.8226,14.4395 11.7632,7.9059 26.7924,8.5572 40.3893,6.4974 z"
       id="path3023-4"
       inkscape:connector-curvature="0"
       sodipodi:nodetypes="ccccccccccczcccc" />
    <path
       style="display:inline;fill:#ffffff;fill-rule:evenodd;stroke:none;stroke-width:1px;stroke-linecap:butt;stroke-linejoin:miter;stroke-opacity:1"
       d="m 631.07063,1022.9303 c -73.3336,55.9324 -104.4071,93.2206 -116.8365,150.3959 -12.4294,57.1754 -21.13,118.0795 47.2318,190.1701 -79.5483,-68.3618 -74.5765,-141.6953 -72.0907,-162.8253 2.4859,-21.1301 16.1583,-95.7066 60.9042,-147.9101 44.7459,-52.2036 93.2206,-87.00582 93.2206,-87.00582 l 6.2147,34.80222 z"
       id="path1094"
       inkscape:connector-curvature="0" />
    <path
       style="color:#000000;fill:#ffffff;fill-opacity:1;fill-rule:nonzero;stroke:none;stroke-width:1.1850816px;marker:none;visibility:visible;display:inline;overflow:visible;enable-background:accumulate"
       d="m 881.8715,2226.3441 c 0.65883,-20.6989 37.74249,-55.0806 106.58574,-55.0806 49.10516,0 90.84826,7.0803 104.84866,44.0411 9.7783,25.8146 3.6334,47.5185 -25.3516,62.0046 -36.1224,18.053 -18.5448,13.4217 -78.30073,13.8153 -69.02891,0.4546 -37.14281,9.6202 -80.98878,-11.0211 -25.19228,-11.8597 -27.35267,-36.1849 -26.79329,-53.7593 z"
       id="path3365-7"
       inkscape:connector-curvature="0"
       sodipodi:nodetypes="sssssss" />
    <path
       style="fill:#ffffff;stroke:none"
       d="m 1045.9335,2080.0405 c -0.091,49.751 -31.943,98.8159 -102.91598,104.0442 -143.12364,10.5434 -137.12583,-42.9989 -135.78464,-118.1284 1.11548,-62.4855 51.0893,-85.9101 129.00245,-84.8772 86.50077,1.1467 109.78407,52.2623 109.69817,98.9614 z"
       id="path3280-8-0-3"
       inkscape:connector-curvature="0"
       sodipodi:nodetypes="sssss" />
    <path
       style="color:#000000;display:inline;overflow:visible;visibility:visible;opacity:1;fill:#ffffff;fill-opacity:1;fill-rule:nonzero;stroke:none;stroke-width:0.58296984px;marker:none;enable-background:accumulate"
       d="m 831.86487,1909.5424 c 11.29455,-13.7475 135.68273,-23.5391 167.86915,7.5545 22.43068,21.6697 8.81838,58.3821 -10.40769,69.2002 -19.22591,10.8171 -99.61845,16.3496 -126,10.8412 -23.72371,-4.9544 -48.62526,-15.617 -49.93815,-43.9972 -0.53581,-11.5833 7.18206,-29.8502 18.47669,-43.5987 z"
       id="path4040-3"
       inkscape:connector-curvature="0"
       sodipodi:nodetypes="zssssz" />
    <path
       style="color:#000000;display:inline;overflow:visible;visibility:visible;fill:#ffffff;fill-opacity:1;fill-rule:nonzero;stroke:none;stroke-width:1px;marker:none;enable-background:accumulate"
       d="m 513.39226,1560.6825 c -20.56334,-38.6246 30.41574,-79.0088 76.08739,-66.2175 -11.0856,-9.0468 -62.14969,-43.6193 -114.25657,32.0263 -28.17045,40.8962 25.40397,34.0641 25.40397,34.0641 z"
       id="path4035-4"
       inkscape:connector-curvature="0"
       sodipodi:nodetypes="ccscc" />
    <path
       style="color:#000000;display:inline;overflow:visible;visibility:visible;fill:#ffffff;fill-opacity:1;fill-rule:nonzero;stroke:none;stroke-width:1px;marker:none;enable-background:accumulate"
       d="m 1740.924,1775.3534 c -41.7501,-3.5977 -88.1678,-42.8204 -86.1303,-69.3756 2.5752,-3.8294 -6.743,-13.959 -6.743,-13.959 0,0 11.5715,-1.9717 8.445,-14.2491 -3.1266,-12.2775 7.4012,-18.3398 7.4012,-18.3398 0,0 25.5919,16.6709 34.0315,24.716 -7.3672,10.1082 -10.0408,16.3402 -13.7565,18.4792 -17.0299,6.8863 32.2595,66.9357 56.7521,72.7283 z"
       id="path4456-8"
       inkscape:connector-curvature="0"
       sodipodi:nodetypes="cccccccc" />
    <path
       style="color:#000000;display:inline;overflow:visible;visibility:visible;fill:#ffffff;fill-opacity:1;fill-rule:nonzero;stroke:none;stroke-width:0.86489981px;marker:none;enable-background:accumulate"
       d="m 501.73376,829.61618 c 22.06732,-19.69173 56.16518,-28.32614 89.04743,-30.55582 42.09638,-3.74765 159.09861,-10.90777 222.69119,2.23009 42.89989,10.67312 84.32755,36.15197 94.48694,68.1024 13.53213,36.72891 19.98644,94.55192 -6.96444,127.40701 -48.83125,50.03634 -150.87858,48.64324 -227.61986,46.59874 -29.66498,-0.9973 -59.35048,-1.9435 -88.93976,-3.8637 -22.76721,-1.66 -45.61462,-7.0933 -63.26895,-18.5859 -42.90014,-24.35604 -65.62524,-68.38406 -53.91071,-108.45712 2.67815,-29.03049 8.59403,-60.10393 34.47816,-82.8757 z"
       id="path4040-57"
       inkscape:connector-curvature="0"
       sodipodi:nodetypes="cccccccccc" />
    <path
       style="color:#000000;fill:#ffffff;fill-opacity:1;fill-rule:nonzero;stroke:none;stroke-width:1.0583179px;marker:none;visibility:visible;display:inline;overflow:visible;enable-background:accumulate"
       d="m 263.14555,1585.6771 c 7.11846,-46.6546 22.57033,-95.4925 169.3779,-88.2038 146.80768,7.2889 166.96828,44.8291 167.92674,93.1339 1.25563,63.2759 -23.8741,77.8957 -45.29386,85.8228 -21.41962,7.9272 -71.6721,16.7812 -107.85128,19.329 -19.45275,1.3706 -137.53896,-5.3359 -159.91857,-29.4183 -22.29987,-23.996 -25.91195,-47.1401 -24.24093,-80.6636 z"
       id="path3365-90"
       inkscape:connector-curvature="0"
       sodipodi:nodetypes="csssssc" />
    <path
       style="color:#000000;display:inline;overflow:visible;visibility:visible;fill:#ffffff;fill-opacity:1;fill-rule:nonzero;stroke:none;stroke-width:1.23743439px;marker:none;enable-background:accumulate"
       d="m 1572.0663,1730.6574 c -59.1574,-1.3204 -84.1412,-16.8899 -98.7313,-40.1414 -14.5899,-23.2524 -2.4717,-60.7919 23.1612,-74.0842 25.6329,-13.2925 60.3134,-14.6393 100.4568,-12.8804 72.537,3.1808 122.7787,13.2015 128.4582,49.2585 5.6395,35.8003 1.1128,54.794 -52.2076,71.843 -50.1947,9.8114 -101.1373,6.0045 -101.1373,6.0045 z"
       id="path3970-36-4"
       inkscape:connector-curvature="0"
       sodipodi:nodetypes="cccsscc" />
    <path
       style="fill:#ffffff;fill-rule:evenodd;stroke:none;stroke-width:1px;stroke-linecap:butt;stroke-linejoin:miter;stroke-opacity:1"
       d="m 2215.285,1175.982 c -0.8172,-29.9933 24.7571,-40.6219 36.1986,-42.3867 11.4416,-1.7637 54.5166,-5.2494 72.4962,8.8648 17.9796,14.1143 24.1191,23.9247 14.7106,46.7543 -14.9701,19.4933 -34.3247,22.0532 -50.6698,22.9351 -16.345,0.8819 -51.487,-4.4104 -62.9285,-16.7609 -11.4416,-12.3495 -9.8071,-19.4066 -9.8071,-19.4066 z"
       id="path1365"
       inkscape:connector-curvature="0"
       sodipodi:nodetypes="ccscscc" />
    <path
       style="fill:#ffffff;fill-rule:evenodd;stroke:none;stroke-width:1px;stroke-linecap:butt;stroke-linejoin:miter;stroke-opacity:1"
       d="m 2248.1828,1172.5234 c 0,0 -7.5732,20.9817 -15.7293,27.1738 -8.1561,6.192 -28.7528,17.5708 -43.9083,15.729 27.8126,9.0205 51.8926,-0.7427 58.6764,-5.0743 6.7848,-4.3317 21.7457,-26.0926 21.7457,-26.0926 z"
       id="path1367"
       inkscape:connector-curvature="0"
       sodipodi:nodetypes="cccccc" />
  </g>
  <g
     inkscape:groupmode="layer"
     id="layer1"
     inkscape:label="txt">
    <text
       xml:space="preserve"
       style="font-style:normal;font-variant:normal;font-weight:bold;font-stretch:normal;line-height:0%;font-family:ComicSpice;-inkscape-font-specification:ComicSpice Bold;letter-spacing:0px;word-spacing:0px;display:inline;fill:#ffffff;fill-opacity:1;stroke:#000000;stroke-width:7.85655832000000043;stroke-miterlimit:4;stroke-dasharray:none;stroke-opacity:1;paint-order:stroke markers fill;filter:url(#filter4375-4-1-1-1-9-6-9-2-1-7-1)"
       x="787.65729"
       y="1584.5073"
       id="text4580-1-7-3-6-9-4"
       transform="matrix(0.46131079,-0.15363757,-0.08516477,0.59026719,536.76709,-149.68307)"><tspan
         sodipodi:role="line"
         id="tspan4582-8-5-6-1-3-5"
         x="787.65729"
         y="1584.5073"
         style="font-size:70px;line-height:1.25000000000000000;fill:#ffffff;fill-opacity:1;stroke:#000000;stroke-width:7.85655832000000043;stroke-miterlimit:4;stroke-dasharray:none;stroke-opacity:1;paint-order:stroke markers fill;-inkscape-font-specification:ComicSpice Bold;font-family:ComicSpice;font-weight:bold;font-style:normal;font-stretch:normal;font-variant:normal">Tok!</tspan></text>
    <text
       xml:space="preserve"
       style="font-style:normal;font-variant:normal;font-weight:bold;font-stretch:normal;line-height:0%;font-family:ComicSpice;-inkscape-font-specification:ComicSpice Bold;letter-spacing:0px;word-spacing:0px;display:inline;fill:#ffffff;fill-opacity:1;stroke:#000000;stroke-width:7.85655832000000043;stroke-miterlimit:4;stroke-dasharray:none;stroke-opacity:1;paint-order:stroke markers fill;filter:url(#filter4375-4-1-1-1-9-6-9-2-1-7-1-3)"
       x="787.65729"
       y="1584.5073"
       id="text4580-1-7-3-6-9-4-5"
       transform="matrix(0.45087839,-0.18199128,-0.04834106,0.59441697,1007.0439,-136.51326)"><tspan
         sodipodi:role="line"
         x="787.65729"
         y="1584.5073"
         style="font-size:70px;line-height:1.25000000000000000;fill:#ffffff;fill-opacity:1;stroke:#000000;stroke-width:7.85655832000000043;stroke-miterlimit:4;stroke-dasharray:none;stroke-opacity:1;paint-order:stroke markers fill;-inkscape-font-specification:ComicSpice Bold;font-family:ComicSpice;font-weight:bold;font-style:normal;font-stretch:normal;font-variant:normal"
         id="tspan907">Tok!</tspan></text>
    <text
       xml:space="preserve"
       style="font-size:10.4081316px;font-style:normal;font-variant:normal;font-weight:bold;font-stretch:normal;text-align:center;line-height:0%;letter-spacing:0px;word-spacing:0px;writing-mode:lr-tb;text-anchor:middle;fill:#000000;fill-opacity:1;stroke:none;display:inline;font-family:ComicSpice;-inkscape-font-specification:ComicSpice Bold"
       x="697.43341"
       y="872.5152"
       id="text4246-2-3-1-3-9-9-36"
       sodipodi:linespacing="0%"><tspan
         sodipodi:role="line"
         x="697.43341"
         y="872.5152"
         style="font-size:40px;font-style:normal;font-variant:normal;font-weight:bold;font-stretch:normal;line-height:1.25;font-family:ComicSpice;-inkscape-font-specification:ComicSpice Bold"
         id="tspan132">Ba năm đã trỏi qua</tspan><tspan
         sodipodi:role="line"
         x="697.43341"
         y="922.5152"
         style="font-size:40px;font-style:normal;font-variant:normal;font-weight:bold;font-stretch:normal;line-height:1.25;font-family:ComicSpice;-inkscape-font-specification:ComicSpice Bold"
         id="tspan30387">sau em nói  &quot;chỉ bắt nó</tspan><tspan
         sodipodi:role="line"
         x="697.43341"
         y="972.5152"
         style="font-size:40px;font-style:normal;font-variant:normal;font-weight:bold;font-stretch:normal;line-height:1.25;font-family:ComicSpice;-inkscape-font-specification:ComicSpice Bold"
         id="tspan30378">làm một bài thi cuối cùng&quot;...</tspan></text>
    <text
       xml:space="preserve"
       style="font-style:normal;font-variant:normal;font-weight:bold;font-stretch:normal;text-align:center;line-height:0%;letter-spacing:0px;word-spacing:0px;text-anchor:middle;fill:#000000;fill-opacity:1;stroke:none;font-family:ComicSpice;-inkscape-font-specification:ComicSpice Bold"
       x="425.85593"
       y="1547.2662"
       id="text4246-10"
       sodipodi:linespacing="0%"><tspan
         sodipodi:role="line"
         style="font-size:40px;font-style:normal;font-variant:normal;font-weight:bold;font-stretch:normal;line-height:1.25;font-family:ComicSpice;-inkscape-font-specification:ComicSpice Bold"
         x="425.85593"
         y="1547.2662"
         id="tspan143">...chúng tôi</tspan><tspan
         sodipodi:role="line"
         style="font-size:40px;font-style:normal;font-variant:normal;font-weight:bold;font-stretch:normal;line-height:1.25;font-family:ComicSpice;-inkscape-font-specification:ComicSpice Bold"
         x="425.85593"
         y="1597.2662"
         id="tspan30359">sẽ không chờ</tspan><tspan
         sodipodi:role="line"
         style="font-size:40px;font-style:normal;font-variant:normal;font-weight:bold;font-stretch:normal;line-height:1.25;font-family:ComicSpice;-inkscape-font-specification:ComicSpice Bold"
         x="425.85593"
         y="1647.2662"
         id="tspan30361">đợi cả đem ở đây!</tspan></text>
    <text
       xml:space="preserve"
       style="font-style:normal;font-variant:normal;font-weight:normal;font-stretch:normal;text-align:center;line-height:0%;letter-spacing:0px;word-spacing:0px;text-anchor:middle;fill:#000000;fill-opacity:1;stroke:none;font-family:ComicSpice;-inkscape-font-specification:ComicSpice"
       x="1597.429"
       y="1682.1624"
       id="text4246-10-2"
       sodipodi:linespacing="0%"><tspan
         sodipodi:role="line"
         style="font-size:46.66666794px;font-style:normal;font-variant:normal;font-weight:bold;font-stretch:normal;line-height:1.25;font-family:ComicSpice;-inkscape-font-specification:ComicSpice"
         x="1597.429"
         y="1682.1624"
         id="tspan933-1">Có gì đâu?</tspan></text>
    <text
       xml:space="preserve"
       style="font-style:normal;font-variant:normal;font-weight:bold;font-stretch:normal;line-height:0%;font-family:ComicSpice;-inkscape-font-specification:ComicSpice Bold;text-align:center;letter-spacing:0px;word-spacing:0px;text-anchor:middle;fill:#000000;fill-opacity:1;stroke:none"
       x="2281.0439"
       y="1178.2853"
       id="text4246-3-7-7-6-7-2-9-6-1-4-3-1"><tspan
         sodipodi:role="line"
         style="font-size:45px;line-height:1.20000005000000010;-inkscape-font-specification:ComicSpice Bold;font-family:ComicSpice;font-weight:bold;font-style:normal;font-stretch:normal;font-variant:normal"
         x="2281.0439"
         y="1178.2853"
         id="tspan1249-3">...</tspan></text>
    <text
       xml:space="preserve"
       style="font-size:15.03510189px;font-style:normal;font-variant:normal;font-weight:normal;font-stretch:normal;text-align:center;line-height:0%;letter-spacing:0px;word-spacing:0px;text-anchor:middle;fill:#000000;fill-opacity:1;stroke:none;font-family:ComicSpice;-inkscape-font-specification:ComicSpice"
       x="1196.4446"
       y="1798.222"
       id="text4246-10-27"
       transform="matrix(0.91367473,0,-0.09878305,1.0944814,0,0)"
       inkscape:transform-center-x="3.7807182"
       inkscape:transform-center-y="17.013232"
       sodipodi:linespacing="0%"><tspan
         sodipodi:role="line"
         style="font-size:50.11700439px;font-style:normal;font-variant:normal;font-weight:bold;font-stretch:normal;line-height:1.25;font-family:ComicSpice;-inkscape-font-specification:ComicSpice"
         x="1196.4446"
         y="1798.222"
         id="tspan933-9">Được...</tspan></text>
    <text
       xml:space="preserve"
       style="font-style:normal;font-variant:normal;font-weight:bold;font-stretch:normal;text-align:center;line-height:0%;letter-spacing:0px;word-spacing:0px;text-anchor:middle;fill:#000000;fill-opacity:1;stroke:none;font-family:ComicSpice;-inkscape-font-specification:ComicSpice Bold"
       x="929.70203"
       y="2048.0439"
       id="text4246-10-3"
       sodipodi:linespacing="0%"><tspan
         sodipodi:role="line"
         style="font-size:40px;font-style:normal;font-variant:normal;font-weight:bold;font-stretch:normal;line-height:1.25;font-family:ComicSpice;-inkscape-font-specification:ComicSpice Bold"
         x="929.70203"
         y="2048.0439"
         id="tspan152">...cho nhỏ</tspan><tspan
         sodipodi:role="line"
         style="font-size:40px;font-style:normal;font-variant:normal;font-weight:bold;font-stretch:normal;line-height:1.25;font-family:ComicSpice;-inkscape-font-specification:ComicSpice Bold"
         x="929.70203"
         y="2098.0439"
         id="tspan30368">đó bằng</tspan><tspan
         sodipodi:role="line"
         style="font-size:40px;font-style:normal;font-variant:normal;font-weight:bold;font-stretch:normal;line-height:1.25;font-family:ComicSpice;-inkscape-font-specification:ComicSpice Bold"
         x="929.70203"
         y="2148.0439"
         id="tspan30370">tốt nghiệp...</tspan></text>
    <text
       xml:space="preserve"
       style="font-size:10.14146709px;font-style:normal;font-variant:normal;font-weight:bold;font-stretch:normal;text-align:center;line-height:0%;letter-spacing:0px;word-spacing:0px;text-anchor:middle;fill:#000000;fill-opacity:1;stroke:none;font-family:ComicSpice;-inkscape-font-specification:ComicSpice Bold"
       x="983.44666"
       y="2217.302"
       id="text4246-10-3-6"
       sodipodi:linespacing="0%"><tspan
         sodipodi:role="line"
         style="font-size:33.80488968px;font-style:normal;font-variant:normal;font-weight:bold;font-stretch:normal;line-height:1.25;font-family:ComicSpice;-inkscape-font-specification:ComicSpice Bold"
         x="983.44666"
         y="2217.302"
         id="tspan156">...mà đậu</tspan><tspan
         sodipodi:role="line"
         style="font-size:33.80488968px;font-style:normal;font-variant:normal;font-weight:bold;font-stretch:normal;line-height:1.25;font-family:ComicSpice;-inkscape-font-specification:ComicSpice Bold"
         x="983.44666"
         y="2259.5581"
         id="tspan30374">điểm thấp.</tspan></text>
    <text
       xml:space="preserve"
       style="font-size:53.80581284px;font-style:normal;font-variant:normal;font-weight:normal;font-stretch:normal;text-align:center;line-height:0%;letter-spacing:0px;word-spacing:0px;text-anchor:middle;opacity:0.6;fill:#000000;fill-opacity:1;stroke:none;display:inline;filter:url(#filter4213);font-family:Lavi;-inkscape-font-specification:Lavi"
       x="-447.29675"
       y="2872.5061"
       id="text4246-85"
       transform="matrix(0.61655851,0.01619223,-0.10823975,0.68344058,2145.7387,685.18629)"
       sodipodi:linespacing="0%"><tspan
         sodipodi:role="line"
         style="font-size:53.80581284px;font-style:normal;font-variant:normal;font-weight:normal;font-stretch:normal;line-height:1.26999998;stroke:#000000;stroke-width:1.4631319;stroke-opacity:1;font-family:Fondamento;-inkscape-font-specification:Fondamento"
         x="-447.29675"
         y="2872.5061"
         id="tspan4172">Bằng</tspan></text>
    <text
       xml:space="preserve"
       style="font-size:75.2791214px;font-style:normal;font-variant:normal;font-weight:normal;font-stretch:normal;text-align:center;line-height:0%;letter-spacing:0px;word-spacing:0px;text-anchor:middle;opacity:0.6;fill:#000000;fill-opacity:1;stroke:none;display:inline;filter:url(#filter4213-1);font-family:Lavi;-inkscape-font-specification:Lavi"
       x="-447.29675"
       y="2872.5061"
       id="text4246-85-4"
       transform="matrix(0.43869621,0.0116259,-0.07701519,0.49070507,1966.3849,1273.2118)"
       sodipodi:linespacing="0%"><tspan
         sodipodi:role="line"
         style="font-size:75.2791214px;font-style:normal;font-variant:normal;font-weight:normal;font-stretch:normal;line-height:1.26999998;stroke:#000000;stroke-width:2.04705167;stroke-opacity:1;font-family:Fondamento;-inkscape-font-specification:Fondamento"
         x="-447.29675"
         y="2872.5061"
         id="tspan4172-78">Phù Thủy</tspan></text>
    <text
       xml:space="preserve"
       style="font-size:64.69233704px;font-style:normal;font-variant:normal;font-weight:normal;font-stretch:normal;text-align:center;line-height:0%;letter-spacing:0px;word-spacing:0px;text-anchor:middle;opacity:0.6;fill:#000000;fill-opacity:1;stroke:none;display:inline;filter:url(#filter4213-0);font-family:Lavi;-inkscape-font-specification:Lavi"
       x="-447.29675"
       y="2872.5061"
       id="text4246-85-3"
       transform="matrix(0.50981979,0.02319952,-0.06926513,0.5709826,1974.9342,1086.2195)"
       sodipodi:linespacing="0%"><tspan
         sodipodi:role="line"
         style="font-size:64.69233704px;font-style:normal;font-variant:normal;font-weight:normal;font-stretch:normal;line-height:1.26999998;stroke:#000000;stroke-width:1.75916731;stroke-opacity:1;font-family:Fondamento;-inkscape-font-specification:Fondamento"
         x="-447.29675"
         y="2872.5061"
         id="tspan4172-7">Châu Sa</tspan></text>
    <text
       xml:space="preserve"
       style="font-style:normal;font-variant:normal;font-weight:normal;font-stretch:normal;text-align:center;line-height:0%;letter-spacing:0px;word-spacing:0px;text-anchor:middle;opacity:0.69899998;fill:#202020;fill-opacity:1;stroke:#000000;stroke-width:0.72288066;stroke-miterlimit:4;stroke-opacity:1;stroke-dasharray:none;display:inline;filter:url(#filter1266-5);font-family:Lavi;-inkscape-font-specification:Lavi"
       x="903.31201"
       y="2924.6372"
       id="text4246-8-3-7-2"
       transform="matrix(0.52010547,-0.08051244,-0.02237175,0.62243785,1164.5527,1049.6516)"
       sodipodi:linespacing="0%"><tspan
         sodipodi:role="line"
         style="font-size:38.3127861px;line-height:1.25;fill:#202020;fill-opacity:1;stroke:#000000;stroke-width:0.72288066;stroke-miterlimit:4;stroke-opacity:1;stroke-dasharray:none"
         x="903.31201"
         y="2924.6372"
         id="tspan4150-8-6-5-2">Cổ Minh</tspan></text>
    <path
       style="opacity:0.69899998;fill:none;stroke:#202020;stroke-width:2.29999995;stroke-linecap:butt;stroke-linejoin:miter;stroke-miterlimit:4;stroke-opacity:1;stroke-dasharray:none;filter:url(#filter1639)"
       d="m 1547.1934,2802.853 c 3.8646,-3.5133 9.3102,-3.689 12.2965,-3.5133 2.9863,0.1757 7.0265,-4.7429 9.8371,-5.6212 2.8106,-0.8783 12.8234,0.1756 13.8774,-0.8783 1.054,-1.054 17.7465,-5.6336 19.4569,-6.166 6.3803,-1.9858 2.8963,-8.3988 2.8963,-8.3988"
       id="path1409"
       inkscape:connector-curvature="0"
       transform="matrix(0.99054102,0.13721696,-0.13721696,0.99054102,396.93391,-180.9645)"
       sodipodi:nodetypes="csscsc" />
    <text
       xml:space="preserve"
       style="font-style:normal;font-variant:normal;font-weight:normal;font-stretch:normal;text-align:center;line-height:0%;letter-spacing:0px;word-spacing:0px;text-anchor:middle;opacity:0.69899998;fill:#202020;fill-opacity:1;stroke:#000000;stroke-width:0.74788481;stroke-miterlimit:4;stroke-opacity:1;stroke-dasharray:none;display:inline;filter:url(#filter1266);font-family:Lavi;-inkscape-font-specification:Lavi"
       x="903.31201"
       y="2924.6372"
       id="text4246-8-3-7"
       transform="matrix(0.33699732,-0.197818,0.11643218,0.51102059,855.64159,1486.3703)"
       sodipodi:linespacing="0%"><tspan
         sodipodi:role="line"
         style="font-size:51.00867081px;font-style:normal;font-variant:normal;font-weight:normal;font-stretch:normal;line-height:1.25;fill:#202020;fill-opacity:1;stroke:#000000;stroke-width:0.74788481;stroke-miterlimit:4;stroke-opacity:1;stroke-dasharray:none;font-family:Cursivah;-inkscape-font-specification:Cursivah"
         x="903.31201"
         y="2924.6372"
         id="tspan4150-8-6-5">Cây Yến Nhi</tspan></text>
    <path
       style="opacity:0.69899998;fill:none;stroke:#202020;stroke-width:0.70999998;stroke-linecap:butt;stroke-linejoin:miter;stroke-miterlimit:4;stroke-opacity:1;stroke-dasharray:none;stroke-dashoffset:0;filter:url(#filter1395)"
       d="m 1549.4114,2773.0562 c 5.3808,7.3082 -7.5222,14.0933 -21.3145,23.9594 -9.3229,6.669 -59.7274,32.6068 -59.7274,32.6068"
       id="path910"
       inkscape:connector-curvature="0"
       sodipodi:nodetypes="csc" />
    <text
       xml:space="preserve"
       style="font-style:normal;font-variant:normal;font-weight:normal;font-stretch:normal;text-align:center;line-height:0%;letter-spacing:-0.03348966px;word-spacing:0px;text-anchor:middle;opacity:0.69899998;fill:#202020;fill-opacity:1;stroke:#000000;stroke-width:0.68679875;stroke-miterlimit:4;stroke-opacity:1;stroke-dasharray:none;display:inline;filter:url(#filter1266-5-1);font-family:Lavi;-inkscape-font-specification:Lavi"
       x="903.31201"
       y="2924.6372"
       id="text4246-8-3-7-2-9"
       transform="matrix(0.6182392,-0.01052647,-0.270757,0.58148539,1772.6628,1144.8642)"
       sodipodi:linespacing="0%"><tspan
         sodipodi:role="line"
         style="font-size:38.3127861px;font-style:normal;font-variant:normal;font-weight:normal;font-stretch:normal;line-height:1.25;letter-spacing:-0.03348966px;fill:#202020;fill-opacity:1;stroke:#000000;stroke-width:0.68679875;stroke-miterlimit:4;stroke-opacity:1;stroke-dasharray:none;font-family:Fondamento;-inkscape-font-specification:Fondamento"
         x="903.29529"
         y="2924.6372"
         id="tspan4150-8-6-5-2-3">Thị Mỹ</tspan></text>
    <text
       xml:space="preserve"
       style="font-style:normal;font-variant:normal;font-weight:normal;font-stretch:normal;text-align:center;line-height:0%;letter-spacing:0px;word-spacing:0px;text-anchor:middle;opacity:0.6;fill:#000000;fill-opacity:1;stroke:none;display:inline;filter:url(#filter4213-8-8);font-family:Lavi;-inkscape-font-specification:Lavi"
       x="-447.29675"
       y="2872.5061"
       id="text4246-85-9-7"
       transform="matrix(0.47831841,0.01305834,-0.01239099,0.55116529,1776.7967,1303.9127)"
       sodipodi:linespacing="0%"><tspan
         sodipodi:role="line"
         style="font-size:49.19388962px;font-style:normal;font-variant:normal;font-weight:normal;font-stretch:normal;line-height:1.26999998;stroke:#000000;stroke-width:1.8530606;stroke-opacity:1;font-family:Fondamento;-inkscape-font-specification:Fondamento"
         x="-447.29675"
         y="2872.5061"
         id="tspan1120-6">~ Hạt Tiêu là ~</tspan></text>
    <text
       xml:space="preserve"
       style="font-style:normal;font-variant:normal;font-weight:normal;font-stretch:normal;text-align:center;line-height:0%;letter-spacing:0px;word-spacing:0px;text-anchor:middle;opacity:0.6;fill:#000000;fill-opacity:1;stroke:none;display:inline;filter:url(#filter4213-8);font-family:Lavi;-inkscape-font-specification:Lavi"
       x="-447.29675"
       y="2872.5061"
       id="text4246-85-9"
       transform="matrix(0.55026081,0.01267562,-0.01425468,0.53501165,1808.7467,1385.9743)"
       sodipodi:linespacing="0%"><tspan
         sodipodi:role="line"
         style="font-size:49.19388962px;font-style:normal;font-variant:normal;font-weight:normal;font-stretch:normal;line-height:1.26999998;stroke:#000000;stroke-width:1.75357032;stroke-opacity:1;font-family:Fondamento;-inkscape-font-specification:Fondamento"
         x="-447.29675"
         y="2872.5061"
         id="tspan4172-2">Phù Thủy</tspan><tspan
         sodipodi:role="line"
         style="font-size:49.19388962px;font-style:normal;font-variant:normal;font-weight:normal;font-stretch:normal;line-height:1.26999998;stroke:#000000;stroke-width:1.75357032;stroke-opacity:1;font-family:Fondamento;-inkscape-font-specification:Fondamento"
         x="-447.29675"
         y="2934.9824"
         id="tspan1120">Chính Thức</tspan></text>
    <text
       xml:space="preserve"
       style="font-size:10.76311207000000003px;font-style:normal;font-variant:normal;font-weight:normal;font-stretch:normal;text-align:center;line-height:0%;letter-spacing:0px;word-spacing:0px;text-anchor:middle;fill:#ffffff;fill-opacity:1;stroke:#000000;stroke-width:0;stroke-miterlimit:4;stroke-opacity:1;stroke-dasharray:none;display:inline;font-family:ComicSpice;-inkscape-font-specification:ComicSpice"
       x="2426.4905"
       y="2903.1548"
       id="text4213-7"
       transform="matrix(0.85852879,0,-0.29243083,1.1647833,0,0)"
       sodipodi:linespacing="0%"><tspan
         sodipodi:role="line"
         id="tspan3562-5"
         x="2426.4905"
         y="2903.1548"
         style="font-size:64.74081420999999636px;font-style:normal;font-variant:normal;font-weight:bold;font-stretch:normal;line-height:1.25000000000000000;fill:#ffffff;fill-opacity:1;stroke:none;font-family:ComicSpice;-inkscape-font-specification:ComicSpice">- HẾT -</tspan></text>
  </g>
</svg>
