<?xml version="1.0" encoding="UTF-8" standalone="no"?>
<!-- Created with Inkscape (http://www.inkscape.org/) -->

<svg
   xmlns:dc="http://purl.org/dc/elements/1.1/"
   xmlns:cc="http://creativecommons.org/ns#"
   xmlns:rdf="http://www.w3.org/1999/02/22-rdf-syntax-ns#"
   xmlns:svg="http://www.w3.org/2000/svg"
   xmlns="http://www.w3.org/2000/svg"
   xmlns:xlink="http://www.w3.org/1999/xlink"
   xmlns:sodipodi="http://sodipodi.sourceforge.net/DTD/sodipodi-0.dtd"
   xmlns:inkscape="http://www.inkscape.org/namespaces/inkscape"
   id="svg2"
   version="1.1"
   inkscape:version="0.92.3 (2405546, 2018-03-11)"
   width="2481"
   height="3503"
   sodipodi:docname="E29P03.svg"
   inkscape:export-filename="C:\Users\ruden\Desktop\E29P03.png"
   inkscape:export-xdpi="96"
   inkscape:export-ydpi="96">
  <metadata
     id="metadata8">
    <rdf:RDF>
      <cc:Work
         rdf:about="">
        <dc:format>image/svg+xml</dc:format>
        <dc:type
           rdf:resource="http://purl.org/dc/dcmitype/StillImage" />
        <dc:title />
      </cc:Work>
    </rdf:RDF>
  </metadata>
  <defs
     id="defs6" />
  <sodipodi:namedview
     pagecolor="#ffffff"
     bordercolor="#666666"
     borderopacity="1"
     objecttolerance="10"
     gridtolerance="10"
     guidetolerance="10"
     inkscape:pageopacity="0"
     inkscape:pageshadow="2"
     inkscape:window-width="1920"
     inkscape:window-height="1017"
     id="namedview4"
     showgrid="false"
     inkscape:zoom="0.36246311"
     inkscape:cx="857.34533"
     inkscape:cy="745.15938"
     inkscape:window-x="-8"
     inkscape:window-y="-8"
     inkscape:window-maximized="1"
     inkscape:current-layer="layer1"
     inkscape:snap-global="false" />
  <g
     inkscape:groupmode="layer"
     id="layer2"
     inkscape:label="artwork"
     sodipodi:insensitive="true">
    <image
       sodipodi:absref="C:\Users\ruden\Desktop\lang\ru\../gfx_Pepper-and-Carrot_by-David-Revoy_E29P03.png"
       xlink:href="../gfx_Pepper-and-Carrot_by-David-Revoy_E29P03.png"
       y="0"
       x="0"
       id="image10"
       height="3503"
       width="2481" />
  </g>
  <g
     inkscape:groupmode="layer"
     id="layer3"
     inkscape:label="speechbubbles">
    <path
       style="color:#000000;display:inline;overflow:visible;visibility:visible;fill:#ffffff;fill-opacity:1;fill-rule:nonzero;stroke:none;stroke-width:0.97323501px;marker:none;enable-background:accumulate"
       d="m 156.28703,228.91636 c 3.93077,-22.68915 -1.38862,-49.35589 44.56841,-62.16276 45.95704,-12.80687 143.19051,-15.16274 244.19692,-10.66552 54.10446,2.40895 143.59015,-0.0841 185.05795,12.94577 27.09324,8.51314 40.96659,28.38833 35.83688,61.62777 -5.12967,33.2394 -29.65308,50.55054 -79.70596,58.51781 -50.05289,7.96728 -100.22462,7.69715 -143.91683,7.32718 -42.18629,-0.35722 -74.90387,2.66347 -131.0177,-1.83936 -56.11385,-4.50283 -111.71923,-12.0266 -127.96706,-23.37393 -10.17071,-7.10314 -17.20093,-14.18314 -21.55493,-21.24446 -4.35399,-7.06133 -6.03181,-14.104 -5.49768,-21.1325 z"
       id="path4546-6"
       inkscape:connector-curvature="0"
       sodipodi:nodetypes="csssssssssc" />
    <path
       style="fill:#ffffff;stroke:none;stroke-width:1"
       d="m 240.20205,385.06686 c -58.13838,-27.45721 -59.25417,-104.2317 6.40363,-135.1495 33.25786,-15.66089 31.21798,-5.00947 31.21798,-5.00947 l -6.80518,-52.3863 c 0,0 17.27652,-20.93641 -34.72953,12.43271 -52.00605,33.36911 -110.96723,129.16604 3.9131,180.11256 z"
       id="path3063"
       inkscape:connector-curvature="0"
       sodipodi:nodetypes="cscczc" />
    <path
       style="color:#000000;display:inline;overflow:visible;visibility:visible;fill:#ffffff;fill-opacity:1;fill-rule:nonzero;stroke:none;stroke-width:1.06957126px;marker:none;enable-background:accumulate"
       d="m 1825.3252,167.55022 c 32.4954,-39.10211 455.8531,-63.21515 514.5816,21.31309 37.267,53.63839 22.6852,256.48587 -24.8991,295.35461 -56.0018,45.74443 -369.0009,33.34715 -447.7202,7.84925 -74.8935,-24.25866 -77.66,-107.34937 -81.4371,-188.06768 -1.5416,-32.94429 6.9791,-97.34705 39.4748,-136.44927 z"
       id="path4040-4"
       inkscape:connector-curvature="0"
       sodipodi:nodetypes="zssssz" />
    <path
       style="color:#000000;display:inline;overflow:visible;visibility:visible;fill:#ffffff;fill-opacity:1;fill-rule:nonzero;stroke:none;stroke-width:0.99999994px;marker:none;enable-background:accumulate"
       d="m 1521.7564,267.86763 c 32.5901,-37.14844 120.5249,-77.58678 199.7918,-73.40468 42.0311,2.21755 81.2853,18.77332 113.3871,43.73164 54.8474,16.58165 18.1095,-34.39627 18.1095,-34.39627 -9.1911,-10.4538 -45.1517,-22.91599 -79.6603,-28.40181 -77.1713,-12.26787 -186.4105,2.0063 -251.6281,92.47112 z"
       id="path3984"
       inkscape:connector-curvature="0"
       sodipodi:nodetypes="csccsc" />
    <path
       style="color:#000000;display:inline;overflow:visible;visibility:visible;fill:#ffffff;fill-opacity:1;fill-rule:nonzero;stroke:none;stroke-width:0.91780072px;marker:none;enable-background:accumulate"
       d="m 1888.4702,530.83938 c 3.1313,-23.52428 10.1908,-42.1866 49.0299,-52.53491 38.8392,-10.34832 109.458,-12.38263 199.051,-8.31184 47.9909,2.18054 112.0091,5.35584 150.2539,15.18556 38.245,9.82974 50.7165,26.31391 46.6866,60.77312 -4.0299,34.45919 -18.1234,52.81549 -62.362,61.35906 -44.2386,8.54356 -118.6224,7.27439 -134.8142,8.14357 -42.3371,-2.73698 -123.9719,1.14487 -175.8685,-6.09918 -51.8967,-7.24404 -74.0549,-25.61396 -71.9767,-78.51538 z"
       id="path4546-6-0"
       inkscape:connector-curvature="0"
       sodipodi:nodetypes="cssssscsc" />
    <path
       style="color:#000000;display:inline;overflow:visible;visibility:visible;fill:#ffffff;fill-opacity:1;fill-rule:nonzero;stroke:none;stroke-width:0.78649479px;marker:none;enable-background:accumulate"
       d="m 136.3669,1674.1893 c 3.46425,-23.3912 3.96151,-45.9742 49.78231,-59.7044 45.8208,-13.7302 126.54466,-17.5314 227.93928,-14.1212 54.31242,1.8269 122.732,4.2889 166.0419,13.7834 43.30989,9.4944 61.51011,26.0211 57.06567,60.2819 -4.44443,34.2606 -28.42852,49.2292 -78.45901,58.0293 -50.03047,8.8002 -126.10736,11.4321 -144.42656,12.4102 -18.31919,0.9778 -75.13723,0.1352 -131.50896,-3.8216 -56.37173,-3.9568 -94.92971,-6.7232 -111.46375,-18.2023 -25.91981,-14.5371 -36.54709,-31.6296 -34.97088,-48.6553 z"
       id="path4546-6-2"
       inkscape:connector-curvature="0"
       sodipodi:nodetypes="cssssssscc" />
    <path
       style="color:#000000;display:inline;overflow:visible;visibility:visible;fill:#ffffff;fill-opacity:1;fill-rule:nonzero;stroke:none;stroke-width:1px;marker:none;enable-background:accumulate"
       d="m 521.869,1649.1001 c 16.11108,-12.2669 15.86616,-23.0299 15.86632,-28.1369 10e-5,-5.107 -4.54529,-18.6761 -3.34265,-24.7247 1.02193,-4.995 3.12956,-18.1154 7.70997,-16.7463 4.58049,1.369 41.01203,26.2432 51.36903,17.3665 10.35713,-8.8768 11.10734,-20.8369 5.69423,-31.5145 -5.41309,-10.6777 -12.30128,-24.7121 -5.30101,-32.1137 7.00027,-7.4017 18.59276,-5.447 23.97197,-2.6844 5.3792,2.7626 35.49917,23.7296 45.22292,25.6243 9.7237,1.8947 23.71407,1.7027 43.50196,-19.9526 -14.8657,10.0411 -26.23617,15.9908 -34.47171,12.561 -8.23568,-3.4298 -23.77359,-8.4777 -30.56794,-16.4657 -6.79439,-7.9881 -19.06179,-24.7851 -27.96463,-25.3584 -8.9028,-0.5734 -30.44585,-2.3321 -37.17011,6.2487 -6.72431,8.5806 -9.50599,21.5672 -1.38826,37.7993 4.40691,11.1306 5.56687,16.9279 3.01621,18.7834 -2.55071,1.8553 -15.98612,-1.694 -23.40319,-10.6812 -7.41712,-8.9873 -15.67928,-14.4795 -30.30826,-9.5821 -15.5687,3.9577 -23.51473,25.3051 -27.43064,29.9131 -2.73121,11.1832 -10.25128,59.7905 -19.09981,53.7189 z"
       id="path5058"
       inkscape:connector-curvature="0"
       sodipodi:nodetypes="cscsssssscssssccscccc" />
    <path
       style="color:#000000;display:inline;overflow:visible;visibility:visible;fill:#ffffff;fill-opacity:1;fill-rule:nonzero;stroke:none;stroke-width:0.87938076px;marker:none;enable-background:accumulate"
       d="m 1768.2573,1053.1993 c 6.4454,-7.6032 21.9585,-15.0339 57.3932,-19.4946 35.4344,-4.4607 79.1759,-3.932 126.4505,-3.5201 47.2743,0.4119 47.0773,-0.277 90.067,-0.6906 45.7508,-0.4387 68.9902,6.419 96.5322,29.7433 27.5422,23.3242 41.183,45.8231 41.3247,75.3479 0.1415,29.5248 -5.6041,50.7766 -30.671,70.9054 -25.067,20.1289 -62.8479,35.6307 -111.934,39.3793 -49.086,3.7486 -164.9138,6.6651 -224.7516,-13.0902 -59.8381,-19.7555 -63.3647,-34.2098 -67.0279,-96.4328 -1.4951,-25.3958 -3.1647,-51.7352 22.6169,-82.1476 z"
       id="path4040"
       inkscape:connector-curvature="0"
       sodipodi:nodetypes="sssszzzzsss" />
    <path
       style="color:#000000;display:inline;overflow:visible;visibility:visible;fill:#ffffff;fill-opacity:1;fill-rule:nonzero;stroke:none;stroke-width:1.0653249px;marker:none;enable-background:accumulate"
       d="m 1881.5529,1219.0726 c -41.8665,122.7323 -35.3869,185.6777 42.5567,264.4098 -47.4291,-53.5721 -48.443,-140.458 -27.8836,-196.5656 17.5953,-48.018 24.528,-47.5096 24.528,-47.5096 z"
       id="path4440"
       inkscape:connector-curvature="0"
       sodipodi:nodetypes="ccscc" />
    <path
       style="color:#000000;display:inline;overflow:visible;visibility:visible;fill:#ffffff;fill-opacity:1;fill-rule:nonzero;stroke:none;stroke-width:0.88803512px;marker:none;enable-background:accumulate"
       d="m 619.02076,1964.1428 c 33.40554,-15.8656 325.86399,-14.0837 376.62792,-8.9783 38.90832,3.913 85.11382,4.1545 115.77362,18.1731 30.6595,14.0188 41.936,35.631 42.0896,79.6863 0.1547,44.3981 -16.7836,83.9682 -53.0978,92.9674 -50.1871,12.4371 -105.13688,11.7539 -154.61519,12.2343 -29.62352,0.2877 -240.40029,5.4384 -285.88855,-12.448 -51.89879,-20.4073 -73.98835,-43.5644 -77.14841,-81.928 -2.84615,-64.82 14.3888,-88.5691 36.25881,-99.7068 z"
       id="path4546-6-28"
       inkscape:connector-curvature="0"
       sodipodi:nodetypes="csssssscc" />
    <path
       style="color:#000000;display:inline;overflow:visible;visibility:visible;fill:#ffffff;fill-opacity:1;fill-rule:nonzero;stroke:none;stroke-width:1px;marker:none;enable-background:accumulate"
       d="m 876.44075,2262.2076 c 27.46212,-10.0522 29.72719,-13.3589 28.53705,-27.8918 -1.19034,-14.5328 -9.92446,-26.5364 7.13822,-46.8557 17.0627,-20.3194 23.42581,-21.4269 33.84191,-22.8653 -10.7962,-15.1116 -24.19769,-37.3822 -37.83781,-39.5812 -13.64004,-2.1992 45.1695,-29.6441 45.1695,-29.6441 0,0 22.75583,46.3627 21.99513,70.4189 -5.53179,28.827 -31.7847,25.0277 -45.6068,37.2789 -13.82198,12.2511 -2.66123,31.1992 -11.63877,43.0536 -8.97788,11.8543 -27.71027,14.1688 -41.59843,16.0867 z"
       id="path4538"
       inkscape:connector-curvature="0"
       sodipodi:nodetypes="cccccccscc" />
    <path
       style="fill:#ffffff;fill-rule:evenodd;stroke:none;stroke-width:1px;stroke-linecap:butt;stroke-linejoin:miter;stroke-opacity:1"
       d="m 1323.8016,1984.7216 c 28.8356,-4.5331 58.196,-6.8902 29.1661,-39.0973 40.2304,15.9013 101.614,24.7011 127.3674,-9.3315 21.0416,32.4151 72.5215,18.1393 103.6089,9.2863 -22.7459,39.1099 18.3414,35.1498 48.6838,26.2972 -58.1387,44.4003 -27.6095,58.521 -4.7008,75.2441 -57.1366,-12.3727 -96.278,-0.2731 -77.1628,27.9538 -47.2189,-29.2045 -101.7044,-23.5745 -85.7998,4.2937 -11.7134,-13.2298 -10.4746,-40.9431 -73.6465,1.7915 19.9656,-44.5555 -6.2049,-39.8788 -48.5754,-17.9152 6.6404,-15.1762 46.1072,-38.2538 -20.3703,-35.8306 41.5231,-14.4273 55.9482,-25.3946 1.4294,-42.692 z"
       id="path4584"
       inkscape:connector-curvature="0"
       sodipodi:nodetypes="cccccccccccc" />
    <path
       style="color:#000000;display:inline;overflow:visible;visibility:visible;fill:#ffffff;fill-opacity:1;fill-rule:nonzero;stroke:none;stroke-width:1px;marker:none;enable-background:accumulate"
       d="m 1472.7384,2047.3416 c 0.2312,29.9074 3.2778,68.8487 8.7074,74.7102 -9.1366,-3.6864 -17.8817,-5.2616 -24.6773,-6.6173 -2.08,14.7875 9.0067,61.8116 14.5567,88.5609 -25.1053,-37.9041 -39.0273,-94.4 -38.8725,-117.7051 8.4834,5.8822 16.5056,8.882 21.4065,8.8433 5.497,-10.4938 -6.7061,-51.3933 -7.3939,-51.6226 z"
       id="path5066"
       inkscape:connector-curvature="0"
       sodipodi:nodetypes="cccccccc" />
    <path
       style="color:#000000;display:inline;overflow:visible;visibility:visible;fill:#ffffff;fill-opacity:1;fill-rule:nonzero;stroke:none;stroke-width:0.92207116px;marker:none;enable-background:accumulate"
       d="m 226.06862,2903.7063 c 32.22727,-20.782 452.09061,-33.5978 510.33447,11.3276 36.95935,28.508 22.49799,136.3181 -24.6936,156.9761 -55.53956,24.3124 -365.95535,17.7236 -444.02488,4.1718 -74.27529,-12.8931 -77.01903,-57.0545 -80.76496,-99.9549 -1.5289,-17.5094 6.92144,-51.7383 39.14897,-72.5206 z"
       id="path4040-4-0"
       inkscape:connector-curvature="0"
       sodipodi:nodetypes="zssssz" />
    <path
       style="color:#000000;display:inline;overflow:visible;visibility:visible;fill:#ffffff;fill-opacity:1;fill-rule:nonzero;stroke:none;stroke-width:0.81270665px;marker:none;enable-background:accumulate"
       d="m 254.808,3067.5482 c 45.31038,-18.7921 379.43893,-43.4906 447.17308,0.6424 54.3612,35.4197 34.65103,169.3681 -22.74644,195.0348 -55.29842,24.7281 -337.09886,22.0207 -409.01241,5.1833 -68.41849,-16.0191 -71.06975,-54.5022 -74.39644,-106.0572 -1.51809,-23.5267 13.67183,-76.0113 58.98221,-94.8033 z"
       id="path4040-4-0-6"
       inkscape:connector-curvature="0"
       sodipodi:nodetypes="zssssz" />
    <path
       style="color:#000000;display:inline;overflow:visible;visibility:visible;fill:#ffffff;fill-opacity:1;fill-rule:nonzero;stroke:none;stroke-width:1.071123px;marker:none;enable-background:accumulate"
       d="m 1716.2163,2882.9465 c 51.1066,-49.2504 519.1617,-63.6108 605.1729,27.1185 58.9443,62.1772 41.4935,229.9989 -32.9036,263.7801 -71.6763,32.5459 -434.5571,24.0498 -526.863,0.011 -87.8198,-22.87 -90.0599,-97.2308 -93.5175,-169.4859 -1.4113,-29.49 -2.9953,-72.1741 48.1112,-121.4245 z"
       id="path4040-4-0-6-3"
       inkscape:connector-curvature="0"
       sodipodi:nodetypes="zssssz" />
    <path
       style="display:inline;fill:#ffffff;fill-rule:evenodd;stroke:none;stroke-width:1.24238884px;stroke-linecap:butt;stroke-linejoin:miter;stroke-opacity:1"
       d="m 1713.0996,3146.6884 c 64.7566,31.0625 81.0675,24.0525 79.956,-48.1516 30.8949,78.0253 76.5992,80.4845 89.3144,42.0409 40.9028,33.0438 66.45,23.7749 86.7329,0 7.5598,30.576 23.7725,18.2374 37.8032,16.7187 4.6212,6.9177 46.2729,22.2302 110.3958,-0.6682 4.1534,9.1562 9.7488,17.0412 47.3087,-3.2589 9.7307,37.1639 40.951,-2.0597 72.9347,-43.9964 -19.9268,51.5576 -11.6638,58.8398 13.7985,39.1079 -11.6412,21.2317 -18.6039,37.6676 25.6253,1.6295 -15.1416,39.1895 24.5831,12.29 88.7044,-43.9962 -32.0745,41.6064 -117.1287,111.7309 -61.1072,105.9169 -7.8126,12.2656 -35.6795,22.9525 47.3087,42.3669 -15.4928,8.3231 -62.7917,-3.8396 -23.3359,31.4012 5.2863,4.1194 -12.411,6.6351 21.3648,17.4834 -19.9382,-0.738 -32.1657,1.8985 -13.7985,17.9244 -36.3944,-0.8666 -22.777,15.9849 3.9424,37.4783 -52.7044,-27.5699 -55.6046,-17.5498 -57.1649,-6.5179 -66.0539,-37.5871 -88.0966,-23.8792 -74.3067,6.4364 -29.1687,-40.9327 -97.6958,-19.4314 -101.1305,13.1176 -10.1779,-31.4757 -123.5183,-37.9839 -149.5712,-3.3406 16.1475,-36.9161 -17.7633,-19.5322 -51.8501,-5.8662 18.6666,-41.4354 -28.7067,-29.2328 -88.7043,11.0806 33.5984,-45.7565 -4.5614,-29.228 -61.1073,3.259 21.3649,-44.951 -13.4297,-66.6898 -96.5889,-68.4387 39.8025,-16.2144 63.013,-36.6198 21.6835,-73.3271 46.5903,10.8086 34.7533,-19.8442 1.8624,-59.721 50.818,32.7305 49.7578,15.2393 29.9298,-28.6789 z"
       id="path4508"
       inkscape:connector-curvature="0"
       sodipodi:nodetypes="cccccccccccccccccccccccccccc" />
    <path
       style="color:#000000;display:inline;overflow:visible;visibility:visible;fill:#ffffff;fill-opacity:1;fill-rule:nonzero;stroke:none;stroke-width:1px;marker:none;enable-background:accumulate"
       d="m 731.14816,2946.5981 c 58.74459,-31.8831 133.6737,-22.4689 151.46532,-4.8409 -26.0629,-31.5484 -110.87474,-48.9787 -156.02352,-29.9411 -36.86673,19.522 4.5582,34.782 4.5582,34.782 z"
       id="path4480"
       inkscape:connector-curvature="0"
       sodipodi:nodetypes="cccc" />
    <path
       style="color:#000000;display:inline;overflow:visible;visibility:visible;fill:#ffffff;fill-opacity:1;fill-rule:nonzero;stroke:none;stroke-width:0.99999994px;marker:none;enable-background:accumulate"
       d="m 1721.525,3105.1967 c -45.0341,26.3761 -102.4755,18.588 -116.1149,4.0048 19.9802,26.0992 84.9979,40.5188 119.6093,24.7695 28.2623,-16.1501 -3.4944,-28.7743 -3.4944,-28.7743 z"
       id="path4480-2"
       inkscape:connector-curvature="0"
       sodipodi:nodetypes="cccc"
       inkscape:transform-center-x="-155.62645"
       inkscape:transform-center-y="34.210293" />
  </g>
  <g
     inkscape:groupmode="layer"
     id="layer1"
     inkscape:label="txt">
    <text
       xml:space="preserve"
       style="font-style:normal;font-variant:normal;font-weight:normal;font-stretch:normal;line-height:0%;font-family:Lavi;-inkscape-font-specification:Lavi;text-align:center;letter-spacing:0px;word-spacing:0px;text-anchor:middle;fill:#000000;fill-opacity:1;stroke:none"
       x="405.0144"
       y="199.0761"
       id="text4246"><tspan
         sodipodi:role="line"
         style="font-size:45px;line-height:1.20000005"
         x="405.0144"
         y="199.0761"
         id="tspan7234">Хаха, ну,</tspan><tspan
         sodipodi:role="line"
         style="font-size:45px;line-height:1.20000005"
         x="405.0144"
         y="253.0761"
         id="tspan76"> это трудно объяснить.</tspan></text>
    <text
       xml:space="preserve"
       style="font-style:normal;font-variant:normal;font-weight:normal;font-stretch:normal;line-height:0%;font-family:Lavi;-inkscape-font-specification:Lavi;text-align:center;letter-spacing:0px;word-spacing:0px;text-anchor:middle;fill:#000000;fill-opacity:1;stroke:none"
       x="2083.2402"
       y="194.97655"
       id="text4246-3"><tspan
         sodipodi:role="line"
         style="font-size:45px;line-height:1.20000005"
         x="2083.2402"
         y="194.97655"
         id="tspan920">Ну, наверное можно</tspan><tspan
         sodipodi:role="line"
         style="font-size:45px;line-height:1.20000005"
         x="2083.2402"
         y="248.97655"
         id="tspan93">сказать, что она</tspan><tspan
         sodipodi:role="line"
         style="font-size:45px;line-height:1.20000005"
         x="2083.2402"
         y="302.97656"
         id="tspan95">основана на понимании</tspan><tspan
         sodipodi:role="line"
         style="font-size:45px;line-height:1.20000005"
         x="2083.2402"
         y="356.97656"
         id="tspan97"> основополагающих</tspan><tspan
         sodipodi:role="line"
         style="font-size:45px;line-height:1.20000005"
         x="2083.2402"
         y="410.97656"
         id="tspan99">законов</tspan><tspan
         sodipodi:role="line"
         style="font-size:45px;line-height:1.20000005"
         x="2083.2402"
         y="464.97656"
         id="tspan101">хаотических систем...</tspan></text>
    <text
       xml:space="preserve"
       style="font-style:normal;font-variant:normal;font-weight:normal;font-stretch:normal;line-height:0%;font-family:Lavi;-inkscape-font-specification:Lavi;text-align:center;letter-spacing:0px;word-spacing:0px;text-anchor:middle;fill:#000000;fill-opacity:1;stroke:none"
       x="2124.4707"
       y="521.66492"
       id="text4246-3-5"><tspan
         sodipodi:role="line"
         style="font-size:45px;line-height:1.20000005"
         x="2124.4707"
         y="521.66492"
         id="tspan924">...от малых</tspan><tspan
         sodipodi:role="line"
         style="font-size:45px;line-height:1.20000005"
         x="2124.4707"
         y="575.66492"
         id="tspan105">до самых больших.</tspan></text>
    <text
       xml:space="preserve"
       style="font-style:normal;font-variant:normal;font-weight:normal;font-stretch:normal;line-height:0%;font-family:Lavi;-inkscape-font-specification:Lavi;text-align:center;letter-spacing:0px;word-spacing:0px;text-anchor:middle;fill:#000000;fill-opacity:1;stroke:none"
       x="386.78357"
       y="1658.4789"
       id="text4246-3-5-1"><tspan
         sodipodi:role="line"
         style="font-size:45px;line-height:1.20000005"
         x="386.78357"
         y="1658.4789"
         id="tspan931">Ну, теперь все</tspan><tspan
         sodipodi:role="line"
         style="font-size:45px;line-height:1.20000005"
         x="386.78357"
         y="1712.4789"
         id="tspan109">встало на свои места.</tspan></text>
    <text
       xml:space="preserve"
       style="font-style:normal;font-variant:normal;font-weight:normal;font-stretch:normal;line-height:0%;font-family:Lavi;-inkscape-font-specification:Lavi;text-align:center;letter-spacing:0px;word-spacing:0px;text-anchor:middle;fill:#000000;fill-opacity:1;stroke:none"
       x="1951.9641"
       y="1102.7832"
       id="text4246-3-5-1-0"><tspan
         sodipodi:role="line"
         style="font-size:45px;line-height:1.20000005"
         x="1951.9641"
         y="1102.7832"
         id="tspan7258">Погодите, давайте</tspan><tspan
         sodipodi:role="line"
         style="font-size:45px;line-height:1.20000005"
         x="1951.9641"
         y="1156.7832"
         id="tspan116">я вам покажу</tspan><tspan
         sodipodi:role="line"
         style="font-size:45px;line-height:1.20000005"
         x="1951.9641"
         y="1210.7832"
         id="tspan118">простой пример.</tspan></text>
    <text
       xml:space="preserve"
       style="font-style:normal;font-variant:normal;font-weight:normal;font-stretch:normal;line-height:0%;font-family:Lavi;-inkscape-font-specification:Lavi;text-align:center;letter-spacing:0px;word-spacing:0px;text-anchor:middle;fill:#000000;fill-opacity:1;stroke:none"
       x="864.10913"
       y="2014.1439"
       id="text4246-3-5-1-0-0"><tspan
         sodipodi:role="line"
         style="font-size:45px;line-height:1.20000005"
         x="864.10913"
         y="2014.1439"
         id="tspan133">Просто дайте мне минуту</tspan><tspan
         sodipodi:role="line"
         style="font-size:45px;line-height:1.20000005"
         x="864.10913"
         y="2068.144"
         id="tspan175">на старую добрую</tspan><tspan
         sodipodi:role="line"
         style="font-size:45px;line-height:1.20000005"
         x="864.10913"
         y="2122.144"
         id="tspan177">мудрость Хаоса...</tspan></text>
    <text
       xml:space="preserve"
       style="font-style:normal;font-variant:normal;font-weight:normal;font-stretch:normal;line-height:0%;font-family:Lavi;-inkscape-font-specification:Lavi;text-align:center;letter-spacing:0px;word-spacing:0px;text-anchor:middle;fill:#000000;fill-opacity:1;stroke:none"
       x="1483.3732"
       y="1980.7659"
       id="text4246-3-5-1-0-0-8"><tspan
         sodipodi:role="line"
         style="font-size:45px;line-height:1.20000005"
         x="1483.3732"
         y="1984.2633"
         id="tspan1006-2" /><tspan
         sodipodi:role="line"
         style="font-size:45px;line-height:1.20000005"
         x="1483.3732"
         y="2020.8813"
         id="tspan120">Попалась!</tspan></text>
    <text
       xml:space="preserve"
       style="font-style:normal;font-variant:normal;font-weight:normal;font-stretch:normal;font-size:10.15074348px;line-height:0%;font-family:Lavi;-inkscape-font-specification:Lavi;text-align:center;letter-spacing:0px;word-spacing:0px;text-anchor:middle;opacity:0.5;fill:#000000;fill-opacity:1;stroke:none;stroke-width:1"
       x="1577.2253"
       y="1765.9481"
       id="text4246-37"
       transform="matrix(0.95687977,-0.3398346,0.04566864,1.0288442,0,0)"><tspan
         sodipodi:role="line"
         style="font-style:normal;font-variant:normal;font-weight:bold;font-stretch:normal;font-size:38.06529236px;line-height:1.20000005;font-family:Lavi;-inkscape-font-specification:'Lavi Bold';stroke-width:1"
         x="1577.2253"
         y="1765.9481"
         id="tspan4252-5">ШКРЯБ</tspan></text>
    <text
       xml:space="preserve"
       style="font-style:normal;font-variant:normal;font-weight:normal;font-stretch:normal;font-size:8.87699509px;line-height:0%;font-family:Lavi;-inkscape-font-specification:Lavi;text-align:center;letter-spacing:0px;word-spacing:0px;text-anchor:middle;opacity:0.5;fill:#000000;fill-opacity:1;stroke:none;stroke-width:0.99999994"
       x="1903.3949"
       y="1544.0555"
       id="text4246-37-9"
       transform="matrix(0.93691978,-0.1877366,-0.11760016,1.0908915,0,0)"><tspan
         sodipodi:role="line"
         style="font-style:normal;font-variant:normal;font-weight:bold;font-stretch:normal;font-size:33.28873062px;line-height:1.20000005;font-family:Lavi;-inkscape-font-specification:'Lavi Bold';stroke-width:0.99999994"
         x="1903.3949"
         y="1544.0555"
         id="tspan4252-5-2">ШКРЯБ</tspan></text>
    <text
       xml:space="preserve"
       style="font-style:normal;font-variant:normal;font-weight:normal;font-stretch:normal;line-height:0%;font-family:Lavi;-inkscape-font-specification:Lavi;text-align:center;letter-spacing:0px;word-spacing:0px;text-anchor:middle;fill:#000000;fill-opacity:1;stroke:none"
       x="471.37909"
       y="2941.415"
       id="text4246-3-5-1-0-0-8-9"><tspan
         sodipodi:role="line"
         style="font-size:45px;line-height:1.20000005"
         x="471.37909"
         y="2941.415"
         id="tspan7284">Видите эту шпажку,</tspan><tspan
         sodipodi:role="line"
         style="font-size:45px;line-height:1.20000005"
         x="471.37909"
         y="2995.415"
         id="tspan140"> застрявшую</tspan><tspan
         sodipodi:role="line"
         style="font-size:45px;line-height:1.20000005"
         x="471.37909"
         y="3049.415"
         id="tspan142"> между булыжниками?</tspan></text>
    <text
       xml:space="preserve"
       style="font-style:normal;font-variant:normal;font-weight:normal;font-stretch:normal;line-height:0%;font-family:Lavi;-inkscape-font-specification:Lavi;text-align:center;letter-spacing:0px;word-spacing:0px;text-anchor:middle;fill:#000000;fill-opacity:1;stroke:none"
       x="467.67493"
       y="3139.7773"
       id="text4246-3-5-1-0-0-8-9-3"><tspan
         sodipodi:role="line"
         style="font-size:45px;line-height:1.20000005"
         x="467.67493"
         y="3139.7773"
         id="tspan7303">Подобрав её, я точно</tspan><tspan
         sodipodi:role="line"
         style="font-size:45px;line-height:1.20000005"
         x="467.67493"
         y="3193.7773"
         id="tspan149"> не позволила кому-то</tspan><tspan
         sodipodi:role="line"
         style="font-size:45px;line-height:1.20000005"
         x="467.67493"
         y="3247.7773"
         id="tspan151"> наступить на неё.</tspan></text>
    <text
       xml:space="preserve"
       style="font-style:normal;font-variant:normal;font-weight:normal;font-stretch:normal;line-height:0%;font-family:Lavi;-inkscape-font-specification:Lavi;text-align:center;letter-spacing:0px;word-spacing:0px;text-anchor:middle;fill:#000000;fill-opacity:1;stroke:none"
       x="2002.1212"
       y="2907.5415"
       id="text4246-3-5-1-0-0-8-9-3-9"><tspan
         sodipodi:role="line"
         style="font-size:45px;line-height:1.20000005"
         x="2002.1212"
         y="2907.5415"
         id="tspan1037">Маленькое положительное</tspan><tspan
         sodipodi:role="line"
         style="font-size:45px;line-height:1.20000005"
         x="2002.1212"
         y="2961.5415"
         id="tspan162">изменение в великой</tspan><tspan
         sodipodi:role="line"
         style="font-size:45px;line-height:1.20000005"
         x="2002.1212"
         y="3015.5415"
         id="tspan187">хаотичной системе</tspan><tspan
         sodipodi:role="line"
         style="font-size:45px;line-height:1.20000005"
         x="2002.1212"
         y="3069.5415"
         id="tspan164">существования может</tspan><tspan
         sodipodi:role="line"
         style="font-size:45px;line-height:1.20000005"
         x="2002.1212"
         y="3123.5415"
         id="tspan166"> привести к колоссальным</tspan><tspan
         sodipodi:role="line"
         style="font-size:45px;line-height:1.20000005"
         x="2002.1212"
         y="3177.5415"
         id="tspan168"> последствиям.</tspan></text>
    <text
       xml:space="preserve"
       style="font-style:normal;font-variant:normal;font-weight:normal;font-stretch:normal;font-size:53.33333206px;line-height:0%;font-family:Lavi;-inkscape-font-specification:Lavi;text-align:center;letter-spacing:0px;word-spacing:0px;text-anchor:middle;fill:#000000;fill-opacity:1;stroke:none"
       x="1997.9991"
       y="3247.7788"
       id="text4246-3-5-1-0-0-8-9-3-9-8"><tspan
         sodipodi:role="line"
         style="font-size:53.33333206px;line-height:1.20000005"
         x="1997.9991"
         y="3247.7788"
         id="tspan181">Вот что</tspan><tspan
         sodipodi:role="line"
         style="font-size:53.33333206px;line-height:1.20000005"
         x="1997.9991"
         y="3311.7788"
         id="tspan84">означает Хаос!</tspan></text>
    <text
       xml:space="preserve"
       style="font-style:normal;font-weight:normal;font-size:40px;line-height:1.25;font-family:sans-serif;letter-spacing:0px;word-spacing:0px;fill:#000000;fill-opacity:1;stroke:none"
       x="1624.993"
       y="1340.0212"
       id="text80"><tspan
         sodipodi:role="line"
         id="tspan78"
         x="1624.993"
         y="1375.4119"></tspan></text>
  </g>
</svg>
