<?xml version="1.0" encoding="UTF-8" standalone="no"?>
<!-- Created with Inkscape (http://www.inkscape.org/) -->

<svg
   xmlns:dc="http://purl.org/dc/elements/1.1/"
   xmlns:cc="http://creativecommons.org/ns#"
   xmlns:rdf="http://www.w3.org/1999/02/22-rdf-syntax-ns#"
   xmlns:svg="http://www.w3.org/2000/svg"
   xmlns="http://www.w3.org/2000/svg"
   xmlns:xlink="http://www.w3.org/1999/xlink"
   xmlns:sodipodi="http://sodipodi.sourceforge.net/DTD/sodipodi-0.dtd"
   xmlns:inkscape="http://www.inkscape.org/namespaces/inkscape"
   id="svg2"
   version="1.1"
   inkscape:version="0.92.1 r15371"
   width="2481"
   height="3503"
   sodipodi:docname="E28P04.svg">
  <metadata
     id="metadata8">
    <rdf:RDF>
      <cc:Work
         rdf:about="">
        <dc:format>image/svg+xml</dc:format>
        <dc:type
           rdf:resource="http://purl.org/dc/dcmitype/StillImage" />
        <dc:title />
      </cc:Work>
    </rdf:RDF>
  </metadata>
  <defs
     id="defs6">
    <filter
       style="color-interpolation-filters:sRGB"
       id="filter4375-4-1-1-1-9"
       inkscape:label="deevad outline effect">
      <feFlood
         id="feFlood4377-7-9-0-8-1"
         flood-opacity="1"
         flood-color="rgb(222,191,116)"
         result="flood" />
      <feComposite
         id="feComposite4379-3-8-8-2-77"
         in2="SourceGraphic"
         in="flood"
         operator="in"
         result="composite1" />
      <feMorphology
         id="feMorphology4393-1-0-49-8-9"
         operator="dilate"
         radius="4"
         result="result3" />
      <feComposite
         id="feComposite4385-9-5-7-0-8"
         in2="result3"
         in="SourceGraphic"
         operator="over"
         result="composite2" />
    </filter>
    <filter
       style="color-interpolation-filters:sRGB"
       id="filter4375-4-1-1-1-9-6"
       inkscape:label="deevad outline effect">
      <feFlood
         id="feFlood4377-7-9-0-8-1-5"
         flood-opacity="1"
         flood-color="rgb(222,191,116)"
         result="flood" />
      <feComposite
         id="feComposite4379-3-8-8-2-77-6"
         in2="SourceGraphic"
         in="flood"
         operator="in"
         result="composite1" />
      <feMorphology
         id="feMorphology4393-1-0-49-8-9-8"
         operator="dilate"
         radius="4"
         result="result3" />
      <feComposite
         id="feComposite4385-9-5-7-0-8-0"
         in2="result3"
         in="SourceGraphic"
         operator="over"
         result="composite2" />
    </filter>
    <filter
       style="color-interpolation-filters:sRGB"
       id="filter987"
       inkscape:label="deevad outline effect">
      <feFlood
         id="feFlood979"
         flood-opacity="1"
         flood-color="rgb(222,191,116)"
         result="flood" />
      <feComposite
         id="feComposite981"
         in2="SourceGraphic"
         in="flood"
         operator="in"
         result="composite1" />
      <feMorphology
         id="feMorphology983"
         operator="dilate"
         radius="4"
         result="result3" />
      <feComposite
         id="feComposite985"
         in2="result3"
         in="SourceGraphic"
         operator="over"
         result="composite2" />
    </filter>
    <filter
       style="color-interpolation-filters:sRGB"
       id="filter4375-4-1-1-1-9-4"
       inkscape:label="deevad outline effect">
      <feFlood
         id="feFlood4377-7-9-0-8-1-8"
         flood-opacity="1"
         flood-color="rgb(222,191,116)"
         result="flood" />
      <feComposite
         id="feComposite4379-3-8-8-2-77-2"
         in2="SourceGraphic"
         in="flood"
         operator="in"
         result="composite1" />
      <feMorphology
         id="feMorphology4393-1-0-49-8-9-3"
         operator="dilate"
         radius="4"
         result="result3" />
      <feComposite
         id="feComposite4385-9-5-7-0-8-8"
         in2="result3"
         in="SourceGraphic"
         operator="over"
         result="composite2" />
    </filter>
    <filter
       style="color-interpolation-filters:sRGB"
       id="filter1046"
       inkscape:label="deevad outline effect">
      <feFlood
         id="feFlood1038"
         flood-opacity="1"
         flood-color="rgb(222,191,116)"
         result="flood" />
      <feComposite
         id="feComposite1040"
         in2="SourceGraphic"
         in="flood"
         operator="in"
         result="composite1" />
      <feMorphology
         id="feMorphology1042"
         operator="dilate"
         radius="4"
         result="result3" />
      <feComposite
         id="feComposite1044"
         in2="result3"
         in="SourceGraphic"
         operator="over"
         result="composite2" />
    </filter>
    <filter
       style="color-interpolation-filters:sRGB"
       id="filter4375-4-1-1-1-9-4-8"
       inkscape:label="deevad outline effect">
      <feFlood
         id="feFlood4377-7-9-0-8-1-8-7"
         flood-opacity="1"
         flood-color="rgb(222,191,116)"
         result="flood" />
      <feComposite
         id="feComposite4379-3-8-8-2-77-2-7"
         in2="SourceGraphic"
         in="flood"
         operator="in"
         result="composite1" />
      <feMorphology
         id="feMorphology4393-1-0-49-8-9-3-3"
         operator="dilate"
         radius="4"
         result="result3" />
      <feComposite
         id="feComposite4385-9-5-7-0-8-8-5"
         in2="result3"
         in="SourceGraphic"
         operator="over"
         result="composite2" />
    </filter>
    <filter
       style="color-interpolation-filters:sRGB"
       id="filter1105"
       inkscape:label="deevad outline effect">
      <feFlood
         id="feFlood1097"
         flood-opacity="1"
         flood-color="rgb(222,191,116)"
         result="flood" />
      <feComposite
         id="feComposite1099"
         in2="SourceGraphic"
         in="flood"
         operator="in"
         result="composite1" />
      <feMorphology
         id="feMorphology1101"
         operator="dilate"
         radius="4"
         result="result3" />
      <feComposite
         id="feComposite1103"
         in2="result3"
         in="SourceGraphic"
         operator="over"
         result="composite2" />
    </filter>
  </defs>
  <sodipodi:namedview
     pagecolor="#ffffff"
     bordercolor="#666666"
     borderopacity="1"
     objecttolerance="10"
     gridtolerance="10"
     guidetolerance="10"
     inkscape:pageopacity="0"
     inkscape:pageshadow="2"
     inkscape:window-width="1920"
     inkscape:window-height="1027"
     id="namedview4"
     showgrid="false"
     inkscape:zoom="0.33861241"
     inkscape:cx="937.70417"
     inkscape:cy="1194.2473"
     inkscape:window-x="-8"
     inkscape:window-y="-8"
     inkscape:window-maximized="1"
     inkscape:current-layer="layer1"
     inkscape:snap-global="false" />
  <g
     inkscape:groupmode="layer"
     id="layer2"
     inkscape:label="artwork"
     sodipodi:insensitive="true">
    <image
       sodipodi:absref="C:\Users\rumiko\Desktop\lang\ja\../gfx_Pepper-and-Carrot_by-David-Revoy_E28P04.png"
       xlink:href="../gfx_Pepper-and-Carrot_by-David-Revoy_E28P04.png"
       y="0"
       x="0"
       id="image10"
       height="3503"
       width="2481" />
  </g>
  <g
     inkscape:groupmode="layer"
     id="layer3"
     inkscape:label="speechbubbles">
    <path
       style="color:#000000;display:inline;overflow:visible;visibility:visible;fill:#ffffff;fill-opacity:1;fill-rule:nonzero;stroke:none;stroke-width:0.94770974px;marker:none;enable-background:accumulate"
       d="m 210.12388,231.36938 c 4.19735,-43.93429 56.2403,-76.55736 191.7032,-69.62631 72.56123,3.71258 154.95256,5.80685 149.64555,70.15926 -5.30709,64.35234 -123.7278,63.85925 -148.17296,65.60234 -24.44518,1.74317 -151.77826,-3.75267 -174.06791,-25.40709 -13.95281,-13.5551 -19.49283,-27.13047 -19.10788,-40.7282 z"
       id="path4546-6"
       inkscape:connector-curvature="0"
       sodipodi:nodetypes="cssssc" />
    <path
       style="color:#000000;display:inline;overflow:visible;visibility:visible;fill:#ffffff;fill-opacity:1;fill-rule:nonzero;stroke:none;stroke-width:1px;marker:none;enable-background:accumulate"
       d="m 522.95156,341.83676 c -42.01307,-12.55848 -55.95663,-19.27588 -57.24338,-67.82246 -1.28666,-48.54662 -20.9759,-45.84166 -20.9759,-45.84166 l -18.70982,30.00689 c 0,0 10.61745,102.6107 96.9291,83.65723 z"
       id="path3072"
       inkscape:connector-curvature="0" />
    <path
       style="fill:#ffffff;fill-opacity:1;stroke:none;stroke-width:1.07074893"
       d="m 1115.6532,912.36013 c -5.7884,-100.94197 55.5689,-134.2068 216.4871,-129.61853 160.9183,4.58819 198.8236,75.35057 198.4304,112.67339 -0.6917,65.61422 -26.9546,116.46241 -101.1849,138.83951 -75.4394,22.7416 -237.6411,-0.03 -274.8373,-32.7136 -26.7471,-23.50245 -37.7377,-62.79826 -38.8953,-89.18077 z"
       id="path3238"
       inkscape:connector-curvature="0"
       sodipodi:nodetypes="cssssc" />
    <path
       style="color:#000000;display:inline;overflow:visible;visibility:visible;fill:#ffffff;fill-opacity:1;fill-rule:nonzero;stroke:none;stroke-width:0.99999994px;marker:none;enable-background:accumulate"
       d="m 1202.5039,677.28412 c 72.8787,37.68069 84.927,85.98909 79.0153,111.91483 -6.7279,29.50523 -34.8614,35.12104 -34.8614,35.12104 l 55.2996,19.88637 c 34.023,-65.93077 21.1022,-125.89631 -99.4535,-166.92224 z"
       id="path3072-1"
       inkscape:connector-curvature="0"
       sodipodi:nodetypes="csccc" />
    <path
       style="color:#000000;display:inline;overflow:visible;visibility:visible;fill:#ffffff;fill-opacity:1;fill-rule:nonzero;stroke:none;stroke-width:1.01165235px;marker:none;enable-background:accumulate"
       d="m 2278.9528,397.40412 c -97.3394,55.03902 -203.119,16.15071 -234.4518,-18.34047 -31.3326,-34.49112 -47.7239,-146.18455 -13.1619,-189.94195 34.5619,-43.75748 71.4039,-64.78774 163.0332,-64.01166 192.2056,8.96401 163.2119,222.21206 84.5805,272.29408 z"
       id="path4040"
       inkscape:connector-curvature="0"
       sodipodi:nodetypes="csscc" />
    <path
       style="fill:#ffffff;fill-rule:evenodd;stroke:none;stroke-width:1px;stroke-linecap:butt;stroke-linejoin:miter;stroke-opacity:1"
       d="m 2236.3776,401.61616 c -14.8967,27.78135 -16.9465,32.37624 -16.1948,38.97929 0.7516,6.60305 14.7438,14.22693 10.5567,29.15096 -4.1871,14.92405 -44.8499,20.68957 -49.7351,27.13164 -4.8851,6.44207 -11.8101,18.46724 -11.8101,18.46724 0,0 2.4424,-19.675 10.1459,-26.03657 7.7035,-6.36158 35.547,-9.20723 35.9762,-24.23858 0.4293,-15.03135 -15.9529,-17.03818 -15.6309,-28.31169 0.3219,-11.27351 11.4609,-40.56398 11.4609,-40.56398 z"
       id="path922"
       inkscape:connector-curvature="0"
       sodipodi:nodetypes="ccsccscccc" />
    <path
       style="color:#000000;display:inline;overflow:visible;visibility:visible;fill:#ffffff;fill-opacity:1;fill-rule:nonzero;stroke:none;stroke-width:1.00851429px;marker:none;enable-background:accumulate"
       d="m 760.99428,1247.4924 c -0.82136,-33.3711 47.79992,-62.2339 103.65292,-64.5354 55.85291,-2.3014 96.51776,25.9688 101.44593,60.4907 4.92824,34.522 -49.28195,67.8932 -97.74263,69.0439 -48.46066,1.1507 -108.40617,-1.7432 -107.35622,-64.9992 z"
       id="path3565"
       inkscape:connector-curvature="0"
       sodipodi:nodetypes="cscsc" />
    <path
       style="fill:#ffffff;fill-opacity:1;stroke:none;stroke-width:1.18432927"
       d="m 1047.0892,1250.6814 c -3.3614,-33.1575 18.9338,-49.6518 39.2335,-57.4653 25.7271,-9.9025 171.7716,-30.3375 233.7151,6.8159 31.6516,18.9845 35.2801,72.5563 -26.3083,95.7706 -61.5885,23.2142 -164.3756,10.4987 -181.872,6.278 -17.4968,-4.2208 -61.269,-15.5227 -64.7683,-51.3992 z"
       id="path3659-8"
       inkscape:connector-curvature="0"
       sodipodi:nodetypes="cssssc" />
    <path
       style="color:#000000;display:inline;overflow:visible;visibility:visible;fill:#ffffff;fill-opacity:1;fill-rule:nonzero;stroke:none;stroke-width:1px;marker:none;enable-background:accumulate"
       d="m 762.46876,1339.2067 c 34.84642,4.7576 60.09382,-4.9504 76.31206,-38.0347 16.21824,-33.0844 2.98136,-36.978 2.98136,-36.978 0,0 -22.92398,70.2821 -79.29342,75.0127 z"
       id="path5002"
       inkscape:connector-curvature="0"
       sodipodi:nodetypes="cscc" />
    <path
       style="color:#000000;display:inline;overflow:visible;visibility:visible;fill:#ffffff;fill-opacity:1;fill-rule:nonzero;stroke:none;stroke-width:1px;marker:none;enable-background:accumulate"
       d="m 1200.668,1350.7499 c -22.0187,-23.7251 -28.5842,-33.5373 -15.2378,-70.8777 13.3464,-37.3404 0.5267,-41.9284 0.5267,-41.9284 l -20.1693,16.498 c 0,0 -23.3832,81.59 34.8804,96.3081 z"
       id="path3072-9"
       inkscape:connector-curvature="0" />
    <path
       style="fill:#ffffff;fill-rule:evenodd;stroke:none;stroke-width:1.06040764px;stroke-linecap:butt;stroke-linejoin:miter;stroke-opacity:1"
       d="m 149.44849,2103.148 -24.28874,3.7767 19.97379,-27.6038 -0.0558,-88.3105 -0.50019,-28.3685 -21.79911,-42.4138 25.99493,10.0954 -30.78217,-49.3056 50.70992,19.1084 -6.67018,-22.5271 35.4777,13.2578 322.92115,-3.7704 22.22558,-12.8719 -3.75143,17.1845 43.77951,-16.6932 -17.3169,20.6316 65.91907,-24.1071 -26.77049,39.352 24.24055,-6.6294 -16.76529,27.8235 -2.07974,82.9162 -0.82049,93.3618 25.5366,35.5672 -35.1721,-13.0192 26.62635,48.6029 -69.3803,-26.3755 18.29233,24.8643 -52.99314,-18.0661 12.67065,20.6046 -33.91461,-15.6784 -288.96516,2.4502 -62.13813,19.4353 19.2134,-27.8437 -72.907535,38.1397 57.507825,-65.599 -29.47779,7.7714 z"
       id="path1035"
       inkscape:connector-curvature="0"
       sodipodi:nodetypes="ccccccccccccccccccccccccccccccccccccc" />
    <path
       style="color:#000000;display:inline;overflow:visible;visibility:visible;fill:#ffffff;fill-opacity:1;fill-rule:nonzero;stroke:none;stroke-width:0.99999994px;marker:none;enable-background:accumulate"
       d="m 338.82946,2155.5995 c -3.16206,31.9356 -4.43517,74.4334 -68.81805,64.0726 3.51709,-0.3132 80.93631,37.3214 104.22702,-54.8867 23.29069,-92.2081 14.70299,-105.929 14.70299,-105.929 z"
       id="path4064"
       inkscape:connector-curvature="0"
       sodipodi:nodetypes="ccscc" />
    <path
       style="color:#000000;display:inline;overflow:visible;visibility:visible;fill:#ffffff;fill-opacity:1;fill-rule:nonzero;stroke:none;stroke-width:1.22835612px;marker:none;enable-background:accumulate"
       d="m 941.99095,2642.7004 c -0.93657,-28.7981 15.92105,-48.3809 25.28648,-57.5962 9.36546,-9.2155 68.36707,-29.9502 89.90757,-29.9502 60.9501,2.6149 178.4698,7.7914 157.7209,110.2701 -10.302,34.5578 -79.9884,38.3285 -94.0366,41.7843 -14.0481,3.4559 -66.1388,0.694 -79.2502,-0.4578 -13.1116,-1.1519 -102.43773,-16.8211 -99.62815,-64.0502 z"
       id="path3357"
       inkscape:connector-curvature="0"
       sodipodi:nodetypes="ccccccc" />
    <path
       style="color:#000000;display:inline;overflow:visible;visibility:visible;fill:#ffffff;fill-opacity:1;fill-rule:nonzero;stroke:none;stroke-width:1px;marker:none;enable-background:accumulate"
       d="m 1053.2112,2471.8445 c 42.562,38.1309 30.9091,101.3953 6.44,96.5527 -29.6347,37.5034 -18.094,38.1309 -18.094,38.1309 l 33.2898,-11.0238 c 0,15.4037 79.1436,-58.1295 -21.6358,-123.6598 z"
       id="path3072-92"
       inkscape:connector-curvature="0"
       sodipodi:nodetypes="ccccc" />
    <path
       style="fill:#ffffff;fill-opacity:1;stroke:none;stroke-width:1"
       d="m 2198.3032,1950.6682 c -1.7012,-22.1072 9.5818,-33.1046 19.855,-38.3141 13.0198,-6.6023 87.2062,-21.4795 113.5776,12.0631 12.352,15.711 22.5534,40.8571 -8.6148,56.3349 -31.1683,15.4776 -83.1858,6.9998 -92.0404,4.1857 -8.8546,-2.8142 -31.0066,-10.3495 -32.7774,-34.2696 z"
       id="path3659-8-0"
       inkscape:connector-curvature="0"
       sodipodi:nodetypes="cssssc" />
    <path
       style="fill:#ffffff;fill-rule:evenodd;stroke:none;stroke-width:1px;stroke-linecap:butt;stroke-linejoin:miter;stroke-opacity:1"
       d="m 2173.406,2020.0379 c 29.9739,-13.444 31.8142,4.3615 43.8953,-5.5877 12.0812,-9.9492 4.271,-14.7221 5.9747,-23.2109 2.171,-8.4889 19.5625,-14.6593 25.9584,-21.0552 6.3959,-6.3959 -13.4149,-18.9446 -23.364,-11.838 -9.9492,7.1066 -13.1544,15.8205 -17.4379,23.8227 -2.8816,7.0675 8.1387,18.2141 1.0325,24.61 -7.1066,6.3959 -7.6324,-2.3754 -19.7136,1.1779 -12.0811,3.5533 -16.345,12.0812 -16.345,12.0812 z"
       id="path1097"
       inkscape:connector-curvature="0"
       sodipodi:nodetypes="cccsccsccc" />
    <path
       style="color:#000000;display:inline;overflow:visible;visibility:visible;fill:#ffffff;fill-opacity:1;fill-rule:nonzero;stroke:none;stroke-width:0.91044128px;marker:none;enable-background:accumulate"
       d="m 1973.9821,2442.5266 c 20.6876,-33.0435 38.1747,-65.637 163.5522,-65.0952 126.3148,0.5458 142.3492,0.036 181.2028,29.0958 35.898,26.8487 33.8311,154.6678 20.88,215.2839 -12.9513,60.6162 -56.4957,88.424 -180.3419,83.5748 -123.8462,-4.8494 -116.6797,-4.1302 -151.5335,-36.4693 -47.5627,-44.131 -54.4472,-193.3466 -33.7596,-226.39 z"
       id="path4530"
       inkscape:connector-curvature="0"
       sodipodi:nodetypes="zsssssz" />
    <path
       style="fill:#ffffff;fill-rule:evenodd;stroke:none;stroke-width:1px;stroke-linecap:butt;stroke-linejoin:miter;stroke-opacity:1"
       d="m 2012.3054,2768.4538 c 73.9706,-26.3006 87.1209,-92.0523 87.1209,-133.147 0,-41.0948 -31.232,-85.4771 -31.232,-85.4771 l -19.7255,27.9444 c 0,0 1.6438,4.9314 6.5751,44.3824 4.9314,39.4509 31.2321,82.1895 -42.7385,146.2973 z"
       id="path1167"
       inkscape:connector-curvature="0" />
    <path
       style="color:#000000;display:inline;overflow:visible;visibility:visible;fill:#ffffff;fill-opacity:1;fill-rule:nonzero;stroke:none;stroke-width:0.99999994px;marker:none;enable-background:accumulate"
       d="m 1061.7088,3240.5858 c -9.8478,32.2167 51.8659,121.3348 137.5704,110.5133 -2.9664,-0.2632 -108.5106,25.5291 -160.8486,-69.3197 -45.94784,-83.2682 -16.9236,-118.1415 -16.9236,-118.1415 z"
       id="path4064-6"
       inkscape:connector-curvature="0"
       sodipodi:nodetypes="ccscc" />
    <path
       style="fill:#ffffff;fill-opacity:1;fill-rule:evenodd;stroke:none;stroke-width:1.04778647px;stroke-linecap:butt;stroke-linejoin:miter;stroke-opacity:1"
       d="m 733.79111,2867.5488 18.21496,6.2302 -32.00234,-36.0651 50.42746,28.1263 -7.25592,-23.0198 39.01862,18.0306 -7.08782,-17.3913 25.36503,14.58 15.18606,4.2224 176.24354,-2.2041 50.2513,-18.0544 -9.284,18.0377 91.6067,-33.6129 -38.3614,51.7701 40.2178,-12.1041 -25.4377,39.1424 25.0939,-3.1975 -24.7049,31.0933 18.919,3.2305 -26.6644,42.4998 30.1618,39.8272 -30.5053,-6.3908 25.0039,23.7164 -42.5814,-1.8377 29.2764,37.2029 -43.082,-10.864 46.5768,65.7637 -64.9347,-37.7233 -2.0283,23.2516 -41.4564,-30.7349 -152.45604,13.1618 -53.09675,10.8228 15.3386,-19.8124 -58.47304,12.7072 16.10446,-25.59 -71.77542,35.7243 39.73773,-57.5007 -31.44442,14.6743 24.20178,-37.1201 -21.70142,12.6246 18.95936,-29.9644 -1.70085,-108.9141 z"
       id="path1184"
       inkscape:connector-curvature="0"
       sodipodi:nodetypes="ccccccccccccccccccccccccccccccccccccccccccc" />
    <path
       style="fill:#ffffff;fill-opacity:1;fill-rule:evenodd;stroke:none;stroke-width:1.0124017px;stroke-linecap:butt;stroke-linejoin:miter;stroke-opacity:1"
       d="m 893.0915,3113.9934 -23.48307,-46.9404 40.86767,23.1901 -6.3411,-20.8313 23.01322,14.8938 4.34615,-16.5856 116.34863,11.9747 133.9468,-2.9674 27.798,-10.8621 -7.5196,15.4856 37.203,-16.4042 -12.8798,20.9179 57.5687,-25.9395 -37.1204,53.6703 33.3005,-13.1126 -26.1537,38.5675 22.0705,-6.6369 -18.7987,26.8352 16.6779,-4.3197 -14.9076,19.1138 -3.5125,102.1386 14.1348,17.0242 -19.6758,-3.7381 26.7183,33.5026 -53.2938,-27.4987 16.3158,26.8022 -43.5328,-25.608 4.56,17.0499 -28.8557,-17.5143 -215.77662,5.2081 -22.15699,11.3076 6.87515,-12.7674 -31.20534,14.491 7.19463,-22.2197 -57.35493,32.9718 40.25533,-60.2383 -30.56306,19.567 25.29193,-34.7586 -22.05064,4.3101 10.32934,-17.7434 0.81293,-91.0597 -16.59262,-43.1113 z"
       id="path1186"
       inkscape:connector-curvature="0"
       sodipodi:nodetypes="ccccccccccccccccccccccccccccccccccccccccccc" />
  </g>
  <g
     inkscape:groupmode="layer"
     id="layer1"
     inkscape:label="txt">
    <text
       xml:space="preserve"
       style="font-style:normal;font-variant:normal;font-weight:normal;font-stretch:normal;line-height:0%;font-family:'Rounded M+ 1c';letter-spacing:0px;word-spacing:0px;text-anchor:middle;fill:#000000;fill-opacity:1;stroke:none"
       x="386.48544"
       y="212.40007"
       id="text4246"><tspan
         sodipodi:role="line"
         style="font-size:45px;line-height:1.20000005"
         x="386.48544"
         y="212.40007"
         id="tspan4252">キャロット！</tspan><tspan
         sodipodi:role="line"
         style="font-size:45px;line-height:1.20000005"
         x="386.48544"
         y="266.40009"
         id="tspan3815">あなたね！</tspan></text>
    <text
       xml:space="preserve"
       style="font-style:normal;font-variant:normal;font-weight:normal;font-stretch:normal;line-height:0%;font-family:'Rounded M+ 1c';letter-spacing:0px;word-spacing:0px;text-anchor:middle;fill:#000000;fill-opacity:1;stroke:none"
       x="1326.7289"
       y="864.74561"
       id="text4246-3"><tspan
         sodipodi:role="line"
         style="font-size:45px;line-height:1.20000005"
         x="1326.7289"
         y="864.74561"
         id="tspan3813">少し</tspan><tspan
         sodipodi:role="line"
         style="font-size:45px;line-height:1.20000005"
         x="1326.7289"
         y="918.74561"
         id="tspan3908">考え込んでて</tspan><tspan
         sodipodi:role="line"
         style="font-size:45px;line-height:1.20000005"
         x="1326.7289"
         y="972.74561"
         id="tspan3910">気が付かなかった</tspan><tspan
         sodipodi:role="line"
         style="font-size:45px;line-height:1.20000005"
         x="1326.7289"
         y="987.8656"
         id="tspan3902" /></text>
    <text
       xml:space="preserve"
       style="font-style:normal;font-variant:normal;font-weight:500;font-stretch:normal;font-size:40px;line-height:0%;font-family:'Rounded M+ 1c';-inkscape-font-specification:'Rounded M+ 1c, Medium';font-variant-ligatures:normal;font-variant-caps:normal;font-variant-numeric:normal;font-feature-settings:normal;text-align:center;letter-spacing:0px;word-spacing:0px;writing-mode:lr-tb;text-anchor:middle;opacity:0.6;fill:#ffffff;fill-opacity:1;stroke:#ffffff;stroke-width:0.4101558;stroke-miterlimit:4;stroke-dasharray:none;stroke-opacity:1"
       x="732.62769"
       y="780.9256"
       id="text4246-8"
       transform="matrix(0.97558614,-0.48724083,-0.02659511,1.0383073,0,0)"><tspan
         sodipodi:role="line"
         style="font-style:normal;font-variant:normal;font-weight:500;font-stretch:normal;font-size:40px;line-height:1.25;font-family:'Rounded M+ 1c';-inkscape-font-specification:'Rounded M+ 1c, Medium';font-variant-ligatures:normal;font-variant-caps:normal;font-variant-numeric:normal;font-feature-settings:normal;text-align:center;writing-mode:lr-tb;text-anchor:middle;fill:#ffffff;stroke:#ffffff;stroke-width:0.4101558;stroke-miterlimit:4;stroke-dasharray:none;stroke-opacity:1"
         x="732.62769"
         y="780.9256"
         id="tspan4150-8">すり</tspan><tspan
         sodipodi:role="line"
         style="font-style:normal;font-variant:normal;font-weight:500;font-stretch:normal;font-size:40px;line-height:1.25;font-family:'Rounded M+ 1c';-inkscape-font-specification:'Rounded M+ 1c, Medium';font-variant-ligatures:normal;font-variant-caps:normal;font-variant-numeric:normal;font-feature-settings:normal;text-align:center;writing-mode:lr-tb;text-anchor:middle;fill:#ffffff;stroke:#ffffff;stroke-width:0.4101558;stroke-miterlimit:4;stroke-dasharray:none;stroke-opacity:1"
         x="732.62769"
         y="830.9256"
         id="tspan877">すり</tspan></text>
    <text
       xml:space="preserve"
       style="font-style:normal;font-variant:normal;font-weight:normal;font-stretch:normal;line-height:0%;font-family:'Rounded M+ 1c';letter-spacing:0px;word-spacing:0px;text-anchor:middle;fill:#000000;fill-opacity:1;stroke:none"
       x="2177.9553"
       y="209.84564"
       id="text4246-3-7"><tspan
         sodipodi:role="line"
         style="font-size:45px;line-height:1.20000005"
         x="2177.9553"
         y="209.84564"
         id="tspan891">寒くなって</tspan><tspan
         sodipodi:role="line"
         style="font-size:45px;line-height:1.20000005"
         x="2177.9553"
         y="263.84564"
         id="tspan3826">きたから</tspan><tspan
         sodipodi:role="line"
         style="font-size:45px;line-height:1.20000005"
         x="2177.9553"
         y="317.84564"
         id="tspan3828">中に戻る</tspan><tspan
         sodipodi:role="line"
         style="font-size:45px;line-height:1.20000005"
         x="2177.9553"
         y="371.84564"
         id="tspan3830">つもり</tspan></text>
    <text
       xml:space="preserve"
       style="font-style:normal;font-variant:normal;font-weight:500;font-stretch:normal;font-size:37.56266785px;line-height:0%;font-family:'Rounded M+ 1c';-inkscape-font-specification:'Rounded M+ 1c, Medium';font-variant-ligatures:normal;font-variant-caps:normal;font-variant-numeric:normal;font-feature-settings:normal;text-align:center;letter-spacing:0px;word-spacing:0px;writing-mode:lr-tb;text-anchor:middle;fill:#000000;fill-opacity:1;stroke:none;stroke-width:1"
       x="1197.906"
       y="1230.2842"
       id="text4246-3-6"><tspan
         sodipodi:role="line"
         style="font-style:normal;font-variant:normal;font-weight:500;font-stretch:normal;font-size:37.56266785px;line-height:1.20000005;font-family:'Rounded M+ 1c';-inkscape-font-specification:'Rounded M+ 1c, Medium';font-variant-ligatures:normal;font-variant-caps:normal;font-variant-numeric:normal;font-feature-settings:normal;text-align:center;writing-mode:lr-tb;text-anchor:middle;stroke-width:1.19798362"
         x="1197.906"
         y="1230.2842"
         id="tspan843-1">急がないと</tspan><tspan
         sodipodi:role="line"
         style="font-style:normal;font-variant:normal;font-weight:500;font-stretch:normal;font-size:37.56266785px;line-height:1.20000005;font-family:'Rounded M+ 1c';-inkscape-font-specification:'Rounded M+ 1c, Medium';font-variant-ligatures:normal;font-variant-caps:normal;font-variant-numeric:normal;font-feature-settings:normal;text-align:center;writing-mode:lr-tb;text-anchor:middle;stroke-width:1.19798362"
         x="1197.906"
         y="1275.3594"
         id="tspan953">彼女が来てる！</tspan></text>
    <text
       xml:space="preserve"
       style="font-style:normal;font-variant:normal;font-weight:500;font-stretch:normal;font-size:37.56266785px;line-height:0%;font-family:'Rounded M+ 1c';-inkscape-font-specification:'Rounded M+ 1c, Medium';font-variant-ligatures:normal;font-variant-caps:normal;font-variant-numeric:normal;font-feature-settings:normal;text-align:center;letter-spacing:0px;word-spacing:0px;writing-mode:lr-tb;text-anchor:middle;fill:#000000;fill-opacity:1;stroke:none;stroke-width:1"
       x="865.71344"
       y="1238.084"
       id="text4246-3-6-2"><tspan
         sodipodi:role="line"
         style="font-style:normal;font-variant:normal;font-weight:500;font-stretch:normal;font-size:37.56266785px;line-height:1.20000005;font-family:'Rounded M+ 1c';-inkscape-font-specification:'Rounded M+ 1c, Medium';font-variant-ligatures:normal;font-variant-caps:normal;font-variant-numeric:normal;font-feature-settings:normal;text-align:center;writing-mode:lr-tb;text-anchor:middle;stroke-width:1.19798362"
         x="865.71344"
         y="1238.084"
         id="tspan843-1-7">急げ！</tspan><tspan
         sodipodi:role="line"
         style="font-style:normal;font-variant:normal;font-weight:500;font-stretch:normal;font-size:37.56266785px;line-height:1.20000005;font-family:'Rounded M+ 1c';-inkscape-font-specification:'Rounded M+ 1c, Medium';font-variant-ligatures:normal;font-variant-caps:normal;font-variant-numeric:normal;font-feature-settings:normal;text-align:center;writing-mode:lr-tb;text-anchor:middle;stroke-width:1.19798362"
         x="865.71344"
         y="1283.1592"
         id="tspan953-0">彼女だ！</tspan></text>
    <text
       xml:space="preserve"
       style="font-style:normal;font-variant:normal;font-weight:normal;font-stretch:normal;line-height:0%;font-family:'Rounded M+ 1c';letter-spacing:0px;word-spacing:0px;text-anchor:middle;fill:#000000;fill-opacity:1;stroke:none"
       x="379.72003"
       y="1962.1278"
       id="text4246-3-3"><tspan
         sodipodi:role="line"
         style="font-size:45px;line-height:1.20000005"
         x="379.72003"
         y="1962.1278"
         id="tspan843-6">サフラン様！</tspan><tspan
         sodipodi:role="line"
         style="font-size:45px;line-height:1.20000005"
         x="379.72003"
         y="2016.1278"
         id="tspan3832">私たちのクアリシティ</tspan><tspan
         sodipodi:role="line"
         style="font-size:45px;line-height:1.20000005"
         x="379.72003"
         y="2070.1279"
         id="tspan3836">デイリーにお言葉を</tspan><tspan
         sodipodi:role="line"
         style="font-size:45px;line-height:1.20000005"
         x="379.72003"
         y="2124.1279"
         id="tspan1033">お願いできますか？</tspan></text>
    <text
       xml:space="preserve"
       style="font-style:normal;font-variant:normal;font-weight:normal;font-stretch:normal;line-height:0%;font-family:'Rounded M+ 1c';letter-spacing:0px;word-spacing:0px;text-anchor:middle;fill:#000000;fill-opacity:1;stroke:none"
       x="1077.2172"
       y="2612.5867"
       id="text4246-3-3-2"><tspan
         sodipodi:role="line"
         style="font-size:45px;line-height:1.10000002"
         x="1077.2172"
         y="2612.5867"
         id="tspan6907">ええ</tspan><tspan
         sodipodi:role="line"
         style="font-size:45px;line-height:1.10000002"
         x="1077.2172"
         y="2662.0867"
         id="tspan3851">喜んで！</tspan></text>
    <text
       xml:space="preserve"
       style="font-style:normal;font-variant:normal;font-weight:normal;font-stretch:normal;line-height:0%;font-family:'Rounded M+ 1c';-inkscape-font-specification:'Rounded M+ 1c, Medium'text-align:center;letter-spacing:0px;word-spacing:0px;text-anchor:middle;fill:#000000;fill-opacity:1;stroke:none"
       x="2273.3049"
       y="1953.7657"
       id="text4246-3-3-2-2"><tspan
         sodipodi:role="line"
         style="font-size:45px;line-height:1.20000005"
         x="2273.3049"
         y="1953.7657"
         id="tspan1033-7-3">...</tspan></text>
    <text
       xml:space="preserve"
       style="font-style:normal;font-variant:normal;font-weight:normal;font-stretch:normal;line-height:0%;font-family:'Rounded M+ 1c';letter-spacing:0px;word-spacing:0px;text-anchor:middle;fill:#000000;fill-opacity:1;stroke:none"
       x="2156.2603"
       y="2444.8921"
       id="text4246-3-3-7"><tspan
         sodipodi:role="line"
         style="font-size:45px;line-height:1.20000005"
         x="2156.2603"
         y="2444.8921"
         id="tspan1033-2">わかるでしょ</tspan><tspan
         sodipodi:role="line"
         style="font-size:45px;line-height:1.20000005"
         x="2156.2603"
         y="2498.8921"
         id="tspan3872">キャロット？</tspan><tspan
         sodipodi:role="line"
         style="font-size:45px;line-height:1.20000005"
         x="2156.2603"
         y="2552.8921"
         id="tspan3874">どうして</tspan><tspan
         sodipodi:role="line"
         style="font-size:45px;line-height:1.20000005"
         x="2156.2603"
         y="2606.8921"
         id="tspan3876">沈んだ気持ちに</tspan><tspan
         sodipodi:role="line"
         style="font-size:45px;line-height:1.20000005"
         x="2156.2603"
         y="2660.8921"
         id="tspan1159">なるのかって</tspan></text>
    <text
       xml:space="preserve"
       style="font-style:normal;font-variant:normal;font-weight:normal;font-stretch:normal;font-size:79.97832489px;line-height:1.25;font-family:'Rounded M+ 1c';font-variant-position:normal;font-variant-caps:normal;font-variant-numeric:normal;font-variant-alternates:normal;font-feature-settings:normal;text-indent:0;text-align:start;text-decoration:none;text-decoration-line:none;text-decoration-style:solid;text-decoration-color:#000000;letter-spacing:0px;word-spacing:0px;text-transform:none;writing-mode:lr-tb;direction:ltr;text-orientation:mixed;dominant-baseline:auto;baseline-shift:baseline;text-anchor:start;white-space:normal;shape-padding:0;opacity:1;vector-effect:none;fill:#ffffff;fill-opacity:1;stroke:none;stroke-width:1.78316224;stroke-linecap:butt;stroke-linejoin:miter;stroke-miterlimit:4;stroke-dasharray:none;stroke-dashoffset:0;stroke-opacity:1;filter:url(#filter4375-4-1-1-1-9)"
       x="1191.4009"
       y="2475.9683"
       id="text4246-8-1-3"
       transform="matrix(0.54943791,-0.30590239,-0.01497803,0.74418809,422.11729,526.52481)"><tspan
         sodipodi:role="line"
         style="font-style:normal;font-variant:normal;font-weight:normal;font-stretch:normal;font-size:79.97832489px;line-height:1.25;font-family:'Rounded M+ 1c';font-variant-position:normal;font-variant-caps:normal;font-variant-numeric:normal;font-variant-alternates:normal;font-feature-settings:normal;text-indent:0;text-align:start;text-decoration:none;text-decoration-line:none;text-decoration-style:solid;text-decoration-color:#000000;letter-spacing:0px;word-spacing:0px;text-transform:none;writing-mode:lr-tb;direction:ltr;text-orientation:mixed;dominant-baseline:auto;baseline-shift:baseline;text-anchor:start;white-space:normal;shape-padding:0;vector-effect:none;fill:#ffffff;fill-opacity:1;stroke:none;stroke-width:1.78316224;stroke-linecap:butt;stroke-linejoin:miter;stroke-miterlimit:4;stroke-dasharray:none;stroke-dashoffset:0;stroke-opacity:1;filter:url(#filter4375-4-1-1-1-9)"
         x="1191.4009"
         y="2475.9683"
         id="tspan877-7-6"><tspan
           style="font-size:65.1342926px;stroke-width:1.78316224"
           id="tspan962">パシャッ</tspan></tspan></text>
    <text
       xml:space="preserve"
       style="font-style:normal;font-variant:normal;font-weight:normal;font-stretch:normal;line-height:0%;font-family:'Rounded M+ 1c';letter-spacing:0px;word-spacing:0px;text-anchor:middle;fill:#000000;fill-opacity:1;stroke:none"
       x="926.21729"
       y="2935.7336"
       id="text4246-3-3-75"><tspan
         sodipodi:role="line"
         style="font-size:45px;line-height:1.20000005"
         x="926.21729"
         y="2935.7336"
         id="tspan1033-29">サフラン様！</tspan><tspan
         sodipodi:role="line"
         style="font-size:45px;line-height:1.20000005"
         x="926.21729"
         y="2989.7336"
         id="tspan3853">ヘレヴァスタイル</tspan><tspan
         sodipodi:role="line"
         style="font-size:45px;line-height:1.20000005"
         x="926.21729"
         y="3043.7336"
         id="tspan1182">ガゼットです</tspan></text>
    <text
       xml:space="preserve"
       style="font-style:normal;font-variant:normal;font-weight:normal;font-stretch:normal;font-size:79.97832489px;line-height:1.25;font-family:'Rounded M+ 1c';font-variant-position:normal;font-variant-caps:normal;font-variant-numeric:normal;font-variant-alternates:normal;font-feature-settings:normal;text-indent:0;text-align:start;text-decoration:none;text-decoration-line:none;text-decoration-style:solid;text-decoration-color:#000000;letter-spacing:0px;word-spacing:0px;text-transform:none;writing-mode:lr-tb;direction:ltr;text-orientation:mixed;dominant-baseline:auto;baseline-shift:baseline;text-anchor:start;white-space:normal;shape-padding:0;opacity:1;vector-effect:none;fill:#ffffff;fill-opacity:1;stroke:none;stroke-width:1.78316224;stroke-linecap:butt;stroke-linejoin:miter;stroke-miterlimit:4;stroke-dasharray:none;stroke-dashoffset:0;stroke-opacity:1;filter:url(#filter4375-4-1-1-1-9-6)"
       x="1191.4009"
       y="2475.9683"
       id="text4246-8-1-3-2"
       transform="matrix(0.54943791,-0.30590239,-0.01497803,0.74418809,458.46468,856.46021)"><tspan
         sodipodi:role="line"
         style="font-style:normal;font-variant:normal;font-weight:normal;font-stretch:normal;font-size:79.97832489px;line-height:1.25;font-family:'Rounded M+ 1c';font-variant-position:normal;font-variant-caps:normal;font-variant-numeric:normal;font-variant-alternates:normal;font-feature-settings:normal;text-indent:0;text-align:start;text-decoration:none;text-decoration-line:none;text-decoration-style:solid;text-decoration-color:#000000;letter-spacing:0px;word-spacing:0px;text-transform:none;writing-mode:lr-tb;direction:ltr;text-orientation:mixed;dominant-baseline:auto;baseline-shift:baseline;text-anchor:start;white-space:normal;shape-padding:0;vector-effect:none;fill:#ffffff;fill-opacity:1;stroke:none;stroke-width:1.78316224;stroke-linecap:butt;stroke-linejoin:miter;stroke-miterlimit:4;stroke-dasharray:none;stroke-dashoffset:0;stroke-opacity:1;filter:url(#filter4375-4-1-1-1-9-6)"
         x="1191.4009"
         y="2475.9683"
         id="tspan877-7-6-2"><tspan
           style="font-size:65.1342926px;stroke-width:1.78316224"
           id="tspan962-2">パシャッ</tspan></tspan></text>
    <text
       xml:space="preserve"
       style="font-style:normal;font-variant:normal;font-weight:normal;font-stretch:normal;font-size:79.97832489px;line-height:1.25;font-family:'Rounded M+ 1c';font-variant-position:normal;font-variant-caps:normal;font-variant-numeric:normal;font-variant-alternates:normal;font-feature-settings:normal;text-indent:0;text-align:start;text-decoration:none;text-decoration-line:none;text-decoration-style:solid;text-decoration-color:#000000;letter-spacing:0px;word-spacing:0px;text-transform:none;writing-mode:lr-tb;direction:ltr;text-orientation:mixed;dominant-baseline:auto;baseline-shift:baseline;text-anchor:start;white-space:normal;shape-padding:0;opacity:1;vector-effect:none;fill:#ffffff;fill-opacity:1;stroke:none;stroke-width:1.78316224;stroke-linecap:butt;stroke-linejoin:miter;stroke-miterlimit:4;stroke-dasharray:none;stroke-dashoffset:0;stroke-opacity:1;filter:url(#filter4375-4-1-1-1-9-4)"
       x="1191.4009"
       y="2475.9683"
       id="text4246-8-1-3-5"
       transform="matrix(0.54943791,-0.30590239,-0.01497803,0.74418809,36.745484,519.61759)"><tspan
         sodipodi:role="line"
         style="font-style:normal;font-variant:normal;font-weight:normal;font-stretch:normal;font-size:79.97832489px;line-height:1.25;font-family:'Rounded M+ 1c';font-variant-position:normal;font-variant-caps:normal;font-variant-numeric:normal;font-variant-alternates:normal;font-feature-settings:normal;text-indent:0;text-align:start;text-decoration:none;text-decoration-line:none;text-decoration-style:solid;text-decoration-color:#000000;letter-spacing:0px;word-spacing:0px;text-transform:none;writing-mode:lr-tb;direction:ltr;text-orientation:mixed;dominant-baseline:auto;baseline-shift:baseline;text-anchor:start;white-space:normal;shape-padding:0;vector-effect:none;fill:#ffffff;fill-opacity:1;stroke:none;stroke-width:1.78316224;stroke-linecap:butt;stroke-linejoin:miter;stroke-miterlimit:4;stroke-dasharray:none;stroke-dashoffset:0;stroke-opacity:1;filter:url(#filter4375-4-1-1-1-9-4)"
         x="1191.4009"
         y="2475.9683"
         id="tspan877-7-6-7"><tspan
           style="font-size:65.1342926px;stroke-width:1.78316224"
           id="tspan962-8">パシャッ</tspan></tspan></text>
    <text
       xml:space="preserve"
       style="font-style:normal;font-variant:normal;font-weight:normal;font-stretch:normal;font-size:79.97832489px;line-height:1.25;font-family:'Rounded M+ 1c';font-variant-position:normal;font-variant-caps:normal;font-variant-numeric:normal;font-variant-alternates:normal;font-feature-settings:normal;text-indent:0;text-align:start;text-decoration:none;text-decoration-line:none;text-decoration-style:solid;text-decoration-color:#000000;letter-spacing:0px;word-spacing:0px;text-transform:none;writing-mode:lr-tb;direction:ltr;text-orientation:mixed;dominant-baseline:auto;baseline-shift:baseline;text-anchor:start;white-space:normal;shape-padding:0;opacity:1;vector-effect:none;fill:#ffffff;fill-opacity:1;stroke:none;stroke-width:1.78316224;stroke-linecap:butt;stroke-linejoin:miter;stroke-miterlimit:4;stroke-dasharray:none;stroke-dashoffset:0;stroke-opacity:1;filter:url(#filter4375-4-1-1-1-9-4-8)"
       x="1191.4009"
       y="2475.9683"
       id="text4246-8-1-3-5-3"
       transform="matrix(0.54943791,-0.30590239,-0.01497803,0.74418809,-266.75729,810.46654)"><tspan
         sodipodi:role="line"
         style="font-style:normal;font-variant:normal;font-weight:normal;font-stretch:normal;font-size:79.97832489px;line-height:1.25;font-family:'Rounded M+ 1c';font-variant-position:normal;font-variant-caps:normal;font-variant-numeric:normal;font-variant-alternates:normal;font-feature-settings:normal;text-indent:0;text-align:start;text-decoration:none;text-decoration-line:none;text-decoration-style:solid;text-decoration-color:#000000;letter-spacing:0px;word-spacing:0px;text-transform:none;writing-mode:lr-tb;direction:ltr;text-orientation:mixed;dominant-baseline:auto;baseline-shift:baseline;text-anchor:start;white-space:normal;shape-padding:0;vector-effect:none;fill:#ffffff;fill-opacity:1;stroke:none;stroke-width:1.78316224;stroke-linecap:butt;stroke-linejoin:miter;stroke-miterlimit:4;stroke-dasharray:none;stroke-dashoffset:0;stroke-opacity:1;filter:url(#filter4375-4-1-1-1-9-4-8)"
         x="1191.4009"
         y="2475.9683"
         id="tspan877-7-6-7-9"><tspan
           style="font-size:65.1342926px;stroke-width:1.78316224"
           id="tspan962-8-8">パシャッ</tspan></tspan></text>
    <text
       xml:space="preserve"
       style="font-style:normal;font-variant:normal;font-weight:normal;font-stretch:normal;line-height:0%;font-family:'Rounded M+ 1c';letter-spacing:0px;word-spacing:0px;text-anchor:middle;fill:#000000;fill-opacity:1;stroke:none"
       x="1071.2733"
       y="3112.7102"
       id="text4246-3-3-75-1"><tspan
         sodipodi:role="line"
         style="font-size:45px;line-height:1.20000005"
         x="1071.2733"
         y="3117.0303"
         id="tspan6909-5" /><tspan
         sodipodi:role="line"
         style="font-size:45px;line-height:1.20000005"
         x="1071.2733"
         y="3155.9102"
         id="tspan6848-2">今夜の服装は</tspan><tspan
         sodipodi:role="line"
         style="font-size:45px;line-height:1.20000005"
         x="1071.2733"
         y="3209.9102"
         id="tspan3866">どちらの</tspan><tspan
         sodipodi:role="line"
         style="font-size:45px;line-height:1.20000005"
         x="1071.2733"
         y="3263.9102"
         id="tspan3870">デザイナーですか</tspan><tspan
         sodipodi:role="line"
         style="font-size:45px;line-height:1.20000005"
         x="1071.2733"
         y="3279.0303"
         id="tspan3868" /></text>
  </g>
</svg>
