<?xml version="1.0" encoding="UTF-8" standalone="no"?>
<svg
   xmlns:dc="http://purl.org/dc/elements/1.1/"
   xmlns:cc="http://creativecommons.org/ns#"
   xmlns:rdf="http://www.w3.org/1999/02/22-rdf-syntax-ns#"
   xmlns:svg="http://www.w3.org/2000/svg"
   xmlns="http://www.w3.org/2000/svg"
   xmlns:xlink="http://www.w3.org/1999/xlink"
   xmlns:sodipodi="http://sodipodi.sourceforge.net/DTD/sodipodi-0.dtd"
   xmlns:inkscape="http://www.inkscape.org/namespaces/inkscape"
   sodipodi:docname="E03P02.svg"
   height="3503"
   width="2481"
   inkscape:version="1.0 (4035a4f, 2020-05-01)"
   version="1.1"
   id="svg2">
  <sodipodi:namedview
     inkscape:window-maximized="1"
     inkscape:window-y="0"
     inkscape:window-x="0"
     inkscape:document-rotation="0"
     inkscape:current-layer="layer1"
     inkscape:cy="2408.6204"
     inkscape:cx="1284.4231"
     inkscape:zoom="0.4"
     showgrid="false"
     id="namedview70"
     inkscape:window-height="1031"
     inkscape:window-width="1920"
     inkscape:pageshadow="2"
     inkscape:pageopacity="0"
     bordercolor="#666666"
     pagecolor="#ffffff" />
  <metadata
     id="metadata8">
    <rdf:RDF>
      <cc:Work
         rdf:about="">
        <dc:format>image/svg+xml</dc:format>
        <dc:type
           rdf:resource="http://purl.org/dc/dcmitype/StillImage" />
        <dc:title />
      </cc:Work>
    </rdf:RDF>
  </metadata>
  <defs
     id="defs6" />
  <sodipodi:namedview
     inkscape:current-layer="layer2"
     inkscape:window-maximized="1"
     inkscape:window-y="26"
     inkscape:window-x="0"
     inkscape:cy="2414.2743"
     inkscape:cx="1063.5226"
     inkscape:zoom="0.44473442"
     showgrid="false"
     id="namedview4"
     inkscape:window-height="1025"
     inkscape:window-width="1920"
     inkscape:pageshadow="2"
     inkscape:pageopacity="0"
     guidetolerance="10"
     gridtolerance="10"
     objecttolerance="10"
     borderopacity="1"
     bordercolor="#666666"
     pagecolor="#ffffff" />
  <g
     sodipodi:insensitive="true"
     inkscape:label="artwork"
     id="layer3"
     inkscape:groupmode="layer">
    <image
       sodipodi:absref="/home/kraftwerk/Downloads/lang/gfx_Pepper-and-Carrot_by-David-Revoy_E03P02.png"
       xlink:href="../gfx_Pepper-and-Carrot_by-David-Revoy_E03P02.png"
       width="2481"
       height="3503"
       id="image10"
       x="0"
       y="0" />
  </g>
  <g
     inkscape:label="speechbubbles"
     id="layer2"
     inkscape:groupmode="layer">
    <path
       inkscape:connector-curvature="0"
       id="path4456"
       d="m 807.95598,1335.5624 c 26.24678,-47.6331 46.66094,-50.5494 61.24248,-54.4378 1.94421,4.8605 6.80472,12.6373 6.80472,12.6373 0,0 28.19098,-10.6931 39.85622,-10.6931 11.66523,0 11.66523,16.5258 11.66523,16.5258 0,0 -54.43776,22.3583 -65.13089,31.1072 -4.86051,-13.6094 -8.74892,-19.442 -8.74892,-25.2746 -8.74893,-0.9721 -35.96781,13.6094 -45.68884,30.1352 z"
       style="color:#000000;display:inline;overflow:visible;visibility:visible;fill:#ffffff;fill-opacity:1;fill-rule:nonzero;stroke:none;stroke-width:1px;marker:none;enable-background:accumulate" />
    <path
       sodipodi:nodetypes="csssssssssssc"
       inkscape:connector-curvature="0"
       id="path4464"
       d="m 887.07961,1146.0023 c -23.52161,20.4142 -29.12198,45.6888 -26.88183,57.3541 2.24015,11.6652 33.60229,66.103 35.84244,80.6845 2.24016,14.5816 -31.36213,79.7124 -24.64168,101.0987 6.72047,21.3863 26.88184,85.5451 115.3679,91.3777 88.48606,5.8326 112.00766,-6.8047 140.00946,-6.8047 28.002,0 132.1692,18.4699 147.8502,15.5536 15.6811,-2.9163 23.5216,-7.7768 34.7224,-9.721 11.2007,-1.9442 95.2064,0.9721 124.3284,-46.661 29.1221,-47.633 31.3622,-64.1588 16.8013,-97.2103 -14.5611,-33.0514 -4.4803,-68.0471 7.8405,-107.9034 12.3208,-39.8562 -15.1198,-81.7466 -33.6024,-88.4613 -48.1632,-17.4979 -482.75294,-45.6889 -537.63669,10.6931 z"
       style="color:#000000;display:inline;overflow:visible;visibility:visible;fill:#ffffff;fill-opacity:1;fill-rule:nonzero;stroke:none;stroke-width:1.07342px;marker:none;enable-background:accumulate" />
    <path
       sodipodi:nodetypes="cscssssc"
       inkscape:connector-curvature="0"
       id="path4472"
       d="m 892.60598,1727.3118 c 3.3748,-57.6594 38.81001,-82.793 50.62176,-88.7068 11.81175,-5.9138 23.62353,-56.181 215.98616,-66.5301 116.4299,-5.9138 170.4265,31.0473 182.2384,34.0042 11.8116,2.9569 102.4855,78.5027 81.4477,142.2915 -15.1866,46.0471 -33.1263,62.8251 -64.1624,71.3986 -35.7094,9.8646 -255.2076,12.5123 -304.142,0.6847 -48.9344,-11.8275 -141.74091,5.9138 -161.98962,-93.1421 z"
       style="color:#000000;display:inline;overflow:visible;visibility:visible;fill:#ffffff;fill-opacity:1;fill-rule:nonzero;stroke:none;stroke-width:1.06833px;marker:none;enable-background:accumulate" />
    <path
       inkscape:connector-curvature="0"
       id="path4480"
       d="m 1394.3714,1725.4728 c 49.7882,35.7734 123.3881,38.0092 147.1998,35.7734 -62.7763,19.0046 -125.5527,21.2404 -158.0232,-4.4717 -32.4706,-25.7121 10.8234,-31.3017 10.8234,-31.3017 z"
       style="color:#000000;display:inline;overflow:visible;visibility:visible;fill:#ffffff;fill-opacity:1;fill-rule:nonzero;stroke:none;stroke-width:1px;marker:none;enable-background:accumulate" />
    <path
       sodipodi:nodetypes="csscscsssscc"
       inkscape:connector-curvature="0"
       id="path4488"
       d="m 1068.2403,2040.4801 c -2e-4,-22.9758 11.7925,-34.4637 20.2158,-38.6411 8.4233,-4.1775 0,-24.0202 52.2244,-36.5525 52.2245,-12.5324 158.3578,-9.3993 173.5198,-8.3549 16.8465,-5.2218 173.5197,-8.3548 242.5906,30.2863 69.0712,38.6412 104.4488,102.347 -28.6391,131.589 97.7103,20.8872 229.1133,90.8591 220.6901,158.7423 -8.4232,67.8832 -212.267,151.4318 -367.2553,163.9641 -154.9885,12.5322 -392.52544,-60.5728 -421.1646,-123.2342 -28.63903,-62.6614 52.2244,-161.8753 90.9717,-175.4519 38.7471,-13.5767 85.9176,-19.8429 117.9259,-25.0646 -79.1788,-14.621 -101.0795,-61.6171 -101.0793,-77.2825 z"
       style="color:#000000;display:inline;overflow:visible;visibility:visible;fill:#ffffff;fill-opacity:1;fill-rule:nonzero;stroke:none;stroke-width:1.18651px;marker:none;enable-background:accumulate" />
    <path
       inkscape:connector-curvature="0"
       id="path4496"
       d="m 877.14987,2333.2132 c 5.57335,17.1181 11.16282,35.0294 23.39088,48.7241 3.55856,3.8199 7.50649,7.5251 12.13185,9.9498 5.37245,1.4498 10.84942,-1.4122 14.12754,-5.6132 5.15892,-5.7353 8.19632,-13.9047 15.56852,-17.285 5.4261,-2.3306 10.8729,0.8814 15.6761,3.1704 12.1284,6.0748 23.505,13.8279 36.5404,17.9363 14.37564,5.5799 29.90674,10.4081 45.48424,8.0016 6.1477,-1.0555 12.4312,-3.0194 17.0066,-7.4624 12.2544,-10.8656 18.4537,-28.9219 13.6291,-44.8231 -4.0403,-9.8511 -16.6784,-15.851 -26.5414,-11.0096 -5.2446,2.4777 -7.97,8.0957 -8.8455,13.5685 -3.4893,9.7595 -12.4516,16.8979 -22.4619,19.0846 -8.2318,1.9398 -16.98744,1.2749 -24.95794,-1.4727 -11.8256,-0.8743 -20.7496,-9.4594 -30.3291,-15.4411 -4.4172,-2.6676 -9.2966,-5.2059 -14.5159,-5.4716 -7.5326,1.3916 -11.8483,8.4752 -14.80768,14.8891 -3.22265,6.5363 -6.22228,14.4823 -13.58052,17.3225 -4.84088,2.6585 -8.79493,-2.5041 -12.54101,-4.8769 -11.06465,-9.2145 -19.10985,-21.7672 -24.06428,-35.1993 -0.37642,-1.3148 -0.64489,-2.6514 -0.91,-3.992 z"
       style="color:#000000;display:inline;overflow:visible;visibility:visible;fill:#ffffff;fill-opacity:1;fill-rule:nonzero;stroke:none;stroke-width:1px;marker:none;enable-background:accumulate" />
    <path
       inkscape:connector-curvature="0"
       id="path4514"
       d="m 1551.5592,2581.2774 c 4.4742,-26.8453 35.7937,-46.0205 73.5049,-45.3813 37.7112,0.6391 65.1957,33.8761 58.1648,58.8039 -7.0309,24.9278 -33.237,39.6288 -70.3091,35.1545 -37.0721,-4.4742 -65.8349,-30.0411 -61.3606,-48.5771 z"
       style="color:#000000;display:inline;overflow:visible;visibility:visible;fill:#ffffff;fill-opacity:1;fill-rule:nonzero;stroke:none;stroke-width:1px;marker:none;enable-background:accumulate" />
    <path
       inkscape:connector-curvature="0"
       id="path4522"
       d="m 1677.4763,2588.9474 c 17.8969,-1.2783 37.0721,-7.0309 39.6288,-17.8968 1.9175,14.701 -14.701,36.4329 -41.5463,35.1545 -26.8453,-1.2783 -19.8144,-14.701 -19.8144,-14.701 z"
       style="color:#000000;display:inline;overflow:visible;visibility:visible;fill:#ffffff;fill-opacity:1;fill-rule:nonzero;stroke:none;stroke-width:1px;marker:none;enable-background:accumulate" />
    <path
       sodipodi:nodetypes="zsssssz"
       inkscape:connector-curvature="0"
       id="path4530"
       d="m 736.91308,2943.4204 c 26.62073,-69.1267 87.48926,-113.736 239.1373,-109.8476 151.64802,3.8885 179.83902,16.5258 200.25322,34.9957 20.4141,18.47 50.5493,124.4292 34.9957,197.3369 -15.5537,72.9077 -77.7683,149.7039 -226.49999,143.8713 -148.73174,-5.8327 -149.03739,-8.4922 -172.06221,-23.3305 -43.74463,-28.191 -102.44475,-173.8991 -75.82402,-243.0258 z"
       style="color:#000000;display:inline;overflow:visible;visibility:visible;fill:#ffffff;fill-opacity:1;fill-rule:nonzero;stroke:none;stroke-width:1px;marker:none;enable-background:accumulate" />
    <path
       inkscape:connector-curvature="0"
       id="path4538"
       d="m 728.16415,3256.4376 c 27.21888,10.6931 31.10729,9.721 39.85622,-1.9442 8.74893,-11.6652 17.49785,-31.1073 43.74463,-34.9957 26.24678,-3.8884 38.88411,5.8326 47.63304,11.6652 1.9442,-18.4699 -7.77682,-45.6888 -16.52575,-56.3819 -8.74893,-10.6932 53.46566,7.7768 53.46566,7.7768 0,0 8.74892,47.633 -7.77683,65.1309 -16.52574,17.4978 -53.46565,-4.8605 -71.93561,-4.8605 -18.46995,0 -32.07939,26.2467 -46.66093,29.163 -14.58155,2.9163 -30.13519,-7.7768 -41.80043,-15.5536 z"
       style="color:#000000;display:inline;overflow:visible;visibility:visible;fill:#ffffff;fill-opacity:1;fill-rule:nonzero;stroke:none;stroke-width:1px;marker:none;enable-background:accumulate" />
    <path
       sodipodi:nodetypes="cssssc"
       inkscape:connector-curvature="0"
       id="path4546"
       d="m 1260.9737,3028.9655 c 6.7075,-64.8392 62.9668,-110.0538 204.5791,-91.6693 75.8551,9.8477 162.0981,17.8867 153.1548,112.9098 -8.9434,95.023 -133.0323,87.1976 -158.7444,88.3155 -25.7122,1.118 -158.8791,-14.6531 -181.1028,-48.0705 -13.9115,-20.9185 -19.0046,-41.3629 -17.8867,-61.4855 z"
       style="color:#000000;display:inline;overflow:visible;visibility:visible;fill:#ffffff;fill-opacity:1;fill-rule:nonzero;stroke:none;stroke-width:1px;marker:none;enable-background:accumulate" />
    <path
       sodipodi:nodetypes="zsssssssz"
       inkscape:connector-curvature="0"
       id="path4554"
       d="m 1300.1009,3207.8324 c 7.2989,-43.2195 93.9051,-65.9571 122.971,-63.7213 29.0659,2.2358 103.9664,13.415 121.8531,13.415 17.8867,0 82.7259,-7.8254 106.2022,-10.0612 23.4763,-2.2359 52.5422,38.0092 50.3063,54.778 -2.2358,16.7687 -20.1225,63.7213 -81.608,69.3109 -61.4855,5.5896 -144.2115,-1.1179 -160.9802,4.4717 -16.7688,5.5896 -89.4335,11.1791 -116.2635,-4.4717 -26.8301,-15.6509 -49.7798,-20.5019 -42.4809,-63.7214 z"
       style="color:#000000;display:inline;overflow:visible;visibility:visible;fill:#ffffff;fill-opacity:1;fill-rule:nonzero;stroke:none;stroke-width:1px;marker:none;enable-background:accumulate" />
    <path
       sodipodi:nodetypes="cssscssssc"
       inkscape:connector-curvature="0"
       id="path4562"
       d="m 1455.4915,3113.9273 c 15.6509,39.1272 126.3248,118.4994 138.6219,131.9144 12.2971,13.415 38.0092,32.4196 58.1317,35.7734 20.1226,3.3537 29.8656,-15.8488 47.3048,-18.9433 14.983,-2.6587 26.4778,2.1745 35.4212,12.2357 -14.533,-25.7121 -39.1272,-25.7121 -49.1884,-21.2404 -10.0613,4.4717 -27.948,17.8867 -44.7168,5.5896 -16.7687,-12.2971 -86.0797,-88.3156 -103.9664,-91.6693 -17.8867,-3.3538 -40.245,-29.0659 -40.245,-43.5988 0,-14.533 -41.363,-10.0613 -41.363,-10.0613 z"
       style="color:#000000;display:inline;overflow:visible;visibility:visible;fill:#ffffff;fill-opacity:1;fill-rule:nonzero;stroke:none;stroke-width:1px;marker:none;enable-background:accumulate" />
    <path
       sodipodi:nodetypes="cssssc"
       inkscape:connector-curvature="0"
       id="path3659-8"
       d="m 333.1772,249.59718 c -5.3874,-67.5122 30.3459,-101.0965 62.8812,-117.0056 41.2339,-20.1625 338.6898,-42.634201 374.5844,13.878 33.0577,52.0459 56.5446,147.7325 -42.1656,194.9993 -98.7102,47.2668 -263.4508,21.3767 -291.4935,12.7827 -28.0427,-8.594 -98.198,-31.6058 -103.8065,-104.6544 z"
       style="fill:#ffffff;fill-opacity:1;stroke:none" />
    <path
       sodipodi:nodetypes="ccscc"
       inkscape:connector-curvature="0"
       id="path4440-1"
       d="m 752.9715,239.68848 c 51.7523,-9.5221 144.3491,25.7804 152.6807,130.3799 -39.695,-95.7771 -111.5887,-108.522 -153.5221,-93.2934 -39.7368,14.4308 -28.4367,-12.3696 -28.4367,-12.3696 z"
       style="color:#000000;display:inline;overflow:visible;visibility:visible;fill:#ffffff;fill-opacity:1;fill-rule:nonzero;stroke:none;stroke-width:1px;marker:none;enable-background:accumulate" />
    <path
       sodipodi:nodetypes="cccccccccc"
       inkscape:connector-curvature="0"
       id="path4448-7"
       d="m 1956.4499,284.19028 c -2.8517,-0.3412 -11.1967,37.1896 -11.1967,37.1896 0,0 -9.6125,7.4962 -11.4453,9.4383 -0.7114,7.4801 0.7366,17.3799 0.7366,17.3799 l -29.369,11.6174 16.5975,-14.2257 -7.4782,-14.9439 14.6623,-15.5381 7.5275,-27.7153 z"
       style="color:#000000;display:inline;overflow:visible;visibility:visible;fill:#ffffff;fill-opacity:1;fill-rule:nonzero;stroke:none;stroke-width:1px;marker:none;enable-background:accumulate" />
    <path
       sodipodi:nodetypes="cccccccccccccccccccccccccccccccccccccccccccccccccccc"
       inkscape:connector-curvature="0"
       id="path4448-1-6"
       d="m 1850.9102,229.10128 10.5029,19.7578 -14.8609,3.9041 7.1217,7.6936 7.162,5.5676 9.4016,3.1225 -9.0108,12.7594 12.7899,1.3014 1.3462,10.4107 11.4435,8.4588 9.424,-5.8561 4.7345,11.587 19.4987,-7.0323 4.0389,7.8081 10.7703,-5.856 25.5794,10.4107 1.3463,-8.4587 8.0778,9.1094 2.0195,-11.0614 12.1166,9.76 18.8479,-11.7121 16.1555,-1.3013 2.0195,-9.1094 12.7897,6.5067 -4.712,-17.5682 22.2138,-11.7121 2.6926,-13.0135 -4.0389,-4.5547 -2.6926,-7.1574 12.1166,-8.4587 -18.1749,1.952 16.1554,-9.7601 -13.738,-5.7588 -9.6389,0.3131 -4.0047,-3.2713 -5.8863,-11.9195 -15.2768,8.3408 -8.3359,-16.9846 -17.3182,14.1851 -6.2946,-9.9714 -9.6593,6.4302 -10.129,-3.8752 -12.8066,-13.9261 -8.4794,13.8374 -14.6035,-6.4229 -10.1125,11.1101 -17.5024,-8.6047 -2.5045,7.9122 -13.3513,5.7403 -13.7188,-4.6372 2.7227,17.4597 z"
       style="color:#000000;display:inline;overflow:visible;visibility:visible;fill:#ffffff;fill-opacity:1;fill-rule:nonzero;stroke:none;stroke-width:1px;marker:none;enable-background:accumulate" />
  </g>
  <g
     inkscape:label="txt"
     id="layer1"
     inkscape:groupmode="layer">
    <flowRoot
       transform="translate(-150.2139,-478.74543)"
       style="font-style:normal;font-variant:normal;font-weight:normal;font-stretch:normal;line-height:0.01%;font-family:Arial;-inkscape-font-specification:Arial;letter-spacing:0px;word-spacing:0px;fill:#000000;fill-opacity:1;stroke:none"
       id="flowRoot2987"
       xml:space="preserve"><flowRegion
         id="flowRegion2989"><rect
           y="638.16943"
           x="481.16055"
           height="178.52246"
           width="472.65948"
           id="rect2991" /></flowRegion><flowPara
         id="flowPara2997"
         style="font-style:normal;font-variant:normal;font-weight:normal;font-stretch:normal;font-size:48px;line-height:1.25;font-family:Lavi;-inkscape-font-specification:Lavi;text-align:center;text-anchor:middle">Üzgünüm, sadece dördünü almam gerekecek...</flowPara></flowRoot>
    <flowRoot
       transform="translate(1243.8411,-407.05344)"
       style="font-style:normal;font-variant:normal;font-weight:normal;font-stretch:normal;line-height:0.01%;font-family:Arial;-inkscape-font-specification:Arial;letter-spacing:0px;word-spacing:0px;fill:#000000;fill-opacity:1;stroke:none"
       id="flowRoot2987-4"
       xml:space="preserve"><flowRegion
         id="flowRegion2989-7"><rect
           y="638.16943"
           x="481.16055"
           height="178.52246"
           width="472.65948"
           id="rect2991-1" /></flowRegion><flowPara
         id="flowPara2997-1"
         style="font-style:normal;font-variant:normal;font-weight:normal;font-stretch:normal;font-size:40px;line-height:1.25;font-family:Lavi;-inkscape-font-specification:Lavi;text-align:center;text-anchor:middle">Grrr...</flowPara></flowRoot>
    <flowRoot
       transform="translate(380.14075,515.39437)"
       style="font-style:normal;font-variant:normal;font-weight:normal;font-stretch:normal;line-height:0.01%;font-family:Arial;-inkscape-font-specification:Arial;letter-spacing:0px;word-spacing:0px;fill:#000000;fill-opacity:1;stroke:none"
       id="flowRoot2987-5"
       xml:space="preserve"><flowRegion
         id="flowRegion2989-6"><rect
           y="638.16943"
           x="481.16055"
           height="340.50882"
           width="598.64893"
           id="rect2991-0" /></flowRegion><flowPara
         id="flowPara2997-6"
         style="font-style:normal;font-variant:normal;font-weight:normal;font-stretch:normal;font-size:48px;line-height:1.25;font-family:Lavi;-inkscape-font-specification:Lavi;text-align:center;text-anchor:middle">Selamlar, efendim.</flowPara><flowPara
         id="flowPara3081"
         style="font-style:normal;font-variant:normal;font-weight:normal;font-stretch:normal;font-size:48px;line-height:1.25;font-family:Lavi;-inkscape-font-specification:Lavi;text-align:center;text-anchor:middle">Lütfen bana her şeyden iki düzine ayarlayın. Her zamanki gibi en iyisinden olsun. </flowPara></flowRoot>
    <flowRoot
       transform="translate(439.3283,961.25355)"
       style="font-style:normal;font-variant:normal;font-weight:normal;font-stretch:normal;line-height:0.01%;font-family:Arial;-inkscape-font-specification:Arial;letter-spacing:0px;word-spacing:0px;fill:#000000;fill-opacity:1;stroke:none"
       id="flowRoot2987-5-4"
       xml:space="preserve"><flowRegion
         id="flowRegion2989-6-3"><rect
           y="638.16943"
           x="481.16055"
           height="238.49596"
           width="495.15762"
           id="rect2991-0-3" /></flowRegion><flowPara
         id="flowPara3138"
         style="font-style:normal;font-variant:normal;font-weight:normal;font-stretch:normal;font-size:48px;line-height:1.25;font-family:Lavi;-inkscape-font-specification:Lavi;text-align:center;text-anchor:middle">Size hizmet etmek</flowPara><flowPara
         id="flowPara2369"
         style="font-style:normal;font-variant:normal;font-weight:normal;font-stretch:normal;font-size:48px;line-height:1.25;font-family:Lavi;-inkscape-font-specification:Lavi;text-align:center;text-anchor:middle">benim için her zamanki gibi bir zevk, Bayan Safran.</flowPara></flowRoot>
    <flowRoot
       transform="translate(598.56807,1333.8389)"
       style="font-style:normal;font-variant:normal;font-weight:normal;font-stretch:normal;line-height:0.01%;font-family:Arial;-inkscape-font-specification:Arial;letter-spacing:0px;word-spacing:0px;fill:#000000;fill-opacity:1;stroke:none"
       id="flowRoot2987-5-4-3"
       xml:space="preserve"><flowRegion
         id="flowRegion2989-6-3-5"><rect
           y="638.16943"
           x="481.16055"
           height="137.54834"
           width="554.19434"
           id="rect2991-0-3-3" /></flowRegion><flowPara
         id="flowPara3178"
         style="font-style:normal;font-variant:normal;font-weight:normal;font-stretch:normal;font-size:48px;line-height:1.25;font-family:Lavi;-inkscape-font-specification:Lavi;text-align:center;text-anchor:middle">Kimleri görüyorum! Pepper da, buradaymış, </flowPara></flowRoot>
    <flowRoot
       transform="translate(617.22417,1532.1692)"
       style="font-style:normal;font-variant:normal;font-weight:normal;font-stretch:normal;line-height:0.01%;font-family:Arial;-inkscape-font-specification:Arial;letter-spacing:0px;word-spacing:0px;fill:#000000;fill-opacity:1;stroke:none"
       id="flowRoot2987-5-4-3-8"
       xml:space="preserve"><flowRegion
         id="flowRegion2989-6-3-5-1"><rect
           y="638.16943"
           x="481.16055"
           height="210.40549"
           width="486.28693"
           id="rect2991-0-3-3-7" /></flowRegion><flowPara
         id="flowPara3214"
         style="font-style:normal;font-variant:normal;font-weight:normal;font-stretch:normal;font-size:48px;line-height:1.25;font-family:Lavi;-inkscape-font-specification:Lavi;text-align:center;text-anchor:middle">Dur tahmin edeyim,</flowPara><flowPara
         id="flowPara2292"
         style="font-style:normal;font-variant:normal;font-weight:normal;font-stretch:normal;font-size:48px;line-height:1.25;font-family:Lavi;-inkscape-font-specification:Lavi;text-align:center;text-anchor:middle">kırsalda işler açılmış herhalde ?</flowPara></flowRoot>
    <flowRoot
       transform="matrix(1.1166839,0,0,1.2016907,908.893,1769.0141)"
       style="font-style:normal;font-variant:normal;font-weight:normal;font-stretch:normal;line-height:0.01%;font-family:Arial;-inkscape-font-specification:Arial;letter-spacing:0px;word-spacing:0px;fill:#000000;fill-opacity:1;stroke:none"
       id="flowRoot2987-5-4-3-3"
       xml:space="preserve"><flowRegion
         id="flowRegion2989-6-3-5-2"><rect
           y="638.16943"
           x="481.16055"
           height="145.35382"
           width="316.26553"
           id="rect2991-0-3-3-1" /></flowRegion><flowPara
         id="flowPara3178-4"
         style="font-style:normal;font-variant:normal;font-weight:normal;font-stretch:normal;font-size:48px;line-height:1.25;font-family:Lavi;-inkscape-font-specification:Lavi;text-align:center;text-anchor:middle">...</flowPara></flowRoot>
    <flowRoot
       transform="translate(251.78488,2229.3815)"
       style="font-style:normal;font-variant:normal;font-weight:normal;font-stretch:normal;line-height:0.01%;font-family:Arial;-inkscape-font-specification:Arial;letter-spacing:0px;word-spacing:0px;fill:#000000;fill-opacity:1;stroke:none"
       id="flowRoot2987-5-4-3-8-4"
       xml:space="preserve"><flowRegion
         id="flowRegion2989-6-3-5-1-2"><rect
           style="stroke-width:1"
           y="638.16943"
           x="481.16055"
           height="347.90109"
           width="504.02832"
           id="rect2991-0-3-3-7-1" /></flowRegion><flowPara
         id="flowPara3292"
         style="font-style:normal;font-variant:normal;font-weight:normal;font-stretch:normal;font-size:48px;line-height:1.25;font-family:Lavi;-inkscape-font-specification:Lavi;text-align:center;text-anchor:middle">Sanırım, yarınki </flowPara><flowPara
         id="flowPara2323"
         style="font-style:normal;font-variant:normal;font-weight:normal;font-stretch:normal;font-size:48px;line-height:1.25;font-family:Lavi;-inkscape-font-specification:Lavi;text-align:center;text-anchor:middle">büyü mücadelesi için malzeme </flowPara><flowPara
         id="flowPara2321"
         style="font-style:normal;font-variant:normal;font-weight:normal;font-stretch:normal;font-size:48px;line-height:1.25;font-family:Lavi;-inkscape-font-specification:Lavi;text-align:center;text-anchor:middle">hazırlıyorsun?</flowPara><flowPara
         id="flowPara2317"
         style="font-style:normal;font-variant:normal;font-weight:normal;font-stretch:normal;font-size:48px;line-height:1.25;font-family:Lavi;-inkscape-font-specification:Lavi;text-align:center;text-anchor:middle" /><flowPara
         id="flowPara2319"
         style="font-style:normal;font-variant:normal;font-weight:normal;font-stretch:normal;font-size:48px;line-height:1.25;font-family:Lavi;-inkscape-font-specification:Lavi;text-align:center;text-anchor:middle" /></flowRoot>
    <flowRoot
       transform="translate(785.41787,2339.565)"
       style="font-style:normal;font-variant:normal;font-weight:normal;font-stretch:normal;line-height:0.01%;font-family:Arial;-inkscape-font-specification:Arial;letter-spacing:0px;word-spacing:0px;fill:#000000;fill-opacity:1;stroke:none"
       id="flowRoot2987-5-4-3-8-4-1"
       xml:space="preserve"><flowRegion
         id="flowRegion2989-6-3-5-1-2-0"><rect
           y="638.16943"
           x="481.16055"
           height="154.22458"
           width="328.09311"
           id="rect2991-0-3-3-7-1-3" /></flowRegion><flowPara
         id="flowPara3347"
         style="font-style:normal;font-variant:normal;font-weight:normal;font-stretch:normal;font-size:48px;line-height:1.25;font-family:Lavi;-inkscape-font-specification:Lavi;text-align:center;text-anchor:middle">... büyü mücadelesi mi?</flowPara></flowRoot>
    <flowRoot
       transform="translate(858.90684,2544.5206)"
       style="font-style:normal;font-variant:normal;font-weight:normal;font-stretch:normal;line-height:0.01%;font-family:Arial;-inkscape-font-specification:Arial;letter-spacing:0px;word-spacing:0px;fill:#000000;fill-opacity:1;stroke:none"
       id="flowRoot2987-5-4-3-8-4-1-1"
       xml:space="preserve"><flowRegion
         id="flowRegion2989-6-3-5-1-2-0-9"><rect
           y="638.16943"
           x="481.16055"
           height="154.22458"
           width="328.09311"
           id="rect2991-0-3-3-7-1-3-7" /></flowRegion><flowPara
         id="flowPara3347-5"
         style="font-style:normal;font-variant:normal;font-weight:normal;font-stretch:normal;font-size:48px;line-height:1.25;font-family:Lavi;-inkscape-font-specification:Lavi;text-align:center;text-anchor:middle">... yarın mı? ?</flowPara></flowRoot>
  </g>
</svg>
