<?xml version="1.0" encoding="UTF-8" standalone="no"?>
<svg
   xmlns:dc="http://purl.org/dc/elements/1.1/"
   xmlns:cc="http://creativecommons.org/ns#"
   xmlns:rdf="http://www.w3.org/1999/02/22-rdf-syntax-ns#"
   xmlns:svg="http://www.w3.org/2000/svg"
   xmlns="http://www.w3.org/2000/svg"
   xmlns:xlink="http://www.w3.org/1999/xlink"
   xmlns:sodipodi="http://sodipodi.sourceforge.net/DTD/sodipodi-0.dtd"
   xmlns:inkscape="http://www.inkscape.org/namespaces/inkscape"
   id="svg2"
   version="1.1"
   inkscape:version="0.92.3 (2405546, 2018-03-11)"
   width="2481"
   height="3503"
   sodipodi:docname="E33P08.svg">
  <metadata
     id="metadata8">
    <rdf:RDF>
      <cc:Work
         rdf:about="">
        <dc:format>image/svg+xml</dc:format>
        <dc:type
           rdf:resource="http://purl.org/dc/dcmitype/StillImage" />
        <dc:title />
      </cc:Work>
    </rdf:RDF>
  </metadata>
  <defs
     id="defs6">
    <filter
       style="color-interpolation-filters:sRGB"
       id="filter4375-4-1-1-1-9-5-8-8-3-3-3-6-1-6"
       inkscape:label="magic-numbers_orange"
       height="1.38"
       width="1.22"
       x="-0.14">
      <feFlood
         id="feFlood4377-7-9-0-8-1-7-3-1-6-61-6-2-0-2"
         flood-opacity="1"
         flood-color="rgb(216,88,33)"
         result="flood"
         radius="5.0999999999999996" />
      <feComposite
         id="feComposite4379-3-8-8-2-77-4-1-0-7-2-7-6-6-6"
         in2="SourceGraphic"
         in="flood"
         operator="in"
         result="composite1"
         baseFrequency="0.053999999999999999 0.053999999999999999" />
      <feMorphology
         id="feMorphology4393-1-0-49-8-9-3-0-1-5-9-5-1-3-1"
         operator="dilate"
         radius="0.96959439099754563"
         result="result3" />
      <feComposite
         id="feComposite4385-9-5-7-0-8-8-7-5-3-3-3-8-2-8"
         in2="result3"
         in="SourceGraphic"
         operator="over"
         result="fbSourceGraphic"
         numOctaves="4" />
      <feColorMatrix
         result="fbSourceGraphicAlpha"
         in="fbSourceGraphic"
         values="0 0 0 -1 0 0 0 0 -1 0 0 0 0 -1 0 0 0 0 1 0"
         id="feColorMatrix4544-9-5-1-5-7-0-7" />
      <feTurbulence
         id="feTurbulence4546-3-6-9-6-9-6-9"
         type="fractalNoise"
         numOctaves="4.4123222748815163"
         seed="172"
         baseFrequency="0.062 0.054054054054054057"
         result="turbulence" />
      <feDisplacementMap
         id="feDisplacementMap4548-8-2-4-2-2-1-20"
         in2="turbulence"
         in="fbSourceGraphic"
         scale="11.642079"
         yChannelSelector="G"
         xChannelSelector="R"
         result="fbSourceGraphic" />
      <feColorMatrix
         result="fbSourceGraphicAlpha"
         in="fbSourceGraphic"
         values="0 0 0 -1 0 0 0 0 -1 0 0 0 0 -1 0 0 0 0 1 0"
         id="feColorMatrix4670-7-9-7-9-0-5-2"
         scale="10.800000000000001" />
      <feComposite
         id="feComposite4674-8-2-4-1-2-5-3"
         in2="fbSourceGraphic"
         in="flood"
         operator="in"
         result="composite1" />
      <feGaussianBlur
         id="feGaussianBlur4676-3-7-50-2-3-4-7"
         in="composite1"
         stdDeviation="0.01"
         result="blur" />
      <feOffset
         id="feOffset4678-6-0-3-7-7-7-5"
         dx="-0.42771311737301687"
         dy="5.2374444725016502"
         result="offset" />
      <feComposite
         id="feComposite4680-4-9-6-0-5-6-9"
         in2="offset"
         in="fbSourceGraphic"
         operator="over"
         result="composite2" />
      <feGaussianBlur
         id="feGaussianBlur58-9-9-5-2"
         stdDeviation="0.01" />
      <feOffset
         id="feOffset60-3-2-6-2"
         dy="0"
         dx="0" />
    </filter>
    <filter
       x="-0.14"
       width="1.22"
       height="1.38"
       inkscape:label="magic-numbers_cyan"
       id="filter4375-4-1-1-1-9-5-8-8-3-3-7-4-1"
       style="color-interpolation-filters:sRGB">
      <feFlood
         radius="5.0999999999999996"
         result="flood"
         flood-color="rgb(15,126,119)"
         flood-opacity="1"
         id="feFlood4377-7-9-0-8-1-7-3-1-6-61-3-5-4" />
      <feComposite
         baseFrequency="0.053999999999999999 0.053999999999999999"
         result="composite1"
         operator="in"
         in="flood"
         in2="SourceGraphic"
         id="feComposite4379-3-8-8-2-77-4-1-0-7-2-6-2-9" />
      <feMorphology
         result="result3"
         radius="0.96959439099754563"
         operator="dilate"
         id="feMorphology4393-1-0-49-8-9-3-0-1-5-9-1-5-2" />
      <feComposite
         numOctaves="4"
         result="fbSourceGraphic"
         operator="over"
         in="SourceGraphic"
         in2="result3"
         id="feComposite4385-9-5-7-0-8-8-7-5-3-3-2-4-0" />
      <feColorMatrix
         id="feColorMatrix4544-9-5-1-9-7-6"
         values="0 0 0 -1 0 0 0 0 -1 0 0 0 0 -1 0 0 0 0 1 0"
         in="fbSourceGraphic"
         result="fbSourceGraphicAlpha" />
      <feTurbulence
         result="turbulence"
         baseFrequency="0.062 0.054054054054054057"
         seed="172"
         numOctaves="4.4123222748815163"
         type="fractalNoise"
         id="feTurbulence4546-3-6-9-3-4-8" />
      <feDisplacementMap
         result="fbSourceGraphic"
         xChannelSelector="R"
         yChannelSelector="G"
         scale="11.642079"
         in="fbSourceGraphic"
         in2="turbulence"
         id="feDisplacementMap4548-8-2-4-1-4-9" />
      <feColorMatrix
         scale="10.800000000000001"
         id="feColorMatrix4670-7-9-7-9-3-2"
         values="0 0 0 -1 0 0 0 0 -1 0 0 0 0 -1 0 0 0 0 1 0"
         in="fbSourceGraphic"
         result="fbSourceGraphicAlpha" />
      <feComposite
         result="composite1"
         operator="in"
         in="flood"
         in2="fbSourceGraphic"
         id="feComposite4674-8-2-4-4-0-6" />
      <feGaussianBlur
         result="blur"
         stdDeviation="1.5865199271065846"
         in="composite1"
         id="feGaussianBlur4676-3-7-50-7-7-6" />
      <feOffset
         result="offset"
         dy="5.2374444725016502"
         dx="-0.42771311737301687"
         id="feOffset4678-6-0-3-8-8-4" />
      <feComposite
         result="composite2"
         operator="over"
         in="fbSourceGraphic"
         in2="offset"
         id="feComposite4680-4-9-6-4-6-9" />
      <feGaussianBlur
         stdDeviation="0.01"
         id="feGaussianBlur58-5-8-5" />
      <feOffset
         dx="0"
         dy="0"
         id="feOffset60-0-8-0" />
    </filter>
    <filter
       height="1.0014846"
       y="-0.00074229879"
       x="-0.00024075457"
       inkscape:label="soundFX-background"
       id="filter4375-4-1-1-1-9-5-8-6-4"
       style="color-interpolation-filters:sRGB"
       width="1.0004815">
      <feFlood
         result="flood"
         flood-color="rgb(46,52,54)"
         flood-opacity="1"
         id="feFlood4377-7-9-0-8-1-7-3-7-8" />
      <feComposite
         result="composite1"
         operator="in"
         in="flood"
         in2="SourceGraphic"
         id="feComposite4379-3-8-8-2-77-4-1-5-1" />
      <feMorphology
         result="result3"
         radius="6.2000000000000002"
         operator="dilate"
         id="feMorphology4393-1-0-49-8-9-3-0-3-2" />
      <feComposite
         result="fbSourceGraphic"
         operator="over"
         in="SourceGraphic"
         in2="result3"
         id="feComposite4385-9-5-7-0-8-8-7-56-9" />
      <feColorMatrix
         id="feColorMatrix4544-2-3"
         values="0 0 0 -1 0 0 0 0 -1 0 0 0 0 -1 0 0 0 0 1 0"
         in="fbSourceGraphic"
         result="fbSourceGraphicAlpha" />
      <feTurbulence
         result="turbulence"
         baseFrequency="0.129 0.0050000000000000001"
         seed="37"
         numOctaves="3"
         type="fractalNoise"
         id="feTurbulence4546-9-9" />
      <feDisplacementMap
         result="fbSourceGraphic"
         xChannelSelector="B"
         yChannelSelector="A"
         scale="10"
         in="fbSourceGraphic"
         in2="turbulence"
         id="feDisplacementMap4548-1-0" />
      <feColorMatrix
         id="feColorMatrix4670-2-8"
         values="0 0 0 -1 0 0 0 0 -1 0 0 0 0 -1 0 0 0 0 1 0"
         in="fbSourceGraphic"
         result="fbSourceGraphicAlpha" />
      <feFlood
         in="fbSourceGraphic"
         result="flood"
         flood-color="rgb(17,52,65)"
         flood-opacity="1"
         id="feFlood4672-7-8" />
      <feComposite
         result="composite1"
         operator="in"
         in="flood"
         in2="fbSourceGraphic"
         id="feComposite4674-0-5" />
      <feComposite
         result="composite2"
         operator="over"
         in="fbSourceGraphic"
         in2="composite1"
         id="feComposite4680-6-0" />
      <feGaussianBlur
         id="feGaussianBlur1513"
         stdDeviation="0.027533236" />
    </filter>
  </defs>
  <sodipodi:namedview
     pagecolor="#ffffff"
     bordercolor="#666666"
     borderopacity="1"
     objecttolerance="10"
     gridtolerance="10"
     guidetolerance="10"
     inkscape:pageopacity="0"
     inkscape:pageshadow="2"
     inkscape:window-width="1920"
     inkscape:window-height="1022"
     id="namedview4"
     showgrid="false"
     inkscape:zoom="0.529"
     inkscape:cx="1281.6715"
     inkscape:cy="653.43543"
     inkscape:window-x="0"
     inkscape:window-y="0"
     inkscape:window-maximized="1"
     inkscape:current-layer="layer1"
     inkscape:document-rotation="0"
     inkscape:snap-global="false" />
  <g
     inkscape:groupmode="layer"
     id="layer2"
     inkscape:label="artwork"
     sodipodi:insensitive="true">
    <image
       sodipodi:absref="/home/peppercarrot/webcomics/"
       xlink:href="../gfx_Pepper-and-Carrot_by-David-Revoy_E33P08.png"
       width="2481"
       height="3503"
       id="image10"
       x="0"
       y="0" />
  </g>
  <g
     inkscape:groupmode="layer"
     id="layer3"
     inkscape:label="speechbubbles">
    <path
       inkscape:connector-curvature="0"
       id="path3278-12"
       d="m 2068.7927,2094.6101 c -34.0652,1.5015 -68.1129,3.5669 -102.1699,5.3242 -14.7651,0.9089 -29.9211,3.2473 -43.2572,11.8976 -13.5375,8.948 -24.4768,23.2721 -32.8917,39.2764 -6.7547,12.9776 -12.4733,27.0969 -15.0544,42.4091 -2.5814,14.3989 -2.4716,29.561 0.4806,43.8567 6.6079,33.5024 27.2054,62.2753 53.2459,72.6598 38.174,17.1611 78.8951,23.8516 119.2721,23.4277 36.6789,-0.606 73.3633,-7.0746 108.5989,-20.1297 11.2163,-4.7292 22.4458,-11.542 30.1353,-23.3203 10.9569,-16.8855 18.5888,-37.8946 19.4174,-59.9532 0.049,-15.0501 -1.0648,-30.2133 -4.1864,-44.768 -5.2281,-24.8091 -18.0278,-46.372 -34.1974,-61.4758 -13.9102,-13.1725 -30.6383,-21.2606 -47.8337,-23.8547 -16.8994,-3.278 -33.9944,-4.5998 -51.0642,-5.3505 -0.1652,2e-4 -0.3302,4e-4 -0.4953,7e-4 z"
       style="display:inline;fill:#ffffff;stroke:none;stroke-width:0.96327662" />
    <path
       sodipodi:nodetypes="cccccccccccccccccccc"
       inkscape:connector-curvature="0"
       id="path3549-3-7-9-6"
       d="m 1811.4781,1948.4455 c 19.1795,63.0717 -69.7076,31.3949 -95.357,23.6535 47.2078,26.0109 46.2387,42.8987 -16.3571,47.0184 90.0104,18.6783 55.9332,39.62 4.3222,53.8166 78.6188,5.2305 85.7468,26.9896 33.1519,57.9314 95.8889,-19.0554 74.4273,-0.5519 38.9871,25.7478 70.2111,-18.7024 102.8807,-26.9594 76.4905,4.1182 -0.1307,-8.0161 62.6711,-55.9408 157.9199,6.4108 -3.5058,-33.1988 27.9822,-40.7972 59.8747,4.4191 -11.965,-49.4857 95.515,-37.6601 152.7476,-23.4133 -29.7658,-29.4388 29.669,-34.659 78.0247,-29.8127 -89.0539,-29.0149 -25.6051,-39.6785 30.2169,-43.7283 -49.1446,-8.8078 -58.5232,-18.8844 31.6024,-32.1319 -68.9414,0.5818 -136.2718,-19.5181 -53.876,-39.7833 -55.1076,2.8741 -98.1031,-5.11 -59.8198,-60.2537 -42.4857,30.5747 -135.6594,48.307 -149.0919,-12.4665 -39.6935,45.3582 -73.7517,48.0034 -96.0559,9.9051 -6.8633,16.6333 -37.6817,23.5677 -64.0155,24.9499 -10.4429,-6.2913 -21.2944,-14.9169 -32.7089,-26.2849 -17.0046,24.8532 -43.2032,41.9898 -96.0558,9.9038 z"
       style="color:#000000;display:inline;overflow:visible;visibility:visible;fill:#ffffff;fill-opacity:1;fill-rule:nonzero;stroke:none;stroke-width:1.29589629px;marker:none;enable-background:accumulate" />
    <path
       sodipodi:nodetypes="cccccccc"
       inkscape:connector-curvature="0"
       id="path1111-3"
       d="m 1898.8813,2451.7612 c 42.1845,-19.5414 70.0418,-49.0032 96.7552,-81.9101 -13.1979,1.1047 -25.5175,2.2354 -38.607,4.1405 43.281,-46.672 75.3438,-81.9823 86.1468,-97.7689 20.0156,-39.712 -8.5318,-31.4429 -30.6261,0.5558 -15.3856,23.3313 -64.2407,81.9966 -95.3964,117.5241 l 38.8332,-3.5957 c -11.3666,17.29 -37.7387,44.1736 -57.1057,61.0543 z"
       style="fill:#ffffff;fill-rule:evenodd;stroke:none;stroke-width:1px;stroke-linecap:butt;stroke-linejoin:miter;stroke-opacity:1" />
    <path
       sodipodi:nodetypes="ccsccc"
       inkscape:connector-curvature="0"
       id="path4440-3"
       d="m 799.91121,1322.9095 c 12.09998,40.2931 0.7359,97.4999 -82.41882,127.139 67.88362,-35.9777 55.50716,-89.1882 53.98696,-117.9025 C 758.78158,1092.3042 423.05815,974.65211 346.8056,1011.7822 l 4.83646,-35.57511 c 346.83972,1.96835 465.22644,318.36431 448.26915,346.70241 z"
       style="color:#000000;display:inline;overflow:visible;visibility:visible;fill:#ffffff;fill-opacity:1;fill-rule:nonzero;stroke:none;stroke-width:0.999998px;marker:none;enable-background:accumulate" />
    <path
       sodipodi:nodetypes="csssscccccccccccc"
       inkscape:connector-curvature="0"
       id="path3238-0"
       d="m 347.57692,887.53681 c -45.39835,0.24344 -91.72939,6.24762 -131.99489,22.65017 -44.14078,18.97359 -71.27186,57.13761 -70.33116,95.13582 -1.40441,35.4629 -5.67179,71.3872 3.58414,106.4798 6.71864,24.9797 18.74858,49.9701 41.36363,69.3822 18.70663,14.2053 45.30936,20.6433 71.23445,22.5442 41.79166,4.5933 83.66483,9.1195 125.83055,11.2249 56.75487,1.849 113.41494,-2.2618 170.02508,-4.6635 31.12173,-1.9427 62.7306,-4.6668 91.93178,-13.4652 27.69007,-9.8908 47.23053,-29.8286 56.39845,-51.4682 12.8787,-27.9235 11.56786,-57.9272 10.66195,-87.048 -0.70875,-25.5688 -2.9336,-51.8335 -16.56114,-75.61883 -14.38627,-26.55234 -31.72013,-58.57625 -65.17555,-72.32285 -20.43338,-8.88778 -43.67486,-14.75859 -66.47201,-18.62859 -63.54726,-11.40277 -138.52604,-3.68081 -203.69991,-4.17078 -5.59824,-0.0405 -11.19692,-0.0393 -16.79537,-0.0312 z"
       style="display:inline;fill:#ffffff;fill-opacity:1;stroke:none;stroke-width:1.04626083" />
    <path
       sodipodi:nodetypes="csssssc"
       inkscape:connector-curvature="0"
       id="path3365-74"
       d="m 733.52021,1205.8634 c -31.47055,0.7725 -63.10075,16.1362 -83.47887,43.8204 -11.36237,17.1592 -13.26672,40.4626 -8.50175,60.8015 5.02319,23.4269 21.11992,43.2493 41.23305,50.8617 24.54405,10.8505 50.77581,15.2254 76.7066,19.4057 42.79468,5.6603 87.40141,-1.2917 126.0637,-23.4628 14.28817,-8.866 24.43594,-25.2371 27.91057,-43.2182 6.4645,-27.5487 -1.4986,-59.2517 -20.91229,-77.6301 -13.4264,-12.1446 -30.35486,-17.4626 -46.78055,-21.7877 -30.18279,-7.3856 -61.195,-8.0172 -91.93853,-8.6871 -6.76685,-0.1046 -13.53455,-0.1126 -20.30193,-0.1046 z"
       style="color:#000000;display:inline;overflow:visible;visibility:visible;fill:#ffffff;fill-opacity:1;fill-rule:nonzero;stroke:none;stroke-width:1.04960322px;marker:none;enable-background:accumulate" />
  </g>
  <g
     id="layer1"
     inkscape:label="txt"
     inkscape:groupmode="layer">
    <text
       id="text4246-3-2-2"
       y="964.68097"
       x="-236.69489"
       style="font-style:normal;font-variant:normal;font-weight:normal;font-stretch:normal;line-height:0%;font-family:Lavi;-inkscape-font-specification:Lavi;text-align:center;letter-spacing:0px;word-spacing:0px;text-anchor:middle;fill:#000000;fill-opacity:1;stroke:none"
       xml:space="preserve"
       inkscape:label="pepperA"><tspan
         id="tspan949"
         y="964.68097"
         x="-236.69489"
         style="font-size:45px;line-height:1.25"
         sodipodi:role="line" /></text>
    <text
       id="text4246-3-2-9-6"
       y="957.03693"
       x="425.40277"
       style="font-style:normal;font-variant:normal;font-weight:normal;font-stretch:normal;line-height:0%;font-family:Lavi;-inkscape-font-specification:Lavi;text-align:center;letter-spacing:0px;word-spacing:0px;text-anchor:middle;fill:#000000;fill-opacity:1;stroke:none"
       xml:space="preserve"
       inkscape:label="pepperB"><tspan
         id="tspan972"
         y="957.03693"
         x="432.43402"
         style="font-size:45px;line-height:1.25"
         sodipodi:role="line">Nise on a tha sinn uile </tspan><tspan
         y="1013.287"
         x="432.43402"
         style="font-size:45px;line-height:1.25"
         sodipodi:role="line"
         id="tspan127">eòlach air na riaghailtean, </tspan><tspan
         y="1069.537"
         x="432.43402"
         style="font-size:45px;line-height:1.25"
         sodipodi:role="line"
         id="tspan137">nach ath-shuidhich mi </tspan><tspan
         y="1125.787"
         x="432.43402"
         style="font-size:45px;line-height:1.25"
         sodipodi:role="line"
         id="tspan125">na sgòran dhuibh ach an </tspan><tspan
         y="1182.037"
         x="425.40277"
         style="font-size:45px;line-height:1.25"
         sodipodi:role="line"
         id="tspan148">tòisicheamaid às ùr?</tspan></text>
    <text
       id="text4246-3-2-9"
       y="1257.8757"
       x="779.69745"
       style="font-style:normal;font-variant:normal;font-weight:normal;font-stretch:normal;font-size:10.94750023px;line-height:0%;font-family:Lavi;-inkscape-font-specification:Lavi;text-align:center;letter-spacing:0px;word-spacing:0px;text-anchor:middle;fill:#000000;fill-opacity:1;stroke:none;stroke-width:0.99999797"
       xml:space="preserve"
       inkscape:label="pepperC"><tspan
         y="1257.8757"
         x="786.112"
         style="font-size:41.05310059px;line-height:1.25;stroke-width:0.99999797"
         sodipodi:role="line"
         id="tspan168">Bidh e nas </tspan><tspan
         y="1309.1921"
         x="786.112"
         style="font-size:41.05310059px;line-height:1.25;stroke-width:0.99999797"
         sodipodi:role="line"
         id="tspan172">cothromaiche </tspan><tspan
         y="1360.5085"
         x="779.69745"
         style="font-size:41.05310059px;line-height:1.25;stroke-width:0.99999797"
         sodipodi:role="line"
         id="tspan174">mar sin.</tspan></text>
    <text
       xml:space="preserve"
       style="font-style:normal;font-variant:normal;font-weight:normal;font-stretch:normal;line-height:0%;font-family:Lavi;-inkscape-font-specification:Lavi;letter-spacing:3.03024px;word-spacing:0px;opacity:0.414404;fill:#fff4b7;fill-opacity:1;stroke:#aa7640;stroke-width:1.71056;stroke-miterlimit:4;stroke-dasharray:none;stroke-opacity:1;filter:url(#filter4375-4-1-1-1-9-5-8-8-3-3-3-6-1-6)"
       x="787.65729"
       y="1584.5073"
       id="text4580-6-0-0-3-3-8-1"
       transform="matrix(0.58085508,0.0196807,-0.00871911,0.96825701,795.76505,769.46879)"
       inkscape:label="scoreP1"><tspan
         sodipodi:role="line"
         id="tspan4582-1-1-0-6-9-9-4"
         x="787.65729"
         y="1584.5073"
         style="font-style:normal;font-variant:normal;font-weight:bold;font-stretch:normal;font-size:64.9472px;line-height:1.25;font-family:Drukah;-inkscape-font-specification:'Drukah Bold';fill:#fff4b7;fill-opacity:1;stroke:#aa7640;stroke-width:1.71056;stroke-miterlimit:4;stroke-dasharray:none;stroke-opacity:1">64</tspan></text>
    <text
       xml:space="preserve"
       style="font-style:normal;font-variant:normal;font-weight:normal;font-stretch:normal;line-height:0%;font-family:Lavi;-inkscape-font-specification:Lavi;letter-spacing:1.14398px;word-spacing:0px;opacity:0.526676;fill:#b5ffe1;fill-opacity:1;stroke:#316983;stroke-width:1.49852;stroke-miterlimit:4;stroke-dasharray:none;stroke-opacity:1;filter:url(#filter4375-4-1-1-1-9-5-8-8-3-3-7-4-1)"
       x="787.65729"
       y="1584.5073"
       id="text4580-6-0-0-3-36-7"
       transform="matrix(0.64289671,-0.04761937,-0.00965042,1.1409372,796.71425,531.51997)"
       inkscape:label="scoreP2"><tspan
         sodipodi:role="line"
         id="tspan4582-1-1-0-6-1-4"
         x="787.65729"
         y="1584.5073"
         style="font-style:normal;font-variant:normal;font-weight:bold;font-stretch:normal;font-size:69.5991px;line-height:1.25;font-family:Drukah;-inkscape-font-specification:'Drukah Bold';fill:#b5ffe1;fill-opacity:1;stroke:#316983;stroke-width:1.49852;stroke-miterlimit:4;stroke-dasharray:none;stroke-opacity:1">45</tspan></text>
    <text
       transform="matrix(0.76490014,0.02494015,-0.01148179,1.2270126,757.96076,313.10087)"
       id="text4580-6-0-0-3-3-8"
       y="1584.5073"
       x="787.65729"
       style="font-style:normal;font-variant:normal;font-weight:normal;font-stretch:normal;line-height:0%;font-family:Lavi;-inkscape-font-specification:Lavi;letter-spacing:3.03024px;word-spacing:0px;opacity:0.504709;fill:#fff4b7;fill-opacity:1;stroke:#aa7640;stroke-width:1.32415;stroke-miterlimit:4;stroke-dasharray:none;stroke-opacity:1;filter:url(#filter4375-4-1-1-1-9-5-8-8-3-3-3-6-1-6)"
       xml:space="preserve"
       inkscape:label="scoreP3"><tspan
         style="font-style:normal;font-variant:normal;font-weight:bold;font-stretch:normal;font-size:64.9472px;line-height:1.25;font-family:Drukah;-inkscape-font-specification:'Drukah Bold';fill:#fff4b7;fill-opacity:1;stroke:#aa7640;stroke-width:1.32415;stroke-miterlimit:4;stroke-dasharray:none;stroke-opacity:1"
         y="1584.5073"
         x="787.65729"
         id="tspan4582-1-1-0-6-9-9"
         sodipodi:role="line">6</tspan></text>
    <text
       transform="matrix(0.79148797,-0.04842097,-0.01188089,1.1601433,778.60793,463.05385)"
       id="text4580-6-0-0-3-36"
       y="1584.5073"
       x="787.65729"
       style="font-style:normal;font-variant:normal;font-weight:normal;font-stretch:normal;line-height:0%;font-family:Lavi;-inkscape-font-specification:Lavi;letter-spacing:2.67495px;word-spacing:0px;opacity:0.615798;fill:#b5ffe1;fill-opacity:1;stroke:#316983;stroke-width:1.33932;stroke-miterlimit:4;stroke-dasharray:none;stroke-opacity:1;filter:url(#filter4375-4-1-1-1-9-5-8-8-3-3-7-4-1)"
       xml:space="preserve"
       inkscape:label="scoreP4"><tspan
         style="font-style:normal;font-variant:normal;font-weight:bold;font-stretch:normal;font-size:69.5991px;line-height:1.25;font-family:Drukah;-inkscape-font-specification:'Drukah Bold';fill:#b5ffe1;fill-opacity:1;stroke:#316983;stroke-width:1.33932;stroke-miterlimit:4;stroke-dasharray:none;stroke-opacity:1"
         y="1584.5073"
         x="787.65729"
         id="tspan4582-1-1-0-6-1"
         sodipodi:role="line">2</tspan></text>
    <text
       transform="matrix(0.72200038,0.02127932,-0.01083782,1.0469063,876.7455,580.14461)"
       id="text4580-6-0-0-3-3-8-3-1"
       y="1584.5073"
       x="787.65729"
       style="font-style:normal;font-variant:normal;font-weight:normal;font-stretch:normal;line-height:0%;font-family:Lavi;-inkscape-font-specification:Lavi;letter-spacing:3.03024px;word-spacing:0px;opacity:0.67509;fill:#fff4b7;fill-opacity:1;stroke:#aa7640;stroke-width:1.47551;stroke-miterlimit:4;stroke-dasharray:none;stroke-opacity:1;filter:url(#filter4375-4-1-1-1-9-5-8-8-3-3-3-6-1-6)"
       xml:space="preserve"
       inkscape:label="scoreP5"><tspan
         style="font-style:normal;font-variant:normal;font-weight:bold;font-stretch:normal;font-size:64.9472px;line-height:1.25;font-family:Lavi;-inkscape-font-specification:'Lavi Bold';fill:#fff4b7;fill-opacity:1;stroke:#aa7640;stroke-width:1.47551;stroke-miterlimit:4;stroke-dasharray:none;stroke-opacity:1"
         y="1584.5073"
         x="787.65729"
         id="tspan4582-1-1-0-6-9-9-7-0"
         sodipodi:role="line">0</tspan></text>
    <text
       transform="matrix(0.74585099,-0.04732194,-0.01119584,1.1338115,921.63161,494.98929)"
       id="text4580-6-0-0-3-36-4-4"
       y="1584.5073"
       x="787.65729"
       style="font-style:normal;font-variant:normal;font-weight:normal;font-stretch:normal;line-height:0%;font-family:Lavi;-inkscape-font-specification:Lavi;letter-spacing:2.67495px;word-spacing:0px;fill:#b5ffe1;fill-opacity:1;stroke:#316983;stroke-width:1.39562;stroke-miterlimit:4;stroke-dasharray:none;stroke-opacity:1;filter:url(#filter4375-4-1-1-1-9-5-8-8-3-3-7-4-1)"
       xml:space="preserve"
       inkscape:label="scoreP6"><tspan
         style="font-style:normal;font-variant:normal;font-weight:bold;font-stretch:normal;font-size:69.5991px;line-height:1.25;font-family:Lavi;-inkscape-font-specification:'Lavi Bold';fill:#b5ffe1;fill-opacity:1;stroke:#316983;stroke-width:1.39562;stroke-miterlimit:4;stroke-dasharray:none;stroke-opacity:1"
         y="1584.5073"
         x="787.65729"
         id="tspan4582-1-1-0-6-1-3-8"
         sodipodi:role="line">0</tspan></text>
    <text
       xml:space="preserve"
       style="font-style:normal;font-variant:normal;font-weight:normal;font-stretch:normal;line-height:0%;font-family:Lavi;-inkscape-font-specification:Lavi;letter-spacing:3.03024px;word-spacing:0px;fill:#fff4b7;fill-opacity:1;stroke:#aa7640;stroke-width:0.960021;stroke-miterlimit:4;stroke-dasharray:none;stroke-opacity:1;filter:url(#filter4375-4-1-1-1-9-5-8-8-3-3-3-6-1-6)"
       x="787.65729"
       y="1584.5073"
       id="text4580-6-0-0-3-3-8-3"
       transform="matrix(1.1433172,0.03174263,-0.01716214,1.5616829,712.82242,-239.84599)"
       inkscape:label="scoreP7"><tspan
         sodipodi:role="line"
         id="tspan4582-1-1-0-6-9-9-7"
         x="787.65729"
         y="1584.5073"
         style="font-style:normal;font-variant:normal;font-weight:bold;font-stretch:normal;font-size:64.9472px;line-height:1.25;font-family:Lavi;-inkscape-font-specification:'Lavi Bold';fill:#fff4b7;fill-opacity:1;stroke:#aa7640;stroke-width:0.960021;stroke-miterlimit:4;stroke-dasharray:none;stroke-opacity:1">0</tspan></text>
    <text
       xml:space="preserve"
       style="font-style:normal;font-variant:normal;font-weight:normal;font-stretch:normal;line-height:0%;font-family:Lavi;-inkscape-font-specification:Lavi;letter-spacing:2.67495px;word-spacing:0px;fill:#b5ffe1;fill-opacity:1;stroke:#316983;stroke-width:0.807391;stroke-miterlimit:4;stroke-dasharray:none;stroke-opacity:1;filter:url(#filter4375-4-1-1-1-9-5-8-8-3-3-7-4-1)"
       x="787.65729"
       y="1584.5073"
       id="text4580-6-0-0-3-36-4-4-6"
       transform="matrix(1.3732529,-0.07679437,-0.02061366,1.8399568,668.51631,-563.0911)"
       inkscape:label="scoreP8"><tspan
         sodipodi:role="line"
         id="tspan4582-1-1-0-6-1-3-8-2"
         x="787.65729"
         y="1584.5073"
         style="font-style:normal;font-variant:normal;font-weight:bold;font-stretch:normal;font-size:69.5991px;line-height:1.25;font-family:Lavi;-inkscape-font-specification:'Lavi Bold';fill:#b5ffe1;fill-opacity:1;stroke:#316983;stroke-width:0.807391;stroke-miterlimit:4;stroke-dasharray:none;stroke-opacity:1">0</tspan></text>
    <text
       xml:space="preserve"
       style="font-style:normal;font-variant:normal;font-weight:normal;font-stretch:normal;line-height:0%;font-family:Lavi;-inkscape-font-specification:Lavi;letter-spacing:3.03024px;word-spacing:0px;opacity:0.39945017;fill:#fff4b7;fill-opacity:1;stroke:#aa7640;stroke-width:1.5234;stroke-miterlimit:4;stroke-dasharray:none;stroke-opacity:1;filter:url(#filter4375-4-1-1-1-9-5-8-8-3-3-3-6-1-6);"
       x="787.65729"
       y="1584.5073"
       id="text4580-6-0-0-3-3-8-8"
       transform="matrix(0.7183239,0.04312147,-0.01078263,0.98679735,571.61175,959.64749)"
       inkscape:label="scoreC1"><tspan
         sodipodi:role="line"
         id="tspan4582-1-1-0-6-9-9-1"
         x="787.65729"
         y="1584.5073"
         style="font-style:normal;font-variant:normal;font-weight:bold;font-stretch:normal;font-size:64.9472px;line-height:1.25;font-family:Drukah;-inkscape-font-specification:'Drukah Bold';fill:#fff4b7;fill-opacity:1;stroke:#aa7640;stroke-width:1.5234;stroke-miterlimit:4;stroke-dasharray:none;stroke-opacity:1;">9</tspan></text>
    <text
       xml:space="preserve"
       style="font-style:normal;font-variant:normal;font-weight:normal;font-stretch:normal;line-height:0%;font-family:Lavi;-inkscape-font-specification:Lavi;letter-spacing:2.67495px;word-spacing:0px;opacity:0.600398;fill:#b5ffe1;fill-opacity:1;stroke:#316983;stroke-width:1.61255;stroke-miterlimit:4;stroke-dasharray:none;stroke-opacity:1;filter:url(#filter4375-4-1-1-1-9-5-8-8-3-3-7-4-1)"
       x="787.65729"
       y="1584.5073"
       id="text4580-6-0-0-3-36-1"
       transform="matrix(0.66279197,-0.29884292,-0.00994906,0.95956644,654.27727,1292.5405)"
       inkscape:label="scoreC2"><tspan
         sodipodi:role="line"
         id="tspan4582-1-1-0-6-1-9"
         x="787.65729"
         y="1584.5073"
         style="font-style:normal;font-variant:normal;font-weight:bold;font-stretch:normal;font-size:69.5991px;line-height:1.25;font-family:Drukah;-inkscape-font-specification:'Drukah Bold';fill:#b5ffe1;fill-opacity:1;stroke:#316983;stroke-width:1.61255;stroke-miterlimit:4;stroke-dasharray:none;stroke-opacity:1">5</tspan></text>
    <text
       xml:space="preserve"
       style="font-style:normal;font-variant:normal;font-weight:normal;font-stretch:normal;line-height:0%;font-family:Lavi;-inkscape-font-specification:Lavi;letter-spacing:3.03024px;word-spacing:0px;fill:#fff4b7;fill-opacity:1;stroke:#aa7640;stroke-width:1.55416;stroke-miterlimit:4;stroke-dasharray:none;stroke-opacity:1;filter:url(#filter4375-4-1-1-1-9-5-8-8-3-3-3-6-1-6)"
       x="787.65729"
       y="1584.5073"
       id="text4580-6-0-0-3-3-8-3-1-3"
       transform="matrix(0.63993057,0.10211521,-0.00960589,1.0634303,721.841,832.98518)"
       inkscape:label="scoreC3"><tspan
         sodipodi:role="line"
         id="tspan4582-1-1-0-6-9-9-7-0-9"
         x="787.65729"
         y="1584.5073"
         style="font-style:normal;font-variant:normal;font-weight:bold;font-stretch:normal;font-size:64.9472px;line-height:1.25;font-family:Lavi;-inkscape-font-specification:'Lavi Bold';fill:#fff4b7;fill-opacity:1;stroke:#aa7640;stroke-width:1.55416;stroke-miterlimit:4;stroke-dasharray:none;stroke-opacity:1">0</tspan></text>
    <text
       xml:space="preserve"
       style="font-style:normal;font-variant:normal;font-weight:normal;font-stretch:normal;line-height:0%;font-family:Lavi;-inkscape-font-specification:Lavi;letter-spacing:2.67495px;word-spacing:0px;fill:#b5ffe1;fill-opacity:1;stroke:#316983;stroke-width:1.55131;stroke-miterlimit:4;stroke-dasharray:none;stroke-opacity:1;filter:url(#filter4375-4-1-1-1-9-5-8-8-3-3-7-4-1)"
       x="787.65729"
       y="1584.5073"
       id="text4580-6-0-0-3-36-4-4-3"
       transform="matrix(0.62043393,0.0078806,-0.00931322,1.1023271,815.30942,907.10667)"
       inkscape:label="scoreC4"><tspan
         sodipodi:role="line"
         id="tspan4582-1-1-0-6-1-3-8-1"
         x="787.65729"
         y="1584.5073"
         style="font-style:normal;font-variant:normal;font-weight:bold;font-stretch:normal;font-size:69.5991px;line-height:1.25;font-family:Lavi;-inkscape-font-specification:'Lavi Bold';fill:#b5ffe1;fill-opacity:1;stroke:#316983;stroke-width:1.55131;stroke-miterlimit:4;stroke-dasharray:none;stroke-opacity:1">0</tspan></text>
    <text
       transform="matrix(0.99320406,0.12366577,-0.01490882,1.7228446,613.7137,-57.733034)"
       id="text4580-6-0-0-3-3-8-3-10"
       y="1584.5073"
       x="787.65729"
       style="font-style:normal;font-variant:normal;font-weight:normal;font-stretch:normal;line-height:0%;font-family:Lavi;-inkscape-font-specification:Lavi;letter-spacing:3.03024px;word-spacing:0px;fill:#fff4b7;fill-opacity:1;stroke:#aa7640;stroke-width:0.980281;stroke-miterlimit:4;stroke-dasharray:none;stroke-opacity:1;filter:url(#filter4375-4-1-1-1-9-5-8-8-3-3-3-6-1-6)"
       xml:space="preserve"
       inkscape:label="scoreC5"><tspan
         style="font-style:normal;font-variant:normal;font-weight:bold;font-stretch:normal;font-size:64.9472px;line-height:1.25;font-family:Lavi;-inkscape-font-specification:'Lavi Bold';fill:#fff4b7;fill-opacity:1;stroke:#aa7640;stroke-width:0.980281;stroke-miterlimit:4;stroke-dasharray:none;stroke-opacity:1"
         y="1584.5073"
         x="787.65729"
         id="tspan4582-1-1-0-6-9-9-7-3"
         sodipodi:role="line">0</tspan></text>
    <text
       transform="matrix(0.51552495,0.09969835,-0.36461778,0.72279881,2190.7581,1253.6202)"
       id="text4580-6-0-06-9-3-7"
       y="1584.5073"
       x="787.65729"
       style="font-style:normal;font-variant:normal;font-weight:normal;font-stretch:normal;line-height:0%;font-family:Lavi;-inkscape-font-specification:Lavi;letter-spacing:0px;word-spacing:0px;opacity:1;mix-blend-mode:normal;fill:#ffffff;fill-opacity:1;stroke:#98b9ca;stroke-width:1.27857006;stroke-miterlimit:4;stroke-dasharray:none;stroke-opacity:1;filter:url(#filter4375-4-1-1-1-9-5-8-6-4)"
       xml:space="preserve"
       inkscape:label="weaponFXA"><tspan
         style="font-size:70px;line-height:1.25;fill:#ffffff;fill-opacity:1;stroke:#98b9ca;stroke-width:1.27857006;stroke-opacity:1"
         y="1584.5073"
         x="787.65729"
         id="tspan4582-1-1-2-63-0-5"
         sodipodi:role="line"><tspan
           id="tspan4315-8-6-8-9-4"
           style="font-size:93.14949799px;fill:#ffffff;fill-opacity:1;stroke:#98b9ca;stroke-width:1.27857006;stroke-opacity:1">Ssiiing!</tspan></tspan></text>
    <text
       xml:space="preserve"
       style="font-style:normal;font-variant:normal;font-weight:normal;font-stretch:normal;line-height:0%;font-family:Lavi;-inkscape-font-specification:Lavi;letter-spacing:0px;word-spacing:0px;opacity:1;mix-blend-mode:normal;fill:#ffffff;fill-opacity:1;stroke:#98b9ca;stroke-width:1.23971999;stroke-miterlimit:4;stroke-dasharray:none;stroke-opacity:1;filter:url(#filter4375-4-1-1-1-9-5-8-6-4)"
       x="787.65729"
       y="1584.5073"
       id="text4580-6-0-06-9-3-7-4"
       transform="matrix(0.4023734,0.40258973,-0.70109371,0.37963743,2672.7552,1828.2703)"
       inkscape:label="weaponFXB"><tspan
         sodipodi:role="line"
         id="tspan4582-1-1-2-63-0-5-8"
         x="787.65729"
         y="1584.5073"
         style="font-size:70px;line-height:1.25;fill:#ffffff;fill-opacity:1;stroke:#98b9ca;stroke-width:1.23971999;stroke-opacity:1"><tspan
           style="font-size:93.14949799px;fill:#ffffff;fill-opacity:1;stroke:#98b9ca;stroke-width:1.23971999;stroke-opacity:1"
           id="tspan4315-8-6-8-9-4-7">Ffruuis!</tspan></tspan></text>
    <text
       transform="matrix(0.3827755,-0.26874723,0.21370456,0.59515549,1555.9951,2398.5686)"
       id="text4580-6-0-06-9-3-7-4-4"
       y="1584.5073"
       x="787.65729"
       style="font-style:normal;font-variant:normal;font-weight:normal;font-stretch:normal;line-height:0%;font-family:Lavi;-inkscape-font-specification:Lavi;letter-spacing:0px;word-spacing:0px;opacity:1;mix-blend-mode:normal;fill:#ffffff;fill-opacity:1;stroke:#98b9ca;stroke-width:1.53095996;stroke-miterlimit:4;stroke-dasharray:none;stroke-opacity:1;filter:url(#filter4375-4-1-1-1-9-5-8-6-4)"
       xml:space="preserve"
       inkscape:label="weaponFXC"><tspan
         style="font-size:70px;line-height:1.25;fill:#ffffff;fill-opacity:1;stroke:#98b9ca;stroke-width:1.53095996;stroke-opacity:1"
         y="1584.5073"
         x="787.65729"
         id="tspan4582-1-1-2-63-0-5-8-9"
         sodipodi:role="line"><tspan
           id="tspan4315-8-6-8-9-4-7-0"
           style="font-size:93.14949799px;fill:#ffffff;fill-opacity:1;stroke:#98b9ca;stroke-width:1.53095996;stroke-opacity:1">sgiot!</tspan></tspan></text>
    <text
       xml:space="preserve"
       style="font-style:normal;font-variant:normal;font-weight:normal;font-stretch:normal;line-height:0%;font-family:Lavi;-inkscape-font-specification:Lavi;letter-spacing:0px;word-spacing:0px;opacity:1;mix-blend-mode:normal;fill:#ffffff;fill-opacity:1;stroke:#98b9ca;stroke-width:1.58161;stroke-miterlimit:4;stroke-dasharray:none;stroke-opacity:1;filter:url(#filter4375-4-1-1-1-9-5-8-6-4)"
       x="787.65729"
       y="1584.5073"
       id="text4580-6-0-06-9-3-7-4-4-6"
       transform="matrix(0.39417058,-0.24452937,0.22006646,0.54152369,989.12821,2486.0635)"
       inkscape:label="weaponFXD"><tspan
         sodipodi:role="line"
         id="tspan4582-1-1-2-63-0-5-8-9-5"
         x="787.65729"
         y="1584.5073"
         style="font-size:70px;line-height:1.25;fill:#ffffff;fill-opacity:1;stroke:#98b9ca;stroke-width:1.58161;stroke-opacity:1"><tspan
           style="font-size:93.1495px;fill:#ffffff;fill-opacity:1;stroke:#98b9ca;stroke-width:1.58161;stroke-opacity:1"
           id="tspan4315-8-6-8-9-4-7-0-6">poc!</tspan></tspan></text>
    <text
       id="text4246-3-2-9-6-6-0"
       y="2043.4531"
       x="2014.4553"
       style="font-style:normal;font-variant:normal;font-weight:normal;font-stretch:normal;font-size:13.69680023px;line-height:0%;font-family:Lavi;-inkscape-font-specification:Lavi;text-align:center;letter-spacing:0px;word-spacing:0px;text-anchor:middle;fill:#000000;fill-opacity:1;stroke:none;stroke-width:1"
       xml:space="preserve"
       inkscape:label="pepperE"><tspan
         y="2043.4531"
         x="2022.4807"
         style="font-style:normal;font-variant:normal;font-weight:bold;font-stretch:normal;font-size:51.36270142px;line-height:1.25;font-family:Lavi;-inkscape-font-specification:'Lavi Bold';stroke-width:1"
         sodipodi:role="line"
         id="tspan114">Thoir do chasan leat, </tspan><tspan
         y="2107.6565"
         x="2014.4553"
         style="font-style:normal;font-variant:normal;font-weight:bold;font-stretch:normal;font-size:51.36270142px;line-height:1.25;font-family:Lavi;-inkscape-font-specification:'Lavi Bold';stroke-width:1"
         sodipodi:role="line"
         id="tspan178">a Churrain!</tspan></text>
    <text
       id="text4246-3-2-9-6-6-0-3"
       y="2181.5112"
       x="2048.2236"
       style="font-style:normal;font-variant:normal;font-weight:normal;font-stretch:normal;line-height:0%;font-family:Lavi;-inkscape-font-specification:Lavi;text-align:center;letter-spacing:0px;word-spacing:0px;text-anchor:middle;fill:#000000;fill-opacity:1;stroke:none"
       xml:space="preserve"
       inkscape:label="pepperF"><tspan
         y="2181.5112"
         x="2055.2549"
         style="font-size:45px;line-height:1.25"
         sodipodi:role="line"
         id="tspan141">Cha mhair </tspan><tspan
         y="2237.7612"
         x="2055.2549"
         style="font-size:45px;line-height:1.25"
         sodipodi:role="line"
         id="tspan187">a’ gheas </tspan><tspan
         y="2294.0112"
         x="2048.2236"
         style="font-size:45px;line-height:1.25"
         sodipodi:role="line"
         id="tspan185">ach greiseag!</tspan></text>
    <text
       transform="matrix(0.85852879,0,-0.29243083,1.1647833,0,0)"
       id="text4213-7"
       y="2985.2324"
       x="2454.97"
       style="font-style:normal;font-variant:normal;font-weight:normal;font-stretch:normal;font-size:10.76309967px;line-height:0%;font-family:Lavi;-inkscape-font-specification:Lavi;text-align:center;letter-spacing:0px;word-spacing:0px;text-anchor:middle;display:inline;opacity:1;fill:#241c1c;fill-opacity:1;stroke:#000000;stroke-width:0;stroke-miterlimit:4;stroke-dasharray:none;stroke-opacity:1"
       xml:space="preserve"
       inkscape:label="fin"><tspan
         style="font-style:normal;font-variant:normal;font-weight:bold;font-stretch:normal;font-size:64.74079895px;line-height:1.25;font-family:Lavi;-inkscape-font-specification:'Lavi Bold';fill:#000000;fill-opacity:1;stroke:none;stroke-width:0;stroke-miterlimit:4;stroke-dasharray:none"
         y="2985.2324"
         x="2454.97"
         id="tspan3562-5"
         sodipodi:role="line">- Deireadh na sgeòil -</tspan></text>
  </g>
</svg>
