<?xml version="1.0" encoding="UTF-8" standalone="no"?>
<svg
   xmlns:dc="http://purl.org/dc/elements/1.1/"
   xmlns:cc="http://creativecommons.org/ns#"
   xmlns:rdf="http://www.w3.org/1999/02/22-rdf-syntax-ns#"
   xmlns:svg="http://www.w3.org/2000/svg"
   xmlns="http://www.w3.org/2000/svg"
   xmlns:xlink="http://www.w3.org/1999/xlink"
   xmlns:sodipodi="http://sodipodi.sourceforge.net/DTD/sodipodi-0.dtd"
   xmlns:inkscape="http://www.inkscape.org/namespaces/inkscape"
   id="svg2"
   version="1.1"
   inkscape:version="1.0.2 (e86c8708, 2021-01-15)"
   width="2481"
   height="3503"
   sodipodi:docname="E35P11.svg">
  <metadata
     id="metadata8">
    <rdf:RDF>
      <cc:Work
         rdf:about="">
        <dc:format>image/svg+xml</dc:format>
        <dc:type
           rdf:resource="http://purl.org/dc/dcmitype/StillImage" />
        <dc:title />
      </cc:Work>
    </rdf:RDF>
  </metadata>
  <defs
     id="defs6">
    <filter
       style="color-interpolation-filters:sRGB"
       id="filter4375-4-1-1-1-9-3-2-3-8-7-6-4-9"
       inkscape:label="deevad outline effect"
       x="-0.002101149"
       y="-0.0071745174"
       width="1.0042023"
       height="1.014349">
      <feFlood
         id="feFlood4377-7-9-0-8-1-6-9-6-7-5-32-7-4"
         flood-opacity="1"
         flood-color="rgb(95,141,211)"
         result="flood" />
      <feComposite
         id="feComposite4379-3-8-8-2-77-7-1-0-9-9-0-6-8"
         in2="SourceGraphic"
         in="flood"
         operator="in"
         result="composite1" />
      <feMorphology
         id="feMorphology4393-1-0-49-8-9-5-2-6-2-2-6-5-1"
         operator="dilate"
         radius="4"
         result="result3" />
      <feComposite
         id="feComposite4385-9-5-7-0-8-3-7-2-0-2-1-6-2"
         in2="result3"
         in="SourceGraphic"
         operator="over"
         result="composite2" />
    </filter>
  </defs>
  <sodipodi:namedview
     pagecolor="#ffffff"
     bordercolor="#666666"
     borderopacity="1"
     objecttolerance="10"
     gridtolerance="10"
     guidetolerance="10"
     inkscape:pageopacity="0"
     inkscape:pageshadow="2"
     inkscape:window-width="960"
     inkscape:window-height="1114"
     id="namedview4"
     showgrid="false"
     inkscape:zoom="0.46261216"
     inkscape:cx="1532.4354"
     inkscape:cy="912.01653"
     inkscape:window-x="960"
     inkscape:window-y="25"
     inkscape:window-maximized="0"
     inkscape:current-layer="layer3"
     inkscape:document-rotation="0"
     inkscape:snap-global="false"
     inkscape:pagecheckerboard="0" />
  <g
     inkscape:groupmode="layer"
     id="layer2"
     inkscape:label="artwork"
     sodipodi:insensitive="true">
    <image
       sodipodi:absref="/Users/gand/Documents/Pepper&amp;Carrot/ep35_The-Reflection/lang/gfx_Pepper-and-Carrot_by-David-Revoy_E35P11.png"
       xlink:href="../gfx_Pepper-and-Carrot_by-David-Revoy_E35P11.png"
       y="0"
       x="0"
       id="image10"
       height="3503"
       width="2481" />
  </g>
  <g
     inkscape:groupmode="layer"
     id="layer3"
     inkscape:label="speechbubbles">
    <path
       style="color:#000000;display:inline;overflow:visible;visibility:visible;fill:#ffffff;fill-opacity:1;fill-rule:nonzero;stroke:none;stroke-width:1.06949px;marker:none;enable-background:accumulate"
       d="m 693.51248,1526.6704 c 28.77008,-24.9106 277.8466,-35.5556 343.82072,7.541 55.0672,35.9724 33.582,122.5341 -15.392,141.6334 -48.97356,19.099 -211.89074,13.6696 -283.29365,3.2265 -67.98547,-9.9423 -79.40136,-36.2614 -82.74552,-88.8787 -1.36487,-21.4761 8.84018,-38.612 37.61045,-63.5222 z"
       id="path4040-4-9-2"
       inkscape:connector-curvature="0"
       sodipodi:nodetypes="zssssz" />
    <path
       style="color:#000000;display:inline;overflow:visible;visibility:visible;fill:#ffffff;fill-opacity:1;fill-rule:nonzero;stroke:none;stroke-width:1.36564px;marker:none;enable-background:accumulate"
       d="m 672.87343,351.47617 c 33.46845,54.26318 16.77932,109.75225 -42.25383,148.97796 101.91057,-50.70471 112.5118,-145.0271 95.84592,-167.01491 -16.31806,-21.52888 -53.59209,18.03695 -53.59209,18.03695 z"
       id="path5010-4"
       inkscape:connector-curvature="0"
       sodipodi:nodetypes="ccsc" />
    <path
       style="display:inline;fill:#ffffff;stroke:none;stroke-width:0.593809"
       d="m 1189.7651,57.299 c -37.6383,0.291165 -75.9441,5.226017 -110.6114,20.596138 -18.9707,9.035479 -34.6736,26.398282 -38.8001,47.340992 -3.9744,20.62219 -2.5171,42.19634 3.4954,62.27217 7.1845,18.83833 23.1758,33.143 41.1121,41.62797 26.4023,13.35548 56.0864,18.26676 85.3259,20.41751 39.6467,3.26547 79.5432,6.45676 119.3042,3.28382 30.4333,-2.53403 60.9347,-10.51405 86.9358,-26.93945 14.8833,-9.57802 28.8059,-21.8084 36.8096,-37.87408 6.7527,-13.08567 8.326,-28.38022 6.1478,-42.81545 -2.6598,-17.3016 -11.6926,-33.4704 -24.9835,-44.85659 -15.9119,-14.191543 -36.2871,-21.85208 -56.4207,-27.88553 -27.3936,-7.963814 -55.8576,-11.472072 -84.239,-13.544453 -21.3271,-1.406949 -42.709,-1.66886 -64.0761,-1.623047 z"
       id="path3280-8-1"
       inkscape:connector-curvature="0"
       sodipodi:nodetypes="csssc" />
    <path
       style="color:#000000;display:inline;overflow:visible;visibility:visible;fill:#ffffff;fill-opacity:1;fill-rule:nonzero;stroke:none;stroke-width:0.813778px;marker:none;enable-background:accumulate"
       d="m 1962.8932,80.042241 c -35.9121,0.406432 -72.8257,6.568789 -102.421,22.208449 -24.6677,13.16571 -45.324,31.61855 -53.6449,53.53875 -4.6258,13.03951 -6.1555,26.75881 -4.0608,40.16175 3.5651,21.10953 17.8947,40.74776 37.6441,56.00596 16.4655,12.70148 37.5907,22.1213 60.6901,26.47524 56.0716,12.34459 114.5072,17.93543 172.8368,19.84518 55.4395,1.52074 111.6919,-1.50162 164.9986,-13.43241 34.9684,-8.85512 67.9715,-24.40452 89.0226,-47.26665 17.1571,-19.38443 22.1588,-43.2101 21.1284,-65.9967 -0.6759,-21.44646 -8.6367,-43.71351 -28.2793,-60.02958 -18.597,-15.127089 -45.9735,-22.876397 -73.0849,-24.641498 -66.9547,-7.607729 -134.8835,-5.079663 -202.3466,-6.383948 -27.493,-0.270672 -54.987,-0.607176 -82.4831,-0.484543 z"
       id="path4546-6-7"
       inkscape:connector-curvature="0"
       sodipodi:nodetypes="cscssssc" />
    <path
       style="color:#000000;display:inline;overflow:visible;visibility:visible;fill:#ffffff;fill-opacity:1;fill-rule:nonzero;stroke:none;stroke-width:1.03336px;marker:none;enable-background:accumulate"
       d="m 552.57497,1388.2962 c 35.09219,-25.3329 338.90237,-39.6345 419.37372,2.4936 67.16821,35.164 40.96141,122.0411 -18.77415,141.8593 -59.73532,19.818 -258.45286,16.7802 -345.54628,7.3854 -82.92493,-8.9443 -96.84944,-35.0958 -100.92848,-87.6639 -1.66477,-21.4561 10.78278,-38.7418 45.87519,-64.0744 z"
       id="path4040-4-9"
       inkscape:connector-curvature="0"
       sodipodi:nodetypes="zssssz" />
    <path
       style="fill:#ffffff;fill-rule:evenodd;stroke:none;stroke-width:0.952453px;stroke-linecap:butt;stroke-linejoin:miter;stroke-opacity:1"
       d="M 1085.5371 1635.3711 C 1052.8898 1636.0254 1020.2721 1637.7241 987.68188 1639.7022 C 967.39616 1641.1984 946.8575 1642.9465 927.41722 1649.3049 C 902.37529 1658.3442 882.43559 1679.0032 872.14074 1703.3192 C 867.40038 1714.6592 864.0808 1726.5633 861.61613 1738.589 C 859.36641 1750.7134 859.68421 1763.6035 864.5293 1775.0898 C 870.11617 1789.1838 879.50704 1801.3734 889.53711 1812.584 C 908.4962 1832.8007 934.12774 1847.0885 961.72534 1850.84 C 985.53689 1854.7634 1009.5998 1856.8771 1033.6332 1858.8993 C 1073.6819 1861.5709 1113.8633 1862.1241 1153.9807 1860.9939 C 1187.725 1859.951 1221.4648 1857.6599 1254.9312 1853.1421 C 1272.7188 1850.2909 1290.8599 1845.7776 1305.7903 1835.2475 C 1320.3 1824.7651 1330.1352 1808.5092 1333.8866 1791.1089 C 1337.6668 1777.854 1340.8885 1763.729 1337.7663 1749.9963 C 1333.8761 1733.5495 1325.2282 1718.8217 1317.123 1704.1738 C 1308.6807 1689.856 1297.7144 1676.364 1282.87 1668.3568 C 1264.9043 1658.097 1244.5739 1653.3561 1224.8492 1647.7395 C 1193.6568 1639.6004 1161.3366 1637.0569 1129.2077 1636.2733 C 1114.6575 1635.7282 1100.0998 1635.2439 1085.5371 1635.3711 z "
       id="path1079"
       inkscape:connector-curvature="0" />
    <path
       style="color:#000000;display:inline;overflow:visible;visibility:visible;fill:#ffffff;fill-opacity:1;fill-rule:nonzero;stroke:none;stroke-width:0.939237px;marker:none;enable-background:accumulate"
       d="m 1404.4998,1793.8153 c -45.9909,-29.4273 -78.0349,-27.5278 -104.8526,-18.0354 -25.7868,9.1275 -19.8278,10.3608 -19.8278,10.3608 l 10.5667,-48.0852 c -3.1179,-4.3789 71.5596,-1.8389 114.1137,55.7598 z"
       id="path3072-12"
       inkscape:connector-curvature="0"
       sodipodi:nodetypes="csccc" />
    <path
       style="display:inline;fill:#ffffff;stroke:none;stroke-width:0.948098"
       d="m 1363.6603,197.26135 c -51.348,0.71141 -103.3186,6.56567 -151.198,23.18281 -39.2504,15.5755 -71.0619,45.87113 -82.0639,82.0756 -7.1564,25.0237 -6.4759,51.00356 -6.0769,76.57747 1.8106,29.0786 19.0107,56.19505 42.7315,76.47645 14.0177,12.23074 31.2799,21.35899 49.5315,28.16258 41.137,15.82346 86.279,22.86993 131.1575,24.03039 33.7261,0.6584 67.4538,-0.37645 101.1708,-0.94856 41.8566,-1.17898 84.0073,-3.0418 124.9508,-11.13023 22.7583,-4.70887 45.739,-11.56473 63.8226,-24.77076 23.7448,-17.34664 39.0657,-41.96217 46.9177,-67.61578 8.0538,-26.9469 6.0833,-55.48535 -1.7996,-82.27993 -6.7962,-25.61175 -19.7231,-50.87469 -42.1003,-69.27695 -23.1488,-19.27673 -53.3405,-31.03158 -84.1655,-38.14607 -47.4399,-11.44019 -96.9113,-14.37129 -145.9341,-15.94323 -15.6435,-0.39537 -31.2951,-0.42638 -46.9441,-0.39379 z"
       id="path3280-8-1-3"
       inkscape:connector-curvature="0"
       sodipodi:nodetypes="csssc" />
    <path
       style="display:inline;fill:#ffffff;stroke:none;stroke-width:0.986136"
       d="m 2011.8516,226.1866 c -58.2287,0.51905 -117.4901,9.31627 -171.1225,36.71618 -29.3487,16.1073 -53.642,47.05952 -60.026,84.39353 -6.1486,36.76262 -3.8941,75.2223 5.4076,111.01093 11.1149,33.5826 35.8544,59.08314 63.6028,74.20908 40.8459,23.80845 86.769,32.56366 132.0043,36.39776 61.3359,5.82125 123.0581,11.51027 184.5707,5.85396 47.0823,-4.51735 94.2697,-18.74311 134.495,-48.02423 23.0253,-17.07448 44.5645,-38.87726 56.9466,-67.51711 10.4469,-23.32748 12.8809,-50.59266 9.5111,-76.32597 -4.1149,-30.84309 -18.0892,-59.6668 -38.6511,-79.96465 -24.6166,-25.29889 -56.1382,-38.9551 -87.2862,-49.71079 -42.3795,-14.19688 -86.415,-20.45096 -130.3227,-24.14535 -32.9944,-2.50813 -66.0734,-2.97503 -99.1296,-2.89334 z"
       id="path3280-8-1-1"
       inkscape:connector-curvature="0"
       sodipodi:nodetypes="csssc" />
    <path
       style="display:inline;fill:#ffffff;stroke:none;stroke-width:0.74427"
       d="M 2025.8672 512.42969 C 1985.1844 512.61456 1944.0444 518.75533 1906.3518 534.53744 C 1896.0836 538.7781 1886.2058 544.09243 1877.6264 551.20796 C 1856.3199 568.34225 1841.29 593.61417 1838.1466 620.93329 C 1834.2175 647.67574 1839.2742 676.56092 1855.7996 698.41922 C 1873.2098 721.60164 1899.035 737.18812 1926.243 746.26399 C 1955.6193 756.82948 1986.9602 760.05516 2017.957 761.48242 C 2064.8391 765.32073 2112.0278 764.47535 2158.859 760.34679 C 2180.7592 758.42503 2202.886 755.70463 2223.5507 747.80231 C 2245.3692 739.56534 2264.9347 725.39624 2279.6577 707.31942 C 2292.1542 691.86389 2301.026 673.02859 2302.6178 653.05421 C 2305.8771 618.20704 2290.8951 581.60206 2262.5039 560.67533 C 2238.0777 542.01576 2208.2382 532.45995 2178.6995 525.4095 C 2128.6763 513.79133 2077.0027 512.25345 2025.8672 512.42969 z "
       id="path3280-8-1-1-8"
       inkscape:connector-curvature="0"
       sodipodi:nodetypes="csssc" />
    <path
       style="fill:#ffffff;fill-rule:evenodd;stroke:none;stroke-width:1px;stroke-linecap:butt;stroke-linejoin:miter;stroke-opacity:1"
       d="m 1917.1509,703.14914 c -35.1448,34.55495 -40.918,43.76621 -48.2945,59.20991 -7.3765,15.44359 -1.4166,45.82505 15.3336,59.77726 16.7502,13.95231 20.6476,39.75145 6.4656,51.09426 -14.1819,11.34295 -70.6572,56.04997 -12.3413,98.68519 -52.1304,-50.93005 4.6214,-80.3316 15.046,-87.77901 10.4245,-7.44749 30.9525,-25.50425 13.4446,-59.50485 -17.5082,-34.00062 -21.7713,-50.818 31.7495,-83.72489 53.5207,-32.90685 -21.4035,-37.75787 -21.4035,-37.75787 z"
       id="path1081"
       inkscape:connector-curvature="0"
       sodipodi:nodetypes="ccccccssc" />
    <path
       style="color:#000000;display:inline;overflow:visible;visibility:visible;fill:#ffffff;fill-opacity:1;fill-rule:nonzero;stroke:none;stroke-width:1.4638px;marker:none;enable-background:accumulate"
       d="m 1446.9857,482.25247 c 38.5518,83.9689 2.5856,139.06018 -54.1917,168.09629 98.918,-30.2652 116.1188,-134.92733 86.7076,-167.77583 -23.1309,-25.83416 -32.5159,-0.32046 -32.5159,-0.32046 z"
       id="path5010-4-3"
       inkscape:connector-curvature="0"
       sodipodi:nodetypes="ccsc" />
    <path
       style="color:#000000;display:inline;overflow:visible;visibility:visible;fill:#ffffff;fill-opacity:1;fill-rule:nonzero;stroke:none;stroke-width:0.861506px;marker:none;enable-background:accumulate"
       d="m 1708.9341,2344.6889 c 0.1396,-105.6475 -1.9817,-81.2211 156.3841,-79.1966 68.739,0.8787 150.308,10.6222 143.7753,157.3952 -5.1637,116.0161 -130.901,110.3132 -154.2725,113.5955 -23.2236,3.2615 -117.9728,-16.6744 -138.5725,-62.3724 -12.895,-28.6062 -8.0693,-101.383 -7.3144,-129.4217 z"
       id="path4546-6-59"
       inkscape:connector-curvature="0"
       sodipodi:nodetypes="cssssc" />
    <path
       style="fill:#ffffff;stroke:none;stroke-width:1.40498"
       d="m 720.93646,74.334276 c -50.55152,3.08778 -100.03953,15.416754 -149.93195,23.909777 -31.45318,6.242517 -62.81602,17.304637 -88.87367,37.942527 -16.49827,13.20659 -29.33925,31.97773 -35.29672,53.34425 -9.54535,30.12085 -9.93681,62.865 -5.11563,94.04195 3.84814,22.99347 12.27848,45.81666 27.54972,62.71498 15.19086,17.11859 34.15817,30.07813 54.65516,38.33478 17.69799,7.8496 36.26553,13.26302 55.14052,16.50527 42.14937,7.86858 85.03779,9.8885 127.74302,9.45199 43.67122,-0.77799 87.28472,-6.16766 129.93481,-16.42186 21.26672,-4.78213 42.71551,-11.63012 60.62503,-25.42823 19.75792,-15.0267 35.44362,-36.34047 44.53157,-60.59277 3.97062,-10.73934 5.91123,-22.25046 6.27639,-33.7908 0.74213,-14.8313 0.81776,-29.69103 1.10115,-44.53743 0.10717,-44.82775 -3.44038,-89.73925 -11.72081,-133.685824 -3.09725,-3.45486 -7.93984,-1.880213 -11.78697,-3.251442 C 857.91557,82.354172 789.57167,74.056384 720.93646,74.334276 Z"
       id="path3100-2"
       inkscape:connector-curvature="0"
       sodipodi:nodetypes="cccccccccccccc" />
    <path
       style="display:inline;fill:#ffffff;fill-rule:evenodd;stroke:none;stroke-width:1.14884px;stroke-linecap:butt;stroke-linejoin:miter;stroke-opacity:1"
       d="m 1876.2442,2473.0319 c 29.6781,34.3855 -48.3918,61.0872 -32.7914,98.1006 6.1219,14.5249 50.1858,21.814 59.4409,88.3499 -23.107,-54.5774 -70.7535,-56.808 -83.5614,-79.4341 -24.3256,-42.971 15.5983,-74.4437 22.7675,-83.4264 9.5884,-12.0136 34.1444,-23.59 34.1444,-23.59 z"
       id="path4186-80"
       inkscape:connector-curvature="0"
       sodipodi:nodetypes="cscssc" />
    <path
       style="color:#000000;display:inline;overflow:visible;visibility:visible;fill:#ffffff;fill-opacity:1;fill-rule:nonzero;stroke:none;stroke-width:0.472467px;marker:none;enable-background:accumulate"
       d="m 266.97992,2086.542 c 13.37453,-13.964 129.16447,-22.406 159.83419,0.5429 25.59955,19.1552 15.61147,66.8586 -7.1553,77.8463 -22.76671,10.9877 -98.5031,9.7123 -131.69666,4.7305 -31.60485,-4.7428 -36.91183,-19.0595 -38.46644,-47.8849 -0.63452,-11.7653 4.10957,-21.2709 17.48421,-35.2348 z"
       id="path4040-4-9-3"
       inkscape:connector-curvature="0"
       sodipodi:nodetypes="zssssz" />
    <path
       style="color:#000000;display:inline;overflow:visible;visibility:visible;fill:#ffffff;fill-opacity:1;fill-rule:nonzero;stroke:none;stroke-width:0.816531px;marker:none;enable-background:accumulate"
       d="m 354.58902,2078.2586 c 35.58146,-4.2267 52.48817,-58.2989 28.13393,-95.1145 44.43236,49.6051 29.57055,64.2564 4.74971,120.5184 -6.58837,14.934 -32.88364,-25.4039 -32.88364,-25.4039 z"
       id="path5010-4-5"
       inkscape:connector-curvature="0"
       sodipodi:nodetypes="ccsc" />
  </g>
  <g
     inkscape:groupmode="layer"
     id="layer1"
     inkscape:label="txt">
    <text
       xml:space="preserve"
       style="font-style:normal;font-variant:normal;font-weight:normal;font-stretch:normal;font-size:45px;line-height:1.25;font-family:Lavi;-inkscape-font-specification:Lavi;text-align:center;letter-spacing:0px;word-spacing:0px;text-anchor:middle;fill:#000000;fill-opacity:1;stroke:none"
       x="690.90973"
       y="179.30602"
       id="text4246-3-2-2"><tspan
         style="font-size:45px"
         sodipodi:role="line"
         x="690.90973"
         y="179.30602"
         id="tspan873">Grazie per aver</tspan><tspan
         style="font-size:45px"
         sodipodi:role="line"
         x="690.90973"
         y="235.55602"
         id="tspan899"> lasciato che Carrot </tspan><tspan
         style="font-size:45px"
         sodipodi:role="line"
         x="690.90973"
         y="291.80603"
         id="tspan908">mi portasse dei</tspan><tspan
         style="font-size:45px"
         sodipodi:role="line"
         x="690.90973"
         y="348.05603"
         id="tspan89">vestiti puliti.</tspan></text>
    <text
       xml:space="preserve"
       style="font-style:normal;font-variant:normal;font-weight:normal;font-stretch:normal;font-size:45px;line-height:1.25;font-family:Lavi;-inkscape-font-specification:Lavi;text-align:center;letter-spacing:0px;word-spacing:0px;text-anchor:middle;fill:#000000;fill-opacity:1;stroke:none"
       x="1231.3198"
       y="160.3399"
       id="text4246-3-2-2-3-3-3"><tspan
         style="font-size:45px"
         sodipodi:role="line"
         x="1231.3198"
         y="160.3399"
         id="tspan876-3">Il piacere è</tspan><tspan
         style="font-size:45px"
         sodipodi:role="line"
         x="1231.3198"
         y="216.5899"
         id="tspan91">tutto mio.</tspan></text>
    <text
       xml:space="preserve"
       style="font-style:normal;font-variant:normal;font-weight:normal;font-stretch:normal;font-size:45px;line-height:1.25;font-family:Lavi;-inkscape-font-specification:Lavi;text-align:center;letter-spacing:0px;word-spacing:0px;text-anchor:middle;fill:#000000;fill-opacity:1;stroke:none"
       x="1405.865"
       y="284.4176"
       id="text4246-3-2-2-3-3"><tspan
         style="font-size:45px"
         sodipodi:role="line"
         x="1405.865"
         y="284.4176"
         id="tspan971">Hai reso più facile</tspan><tspan
         style="font-size:45px"
         sodipodi:role="line"
         x="1405.865"
         y="340.6676"
         id="tspan933">il nostro lavoro, quindi</tspan><tspan
         style="font-size:45px"
         sodipodi:role="line"
         x="1405.865"
         y="396.9176"
         id="tspan937">il minimo che potessi fare</tspan><tspan
         style="font-size:45px"
         sodipodi:role="line"
         x="1405.865"
         y="453.1676"
         id="tspan941">è restituirti il favore.</tspan></text>
    <text
       xml:space="preserve"
       style="font-style:normal;font-variant:normal;font-weight:normal;font-stretch:normal;font-size:45px;line-height:1.25;font-family:Lavi;-inkscape-font-specification:Lavi;text-align:center;letter-spacing:0px;word-spacing:0px;text-anchor:middle;fill:#000000;fill-opacity:1;stroke:none"
       x="2070.6965"
       y="162.92047"
       id="text4246-3-2-2-3-3-67"><tspan
         style="font-size:45px"
         sodipodi:role="line"
         x="2070.6965"
         y="162.92047"
         id="tspan898">Ma lo sai, hai fatto dav-</tspan><tspan
         style="font-size:45px"
         sodipodi:role="line"
         x="2070.6965"
         y="219.17047"
         id="tspan693">vero arrabbiare Wasabi.</tspan></text>
    <text
       xml:space="preserve"
       style="font-style:normal;font-variant:normal;font-weight:normal;font-stretch:normal;font-size:45px;line-height:1.25;font-family:Lavi;-inkscape-font-specification:Lavi;text-align:center;letter-spacing:0px;word-spacing:0px;text-anchor:middle;fill:#000000;fill-opacity:1;stroke:none"
       x="2069.8462"
       y="308.0451"
       id="text4246-3-2-2-3-3-67-2"><tspan
         style="font-size:45px"
         sodipodi:role="line"
         x="2069.8462"
         y="308.0451"
         id="tspan1004-2">Lei esige la</tspan><tspan
         style="font-size:45px"
         sodipodi:role="line"
         x="2069.8462"
         y="364.2951"
         id="tspan107">perfezione. L'hai infastidita </tspan><tspan
         style="font-size:45px"
         sodipodi:role="line"
         x="2069.8462"
         y="420.5451"
         id="tspan1010-7">con la tua sporcizia, i tuoi</tspan><tspan
         style="font-size:45px"
         sodipodi:role="line"
         x="2069.8462"
         y="476.7951"
         id="tspan1016-9"> vestiti, ed il tuo modo</tspan><tspan
         style="font-size:45px"
         sodipodi:role="line"
         x="2069.8462"
         y="533.0451"
         id="tspan912"> di arrivare.</tspan></text>
    <text
       xml:space="preserve"
       style="font-style:normal;font-variant:normal;font-weight:normal;font-stretch:normal;font-size:45px;line-height:1.25;font-family:Lavi;-inkscape-font-specification:Lavi;text-align:center;letter-spacing:0px;word-spacing:0px;text-anchor:middle;fill:#000000;fill-opacity:1;stroke:none"
       x="2084.2942"
       y="614.01355"
       id="text4246-3-2-2-3-3-67-2-3"><tspan
         style="font-size:45px"
         sodipodi:role="line"
         x="2084.2942"
         y="614.01355"
         id="tspan1132">E l'hai aggredita!</tspan><tspan
         style="font-size:45px"
         sodipodi:role="line"
         x="2084.2942"
         y="670.26355"
         id="tspan111">Non ci andrà</tspan><tspan
         style="font-size:45px"
         sodipodi:role="line"
         x="2084.2942"
         y="726.51355"
         id="tspan1134">leggera con te.</tspan></text>
    <text
       xml:space="preserve"
       style="font-style:normal;font-variant:normal;font-weight:normal;font-stretch:normal;font-size:45px;line-height:1.25;font-family:Lavi;-inkscape-font-specification:Lavi;text-align:center;letter-spacing:0px;word-spacing:0px;text-anchor:middle;fill:#000000;fill-opacity:1;stroke:none"
       x="349.56961"
       y="2138.6455"
       id="text4246-3-2-2-3-3-6-67"><tspan
         style="font-size:45px"
         sodipodi:role="line"
         x="349.56961"
         y="2138.6455"
         id="tspan1191-3">Lo so.</tspan></text>
    <text
       xml:space="preserve"
       style="font-style:normal;font-variant:normal;font-weight:normal;font-stretch:normal;font-size:45px;line-height:1.25;font-family:Lavi;-inkscape-font-specification:Lavi;text-align:center;letter-spacing:0px;word-spacing:0px;text-anchor:middle;fill:#000000;fill-opacity:1;stroke:none"
       x="759.62054"
       y="1442.3682"
       id="text4246-3-2-2-3-3-6"><tspan
         style="font-size:45px"
         sodipodi:role="line"
         x="759.62054"
         y="1442.3682"
         id="tspan909">Comunque, ho bisogno</tspan><tspan
         style="font-size:45px"
         sodipodi:role="line"
         x="759.62054"
         y="1498.6182"
         id="tspan119">di fare un pisolino.</tspan></text>
    <text
       xml:space="preserve"
       style="font-style:normal;font-variant:normal;font-weight:normal;font-stretch:normal;font-size:45px;line-height:1.25;font-family:Lavi;-inkscape-font-specification:Lavi;text-align:center;letter-spacing:0px;word-spacing:0px;text-anchor:middle;fill:#000000;fill-opacity:1;stroke:none"
       x="861.08191"
       y="1579.2286"
       id="text4246-3-2-2-3-3-6-6"><tspan
         style="font-size:45px"
         sodipodi:role="line"
         x="861.08191"
         y="1579.2286"
         id="tspan949">Ce ne andremo</tspan><tspan
         style="font-size:45px"
         sodipodi:role="line"
         x="861.08191"
         y="1635.4786"
         id="tspan127">quando mi sveglio.</tspan></text>
    <text
       xml:space="preserve"
       style="font-style:normal;font-variant:normal;font-weight:normal;font-stretch:normal;font-size:45px;line-height:1.25;font-family:Lavi;-inkscape-font-specification:Lavi;text-align:center;letter-spacing:0px;word-spacing:0px;text-anchor:middle;fill:#000000;fill-opacity:1;stroke:none"
       x="1096.4032"
       y="1715.861"
       id="text4246-3-2-2-3-3-6-2"><tspan
         style="font-size:45px"
         sodipodi:role="line"
         x="1096.4032"
         y="1715.861"
         id="tspan958">Fai quello che vuoi</tspan><tspan
         style="font-size:45px"
         sodipodi:role="line"
         x="1096.4032"
         y="1772.111"
         id="tspan134">purché</tspan><tspan
         style="font-size:45px"
         sodipodi:role="line"
         x="1096.4032"
         y="1828.361"
         id="tspan136">non ti allontani...</tspan></text>
    <text
       xml:space="preserve"
       style="font-style:normal;font-variant:normal;font-weight:normal;font-stretch:normal;line-height:0%;font-family:Lavi;-inkscape-font-specification:Lavi;letter-spacing:0px;word-spacing:0px;display:inline;fill:#ffffff;fill-opacity:1;stroke:#5f8dd3;stroke-width:0.992362;stroke-miterlimit:4;stroke-dasharray:none;stroke-opacity:1;filter:url(#filter4375-4-1-1-1-9-3-2-3-8-7-6-4-9)"
       x="787.65729"
       y="1584.5073"
       id="text4580-5-0-6-2-8-5-9-9"
       transform="matrix(0.71138619,-0.38856964,0.42362052,1.0933045,-1095.3818,1936.127)"><tspan
         sodipodi:role="line"
         id="tspan4582-6-9-1-3-9-5-3-3"
         x="787.65729"
         y="1584.5073"
         style="font-size:70px;line-height:1.25;fill:#ffffff;stroke:#5f8dd3">Splaash</tspan></text>
    <text
       xml:space="preserve"
       style="font-style:normal;font-variant:normal;font-weight:normal;font-stretch:normal;font-size:45px;line-height:1.25;font-family:Lavi;-inkscape-font-specification:Lavi;text-align:center;letter-spacing:0px;word-spacing:0px;text-anchor:middle;fill:#000000;fill-opacity:1;stroke:none"
       x="1861.7039"
       y="2364.5269"
       id="text4246-3-2-2-3-3-6-2-9"><tspan
         style="font-size:45px"
         sodipodi:role="line"
         x="1861.7039"
         y="2364.5269"
         id="tspan1017-0">Che</tspan><tspan
         style="font-size:45px"
         sodipodi:role="line"
         x="1861.7039"
         y="2420.7769"
         id="tspan1078">strega</tspan><tspan
         style="font-size:45px"
         sodipodi:role="line"
         x="1861.7039"
         y="2477.0269"
         id="tspan1080">curiosa.</tspan></text>
  </g>
</svg>
