<?xml version="1.0" encoding="UTF-8" standalone="no"?>
<svg
   xmlns:dc="http://purl.org/dc/elements/1.1/"
   xmlns:cc="http://creativecommons.org/ns#"
   xmlns:rdf="http://www.w3.org/1999/02/22-rdf-syntax-ns#"
   xmlns:svg="http://www.w3.org/2000/svg"
   xmlns="http://www.w3.org/2000/svg"
   xmlns:xlink="http://www.w3.org/1999/xlink"
   xmlns:sodipodi="http://sodipodi.sourceforge.net/DTD/sodipodi-0.dtd"
   xmlns:inkscape="http://www.inkscape.org/namespaces/inkscape"
   id="svg2"
   version="1.1"
   inkscape:version="1.0.2 (e86c870879, 2021-01-15)"
   width="2481"
   height="3503"
   sodipodi:docname="E34P08.svg">
  <metadata
     id="metadata8">
    <rdf:RDF>
      <cc:Work
         rdf:about="">
        <dc:format>image/svg+xml</dc:format>
        <dc:type
           rdf:resource="http://purl.org/dc/dcmitype/StillImage" />
        <dc:title />
      </cc:Work>
    </rdf:RDF>
  </metadata>
  <defs
     id="defs6" />
  <sodipodi:namedview
     pagecolor="#ffffff"
     bordercolor="#666666"
     borderopacity="1"
     objecttolerance="10"
     gridtolerance="10"
     guidetolerance="10"
     inkscape:pageopacity="0"
     inkscape:pageshadow="2"
     inkscape:window-width="1920"
     inkscape:window-height="967"
     id="namedview4"
     showgrid="false"
     inkscape:zoom="0.6956522"
     inkscape:cx="1794.3406"
     inkscape:cy="3258.4366"
     inkscape:window-x="0"
     inkscape:window-y="72"
     inkscape:window-maximized="1"
     inkscape:current-layer="layer1"
     inkscape:document-rotation="0"
     inkscape:snap-global="false"
     borderlayer="true" />
  <g
     inkscape:groupmode="layer"
     id="layer2"
     inkscape:label="artwork"
     sodipodi:insensitive="true">
    <image
       sodipodi:absref="/felles/omsetting/pepper-carrot/webcomics/new-ep34_The-Knighting-of-Shichimi/lang/gfx_Pepper-and-Carrot_by-David-Revoy_E34P08.png"
       xlink:href="../gfx_Pepper-and-Carrot_by-David-Revoy_E34P08.png"
       y="0"
       x="0"
       id="image10"
       height="3503"
       width="2481" />
  </g>
  <g
     inkscape:groupmode="layer"
     id="layer3"
     inkscape:label="speechbubbles"
     style="display:inline">
    <path
       style="color:#000000;display:inline;overflow:visible;visibility:visible;fill:#ffffff;fill-opacity:1;fill-rule:nonzero;stroke:none;stroke-width:0.770224px;marker:none;enable-background:accumulate"
       d="m 1858.8745,2602.7661 c 24.645,-31.5484 88.5186,-58.8546 134.0691,-29.1667 47.5832,1.2392 31.3766,-27.3129 31.3766,-27.3129 -2.2798,-13.3723 -128.0086,-31.4485 -165.4457,56.4796 z"
       id="path3984-7"
       inkscape:connector-curvature="0"
       sodipodi:nodetypes="cccc" />
    <path
       style="display:inline;fill:#ffffff;stroke:none;stroke-width:1.33372"
       d="m 2139.5807,2621.5134 c -39.732,1.3936 -80.0519,12.4549 -112.5385,36.8284 -52.0268,40.5512 -77.6571,114.0988 -62.1474,179.6353 7.5004,35.6596 29.3504,68.4078 60.4817,86.1028 30.274,17.5884 64.9382,24.7287 99.0946,28.723 50.4803,5.3823 102.0181,-0.9608 150.1128,-17.5893 27.1188,-9.9889 49.3649,-32.6833 59.8113,-60.3993 10.3673,-26.5503 12.2721,-55.6117 12.3085,-83.9544 -0.8573,-43.4538 -15.4633,-86.551 -41.0767,-120.9958 -12.0666,-16.2281 -29.4552,-28.059 -48.6879,-32.9218 -22.5825,-5.6806 -45.6993,-8.551 -68.6603,-12.0453 -16.1452,-2.1394 -32.4067,-3.63 -48.6981,-3.3836 z"
       id="path3280-8-3"
       inkscape:connector-curvature="0"
       sodipodi:nodetypes="csssc" />
    <path
       style="color:#000000;display:inline;overflow:visible;visibility:visible;fill:#ffffff;fill-opacity:1;fill-rule:nonzero;stroke:none;stroke-width:0.728515px;marker:none;enable-background:accumulate"
       d="m 2151.6505,2472.571 c -43.2206,-0.9701 -87.0225,3.662 -127.5653,17.4105 -15.2303,5.29 -30.249,12.7608 -40.2003,24.7234 -12.4527,15.1252 -18.529,34.0355 -19.0546,52.7878 -0.1083,18.5638 7.4227,37.6624 22.639,50.5903 12.1472,10.1785 27.9009,15.6751 43.2162,20.7364 28.0742,9.1294 57.5017,14.2904 87.031,17.5432 19.6421,2.1752 39.364,3.74 59.1038,4.8757 17.477,0.6093 34.8984,-1.6169 51.8693,-5.1354 24.5867,-4.5131 49.4233,-10.3879 70.8663,-22.4672 15.2522,-8.7345 28.1428,-21.7633 33.1602,-37.6643 6.8064,-20.4107 1.6417,-43.6413 -13.0554,-60.4231 -12.2584,-15.4162 -26.8243,-29.9854 -45.471,-39.2111 -15.7298,-7.5829 -33.2224,-11.3046 -50.4071,-15.0934 -23.6866,-4.9277 -47.8719,-7.7894 -72.1321,-8.6728 z"
       id="path3970-3"
       inkscape:connector-curvature="0"
       sodipodi:nodetypes="cccscsc" />
    <path
       style="display:inline;fill:#ffffff;fill-rule:evenodd;stroke:none;stroke-width:1.19769px;stroke-linecap:butt;stroke-linejoin:miter;stroke-opacity:1"
       d="m 152.03731,2625.0252 c 42.20804,27.8955 34.43644,40.0735 -25.0639,35.9837 94.86197,42.8351 55.70185,49.2464 -4.35899,49.9774 40.3186,15.6456 84.93064,30.956 -7.62814,56.9743 53.63869,4.2183 100.37507,10.1746 8.71786,50.977 47.55398,-1.6758 78.40121,-18.7567 21.0472,36.7827 77.84167,-24.9458 148.92762,-17.0906 108.63183,45.1802 39.12609,-18.3388 103.45071,-64.815 80.64061,-13.9936 17.92601,-16.2306 40.74011,-22.3733 81.73045,8.9959 -7.99307,-22.6233 -32.07574,-58.4779 40.32031,-14.9932 -21.8857,-34.0251 -0.899,-68.3859 72.20307,-17.9249 -10.88999,-25.6552 -83.18002,-35.3843 6.25822,-61.0395 -61.60701,-2.5587 -42.49746,-19.9247 -3.26916,-40.9814 -73.35825,-11.6374 -37.06249,-25.7279 6.53843,-39.982 -45.43812,-5.4331 -80.49304,-14.5828 -8.71799,-61.972 -79.00414,19.6735 -56.14089,-13.6004 -52.30756,-36.9833 -36.45891,18.5673 -77.68905,47.7106 -80.64073,-7.9964 -48.90836,69.1143 -67.42649,16.2752 -94.80731,-0.9995 -28.47867,82.2398 -93.0369,6.4455 -111.15322,0.9995 36.94494,33.6606 43.39549,48.9014 -38.14098,10.9951 z"
       id="path1096"
       inkscape:connector-curvature="0"
       sodipodi:nodetypes="cccccccccccccccccccc" />
    <path
       style="fill:#ffffff;fill-rule:evenodd;stroke:none;stroke-width:1px;stroke-linecap:butt;stroke-linejoin:miter;stroke-opacity:1"
       d="m 286.69249,2649.35 c 22.24357,147.5922 76.16994,294.7462 66.72409,442.7767 39.32721,-7.5351 57.02691,-43.538 110.60404,61.3044 36.13567,-50.5432 43.46402,-9.9468 54.08883,20.3938 25.92501,-21.2619 53.62712,-17.4156 81.20022,-15.3921 -24.07084,-2.6294 -42.56765,-23.176 -74.42406,-0.7793 -0.99204,-50.5675 -24.7242,-64.2967 -53.19608,-40.6932 -22.25284,-65.4923 -46.37098,-77.5206 -92.38131,-54.9383 1.82968,-175.1557 -47.49605,-279.4592 -67.44658,-422.2765 z"
       id="path1313"
       sodipodi:nodetypes="cccccccccc" />
    <path
       style="color:#000000;display:inline;overflow:visible;visibility:visible;fill:#ffffff;fill-opacity:1;fill-rule:nonzero;stroke:none;stroke-width:1.31433px;marker:none;enable-background:accumulate"
       d="m 153.88672,2952.2227 c 2.35087,-42.4765 7.65088,-76.1738 36.81006,-94.8593 29.15919,-18.6853 82.17735,-22.3584 149.44083,-15.008 36.02996,3.9372 87.22506,9.6703 115.93804,27.4197 28.71307,17.7488 34.94383,47.5133 31.9183,109.7344 -3.02551,62.2209 -13.60648,95.3659 -46.81933,110.7925 -33.21286,15.4267 -89.05769,13.1348 -101.21396,14.7045 -31.78533,-4.9421 -93.074,2.0672 -132.03621,-11.013 -38.9623,-13.0801 -55.59796,-46.2498 -54.03773,-141.7708 z"
       id="path4546-6-0"
       inkscape:connector-curvature="0"
       sodipodi:nodetypes="cssssscsc" />
    <path
       style="fill:#ffffff;fill-rule:evenodd;stroke:none;stroke-width:1.49986px;stroke-linecap:butt;stroke-linejoin:miter;stroke-opacity:1"
       d="m 245.18909,2649.8057 c 43.19772,-50.2257 45.98456,-5.139 68.25892,36.2923 21.65239,-30.6102 6.28548,-37.0801 55.91912,2.3088 10.30081,-60.6152 32.35421,-43.4365 60.52962,-11.3717 12.86423,-15.3068 3.77503,-28.5337 34.19188,-25.5013 10.97372,-48.4233 32.87513,-13.1777 63.55143,10.3696 -7.45014,-54.7029 -11.04581,-54.5433 51.78269,-44.9322 -43.66763,-48.1984 14.44977,-26.491 58.84379,-20.7394 -66.63269,-37.391 -42.58748,-30.7833 23.53776,-27.6509 -82.04216,-30.9514 -86.9057,-26.6667 -9.41514,-63.9433 -115.52977,11.1753 -104.64036,9.8366 -28.2451,-55.302 -45.85911,5.5174 -165.01278,82.943 -91.79651,13.8262 -62.59705,18.2513 -90.60389,39.2565 -57.79032,-20.9763 l -23.02004,-1.0234 c -23.8528,21.8995 -51.63559,56.4771 -55.70764,11.6299 -34.83998,33.519 -32.86143,39.1189 -49.42879,-3.4564 -23.0191,57.8645 -26.58115,13.0651 -40.01416,-24.1945 -30.23784,34.7634 -30.52,74.5428 -49.42879,19.0097 -13.16407,56.5135 -39.79946,16.4098 -77.67406,-10.3684 11.81278,61.5083 15.18363,60.8806 -42.36773,22.4662 21.58291,56.1578 -0.14738,44.3678 -61.197503,41.4758 73.096023,49.6039 49.814913,48.1051 -23.53778,82.9544 40.98175,5.5208 113.937763,-28.793 75.320303,17.2813 90.52187,-28.1852 17.65861,45.1113 -4.70748,82.953 80.88007,-57.7667 114.41557,-104.5155 122.39553,-31.1074 z"
       id="path1309"
       inkscape:connector-curvature="0"
       sodipodi:nodetypes="ccccccccccccccccccccccccc" />
    <path
       style="display:inline;fill:#ffffff;stroke:none;stroke-width:0.887071"
       d="m 2016.2121,1896.8777 c -37.0584,2.4149 -73.6457,10.0316 -106.082,22.3981 -21.8121,8.349 -41.7732,18.941 -57.6275,31.7895 -41.3212,32.5421 -62.7912,74.6831 -61.3232,115.9049 -0.2326,34.2733 13.7819,68.8395 44.587,96.4318 29.5107,27.0347 71.2198,49.2267 120.8687,59.2304 29.0332,5.9802 59.0142,10.1066 89.1931,13.2815 41.8416,2.9025 84.1353,-2.9047 124.5751,-10.5991 36.0799,-6.8467 72.1142,-16.725 100.0299,-33.7093 30.8542,-18.7645 50.5837,-43.5998 65.5783,-68.6654 15.2112,-25.1126 23.4055,-52.4274 17.6556,-78.9341 -5.0247,-27.0834 -15.0369,-54.37 -37.6518,-77.4088 -22.1046,-22.3492 -55.1758,-39.6456 -92.6994,-50.4349 -49.1999,-14.6341 -104.2112,-19.9634 -158.6734,-20.4996 -16.1373,-0.035 -32.3069,0.2474 -48.4304,1.215 z"
       id="path3280-5"
       inkscape:connector-curvature="0"
       sodipodi:nodetypes="csssc" />
    <path
       style="color:#000000;display:inline;overflow:visible;visibility:visible;fill:#ffffff;fill-opacity:1;fill-rule:nonzero;stroke:none;stroke-width:0.869755px;marker:none;enable-background:accumulate"
       d="m 635.52816,1836.5303 c 47.24511,-27.3875 115.83444,-55.1086 154.24551,3.9472 23.5574,-4.8627 69.71482,-40.1263 115.42935,17.7336 -47.53609,-35.9834 -78.50267,-15.4767 -118.07887,4.9225 -18.59072,-41.5285 -83.01307,-49.4207 -140.96132,7.1368 -57.94866,56.5566 -38.62415,45.003 -38.62415,45.003 l 10.52452,-62.5977 z"
       id="path5074-8"
       inkscape:connector-curvature="0"
       sodipodi:nodetypes="ccccsccc" />
    <path
       style="display:inline;fill:#ffffff;stroke:none;stroke-width:1.05887"
       d="m 439.46654,1805.6055 c -48.10855,0.6202 -97.26598,2.8871 -142.41685,14.1083 -59.45614,15.3776 -104.59175,50.1228 -117.34862,89.4906 -9.15252,26.0118 -8.3027,53.7456 5.72019,79.025 13.44187,23.3857 39.02103,41.2755 77.86551,53.7349 17.84403,5.7353 37.317,9.0777 56.93552,11.4444 32.49777,4.2459 65.33138,7.586 98.36637,9.6772 73.82402,4.2645 150.54212,0.3106 218.86715,-18.7444 40.15514,-15.3042 70.33728,-28.7217 102.78392,-89.118 7.5898,-28.9396 2.63758,-60.0042 -20.89478,-85.7743 -24.2353,-26.0108 -66.64816,-44.2053 -112.66628,-52.0684 -46.21965,-8.5105 -94.63828,-10.583 -142.53734,-11.8245 -8.22468,-0.084 -16.45112,-0.064 -24.67479,0.049 z"
       id="path3280-5-9"
       inkscape:connector-curvature="0"
       sodipodi:nodetypes="csssccccccccsc" />
    <path
       style="color:#000000;display:inline;overflow:visible;visibility:visible;fill:#ffffff;fill-opacity:1;fill-rule:nonzero;stroke:none;stroke-width:1.23214px;marker:none;enable-background:accumulate"
       d="m 1581.6413,284.94746 c 5.4868,-105.76337 64.2908,-182.47388 266.7356,-163.46234 108.4406,10.18345 231.534,16.63628 224.7534,171.56664 -6.7807,154.93009 -183.6575,151.7186 -220.137,155.49977 -36.4791,3.78143 -208.4119,-12.62073 -242.0881,-65.16602 -21.0807,-32.89174 -29.5969,-65.68853 -29.2639,-98.43805 z"
       id="path4546-7"
       inkscape:connector-curvature="0"
       sodipodi:nodetypes="cssssc" />
    <path
       style="fill:#ffffff;fill-rule:evenodd;stroke:none;stroke-width:1px;stroke-linecap:butt;stroke-linejoin:miter;stroke-opacity:1"
       d="m 1599.1971,212.38894 -0.065,25.78758 C 1080.4433,114.64867 913.1794,400.85146 809.5913,654.33743 826.89342,588.71047 864.83107,523.01086 883.11504,479.25305 937.33848,349.48369 1136.9039,110.81475 1599.1971,212.38894 Z"
       id="path1237"
       sodipodi:nodetypes="cccsc" />
    <path
       style="fill:#ffffff;fill-rule:evenodd;stroke:none;stroke-width:1.07745px;stroke-linecap:butt;stroke-linejoin:miter;stroke-opacity:1"
       d="m 699.08316,191.95375 c 42.27296,13.41842 80.48482,21.76102 67.49356,-33.89405 74.82591,75.56005 64.09219,23.81165 75.93025,5.64897 44.48672,53.37535 82.76388,45.76898 116.00457,-11.29795 18.79142,82.31634 58.11426,42.43352 92.80376,30.12804 -0.084,23.14865 -45.523,60.76442 80.2045,17.40443 -29.2672,20.90722 -77.6064,55.91014 10.0531,34.95042 -14.2058,5.54285 11.4661,9.93256 1.2424,13.19566 -45.7553,14.6036 -54.2856,47.51938 15.0853,59.1761 -49.0206,12.99002 -60.1438,45.48989 -2.4216,82.87362 -73.3011,-25.79571 -62.2272,8.3088 -48.6636,24.76333 -71.9802,-33.83043 -82.0512,-20.28599 -75.93,5.64897 -22.972,-23.6621 -49.18412,-33.56976 -99.79312,6.77851 11.32051,-24.23548 -43.74206,-23.55039 -94.55483,14.80401 26.75834,-36.90188 -11.02366,-41.8643 -53.08735,-18.57003 -11.09456,-39.21406 -52.75484,-19.30379 -97.02199,5.64909 36.13213,-38.27377 38.75041,-70.24839 -31.63758,-88.5014 68.21184,-21.89538 55.79106,-39.55632 29.52842,-56.49019 25.94664,-15.92383 42.86417,-33.27001 -25.31008,-64.02232 39.8598,4.78087 82.3012,10.94465 40.07429,-28.24521 z"
       id="path4582"
       inkscape:connector-curvature="0"
       sodipodi:nodetypes="cccccccscccccccccccc" />
    <path
       style="fill:#ffffff;fill-rule:evenodd;stroke:none;stroke-width:1.14149px;stroke-linecap:butt;stroke-linejoin:miter;stroke-opacity:1"
       d="m 178.92596,284.07857 c 14.14962,-19.59055 21.63759,-62.87678 -26.93474,-54.34021 39.23752,-26.41334 25.98689,-50.5802 -3.90655,-65.74639 73.87743,23.81847 73.21119,-3.40844 61.57654,-38.14623 47.48008,49.32038 40.36735,-2.98148 35.80064,-22.7584 10.74158,18.2494 13.00546,46.79364 49.53672,2.29683 -0.31987,32.85081 -6.1632,71.87242 62.09101,28.11201 -22.47477,40.07827 -23.26336,69.3368 41.95052,65.66506 -28.34535,12.9083 -67.50255,26.00568 -13.94509,37.48163 -34.57181,-1.01367 -57.54126,1.69808 -42.71356,16.54615 -14.35533,-2.77296 -33.78931,-10.85678 -3.30373,33.26162 -20.77552,-16.3254 -46.46636,-41.71153 -39.06434,-6.09524 -18.2144,-16.01167 -19.37899,7.51984 -15.2207,43.39657 -12.92863,-41.66596 -26.72418,-46.37816 -41.53656,-7.74657 6.5486,-30.50543 3.26729,-69.39689 -44.32887,-27.64149 -12.89066,-3.16596 -11.0207,-2.99635 -20.00129,-4.28534 z"
       id="path1213"
       sodipodi:nodetypes="cccccccccccccccc" />
    <path
       style="fill:#ffffff;fill-rule:evenodd;stroke:none;stroke-width:1.28731px;stroke-linecap:butt;stroke-linejoin:miter;stroke-opacity:1"
       d="M 225.70167,451.40352 C 190.57644,380.78428 160.59846,309.9462 237.26052,234.57441 l -11.04331,-15.32374 c -96.43382,91.35161 -52.5507,162.34365 -0.51554,232.15285 z"
       id="path1217"
       sodipodi:nodetypes="cccc" />
    <path
       style="fill:#ffffff;fill-rule:evenodd;stroke:none;stroke-width:1.08499px;stroke-linecap:butt;stroke-linejoin:miter;stroke-opacity:1"
       d="m 1643.7985,1929.1739 c 96.8015,-46.6867 120.9988,-40.2821 80.5755,28.3512 65.4725,-1.176 123.2483,3.9962 149.8904,34.8462 l 15.5883,-26.0596 c -31.2138,-18.9598 -72.3678,-35.221 -134.1445,-30.1606 20.9177,-34.9284 13.3859,-99.1339 -111.9097,-6.9772 z"
       id="path1284"
       sodipodi:nodetypes="cccccc" />
  </g>
  <g
     inkscape:groupmode="layer"
     id="layer1"
     inkscape:label="txt">
    <text
       xml:space="preserve"
       style="font-style:normal;font-variant:normal;font-weight:normal;font-stretch:normal;font-size:81.3623px;line-height:1.25;font-family:Lavi;-inkscape-font-specification:Lavi;text-align:center;letter-spacing:0px;word-spacing:0px;text-anchor:middle;fill:#000000;fill-opacity:1;stroke:none;stroke-width:1.408;stroke-miterlimit:4;stroke-dasharray:none"
       x="312.90686"
       y="227.20122"
       id="text4246-3-2-2-6-3-7-9-3-3-56-9-3-20"
       transform="matrix(0.93887237,0,-0.13753791,1.0651075,0,0)"><tspan
         style="font-style:normal;font-variant:normal;font-weight:normal;font-stretch:normal;font-size:81.3623px;font-family:Lavi;-inkscape-font-specification:Lavi;stroke:#000000;stroke-width:1.408;stroke-miterlimit:4;stroke-dasharray:none;stroke-opacity:1"
         sodipodi:role="line"
         x="312.90686"
         y="227.20122"
         id="tspan334">?!!</tspan></text>
    <text
       xml:space="preserve"
       style="font-style:normal;font-variant:normal;font-weight:normal;font-stretch:normal;font-size:55.0875px;line-height:1.25;font-family:Lavi;-inkscape-font-specification:Lavi;text-align:center;letter-spacing:0px;word-spacing:0px;text-anchor:middle;fill:#000000;fill-opacity:1;stroke:none;stroke-width:1.22417"
       x="930.94958"
       y="276.07712"
       id="text4246-3-2-2-6-3-7-9-3-3-56-9-3-20-3"
       transform="scale(0.97385246,1.0268496)"><tspan
         style="font-style:normal;font-variant:normal;font-weight:normal;font-stretch:normal;font-size:55.0875px;font-family:Lavi;-inkscape-font-specification:Lavi;stroke-width:1.22417"
         sodipodi:role="line"
         x="930.94958"
         y="276.07712"
         id="tspan888">Det var <tspan
   style="font-style:normal;font-variant:normal;font-weight:bold;font-stretch:normal;font-family:Lavi;-inkscape-font-specification:'Lavi Bold'"
   id="tspan895">ho</tspan></tspan><tspan
         style="font-style:normal;font-variant:normal;font-weight:normal;font-stretch:normal;font-size:55.0875px;font-family:Lavi;-inkscape-font-specification:Lavi;stroke-width:1.22417"
         sodipodi:role="line"
         x="930.94958"
         y="344.93649"
         id="tspan893">som var målet!</tspan></text>
    <text
       xml:space="preserve"
       style="font-style:normal;font-variant:normal;font-weight:normal;font-stretch:normal;font-size:48.8015px;line-height:1.25;font-family:Lavi;-inkscape-font-specification:Lavi;text-align:center;letter-spacing:0px;word-spacing:0px;text-anchor:middle;fill:#000000;fill-opacity:1;stroke:none;stroke-width:1.08448"
       x="1825.2006"
       y="202.50026"
       id="text4246-3-2-2-6-3-7-9-3-3-56-9-3-20-3-7"><tspan
         style="font-size:48.8015px;stroke-width:1.08448"
         sodipodi:role="line"
         x="1825.2006"
         y="202.50026"
         id="tspan914">Eg annullerte</tspan><tspan
         style="font-size:48.8015px;stroke-width:1.08448"
         sodipodi:role="line"
         x="1825.2006"
         y="263.50214"
         id="tspan910">forheksinga som</tspan><tspan
         style="font-size:48.8015px;stroke-width:1.08448"
         sodipodi:role="line"
         x="1825.2006"
         y="324.504"
         id="tspan908">fekk henne</tspan><tspan
         style="font-size:48.8015px;stroke-width:1.08448"
         sodipodi:role="line"
         x="1825.2006"
         y="385.50589"
         id="tspan912">til å sjå ung ut!</tspan></text>
    <text
       xml:space="preserve"
       style="font-style:normal;font-variant:normal;font-weight:normal;font-stretch:normal;font-size:45px;line-height:1.25;font-family:Lavi;-inkscape-font-specification:Lavi;text-align:center;letter-spacing:0px;word-spacing:0px;text-anchor:middle;fill:#000000;fill-opacity:1;stroke:none"
       x="449.72302"
       y="1884.6659"
       id="text4246-3-2-2-6-3-7-9-3-3-56-9-3-20-5"><tspan
         style="font-size:45px"
         sodipodi:role="line"
         x="449.72302"
         y="1884.6659"
         id="tspan924">Eg la merke til</tspan><tspan
         style="font-size:45px"
         sodipodi:role="line"
         x="449.72302"
         y="1940.9159"
         id="tspan922">denne forheksinga di</tspan><tspan
         style="font-size:45px"
         sodipodi:role="line"
         x="449.72302"
         y="1997.1659"
         id="tspan927">med det same eg kom.</tspan></text>
    <text
       xml:space="preserve"
       style="font-style:normal;font-variant:normal;font-weight:normal;font-stretch:normal;font-size:45px;line-height:1.25;font-family:Lavi;-inkscape-font-specification:Lavi;text-align:center;letter-spacing:0px;word-spacing:0px;text-anchor:middle;fill:#000000;fill-opacity:1;stroke:none"
       x="2072.7168"
       y="1993.4916"
       id="text4246-3-2-2-6-3-7-9-3-3-56-9-3-20-5-9"><tspan
         style="font-size:45px"
         sodipodi:role="line"
         x="2072.7168"
         y="1993.4916"
         id="tspan948">Så eg gav deg ein</tspan><tspan
         style="font-size:45px"
         sodipodi:role="line"
         x="2072.7168"
         y="2049.7417"
         id="tspan940">liten lærepenge for</tspan><tspan
         style="font-size:45px"
         sodipodi:role="line"
         x="2072.7168"
         y="2105.9917"
         id="tspan938">at du tvinga Shichimi</tspan><tspan
         style="font-size:45px"
         sodipodi:role="line"
         x="2072.7168"
         y="2162.2417"
         id="tspan946">til å slåst mot meg!</tspan></text>
    <text
       xml:space="preserve"
       style="font-style:normal;font-variant:normal;font-weight:normal;font-stretch:normal;font-size:60px;line-height:1.25;font-family:Lavi;-inkscape-font-specification:Lavi;text-align:center;letter-spacing:2px;word-spacing:0px;text-anchor:middle;fill:#000000;fill-opacity:1;stroke:none;stroke-width:1.32287"
       x="414.70987"
       y="2215.2615"
       id="text4246-3-2-2-6-3-7-9-3-3-56-9-3-20-5-9-0"
       transform="scale(0.860916,1.1615535)"><tspan
         style="font-style:normal;font-variant:normal;font-weight:bold;font-stretch:normal;font-size:60px;font-family:Lavi;-inkscape-font-specification:'Lavi Bold';stroke-width:1.32287"
         sodipodi:role="line"
         x="415.70987"
         y="2215.2615"
         id="tspan992-6">UFORSKAMMA!</tspan></text>
    <text
       xml:space="preserve"
       style="font-style:normal;font-variant:normal;font-weight:normal;font-stretch:normal;font-size:58px;line-height:1.25;font-family:Lavi;-inkscape-font-specification:Lavi;text-align:center;letter-spacing:0px;word-spacing:0px;text-anchor:middle;fill:#000000;fill-opacity:1;stroke:none;stroke-width:1.30553"
       x="338.97919"
       y="2729.8735"
       id="text4246-3-2-2-6-3-7-9-3-3-56-9-3-20-5-2"><tspan
         style="font-style:normal;font-variant:normal;font-weight:normal;font-stretch:normal;font-size:58px;font-family:Lavi;-inkscape-font-specification:Lavi;stroke-width:1.30553"
         sodipodi:role="line"
         x="338.97919"
         y="2729.8735"
         id="tspan943-8">Korleis</tspan><tspan
         style="font-style:normal;font-variant:normal;font-weight:normal;font-stretch:normal;font-size:58px;font-family:Lavi;-inkscape-font-specification:Lavi;stroke-width:1.30553"
         sodipodi:role="line"
         x="338.97919"
         y="2802.3735"
         id="tspan949"><tspan
   style="font-style:normal;font-variant:normal;font-weight:normal;font-stretch:normal;font-family:Lavi;-inkscape-font-specification:Lavi"
   id="tspan950"><tspan
   style="font-style:normal;font-variant:normal;font-weight:bold;font-stretch:normal;font-family:Lavi;-inkscape-font-specification:'Lavi Bold'"
   id="tspan952">vågar</tspan> du,</tspan> </tspan><tspan
         style="font-style:normal;font-variant:normal;font-weight:normal;font-stretch:normal;font-size:58px;font-family:Lavi;-inkscape-font-specification:Lavi;stroke-width:1.30553"
         sodipodi:role="line"
         x="338.97919"
         y="2874.8735"
         id="tspan1085" /></text>
    <text
       xml:space="preserve"
       style="font-style:normal;font-variant:normal;font-weight:normal;font-stretch:normal;font-size:50px;line-height:1.25;font-family:Lavi;-inkscape-font-specification:Lavi;text-align:center;letter-spacing:0px;word-spacing:0px;text-anchor:middle;fill:#000000;fill-opacity:1;stroke:none;stroke-width:1.30553"
       x="318.56845"
       y="2926.1201"
       id="text4246-3-2-2-6-3-7-9-3-3-56-9-3-20-5-2-7"><tspan
         style="font-size:50px;stroke-width:1.30553"
         sodipodi:role="line"
         x="318.56845"
         y="2926.1201"
         id="tspan959">og framfor</tspan><tspan
         style="font-size:50px;stroke-width:1.30553"
         sodipodi:role="line"
         x="318.56845"
         y="2988.6201"
         id="tspan960">heile</tspan><tspan
         style="font-size:50px;stroke-width:1.30553"
         sodipodi:role="line"
         x="318.56845"
         y="3051.1201"
         id="tspan962">skulen min!</tspan></text>
    <text
       xml:space="preserve"
       style="font-style:normal;font-variant:normal;font-weight:normal;font-stretch:normal;font-size:45px;line-height:1.25;font-family:Lavi;-inkscape-font-specification:Lavi;text-align:center;letter-spacing:0px;word-spacing:0px;text-anchor:middle;fill:#000000;fill-opacity:1;stroke:none"
       x="2150.407"
       y="2544.0259"
       id="text4246-3-2-2-6-3-7-9-3-3-56-9-3-20-5-9-02"><tspan
         style="font-size:45px"
         sodipodi:role="line"
         x="2150.407"
         y="2544.0259"
         id="tspan1175">Pris deg</tspan><tspan
         style="font-size:45px"
         sodipodi:role="line"
         x="2150.407"
         y="2600.2759"
         id="tspan966">heller lukkeleg!</tspan></text>
    <text
       xml:space="preserve"
       style="font-style:normal;font-variant:normal;font-weight:normal;font-stretch:normal;font-size:45px;line-height:1.25;font-family:Lavi;-inkscape-font-specification:Lavi;text-align:center;letter-spacing:0px;word-spacing:0px;text-anchor:middle;fill:#000000;fill-opacity:1;stroke:none"
       x="2155.082"
       y="2720.8345"
       id="text4246-3-2-2-6-3-7-9-3-3-56-9-3-20-5-9-02-2"><tspan
         style="font-size:45px"
         sodipodi:role="line"
         x="2155.082"
         y="2720.8345"
         id="tspan982">Om eg hadde</tspan><tspan
         style="font-size:45px"
         sodipodi:role="line"
         x="2155.082"
         y="2777.0845"
         id="tspan977">all reaen min,</tspan><tspan
         style="font-size:45px"
         sodipodi:role="line"
         x="2155.082"
         y="2833.3345"
         id="tspan979">hadde det blitt</tspan><tspan
         style="font-size:45px"
         sodipodi:role="line"
         x="2155.082"
         y="2889.5845"
         id="tspan983">mykje verre.</tspan></text>
  </g>
</svg>
