<?xml version="1.0" encoding="UTF-8" standalone="no"?>
<!-- Created with Inkscape (http://www.inkscape.org/) -->

<svg
   xmlns:dc="http://purl.org/dc/elements/1.1/"
   xmlns:cc="http://creativecommons.org/ns#"
   xmlns:rdf="http://www.w3.org/1999/02/22-rdf-syntax-ns#"
   xmlns:svg="http://www.w3.org/2000/svg"
   xmlns="http://www.w3.org/2000/svg"
   xmlns:xlink="http://www.w3.org/1999/xlink"
   xmlns:sodipodi="http://sodipodi.sourceforge.net/DTD/sodipodi-0.dtd"
   xmlns:inkscape="http://www.inkscape.org/namespaces/inkscape"
   id="svg2"
   version="1.1"
   inkscape:version="0.92.1 r15371"
   width="2481"
   height="3503"
   sodipodi:docname="E31P05.svg"
   inkscape:export-filename="/home/dash/Downloads/pepper carrot EPS/ep31_The-Fight_lang-pack/lang/ph/E31P05.svg.png"
   inkscape:export-xdpi="90"
   inkscape:export-ydpi="90">
  <metadata
     id="metadata8">
    <rdf:RDF>
      <cc:Work
         rdf:about="">
        <dc:format>image/svg+xml</dc:format>
        <dc:type
           rdf:resource="http://purl.org/dc/dcmitype/StillImage" />
        <dc:title />
      </cc:Work>
    </rdf:RDF>
  </metadata>
  <defs
     id="defs6">
    <filter
       style="color-interpolation-filters:sRGB"
       id="filter4375-4-1-1-1-9-5-8-86"
       inkscape:label="Drop Shadow">
      <feFlood
         id="feFlood4377-7-9-0-8-1-7-3-2"
         flood-opacity="1"
         flood-color="rgb(162,101,216)"
         result="flood" />
      <feComposite
         id="feComposite4379-3-8-8-2-77-4-1-84"
         in2="SourceGraphic"
         in="flood"
         operator="in"
         result="composite1" />
      <feMorphology
         id="feMorphology4393-1-0-49-8-9-3-0-7"
         operator="dilate"
         radius="6.2000000000000002"
         result="result3" />
      <feComposite
         id="feComposite4385-9-5-7-0-8-8-7-24"
         in2="result3"
         in="SourceGraphic"
         operator="over"
         result="fbSourceGraphic" />
      <feColorMatrix
         result="fbSourceGraphicAlpha"
         in="fbSourceGraphic"
         values="0 0 0 -1 0 0 0 0 -1 0 0 0 0 -1 0 0 0 0 1 0"
         id="feColorMatrix4544-0" />
      <feTurbulence
         id="feTurbulence4546-62"
         type="fractalNoise"
         numOctaves="3"
         seed="37"
         baseFrequency="0.129 0.0050000000000000001"
         result="turbulence" />
      <feDisplacementMap
         id="feDisplacementMap4548-9"
         in2="turbulence"
         in="fbSourceGraphic"
         scale="6.6"
         yChannelSelector="G"
         xChannelSelector="R"
         result="fbSourceGraphic" />
      <feColorMatrix
         result="fbSourceGraphicAlpha"
         in="fbSourceGraphic"
         values="0 0 0 -1 0 0 0 0 -1 0 0 0 0 -1 0 0 0 0 1 0"
         id="feColorMatrix4670-90" />
      <feFlood
         id="feFlood4672-81"
         flood-opacity="1"
         flood-color="rgb(37,37,37)"
         result="flood"
         in="fbSourceGraphic" />
      <feComposite
         id="feComposite4674-3"
         in2="fbSourceGraphic"
         in="flood"
         operator="in"
         result="composite1" />
      <feGaussianBlur
         id="feGaussianBlur4676-1"
         in="composite1"
         stdDeviation="0"
         result="blur" />
      <feOffset
         id="feOffset4678-1"
         dx="6"
         dy="6"
         result="offset" />
      <feComposite
         id="feComposite4680-0"
         in2="offset"
         in="fbSourceGraphic"
         operator="over"
         result="composite2" />
    </filter>
    <filter
       style="color-interpolation-filters:sRGB"
       id="filter3018-9-9"
       inkscape:label="Lapping"
       inkscape:menu="Distort"
       inkscape:menu-tooltip="Something like a water noise"
       height="1.3"
       y="-0.15000001"
       width="1.3"
       x="-0.15000001">
      <feTurbulence
         id="feTurbulence3020-3-0"
         numOctaves="5"
         seed="0"
         type="fractalNoise"
         baseFrequency="0.045999999999999999"
         result="result1" />
      <feGaussianBlur
         id="feGaussianBlur3022-77-9"
         stdDeviation="2"
         result="result2" />
      <feDisplacementMap
         id="feDisplacementMap3024-6-9"
         in2="result2"
         scale="50"
         yChannelSelector="B"
         xChannelSelector="R"
         in="SourceGraphic" />
    </filter>
    <filter
       style="color-interpolation-filters:sRGB"
       id="filter3018-9-9-8"
       inkscape:label="Lapping"
       inkscape:menu="Distort"
       inkscape:menu-tooltip="Something like a water noise"
       height="1.3"
       y="-0.15000001"
       width="1.3"
       x="-0.15000001">
      <feTurbulence
         id="feTurbulence3020-3-0-7"
         numOctaves="5"
         seed="0"
         type="fractalNoise"
         baseFrequency="0.045999999999999999"
         result="result1" />
      <feGaussianBlur
         id="feGaussianBlur3022-77-9-9"
         stdDeviation="2"
         result="result2" />
      <feDisplacementMap
         id="feDisplacementMap3024-6-9-2"
         in2="result2"
         scale="50"
         yChannelSelector="B"
         xChannelSelector="R"
         in="SourceGraphic" />
    </filter>
    <filter
       style="color-interpolation-filters:sRGB"
       id="filter4375-4-1-1-15-1-3-0"
       inkscape:label="deevad outline effect">
      <feFlood
         id="feFlood4377-7-9-0-4-4-4-0"
         flood-opacity="1"
         flood-color="rgb(0,0,0)"
         result="flood" />
      <feComposite
         id="feComposite4379-3-8-8-6-0-7-3"
         in2="SourceGraphic"
         in="flood"
         operator="in"
         result="composite1" />
      <feMorphology
         id="feMorphology4393-1-0-49-8-2-7-4"
         operator="dilate"
         radius="0.90000000000000002"
         result="result3" />
      <feComposite
         id="feComposite4385-9-5-7-2-1-2-6-7"
         in2="result3"
         in="SourceGraphic"
         operator="over"
         result="composite2" />
    </filter>
    <filter
       style="color-interpolation-filters:sRGB"
       id="filter4375-4-1-1-1-9-5-8-3-8"
       inkscape:label="Drop Shadow">
      <feFlood
         id="feFlood4377-7-9-0-8-1-7-3-8-3"
         flood-opacity="1"
         flood-color="rgb(32,32,32)"
         result="flood" />
      <feComposite
         id="feComposite4379-3-8-8-2-77-4-1-8-7"
         in2="SourceGraphic"
         in="flood"
         operator="in"
         result="composite1" />
      <feMorphology
         id="feMorphology4393-1-0-49-8-9-3-0-31-8"
         operator="dilate"
         radius="6.2000000000000002"
         result="result3" />
      <feComposite
         id="feComposite4385-9-5-7-0-8-8-7-8-2"
         in2="result3"
         in="SourceGraphic"
         operator="over"
         result="fbSourceGraphic" />
      <feColorMatrix
         result="fbSourceGraphicAlpha"
         in="fbSourceGraphic"
         values="0 0 0 -1 0 0 0 0 -1 0 0 0 0 -1 0 0 0 0 1 0"
         id="feColorMatrix4544-96-1" />
      <feTurbulence
         id="feTurbulence4546-4-0"
         type="fractalNoise"
         numOctaves="3"
         seed="37"
         baseFrequency="0.129 0.0050000000000000001"
         result="turbulence" />
      <feDisplacementMap
         id="feDisplacementMap4548-3-5"
         in2="turbulence"
         in="fbSourceGraphic"
         scale="6.6"
         yChannelSelector="G"
         xChannelSelector="R"
         result="fbSourceGraphic" />
      <feColorMatrix
         result="fbSourceGraphicAlpha"
         in="fbSourceGraphic"
         values="0 0 0 -1 0 0 0 0 -1 0 0 0 0 -1 0 0 0 0 1 0"
         id="feColorMatrix4670-33-8" />
      <feFlood
         id="feFlood4672-8-5"
         flood-opacity="0.40999999999999998"
         flood-color="rgb(41,41,41)"
         result="flood"
         in="fbSourceGraphic" />
      <feComposite
         id="feComposite4674-6-5"
         in2="fbSourceGraphic"
         in="flood"
         operator="in"
         result="composite1" />
      <feGaussianBlur
         id="feGaussianBlur4676-0-0"
         in="composite1"
         stdDeviation="0"
         result="blur" />
      <feOffset
         id="feOffset4678-4-7"
         dx="6"
         dy="6"
         result="offset" />
      <feComposite
         id="feComposite4680-8-3"
         in2="offset"
         in="fbSourceGraphic"
         operator="over"
         result="composite2" />
    </filter>
  </defs>
  <sodipodi:namedview
     pagecolor="#ffffff"
     bordercolor="#666666"
     borderopacity="1"
     objecttolerance="10"
     gridtolerance="10"
     guidetolerance="10"
     inkscape:pageopacity="0"
     inkscape:pageshadow="2"
     inkscape:window-width="1920"
     inkscape:window-height="997"
     id="namedview4"
     showgrid="false"
     inkscape:zoom="0.20000001"
     inkscape:cx="599.39451"
     inkscape:cy="1707.5441"
     inkscape:window-x="0"
     inkscape:window-y="0"
     inkscape:window-maximized="1"
     inkscape:current-layer="layer1"
     inkscape:snap-global="false" />
  <g
     inkscape:groupmode="layer"
     id="layer2"
     inkscape:label="artwork"
     sodipodi:insensitive="true">
    <image
       sodipodi:absref="/home/dash/Downloads/pepper carrot EPS/ep31_The-Fight_lang-pack/lang/ph/../gfx_Pepper-and-Carrot_by-David-Revoy_E31P05.png"
       xlink:href="../gfx_Pepper-and-Carrot_by-David-Revoy_E31P05.png"
       y="0"
       x="0"
       id="image10"
       height="3503"
       width="2481" />
  </g>
  <g
     inkscape:groupmode="layer"
     id="layer3"
     inkscape:label="speechbubbles">
    <path
       style="display:inline;fill:#ffffff;stroke:none;stroke-width:1.03970242"
       d="m 407.89772,1105.9273 c 19.15847,0.7389 57.31877,21.4819 58.35014,99.6306 1.00704,76.3055 -28.85666,104.076 -62.98931,103.4585 -53.99816,-0.9768 -70.83433,-47.3876 -68.26038,-106.2682 2.65274,-60.6998 24.28905,-96.7973 72.89955,-96.8209 z"
       id="path3280-9"
       inkscape:connector-curvature="0"
       sodipodi:nodetypes="csssc" />
    <path
       style="display:inline;fill:#ffffff;stroke:none;stroke-width:0.99999994"
       d="m 707.16395,1363.9515 c -33.79908,-10.2994 -16.91483,19.5218 -17.50158,22.3602 -6.89443,22.3304 -3.33425,26.7018 9.50136,24.6078 11.90609,-1.9436 34.73003,-16.8861 34.73003,-16.8861 -38.3523,0.6425 -33.92739,-2.1736 -26.72981,-30.0819 z"
       id="path3023-0"
       inkscape:connector-curvature="0"
       sodipodi:nodetypes="ccscc"
       inkscape:transform-center-x="-2.4999999"
       inkscape:transform-center-y="41.249998" />
    <path
       style="fill:#ffffff;fill-rule:evenodd;stroke:none;stroke-width:1.32734168px;stroke-linecap:butt;stroke-linejoin:miter;stroke-opacity:1"
       d="m 2394.5196,3341.7669 -92.9164,-125.5872 -30.8687,1.338 1.4641,35.2918 c -294.8043,-247.7398 -211.079,-114.5488 2.4698,36.5433 l 19.286,3.8424 4.8216,-30.7346 z"
       id="path1111"
       inkscape:connector-curvature="0"
       sodipodi:nodetypes="cccccccc" />
    <path
       style="color:#000000;display:inline;overflow:visible;visibility:visible;fill:#ffffff;fill-opacity:1;fill-rule:nonzero;stroke:none;stroke-width:1.16129935px;marker:none;enable-background:accumulate"
       d="m 2202.2165,3062.6088 c -26.4804,-9.2659 -25.787,-50.3178 -19.2099,-64.9576 -32.4032,28.0806 -51.0977,25.6206 -51.0326,-15.7868 -59.4409,65.0085 -47.1196,9.1761 -60.1195,-2.9892 -22.6876,52.8353 -44.2832,26.8246 -66.8308,15.4318 -5.3076,62.2808 -41.0934,39.096 -70.96,39.5066 13.5427,6.3252 54.1228,34.5998 6.8078,32.5839 8.9157,0.7809 79.9135,47.3071 3.5652,102.8968 37.1496,1.2946 43.2576,22.7214 -9.3515,38.7038 55.8751,-2.4804 34.763,66.5751 14.6875,102.4875 34.9197,-16.2959 46.2953,14.4297 37.3239,45.5493 18.7218,-3.0586 30.5977,8.5622 36.3654,33.2331 13.4317,-31.2077 25.3237,-36.2557 33.3596,24.1536 4.4664,-45.1774 9.9652,-87.206 48.2011,-30.9552 2.2222,-16.5852 -30.0279,-58.7387 71.3893,-32.632 -30.8228,-31.1075 -46.766,-63.0305 24.9103,-96.2168 -33.1102,-20.7131 -47.8692,-53.4516 -3.8819,-63.9287 -17.9736,-6.2896 -23.3924,-27.2063 -22.9752,-44.5883 7.765,-6.1536 18.1545,-12.3224 31.633,-18.5631 -26.3549,-13.8142 -43.4542,-32.811 -3.8817,-63.9287 z"
       id="path3549-3-7-9"
       inkscape:connector-curvature="0"
       sodipodi:nodetypes="cccccccccccccccccccc" />
    <path
       style="color:#000000;display:inline;overflow:visible;visibility:visible;opacity:1;vector-effect:none;fill:#000000;fill-opacity:1;fill-rule:nonzero;stroke:none;stroke-width:0.89139485px;stroke-linecap:butt;stroke-linejoin:miter;stroke-miterlimit:4;stroke-dasharray:none;stroke-dashoffset:0;stroke-opacity:1;marker:none;filter:url(#filter3018-9-9);enable-background:accumulate"
       d="m 568.82556,2217.9956 c 20.35374,-58.0159 71.84002,-99.3668 204.06836,-127.8459 84.78944,-18.2616 135.87813,-13.5537 178.25372,3.7865 20.01567,8.1908 47.17519,73.4649 36.6338,132.3857 -10.54149,58.921 -61.62983,129.2861 -191.63016,151.7389 -130.00027,22.4519 -130.37727,20.4609 -151.08113,13.2133 -39.33514,-13.7704 -96.59841,-115.2625 -76.24459,-173.2785 z"
       id="path4530-1"
       inkscape:connector-curvature="0"
       sodipodi:nodetypes="zsssssz"
       transform="matrix(1.1166522,-0.10874592,0.09629405,0.93917904,-297.05103,223.44816)" />
    <path
       style="color:#000000;display:inline;overflow:visible;visibility:visible;fill:#ffffff;fill-opacity:1;fill-rule:nonzero;stroke:none;stroke-width:1.25704241px;marker:none;enable-background:accumulate"
       d="m 1509.2218,1540.7072 c 31.7708,13.7402 40.6797,35.8907 37.2741,124.0677 -1.829,47.3687 -1.0476,105.9286 -85.0881,104.2067 -69.3019,-1.4199 -80.8618,-56.6944 -82.548,-109.7609 -1.1306,-35.5692 4.4549,-91.2379 33.1464,-107.7638 34.5692,-19.9112 68.7722,-20.143 97.2156,-10.7497 z"
       id="path4546-6-5-5"
       inkscape:connector-curvature="0"
       sodipodi:nodetypes="cssssc" />
    <path
       style="color:#000000;display:inline;overflow:visible;visibility:visible;fill:#ffffff;fill-opacity:1;fill-rule:nonzero;stroke:none;stroke-width:1.15178096px;marker:none;enable-background:accumulate"
       d="m 613.70353,1106.0977 c 39.74493,2.1942 90.4635,3.3713 112.89615,29.0235 22.43405,25.6522 26.56025,79.9258 18.68261,136.3053 -4.21863,30.2 0.15005,80.1489 -22.67595,103.2953 -14.91315,15.1228 -43.15105,31.5859 -101.37551,28.7227 -58.22606,-2.8634 -95.1275,-25.2709 -109.08388,-53.2094 -13.95639,-27.9385 -13.48321,-55.9432 -12.83516,-80.3313 0.62544,-23.5474 1.30611,-41.8096 9.19275,-73.1312 7.88804,-31.3215 11.09008,-66.5055 30.96695,-75.5747 12.4428,-5.677 24.84518,-9.6012 37.21455,-12.0314 12.36958,-2.4304 24.70634,-3.3669 37.01749,-3.0688 z"
       id="path4546-6-8"
       inkscape:connector-curvature="0"
       sodipodi:nodetypes="csssssssssc" />
    <path
       style="fill:#ffffff;stroke:none;stroke-width:0.84055752"
       d="m 2046.1808,828.71711 c -1.7863,70.86011 -35.3486,92.05601 -59.3397,93.59061 -40.7564,7.7718 -82.1736,1.4242 -122.1585,-18.852 -25.861,-18.03019 -39.0993,-108.26289 -18.1541,-155.40588 21.5757,-37.02841 49.6907,-35.6575 74.8706,-44.05034 35.6639,-5.77372 72.6887,-1.41307 106.3836,29.64827 15.0377,17.0993 20.5252,56.8113 18.3981,95.06934 z"
       id="path3100-2-3"
       inkscape:connector-curvature="0" />
    <path
       style="opacity:1;fill:#ffffff;stroke:none;stroke-width:1.21832085"
       d="m 1777.4529,786.2711 c -84.9133,-3.68272 -110.3129,-72.87809 -112.1518,-122.34019 -9.3132,-84.02726 -1.7068,-169.41689 22.5907,-251.85369 6.8927,-17.00936 44.8193,-43.40683 44.8193,-43.40683 0,0 1.9175,-3.27907 -3.58,5.1075 -5.6107,8.55915 -21.459,24.18758 -13.2902,32.92984 6.9544,8.47432 27.5037,5.39418 39.5018,2.28686 40.8161,-10.57071 93.2968,-48.13322 93.2968,-48.13322 0,0 17.8202,7.93339 25.4789,13.78764 44.3719,44.48264 42.7292,102.44704 52.7864,154.36051 6.9189,73.52787 1.6934,149.86159 -35.5281,219.33045 -20.4905,31.003 -68.0783,42.31655 -113.9238,37.93113 z"
       id="path3100-2"
       inkscape:connector-curvature="0"
       sodipodi:nodetypes="ccccscsccccc" />
    <path
       style="fill:#ffffff;fill-rule:evenodd;stroke:none;stroke-width:1px;stroke-linecap:butt;stroke-linejoin:miter;stroke-opacity:1"
       d="m 470.20434,937.0219 c -1.30092,19.455 -16.91203,55.122 -40.32881,61.607 -23.41667,6.485 -88.46306,6.485 -101.47236,3.242 -13.00932,-3.242 -33.82412,-27.02 -39.02792,-36.748 -5.2037,-9.727 -19.5139,-44.313 3.9027,-58.364 23.4168,-14.05101 46.8335,-24.859 71.55119,-23.778 24.7177,1.081 74.15297,8.64699 85.86124,21.616 11.7084,12.97 19.51396,32.425 19.51396,32.425 z"
       id="path1355"
       inkscape:connector-curvature="0" />
    <path
       style="display:inline;fill:#ffffff;fill-opacity:1;fill-rule:evenodd;stroke:none;stroke-width:1px;stroke-linecap:butt;stroke-linejoin:miter;stroke-opacity:1"
       d="m 94.626144,1930.8268 2.131968,119.7971 c 16.626358,9.4264 52.381138,32.2807 27.394228,59.1906 44.7032,-30.512 69.18377,-28.1575 42.62207,5.4721 31.58553,-28.9239 71.87987,-49.9947 57.12277,-16.7662 11.33998,-20.8712 73.0613,-39.2613 64.2175,-13.7209 35.60728,-29.9149 61.56903,-2.5326 68.23493,21.9544 25.35251,-39.2139 49.07895,-32.9302 74.43136,-33.1676 4.3067,3.798 13.02238,7.2039 24.262,14.8024 0.88518,-7.436 18.46268,-13.6692 30.90205,-7.43 l 1.42131,-151.5532 z"
       id="path4508-2"
       inkscape:connector-curvature="0"
       sodipodi:nodetypes="cccccccccccc" />
    <path
       style="color:#000000;display:inline;overflow:visible;visibility:visible;fill:#000000;fill-opacity:1;fill-rule:nonzero;stroke:none;stroke-width:1.25845337px;marker:none;filter:url(#filter3018-9-9);enable-background:accumulate"
       d="m 242.72907,238.4265 c 0,-43.16665 41.77313,-75.34884 127.54615,-85.0916 88.07104,-10.00379 249.70116,-15.35559 288.45226,4.24531 38.751,19.601 30.81374,42.98675 32.80104,82.18855 1.9872,39.2018 -70.66992,79.95433 -157.5944,97.0713 -119.00792,23.43477 -209.10789,37.33253 -256.80149,23.33183 -47.6936,-14.0007 -30.42906,-74.14319 -34.40356,-121.74539 z"
       id="path3986-45"
       inkscape:connector-curvature="0"
       sodipodi:nodetypes="csssssc"
       transform="matrix(0.76931211,0.08232987,-0.06789223,0.68352218,-56.104771,2551.2388)" />
    <path
       style="color:#000000;display:inline;overflow:visible;visibility:visible;fill:#000000;fill-opacity:1;fill-rule:nonzero;stroke:none;stroke-width:1px;marker:none;enable-background:accumulate"
       d="m 320.34575,2699.3541 c -2.27872,-20.874 -3.1096,-48.2508 0.63297,-52.729 -6.80567,3.2268 -13.4802,4.9539 -18.65609,6.3868 -2.83396,-10.1632 1.92623,-43.7544 4.0453,-62.8087 -16.41704,28.2374 -22.60454,68.6381 -20.56814,84.8808 6.11684,-4.712 12.11193,-7.3796 15.92818,-7.7049 5.13961,6.9238 -0.99272,36.3236 -1.50894,36.5333 z"
       id="path5066-6-2"
       inkscape:connector-curvature="0"
       sodipodi:nodetypes="cccccccc" />
    <path
       style="display:inline;opacity:1;vector-effect:none;fill:#000000;fill-opacity:1;stroke:none;stroke-width:0.99999994;stroke-linecap:butt;stroke-linejoin:miter;stroke-miterlimit:4;stroke-dasharray:none;stroke-dashoffset:0;stroke-opacity:1"
       d="m 738.50838,2535.2565 c -48.6175,-23.276 -83.2149,-109.492 -49.7683,-157.706 19.7334,-28.446 29.6777,-45.463 29.6777,-45.463 l -35.9455,-11.844 c -83.024,107.754 -0.6527,193.212 56.0361,215.013 z"
       id="path3063-1-0"
       inkscape:connector-curvature="0"
       sodipodi:nodetypes="csccc" />
    <path
       style="fill:none;fill-rule:evenodd;stroke:none;stroke-width:1px;stroke-linecap:butt;stroke-linejoin:miter;stroke-opacity:1"
       d="m 1229.6739,2517.2391 c 52.5,-95 140.1801,-194.321 260.0423,-201.3276 69.5344,-4.0647 215.7486,1.3167 289.9577,158.8276 57.9405,122.9803 48.8135,180.5223 25.1694,276.5394"
       id="path1304"
       inkscape:connector-curvature="0"
       sodipodi:nodetypes="cssc" />
  </g>
  <g
     inkscape:groupmode="layer"
     id="layer1"
     inkscape:label="txt">
    <text
       xml:space="preserve"
       style="font-style:normal;font-variant:normal;font-weight:normal;font-stretch:normal;line-height:0%;font-family:Lavi;-inkscape-font-specification:Lavi;text-align:center;letter-spacing:0px;word-spacing:0px;text-anchor:middle;fill:#000000;fill-opacity:1;stroke:none"
       x="378.7392"
       y="960.86554"
       id="text4246-3-7-7-6-7-2-9-6-1-4"><tspan
         sodipodi:role="line"
         style="font-size:45px;line-height:1.20000005"
         x="378.7392"
         y="960.86554"
         id="tspan1183-0">Pfft...</tspan></text>
    <text
       xml:space="preserve"
       style="font-style:normal;font-variant:normal;font-weight:normal;font-stretch:normal;line-height:0%;font-family:Lavi;-inkscape-font-specification:Lavi;text-align:center;letter-spacing:0px;word-spacing:0px;text-anchor:middle;fill:#000000;fill-opacity:1;stroke:none"
       x="1795.9991"
       y="461.33011"
       id="text4246-3-7-7-6-7-2-9-6-1"><tspan
         sodipodi:role="line"
         style="font-size:40px;line-height:1.20000005"
         x="1803.0304"
         y="461.33011"
         id="tspan1050">Magtatago </tspan><tspan
         sodipodi:role="line"
         style="font-size:40px;line-height:1.20000005"
         x="1795.9991"
         y="509.33011"
         id="tspan4603">ka sa</tspan><tspan
         sodipodi:role="line"
         style="font-size:40px;line-height:1.20000005"
         x="1795.9991"
         y="557.33008"
         id="tspan856"><tspan
           style="font-style:normal;font-variant:normal;font-weight:bold;font-stretch:normal;font-family:Lavi;-inkscape-font-specification:'Lavi Bold'"
           id="tspan932">micro-</tspan></tspan><tspan
         sodipodi:role="line"
         style="font-size:40px;line-height:1.20000005"
         x="1795.9991"
         y="605.33008"
         id="tspan4605"><tspan
           style="font-style:normal;font-variant:normal;font-weight:bold;font-stretch:normal;font-family:Lavi;-inkscape-font-specification:'Lavi Bold'"
           id="tspan4607">dimension?</tspan></tspan><tspan
         sodipodi:role="line"
         style="font-size:40px;line-height:1.20000005"
         x="1803.0304"
         y="653.33008"
         id="tspan860">Sa edad </tspan><tspan
         sodipodi:role="line"
         style="font-size:40px;line-height:1.20000005"
         x="1795.9991"
         y="701.33008"
         id="tspan4609">mong yan</tspan><tspan
         sodipodi:role="line"
         style="font-size:40px;line-height:1.20000005"
         x="1795.9991"
         y="749.33008"
         id="tspan4611">?</tspan></text>
    <text
       xml:space="preserve"
       style="font-style:normal;font-variant:normal;font-weight:normal;font-stretch:normal;line-height:0%;font-family:Lavi;-inkscape-font-specification:Lavi;text-align:center;letter-spacing:0px;word-spacing:0px;text-anchor:middle;fill:#000000;fill-opacity:1;stroke:none"
       x="1944.2372"
       y="804.21826"
       id="text4246-3-7-7-6-7-2-9-6-1-3"><tspan
         sodipodi:role="line"
         style="font-size:40px;line-height:1.20000005"
         x="1951.2684"
         y="804.21826"
         id="tspan891">Kawawang </tspan><tspan
         sodipodi:role="line"
         style="font-size:40px;line-height:1.20000005"
         x="1944.2372"
         y="852.21826"
         id="tspan4593">bata...</tspan></text>
    <text
       xml:space="preserve"
       style="font-style:normal;font-variant:normal;font-weight:normal;font-stretch:normal;line-height:0%;font-family:Lavi;-inkscape-font-specification:Lavi;text-align:center;letter-spacing:0px;word-spacing:0px;text-anchor:middle;fill:#000000;fill-opacity:1;stroke:#000000;stroke-width:0.1;stroke-miterlimit:4;stroke-dasharray:none;stroke-opacity:1"
       x="396.50012"
       y="1225.3802"
       id="text4246-3-2-9"><tspan
         sodipodi:role="line"
         style="font-style:italic;font-variant:normal;font-weight:normal;font-stretch:normal;font-size:45px;line-height:1.25;font-family:Lavi;-inkscape-font-specification:'Lavi Italic';stroke:#000000;stroke-width:0.1;stroke-miterlimit:4;stroke-dasharray:none;stroke-opacity:1"
         x="396.50012"
         y="1225.3802"
         id="tspan4259-0">Mali!</tspan></text>
    <text
       xml:space="preserve"
       style="font-style:normal;font-variant:normal;font-weight:normal;font-stretch:normal;font-size:13.70881462px;line-height:0%;font-family:Lavi;-inkscape-font-specification:Lavi;text-align:center;letter-spacing:0px;word-spacing:0px;text-anchor:middle;fill:#000000;fill-opacity:1;stroke:none;stroke-width:1"
       x="726.53235"
       y="1250.4086"
       id="text4246-8-34"
       transform="skewX(-4.4463202)"><tspan
         sodipodi:role="line"
         style="font-style:normal;font-variant:normal;font-weight:bold;font-stretch:normal;font-size:51.40805435px;line-height:1.20000005;font-family:Lavi;-inkscape-font-specification:'Lavi Bold';stroke-width:0.87534922"
         x="735.56891"
         y="1250.4086"
         id="tspan4252-0-4">wormhole </tspan><tspan
         sodipodi:role="line"
         style="font-style:normal;font-variant:normal;font-weight:bold;font-stretch:normal;font-size:51.40805435px;line-height:1.20000005;font-family:Lavi;-inkscape-font-specification:'Lavi Bold';stroke-width:0.87534922"
         x="726.53235"
         y="1312.0983"
         id="tspan4595">po 'to!</tspan></text>
    <text
       xml:space="preserve"
       style="font-style:normal;font-variant:normal;font-weight:normal;font-stretch:normal;line-height:0%;font-family:Lavi;-inkscape-font-specification:Lavi;letter-spacing:0px;word-spacing:0px;display:inline;fill:#ffffff;fill-opacity:1;stroke:none;stroke-width:1.92738175;stroke-miterlimit:4;stroke-dasharray:none;stroke-opacity:1;filter:url(#filter4375-4-1-1-1-9-5-8-86)"
       x="787.65729"
       y="1584.5073"
       id="text4580-6-0-34"
       transform="matrix(0.35442438,-0.18307708,-0.04197362,0.52947523,476.03199,816.58849)"><tspan
         sodipodi:role="line"
         id="tspan4582-1-1-03"
         x="787.65729"
         y="1584.5073"
         style="font-size:70px;line-height:1.25;fill:#ffffff;fill-opacity:1;stroke:none;stroke-width:1.92738175;stroke-opacity:1"><tspan
           style="font-size:93.14950562px;fill:#ffffff;fill-opacity:1;stroke:none;stroke-width:1.92738175;stroke-opacity:1"
           id="tspan4315-8-91">Bzz!</tspan><tspan
           style="font-size:114.73223114px;fill:#ffffff;fill-opacity:1;stroke:none;stroke-width:1.92738175;stroke-opacity:1"
           id="tspan4313-2-96">!</tspan></tspan></text>
    <text
       xml:space="preserve"
       style="font-style:normal;font-variant:normal;font-weight:normal;font-stretch:normal;font-size:9.76105022px;line-height:0%;font-family:Lavi;-inkscape-font-specification:Lavi;text-align:center;letter-spacing:0px;word-spacing:0px;text-anchor:middle;fill:#000000;fill-opacity:1;stroke:none;stroke-width:1"
       x="1462.1276"
       y="1635.3135"
       id="text4246-3-7-7-6-7-2-9-6-1-3-1"><tspan
         sodipodi:role="line"
         style="font-size:32.53683472px;line-height:1.20000005;stroke-width:1"
         x="1462.1276"
         y="1635.3135"
         id="tspan964">Thanks for</tspan><tspan
         sodipodi:role="line"
         style="font-size:32.53683472px;line-height:1.20000005;stroke-width:1"
         x="1462.1276"
         y="1674.3577"
         id="tspan137">the help,</tspan><tspan
         sodipodi:role="line"
         style="font-size:32.53683472px;line-height:1.20000005;stroke-width:1"
         x="1467.8469"
         y="1713.4019"
         id="tspan139">Carrot! </tspan></text>
    <text
       xml:space="preserve"
       style="font-style:normal;font-variant:normal;font-weight:normal;font-stretch:normal;font-size:11.28606033px;line-height:0%;font-family:Lavi;-inkscape-font-specification:Lavi;text-align:center;letter-spacing:0px;word-spacing:0px;text-anchor:middle;fill:#000000;fill-opacity:1;stroke:none;stroke-width:1"
       x="607.36902"
       y="1993.876"
       id="text4246-8-34-3"
       transform="skewX(-8.884909)"><tspan
         sodipodi:role="line"
         style="font-style:normal;font-variant:normal;font-weight:bold;font-stretch:normal;font-size:42.3227272px;line-height:1.20000005;font-family:Lavi;-inkscape-font-specification:'Lavi Bold';fill:#000000;stroke-width:0.87534922"
         x="607.36902"
         y="1993.876"
         id="tspan4252-0-4-6">Checkmate,</tspan><tspan
         sodipodi:role="line"
         style="font-style:normal;font-variant:normal;font-weight:bold;font-stretch:normal;font-size:42.3227272px;line-height:1.20000005;font-family:Lavi;-inkscape-font-specification:'Lavi Bold';fill:#000000;stroke-width:0.87534922"
         x="607.36902"
         y="2044.6632"
         id="tspan1119">master Cayenne!</tspan></text>
    <text
       xml:space="preserve"
       style="font-style:normal;font-variant:normal;font-weight:normal;font-stretch:normal;font-size:16.7240696px;line-height:0%;font-family:'Drukaatie burti';-inkscape-font-specification:'Drukaatie burti';text-align:center;letter-spacing:0px;word-spacing:0px;text-anchor:middle;opacity:1;fill:#ffffff;fill-opacity:1;stroke:none;stroke-width:1;"
       x="846.76416"
       y="2777.3665"
       id="text4180"
       transform="matrix(0.998301,0,-0.20061783,1.0017019,0,0)"><tspan
         sodipodi:role="line"
         id="tspan4182"
         x="846.76416"
         y="2777.3665"
         style="font-style:normal;font-variant:normal;font-weight:normal;font-stretch:normal;font-size:70.30622864px;line-height:1.25;font-family:'Drukaatie burti';-inkscape-font-specification:'Drukaatie burti';stroke-width:1;">GURGES...</tspan></text>
    <text
       xml:space="preserve"
       style="font-style:normal;font-variant:normal;font-weight:normal;font-stretch:normal;font-size:24.98176384px;line-height:0%;font-family:'Drukaatie burti';-inkscape-font-specification:'Drukaatie burti';text-align:center;letter-spacing:0px;word-spacing:0px;text-anchor:middle;opacity:1;fill:#ffffff;fill-opacity:1;stroke:none;stroke-width:1;"
       x="846.401"
       y="2444.5032"
       id="text4180-6"
       transform="matrix(0.96407587,-0.32145084,-0.00953047,1.0404405,0,0)"
       inkscape:transform-center-x="-0.033241186"
       inkscape:transform-center-y="-6.3784822"><tspan
         sodipodi:role="line"
         id="tspan4182-1"
         x="846.401"
         y="2444.5032"
         style="font-style:normal;font-variant:normal;font-weight:normal;font-stretch:normal;font-size:105.02070618px;line-height:1.25;font-family:'Drukaatie burti';-inkscape-font-specification:'Drukaatie burti';stroke-width:1;">...ATER!</tspan><tspan
         sodipodi:role="line"
         x="846.401"
         y="2489.8416"
         style="font-style:normal;font-variant:normal;font-weight:normal;font-stretch:normal;font-size:105.02070618px;line-height:1.25;font-family:'Drukaatie burti';-inkscape-font-specification:'Drukaatie burti';stroke-width:1;"
         id="tspan1187" /></text>
    <text
       xml:space="preserve"
       style="color:#000000;font-style:normal;font-variant:normal;font-weight:normal;font-stretch:normal;font-size:59.04512405px;line-height:0.01%;font-family:Lavi;-inkscape-font-specification:'Lavi, Normal';font-variant-ligatures:normal;font-variant-caps:normal;font-variant-numeric:normal;font-feature-settings:normal;text-align:start;letter-spacing:0.01008532px;word-spacing:0px;writing-mode:lr-tb;text-anchor:start;display:inline;overflow:visible;visibility:visible;opacity:0.6;fill:#ffffff;fill-opacity:1;fill-rule:nonzero;stroke:#ffffff;stroke-width:2.65056729;stroke-linecap:butt;stroke-linejoin:miter;stroke-miterlimit:4;stroke-dasharray:none;stroke-dashoffset:0;stroke-opacity:1;marker:none;filter:url(#filter4375-4-1-1-15-1-3-0);enable-background:accumulate"
       id="text1702-6"
       x="-15"
       y="-10"
       transform="matrix(0.98154839,0,-0.00560868,1,25.472084,-13.109641)"><textPath
         xlink:href="#path1304"
         id="textPath1306"
         style="font-style:italic;font-variant:normal;font-weight:normal;font-stretch:normal;font-size:66.66666412px;font-family:Lavi;-inkscape-font-specification:'Lavi Italic';letter-spacing:8px;stroke:#ffffff;stroke-width:2.65056729;stroke-miterlimit:4;stroke-dasharray:none;stroke-opacity:1">Swwwwwwiiiiiiiipppp!!!</textPath></text>
    <text
       xml:space="preserve"
       style="font-style:normal;font-variant:normal;font-weight:normal;font-stretch:normal;line-height:0%;font-family:Lavi;-inkscape-font-specification:Lavi;letter-spacing:0px;word-spacing:0px;display:inline;fill:#637cab;fill-opacity:1;stroke:#000000;stroke-width:0.52220279;stroke-miterlimit:4;stroke-dasharray:none;stroke-opacity:1;filter:url(#filter4375-4-1-1-1-9-5-8-3-8);"
       x="787.65729"
       y="1584.5073"
       id="text4580-6-0-8-8"
       transform="matrix(0.90992457,1.0129518,-0.51490843,2.121195,1764.206,-2002.3113)"><tspan
         sodipodi:role="line"
         id="tspan4582-1-1-8-2"
         x="787.65729"
         y="1584.5073"
         style="font-style:normal;font-variant:normal;font-weight:bold;font-stretch:normal;font-size:70px;line-height:1.25;font-family:'Noto Sans';-inkscape-font-specification:'Noto Sans Bold';letter-spacing:5.87610865px;fill:#637cab;fill-opacity:1;stroke:#000000;stroke-width:0.52220279;stroke-opacity:1;"><tspan
           style="font-style:normal;font-variant:normal;font-weight:bold;font-stretch:normal;font-size:93.14950562px;font-family:'Noto Sans';-inkscape-font-specification:'Noto Sans Bold';letter-spacing:5.87610865px;fill:#637cab;fill-opacity:1;stroke:#000000;stroke-width:0.52220279;stroke-opacity:1;"
           id="tspan4315-8-97-3"
           dy="0 0 0"><tspan
   style="font-style:normal;font-variant:normal;font-weight:bold;font-stretch:normal;font-size:105.35726166px;font-family:'Noto Sans';-inkscape-font-specification:'Noto Sans Bold';stroke-width:0.52220279;fill:#637cab;fill-opacity:1;"
   id="tspan1359">V</tspan><tspan
   style="font-style:normal;font-variant:normal;font-weight:bold;font-stretch:normal;font-size:96.63743591px;font-family:'Noto Sans';-inkscape-font-specification:'Noto Sans Bold';stroke-width:0.52220279;fill:#637cab;fill-opacity:1;"
   id="tspan1361">R</tspan><tspan
   style="font-style:normal;font-variant:normal;font-weight:bold;font-stretch:normal;font-size:87.91761017px;font-family:'Noto Sans';-inkscape-font-specification:'Noto Sans Bold';stroke-width:0.52220279;fill:#637cab;fill-opacity:1;"
   id="tspan1363">O</tspan><tspan
   id="tspan1369"
   style="font-style:normal;font-variant:normal;font-weight:bold;font-stretch:normal;font-size:79.19777679px;font-family:'Noto Sans';-inkscape-font-specification:'Noto Sans Bold';stroke-width:0.52220279;fill:#637cab;fill-opacity:1;">OM</tspan>!</tspan><tspan
           style="font-style:normal;font-variant:normal;font-weight:bold;font-stretch:normal;font-size:114.73223114px;font-family:'Noto Sans';-inkscape-font-specification:'Noto Sans Bold';letter-spacing:5.87610865px;fill:#637cab;fill-opacity:1;stroke:#000000;stroke-width:0.52220279;stroke-opacity:1;"
           id="tspan4313-2-76-0">!!</tspan></tspan></text>
    <text
       xml:space="preserve"
       style="font-style:normal;font-variant:normal;font-weight:normal;font-stretch:normal;font-size:16.27687073px;line-height:0%;font-family:Lavi;-inkscape-font-specification:Lavi;text-align:center;letter-spacing:0px;word-spacing:0px;text-anchor:middle;fill:#800000;fill-opacity:1;stroke:#800000;stroke-width:1.92824221;"
       x="2788.77"
       y="3056.0671"
       id="text4246-1-44"
       transform="matrix(0.96784555,0,-0.20410544,1.0332227,0,0)"><tspan
         sodipodi:role="line"
         style="font-style:normal;font-variant:normal;font-weight:bold;font-stretch:normal;font-size:80.57958221px;line-height:1;font-family:Lavi;-inkscape-font-specification:'Lavi Bold';stroke-width:1.92824221;stroke:#800000;fill:#800000;"
         x="2802.9343"
         y="3056.0671"
         id="tspan1013-76">TIGIL </tspan><tspan
         sodipodi:role="line"
         style="font-style:normal;font-variant:normal;font-weight:bold;font-stretch:normal;font-size:80.57958221px;line-height:1;font-family:Lavi;-inkscape-font-specification:'Lavi Bold';stroke-width:1.92824221;stroke:#800000;fill:#800000;"
         x="2788.77"
         y="3136.6467"
         id="tspan4597">NA!!!</tspan></text>
  </g>
</svg>
