<?xml version="1.0" encoding="UTF-8" standalone="no"?>
<!-- Created with Inkscape (http://www.inkscape.org/) -->

<svg
   xmlns:dc="http://purl.org/dc/elements/1.1/"
   xmlns:cc="http://creativecommons.org/ns#"
   xmlns:rdf="http://www.w3.org/1999/02/22-rdf-syntax-ns#"
   xmlns:svg="http://www.w3.org/2000/svg"
   xmlns="http://www.w3.org/2000/svg"
   xmlns:xlink="http://www.w3.org/1999/xlink"
   xmlns:sodipodi="http://sodipodi.sourceforge.net/DTD/sodipodi-0.dtd"
   xmlns:inkscape="http://www.inkscape.org/namespaces/inkscape"
   id="svg2"
   version="1.1"
   inkscape:version="0.92.2 (5c3e80d, 2017-08-06)"
   width="2481"
   height="3503"
   sodipodi:docname="E19P01.svg">
  <metadata
     id="metadata8">
    <rdf:RDF>
      <cc:Work
         rdf:about="">
        <dc:format>image/svg+xml</dc:format>
        <dc:type
           rdf:resource="http://purl.org/dc/dcmitype/StillImage" />
        <dc:title />
      </cc:Work>
    </rdf:RDF>
  </metadata>
  <defs
     id="defs6" />
  <sodipodi:namedview
     pagecolor="#ffffff"
     bordercolor="#666666"
     borderopacity="1"
     objecttolerance="10"
     gridtolerance="10"
     guidetolerance="10"
     inkscape:pageopacity="0"
     inkscape:pageshadow="2"
     inkscape:window-width="1299"
     inkscape:window-height="713"
     id="namedview4"
     showgrid="false"
     inkscape:zoom="0.37220282"
     inkscape:cx="1499.3012"
     inkscape:cy="704.37118"
     inkscape:window-x="67"
     inkscape:window-y="27"
     inkscape:window-maximized="1"
     inkscape:current-layer="layer3"
     showguides="false" />
  <g
     inkscape:groupmode="layer"
     id="layer2"
     inkscape:label="artwork"
     sodipodi:insensitive="true">
    <image
       sodipodi:absref="/home/emmiline/Documents/git/webcomics/ep19_Pollution/lang/da/../gfx_Pepper-and-Carrot_by-David-Revoy_E19P01.png"
       xlink:href="../gfx_Pepper-and-Carrot_by-David-Revoy_E19P01.png"
       width="2481"
       height="3503"
       id="image10"
       x="0"
       y="0" />
  </g>
  <g
     inkscape:groupmode="layer"
     id="layer3"
     inkscape:label="speechbubbles">
    <path
       style="color:#000000;display:inline;overflow:visible;visibility:visible;fill:#ffffff;fill-opacity:1;fill-rule:nonzero;stroke:none;stroke-width:1.05630493px;marker:none;enable-background:accumulate"
       d="m 1012.1212,1936.5674 c -4.4775,-29.8516 30.5978,-65.8653 157.5831,-57.9056 126.9858,7.9598 151.9666,21.984 155.7173,60.2936 1.5549,15.8826 -32.2667,40.5945 -51.0023,44.5744 -18.7357,3.9798 -96.4061,4.5754 -127.6322,1.3916 -31.2258,-3.1839 -98.2356,-10.1473 -116.9712,-24.4749 -18.7358,-14.3274 -15.6129,-20.6952 -17.6947,-23.8791 z"
       id="path3365"
       inkscape:connector-curvature="0"
       sodipodi:nodetypes="csssssc" />
    <path
       style="color:#000000;display:inline;overflow:visible;visibility:visible;fill:#ffffff;fill-opacity:1;fill-rule:nonzero;stroke:none;stroke-width:1.03024399px;marker:none;enable-background:accumulate"
       d="m 1369.5975,2079.5776 c -11.1109,54.0667 -61.3935,78.2371 -103.1197,92.8985 -77.8726,23.2222 -159.4774,11.5665 -237.9348,-0.9669 -40.70563,-8.9095 -82.63553,-47.3197 -78.37941,-99.1832 4.11334,-46.4894 43.57546,-76.7852 81.61091,-81.1038 55.7591,-15.0719 113.9104,-22.414 170.6046,-9.5916 48.6814,7.3208 100.8176,9.3053 144.1765,38.2204 14.49,15.2781 20.0573,38.1542 23.0419,59.7266 z"
       id="path3365-3"
       inkscape:connector-curvature="0" />
    <path
       style="fill:#ffffff;stroke:none;stroke-width:1.05490482"
       d="m 1003.7616,2315.7207 c 5.8758,-70.5163 58.0841,-134.13 125.4547,-143.952 82.5948,-20.9594 170.3963,-18.3429 252.8191,1.7398 53.8979,16.6121 82.8711,35.8084 124.7456,83.4916 27.7683,34.9717 43.1745,144.9163 -1.8017,179.2168 -46.8208,50.1474 -172.2808,61.2571 -235.7571,59.8864 -91.3633,2.0638 -183.1519,-10.1229 -228.2716,-51.8904 -42.18925,-40.0728 -42.93549,-76.2913 -37.189,-128.4922 z"
       id="path3065"
       inkscape:connector-curvature="0"
       sodipodi:nodetypes="cccccccc" />
    <path
       style="display:inline;fill:#ffffff;stroke:none"
       d="m 1642.9487,2316.2979 c -21.9558,36.2988 -64.6442,61.9501 -96.7367,35.7869 -19.4449,-15.8524 -29.1134,-28.291 -29.1134,-28.291 l -6.3679,30.9322 20.7854,19.5483 c 0,0 65.508,31.9103 111.4326,-57.9764 z"
       id="path3063-1"
       inkscape:connector-curvature="0"
       sodipodi:nodetypes="cscccc" />
    <path
       style="color:#000000;display:inline;overflow:visible;visibility:visible;fill:#ffffff;fill-opacity:1;fill-rule:nonzero;stroke:none;stroke-width:1.03835285px;marker:none;enable-background:accumulate"
       d="m 1899.5984,2313.0026 c 23.2051,-15.1792 114.5821,-28.2188 205.845,-26.6265 91.2628,1.5924 178.7319,9.9291 232.2029,47.3665 78.7803,55.1574 42.8974,181.2692 2.0945,202.4906 -29.5715,15.3801 -118.0775,29.1795 -202.8478,30.7313 -84.77,1.552 -165.8041,-9.1436 -205.395,-23.0421 -34.1681,-11.9949 -83.9497,-44.6366 -88.0144,-123.5817 -1.6588,-32.2209 9.705,-76.9792 56.1148,-107.3381 z"
       id="path4040"
       inkscape:connector-curvature="0"
       sodipodi:nodetypes="ssssssss" />
    <path
       style="color:#000000;display:inline;overflow:visible;visibility:visible;fill:#ffffff;fill-opacity:1;fill-rule:nonzero;stroke:none;stroke-width:1px;marker:none;enable-background:accumulate"
       d="m 2091.5868,2309.6031 c -12.6779,-33.6245 -30.9699,-60.7293 -65.977,-55.676 52.3023,-18.546 92.9308,35.3617 103.6224,53.2726 10.6914,17.9109 -37.6454,2.4034 -37.6454,2.4034 z"
       id="path5010"
       inkscape:connector-curvature="0" />
    <path
       style="color:#000000;display:inline;overflow:visible;visibility:visible;fill:#ffffff;fill-opacity:1;fill-rule:nonzero;stroke:none;stroke-width:1px;marker:none;enable-background:accumulate"
       d="m 589.19653,2726.3612 c -1.22698,-26.3558 12.3258,-45.2414 63.85643,-62.4534 51.53087,-17.2119 124.66319,-9.0026 143.85163,-8.4347 90.04631,2.665 120.21817,11.5648 138.62194,30.9284 18.40389,19.3634 23.10564,15.1087 22.45523,48.6465 -0.58229,30.0255 -5.78422,44.1361 -27.8688,50.5905 -22.0847,6.4545 -191.74536,13.8487 -217.86599,13.5611 -25.57408,-0.2816 -58.13545,-3.5096 -83.49079,-14.0823 -23.93605,-9.9808 -38.33275,-32.4002 -39.55965,-58.7561 z"
       id="path3373"
       inkscape:connector-curvature="0"
       sodipodi:nodetypes="zsssssssz" />
    <path
       style="color:#000000;display:inline;overflow:visible;visibility:visible;fill:#ffffff;fill-opacity:1;fill-rule:nonzero;stroke:none;stroke-width:1.01739657px;marker:none;enable-background:accumulate"
       d="m 673.88978,2863.2167 c 9.7019,-68.447 82.2127,-107.7189 292.95385,-111.8075 55.11787,-1.0693 142.03767,17.4372 185.32147,33.397 43.284,15.9598 75.1756,76.0534 68.7078,126.2086 -12.9359,100.3103 -148.1003,83.591 -185.2911,84.7711 -37.19071,1.1803 -306.33085,22.2443 -349.60891,-38.5274 -32.48609,-45.6174 -13.70007,-72.7995 -12.08311,-94.0418 z"
       id="path4546"
       inkscape:connector-curvature="0"
       sodipodi:nodetypes="csssssc" />
    <path
       style="color:#000000;display:inline;overflow:visible;visibility:visible;fill:#ffffff;fill-opacity:1;fill-rule:nonzero;stroke:none;stroke-width:1.1445241px;marker:none;enable-background:accumulate"
       d="m 863.27507,2990.9708 c 33.64639,-47.9362 216.65213,-43.844 277.54173,-23.0757 60.8892,20.768 87.2119,26.4117 86.3777,69.2272 -0.781,40.0842 -20.4169,77.5425 -51.5696,89.0805 -31.1527,11.5378 -104.1935,11.299 -135.3463,11.299 -31.1525,0 -130.59862,-7.3439 -155.76331,-24.2296 -24.07253,-16.153 -54.88674,-74.3654 -21.24022,-122.3014 z"
       id="path3330"
       inkscape:connector-curvature="0"
       sodipodi:nodetypes="zsssssz" />
    <path
       style="color:#000000;display:inline;overflow:visible;visibility:visible;fill:#ffffff;fill-opacity:1;fill-rule:nonzero;stroke:none;stroke-width:1px;marker:none;enable-background:accumulate"
       d="m 933.09499,3160.516 c 39.78505,-10.9584 53.20162,-17.1208 58.43434,-65.1641 5.23266,-48.0433 23.16177,-44.6696 23.16177,-44.6696 l 14.7504,30.3838 c 0,0 -18.3423,101.2684 -96.34651,79.4499 z"
       id="path3072"
       inkscape:connector-curvature="0" />
    <path
       style="fill:#ffffff;fill-rule:evenodd;stroke:none;stroke-width:1.05042315px;stroke-linecap:butt;stroke-linejoin:miter;stroke-opacity:1"
       d="m 1881.3175,3239.5273 c 29.1182,2.1524 67.0404,-8.5621 43.4995,-40.9681 42.3678,25.9662 82.5026,30.83 124.7554,2.4031 -6.1766,28.6978 62.91,30.9119 86.5823,11.9225 -7.2228,29.906 25.9896,31.0596 53.7426,32.0091 -58.7087,36.5615 -27.8802,48.1891 -4.747,61.9598 -57.6965,-10.1884 -43.7425,10.4551 -50.6338,22.1285 -49.4949,-26.449 -85.4893,-20.1718 -113.926,4.4257 -14.8726,-13.3768 -19.5408,-41.0242 -74.3682,1.4752 20.1614,-36.6892 -6.2655,-32.8382 -49.0514,-14.7522 9.8438,-8.4337 51.2755,-30.9658 -15.8534,-28.9705 10.4825,-2.97 18.894,-6.2033 24.8222,-9.7524 5.9282,-3.5491 -32.1913,-13.0242 -31.6417,-17.2571 0.5495,-4.2329 39.7681,-3.2235 34.1147,-8.2451 -5.6535,-5.0215 -14.6145,-10.4635 -27.2952,-16.3785 z"
       id="path4584"
       inkscape:connector-curvature="0"
       sodipodi:nodetypes="cccccccccccsssc" />
    <path
       style="color:#000000;display:inline;overflow:visible;visibility:visible;fill:#ffffff;fill-opacity:1;fill-rule:nonzero;stroke:none;stroke-width:1px;marker:none;enable-background:accumulate"
       d="m 1929.0839,3276.1051 c -26.7744,0.1934 -96.6935,-12.0611 -103.8888,-13.0148 6.0705,-5.4371 10.1298,-10.8932 13.4021,-15.1162 -13.7156,-0.9263 -59.5001,-2.596 -79.7676,1.5975 50.7453,-11.4228 73.8083,-12.6417 95.8809,-9.8645 -2.9601,5.998 -5.8701,9.4267 -7.3188,12.6033 18.7307,6.708 117.9634,8.8349 106.078,1.4065 z"
       id="path5066"
       inkscape:connector-curvature="0"
       sodipodi:nodetypes="cccccccc" />
  </g>
  <g
     inkscape:groupmode="layer"
     id="layer1"
     inkscape:label="txt">
    <text
       xml:space="preserve"
       style="font-style:normal;font-variant:normal;font-weight:normal;font-stretch:normal;line-height:0%;font-family:Lavi;-inkscape-font-specification:Lavi;text-align:center;letter-spacing:0px;word-spacing:0px;text-anchor:middle;fill:#000000;fill-opacity:1;stroke:none"
       x="2137.0017"
       y="2370.491"
       id="text4246"><tspan
         sodipodi:role="line"
         style="font-size:45px;line-height:1.25"
         x="2144.9119"
         y="2370.491"
         id="tspan4252"> </tspan></text>
    <text
       xml:space="preserve"
       style="font-style:normal;font-variant:normal;font-weight:normal;font-stretch:normal;line-height:0%;font-family:Lavi;-inkscape-font-specification:Lavi;text-align:center;letter-spacing:0px;word-spacing:0px;text-anchor:middle;fill:#000000;fill-opacity:1;stroke:none"
       x="1168.0322"
       y="2032.8386"
       id="text4246-3"><tspan
         sodipodi:role="line"
         style="font-size:45px;line-height:1.25"
         x="1168.0322"
         y="2032.8386"
         id="tspan4183">Det nytter ikke</tspan><tspan
         sodipodi:role="line"
         style="font-size:45px;line-height:1.25"
         x="1168.0322"
         y="2089.0886"
         id="tspan61">at holde øje med</tspan><tspan
         sodipodi:role="line"
         style="font-size:45px;line-height:1.25"
         x="1168.0322"
         y="2145.3386"
         id="tspan65">dig længere...</tspan></text>
    <text
       xml:space="preserve"
       style="font-style:normal;font-variant:normal;font-weight:normal;font-stretch:normal;line-height:0%;font-family:Lavi;-inkscape-font-specification:Lavi;text-align:center;letter-spacing:0px;word-spacing:0px;text-anchor:middle;fill:#000000;fill-opacity:1;stroke:none"
       x="1260.4561"
       y="2235.5215"
       id="text4246-3-7"><tspan
         sodipodi:role="line"
         style="font-size:45px;line-height:1.25"
         x="1260.4561"
         y="2235.5215"
         id="tspan4222">Grav alle disse</tspan><tspan
         sodipodi:role="line"
         style="font-size:45px;line-height:1.25"
         x="1260.4561"
         y="2291.7715"
         id="tspan63">mislykkede eliksirer ned</tspan><tspan
         sodipodi:role="line"
         style="font-size:45px;line-height:1.25"
         x="1260.4561"
         y="2348.0215"
         id="tspan70">så hurtigt som muligt,</tspan><tspan
         sodipodi:role="line"
         style="font-size:45px;line-height:1.25"
         x="1260.4561"
         y="2404.2715"
         id="tspan76">så du kan komme</tspan><tspan
         sodipodi:role="line"
         style="font-size:45px;line-height:1.25"
         x="1260.4561"
         y="2460.5215"
         id="tspan78">hjem og hvile dig</tspan></text>
    <text
       xml:space="preserve"
       style="font-style:normal;font-variant:normal;font-weight:normal;font-stretch:normal;line-height:0%;font-family:Lavi;-inkscape-font-specification:Lavi;text-align:center;letter-spacing:0px;word-spacing:0px;text-anchor:middle;fill:#000000;fill-opacity:1;stroke:none"
       x="2123.6384"
       y="2365.1826"
       id="text4246-3-7-6"><tspan
         sodipodi:role="line"
         style="font-size:45px;line-height:1.25"
         x="2123.6384"
         y="2365.1826"
         id="tspan4193">At se dig lykkes med</tspan><tspan
         sodipodi:role="line"
         style="font-size:45px;line-height:1.25"
         x="2123.6384"
         y="2421.4326"
         id="tspan93">én i morgen er nok bare</tspan><tspan
         sodipodi:role="line"
         style="font-size:45px;line-height:1.25"
         x="2123.6384"
         y="2477.6826"
         id="tspan95">ønsketænkning, men</tspan><tspan
         sodipodi:role="line"
         style="font-size:45px;line-height:1.25"
         x="2131.5486"
         y="2533.9326"
         id="tspan97">man ved jo aldrig! </tspan></text>
    <text
       xml:space="preserve"
       style="font-style:normal;font-variant:normal;font-weight:normal;font-stretch:normal;line-height:0%;font-family:Lavi;-inkscape-font-specification:Lavi;text-align:center;letter-spacing:0px;word-spacing:0px;text-anchor:middle;fill:#000000;fill-opacity:1;stroke:none"
       x="775.45044"
       y="2707.4324"
       id="text4246-3-7-6-7"><tspan
         sodipodi:role="line"
         style="font-size:45px;line-height:1.25"
         x="775.45044"
         y="2707.4324"
         id="tspan4515">Ja ja, jeg</tspan><tspan
         sodipodi:role="line"
         style="font-size:45px;line-height:1.25"
         x="775.45044"
         y="2763.6824"
         id="tspan101">skynder mig!</tspan></text>
    <text
       xml:space="preserve"
       style="font-style:normal;font-variant:normal;font-weight:normal;font-stretch:normal;line-height:0%;font-family:Lavi;-inkscape-font-specification:Lavi;text-align:center;letter-spacing:0px;word-spacing:0px;text-anchor:middle;fill:#000000;fill-opacity:1;stroke:none;stroke-width:1.29999995;stroke-miterlimit:4;stroke-dasharray:none"
       x="944.81274"
       y="2836.0046"
       id="text4246-3-7-6-7-0"><tspan
         sodipodi:role="line"
         style="font-size:45px;line-height:1.25;stroke-width:1.29999995;stroke-miterlimit:4;stroke-dasharray:none"
         x="944.81274"
         y="2836.0046"
         id="tspan119">Men hvad er det</tspan><tspan
         sodipodi:role="line"
         style="font-size:45px;line-height:1.25;stroke-width:1.29999995;stroke-miterlimit:4;stroke-dasharray:none"
         x="944.81274"
         y="2892.2546"
         id="tspan124">egentlig også det der med</tspan><tspan
         sodipodi:role="line"
         style="font-size:45px;line-height:1.25;stroke-width:1.29999995;stroke-miterlimit:4;stroke-dasharray:none"
         x="944.81274"
         y="2948.5046"
         id="tspan143">altid at <tspan
   id="tspan147"
   style="font-size:45px;line-height:1.25;stroke:#000000;stroke-width:1.29999995;stroke-miterlimit:4;stroke-dasharray:none;stroke-opacity:1">grave alt ned</tspan>?</tspan><tspan
         sodipodi:role="line"
         style="font-size:45px;line-height:1.25;stroke-width:1.29999995;stroke-miterlimit:4;stroke-dasharray:none"
         x="944.81274"
         y="2967.0381"
         id="tspan129" /></text>
    <text
       xml:space="preserve"
       style="font-style:normal;font-variant:normal;font-weight:normal;font-stretch:normal;line-height:0%;font-family:Lavi;-inkscape-font-specification:Lavi;text-align:center;letter-spacing:0px;word-spacing:0px;text-anchor:middle;fill:#000000;fill-opacity:1;stroke:none"
       x="1036.5442"
       y="3027.0105"
       id="text4246-3-7-6-7-0-9"><tspan
         sodipodi:role="line"
         style="font-size:45px;line-height:1.25"
         x="1036.5442"
         y="3027.0105"
         id="tspan4464">Ville det ikke</tspan><tspan
         sodipodi:role="line"
         style="font-size:45px;line-height:1.25"
         x="1036.5442"
         y="3083.2605"
         id="tspan151">være bedre hvis…</tspan></text>
    <text
       xml:space="preserve"
       style="font-style:normal;font-variant:normal;font-weight:normal;font-stretch:normal;line-height:0%;font-family:Lavi;-inkscape-font-specification:Lavi;text-align:center;letter-spacing:0px;word-spacing:0px;text-anchor:middle;fill:#000000;fill-opacity:1;stroke:none;stroke-width:2.5999999;stroke-miterlimit:4;stroke-dasharray:none"
       x="2037.533"
       y="3281.2891"
       id="text4246-3-7-6-7-0-9-3"><tspan
         sodipodi:role="line"
         style="font-size:45px;line-height:1.25;stroke-width:2.5999999;stroke-miterlimit:4;stroke-dasharray:none"
         x="2037.533"
         y="3281.2891"
         id="tspan4464-5">hvis <tspan
   style="stroke:#000000;stroke-width:2.5999999;stroke-miterlimit:4;stroke-dasharray:none;stroke-opacity:1"
   id="tspan4493">HVAD</tspan>?</tspan></text>
    <text
       xml:space="preserve"
       style="font-style:normal;font-variant:normal;font-weight:normal;font-stretch:normal;line-height:0%;font-family:Lavi;-inkscape-font-specification:Lavi;text-align:center;letter-spacing:0px;word-spacing:0px;text-anchor:middle;fill:#000000;fill-opacity:1;stroke:none"
       x="1177.4561"
       y="1942.5215"
       id="text4246-3-9"><tspan
         sodipodi:role="line"
         style="font-size:45px;line-height:1.25"
         x="1177.4561"
         y="1942.5215"
         id="tspan4183-8">Jeg går hjem.</tspan></text>
  </g>
</svg>
