<?xml version="1.0" encoding="UTF-8" standalone="no"?>
<svg
   xmlns:dc="http://purl.org/dc/elements/1.1/"
   xmlns:cc="http://creativecommons.org/ns#"
   xmlns:rdf="http://www.w3.org/1999/02/22-rdf-syntax-ns#"
   xmlns:svg="http://www.w3.org/2000/svg"
   xmlns="http://www.w3.org/2000/svg"
   xmlns:xlink="http://www.w3.org/1999/xlink"
   xmlns:sodipodi="http://sodipodi.sourceforge.net/DTD/sodipodi-0.dtd"
   xmlns:inkscape="http://www.inkscape.org/namespaces/inkscape"
   id="svg2"
   version="1.1"
   inkscape:version="1.0.1 (3bc2e813f5, 2020-09-07)"
   width="2481"
   height="3503"
   sodipodi:docname="E13P01.svg">
  <sodipodi:namedview
     pagecolor="#ffffff"
     bordercolor="#666666"
     inkscape:pageopacity="0"
     inkscape:pageshadow="2"
     inkscape:window-width="1366"
     inkscape:window-height="745"
     id="namedview70"
     showgrid="false"
     inkscape:zoom="0.2"
     inkscape:cx="1587.8935"
     inkscape:cy="3538.8406"
     inkscape:current-layer="layer1"
     inkscape:document-rotation="0"
     inkscape:window-x="-8"
     inkscape:window-y="-8"
     inkscape:window-maximized="1" />
  <metadata
     id="metadata8">
    <rdf:RDF>
      <cc:Work
         rdf:about="">
        <dc:format>image/svg+xml</dc:format>
        <dc:type
           rdf:resource="http://purl.org/dc/dcmitype/StillImage" />
        <dc:title />
      </cc:Work>
    </rdf:RDF>
  </metadata>
  <defs
     id="defs6" />
  <sodipodi:namedview
     pagecolor="#ffffff"
     bordercolor="#666666"
     borderopacity="1"
     objecttolerance="10"
     gridtolerance="10"
     guidetolerance="10"
     inkscape:pageopacity="0"
     inkscape:pageshadow="2"
     inkscape:window-width="1920"
     inkscape:window-height="1025"
     id="namedview4"
     showgrid="false"
     inkscape:zoom="0.2630065"
     inkscape:cx="1288.2988"
     inkscape:cy="-142.1836"
     inkscape:window-x="0"
     inkscape:window-y="26"
     inkscape:window-maximized="1"
     inkscape:current-layer="layer1" />
  <g
     inkscape:groupmode="layer"
     id="layer2"
     inkscape:label="artwork"
     sodipodi:insensitive="true">
    <image
       sodipodi:absref="C:\Users\quentinlipeck\Downloads\webcomics-master-ec7d62e6553c2c63bb1cf2e799ee31f9cb9ce5e2\webcomics-master-ec7d62e6553c2c63bb1cf2e799ee31f9cb9ce5e2\ep13_The-Pyjama-Party\lang\gfx_Pepper-and-Carrot_by-David-Revoy_E13P01.png"
       xlink:href="../gfx_Pepper-and-Carrot_by-David-Revoy_E13P01.png"
       width="2481"
       height="3503"
       id="image10"
       x="0"
       y="0" />
  </g>
  <g
     inkscape:groupmode="layer"
     id="layer3"
     inkscape:label="speechbubbles" />
  <g
     inkscape:groupmode="layer"
     id="layer1"
     inkscape:label="txt">
    <path
       style="fill:#ffffff;fill-opacity:1;stroke:none"
       d="M 722.80334,769.26331 C 733.56619,710.8626 664.86577,709.5295 536.01621,705.7578 c -123.15479,-3.6049 -147.59936,9.0774 -164.20957,33.63651 -19.17918,28.3574 -25.58937,73.8614 72.62101,88.2487 78.08081,11.4386 216.48911,0.6814 234.20072,-11.7527 17.7116,-12.4341 38.78082,-15.271 44.17497,-46.627 z"
       id="path3238-1-6"
       inkscape:connector-curvature="0"
       sodipodi:nodetypes="cssssc" />
    <path
       style="fill:#ffffff;fill-opacity:1;stroke:none"
       d="m 742.40267,1108.9836 c 11.24939,-62.1699 -60.55671,-63.589 -195.23107,-67.6041 -128.72214,-3.8376 -154.27175,9.6632 -171.63285,35.8074 -20.04619,30.1876 -26.74616,78.6284 75.90393,93.9443 81.61054,12.1768 223.87245,-3.5418 244.78803,-12.5112 22.22005,-9.5288 40.53396,-16.2566 46.17196,-49.6364 z"
       id="path3238-1"
       inkscape:connector-curvature="0"
       sodipodi:nodetypes="cssssc" />
    <path
       style="fill:#ffffff;stroke:none"
       d="m 1919.5371,3357.0307 c -12.326,-51.4542 14.7217,-94.6973 32.7176,-105.7415 17.9958,-11.0442 49.2341,-24.8258 64.9729,-27.615 15.7388,-2.7893 265.9967,-15.3749 281.1667,-9.1236 15.1699,6.2512 83.2673,28.6398 99.1794,60.3203 15.9122,31.6805 38.0197,124.1156 18.575,142.5771 -19.4447,18.4614 -69.7271,8.13 -183.5863,15.4198 -113.8591,7.2899 -250.6221,7.5071 -284.2001,-29.6507 -18.9295,-20.9474 -28.8252,-46.1864 -28.8252,-46.1864 z"
       id="path3286"
       inkscape:connector-curvature="0"
       sodipodi:nodetypes="csssssssc" />
    <path
       style="color:#000000;fill:#ffffff;fill-opacity:1;fill-rule:nonzero;stroke:none;stroke-width:1px;marker:none;visibility:visible;display:inline;overflow:visible;enable-background:accumulate"
       d="m 2065.3434,2938.9931 c 59.1369,57.7184 84.0546,81.7232 70.3501,131.5639 -13.7043,49.8409 29.5777,21.853 29.5777,21.853 0,0 27.6302,-106.7588 -99.9278,-153.4169 z"
       id="path3984"
       inkscape:connector-curvature="0"
       sodipodi:nodetypes="cscc" />
    <path
       style="color:#000000;display:inline;overflow:visible;visibility:visible;fill:#ffffff;fill-opacity:1;fill-rule:nonzero;stroke:none;stroke-width:1px;marker:none;enable-background:accumulate"
       d="m 2038.3029,3136.589 c 1.4772,-49.6424 35.5797,-81.4368 71.5467,-88.6523 36.9255,-7.4079 56.1588,-4.5487 66.4125,-1.8473 10.2537,2.7015 89.7601,-3.7384 120.3604,0.8367 29.46,4.4047 73.5282,32.9318 70.7317,96.4165 -2.7966,63.4847 -44.7437,90.4995 -87.6228,94.5516 -42.8794,4.0523 -120.2396,2.7123 -142.7063,1.7779 -33.3133,-1.3853 -92.197,0.9237 -98.7222,-103.0834 z"
       id="path5034"
       inkscape:connector-curvature="0"
       sodipodi:nodetypes="cscsssscc" />
    <path
       style="fill:#ffffff;fill-opacity:1;stroke:none;stroke-width:1.06672"
       d="m 431.86394,1449.7348 c -10.73477,58.7809 64.11002,59.0418 204.50502,60.8072 134.18995,1.6871 160.59838,-11.4244 178.27359,-36.3328 20.40888,-28.7607 26.62114,-74.5301 -80.5839,-87.4297 -85.23187,-10.256 -187.68919,-6.0398 -239.63785,5.4897 -41.76584,9.2695 -57.21205,25.9115 -62.55686,57.4656 z"
       id="path3238"
       inkscape:connector-curvature="0"
       sodipodi:nodetypes="cssssc" />
    <path
       style="color:#000000;display:inline;overflow:visible;visibility:visible;fill:#ffffff;fill-opacity:1;fill-rule:nonzero;stroke:none;stroke-width:1px;marker:none;enable-background:accumulate"
       d="M 537.20621,747.31481 C 497.18166,1119.9729 723.58268,1848.6244 747.8049,2074.1644 760.10221,1890.5729 526.40737,1185.705 565.75742,742.84162 c -24.19123,-4.10336 -28.55121,4.47319 -28.55121,4.47319 z"
       id="path4008"
       inkscape:connector-curvature="0"
       sodipodi:nodetypes="cccc" />
    <text
       xml:space="preserve"
       style="color:#000000;font-style:normal;font-variant:normal;font-weight:normal;font-stretch:normal;line-height:0%;font-family:Lavi;-inkscape-font-specification:Lavi;text-indent:0;text-align:center;text-decoration:none;text-decoration-line:none;letter-spacing:0px;word-spacing:0px;text-transform:none;writing-mode:lr-tb;direction:ltr;baseline-shift:baseline;text-anchor:middle;display:inline;overflow:visible;visibility:visible;fill:#000000;fill-opacity:1;fill-rule:nonzero;stroke:none;enable-background:accumulate"
       x="2203.332"
       y="3119.4229"
       id="text4159"><tspan
         sodipodi:role="line"
         x="2203.332"
         y="3119.4229"
         id="tspan3737"
         style="font-size:45px;line-height:1.25">ma sina ni </tspan><tspan
         sodipodi:role="line"
         x="2203.332"
         y="3175.6729"
         style="font-size:45px;line-height:1.25"
         id="tspan36">li pona a!</tspan></text>
    <text
       xml:space="preserve"
       style="font-style:normal;font-variant:normal;font-weight:normal;font-stretch:normal;line-height:0%;font-family:Lavi;-inkscape-font-specification:'Lavi, Normal';text-align:center;letter-spacing:0px;word-spacing:0px;writing-mode:lr-tb;text-anchor:middle;fill:#000000;fill-opacity:1;stroke:none;stroke-width:1px;stroke-linecap:butt;stroke-linejoin:miter;stroke-opacity:1"
       x="2232.5"
       y="3110.5"
       id="text4169"><tspan
         sodipodi:role="line"
         id="tspan4171"
         x="2239.8442"
         y="3110.5"
         style="font-size:47.0037px;line-height:1.25"> </tspan><tspan
         sodipodi:role="line"
         x="2239.8442"
         y="3169.2546"
         id="tspan4173"
         style="font-size:47.0037px;line-height:1.25"> </tspan></text>
    <text
       xml:space="preserve"
       style="color:#000000;font-style:normal;font-variant:normal;font-weight:normal;font-stretch:normal;line-height:0%;font-family:Lavi;-inkscape-font-specification:Lavi;text-indent:0;text-align:center;text-decoration:none;text-decoration-line:none;letter-spacing:0px;word-spacing:0px;text-transform:none;writing-mode:lr-tb;direction:ltr;baseline-shift:baseline;text-anchor:middle;display:inline;overflow:visible;visibility:visible;fill:#000000;fill-opacity:1;fill-rule:nonzero;stroke:none;enable-background:accumulate"
       x="2163.6572"
       y="3305.3611"
       id="text4177"><tspan
         sodipodi:role="line"
         x="2163.6572"
         y="3305.3611"
         style="font-size:45px;line-height:1.25"
         id="tspan45">kama mi li pona tan </tspan><tspan
         sodipodi:role="line"
         x="2163.6572"
         y="3361.6111"
         style="font-size:45px;line-height:1.25"
         id="tspan49">sina, jan Kowijana o!</tspan></text>
    <text
       xml:space="preserve"
       style="color:#000000;font-style:normal;font-variant:normal;font-weight:normal;font-stretch:normal;line-height:0%;font-family:Lavi;-inkscape-font-specification:Lavi;text-indent:0;text-align:center;text-decoration:none;text-decoration-line:none;letter-spacing:0px;word-spacing:0px;text-transform:none;writing-mode:lr-tb;direction:ltr;baseline-shift:baseline;text-anchor:middle;display:inline;overflow:visible;visibility:visible;fill:#000000;fill-opacity:1;fill-rule:nonzero;stroke:#000000;stroke-width:1.15539;stroke-linecap:butt;stroke-linejoin:miter;stroke-miterlimit:4;stroke-dasharray:none;stroke-dashoffset:0;stroke-opacity:1;enable-background:accumulate"
       x="627.89648"
       y="1448.4253"
       id="text4201"
       transform="scale(0.99121656,1.0088613)"><tspan
         sodipodi:role="line"
         x="627.89648"
         y="1448.4253"
         id="tspan4183"
         style="font-size:47.266px;line-height:1.25;stroke-width:1.15539">... nanpa wan !</tspan></text>
    <text
       xml:space="preserve"
       style="color:#000000;font-style:normal;font-variant:normal;font-weight:normal;font-stretch:normal;line-height:0%;font-family:Lavi;-inkscape-font-specification:Lavi;text-indent:0;text-align:center;text-decoration:none;text-decoration-line:none;letter-spacing:0px;word-spacing:0px;text-transform:none;writing-mode:lr-tb;direction:ltr;baseline-shift:baseline;text-anchor:middle;display:inline;overflow:visible;visibility:visible;fill:#000000;fill-opacity:1;fill-rule:nonzero;stroke:none;enable-background:accumulate"
       x="547.33362"
       y="781.7851"
       id="text4201-8"><tspan
         sodipodi:role="line"
         x="547.33362"
         y="781.7851"
         id="tspan4183-9"
         style="font-size:45px;line-height:1.25">tenpo ...</tspan></text>
    <text
       xml:space="preserve"
       style="color:#000000;font-style:normal;font-variant:normal;font-weight:normal;font-stretch:normal;line-height:0%;font-family:Lavi;-inkscape-font-specification:Lavi;text-indent:0;text-align:center;text-decoration:none;text-decoration-line:none;letter-spacing:0px;word-spacing:0px;text-transform:none;writing-mode:lr-tb;direction:ltr;baseline-shift:baseline;text-anchor:middle;display:inline;overflow:visible;visibility:visible;fill:#000000;fill-opacity:1;fill-rule:nonzero;stroke:none;enable-background:accumulate"
       x="552.08148"
       y="1121.1799"
       id="text4201-2"><tspan
         sodipodi:role="line"
         x="552.08148"
         y="1121.1799"
         id="tspan4183-92"
         style="font-size:45px;line-height:1.25">... pi pali ala ...</tspan></text>
  </g>
</svg>
