<?xml version="1.0" encoding="UTF-8" standalone="no"?>
<!-- Created with Inkscape (http://www.inkscape.org/) -->

<svg
   xmlns:dc="http://purl.org/dc/elements/1.1/"
   xmlns:cc="http://creativecommons.org/ns#"
   xmlns:rdf="http://www.w3.org/1999/02/22-rdf-syntax-ns#"
   xmlns:svg="http://www.w3.org/2000/svg"
   xmlns="http://www.w3.org/2000/svg"
   xmlns:xlink="http://www.w3.org/1999/xlink"
   xmlns:sodipodi="http://sodipodi.sourceforge.net/DTD/sodipodi-0.dtd"
   xmlns:inkscape="http://www.inkscape.org/namespaces/inkscape"
   id="svg2"
   version="1.1"
   inkscape:version="0.92.4 (5da689c313, 2019-01-14)"
   width="2481"
   height="663"
   sodipodi:docname="E37P00.svg"
   xml:space="preserve"><metadata
     id="metadata8"><rdf:RDF><cc:Work
         rdf:about=""><dc:format>image/svg+xml</dc:format><dc:type
           rdf:resource="http://purl.org/dc/dcmitype/StillImage" /><dc:title /></cc:Work></rdf:RDF></metadata><defs
     id="defs6"><filter
       inkscape:menu-tooltip="Transparent plastic with deep colors"
       inkscape:menu="Bevels"
       inkscape:label="Pepper-title-style"
       style="color-interpolation-filters:sRGB"
       id="filter4268"
       x="-0.01137716"
       y="-0.055231489"
       width="1.0229703"
       height="1.1105793"><feGaussianBlur
         in="SourceGraphic"
         result="result6"
         stdDeviation="1.1848407234113241"
         id="feGaussianBlur4270" /><feComposite
         in2="SourceGraphic"
         in="result6"
         operator="clear"
         id="feComposite4272" /><feGaussianBlur
         result="result2"
         stdDeviation="3.004009827289384"
         id="feGaussianBlur4274" /><feComposite
         in2="SourceGraphic"
         operator="atop"
         result="result91"
         id="feComposite4276"
         stdDeviation="6" /><feComposite
         result="result4"
         in="result2"
         operator="xor"
         in2="result91"
         id="feComposite4278"
         stdDeviation="3.7000000000000002" /><feGaussianBlur
         in="result4"
         result="result3"
         stdDeviation="2.4161573242187497"
         id="feGaussianBlur4280" /><feSpecularLighting
         lighting-color="#7fadda"
         in="result3"
         result="result5"
         specularExponent="35"
         specularConstant="1.9236244"
         surfaceScale="12"
         id="feSpecularLighting4282"
         stdDeviation="3.0299999999999998"><feDistantLight
           elevation="61"
           azimuth="104"
           id="feDistantLight880" /></feSpecularLighting><feComposite
         k4="0"
         k1="0"
         in2="result5"
         in="SourceGraphic"
         k3="0.7"
         k2="0.8"
         operator="arithmetic"
         result="result7"
         id="feComposite4286" /><feComposite
         in="result7"
         operator="in"
         in2="SourceGraphic"
         id="feComposite4288" /></filter></defs><sodipodi:namedview
     pagecolor="#ffffff"
     bordercolor="#666666"
     borderopacity="1"
     objecttolerance="10"
     gridtolerance="10"
     guidetolerance="10"
     inkscape:pageopacity="0"
     inkscape:pageshadow="2"
     inkscape:window-width="1855"
     inkscape:window-height="1057"
     id="namedview4"
     showgrid="false"
     inkscape:zoom="0.52995012"
     inkscape:cx="936.88059"
     inkscape:cy="577.41283"
     inkscape:window-x="1912"
     inkscape:window-y="-8"
     inkscape:window-maximized="1"
     inkscape:current-layer="layer1"
     inkscape:pagecheckerboard="0"
     inkscape:showpageshadow="0"
     inkscape:deskcolor="#d1d1d1" /><g
     inkscape:groupmode="layer"
     id="layer2"
     inkscape:label="artwork"
     sodipodi:insensitive="true"><image
       sodipodi:absref="C:\Users\rumiko\Desktop\P&amp;c\ep37_lang\ja\../gfx_Pepper-and-Carrot_by-David-Revoy_E37P00.png"
       xlink:href="../gfx_Pepper-and-Carrot_by-David-Revoy_E37P00.png"
       width="2481"
       height="663"
       id="image10"
       x="0"
       y="0" /></g><g
     inkscape:groupmode="layer"
     id="layer1"
     inkscape:label="txt"
     style="display:inline"><text
       xml:space="preserve"
       style="font-style:normal;font-variant:normal;font-weight:normal;font-stretch:normal;font-size:72.5px;line-height:1.25;font-family:'Rounded M+ 1c';-inkscape-font-specification:'Rounded M+ 1c, Medium';font-variant-ligatures:normal;font-variant-caps:normal;font-variant-numeric:normal;font-feature-settings:normal;text-align:center;letter-spacing:0px;word-spacing:0px;writing-mode:lr-tb;text-anchor:middle;display:inline;fill:#2b1100;fill-opacity:1;stroke:none"
       x="1240.2876"
       y="582.47577"
       id="episode-title"><tspan
         sodipodi:role="line"
         id="tspan4180"
         x="1240.2876"
         y="582.47577">エピソード 37: フェニックスの涙</tspan></text>
<path
       style="color:#000000;display:inline;overflow:visible;visibility:visible;opacity:1;vector-effect:none;fill:#2b1100;fill-opacity:1;fill-rule:nonzero;stroke:none;stroke-width:1;stroke-linecap:butt;stroke-linejoin:miter;stroke-miterlimit:4;stroke-dasharray:none;stroke-dashoffset:0;stroke-opacity:1;marker:none;paint-order:normal;enable-background:accumulate;font-variant-east_asian:normal"
       d="m 1480.947,278.36693 c -0.1707,-0.0254 -0.5914,0.1717 -1.3164,0.64257 -23.5484,16.19548 -43.9468,27.75293 -64.6485,37.20116 -0.7262,-3.03196 -1.4416,-6.06303 -2.1601,-9.12696 -1.237,-5.27477 3.6623,-15.85795 -3.3477,-16.1914 -1.4561,-1.93018 -4.3486,-5.76053 -6.082,-7.1367 -3.1312,-2.48597 -5.2257,-1.59626 -7.7227,0.12304 -2.9322,-2.92205 -8.8078,-1.86983 -13.2617,-0.55273 -2.1022,0.62167 -3.4637,4.60871 -4.1738,6.40428 -1.3665,3.45536 4.6163,13.72767 7.6914,17.99414 1.3546,6.6051 2.7677,12.85465 4.25,18.8125 -5.3591,2.03762 -10.8096,4.01423 -16.4297,5.94922 -4.5817,1.57748 -13.1839,0.96512 -18.6172,1.23242 -3.7358,0.18379 -6.9505,4.36213 -5.3516,6.375 -1.2731,-0.2019 -3.5023,1.75773 -2.6679,3.96094 0.3477,0.91812 -0.4703,7.56751 1.9531,7.95117 -0.142,2.25408 3.7271,3.65737 5.7871,3.64062 -1.3902,2.1186 -0.2785,3.61564 0.918,4.95313 3.0357,3.39326 6.3363,4.34143 8.3515,2.26953 1.0973,1.73678 2.8769,0.96397 4.7051,0.51562 4.0615,-0.99604 12.9966,-5.37919 15.293,-6.20117 4.8244,-1.72682 9.2583,-3.3869 13.4355,-5.01953 4.1233,12.43799 8.759,23.74637 14.0508,34.76955 -6.9224,2.69255 -14.0402,5.19869 -21.4453,7.57617 -4.5051,1.44642 -9.3187,1.41923 -15.4727,1.3086 -2.3964,-0.0431 -4.6808,1.32113 -4.6328,2.48828 -2.3188,-0.92422 -3.1184,2.87595 -4.4257,5.88867 -0.4183,0.96416 1.736,2.79632 2.7089,3.51172 -2.3183,2.25679 -0.3512,4.31465 1.6426,6.59961 0.6552,0.75089 2.6156,2.17744 3.6133,1.85351 1.0648,1.70353 1.3211,4.1877 3.4727,4.99024 0.9269,0.34578 3.3984,-0.28267 4.4668,-0.32617 -1.4699,10.11023 23.4121,-3.47084 30.2128,-6.32422 4.1572,-1.74423 7.9543,-3.30414 11.8047,-4.89649 3.7363,6.55626 7.7333,13.21157 12.0528,20.1543 3.8961,6.26234 11.3604,17.53947 12.9297,17.0332 1.7012,-0.54885 -3.6546,-10.58372 -2.375,-11.04101 1.8812,0.32765 5.1339,6.62655 8.7226,11.70703 1.9581,2.77211 4.982,6.50323 5.7031,5.98047 0.8881,-0.64396 0.1937,-4.83058 -2.5332,-9.00195 -2.6801,-4.0994 -0.3958,-4.11841 -2.7793,-7.27735 2.9571,2.10576 8.4027,15.64766 10.5899,14.03711 1.0225,-0.75305 0.737,-1.8774 1.2285,-2.12109 1.6396,-0.81291 2.6366,2.73072 2.0059,-4.03125 1.5487,2.95987 5.3287,6.95933 7.3144,9.57422 1.876,2.4703 3.6524,2.92661 2.7324,1.43945 -13.8077,-22.3172 -24.3671,-40.83233 -32.6191,-56.70703 10.6881,-5.32745 22.4846,-12.18216 37.832,-22.87112 2.2944,-1.59796 9.0025,-6.23132 8.3828,-7.92382 -0.7803,-2.13062 -3.4892,1.78581 -10.0625,4.2539 4.8067,-4.34857 0.9823,-5.91809 3.7403,-8.03906 1.8134,-1.39449 2.0503,-3.86798 1.3593,-5.35156 1.4626,-1.84749 7.1703,-6.6091 7.4707,-9.42188 0.103,-0.96477 -0.5719,-2.66987 -2.9707,-1.51953 0.6563,-2.38866 3.5725,-6.35346 -1.9961,-3.87891 2.0754,-0.99836 4.6145,-4.07252 6.418,-5.82031 4.85,-4.70006 5.7618,-8.52305 3.1113,-6.20898 -22.2354,19.41362 -42.7548,33.18934 -64.4453,43.92969 -6.0678,-13.39477 -10.2786,-24.7057 -13.5293,-35.03321 13.4048,-6.75817 24.8965,-14.23304 39.6465,-24.67969 2.796,-1.98025 8.7109,-5.23737 4.1953,-6.6914 -1.0577,-0.34059 7.7057,-5.46905 6.2891,-8.69141 1.7992,-1.70487 3.9703,-2.51968 3.1484,-3.6582 -1.3571,-1.8799 -4.8019,0.41389 -5.9765,-0.37109 -0.8565,-0.5724 -0.49,-1.39155 0.7929,-2.29493 1.016,-0.7154 -2.7223,-0.82642 -4.5,-0.80859 5.6006,-4.62747 16.7143,-15.72426 15.5196,-15.90232 z m -872.89847,3.45117 c -3.42332,-0.0438 -8.74352,1.67168 -11.35547,4.5039 -1.91629,2.07793 -1.29296,5.53817 -2.13281,6.74022 -3.25833,4.66364 -5.50475,9.53729 -5.61133,14.76172 -0.23112,11.32773 8.05385,28.39398 24.54102,28.22461 14.56411,-0.14962 26.93018,-11.02197 27.76758,-22.08985 1.09751,-14.50664 -9.7307,-26.12273 -13.11133,-25.20508 -2.50007,-2.31452 -7.84102,-3.75436 -8.02344,-1.96091 -3.26499,-1.04146 -6.60187,-0.73122 -9.21875,0.0469 0.57132,-2.09536 0.68181,-4.1118 -0.84375,-4.70117 -0.53138,-0.20529 -1.22172,-0.3102 -2.01172,-0.32031 z m 1351.83397,1.16797 c -0.7787,0.0139 -1.5594,0.24505 -2.3183,0.78125 -3.833,-1.65168 -8.2798,1.1294 -11.1739,4.45117 -3.6268,4.16256 -2.7193,10.28251 -3.2226,20.24998 -2.4207,47.94501 -3.1396,36.97183 2.8027,104.41213 0.6285,1.14165 1.7469,-5.53934 2.7441,-5.93946 -0.5736,10.84991 5.6623,37.16539 8.4239,39.24805 1.062,0.80086 2.0462,-6.14878 3.6074,-7.38476 0.4478,2.66238 0.6655,9.06166 4.3242,5.98632 0.9633,12.08183 6.7596,10.97679 6.3574,5.15821 -2.6329,-38.09807 -4.7247,-57.63582 -3.3379,-83.9219 10.5783,10.96256 24.1288,20.84161 30.1211,19.93362 1.9152,1.51545 5.5599,3.7962 7.1036,3.5664 1.364,-0.20305 0.1471,-1.42473 -4.8907,-7.32617 4.3838,1.99199 16.7195,4.55168 16.8145,-1.40039 3.6184,0.1409 4.7982,1.48416 6.082,0.0801 1.4416,-1.57676 -1.8974,-3.91789 -4.9472,-7.33205 5.9615,5.10996 20.1099,4.87031 5.9511,-0.75391 -21.6134,-8.58522 -34.7756,-14.47491 -53.9687,-32.875 0.9729,-8.47462 2.2159,-17.82758 3.834,-28.68945 1.179,-7.91438 6.4253,-7.08665 7.0293,-10.83203 0.1884,-1.16813 -0.6087,-5.64804 -2.6563,-7.57813 -3.5178,-3.31588 -5.1155,-7.86231 -12.3574,-6.52732 -1.6658,-1.44203 -3.9862,-3.34837 -6.3223,-3.30664 z m -1052.28709,1.22265 c -1.01301,0.036 -1.95169,0.43329 -2.74024,1.32813 -4.54551,0 -7.58479,0.82062 -10.26758,3.61521 -6.33472,-0.28314 -5.30173,11.98333 -5.01953,17.80274 2.21633,45.70377 40.68886,115.37034 53.11133,126.16994 1.58434,1.37736 1.83616,0.87383 4.23438,0.61719 1.16322,-0.12449 2.57989,1.26353 3.27148,1.26953 0.51803,0.003 0.37701,-1.22472 0.79883,-1.96289 5.36112,6.8055 11.0095,12.20029 13.20117,12.12109 2.07627,-0.0751 -3.07167,-4.37726 -0.13672,-6.19336 2.69062,0.97439 1.98901,-0.94254 1.48438,-2.63477 3.88131,6.09815 9.6822,9.55621 13.01562,10.17188 1.90241,0.35143 1.72252,-1.32077 0.69141,-2.57422 -3.31138,-4.02549 1.92403,-0.15668 1.86523,-0.76172 5.73549,3.13932 17.20999,6.39473 11.76563,2.27735 -41.37363,-31.28936 -64.62021,-85.75381 -69.66602,-125.47268 -0.59367,-4.6732 1.96831,-7.85979 3.20313,-14.42383 0.27705,-1.47273 -0.8671,-4.34054 -2.85938,-6.10937 -2.28388,-2.02773 -2.07698,-6.46675 -5.02539,-4.79883 1.24183,-2.33417 -0.16158,-2.58589 -1.86719,-4.62695 -2.31569,-2.77114 -6.02151,-5.92239 -9.06054,-5.81444 z m -62.14258,3.79883 c -0.12169,0.003 -0.23867,0.0149 -0.35156,0.0371 -4.83628,0.95127 -8.98115,8.20047 -8.88868,13.03318 0.10908,5.70142 6.79562,10.83939 6.62891,17.62305 -1.07403,43.70485 -29.52762,83.58127 -58.25586,111.13283 -4.3303,4.15288 -15.17527,12.43916 -14.67773,15.76953 0.34006,2.27628 6.16134,-1.0343 12.45898,-5 -1.13748,0.91059 -3.35354,6.68228 -2.19727,7.87696 1.48046,1.52949 9.55875,-4.44374 13.22657,-7.85742 -0.14007,2.07725 -0.10265,3.81691 3.94922,3.28906 3.40808,-0.44396 13.68085,-11.7023 20.24609,-19.92774 -3.25094,7.45802 -4.84773,14.91514 6.69922,1.29297 20.51128,-24.19759 43.56421,-66.29964 48.26758,-96.30861 1.13716,-7.25549 2.5026,-12.50571 1.19922,-20.35547 -1.12895,-6.79924 -4.97444,-9.29791 -9.16016,-10.38672 -0.33907,-2.02499 -0.26444,-3.83565 -1.98633,-5.21094 -3.03934,-2.42755 -8.75626,-3.5018 -11.36523,-2.01562 -1.23367,-1.03855 -3.96763,-3.03878 -5.79297,-2.99217 z m 116.52734,0.25391 c -3.42332,-0.0438 -8.74351,1.67166 -11.35547,4.50388 -1.91628,2.07795 -1.29296,5.53819 -2.13281,6.74024 -3.25833,4.66364 -5.50475,9.53729 -5.61133,14.76172 -0.23112,11.32773 8.05189,28.39398 24.53906,28.22461 14.56412,-0.14962 26.93214,-11.02197 27.76954,-22.08985 1.09751,-14.50664 -9.7307,-26.12275 -13.11133,-25.20508 -2.50007,-2.31454 -7.84297,-3.75243 -8.02539,-1.95898 -3.26559,-1.04165 -6.60166,-0.73348 -9.21875,0.0449 0.57132,-2.09536 0.68181,-4.11179 -0.84375,-4.70117 -0.53138,-0.20529 -1.21977,-0.31018 -2.00977,-0.32029 z m 702.69923,0.0684 c -1.4888,-0.0616 -2.9103,0.46779 -2.584,2.31052 -2.6142,-1.45371 -6.383,-0.58413 -7.3418,0.56055 -2.3172,2.76677 -8.0783,6.33773 -6.5469,11.51953 1.0633,3.59783 3.4627,8.61899 6.6914,12.71875 -4.0565,42.24357 -4.2105,55.00182 -0.8515,97.31838 0.2155,2.71514 1.431,11.29273 1.7285,12.10156 0.6543,1.77915 2.1375,-5.24109 1.4668,-12.35351 0.8614,-0.36621 4.8954,23.39189 7.3379,23.25586 5.2138,-0.2904 3.8313,11.72635 4.6582,7.83984 3.4828,6.34315 5.5737,-4.09881 6.334,-1.45312 2.2975,7.995 4.3643,9.39141 3.8437,5.40625 -0.6859,-5.25074 -1.2581,-10.26226 -1.7715,-15.16602 40.209,-2.20112 74.355,-3.79804 102.9141,-7.21484 0.5413,-0.0648 5.2575,-0.76086 6.4551,-1.70704 1.6015,-1.26527 -0.5453,-2.95161 -2.9688,-4.04687 3.691,-1.57177 6.4998,-2.50865 7.1641,-4.32813 1.0137,-2.77662 -3.8073,-4.27769 -1.3399,-5.5 4.9798,-2.46678 13.1072,-5.49689 4.461,-6.08398 7.6128,-2.15443 14.3517,-5.15748 11.832,-4.86914 -7.3631,0.84258 -15.4944,1.89691 -24.0703,2.97461 0.9579,-35.83621 6.7718,-60.87492 10.6035,-87.46291 0.1537,-1.06615 2.1128,-3.41422 2.0488,-5.26758 -0.1176,-3.38339 -2.5188,-6.64887 -3.3476,-8.27734 -0.8957,-1.75994 -1.1005,-2.3351 -2.4082,-3.00391 -0.1647,-0.92037 -1.3523,-2.29941 -1.8809,-3.14062 -2.369,-3.76966 -7.8534,-5.21786 -11.6191,-4.92774 -32.4594,2.50077 -56.4081,7.39707 -97.0195,6.32422 -1.1169,-1.6403 -6.5144,-4.34299 -11.4004,-6.93359 -0.5786,-0.30674 -1.4955,-0.55679 -2.3887,-0.59373 z m -1049.73829,0.24216 c 0.79061,0.006 1.58839,0.0616 2.375,0.1836 -1.95656,0.44262 -2.65859,1.408 -1.9375,1.65429 1.6889,0.57687 3.32007,1.3516 4.29883,2.33594 -1.03231,0.0745 -3.76948,0.0944 -2.66797,0.59961 1.1557,0.53002 5.17583,1.29995 7.96875,3.80078 1.69044,1.51368 5.45463,5.67438 5.44336,8.78125 -1.61615,-4.38784 -6.12439,-6.3765 -4.55469,-3.28906 1.45822,2.86839 1.81486,5.76051 1.69727,8.21484 -0.30716,6.40826 -6.13369,11.34919 -12.60938,11.2461 -6.91397,-0.11006 -11.00969,-6.17164 -8.42773,-15.02344 3.13778,-2.35334 7.09584,-6.0865 7.32812,-10.25977 0.0503,-0.90726 -1.16778,-1.65225 -1.33789,-3.23632 -0.17018,-1.58486 -0.0182,-3.54448 -0.45898,-4.82813 0.92602,-0.10542 1.88695,-0.18745 2.88281,-0.17969 z m 353.92969,6.44532 c 0.79061,0.006 1.59034,0.0596 2.37695,0.18164 -1.95656,0.44262 -2.65859,1.408 -1.9375,1.65429 1.6889,0.57687 3.3181,1.3516 4.29687,2.33594 -1.03231,0.0745 -3.76753,0.0944 -2.66601,0.59961 1.1557,0.53003 5.17388,1.29996 7.9668,3.80078 1.69044,1.51368 5.45658,5.67438 5.44531,8.78125 -1.61615,-4.38785 -6.12634,-6.37649 -4.55664,-3.28906 1.45822,2.86839 1.81681,5.7605 1.69922,8.21484 -0.30716,6.40825 -6.13369,11.34919 -12.60938,11.2461 -6.91397,-0.11006 -11.00969,-6.17163 -8.42773,-15.02344 3.13778,-2.35333 7.09583,-6.0865 7.32812,-10.25977 0.0503,-0.90726 -1.16973,-1.65226 -1.33984,-3.23632 -0.17019,-1.58486 -0.0163,-3.54448 -0.45703,-4.82813 0.92587,-0.10539 1.88518,-0.1855 2.88086,-0.17773 z m -435.39063,1.60156 c -20.48693,-0.31039 -31.89705,20.65847 -44.20703,27.31445 -4.31036,2.3306 -14.49696,1.60889 -12.80078,5.78125 -5.69023,3.71971 -3.26639,12.20964 -0.83984,15.89649 -3.16143,4.49075 1.53734,12.46586 6.15234,12.53906 2.31811,0.0368 1.45991,1.3214 2.89062,2.21875 1.41975,0.89047 5.13216,1.3963 6.47266,0.82812 4.26732,-1.80876 6.45661,-4.24044 9.84375,-7.58593 11.13245,-10.99552 18.69481,-28.98582 34.13672,-28.54102 23.44457,0.6753 32.75248,75.29046 57.42383,97.91994 13.0883,12.00509 20.71791,22.07833 21.16992,11.04688 1.51047,1.54553 24.41547,15.94047 21.6875,8.92578 -0.68726,-1.76712 -9.55728,-6.82222 -12.4707,-10.79688 9.20689,3.23411 21.90699,12.16083 19.77929,4.63282 19.53738,8.70561 18.55482,4.246 20.39649,4.3125 3.91428,0.14124 4.9682,-1.90607 0.21289,-3.0293 -11.1657,-2.63747 -22.17744,-10.64661 -34.87695,-17.85352 -53.11142,-30.14063 -35.00392,-106.60497 -85.60547,-122.07037 -3.32624,-1.0166 -6.43853,-1.49472 -9.36524,-1.53906 z M 1768.695,316.61695 c -3.187,10.22426 -6.5106,43.74795 -7.0605,78.97267 -0.098,6.26109 3.2158,7.19521 3.8222,0.41211 0.6503,0.73251 1.1127,4.17887 1.6543,7.42774 -26.6761,3.09172 -57.7565,5.70089 -91.455,3.83398 -1.4976,-29.26954 0.2579,-54.39032 3.9101,-84.69729 27.3948,-0.28885 62.1904,-1.80662 89.1289,-5.94921 z m -222.6601,2.14453 c -0.4085,-0.0102 -0.8493,0.0114 -1.3301,0.0703 -2.4487,0.29993 -10.8067,3.79318 -10.1485,6.01758 -4.5319,-1.58418 -6.727,3.69429 -7.6777,5.90625 -1.2622,2.93688 -4.8852,11.08821 -2.7793,13.53906 2.2388,2.60564 6.0074,2.64119 9.2774,5.09375 2.9625,7.45342 5.5938,14.40939 8.1367,21.03711 -6.0468,3.5108 -12.114,6.69375 -18.2617,9.22268 -5.2966,2.17875 -15.1095,5.33613 -15.0215,7.55078 0.042,1.0576 -1.6707,3.59456 0.3886,5.54297 1.1725,2.92562 6.6094,8.53111 9.6856,6.8125 -1.2388,2.42408 0.7191,3.29115 2.0156,3.52539 -2.2855,4.14154 6.1166,3.66703 11.0586,1.82421 2.4196,-0.90227 5.4636,-5.05966 7.5215,-6.73046 3.1501,-2.55753 6.726,-5.21374 10.5664,-7.89258 5.185,12.08954 11.0076,23.54717 19.3496,35.62304 3.5939,5.20259 3.6046,-3.08856 5.6387,-4.83203 9.46,6.50424 11.2754,18.92927 11.2754,3.22071 2.7225,6.43122 14.3858,14.67992 11.2754,8.85937 -11.4455,-21.41819 -20.0647,-39.72114 -26.7305,-56.07619 10.6869,-6.22083 21.597,-11.80859 30.6426,-15.60742 -0.2422,2.66444 -5.8834,10.95864 -5.1211,13.98633 -5.9376,10.18079 -2.2771,9.2775 0.6074,6.34181 3.1029,-3.15797 4.3985,0.97707 5.9219,0.86719 0.07,6.04235 10.4917,-7.02314 8.373,-2.55469 -3.3437,7.05187 -5.4871,8.60684 -6.3301,11.43164 -0.5913,1.98147 1.1241,0.43791 2.8672,-2.47656 0.7171,1.22188 2.8642,0.75415 3.4629,-0.21094 7.9824,-12.86668 18.9817,-32.5939 17.834,-47.05861 -0.3246,-4.09139 -10.6017,-11.47081 -13.9219,-10.70117 -18.4193,4.75107 -35.3029,15.41677 -51.8515,26.07812 -1.6909,-4.89207 -3.208,-9.62721 -4.584,-14.24414 -1.9542,-6.55701 0.031,-20.20027 -5.4883,-21.7832 -2.5079,-0.71928 -3.7932,-2.31165 -6.6523,-2.38281 z m -325.8223,3.97656 c -0.9389,-0.0279 -1.7412,0.38877 -2.3242,0.83398 -0.7435,-0.41848 -1.9669,-0.49024 -2.6856,-0.12109 -1.8661,0.9585 -3.6169,2.69655 -5.0859,5.45117 -0.8463,0.084 -2.6126,0.77044 -3.5059,1.90039 -1.7932,2.26826 -2.6056,7.41697 -0.7695,11.10938 0.5954,1.19737 6.3194,2.65131 7.3047,4.20703 5.6294,4.0115 11.4596,9.68172 15.0742,14.17773 2.0366,2.53315 0.8293,-2.57655 0.2305,-4.37304 2.1051,1.81965 3.7116,4.19785 5.0371,6.80468 -20.5636,11.39474 -54.2733,22.83563 -52.8067,49.32815 1.8356,33.15727 35.7409,35.87965 69.0586,36.14648 1.4445,0.0117 6.3601,-0.32712 7.9786,-1.36523 0.9041,-0.57991 -0.7254,-1.45633 -0.9336,-2.42188 5.5269,0.125 6.2114,-1.70188 4.4668,-3.08007 2.1703,-0.3946 7.5892,-0.46516 9.6171,-1.71094 2.3509,-1.44418 1.4169,-3.55338 3.5508,-4.33594 5.5206,-2.02447 5.8617,-6.59547 4.5469,-7.91406 -0.5556,-0.55717 -2.8429,-0.41048 -3.5996,-0.92969 -0.5856,-0.40176 6.252,-2.41472 10.2754,-4.41797 5.8039,-2.88969 8.6587,-5.71699 9.1211,-7.51758 0.6675,-2.59838 -4.4067,1.06523 -6.9766,2.21289 -16.4778,7.35842 -37.7534,9.44437 -48.5195,9.41407 -14.7985,-0.0416 -28.813,-2.46623 -33.0449,-9.82227 -12.5264,-21.77438 47.8782,-28.8139 67.2461,-47.16994 4.728,-4.48092 14.2262,-11.70598 15.5312,-21.96289 0.1596,-1.25483 1.9752,-4.69984 -0.6758,-7.15625 -1.0341,-0.95822 -2.0657,-1.76915 -3.0117,-1.83984 1.1466,-4.33162 -7.7645,-5.20469 -9.5488,-5.01954 -3.5342,0.36673 -4.3296,3.17967 -5.2676,6.08399 -1.0199,-1.66642 -2.9303,-3.60519 -4.2246,-4.1211 -2.7822,-1.10895 -5.1751,-0.84754 -7.8301,1.51954 -1.2336,1.09976 -1.5352,3.73617 -2.0742,4.94531 -2.2146,4.96715 -7.2308,10.02877 -11.9551,13.86914 -4.7894,-15.24204 -12.1716,-25.39458 -16.9648,-29.49219 -2.0478,-1.75061 -4.8422,-3.16136 -7.2344,-3.23242 z m -495.71094,2.16406 c -2.66334,-0.007 -5.12112,0.9662 -5.57813,3.42578 -4.34676,-1.67419 -7.80039,1.85124 -8.77148,2.45703 -3.26568,2.03722 -0.70044,4.23074 1.25586,6.38477 6.90869,8.96667 11.15188,17.3261 13.34375,27.01172 0.2158,0.95333 1.66482,7.58373 2.70898,8.06445 1.16331,0.5356 1.90271,-5.30729 1.5,-9.07031 0.57321,1.2322 3.6362,6.51521 4.17578,0.96484 1.62974,3.24256 2.54793,1.1311 2.55469,-0.57031 0.008,-1.87473 -0.75677,-4.79035 -2.34766,-9.125 0.90021,1.7624 3.472,1.24848 2.49414,-4.2793 1.69714,1.18948 3.32989,3.66772 3.00391,1.79297 -1.76693,-10.16106 -1.37179,-17.57854 -7.5293,-24.60351 -1.27922,-1.45944 -4.14721,-2.44629 -6.81054,-2.45313 z m 1136.62894,0 c -2.6634,-0.007 -5.1211,0.9662 -5.5782,3.42578 -4.3467,-1.67419 -7.8023,1.85124 -8.7734,2.45703 -3.2657,2.03722 -0.6985,4.23074 1.2578,6.38477 6.9087,8.96667 11.1519,17.3261 13.3438,27.01172 0.2158,0.95333 1.6648,7.58373 2.7089,8.06445 1.1633,0.5356 1.9027,-5.30729 1.5,-9.07031 0.5732,1.2322 3.6363,6.51521 4.1758,0.96484 1.6298,3.24256 2.548,1.1311 2.5547,-0.57031 0.01,-1.87473 -0.7567,-4.79035 -2.3476,-9.125 0.9002,1.7624 3.4719,1.24848 2.4941,-4.2793 1.6971,1.18948 3.328,3.66772 3.002,1.79297 -1.7669,-10.16106 -1.3699,-17.57854 -7.5274,-24.60351 -1.2792,-1.45944 -4.1472,-2.44629 -6.8105,-2.45313 z m -1103.07621,1.7461 c -1.5213,0.0415 -3.24716,0.75119 -5.61523,2.36132 -0.8412,-0.76334 -7.31624,0.99771 -8.26368,4.16797 -2.85794,1.45835 -3.38513,4.12942 -1.39062,6.7168 4.55412,5.90765 7.58733,5.38981 7.62109,9.2832 0.37185,42.89576 -44.00271,68.53643 -63.21289,79.1719 -0.5495,0.30426 -1.85778,1.70381 -2.26172,2.57226 -0.46767,1.00564 -1.31414,1.87153 -0.22461,2.38282 -1.94516,1.29012 5.30178,-2.00798 9.6836,-3.60938 -1.56802,1.72524 -1.18576,2.42704 -0.39063,2.38477 4.2688,-0.22688 16.56401,-6.3096 27.59375,-13.93164 -0.58597,0.46457 -0.93104,1.34676 -2.83593,2.87109 -1.91242,1.53032 -1.64008,2.07467 -1.28711,2.49414 0.70073,0.83282 7.06975,-1.71067 8.125,-2.17969 -1.58303,2.67398 2.7271,0.76943 3.6875,0.12305 25.03843,-16.85144 54.04471,-44.06338 50.67187,-76.3594 -0.33435,-3.20099 -0.46032,-6.23382 -3.25195,-7.11914 0.33023,-2.61841 -1.93736,-3.93117 -4.5625,-5.71484 -1.16201,-0.78954 -5.25268,-2.73521 -6.16211,-1.30273 -3.42056,-2.59052 -5.38833,-4.38174 -7.92383,-4.3125 z m 1136.62891,0 c -1.5213,0.0415 -3.2471,0.75119 -5.6152,2.36132 -0.8412,-0.76334 -7.3163,0.99771 -8.2637,4.16797 -2.858,1.45835 -3.3852,4.12942 -1.3906,6.7168 4.5541,5.90765 7.5873,5.38981 7.6211,9.2832 0.3719,42.89576 -44.0028,68.53643 -63.2129,79.1719 -0.5495,0.30426 -1.8597,1.70381 -2.2637,2.57226 -0.4676,1.00564 -1.3122,1.87153 -0.2227,2.38282 -1.9451,1.29012 5.3018,-2.00798 9.6836,-3.60938 -1.568,1.72524 -1.1876,2.42704 -0.3925,2.38477 4.2688,-0.22688 16.566,-6.3096 27.5957,-13.93164 -0.5859,0.46457 -0.9311,1.34676 -2.836,2.87109 -1.9124,1.53032 -1.6401,2.07467 -1.2871,2.49414 0.7007,0.83282 7.0698,-1.71067 8.125,-2.17969 -1.583,2.67398 2.7271,0.76943 3.6875,0.12305 25.0384,-16.85144 54.0448,-44.06338 50.6719,-76.3594 -0.3343,-3.20099 -0.4604,-6.23382 -3.252,-7.11914 0.3302,-2.61841 -1.9374,-3.93117 -4.5625,-5.71484 -1.162,-0.78954 -5.2546,-2.73521 -6.164,-1.30273 -3.4206,-2.59052 -5.3864,-4.38174 -7.9219,-4.3125 z m -1196.81836,3.03125 c -0.88613,0.0412 -1.84778,0.26324 -2.89258,0.6875 -1.98034,0.80418 -5.78365,0.89672 -4.56641,3.76562 -1.54972,-0.13918 -8.9635,0.50473 -10.21289,1.2207 -3.48198,1.99537 -3.11806,6.10527 0.33789,7.34766 7.33319,9.78343 13.82986,24.59082 15.33789,35.96291 0.73075,5.51055 0.19136,13.06427 2.42969,11.40234 1.54946,-1.15043 1.70828,-3.15537 1.82227,-5.73437 0.87096,-0.32114 0.22844,-3.39651 0.14648,-4.28906 0.46483,0.16669 2.20335,4.66727 3.36524,3.63672 0.81645,-0.72417 0.0894,-6.72688 -0.64649,-10.00979 1.5822,1.74785 1.99899,8.81083 3.35547,6.90041 1.00963,-1.42192 -0.3446,-14.18064 -0.56445,-16.42189 0.9421,1.23468 1.87325,8.32307 2.9082,7.53906 2.46366,-1.8663 2.01156,-12.65826 1.74609,-14.94336 -0.72998,-6.28334 -3.2188,-15.64138 -4.46484,-19.04297 -1.82194,-4.97369 -4.26167,-8.19981 -8.10156,-8.02148 z m 1136.62696,0 c -0.8861,0.0412 -1.8458,0.26324 -2.8906,0.6875 -1.9803,0.80418 -5.7837,0.89672 -4.5664,3.76562 -1.5498,-0.13918 -8.9635,0.50473 -10.2129,1.2207 -3.482,1.99537 -3.12,6.10527 0.3359,7.34766 7.3332,9.78343 13.8299,24.59082 15.3379,35.96291 0.7308,5.51055 0.1914,13.06427 2.4297,11.40234 1.5495,-1.15043 1.7083,-3.15537 1.8223,-5.73437 0.8708,-0.32114 0.2304,-3.39651 0.1484,-4.28906 0.4648,0.16669 2.2033,4.66727 3.3652,3.63672 0.8164,-0.72417 0.09,-6.72688 -0.6465,-10.00979 1.5822,1.74785 1.9972,8.81083 3.3536,6.90041 1.0097,-1.42192 -0.3426,-14.18064 -0.5625,-16.42189 0.9421,1.23468 1.8732,8.32307 2.9082,7.53906 2.4636,-1.8663 2.0114,-12.65826 1.746,-14.94336 -0.73,-6.28334 -3.2188,-15.64138 -4.4648,-19.04297 -1.8219,-4.97369 -4.2636,-8.19981 -8.1035,-8.02148 z m -702.3106,16.29101 c -2.9124,-0.0143 -6.3081,0.0327 -10.0019,0.10352 -26.1099,0.50052 -64.2908,-1.0077 -112.3007,5.0625 -2.2007,-1.08425 -3.7062,-2.01778 -6.3008,-2.60547 -3.94964,-0.89461 -13.57078,1.46909 -16.24812,3.73828 -2.31081,1.95853 -5.42305,4.35063 -5.87695,6.31836 -0.20192,0.87536 1.01857,2.19503 4.23242,4.0332 -0.27353,0.8308 -1.76826,3.58342 -0.82227,5.79102 1.73917,4.05857 7.47086,8.60106 14.14258,12.39455 5.29424,3.01021 20.17694,-5.36701 25.50984,-5.91994 36.3019,-3.76391 54.9104,-3.8583 78.7031,-4.14258 4.1155,-0.0492 5.593,-3.84565 2.7617,-4.19141 -2.4661,-0.30117 -5.8461,-1.00695 -5.9121,-2.24609 -0.058,-1.08025 22.3714,1.44955 21.8808,-2.63086 6.0878,-0.26488 2.325,-4.11257 4.0215,-4.92578 3.8658,-1.85307 1.5622,-5.04103 -0.5684,-5.65821 2.7524,-0.91746 13.1267,-1.57149 14.918,-2.34179 4.9837,-2.14311 0.5986,-2.73645 -8.1387,-2.7793 z"
       id="path2985-3-0"
       inkscape:connector-curvature="0" /></g></svg>