<?xml version="1.0" encoding="UTF-8" standalone="no"?>
<svg
   xmlns:dc="http://purl.org/dc/elements/1.1/"
   xmlns:cc="http://creativecommons.org/ns#"
   xmlns:rdf="http://www.w3.org/1999/02/22-rdf-syntax-ns#"
   xmlns:svg="http://www.w3.org/2000/svg"
   xmlns="http://www.w3.org/2000/svg"
   xmlns:xlink="http://www.w3.org/1999/xlink"
   xmlns:sodipodi="http://sodipodi.sourceforge.net/DTD/sodipodi-0.dtd"
   xmlns:inkscape="http://www.inkscape.org/namespaces/inkscape"
   id="svg2"
   version="1.1"
   inkscape:version="1.0.2-2 (e86c870879, 2021-01-15)"
   width="2481"
   height="3503"
   sodipodi:docname="E32P05.svg">
  <metadata
     id="metadata8">
    <rdf:RDF>
      <cc:Work
         rdf:about="">
        <dc:format>image/svg+xml</dc:format>
        <dc:type
           rdf:resource="http://purl.org/dc/dcmitype/StillImage" />
        <dc:title />
      </cc:Work>
    </rdf:RDF>
  </metadata>
  <defs
     id="defs6">
    <filter
       style="color-interpolation-filters:sRGB"
       id="filter4375-4-1-1-1-9-6-9-2-1-7-1"
       inkscape:label="deevad outline effect">
      <feFlood
         id="feFlood4377-7-9-0-8-1-0-2-2-06-3-9"
         flood-opacity="1"
         flood-color="rgb(0,0,0)"
         result="flood" />
      <feComposite
         id="feComposite4379-3-8-8-2-77-6-0-8-3-6-4"
         in2="SourceGraphic"
         in="flood"
         operator="in"
         result="composite1" />
      <feMorphology
         id="feMorphology4393-1-0-49-8-9-2-2-9-2-1-7"
         operator="dilate"
         radius="4"
         result="result3" />
      <feComposite
         id="feComposite4385-9-5-7-0-8-6-3-7-0-2-8"
         in2="result3"
         in="SourceGraphic"
         operator="over"
         result="composite2" />
    </filter>
    <filter
       style="color-interpolation-filters:sRGB"
       id="filter4375-4-1-1-1-9-6-9-2-1-7-1-2"
       inkscape:label="deevad outline effect">
      <feFlood
         id="feFlood4377-7-9-0-8-1-0-2-2-06-3-9-7"
         flood-opacity="1"
         flood-color="rgb(0,0,0)"
         result="flood" />
      <feComposite
         id="feComposite4379-3-8-8-2-77-6-0-8-3-6-4-0"
         in2="SourceGraphic"
         in="flood"
         operator="in"
         result="composite1" />
      <feMorphology
         id="feMorphology4393-1-0-49-8-9-2-2-9-2-1-7-9"
         operator="dilate"
         radius="4"
         result="result3" />
      <feComposite
         id="feComposite4385-9-5-7-0-8-6-3-7-0-2-8-3"
         in2="result3"
         in="SourceGraphic"
         operator="over"
         result="composite2" />
    </filter>
    <filter
       style="color-interpolation-filters:sRGB"
       id="filter4375-4-1-1-1-9"
       inkscape:label="deevad outline effect">
      <feFlood
         id="feFlood4377-7-9-0-8-1"
         flood-opacity="1"
         flood-color="rgb(0,0,0)"
         result="flood" />
      <feComposite
         id="feComposite4379-3-8-8-2-77"
         in2="SourceGraphic"
         in="flood"
         operator="in"
         result="composite1" />
      <feMorphology
         id="feMorphology4393-1-0-49-8-9"
         operator="dilate"
         radius="4"
         result="result3" />
      <feComposite
         id="feComposite4385-9-5-7-0-8"
         in2="result3"
         in="SourceGraphic"
         operator="over"
         result="composite2" />
    </filter>
    <filter
       inkscape:collect="always"
       style="color-interpolation-filters:sRGB"
       id="filter1101"
       x="-0.12972304"
       width="1.2594461"
       y="-0.36928496"
       height="1.7385699">
      <feGaussianBlur
         inkscape:collect="always"
         stdDeviation="22.559027"
         id="feGaussianBlur1103" />
    </filter>
  </defs>
  <sodipodi:namedview
     pagecolor="#ffffff"
     bordercolor="#666666"
     borderopacity="1"
     objecttolerance="10"
     gridtolerance="10"
     guidetolerance="10"
     inkscape:pageopacity="0"
     inkscape:pageshadow="2"
     inkscape:window-width="1366"
     inkscape:window-height="745"
     id="namedview4"
     showgrid="false"
     inkscape:zoom="0.52900001"
     inkscape:cx="179.78793"
     inkscape:cy="2887.3032"
     inkscape:window-x="-8"
     inkscape:window-y="-8"
     inkscape:window-maximized="1"
     inkscape:current-layer="layer1"
     inkscape:snap-global="false"
     inkscape:document-rotation="0" />
  <g
     inkscape:groupmode="layer"
     id="layer2"
     inkscape:label="artwork"
     sodipodi:insensitive="true">
    <image
       sodipodi:absref="C:\Users\quentinlipeck\Downloads\webcomics-master-ec7d62e6553c2c63bb1cf2e799ee31f9cb9ce5e2\webcomics-master-ec7d62e6553c2c63bb1cf2e799ee31f9cb9ce5e2\ep32_The-Battlefield\lang\gfx_Pepper-and-Carrot_by-David-Revoy_E32P05.png"
       xlink:href="../gfx_Pepper-and-Carrot_by-David-Revoy_E32P05.png"
       y="0"
       x="0"
       id="image10"
       height="3503"
       width="2481" />
  </g>
  <g
     inkscape:groupmode="layer"
     id="layer3"
     inkscape:label="speechbubbles"
     style="display:inline">
    <path
       style="display:inline;fill:#ffffff;fill-rule:evenodd;stroke:none;stroke-width:1.11592px;stroke-linecap:butt;stroke-linejoin:miter;stroke-opacity:1"
       d="m 1192.8715,1463.957 c -1.2128,10.9428 -0.3978,22.5718 -6.946,32.5871 -8.5668,10.9342 -24.8117,16.623 -40.4949,17.0951 -14.7871,0.5421 -29.6751,-1.3381 -43.6124,-5.3189 -4.0748,1.8776 -3.0424,6.844 0.3614,8.8192 7.958,9.2679 15.9401,19.4396 16.4571,31.0363 0.9294,8.0174 -3.8108,17.061 -13.5025,20.2527 -7.3347,2.5551 -15.5185,2.0176 -23.2963,1.6848 2.0697,3.2226 6.3004,4.9871 8.9367,7.8619 5.5475,4.5439 11.0588,10.4496 10.0134,17.1846 -1.5231,9.2375 -11.2286,16.5786 -22.1685,18.8827 -4.1101,1.6961 -8.2203,3.3923 -12.3304,5.0884 20.2931,-0.8155 41.1113,-2.7152 60.9939,1.7226 11.1644,3.3543 14.1274,16.9548 5.0736,23.1699 -6.7803,6.3539 -15.2466,11.3083 -23.0278,16.8125 29.1386,-3.4291 58.2403,-9.3587 87.9059,-7.7721 8.0329,0.3856 16.5942,1.4594 22.8358,5.9033 5.1969,3.3093 9.3131,7.6649 12.0659,12.5017 9.2702,2.6087 18.9307,-0.3538 27.8161,-2.5664 20.4699,-5.4376 40.1372,-12.9953 61.3742,-16.4376 4.4685,0.7788 8.2029,3.5474 9.8235,6.9493 9.9811,2.2412 19.9043,-1.3097 29.63,-2.7571 7.7708,-1.3461 15.6055,-2.7699 23.5956,-2.8015 3.8597,3.638 9.024,7.4776 15.4516,6.9019 19.2131,0.835 39.0422,-0.6599 57.5701,4.3807 11.5232,4.1195 20.5054,11.8812 26.5807,20.6256 19.686,-8.9909 36.5881,-22.0493 58.321,-28.0098 14.9397,-4.3383 33.236,-2.6979 45.0809,6.2522 3.3399,2.5261 6.2164,5.411 8.9401,8.3669 8.6832,-5.1811 16.1273,-12.4992 27.1236,-14.5117 16.0075,-3.9962 33.0074,-1.6573 49.0277,1.0176 14.1729,2.161 28.2581,4.68 42.2687,7.4375 -7.6156,-5.1788 -13.9949,-12.5211 -14.002,-20.8125 2.0439,-6.7253 10.7333,-11.6557 19.3115,-10.9355 -2.4542,-4.2752 -3.604,-10.1594 0.9922,-13.7996 7.2965,-5.6264 17.8922,-6.5322 27.4855,-7.2891 2.5329,-0.2719 5.0658,-0.5438 7.5987,-0.8156 -16.9946,-7.597 -21.6444,-28.2054 -8.9626,-40.0703 8.3397,-7.0826 18.719,-12.34 29.3442,-16.9258 -15.2503,-0.6773 -30.7143,2.2892 -45.7929,-0.584 -8.4203,-4.2904 -11.9275,-12.2299 -18.308,-18.0419 -3.5347,-5.7999 0.1,-13.0044 6.4181,-16.5283 13.6298,-11.0312 26.6689,-22.641 37.2841,-35.6784 6.1611,-7.1868 11.8322,-14.6358 17.2952,-22.1752 -18.0344,19.6818 -43.2071,35.769 -72.6818,42.6724 -9.7764,2.4632 -19.8239,5.5553 -30.2575,4.5815 -5.2037,-1.9666 -9.6335,-5.992 -15.8091,-5.7344 -10.9958,3.3561 -21.9916,6.7122 -32.9875,10.0683 -3.242,-2.0256 -5.6651,-4.8843 -6.798,-8.0566 -10.6051,0.411 -21.6001,-1.0989 -30.7426,-5.6133 -4.5277,-5.9477 -5.1541,-13.616 -1.8728,-20.0469 -14.7918,8.4929 -27.5877,18.932 -41.4101,28.3672 -14.1035,-2.193 -25.7503,-10.7951 -40.4762,-10.9922 -39.7299,-2.6757 -79.6955,-5.4418 -119.5601,-3.0677 -19.2634,2.452 -38.6743,6.9416 -58.3267,4.6844 -19.2418,-1.6019 -38.9801,-4.4384 -58.12,-0.6881 -9.5727,1.796 -20.4985,2.7429 -29.2507,-1.6373 -13.9545,-6.4628 -22.8064,-17.6313 -33.1795,-27.1508 -2.8505,-2.7756 -5.7793,-5.4987 -8.7561,-8.1873 -0.1009,0.6992 -0.2027,1.3984 -0.304,2.0976 z"
       id="path4508-9"
       inkscape:connector-curvature="0"
       sodipodi:nodetypes="cccccccccccccccccccccccccccccccccccccccccccccccccccc" />
    <path
       style="display:inline;fill:#ffffff;fill-rule:evenodd;stroke:none;stroke-width:0.837792px;stroke-linecap:butt;stroke-linejoin:miter;stroke-opacity:1"
       d="m 1291.9916,1551.6001 c -0.4272,14.9763 -2.2925,30.4744 -8.1842,43.1992 -10.4471,9.9032 -25.4442,8.0436 -34.6985,-3.9336 -2.4751,1.0549 -2.0043,5.9619 -0.4614,7.9977 3.2044,13.7745 6.4873,27.5385 8.8854,41.6546 -3.1509,4.279 -9.02,2.8847 -11.0274,-2.6171 0.9595,8.6577 6.3868,15.0735 6.5159,24.0527 -2.2759,6.8509 -6.3531,8.5402 -14.1237,10.7721 3.7287,6.4634 8.1616,13.6119 7.8581,22.5472 -0.2548,10.3506 -6.2982,18.5756 -12.8301,21.838 -0.8584,0.4177 -0.4827,1.3365 0.2953,1.0804 11.44,2.5904 23.5773,0.1279 34.4326,6.9673 7.7375,3.8318 14.3819,14.403 14.0584,26.5313 -0.1278,2.4172 -0.8705,4.6955 -0.8869,7.1289 7.0082,-3.685 13.9134,-8.7143 21.5216,-9.1211 3.0232,2.217 3.6729,8.9238 1.131,12.1739 8.6834,-0.8761 14.7528,-12.6591 23.5896,-12.661 2.8552,-0.2209 5.5483,3.728 4.9856,7.7668 1.3387,2.4778 4.0107,-3.4752 5.7781,-3.6732 5.0192,-1.7096 4.2329,-2.3202 9.4731,-2.6628 1.8705,1.0566 4.2419,1.9214 6.4578,6.7575 3.7093,-1.6599 5.4047,-3.2964 7.7735,-3.2618 7.6765,-1.9429 12.5234,-9.5681 23.2908,-4.0373 7.169,2.6901 10.8009,11.4501 14.815,16.5363 2.2551,-4.9904 4.9328,-8.3773 7.2562,-11.6886 4.1826,-9.0484 11.9711,-11.7554 19.3789,-13.0204 6.3468,-2.4924 12.9096,1.1364 19.3304,4.914 3.9256,2.837 7.4144,6.8716 11.5874,9.009 3.2706,-2.9935 6.8247,-7.6176 11.0266,-5.8788 4.3452,1.2629 8.1503,4.7237 12.3525,6.6014 -2.4724,-5.2749 -6.3355,-9.9378 -6.6022,-16.6953 1.6147,-4.1426 4.9904,-5.7219 8.0046,-6.8906 -0.1387,-5.8386 3.1654,-10.7273 6.8353,-12.6035 0.7726,-4.2932 -2.7194,-6.3524 -3.8443,-9.6772 -2.7681,-6.1856 -1.5924,-16.333 3.6369,-18.9876 3.0113,-1.6863 6.4191,-1.1902 9.3608,-3.2024 -0.1263,-3.6135 -3.2416,-3.559 -5.0489,-4.4551 -5.2464,-2.3525 -11.1385,-5.8666 -13.4037,-13.6003 -0.9057,-4.5717 1.7373,-8.5977 1.8098,-12.9751 -1.3298,-3.1602 -4.5742,-5.5187 -3.7864,-9.8157 1.9376,-12.6493 8.7987,-21.8467 13.6299,-32.3092 7.2254,-14.1637 14.4508,-28.3274 21.6762,-42.4911 -11.827,16.7767 -23.609,33.8856 -37.3938,47.4531 -3.3132,-0.2747 -5.1878,-6.8783 -2.9405,-10.3574 -4.96,1.8352 -8.3547,7.7663 -12.7889,11.041 -1.7621,-3.2623 -1.527,-8.188 0.3001,-11.2968 -2.3062,-2.8821 -5.4539,2.6571 -7.6413,-0.7012 -2.8939,-4.4836 -1.5051,-10.9601 -0.8564,-16.2618 0.7507,-5.1539 1.8583,-10.1858 2.633,-15.332 -7.7057,12.8442 -13.1098,28.756 -22.8495,38.929 -1.649,1.8328 -4.1237,2.7874 -5.8393,0.5686 -1.6273,-1.538 -2.7778,-4.1363 -2.9197,-6.9312 -5.9105,0.8047 -11.1324,7.2402 -17.2568,5.5059 -6.4561,-4.4956 -14.1147,-2.5912 -20.4084,1.5215 -6.0715,-0.014 -10.644,-8.2277 -16.8455,-7.1392 -3.8674,-0.9398 -6.3453,-5.8572 -8.4651,-9.9732 -3.8196,-0.6012 -5.8299,5.1911 -9.0468,6.9807 -7.8605,5.829 -17.7596,2.6338 -24.456,-4.9761 -1.5561,-2.1426 -3.8353,-4.8476 -6.0532,-2.7953 -2.519,1.7483 -3.5027,6.6255 -6.3714,7.4051 -4.6679,0.772 -8.6584,-5.2245 -9.2384,-11.485 -5.059,-15.108 -8.9924,-30.9005 -13.3692,-46.4174 -0.014,0.9974 -0.027,1.9948 -0.043,2.9922 z"
       id="path4508-9-6"
       inkscape:connector-curvature="0"
       sodipodi:nodetypes="cccccccccccccccccccccccccccccccccccccccccccccccccccccccccccccccc" />
    <path
       style="color:#000000;display:inline;overflow:visible;visibility:visible;fill:#ffffff;fill-opacity:1;fill-rule:nonzero;stroke:none;stroke-width:1px;marker:none;enable-background:accumulate"
       d="m 1322.5586,1728.1016 c -11.0094,9.9702 -17.1146,23.8053 -25.197,35.9928 -5.7365,9.1028 -17.9114,24.8135 -26.046,32.2016 7.6812,0.2097 5.7344,0.8326 10.9478,2.0534 3.3706,1.3513 7.7807,2.3941 9.3038,6.0235 -1.4478,7.677 -8.2527,12.4101 -13.2117,17.8317 -21.2393,19.7738 -50.3466,30.4414 -79.2715,30.188 30.5673,5.5836 63.676,0.269 89.5548,-17.4158 15.5847,-11.4657 31.0045,-29.6098 44.4036,-43.4287 -3.8521,-0.6581 -8.7325,-0.5391 -12.6274,-0.7071 -7.2015,-0.9549 -9.1708,-6.0664 -6.2213,-10.4154 3.8653,-10.2383 12.9809,-16.9751 20.7567,-24.1405 4.6114,-3.9349 9.2499,-7.8384 13.8074,-11.8359 -7.5773,-6.8137 -16.4342,-11.9448 -25.0566,-17.289 -0.3809,0.3138 -0.7617,0.6276 -1.1426,0.9414 z"
       id="path5066-6"
       inkscape:connector-curvature="0"
       sodipodi:nodetypes="ccccccccccccccc" />
    <path
       style="color:#000000;display:inline;overflow:visible;visibility:visible;fill:#ffffff;fill-opacity:1;fill-rule:nonzero;stroke:none;stroke-width:1.04009px;marker:none;enable-background:accumulate"
       d="m 1451.291,355.47571 c -43.658,1.56885 -87.7526,9.04093 -126.4338,26.42932 -15.5904,7.72462 -29.0721,19.97094 -32.7758,35.07399 -1.3926,14.86684 6.9459,29.5407 19.5635,39.81667 12.7501,9.68135 29.8654,13.94957 46.5509,16.32272 58.4635,11.04226 118.5628,15.05977 178.4303,15.05427 35.7861,1.1268 71.9708,1.52522 107.2682,-4.25109 24.0794,-2.77574 48.2892,-7.29498 69.8261,-16.97571 17.1266,-7.2199 31.6716,-19.95299 36.5422,-35.62661 3.2027,-11.99215 0.4989,-24.79439 -6.0816,-35.6868 -6.0749,-9.0593 -16.8198,-15.62515 -28.792,-18.38008 -21.4477,-6.23528 -44.1261,-8.50314 -66.3774,-11.8868 -65.3956,-8.17039 -131.6933,-9.72031 -197.7206,-9.88988 z"
       id="path3365-74"
       inkscape:connector-curvature="0"
       sodipodi:nodetypes="csssssc" />
    <path
       style="display:inline;fill:#ffffff;fill-rule:evenodd;stroke:none;stroke-width:1.19551px;stroke-linecap:butt;stroke-linejoin:miter;stroke-opacity:1"
       d="m 1459.7128,168.9505 c -41.5802,0.38599 -83.9052,-1.22989 -124.5326,6.98826 -27.1187,5.52943 -52.425,19.43318 -64.336,39.54702 -8.3675,15.81305 -1.4502,34.66567 13.5458,46.63739 8.3054,6.76206 17.5274,13.60859 29.2846,16.42522 10.8584,2.54143 22.2698,0.99986 33.3986,1.29424 20.4188,-0.14066 40.834,0.44407 61.2018,1.51249 80.692,2.41748 161.47,1.62733 242.1874,0.57368 26.6265,-0.7183 54.0629,-1.89015 78.8264,-10.24833 15.8302,-5.74789 29.1987,-16.63156 32.9656,-30.14875 5.0853,-14.82251 1.3573,-32.22842 -13.2753,-43.13396 -13.6838,-10.48285 -31.7596,-16.54769 -49.6641,-21.35899 -23.653,-5.79725 -48.7166,-6.40673 -73.3166,-6.02763 -32.4168,-0.37607 -64.8298,-0.89413 -97.237,-1.61992 -23.0123,-0.44807 -46.0306,-0.48431 -69.0486,-0.44072 z"
       id="path1297"
       inkscape:connector-curvature="0" />
    <path
       style="display:inline;fill:#ffffff;fill-rule:evenodd;stroke:none;stroke-width:0.914134px;stroke-linecap:butt;stroke-linejoin:miter;stroke-opacity:1"
       d="m 1597.9567,265.85481 c -63.8527,1.59682 -127.7264,2.91811 -191.5476,4.97139 -16.3805,0.62859 -32.8514,0.91637 -49.0327,2.78145 -18.5632,2.03487 -37.0444,5.15123 -53.8979,10.5404 -14.9385,5.68893 -24.9582,15.02338 -34.3259,24.03255 -4.6906,4.51419 -7.8901,9.71238 -8.0287,15.15366 -0.6878,9.37448 3.6562,18.53075 8.3135,27.32821 4.2862,7.44026 11.5331,14.2853 21.6239,19.09383 11.933,6.07236 25.4185,11.23075 40.2922,13.83999 10.2139,1.80917 20.8922,2.01864 31.4303,1.81586 25.7695,-0.0413 51.5384,0.0322 77.3073,0.0863 71.5826,-0.006 143.2951,0.0586 214.6678,-3.83621 15.1016,-0.85165 30.1637,-2.88434 44.1555,-6.61541 11.5001,-2.99053 21.2107,-8.09141 29.8104,-13.65017 7.9902,-5.28946 14.1469,-11.92429 15.5219,-19.26487 2.61,-10.49185 1.0119,-21.1467 1.8316,-31.70547 -0.7392,-8.44764 -8.564,-16.09998 -18.9539,-21.23923 -15.4571,-8.82051 -34.1597,-15.72427 -54.7998,-18.2787 -16.1941,-2.24106 -32.703,-3.43966 -49.173,-4.53961 -8.3788,-0.42914 -16.7898,-0.58996 -25.1949,-0.51402 z"
       id="path1299"
       inkscape:connector-curvature="0" />
    <path
       style="display:inline;fill:#ffffff;fill-rule:evenodd;stroke:none;stroke-width:1px;stroke-linecap:butt;stroke-linejoin:miter;stroke-opacity:1"
       d="m 1516.8322,467.18878 c -6.6131,0.47706 -14.4131,0.53134 -19.0606,6.05273 -9.2681,15.84095 -16.7496,33.90699 -15.1611,52.61768 2.1917,20.11622 13.9704,37.89228 28.3815,51.53834 8.5346,8.09616 15.6793,18.09456 18.3938,29.69937 4.3317,16.40289 0.7816,35.11834 -10.8279,47.78415 -2.1207,2.52133 -4.4197,4.88481 -6.7453,7.21593 17.3235,-9.37091 31.4532,-26.25408 34.2349,-46.13162 1.2634,-15.92483 -6.122,-31.08454 -15.4694,-43.50249 -9.5013,-13.2266 -21.135,-25.79068 -25.2403,-41.97989 -3.1205,-17.66298 3.3092,-35.58183 12.9847,-50.18689 1.9316,-3.08666 4.9581,-6.76026 3.4836,-10.5888 -1.0225,-1.66362 -3.0088,-2.74768 -4.9739,-2.51851 z"
       id="path1303"
       inkscape:connector-curvature="0"
       sodipodi:nodetypes="cccccccc" />
    <path
       style="color:#000000;display:inline;overflow:visible;visibility:visible;fill:#ffffff;fill-opacity:1;fill-rule:nonzero;stroke:none;stroke-width:1px;marker:none;filter:url(#filter1101);enable-background:accumulate"
       d="m 2064.5541,245.38398 c -39.6392,1.7245 -79.6747,9.93788 -114.7951,29.05136 -14.1553,8.49097 -26.3959,21.95224 -29.7587,38.55366 -1.2644,16.34177 6.3065,32.47141 17.7626,43.76686 11.5765,10.64183 27.1161,15.33349 42.2658,17.94208 53.0817,12.13776 107.6486,16.55384 162.005,16.5478 32.4919,1.23859 65.3456,1.67653 97.3937,-4.67284 21.8628,-3.05112 43.8441,-8.01871 63.3983,-18.65986 15.5501,-7.93618 28.7562,-21.93251 33.1784,-39.16111 2.9079,-13.18188 0.453,-27.25422 -5.5218,-39.22726 -5.5156,-9.95807 -15.2715,-17.17531 -26.1416,-20.20356 -19.4733,-6.85388 -40.064,-9.34673 -60.267,-13.06608 -59.3757,-8.98097 -119.5704,-10.68466 -179.5196,-10.87105 z"
       id="path3365-74-3"
       inkscape:connector-curvature="0"
       sodipodi:nodetypes="csssssc" />
  </g>
  <g
     inkscape:groupmode="layer"
     id="layer1"
     inkscape:label="txt"
     style="display:inline">
    <text
       xml:space="preserve"
       style="font-style:normal;font-variant:normal;font-weight:normal;font-stretch:normal;line-height:0%;font-family:Lavi;-inkscape-font-specification:Lavi;text-align:center;letter-spacing:0px;word-spacing:0px;text-anchor:middle;fill:#000000;fill-opacity:1;stroke:none"
       x="1509.0961"
       y="241.70142"
       id="text4246-86"><tspan
         sodipodi:role="line"
         style="font-size:45px;line-height:1.2"
         x="1509.0961"
         y="241.70142"
         id="tspan1167">seme, soweli Kawa o?</tspan></text>
    <text
       xml:space="preserve"
       style="font-style:normal;font-variant:normal;font-weight:normal;font-stretch:normal;line-height:0%;font-family:Lavi;-inkscape-font-specification:Lavi;text-align:center;letter-spacing:0px;word-spacing:0px;text-anchor:middle;fill:#000000;fill-opacity:1;stroke:none"
       x="1510.4191"
       y="342.72693"
       id="text4246-86-3"><tspan
         sodipodi:role="line"
         style="font-size:45px;line-height:1.2"
         x="1510.4191"
         y="342.72693"
         id="tspan861">wile la, moku o pona. </tspan><tspan
         sodipodi:role="line"
         x="1510.4191"
         y="360.10892"
         id="tspan855" /></text>
    <text
       xml:space="preserve"
       style="font-style:normal;font-variant:normal;font-weight:normal;font-stretch:normal;line-height:0%;font-family:Lavi;-inkscape-font-specification:Lavi;text-align:center;letter-spacing:0px;word-spacing:0px;text-anchor:middle;fill:#000000;fill-opacity:1;stroke:none"
       x="1521.1128"
       y="437.07376"
       id="text4246-86-3-7"><tspan
         sodipodi:role="line"
         style="font-size:45px;line-height:1.2"
         x="1521.1128"
         y="437.07376"
         id="tspan855-5">sina jaki tawa lukin...</tspan></text>
    <text
       xml:space="preserve"
       style="font-style:normal;font-variant:normal;font-weight:normal;font-stretch:normal;line-height:0%;font-family:Lavi;-inkscape-font-specification:Lavi;letter-spacing:0px;word-spacing:0px;display:inline;fill:#ffffff;fill-opacity:1;stroke:#ffffff;stroke-width:1.14998;stroke-miterlimit:4;stroke-dasharray:none;stroke-opacity:1;filter:url(#filter4375-4-1-1-1-9-6-9-2-1-7-1)"
       x="787.65729"
       y="1584.5073"
       id="text4580-1-7-3-6-9-4"
       transform="matrix(0.8084187,0.00200213,-0.18183537,0.93491494,1575.3651,-1147.577)"><tspan
         sodipodi:role="line"
         id="tspan4582-8-5-6-1-3-5"
         x="787.65729"
         y="1584.5073"
         style="font-size:70px;line-height:1.25;letter-spacing:3.44995px;fill:#ffffff;fill-opacity:1;stroke:#ffffff;stroke-width:1.14998;stroke-miterlimit:4;stroke-dasharray:none;stroke-opacity:1">...tawa lukin...</tspan></text>
    <text
       xml:space="preserve"
       style="font-style:normal;font-variant:normal;font-weight:normal;font-stretch:normal;font-size:13.859px;line-height:0%;font-family:Lavi;-inkscape-font-specification:Lavi;text-align:center;letter-spacing:0px;word-spacing:0px;text-anchor:middle;display:inline;fill:#000000;fill-opacity:1;stroke:none;stroke-width:3.6;stroke-miterlimit:4;stroke-dasharray:none"
       x="1844.9178"
       y="1411.5159"
       id="text4246-2-3-1-3-9-0-5-3-3-6-9-3-7-3-9-4"
       transform="matrix(0.87552817,0,-0.14342897,1.1421677,0,0)"><tspan
         sodipodi:role="line"
         style="font-style:normal;font-variant:normal;font-weight:bold;font-stretch:normal;font-size:64.9779px;line-height:1.25;font-family:Lavi;-inkscape-font-specification:'Lavi Bold';stroke:none;stroke-width:3.6;stroke-miterlimit:4;stroke-dasharray:none;stroke-opacity:1"
         x="1844.9178"
         y="1411.5159"
         id="tspan4579-4">nasin ante tawa lukin!</tspan></text>
    <text
       xml:space="preserve"
       style="font-style:normal;font-variant:normal;font-weight:normal;font-stretch:normal;font-size:12.5182px;line-height:0%;font-family:Lavi;-inkscape-font-specification:Lavi;text-align:center;letter-spacing:0px;word-spacing:0px;text-anchor:middle;display:inline;fill:#000000;fill-opacity:1;stroke:none;stroke-width:3.6;stroke-miterlimit:4;stroke-dasharray:none"
       x="1650.3458"
       y="1589.5555"
       id="text4246-2-3-1-3-9-0-5-3-3-6-9-3-7-3-9-4-6"
       transform="matrix(0.92759422,0,-0.09976132,1.0780576,0,0)"><tspan
         sodipodi:role="line"
         style="font-style:normal;font-variant:normal;font-weight:bold;font-stretch:normal;font-size:58.6919px;line-height:1.25;font-family:Lavi;-inkscape-font-specification:'Lavi Bold';stroke:none;stroke-width:3.6;stroke-miterlimit:4;stroke-dasharray:none;stroke-opacity:1"
         x="1650.3458"
         y="1589.5555"
         id="tspan4579-4-2">ni a!</tspan></text>
    <text
       xml:space="preserve"
       style="font-style:normal;font-variant:normal;font-weight:normal;font-stretch:normal;line-height:0%;font-family:Lavi;-inkscape-font-specification:Lavi;letter-spacing:0px;word-spacing:0px;fill:#000000;fill-opacity:1;stroke:#000000;stroke-width:1.19005;stroke-miterlimit:4;stroke-dasharray:none;stroke-opacity:1;filter:url(#filter4375-4-1-1-1-9)"
       x="787.65729"
       y="1584.5073"
       id="text4580"
       transform="matrix(0.81821305,-0.33688634,-0.15105419,1.1716012,481.86174,1568.9719)"><tspan
         sodipodi:role="line"
         id="tspan4582"
         x="787.65729"
         y="1584.5073"
         style="font-size:70px;line-height:1.25;fill:#ffffff;stroke-width:1.19005"><tspan
           style="font-size:80.4001px;stroke-width:1.19005"
           id="tspan4617"
           rotate="0 0 0 0 0 0 0 0">Pakala!</tspan></tspan></text>
  </g>
</svg>
