<?xml version="1.0" encoding="UTF-8" standalone="no"?>
<!-- Created with Inkscape (http://www.inkscape.org/) -->

<svg
   xmlns:dc="http://purl.org/dc/elements/1.1/"
   xmlns:cc="http://creativecommons.org/ns#"
   xmlns:rdf="http://www.w3.org/1999/02/22-rdf-syntax-ns#"
   xmlns:svg="http://www.w3.org/2000/svg"
   xmlns="http://www.w3.org/2000/svg"
   xmlns:xlink="http://www.w3.org/1999/xlink"
   xmlns:sodipodi="http://sodipodi.sourceforge.net/DTD/sodipodi-0.dtd"
   xmlns:inkscape="http://www.inkscape.org/namespaces/inkscape"
   id="svg2"
   version="1.1"
   inkscape:version="0.92.4 5da689c313, 2019-01-14"
   width="2481"
   height="3503"
   sodipodi:docname="E28P05.svg">
  <metadata
     id="metadata8">
    <rdf:RDF>
      <cc:Work
         rdf:about="">
        <dc:format>image/svg+xml</dc:format>
        <dc:type
           rdf:resource="http://purl.org/dc/dcmitype/StillImage" />
        <dc:title></dc:title>
      </cc:Work>
    </rdf:RDF>
  </metadata>
  <defs
     id="defs6" />
  <sodipodi:namedview
     pagecolor="#ffffff"
     bordercolor="#666666"
     borderopacity="1"
     objecttolerance="10"
     gridtolerance="10"
     guidetolerance="10"
     inkscape:pageopacity="0"
     inkscape:pageshadow="2"
     inkscape:window-width="1842"
     inkscape:window-height="1051"
     id="namedview4"
     showgrid="false"
     inkscape:zoom="0.51498715"
     inkscape:cx="944.37611"
     inkscape:cy="2683.5621"
     inkscape:window-x="69"
     inkscape:window-y="-9"
     inkscape:window-maximized="1"
     inkscape:current-layer="layer3" />
  <g
     inkscape:groupmode="layer"
     id="layer2"
     inkscape:label="artwork"
     sodipodi:insensitive="true">
    <image
       sodipodi:absref="/home/midgard/git/peppercarrot/comics/ep28_The-Festivities/lang/id/../gfx_Pepper-and-Carrot_by-David-Revoy_E28P05.png"
       xlink:href="../gfx_Pepper-and-Carrot_by-David-Revoy_E28P05.png"
       y="0"
       x="0"
       id="image10"
       height="3503"
       width="2481" />
  </g>
  <g
     inkscape:groupmode="layer"
     id="layer3"
     inkscape:label="speechbubbles">
    <path
       style="fill:#ffffff;fill-rule:evenodd;stroke:none;stroke-width:0.98090851px;stroke-linecap:butt;stroke-linejoin:miter;stroke-opacity:1"
       d="m 159.81562,199.87682 c 25.60308,-24.71004 63.68149,-37.31718 100.82986,-45.34209 34.75889,-7.64538 70.976,-7.82792 106.63324,-6.1682 45.21725,2.18932 91.01685,4.88487 134.62401,15.71482 13.33243,3.16669 25.88612,8.94756 34.17611,18.38462 35.10532,31.95572 60.53261,73.56506 59.67461,117.61164 -3.53177,64.73025 -5.29856,129.54213 -10.32055,194.21157 -1.52446,21.29455 -7.47699,43.75109 -26.21447,59.40343 -21.51763,18.81123 -50.04763,31.50626 -80.44984,37.1422 -48.37137,9.52277 -98.38118,12.8836 -148.01581,12.15806 -19.39947,-1.74492 -38.78952,-4.07227 -58.13229,-6.39109 -41.44734,-5.92334 -85.95996,-15.03151 -115.68386,-41.61475 -23.60022,-21.19516 -36.66885,-49.79549 -39.09589,-78.36915 0.18361,-60.08917 5.03971,-120.09213 8.24535,-180.10525 1.14296,-16.19987 0.247,-32.75436 7.19709,-48.23499 6.32865,-16.94994 14.54501,-33.63306 26.53244,-48.40082 z"
       id="path1006"
       inkscape:connector-curvature="0" />
    <path
       style="fill:#ffffff;fill-rule:evenodd;stroke:none;stroke-width:1px;stroke-linecap:butt;stroke-linejoin:miter;stroke-opacity:1"
       d="M 333.27358,346.17986 C 395.90659,299.25879 684.65819,123.37673 1012.4941,266.75583 759.55842,143.42811 491.69794,181.66189 330.00219,300.24071 Z"
       id="path1008"
       inkscape:connector-curvature="0"
       sodipodi:nodetypes="cccc" />
    <path
       style="fill:#ffffff;fill-rule:evenodd;stroke:none;stroke-width:1px;stroke-linecap:butt;stroke-linejoin:miter;stroke-opacity:1"
       d="m 1819.6761,521.16397 c 116.7092,-13.15033 182.4608,-4.93138 226.8431,52.60129 44.3824,57.53267 34.5196,90.40848 23.0131,80.54574 -11.5065,-9.86274 -23.0131,-151.22873 -249.8562,-133.14703 z"
       id="path1011"
       inkscape:connector-curvature="0" />
    <path
       style="fill:#ffffff;fill-rule:evenodd;stroke:none;stroke-width:1px;stroke-linecap:butt;stroke-linejoin:miter;stroke-opacity:1"
       d="m 2131.9905,552.39599 c 101.5645,1.64379 155.2214,13.15032 176.3008,29.58823 21.0794,16.4379 49.824,60.82025 40.2425,87.12089 -9.5816,26.30065 -45.9915,69.03921 -151.3887,65.75163 -105.3971,-3.28759 -178.617,6.3626 -206.9616,-52.6013 -17.8709,-37.17601 9.5816,-101.91501 49.8241,-113.42155 40.2426,-11.50653 45.9915,-14.79411 91.9829,-16.4379 z"
       id="path1013"
       inkscape:connector-curvature="0"
       sodipodi:nodetypes="cscsssc" />
    <path
       style="fill:#ffffff;fill-rule:evenodd;stroke:none;stroke-width:1.08279502px;stroke-linecap:butt;stroke-linejoin:miter;stroke-opacity:1"
       d="m 1940.9006,747.73602 c 63.5723,-57.81763 140.7774,-53.96312 161.4384,-50.10862 20.6609,3.85452 72.4683,9.73027 111.1555,13.49079 17.8887,1.73884 84.8474,30.42373 88.1785,102.14447 1.7888,38.51399 -8.2383,67.47877 -52.7389,82.8968 -44.5005,15.41803 -101.7112,25.02943 -157.337,23.10218 -55.6257,-1.92725 -118.9104,0 -152.2858,-34.69058 -33.3754,-34.69057 -42.9112,-82.87193 1.5893,-136.83504 z"
       id="path1015"
       inkscape:connector-curvature="0"
       sodipodi:nodetypes="cssssssc" />
    <path
       style="fill:#ffffff;fill-rule:evenodd;stroke:none;stroke-width:1.08031285px;stroke-linecap:butt;stroke-linejoin:miter;stroke-opacity:1"
       d="m 308.74674,1071.6194 c 90.05114,1.6682 161.52029,1.6682 181.53165,18.3502 20.01137,16.682 58.60471,55.0506 60.03409,91.7509 1.42939,36.7003 -1.42938,90.0827 -28.58766,115.1057 -27.15828,25.023 -75.7573,45.0414 -124.35633,53.3824 -48.59902,8.3409 -145.79707,8.3409 -178.67288,0 -32.87581,-8.341 -90.05113,-36.7004 -97.19805,-65.0597 -7.14691,-28.3595 -10.00568,-98.4237 -1.42938,-126.7832 8.5763,-28.3594 50.02841,-63.3915 91.48051,-73.4007 41.45211,-10.0092 97.19805,-13.3456 97.19805,-13.3456 z"
       id="path1017"
       inkscape:connector-curvature="0" />
    <path
       style="fill:#ffffff;fill-rule:evenodd;stroke:none;stroke-width:1px;stroke-linecap:butt;stroke-linejoin:miter;stroke-opacity:1"
       d="m 464.5495,1496.1462 c 57.17532,-75.7573 57.17532,-148.6559 4.28815,-244.4245 -52.88717,-95.7687 -80.04545,-97.1981 -80.04545,-97.1981 l -4.28815,52.8872 c 0,0 168.6672,128.6445 80.04545,288.7354 z"
       id="path1019"
       inkscape:connector-curvature="0" />
    <path
       style="fill:#ffffff;fill-rule:evenodd;stroke:none;stroke-width:1.07266259px;stroke-linecap:butt;stroke-linejoin:miter;stroke-opacity:1"
       d="m 1897.6946,1181.6164 c -3.8668,-54.1268 96.6972,-99.5753 228.7924,-99.9637 132.0949,-0.3882 246.9602,22.2488 246.2352,78.152 -0.725,55.9032 -23.3073,103.0846 -193.1599,103.3563 -169.8527,0.2718 -274.7384,-14.7742 -281.8677,-81.5446 z"
       id="path1021"
       inkscape:connector-curvature="0" />
    <path
       style="fill:#ffffff;fill-rule:evenodd;stroke:none;stroke-width:1px;stroke-linecap:butt;stroke-linejoin:miter;stroke-opacity:1"
       d="m 2223.4008,1243.0202 c 9.6724,22.1135 -3.7615,81.471 -16.6581,91.9459 -8.9785,11.3235 4.9225,16.0942 9.6724,15.1304 4.2989,-2.9097 37.6151,-18.04 42.9887,-9.3111 5.3736,8.7291 -48.8996,51.2105 -42.9887,57.0298 5.911,5.8194 27.9427,-8.1471 30.6294,-3.4916 2.6868,4.6554 -4.2988,17.4581 -16.6581,25.6052 20.957,-6.9833 30.0921,-18.6219 25.7932,-26.769 -4.2988,-8.1471 -12.3592,-6.9833 -17.7328,-5.8194 10.2098,-8.7291 49.9875,-38.2659 39.7777,-53.9782 -10.2098,-15.7122 -36.0426,-12.0787 -41.9536,-9.169 14.5087,-12.8026 28.0737,-53.8649 21.6254,-85.8713 -6.4483,-32.0065 -34.4955,4.6983 -34.4955,4.6983 z"
       id="path1023"
       inkscape:connector-curvature="0"
       sodipodi:nodetypes="ccccsccccccsc" />
    <path
       style="fill:#ffffff;fill-rule:evenodd;stroke:none;stroke-width:1px;stroke-linecap:butt;stroke-linejoin:miter;stroke-opacity:1"
       d="m 826.50706,2344.762 c 9.78488,-40.2573 52.11355,-55.2416 84.72982,-52.849 32.61627,2.3928 81.25075,23.5682 76.17711,56.2586 -5.07364,32.6904 -43.85076,50.2768 -71.17595,51.6227 -27.32519,1.3458 -89.15114,-3.9181 -89.73098,-55.0323 z"
       id="path1025"
       inkscape:connector-curvature="0" />
    <path
       style="fill:#ffffff;fill-rule:evenodd;stroke:none;stroke-width:1px;stroke-linecap:butt;stroke-linejoin:miter;stroke-opacity:1"
       d="m 891.05439,2384.5928 c 8.97846,20.1058 2.08504,29.2013 -7.53169,42.2988 -9.61674,13.0974 -3.91478,26.6928 6.89341,31.8628 10.80819,5.1701 22.50997,25.1418 21.87169,42.5477 -2.42546,-50.8389 -20.08451,-46.2816 -21.10575,-59.2259 -1.02125,-12.9442 20.21215,-24.3759 22.42485,-32.7054 2.2127,-8.3295 0.51063,-29.1055 -5.14877,-40.9009 -5.65941,-11.7954 -17.40374,16.1229 -17.40374,16.1229 z"
       id="path1027"
       inkscape:connector-curvature="0"
       sodipodi:nodetypes="cccccssc" />
  </g>
  <g
     inkscape:groupmode="layer"
     id="layer1"
     inkscape:label="txt">
    <text
       xml:space="preserve"
       style="font-style:normal;font-variant:normal;font-weight:normal;font-stretch:normal;line-height:0%;font-family:Lavi;-inkscape-font-specification:Lavi;text-align:center;letter-spacing:0px;word-spacing:0px;text-anchor:middle;fill:#000000;fill-opacity:1;stroke:none"
       x="354.9509"
       y="228.21294"
       id="text4246"><tspan
         sodipodi:role="line"
         style="font-size:45px;line-height:1.20000005"
         x="354.9509"
         y="228.21294"
         id="tspan833">Teman-temanku</tspan><tspan
         sodipodi:role="line"
         style="font-size:45px;line-height:1.20000005"
         x="354.9509"
         y="282.21292"
         id="tspan138">semuanya begitu</tspan><tspan
         sodipodi:role="line"
         style="font-size:45px;line-height:1.20000005"
         x="354.9509"
         y="336.21292"
         id="tspan140">sukses dan terkadang</tspan><tspan
         sodipodi:role="line"
         style="font-size:45px;line-height:1.20000005"
         x="354.9509"
         y="390.21292"
         id="tspan142">aku berharap aku</tspan><tspan
         sodipodi:role="line"
         style="font-size:45px;line-height:1.20000005"
         x="354.9509"
         y="444.21292"
         id="tspan144">punya sebagian kecil</tspan><tspan
         sodipodi:role="line"
         style="font-size:45px;line-height:1.20000005"
         x="354.9509"
         y="498.21292"
         id="tspan146">saja dari yang</tspan><tspan
         sodipodi:role="line"
         style="font-size:45px;line-height:1.20000005"
         x="354.9509"
         y="552.21295"
         id="tspan148">mereka punya.</tspan></text>
    <text
       xml:space="preserve"
       style="font-style:normal;font-variant:normal;font-weight:normal;font-stretch:normal;line-height:0%;font-family:Lavi;-inkscape-font-specification:Lavi;text-align:center;letter-spacing:0px;word-spacing:0px;text-anchor:middle;fill:#000000;fill-opacity:1;stroke:none"
       x="2164.8074"
       y="632.11823"
       id="text4246-3"><tspan
         sodipodi:role="line"
         style="font-size:45px;line-height:1.20000005"
         x="2164.8074"
         y="632.11823"
         id="tspan833-2">Coriander itu</tspan><tspan
         sodipodi:role="line"
         style="font-size:45px;line-height:1.20000005"
         x="2164.8074"
         y="686.11823"
         id="tspan898">seorang ratu.</tspan></text>
    <text
       xml:space="preserve"
       style="font-style:normal;font-variant:normal;font-weight:normal;font-stretch:normal;line-height:0%;font-family:Lavi;-inkscape-font-specification:Lavi;text-align:center;letter-spacing:0px;word-spacing:0px;text-anchor:middle;fill:#000000;fill-opacity:1;stroke:none"
       x="2105.6499"
       y="772.29004"
       id="text4246-3-9"><tspan
         sodipodi:role="line"
         style="font-size:45px;line-height:1.20000005"
         x="2105.6499"
         y="772.29004"
         id="tspan898-2">Saffron itu</tspan><tspan
         sodipodi:role="line"
         style="font-size:45px;line-height:1.20000005"
         x="2105.6499"
         y="826.29004"
         id="tspan923">seorang bintang</tspan><tspan
         sodipodi:role="line"
         style="font-size:45px;line-height:1.20000005"
         x="2105.6499"
         y="880.29004"
         id="tspan150">yang kaya.</tspan></text>
    <text
       xml:space="preserve"
       style="font-style:normal;font-variant:normal;font-weight:normal;font-stretch:normal;line-height:0%;font-family:Lavi;-inkscape-font-specification:Lavi;text-align:center;letter-spacing:0px;word-spacing:0px;text-anchor:middle;fill:#000000;fill-opacity:1;stroke:none"
       x="327.58185"
       y="1153.152"
       id="text4246-3-9-7"><tspan
         sodipodi:role="line"
         style="font-size:45px;line-height:1.20000005"
         x="327.58185"
         y="1153.152"
         id="tspan950">Bahkan Shichimi</tspan><tspan
         sodipodi:role="line"
         style="font-size:45px;line-height:1.20000005"
         x="327.58185"
         y="1207.152"
         id="tspan202">kelihatan begitu</tspan><tspan
         sodipodi:role="line"
         style="font-size:45px;line-height:1.20000005"
         x="327.58185"
         y="1261.152"
         id="tspan204">sempurna dengan</tspan><tspan
         sodipodi:role="line"
         style="font-size:45px;line-height:1.20000005"
         x="327.58185"
         y="1315.152"
         id="tspan206">sekolahnya.</tspan></text>
    <text
       xml:space="preserve"
       style="font-style:normal;font-variant:normal;font-weight:normal;font-stretch:normal;line-height:0%;font-family:Lavi;-inkscape-font-specification:Lavi;text-align:center;letter-spacing:0px;word-spacing:0px;text-anchor:middle;fill:#000000;fill-opacity:1;stroke:none"
       x="2138.5269"
       y="1151.4224"
       id="text4246-3-9-7-3"><tspan
         sodipodi:role="line"
         style="font-size:45px;line-height:1.20000005"
         x="2138.5269"
         y="1151.4224"
         id="tspan981">Dan aku?</tspan><tspan
         sodipodi:role="line"
         style="font-size:45px;line-height:1.20000005"
         x="2138.5269"
         y="1205.4224"
         id="tspan210">Apa yang aku punya?</tspan></text>
    <text
       xml:space="preserve"
       style="font-style:normal;font-variant:normal;font-weight:normal;font-stretch:normal;line-height:0%;font-family:Lavi;-inkscape-font-specification:Lavi;text-align:center;letter-spacing:0px;word-spacing:0px;text-anchor:middle;fill:#000000;fill-opacity:1;stroke:none"
       x="910.00488"
       y="2360.6299"
       id="text4246-3-9-7-3-2"><tspan
         sodipodi:role="line"
         style="font-size:45px;line-height:1.20000005"
         x="910.00488"
         y="2360.6299"
         id="tspan981-1">Ini.</tspan></text>
  </g>
</svg>
