<?xml version="1.0" encoding="UTF-8" standalone="no"?>
<svg
   id="svg2"
   version="1.1"
   inkscape:version="1.1.1 (3bf5ae0d25, 2021-09-20, custom)"
   width="2481"
   height="3503"
   sodipodi:docname="E35P10.svg"
   xmlns:inkscape="http://www.inkscape.org/namespaces/inkscape"
   xmlns:sodipodi="http://sodipodi.sourceforge.net/DTD/sodipodi-0.dtd"
   xmlns:xlink="http://www.w3.org/1999/xlink"
   xmlns="http://www.w3.org/2000/svg"
   xmlns:svg="http://www.w3.org/2000/svg"
   xmlns:rdf="http://www.w3.org/1999/02/22-rdf-syntax-ns#"
   xmlns:cc="http://creativecommons.org/ns#"
   xmlns:dc="http://purl.org/dc/elements/1.1/">
  <metadata
     id="metadata8">
    <rdf:RDF>
      <cc:Work
         rdf:about="">
        <dc:format>image/svg+xml</dc:format>
        <dc:type
           rdf:resource="http://purl.org/dc/dcmitype/StillImage" />
        <dc:title />
      </cc:Work>
    </rdf:RDF>
  </metadata>
  <defs
     id="defs6" />
  <sodipodi:namedview
     pagecolor="#ffffff"
     bordercolor="#666666"
     borderopacity="1"
     objecttolerance="10"
     gridtolerance="10"
     guidetolerance="10"
     inkscape:pageopacity="0"
     inkscape:pageshadow="2"
     inkscape:window-width="1888"
     inkscape:window-height="1146"
     id="namedview4"
     showgrid="false"
     inkscape:zoom="0.532004"
     inkscape:cx="1255.6297"
     inkscape:cy="1666.3409"
     inkscape:window-x="32"
     inkscape:window-y="0"
     inkscape:window-maximized="1"
     inkscape:current-layer="layer1"
     inkscape:document-rotation="0"
     inkscape:snap-global="false"
     inkscape:pagecheckerboard="0" />
  <g
     inkscape:groupmode="layer"
     id="layer2"
     inkscape:label="artwork"
     sodipodi:insensitive="true">
    <image
       xlink:href="../gfx_Pepper-and-Carrot_by-David-Revoy_E35P10.png"
       y="0"
       x="0"
       id="image10"
       height="3503.4727"
       width="2481" />
  </g>
  <g
     inkscape:groupmode="layer"
     id="layer3"
     inkscape:label="speechbubbles">
    <path
       style="fill:#ffffff;stroke:none;stroke-width:0.97366"
       d="m 1263.5926,157.25391 c -55.8422,0.29098 -112.2959,-0.47467 -167.1948,10.8164 -22.8268,4.56706 -46.0595,9.98485 -66.1099,21.85547 -23.7475,14.22857 -43.45731,35.8119 -51.83186,61.71319 -6.8414,22.55228 -2.54357,47.05188 7.79411,67.98492 12.19452,25.96015 34.36745,47.72975 61.79975,58.89989 28.139,12.67802 58.0434,21.30987 88.1354,28.54857 43.709,9.60291 88.7338,11.19293 133.3977,11.97595 53.9605,1.49972 108.2095,4.40377 161.9727,-1.8898 33.2345,-3.71944 66.349,-8.70206 99.0051,-15.73301 32.6805,-7.2385 65.2493,-17.86124 92.725,-36.77391 12.6082,-8.36057 22.0772,-20.45188 28.5401,-33.6715 4.4567,-9.09672 7.6641,-18.69761 10.7899,-28.27201 5.7213,-18.74127 7.4241,-39.07366 1.652,-58.00714 -7.3183,-25.23075 -26.9085,-46.72418 -51.7712,-57.45367 -25.2297,-11.90018 -53.145,-16.87592 -80.6135,-21.5171 -39.9701,-6.08342 -80.5257,-6.88313 -120.9018,-7.90491 -48.5911,-0.70896 -97.1902,-0.54456 -145.7852,-0.58217 -0.5346,0.004 -1.069,0.007 -1.6035,0.0108 z"
       id="path3100-98"
       inkscape:connector-curvature="0"
       sodipodi:nodetypes="zsssssz" />
    <path
       style="color:#000000;display:inline;overflow:visible;visibility:visible;fill:#ffffff;fill-opacity:1;fill-rule:nonzero;stroke:none;stroke-width:0.83737px;marker:none;enable-background:accumulate"
       d="m 1448.7795,517.63055 c 2.403,-24.32977 -9.2766,-33.6163 -20.6628,-38.28253 -11.3869,-4.66626 -19.0826,-5.58729 -28.1978,-26.0826 -9.1142,-20.49521 -0.7357,-41.29642 -4.8853,-52.46499 -11.4569,-16.24953 -34.9307,-26.06627 -44.5289,-30.51513 -21.6856,-10.05119 11.3091,-23.29909 11.3091,-23.29909 8.77,-0.30545 47.7455,23.68713 57.7575,33.72157 14.4084,14.44054 -4.0636,48.20741 4.0399,65.52593 7.5675,16.17219 18.2749,17.40774 23.9472,28.63593 5.6729,11.22843 4.8219,31.66667 1.2211,42.76091 z"
       id="path4538-8"
       inkscape:connector-curvature="0"
       sodipodi:nodetypes="csscscsssc" />
    <path
       style="color:#000000;display:inline;overflow:visible;visibility:visible;fill:#ffffff;fill-opacity:1;fill-rule:nonzero;stroke:none;stroke-width:1.07507px;marker:none;enable-background:accumulate"
       d="m 114.5856,1504.9758 c 4.25269,-39.5625 4.86316,-77.7814 61.11365,-100.6266 56.25037,-22.8439 155.34843,-28.5837 279.82228,-21.9387 66.67485,3.5592 150.66791,8.316 203.83588,24.7587 53.16798,16.4429 75.51097,44.5716 70.05492,102.522 -5.45607,57.9503 -34.89947,83.0791 -96.31776,97.543 -61.4182,14.465 -154.81154,18.2653 -177.30053,19.7627 -22.48895,1.4972 -92.23979,-0.4185 -161.44279,-7.6001 -69.20286,-7.182 -116.53737,-12.1971 -136.83485,-31.7682 -31.81962,-24.8276 -44.86583,-53.8493 -42.9308,-82.6528 z"
       id="path4546-6-2-0"
       inkscape:connector-curvature="0"
       sodipodi:nodetypes="cssssssscc" />
    <path
       style="fill:#ffffff;fill-rule:evenodd;stroke:none;stroke-width:1.12465px;stroke-linecap:butt;stroke-linejoin:miter;stroke-opacity:1"
       d="m 531.69489,1595.5478 c 1.05859,-15.9137 69.30899,27.2986 64.86897,92.5418 8.23384,26.2674 30.7036,36.5193 32.82667,51.1665 4.15318,23.9176 -1.64581,37.0608 -23.23574,62.2978 29.73734,-22.7041 45.7551,-44.5812 41.60216,-68.4978 -4.15329,-23.9176 -22.68275,-20.761 -29.60485,-55.0234 -1.22087,-10.5274 11.2196,-69.3408 -51.90297,-112.2332 14.34466,-23.6504 -34.55424,29.7483 -34.55424,29.7483 z"
       id="path1303"
       inkscape:connector-curvature="0"
       sodipodi:nodetypes="cccccccc" />
    <path
       style="color:#000000;display:inline;overflow:visible;visibility:visible;fill:#ffffff;fill-opacity:1;fill-rule:nonzero;stroke:none;stroke-width:0.79358px;marker:none;enable-background:accumulate"
       d="m 1241.2474,1571.5375 c 3.1011,-29.5612 3.5462,-58.1182 44.5653,-75.1881 41.019,-17.0689 113.2834,-21.3578 204.0523,-16.3925 48.6208,2.6592 109.8703,6.2135 148.6416,18.4996 38.7712,12.2861 55.0641,33.3038 51.0854,76.6043 -3.9784,43.3005 -25.4491,62.0767 -70.2367,72.8841 -44.7877,10.8082 -112.892,13.6477 -129.2914,14.7666 -16.3993,1.1188 -67.2635,-0.3126 -117.7277,-5.6788 -50.4644,-5.3663 -84.9814,-9.1135 -99.7827,-23.737 -23.2035,-18.5512 -32.7173,-40.2362 -31.3061,-61.7582 z"
       id="path4546-6-2-0-3"
       inkscape:connector-curvature="0"
       sodipodi:nodetypes="cssssssscc" />
    <path
       style="color:#000000;display:inline;overflow:visible;visibility:visible;fill:#ffffff;fill-opacity:1;fill-rule:nonzero;stroke:none;stroke-width:0.868958px;marker:none;enable-background:accumulate"
       d="m 1317.0884,1762.854 c 2.7459,-40.0276 3.14,-78.6957 39.4616,-101.8094 36.3214,-23.1125 100.3102,-28.9198 180.6839,-22.1966 43.0526,3.6009 97.2876,8.4136 131.6188,25.0497 34.3312,16.636 48.7582,45.0956 45.2352,103.7271 -3.5231,58.6314 -22.535,84.0555 -62.1932,98.6897 -39.6583,14.6349 -99.9634,18.4798 -114.4849,19.9947 -14.5212,1.5151 -59.5601,-0.423 -104.245,-7.6895 -44.6851,-7.2663 -75.2493,-12.3402 -88.3556,-32.1413 -20.5463,-25.1194 -28.9703,-54.4823 -27.7208,-83.6244 z"
       id="path4546-6-2-0-3-6"
       inkscape:connector-curvature="0"
       sodipodi:nodetypes="cssssssscc" />
    <path
       style="color:#000000;display:inline;overflow:visible;visibility:visible;fill:#ffffff;fill-opacity:1;fill-rule:nonzero;stroke:none;stroke-width:1.47843px;marker:none;enable-background:accumulate"
       d="m 1474.8245,1844.8292 c 6.1533,73.3287 -47.1663,130.4434 -118.01,146.3855 114.7363,-9.2052 166.2605,-106.0374 160.9588,-137.1332 -5.191,-30.4467 -42.9488,-9.2523 -42.9488,-9.2523 z"
       id="path5010-4"
       inkscape:connector-curvature="0"
       sodipodi:nodetypes="ccsc" />
  </g>
  <g
     inkscape:groupmode="layer"
     id="layer1"
     inkscape:label="txt">
    <text
       xml:space="preserve"
       style="font-style:normal;font-variant:normal;font-weight:normal;font-stretch:normal;font-size:45px;line-height:1.25;font-family:Lavi;-inkscape-font-specification:Lavi;text-align:center;letter-spacing:0px;word-spacing:0px;text-anchor:middle;fill:#000000;fill-opacity:1;stroke:none"
       x="1323.9183"
       y="226.92021"
       id="text4246-3-2-2"><tspan
         style="font-size:45px"
         sodipodi:role="line"
         x="1323.9183"
         y="226.92021"
         id="tspan7513">Saj že veš da se ne bo</tspan><tspan
         style="font-size:45px"
         sodipodi:role="line"
         x="1323.9183"
         y="283.17023"
         id="tspan10811">dobro končalo zate, če te</tspan><tspan
         style="font-size:45px"
         sodipodi:role="line"
         x="1323.9183"
         y="339.42023"
         id="tspan12995">predam gospodarici Wasabi?</tspan></text>
    <text
       xml:space="preserve"
       style="font-style:normal;font-variant:normal;font-weight:normal;font-stretch:normal;font-size:45px;line-height:1.25;font-family:Lavi;-inkscape-font-specification:Lavi;text-align:center;letter-spacing:0px;word-spacing:0px;text-anchor:middle;fill:#000000;fill-opacity:1;stroke:none"
       x="429.23383"
       y="1444.8279"
       id="text4246-3-2-2-3"><tspan
         style="font-size:45px"
         sodipodi:role="line"
         x="429.23383"
         y="1444.8279"
         id="tspan17240">Vem, a kljub temu</tspan><tspan
         style="font-size:45px"
         sodipodi:role="line"
         x="429.23383"
         y="1501.0779"
         id="tspan64493">verjamem v možnost da se</tspan><tspan
         style="font-size:45px"
         sodipodi:role="line"
         x="429.23383"
         y="1557.3279"
         id="tspan67471">pogovoriva in dogovoriva.</tspan></text>
    <text
       xml:space="preserve"
       style="font-style:normal;font-variant:normal;font-weight:normal;font-stretch:normal;font-size:45px;line-height:1.25;font-family:Lavi;-inkscape-font-specification:Lavi;text-align:center;letter-spacing:0px;word-spacing:0px;text-anchor:middle;fill:#000000;fill-opacity:1;stroke:none"
       x="1464.6384"
       y="1553.5552"
       id="text4246-3-2-2-3-3"><tspan
         style="font-size:45px"
         sodipodi:role="line"
         x="1464.6384"
         y="1553.5552"
         id="tspan22901">Konec koncev ni</tspan><tspan
         style="font-size:45px"
         sodipodi:role="line"
         x="1464.6384"
         y="1609.8052"
         id="tspan76237">nič nepopravljivo.</tspan></text>
    <text
       xml:space="preserve"
       style="font-style:normal;font-variant:normal;font-weight:normal;font-stretch:normal;font-size:45px;line-height:1.25;font-family:Lavi;-inkscape-font-specification:Lavi;text-align:center;letter-spacing:0px;word-spacing:0px;text-anchor:middle;fill:#000000;fill-opacity:1;stroke:none"
       x="1510.7936"
       y="1717.9688"
       id="text4246-3-2-2-3-3-1"><tspan
         style="font-size:45px"
         sodipodi:role="line"
         x="1510.7936"
         y="1717.9688"
         id="tspan29388">Tega sem se</tspan><tspan
         style="font-size:45px"
         sodipodi:role="line"
         x="1510.7936"
         y="1774.2188"
         id="tspan14936">naučilo od stare</tspan><tspan
         style="font-size:45px"
         sodipodi:role="line"
         x="1510.7936"
         y="1830.4688"
         id="tspan14938">prijateljice.</tspan></text>
  </g>
</svg>
