<?xml version="1.0" encoding="UTF-8" standalone="no"?>
<svg
   id="svg2"
   version="1.1"
   inkscape:version="1.1.1 (3bf5ae0d25, 2021-09-20, custom)"
   width="2481"
   height="3503"
   sodipodi:docname="E35P02.svg"
   xmlns:inkscape="http://www.inkscape.org/namespaces/inkscape"
   xmlns:sodipodi="http://sodipodi.sourceforge.net/DTD/sodipodi-0.dtd"
   xmlns:xlink="http://www.w3.org/1999/xlink"
   xmlns="http://www.w3.org/2000/svg"
   xmlns:svg="http://www.w3.org/2000/svg"
   xmlns:rdf="http://www.w3.org/1999/02/22-rdf-syntax-ns#"
   xmlns:cc="http://creativecommons.org/ns#"
   xmlns:dc="http://purl.org/dc/elements/1.1/">
  <metadata
     id="metadata8">
    <rdf:RDF>
      <cc:Work
         rdf:about="">
        <dc:format>image/svg+xml</dc:format>
        <dc:type
           rdf:resource="http://purl.org/dc/dcmitype/StillImage" />
        <dc:title />
      </cc:Work>
    </rdf:RDF>
  </metadata>
  <defs
     id="defs6" />
  <sodipodi:namedview
     pagecolor="#ffffff"
     bordercolor="#666666"
     borderopacity="1"
     objecttolerance="10"
     gridtolerance="10"
     guidetolerance="10"
     inkscape:pageopacity="0"
     inkscape:pageshadow="2"
     inkscape:window-width="1888"
     inkscape:window-height="1146"
     id="namedview4"
     showgrid="false"
     inkscape:window-x="32"
     inkscape:window-y="0"
     inkscape:window-maximized="1"
     inkscape:document-rotation="0"
     inkscape:snap-global="false"
     inkscape:pagecheckerboard="0"
     inkscape:zoom="0.62656565"
     inkscape:cx="1368.5717"
     inkscape:cy="2824.1255"
     inkscape:current-layer="layer1" />
  <g
     inkscape:groupmode="layer"
     id="layer2"
     inkscape:label="artwork"
     sodipodi:insensitive="true">
    <image
       xlink:href="../gfx_Pepper-and-Carrot_by-David-Revoy_E35P02.png"
       y="0"
       x="0"
       id="image10"
       height="3503"
       width="2481" />
  </g>
  <g
     inkscape:groupmode="layer"
     id="layer3"
     inkscape:label="speechbubbles">
    <path
       style="color:#000000;display:inline;overflow:visible;visibility:visible;fill:#ffffff;fill-opacity:1;fill-rule:nonzero;stroke:none;stroke-width:1.13429px;marker:none;enable-background:accumulate"
       d="m 295.7256,2061.2516 c -7.49584,18.4022 -49.77366,19.9459 -65.33728,16.2054 31.37262,20.5863 30.27888,33.3772 -12.3163,35.3624 71.43298,37.1028 13.05886,31.4882 1.54508,40.8957 56.08802,12.7866 37.49757,32.166 1.49621,41.0742 64.46773,0.5441 48.86102,13.6034 24.45363,32.3958 28.54365,-12.3034 72.57509,-21.1507 74.13737,11.0174 41.35748,-28.1015 62.69593,-27.5542 77.65155,4.2227 12.4926,-27.4013 55.03061,-32.6749 71.29623,-3.1237 14.01181,-39.9934 64.00751,-34.3629 93.76817,-14.9803 -16.70623,-13.6793 -5.31413,-36.2037 51.64339,-31.6486 -4.58455,-12.5397 2.62512,-28.3667 31.38804,-26.2767 -33.13133,-7.5741 -39.23725,-15.3876 22.28008,-23.7955 -46.81109,-0.8125 -90.46277,-2.4791 -35.54318,-31.1526 -17.22976,-0.6938 -58.10929,23.2321 -39.0497,-46.786 -50.46231,20.6461 -103.48834,31.2007 -100.87949,-12.1677 -18.76052,23.4577 -51.3002,35.0652 -65.45667,5.7653 -11.68613,27.3703 -47.18141,15.9093 -65.62058,-2.772 -12.18366,18.5391 -30.40922,31.0606 -65.45655,5.7642 z"
       id="path3549-3-7-8"
       inkscape:connector-curvature="0"
       sodipodi:nodetypes="ccccccccccccccccccc" />
    <path
       style="fill:#ffffff;stroke:none;stroke-width:1.07964"
       d="m 408.69122,2014.1668 c 28.97504,-0.9692 169.00019,-5.5598 166.8223,87.8717 -2.72882,117.0729 -4.10368,170.5711 -154.05072,168.7727 -161.05143,-1.9317 -128.6373,-72.5408 -129.89833,-161.0179 -1.11642,-78.33 39.37575,-92.7954 117.12675,-95.6265 z"
       id="path3280-8-6"
       inkscape:connector-curvature="0"
       sodipodi:nodetypes="csssc" />
    <path
       style="color:#000000;display:inline;overflow:visible;visibility:visible;fill:#ffffff;fill-opacity:1;fill-rule:nonzero;stroke:none;stroke-width:1px;marker:none;enable-background:accumulate"
       d="m 596.40058,2341.6788 c -54.36956,-1.3158 -66.37353,-18.0831 -76.5499,-29.227 3.41593,-3.9672 8.07344,-11.8668 8.07344,-11.8668 0,0 -22.49109,-20.0802 -27.87182,-30.4304 -5.38071,-10.3501 9.28192,-17.9731 9.28192,-17.9731 0,0 44.94813,37.9871 57.64264,43.4391 -9.83295,10.5902 -13.21387,16.7305 -18.38931,19.4211 3.1733,8.211 28.66645,25.6349 47.81303,26.6371 z"
       id="path4456-3"
       inkscape:connector-curvature="0" />
    <path
       style="color:#000000;display:inline;overflow:visible;visibility:visible;fill:#ffffff;fill-opacity:1;fill-rule:nonzero;stroke:none;stroke-width:0.838733px;marker:none;enable-background:accumulate"
       d="m 1972.6766,2169.1943 c -4.7159,-56.497 6.4541,-125.335 156.2952,-109.0086 142.8636,15.5659 133.9406,36.9633 135.4535,108.6937 1.5938,75.5745 -56.7149,112.1707 -159.0784,104.9253 -59.9871,-4.2457 -119.7629,-8.2642 -132.6703,-104.6104 z"
       id="path5026-4"
       inkscape:connector-curvature="0"
       sodipodi:nodetypes="csssc" />
    <path
       style="color:#000000;display:inline;overflow:visible;visibility:visible;fill:#ffffff;fill-opacity:1;fill-rule:nonzero;stroke:none;stroke-width:1.63768px;marker:none;enable-background:accumulate"
       d="m 2065.086,2229.8886 c -4.2272,-2.5286 -41.7209,44.7549 -41.7209,44.7549 l -35.4466,3.459 1.2502,26.926 -53.4012,-4.5662 35.1739,-8.2914 -1.9242,-26.5703 33.0101,-11.5413 29.8178,-33.9388 z"
       id="path4448"
       inkscape:connector-curvature="0"
       sodipodi:nodetypes="cccccccccc" />
    <path
       style="color:#000000;display:inline;overflow:visible;visibility:visible;fill:#ffffff;fill-opacity:1;fill-rule:nonzero;stroke:none;stroke-width:1.026px;marker:none;enable-background:accumulate"
       d="m 148.48197,2684.0009 c -5.46661,-32.9854 9.111,-121.7205 121.17689,-118.765 112.06578,2.9554 130.28795,43.7493 133.02121,56.0926 2.73334,12.3432 26.42205,81.9729 -61.04395,104.0062 -87.46608,22.0331 -165.82099,5.334 -193.15415,-41.3338 z"
       id="path3525"
       inkscape:connector-curvature="0" />
    <path
       style="color:#000000;display:inline;overflow:visible;visibility:visible;fill:#ffffff;fill-opacity:1;fill-rule:nonzero;stroke:none;stroke-width:0.896499px;marker:none;enable-background:accumulate"
       d="m 1195.9082,2492.4237 c -21.2228,0.8182 -42.7852,1.788 -63.1086,6.9827 -27.1504,7.5173 -48.6532,26.7389 -53.2375,48.8922 -2.228,13.8942 6.7463,28.0441 21.099,36.2747 16.4678,9.8699 36.5476,15.2118 56.5536,19.0219 30.0635,5.4774 61.2466,5.2221 91.8863,3.7345 24.3778,-1.3088 48.9121,-4.9224 71.017,-13.2573 9.8256,-3.5602 19.5962,-8.4478 24.7638,-16.0968 6.8546,-9.7255 7.3474,-21.3487 4.9576,-32.0561 -2.9578,-13.2028 -11.8819,-25.8753 -26.0778,-33.7852 -15.6725,-9.089 -35.0252,-13.2462 -54.0856,-15.6624 -17.7933,-2.2129 -35.7868,-3.2505 -53.749,-4.2311 -6.6781,-0.2852 -13.3483,-0.132 -20.0188,0.1829 z"
       id="path3525-3"
       inkscape:connector-curvature="0" />
    <path
       style="color:#000000;display:inline;overflow:visible;visibility:visible;fill:#ffffff;fill-opacity:1;fill-rule:nonzero;stroke:none;stroke-width:0.850812px;marker:none;enable-background:accumulate"
       d="m 378.31396,2800.4734 c -21.81603,-6.0365 -24.7236,-21.3438 -23.81085,-34.7307 0.91307,-13.3879 3.43731,-21.6544 -10.14803,-38.2382 -13.58559,-16.5829 -43.44749,-17.8668 -26.36893,-33.9071 2.07754,-10.3968 3.18888,-19.4098 8.63924,-29.73 6.0118,-11.3839 -30.60834,-11.6128 -30.60834,-11.6128 0,0 -9.2601,36.4069 -8.60393,58.2554 0.65624,21.8486 37.98578,15.4181 49.29264,29.8458 10.55851,13.4728 3.54145,36.8172 10.69223,46.6028 7.15061,9.7866 19.89022,13.3481 30.91597,13.5148 z"
       id="path4538-8"
       inkscape:connector-curvature="0"
       sodipodi:nodetypes="csscscsssc" />
    <path
       style="fill:#ffffff;fill-rule:evenodd;stroke:none;stroke-width:1.00018px;stroke-linecap:butt;stroke-linejoin:miter;stroke-opacity:1"
       d="m 683.3565,2839.4097 c 22.47948,-7.6888 8.18259,-27.2917 13.56572,-36.5201 5.55722,-9.5269 47.07364,3.0903 52.88651,-5.37 5.81286,-8.4604 -12.6074,-31.2018 -3.16551,-44.2198 9.44226,-13.0187 37.29048,-1.0958 25.77916,13.6924 -11.51166,14.7889 6.85876,28.7751 -4.63767,39.1332 -19.17293,17.274 -46.18634,1.6002 -58.07288,2.8253 -7.86988,0.8115 -1.86593,15.6117 -9.63373,23.71 -7.76824,8.099 -16.7216,6.749 -16.7216,6.749 z"
       id="path4272-2"
       inkscape:connector-curvature="0"
       sodipodi:nodetypes="csssssssc" />
    <path
       style="fill:#ffffff;stroke:none;stroke-width:1.03835"
       d="m 1757.6864,2734.7823 c -1.258,-33.7766 21.2997,-118.3324 131.3348,-111.9727 110.0352,6.3597 144.4743,43.5131 147.699,103.5506 5.101,94.9786 -52.7885,120.3608 -135.9123,127.3953 -85.6919,7.2524 -144.4514,-57.9436 -143.1215,-118.9732 z"
       id="path3280-8-90"
       inkscape:connector-curvature="0"
       sodipodi:nodetypes="csssc" />
    <path
       style="color:#000000;display:inline;overflow:visible;visibility:visible;fill:#ffffff;fill-opacity:1;fill-rule:nonzero;stroke:none;stroke-width:1px;marker:none;enable-background:accumulate"
       d="m 1981.8954,2716.5742 c 21.7602,57.3157 81.8906,99.8161 102.9782,111.0989 -62.8332,-18.8149 -116.4083,-51.6111 -129.2847,-90.9766 -12.8765,-39.3656 26.3065,-20.1223 26.3065,-20.1223 z"
       id="path4480"
       inkscape:connector-curvature="0" />
    <path
       style="fill:#ffffff;fill-rule:evenodd;stroke:none;stroke-width:0.772999px;stroke-linecap:butt;stroke-linejoin:miter;stroke-opacity:1"
       d="m 1142.7461,1172.9396 c -26.7361,0.148 -53.5793,1.9805 -79.5812,6.8994 -9.7626,1.9167 -19.4644,4.1489 -28.7196,7.2231 -12.1154,4.3738 -21.2853,12.3627 -28.1464,20.9861 -7.79046,9.8944 -12.73978,21.0041 -15.18047,32.3808 -1.95151,8.8897 -2.91349,17.8954 -3.41983,26.8956 -0.50494,12.4002 1.30421,24.9492 6.64198,36.708 6.26862,14.6148 16.72952,28.5086 32.12932,38.5859 14.7779,9.2778 32.9966,14.559 51.2214,18.4329 30.0315,6.1104 61.3217,7.0375 92.2386,7.026 23.2877,-0.1889 46.4076,-3.1155 68.9315,-7.5234 17.3369,-3.1838 34.6299,-6.817 51.0251,-12.2414 12.2284,-4.3319 23.5186,-10.9281 30.2552,-20.0103 8.9823,-11.3924 12.9126,-24.5491 16.1916,-37.4699 3.5558,-14.8151 5.329,-30.2204 1.1198,-45.0721 -4.0738,-14.0753 -14.0175,-26.6513 -25.2013,-38.0648 -14.3367,-13.6964 -34.839,-23.0234 -56.5869,-28.1399 -23.423,-5.5357 -48.1475,-6.3572 -72.4906,-6.586 -13.4756,-0.07 -26.9524,-0.066 -40.4282,-0.03 z"
       id="path1353"
       inkscape:connector-curvature="0"
       sodipodi:nodetypes="cssscscssccc" />
    <path
       style="color:#000000;display:inline;overflow:visible;visibility:visible;fill:#ffffff;fill-opacity:1;fill-rule:nonzero;stroke:none;stroke-width:1.32704px;marker:none;enable-background:accumulate"
       d="m 1567.2167,1263.2749 c -23.3951,-13.5874 -47.4345,-27.8488 -80.2438,-37.3029 -9.419,-2.6108 -19.456,-5.052 -29.7275,-6.2777 -10.8699,-0.2589 -18.5833,3.1803 -21.2691,7.3616 -4.9062,5.8321 -4.0751,13.3543 -14.8239,17.5815 -8.0334,2.9766 -20.4058,1.2285 -30.8948,0.151 -55.5613,-5.5966 -116.4529,-16.3815 -168.9125,-7.1839 -10.3316,2.0201 -20.2049,4.8402 -25.0559,9.4641 -13.7945,11.5007 -11.0257,28.0336 10.0671,40.719 14.9737,7.6682 42.5542,10.484 56.687,4.5569 7.5899,-3.0688 8.1735,-8.3583 5.5139,-13.1861 -1.2458,-8.9607 7.6217,0.022 24.0822,-3.6677 37.2334,-5.6014 77.5291,-14.6477 110.5037,-9.7254 10.0809,1.4739 25.6582,0.1256 35.3315,-0.599 12.5832,-2.5592 14.9137,-9.3886 15.3033,-15.3984 0.7726,-6.1637 0.047,-13.4883 11.1891,-17.2514 6.7172,-3.1499 17.8965,0.5337 26.5328,1.8753 27.2211,5.8451 51.5565,15.088 70.9679,25.6439 1.7031,1.0526 3.2274,2.1441 4.749,3.2392 z"
       id="path4496-9"
       inkscape:connector-curvature="0"
       inkscape:transform-center-x="43.812193"
       inkscape:transform-center-y="17.777857"
       sodipodi:nodetypes="ccccccccccccccccccc" />
    <path
       style="fill:#ffffff;stroke:none;stroke-width:0.689467"
       d="m 951.95025,493.58681 c 2.94948,-68.75906 17.24535,-94.25413 190.65395,-96.8763 239.9973,-3.62957 256.7888,54.83832 252.2296,135.49463 -4.9193,87.02301 -146.4656,87.26713 -262.1716,84.57884 C 932.99201,612.14516 953.75052,564.14457 951.95025,493.58681 Z"
       id="path3280-8-0"
       inkscape:connector-curvature="0"
       sodipodi:nodetypes="csssc" />
    <path
       style="display:inline;fill:#ffffff;stroke:none;stroke-width:0.738937"
       d="m 848.60399,326.34482 c 2.51728,-59.35404 16.90873,-136.85952 149.80284,-138.07702 132.89387,-1.21841 177.61177,36.30157 185.01357,101.14036 14.1784,124.20151 -53.3341,114.47624 -152.8999,128.20357 -102.64157,14.15088 -185.80635,-4.27131 -181.91651,-91.26691 z"
       id="path3280-8-2"
       inkscape:connector-curvature="0"
       sodipodi:nodetypes="csssc" />
    <path
       style="color:#000000;display:inline;overflow:visible;visibility:visible;fill:#ffffff;fill-opacity:1;fill-rule:nonzero;stroke:none;stroke-width:1.05321px;marker:none;enable-background:accumulate"
       d="m 1029.0122,611.80277 c 27.1853,-25.97938 362.5381,-44.48085 440.0084,14.27496 53.989,40.94644 33.1616,119.47003 -13.1137,139.91045 -46.2757,20.44143 -269.6909,26.19879 -333.1892,15.78838 -57.101,-9.36045 -117.0373,-29.50966 -120.1972,-83.13767 -1.2896,-21.88719 -0.6935,-60.85778 26.4917,-86.83612 z"
       id="path4040-5"
       inkscape:connector-curvature="0"
       sodipodi:nodetypes="zssssz" />
    <path
       style="color:#000000;display:inline;overflow:visible;visibility:visible;fill:#ffffff;fill-opacity:1;fill-rule:nonzero;stroke:none;stroke-width:1px;marker:none;enable-background:accumulate"
       d="m 882.70325,344.65544 c -13.93862,-43.79995 -75.39205,-33.32608 -131.42892,10.54697 35.43843,-36.41055 76.35778,-76.93843 143.98747,-47.05147 49.32789,21.79901 14.57754,15.53221 14.57754,15.53221 z"
       id="path4035-4"
       inkscape:connector-curvature="0"
       sodipodi:nodetypes="ccscc" />
    <path
       style="display:inline;fill:#ffffff;fill-rule:evenodd;stroke:none;stroke-width:1.34642px;stroke-linecap:butt;stroke-linejoin:miter;stroke-opacity:1"
       d="m 1548.4515,72.745511 c 24.985,6.209973 24.4053,20.322756 12.7022,18.907368 7.502,24.597851 30.4769,80.424301 10.5214,87.322751 0.3216,68.57592 13.4148,103.96561 -1.5675,142.97111 55.2137,-17.3892 57.3634,12.16051 53.2124,40.04781 20.3681,-37.13194 35.9429,-12.94415 29.8359,21.208 20.93,-37.34198 45.1859,-54.33828 41.2991,-14.31803 23.6513,-28.91842 24.8612,-42.29211 44.7286,-29.77791 36.1161,-34.69439 51.1793,13.74141 73.0469,35.30844 8.1542,-39.37996 23.3152,-31.72654 49.8625,-11.65801 9.0829,-16.58142 -12.0518,-45.99827 12.7553,-9.85026 -9.9891,-41.45378 40.684,-21.45982 51.0233,-15.35375 -12.6632,-18.64775 9.1057,-23.58368 70.4804,-12.7505 -23.7677,-9.97749 -33.969,-42.92257 13.7163,-66.26968 -62.5354,9.47197 -39.2315,-10.13616 -20.0369,-31.57301 -40.898,-32.92242 -0.2138,-63.61366 20.1138,-94.86119 -41.3041,14.47534 -56.3387,-47.702256 -63.9558,-62.529075 -62.6921,11.301423 -53.3929,5.013467 -47.3762,-0.472599 -38.8414,13.746819 -36.6646,1.550487 -46.7026,-2.920405 -106.7351,16.739413 -102.9554,-0.73801 -125.0299,-10.210509 -8.7451,20.011591 -31.2305,12.235734 -53.7729,4.345254 0.845,16.935936 -12.7693,11.984117 -26.0813,7.490081 -1.7053,7.302474 -14.9264,9.40643 -43.6739,4.500897 20.5299,6.027881 7.8516,7.03574 -55.1011,0.443217 z"
       id="path4289-9-2"
       inkscape:connector-curvature="0"
       sodipodi:nodetypes="cccccccccccccccccccccccc" />
    <path
       style="fill:#ffffff;fill-opacity:1;fill-rule:evenodd;stroke:none;stroke-width:0.855316px;stroke-linecap:butt;stroke-linejoin:miter;stroke-opacity:1"
       d="m 2392.5249,889.75387 c -1.2192,4.84012 -56.3523,42.48982 -21.9235,9.36479 l -32.213,9.25361 c -62.4398,-20.08523 -266.7205,-7.81927 -335.0513,3.26139 l -18.7446,-19.92064 3.7388,16.72278 -21.7325,-24.76798 12.1794,33.35386 -11.4715,-11.32321 4.818,12.50274 -11.1428,-6.07956 1.8848,10.70167 c -25.907,9.93722 -40.6372,29.53087 -46.4729,49.74603 l -20.9217,-1.83137 19.4351,7.90445 c -0.2473,1.22717 -0.4702,2.45435 -0.6541,3.67791 -0.011,0.0837 -0.025,0.16963 -0.035,0.25336 l -21.9906,-2.88746 21.1159,10.7652 c -0.046,0.57533 -0.092,1.14922 -0.1318,1.72959 l -42.0743,-6.74224 41.7186,18.32171 c -0.01,20.579 3.018,41.6972 4.5854,50.9284 1.0868,6.4001 2.2549,18.2684 8.6041,20.8124 l -39.1869,7.6848 51.9277,-4.1926 c 1.1029,0.094 2.2289,0.1869 3.3597,0.2804 l -13.4152,2.6134 23.3544,-1.8201 c 2.3898,0.184 4.8319,0.367 7.321,0.5491 l -24.1854,5.8545 36.075,-5.0207 c 86.8324,5.8435 272.4573,11.66 401.9513,-2.4771 l 19.1392,3.0475 -7.3543,-4.3975 c 2.5283,-0.3038 5.7736,-0.6145 5.9077,-0.9331 l 0.4542,0.1284 -0.3009,-0.9752 c 0.028,-0.1612 0.057,-0.3227 0.086,-0.4856 l 1.5475,2.1446 -1.1631,-11.4416 c 0.7331,-13.2874 0.9216,-28.3644 0.8309,-43.6332 l 1.4035,-9.1872 c -2.4259,4.7535 -1.5594,-5.7056 -0.034,-11.085 l -1.3703,0.7443 c 0.1327,-12.36133 -0.3577,-35.03301 -1,-46.86586 l 0.064,-8.97208 c -1.1244,0.85974 -0.4003,-6.85991 -0.014,-13.58194 -1.2346,6.04853 -1.0831,3.50756 -0.5975,-8.25165 -2.0791,3.35091 1.1132,-27.69732 1.6783,-35.474 z"
       id="path4212-3"
       inkscape:connector-curvature="0"
       sodipodi:nodetypes="ccccccccccccccccccccccsccccccccccccccccccccccccccc" />
    <path
       style="display:inline;fill:#ffffff;fill-rule:evenodd;stroke:none;stroke-width:1.44912px;stroke-linecap:butt;stroke-linejoin:miter;stroke-opacity:1"
       d="m 2093.6816,800.07501 c 0.6806,41.31231 13.5699,99.33289 8.1415,118.1885 4.1542,65.56524 102.9122,-3.97588 46.8489,-17.72263 -23.7511,-36.29813 -38.7836,-65.39219 -54.9904,-100.46587 z"
       id="path4667-2"
       inkscape:connector-curvature="0"
       sodipodi:nodetypes="cccc" />
    <path
       style="color:#000000;display:inline;overflow:visible;visibility:visible;fill:#ffffff;fill-opacity:1;fill-rule:nonzero;stroke:none;stroke-width:0.800252px;marker:none;enable-background:accumulate"
       d="m 736.08063,2664.1157 c -24.10101,-0.09 -49.05085,4.7219 -68.98305,17.957 -13.74039,9.0749 -23.80152,24.1841 -23.17177,40.2578 0.47758,13.1109 9.33098,24.8669 20.83191,31.87 13.11477,7.9997 28.7477,11.1546 43.97088,13.5582 26.31211,3.7716 53.01334,3.0775 79.51905,4.5108 16.74813,0.5881 33.94656,0.9099 50.1233,-3.7856 14.50374,-5.5636 23.48247,-19.8036 24.93088,-34.0234 1.49846,-14.3357 -0.57936,-29.8786 -10.16713,-41.6203 -9.02192,-10.624 -23.00867,-16.0127 -36.57909,-19.6596 -26.11429,-6.8051 -53.41545,-9.4131 -80.47498,-9.0649 z"
       id="path3525-3-5"
       inkscape:connector-curvature="0" />
    <path
       style="fill:#ffffff;fill-rule:evenodd;stroke:none;stroke-width:1.00018px;stroke-linecap:butt;stroke-linejoin:miter;stroke-opacity:1"
       d="m 1223.463,2688.0374 c 17.4992,-16.0693 -3.4666,-28.2803 -2.2428,-38.8936 1.2634,-10.9567 44.3518,-16.0746 46.2777,-26.1572 1.9258,-10.0826 -24.0767,-23.5119 -20.6577,-39.2259 3.4191,-15.7147 33.7111,-15.9794 29.1078,2.1868 -4.6033,18.167 17.8374,23.5982 11.4686,37.7013 -10.6216,23.5196 -41.6554,20.0139 -52.0494,25.9095 -6.8814,3.9037 4.5609,15.0468 0.6993,25.5829 -3.8618,10.5369 -12.6035,12.8962 -12.6035,12.8962 z"
       id="path4272-2-3"
       inkscape:connector-curvature="0"
       sodipodi:nodetypes="csssssssc" />
    <path
       style="color:#000000;display:inline;overflow:visible;visibility:visible;fill:#ffffff;fill-opacity:1;fill-rule:nonzero;stroke:none;stroke-width:0.818201px;marker:none;enable-background:accumulate"
       d="m 1685.64,2522.3224 c -4.7682,19.7338 -32.8197,21.9845 -43.1948,18.2182 21.0618,21.5056 20.4805,35.1623 -7.7767,37.8903 47.8454,38.545 9.0264,33.3934 1.4887,43.5918 37.3824,12.8342 20.902,30.1632 14.4518,47.2005 42.8072,-0.3425 29.0879,27.0397 31.1208,48.5677 3.521,-10.1977 20.432,-41.3812 21.8333,-7.0964 0.01,-6.488 27.5889,-60.8477 69.9999,-9.4692 -1.2968,-26.8993 12.9647,-32.7435 26.9575,4.1555 -4.9716,-40.161 43.3858,-29.5513 69.0679,-17.4684 -13.1686,-24.1109 7.1288,-34.3802 28.889,-29.9904 -3.1857,-13.3079 4.0465,-22.6579 20.5415,-28.4736 -22.0821,-7.6032 -26.2244,-15.8481 14.523,-25.6962 -31.088,-0.1964 -60.0879,-1.3483 -23.9506,-32.7151 -11.4468,-0.492 -38.3165,25.6094 -26.4553,-49.338 -19.4165,24.3307 -40.2628,37.9775 -67.1131,-11.5311 -12.19,25.285 -33.6622,38.132 -43.3926,7.0859 -3.2365,13.3936 -17.1906,18.707 -29.0753,19.5706 -4.6545,-5.1921 -9.4734,-12.2772 -14.5225,-21.587 -7.8791,19.9474 -19.8375,33.5613 -43.3925,7.0849 z"
       id="path3549-3-7-9-6"
       inkscape:connector-curvature="0"
       sodipodi:nodetypes="cccccccccccccccccccc" />
    <path
       style="color:#000000;display:inline;overflow:visible;visibility:visible;fill:#ffffff;fill-opacity:1;fill-rule:nonzero;stroke:none;stroke-width:1.22149px;marker:none;enable-background:accumulate"
       d="m 1834.6942,318.52889 c 13.3969,25.86728 33.5213,54.90113 39.2123,61.39746 7.9957,-8.63868 17.0744,-15.33555 24.0331,-20.64544 9.0197,12.83333 45.9509,74.58787 45.5696,92.05922 3.355,-43.2627 -19.8328,-91.86712 -36.9856,-111.86967 -10.7606,5.90497 -16.2791,10.46235 -22.0396,13.47435 -9.2965,-9.62452 -29.0289,-46.10687 -29.0289,-46.10687 z"
       id="path5066-8"
       inkscape:connector-curvature="0" />
  </g>
  <g
     inkscape:groupmode="layer"
     id="layer1"
     inkscape:label="txt">
    <text
       xml:space="preserve"
       style="font-style:normal;font-variant:normal;font-weight:normal;font-stretch:normal;font-size:45px;line-height:1.25;font-family:Lavi;-inkscape-font-specification:Lavi;text-align:center;letter-spacing:0px;word-spacing:0px;text-anchor:middle;fill:#000000;fill-opacity:1;stroke:none"
       x="1014.5389"
       y="269.51404"
       id="text4246-3-2-2"><tspan
         style="font-size:45px"
         sodipodi:role="line"
         x="1014.5389"
         y="269.51404"
         id="tspan8308">Kmalu bom</tspan><tspan
         style="font-size:45px"
         sodipodi:role="line"
         x="1014.5389"
         y="325.76404"
         id="tspan9859">izgubila hiper</tspan><tspan
         style="font-size:45px"
         sodipodi:role="line"
         x="1014.5389"
         y="382.01404"
         id="tspan10183">pogon</tspan></text>
    <text
       xml:space="preserve"
       style="font-style:normal;font-variant:normal;font-weight:normal;font-stretch:normal;font-size:45px;line-height:1.25;font-family:Lavi;-inkscape-font-specification:Lavi;text-align:center;letter-spacing:0px;word-spacing:0px;text-anchor:middle;fill:#000000;fill-opacity:1;stroke:none"
       x="1172.5767"
       y="465.45486"
       id="text4246-3-2-2-3"><tspan
         style="font-size:45px"
         sodipodi:role="line"
         x="1172.5767"
         y="465.45486"
         id="tspan13207">in ta pilotka ter</tspan><tspan
         style="font-size:45px"
         sodipodi:role="line"
         x="1172.5767"
         y="521.70483"
         id="tspan21867">njen zmaj nama že</tspan><tspan
         style="font-size:45px"
         sodipodi:role="line"
         x="1172.5767"
         y="577.95483"
         id="tspan92384">več ur sledita.</tspan></text>
    <text
       xml:space="preserve"
       style="font-style:normal;font-variant:normal;font-weight:normal;font-stretch:normal;font-size:45px;line-height:1.25;font-family:Lavi;-inkscape-font-specification:Lavi;text-align:center;letter-spacing:0px;word-spacing:0px;text-anchor:middle;fill:#000000;fill-opacity:1;stroke:none"
       x="1245.3135"
       y="674.59326"
       id="text4246-3-2-2-3-6"><tspan
         style="font-size:45px"
         sodipodi:role="line"
         x="1245.3135"
         y="674.59326"
         id="tspan44331">Čim bova počasnejša</tspan><tspan
         style="font-size:45px"
         sodipodi:role="line"
         x="1245.3135"
         y="730.84326"
         id="tspan98467">naju bosta ujela.</tspan></text>
    <text
       xml:space="preserve"
       style="font-style:normal;font-variant:normal;font-weight:normal;font-stretch:normal;font-size:59.5686px;line-height:1.25;font-family:Lavi;-inkscape-font-specification:Lavi;text-align:center;letter-spacing:0px;word-spacing:0px;text-anchor:middle;fill:#000000;fill-opacity:1;stroke:none;stroke-width:1.32375"
       x="1781.5139"
       y="154.70146"
       id="text4246-3-2-2-3-6-3"><tspan
         style="font-size:59.5686px;stroke-width:1.32375"
         sodipodi:role="line"
         x="1781.5139"
         y="154.70146"
         id="tspan53332">Kako sem</tspan><tspan
         style="font-size:59.5686px;stroke-width:1.32375"
         sodipodi:role="line"
         x="1781.5139"
         y="229.16222"
         id="tspan5934">lahko bila</tspan><tspan
         style="font-size:59.5686px;stroke-width:1.32375"
         sodipodi:role="line"
         x="1781.5139"
         y="303.62296"
         id="tspan5936">tako neumna!</tspan></text>
    <text
       xml:space="preserve"
       style="font-style:normal;font-variant:normal;font-weight:normal;font-stretch:normal;font-size:45px;line-height:1.25;font-family:Lavi;-inkscape-font-specification:Lavi;text-align:center;letter-spacing:0px;word-spacing:0px;text-anchor:middle;fill:#000000;fill-opacity:1;stroke:none"
       x="2163.5759"
       y="985.2207"
       id="text4246-3-2-2-3-6-2"><tspan
         style="font-size:45px"
         sodipodi:role="line"
         x="2163.5759"
         y="985.2207"
         id="tspan57371">Mislila sem da bosta</tspan><tspan
         style="font-size:45px"
         sodipodi:role="line"
         x="2163.5759"
         y="1041.4707"
         id="tspan113072">že zdavnaj obupala.</tspan></text>
    <text
       xml:space="preserve"
       style="font-style:normal;font-variant:normal;font-weight:normal;font-stretch:normal;font-size:45px;line-height:1.25;font-family:Lavi;-inkscape-font-specification:Lavi;text-align:center;letter-spacing:0px;word-spacing:0px;text-anchor:middle;fill:#000000;fill-opacity:1;stroke:none"
       x="1160.3785"
       y="1263.4884"
       id="text4246-3-2-2-3-6-2-7"><tspan
         style="font-size:45px"
         sodipodi:role="line"
         x="1160.3785"
         y="1263.4884"
         id="tspan60148">Ko bi jima vsaj</tspan><tspan
         style="font-size:45px"
         sodipodi:role="line"
         x="1160.3785"
         y="1319.7384"
         id="tspan61622">lahko ušla.</tspan></text>
    <text
       xml:space="preserve"
       style="font-style:normal;font-variant:normal;font-weight:normal;font-stretch:normal;font-size:45px;line-height:1.25;font-family:Lavi;-inkscape-font-specification:Lavi;text-align:center;letter-spacing:0px;word-spacing:0px;text-anchor:middle;fill:#000000;fill-opacity:1;stroke:none"
       x="435.72397"
       y="2098.5901"
       id="text4246-3-2-2-3-6-2-7-2"><tspan
         style="font-size:45px"
         sodipodi:role="line"
         x="435.72397"
         y="2098.5901"
         id="tspan1171-9"><tspan
   style="font-style:normal;font-variant:normal;font-weight:bold;font-stretch:normal;font-family:Lavi;-inkscape-font-specification:'Lavi Bold'"
   id="tspan889">NE.</tspan> </tspan><tspan
         style="font-size:45px"
         sodipodi:role="line"
         x="435.72397"
         y="2154.8401"
         id="tspan885"><tspan
   style="font-style:normal;font-variant:normal;font-weight:bold;font-stretch:normal;font-family:Lavi;-inkscape-font-specification:'Lavi Bold'"
   id="tspan887">Moram </tspan>se</tspan><tspan
         style="font-size:45px"
         sodipodi:role="line"
         x="435.72397"
         y="2211.0901"
         id="tspan57348">ju znebiti!</tspan></text>
    <text
       xml:space="preserve"
       style="font-style:normal;font-variant:normal;font-weight:normal;font-stretch:normal;font-size:45px;line-height:1.25;font-family:Lavi;-inkscape-font-specification:Lavi;text-align:center;letter-spacing:0px;word-spacing:0px;text-anchor:middle;fill:#000000;fill-opacity:1;stroke:none"
       x="2122.7549"
       y="2118.8071"
       id="text4246-3-2-2-3-6-2-7-2-2"><tspan
         style="font-size:45px"
         sodipodi:role="line"
         x="2122.7549"
         y="2118.8071"
         id="tspan72883">Preden</tspan><tspan
         style="font-size:45px"
         sodipodi:role="line"
         x="2122.7549"
         y="2175.0571"
         id="tspan34958">naju</tspan><tspan
         style="font-size:45px"
         sodipodi:role="line"
         x="2122.7549"
         y="2231.3071"
         id="tspan37400">ujameta!</tspan></text>
    <text
       xml:space="preserve"
       style="font-style:normal;font-variant:normal;font-weight:normal;font-stretch:normal;font-size:45px;line-height:1.25;font-family:Lavi;-inkscape-font-specification:Lavi;text-align:center;letter-spacing:0px;word-spacing:0px;text-anchor:middle;fill:#000000;fill-opacity:1;stroke:none"
       x="273.79352"
       y="2629.6626"
       id="text4246-3-2-2-3-6-2-7-2-3"><tspan
         style="font-size:45px"
         sodipodi:role="line"
         x="273.79352"
         y="2629.6626"
         id="tspan75841">Ampak</tspan><tspan
         style="font-size:45px"
         sodipodi:role="line"
         x="273.79352"
         y="2685.9126"
         id="tspan59636">sem tudi...</tspan></text>
    <text
       xml:space="preserve"
       style="font-style:normal;font-variant:normal;font-weight:normal;font-stretch:normal;font-size:45px;line-height:1.25;font-family:Lavi;-inkscape-font-specification:Lavi;text-align:center;letter-spacing:0px;word-spacing:0px;text-anchor:middle;fill:#000000;fill-opacity:1;stroke:none"
       x="755.08026"
       y="2728.4822"
       id="text4246-3-2-2-3-6-2-7-2-3-3-3"><tspan
         style="font-size:45px"
         x="755.08026"
         y="2728.4822"
         id="tspan1318-9-6"
         sodipodi:role="line">...zelo...</tspan><tspan
         style="font-size:45px"
         x="755.08026"
         y="2784.7322"
         id="tspan1356-7"
         sodipodi:role="line" /></text>
    <text
       xml:space="preserve"
       style="font-style:normal;font-variant:normal;font-weight:normal;font-stretch:normal;font-size:45px;line-height:1.25;font-family:Lavi;-inkscape-font-specification:Lavi;text-align:center;letter-spacing:0px;word-spacing:0px;text-anchor:middle;fill:#000000;fill-opacity:1;stroke:none"
       x="1218.5862"
       y="2507.2249"
       id="text4246-3-2-2-3-6-2-7-2-3-3"><tspan
         style="font-size:45px"
         sodipodi:role="line"
         x="1218.5862"
         y="2507.2249"
         id="tspan1318-9" /><tspan
         style="font-size:45px"
         sodipodi:role="line"
         x="1225.6174"
         y="2563.4749"
         id="tspan1356">...utrujena... </tspan></text>
    <text
       xml:space="preserve"
       style="font-style:normal;font-variant:normal;font-weight:normal;font-stretch:normal;font-size:64.434px;line-height:1.25;font-family:Lavi;-inkscape-font-specification:Lavi;text-align:center;letter-spacing:0px;word-spacing:0px;text-anchor:middle;fill:#000000;fill-opacity:1;stroke:none;stroke-width:1.43187"
       x="1762.6307"
       y="2632.1682"
       id="text4246-3-2-2-3-6-2-7-2-3-3-4"><tspan
         style="font-style:normal;font-variant:normal;font-weight:bold;font-stretch:normal;font-size:64.434px;font-family:Lavi;-inkscape-font-specification:'Lavi Bold';stroke-width:1.43187"
         sodipodi:role="line"
         x="1762.6307"
         y="2632.1682"
         id="tspan1356-4">UPS!</tspan></text>
    <text
       xml:space="preserve"
       style="font-style:normal;font-variant:normal;font-weight:normal;font-stretch:normal;font-size:45px;line-height:1.25;font-family:Lavi;-inkscape-font-specification:Lavi;text-align:center;letter-spacing:0px;word-spacing:0px;text-anchor:middle;fill:#000000;fill-opacity:1;stroke:none"
       x="1905.2314"
       y="2697.1885"
       id="text4246-3-2-2-3-6-2-7-2-3-5"><tspan
         style="font-size:45px"
         sodipodi:role="line"
         x="1905.2314"
         y="2697.1885"
         id="tspan89917">Spravi</tspan><tspan
         style="font-size:45px"
         sodipodi:role="line"
         x="1905.2314"
         y="2753.4385"
         id="tspan49886">se k sebi, </tspan><tspan
         style="font-size:45px"
         sodipodi:role="line"
         x="1905.2314"
         y="2809.6885"
         id="tspan1074">Pepper!</tspan></text>
  </g>
</svg>
