<?xml version="1.0" encoding="UTF-8" standalone="no"?>
<!-- Created with Inkscape (http://www.inkscape.org/) -->

<svg
   xmlns:dc="http://purl.org/dc/elements/1.1/"
   xmlns:cc="http://creativecommons.org/ns#"
   xmlns:rdf="http://www.w3.org/1999/02/22-rdf-syntax-ns#"
   xmlns:svg="http://www.w3.org/2000/svg"
   xmlns="http://www.w3.org/2000/svg"
   xmlns:xlink="http://www.w3.org/1999/xlink"
   xmlns:sodipodi="http://sodipodi.sourceforge.net/DTD/sodipodi-0.dtd"
   xmlns:inkscape="http://www.inkscape.org/namespaces/inkscape"
   id="svg2"
   version="1.1"
   inkscape:version="0.92.2 2405546, 2018-03-11"
   width="2481"
   height="3503"
   sodipodi:docname="E21P02.svg">
  <metadata
     id="metadata8">
    <rdf:RDF>
      <cc:Work
         rdf:about="">
        <dc:format>image/svg+xml</dc:format>
        <dc:type
           rdf:resource="http://purl.org/dc/dcmitype/StillImage" />
        <dc:title></dc:title>
      </cc:Work>
    </rdf:RDF>
  </metadata>
  <defs
     id="defs6">
    <filter
       style="color-interpolation-filters:sRGB"
       id="filter4375-4-1-1-1-9"
       inkscape:label="deevad outline effect">
      <feFlood
         id="feFlood4377-7-9-0-8-1"
         flood-opacity="1"
         flood-color="rgb(0,0,0)"
         result="flood" />
      <feComposite
         id="feComposite4379-3-8-8-2-77"
         in2="SourceGraphic"
         in="flood"
         operator="in"
         result="composite1" />
      <feMorphology
         id="feMorphology4393-1-0-49-8-9"
         operator="dilate"
         radius="4"
         result="result3" />
      <feComposite
         id="feComposite4385-9-5-7-0-8"
         in2="result3"
         in="SourceGraphic"
         operator="over"
         result="composite2" />
    </filter>
    <filter
       inkscape:collect="always"
       style="color-interpolation-filters:sRGB"
       id="filter4210"
       x="-0.0015578248"
       width="1.0031157"
       y="-0.0045528179"
       height="1.0091056">
      <feGaussianBlur
         inkscape:collect="always"
         stdDeviation="0.2079876"
         id="feGaussianBlur4212" />
    </filter>
    <filter
       inkscape:collect="always"
       style="color-interpolation-filters:sRGB"
       id="filter4218"
       x="-0.0015404148"
       width="1.0030808"
       y="-0.0047074384"
       height="1.0094149">
      <feGaussianBlur
         inkscape:collect="always"
         stdDeviation="0.19873465"
         id="feGaussianBlur4220" />
    </filter>
    <filter
       inkscape:collect="always"
       style="color-interpolation-filters:sRGB"
       id="filter4202"
       x="-0.0016505915"
       width="1.0033011"
       y="-0.0039833132"
       height="1.0079666">
      <feGaussianBlur
         inkscape:collect="always"
         stdDeviation="0.11736083"
         id="feGaussianBlur4204" />
    </filter>
    <filter
       inkscape:collect="always"
       style="color-interpolation-filters:sRGB"
       id="filter4202-2"
       x="-0.0016505915"
       width="1.0033011"
       y="-0.0039833132"
       height="1.0079666">
      <feGaussianBlur
         inkscape:collect="always"
         stdDeviation="0.11736083"
         id="feGaussianBlur4204-9" />
    </filter>
    <filter
       inkscape:collect="always"
       style="color-interpolation-filters:sRGB"
       id="filter4325"
       x="-0.003899595"
       width="1.0077991"
       y="-0.012803033"
       height="1.0256062">
      <feGaussianBlur
         inkscape:collect="always"
         stdDeviation="0.3730953"
         id="feGaussianBlur4327" />
    </filter>
    <filter
       inkscape:collect="always"
       style="color-interpolation-filters:sRGB"
       id="filter4369"
       x="-0.0062486199"
       width="1.0124972"
       y="-0.023161722"
       height="1.0463234">
      <feGaussianBlur
         inkscape:collect="always"
         stdDeviation="0.69985892"
         id="feGaussianBlur4371" />
    </filter>
    <filter
       inkscape:collect="always"
       style="color-interpolation-filters:sRGB"
       id="filter4369-7"
       x="-0.0062486199"
       width="1.0124972"
       y="-0.023161722"
       height="1.0463234">
      <feGaussianBlur
         inkscape:collect="always"
         stdDeviation="0.69985892"
         id="feGaussianBlur4371-9" />
    </filter>
  </defs>
  <sodipodi:namedview
     pagecolor="#ffffff"
     bordercolor="#666666"
     borderopacity="1"
     objecttolerance="10"
     gridtolerance="10"
     guidetolerance="10"
     inkscape:pageopacity="0"
     inkscape:pageshadow="2"
     inkscape:window-width="1920"
     inkscape:window-height="1033"
     id="namedview4"
     showgrid="false"
     inkscape:zoom="2.4334002"
     inkscape:cx="1339.2942"
     inkscape:cy="2625.362"
     inkscape:window-x="0"
     inkscape:window-y="47"
     inkscape:window-maximized="0"
     inkscape:current-layer="layer1" />
  <g
     inkscape:groupmode="layer"
     id="layer2"
     inkscape:label="artwork"
     sodipodi:insensitive="true">
    <image
       sodipodi:absref="/home/midgard/git/peppercarrot/comics/ep21_The-Magic-Contest/lang/nl/../gfx_Pepper-and-Carrot_by-David-Revoy_E21P02.png"
       xlink:href="../gfx_Pepper-and-Carrot_by-David-Revoy_E21P02.png"
       width="2481"
       height="3503"
       id="image10"
       x="0"
       y="0" />
  </g>
  <g
     inkscape:groupmode="layer"
     id="layer3"
     inkscape:label="speechbubbles"
     style="display:inline">
    <path
       style="color:#000000;display:inline;overflow:visible;visibility:visible;fill:#ffffff;fill-opacity:1;fill-rule:nonzero;stroke:none;stroke-width:1px;marker:none;enable-background:accumulate"
       d="m 286.83322,547.26277 c 7.72211,-78.82302 43.78404,-124.53023 206.81751,-110.93756 87.32952,7.28089 215.32577,-0.66553 205.02965,114.79703 -10.29622,115.46241 -166.66505,105.29955 -196.26661,108.22038 -29.60155,2.92097 -169.40274,0.24425 -194.98813,-38.81336 -16.01585,-24.44899 -21.87944,-48.86287 -20.59242,-73.26649 z"
       id="path4546-6"
       inkscape:connector-curvature="0"
       sodipodi:nodetypes="cssssc" />
    <path
       style="color:#000000;display:inline;overflow:visible;visibility:visible;fill:#ffffff;fill-opacity:1;fill-rule:nonzero;stroke:none;stroke-width:1px;marker:none;enable-background:accumulate"
       d="m 301.41236,887.88107 c 2.04526,-77.55662 37.13038,-91.87278 79.46811,-101.19143 42.33766,-9.31875 399.42903,-5.7403 426.43368,5.59274 27.00456,11.33323 68.1111,19.22336 59.2612,104.33741 -8.85009,85.11413 -58.85428,104.75861 -109.37012,108.25531 -50.51576,3.4965 -339.09177,2.6158 -385.5722,-23.10709 -23.78613,-13.16355 -64.4251,-36.00167 -70.22067,-93.88694 z"
       id="path4010"
       inkscape:connector-curvature="0"
       sodipodi:nodetypes="csssssc" />
    <path
       style="color:#000000;display:inline;overflow:visible;visibility:visible;fill:#ffffff;fill-opacity:1;fill-rule:nonzero;stroke:none;stroke-width:1px;marker:none;enable-background:accumulate"
       d="m 708.28728,324.66682 c -17.80302,-2.67292 -29.44884,-2.78409 -47.16698,2.02614 -5.00825,1.47381 -10.08814,3.34728 -14.32577,6.39934 -3.69997,4.15642 -3.59037,10.33514 -1.29957,15.14622 2.82169,7.17956 8.76937,13.55058 8.49474,21.65616 -0.3429,5.89548 -5.65216,9.33006 -9.84801,12.60191 -10.85858,8.12974 -22.88187,14.83631 -32.3875,24.65688 -11.42122,10.36094 -22.68704,22.09158 -27.50316,37.10006 -1.80609,5.97046 -2.86049,12.46873 -0.93358,18.54832 4.23596,15.82051 17.61171,29.44221 33.99141,32.24046 10.61786,0.79327 21.63745,-7.82582 21.71957,-18.81268 0.13014,-5.79897 -3.67523,-10.74961 -8.17826,-13.98082 -7.16767,-7.4865 -9.54283,-18.69535 -7.02055,-28.6264 1.9475,-8.22998 6.45887,-15.76324 12.48174,-21.66268 6.07198,-10.1853 17.74223,-14.32617 27.37733,-20.2179 4.36179,-2.75728 8.81469,-5.98576 11.38712,-10.53486 2.12502,-7.35941 -2.27973,-14.38799 -6.69225,-19.90395 -4.40425,-5.80612 -10.16904,-12.0434 -9.41757,-19.89494 -0.21215,-5.51878 6.17387,-6.74567 9.97179,-9.0346 10.38423,-5.22283 20.05102,-6.98163 39.3495,-7.70666 z"
       id="path4496"
       inkscape:connector-curvature="0"
       sodipodi:nodetypes="cccccccccccccccccccc" />
    <path
       style="color:#000000;display:inline;overflow:visible;visibility:visible;fill:#ffffff;fill-opacity:1;fill-rule:nonzero;stroke:none;stroke-width:1px;marker:none;enable-background:accumulate"
       d="M 1168.0796,835.09728 C 1057.6377,967.74155 882.15697,955.72384 797.11624,911.70094 712.07558,867.6781 771.45002,864.01032 771.45002,864.01032 l 33.38661,5.93526 c -30.12794,-5.49233 148.088,137.70612 363.24297,-34.8483 z"
       id="path3541"
       inkscape:connector-curvature="0"
       sodipodi:nodetypes="csccc" />
    <path
       style="color:#000000;display:inline;overflow:visible;visibility:visible;fill:#ffffff;fill-opacity:1;fill-rule:nonzero;stroke:none;stroke-width:1px;marker:none;enable-background:accumulate"
       d="m 906.13349,1985.027 c 8.64772,-51.3235 81.1808,-87.1131 263.75601,-72.5608 97.7971,7.7949 208.9868,14.1582 197.4566,89.3737 -11.5304,75.2156 -186.3304,77.124 -219.48,78.0089 -33.1498,0.885 -196.36991,-3.4963 -225.02197,-29.9478 -17.93567,-16.5581 -18.15193,-48.9459 -16.71064,-64.874 z"
       id="path4546-6-6"
       inkscape:connector-curvature="0"
       sodipodi:nodetypes="cssssc" />
    <path
       style="color:#000000;display:inline;overflow:visible;visibility:visible;fill:#ffffff;fill-opacity:1;fill-rule:nonzero;stroke:none;stroke-width:1px;marker:none;enable-background:accumulate"
       d="m 1208.9581,1837.3548 c -51.8093,6.6291 -63.1327,26.4049 -72.7535,39.757 3.2832,4.0843 7.7777,12.4211 7.7777,12.4211 0,0 -21.2954,24.4542 -26.3512,36.4684 -5.0561,12.014 13.5408,18.2582 13.5408,18.2582 0,0 28.706,-45.6159 40.7672,-52.8813 -9.4456,-10.8353 -10.9712,-13.8404 -15.9223,-16.3387 2.967,-9.4271 34.7001,-34.7514 52.9413,-37.6847 z"
       id="path4456"
       inkscape:connector-curvature="0"
       sodipodi:nodetypes="cccscccc" />
    <path
       style="fill:#ffffff;fill-rule:evenodd;stroke:none;stroke-width:1px;stroke-linecap:butt;stroke-linejoin:miter;stroke-opacity:1"
       d="m 1072.3963,2049.2351 c 32.3295,16.8002 33.0375,27.0815 0.773,30.5655 32.407,8.5327 25.5402,13.8009 9.5131,18.3075 42.1591,43.2361 30.9129,69.9222 18.4104,96.2189 44.3214,-11.3182 46.4441,12.2633 57.8083,28.2018 9.5609,-31.1032 14.6421,-10.9152 18.4736,23.5848 9.7139,-40.2374 16.679,-43.2964 21.1377,-12.4523 9.3424,-25.3858 21.6367,-34.94 37.3241,-26.2963 29.3148,-23.2 40.6683,9.7363 57.8272,24.5285 7.0565,-26.6079 20.5296,-27.1137 36.0488,-19.2975 7.4812,-11.1561 13.2519,-27.5003 32.5549,-2.8062 4.7983,-21.9903 14.4636,-6.1385 22.6332,-1.916 -9.851,-12.7374 7.5969,-15.8995 56.4447,-8.0474 -18.8364,-6.9579 -17.2308,-15.5653 8.5017,-26.1197 -28.3042,-12.2257 -27.8112,-25.8511 -12.1897,-40.2116 -32.1941,-22.6439 0.7119,-43.0935 17.374,-64.0906 -33.1757,9.4605 -59.5408,8.6448 -64.959,-23.7739 -50.5552,24.1373 -42.8503,10.4938 -37.8016,-1.4274 -31.6236,29.6732 -29.3406,3.0771 -37.1544,-6.7632 -85.9603,35.6354 -82.1617,-2.4711 -99.3612,-23.3263 -7.8762,43.5947 -25.4798,26.4391 -43.1239,9.0323 -0.083,36.9635 -10.7299,26.0441 -21.1566,16.1257 -1.6879,15.9211 -12.3369,20.4016 -35.0683,9.4568 16.1206,13.3257 5.9538,15.4187 -44.01,0.5066 z"
       id="path4289"
       inkscape:connector-curvature="0"
       sodipodi:nodetypes="cccccccccccccccccccccccc" />
    <path
       style="color:#000000;display:inline;overflow:visible;visibility:visible;fill:#ffffff;fill-opacity:1;fill-rule:nonzero;stroke:none;stroke-width:1px;marker:none;enable-background:accumulate"
       d="m 1253.992,2212.9175 c 6.0714,-34.0408 56.9965,-57.7786 185.1814,-48.1267 68.6628,5.1701 146.7284,9.3907 138.6331,59.278 -8.0954,49.8874 -130.8215,51.1532 -154.0956,51.7401 -23.2742,0.5871 -137.8702,-2.3189 -157.9866,-19.8631 -12.5926,-10.9823 -12.7445,-32.4638 -11.7323,-43.0283 z"
       id="path4546-6-6-7"
       inkscape:connector-curvature="0"
       sodipodi:nodetypes="cssssc" />
    <path
       style="display:inline;fill:#ffffff;fill-opacity:1;stroke:none"
       d="m 1935.6939,2123.6849 c -2.2769,-23.3922 12.8251,-35.0287 26.5755,-40.541 17.4266,-6.9861 143.1405,-14.7723 158.3105,4.8085 13.9712,18.0333 23.8975,51.1875 -17.8203,67.5649 -41.718,16.3773 -111.3422,7.4067 -123.194,4.429 -11.8516,-2.9777 -41.5014,-10.951 -43.8717,-36.2614 z"
       id="path3659-8"
       inkscape:connector-curvature="0"
       sodipodi:nodetypes="cssssc" />
    <path
       style="color:#000000;display:inline;overflow:visible;visibility:visible;fill:#ffffff;fill-opacity:1;fill-rule:nonzero;stroke:none;stroke-width:1px;marker:none;enable-background:accumulate"
       d="m 1982.1675,2095.4596 c 0.3856,-31.752 -21.3304,-64.1917 -32.5323,-69.3608 -11.2018,-5.1692 49.8903,6.7173 65.5334,65.5673 15.6432,58.8498 -25.2443,31.1505 -25.2443,31.1505 z"
       id="path4035"
       inkscape:connector-curvature="0" />
  </g>
  <g
     inkscape:groupmode="layer"
     id="layer1"
     inkscape:label="txt"
     style="display:inline">
    <text
       xml:space="preserve"
       style="font-style:normal;font-variant:normal;font-weight:normal;font-stretch:normal;line-height:0%;font-family:Lavi;-inkscape-font-specification:Lavi;text-align:center;letter-spacing:0px;word-spacing:0px;text-anchor:middle;fill:#000000;fill-opacity:1;stroke:none"
       x="486.7991"
       y="507.01746"
       id="text4246-2"><tspan
         sodipodi:role="line"
         style="font-size:45px;line-height:1.25"
         x="486.7991"
         y="507.01746"
         id="tspan4306">Zeker dat je</tspan><tspan
         sodipodi:role="line"
         style="font-size:45px;line-height:1.25"
         x="486.7991"
         y="563.26746"
         id="tspan4148">niet met ons mee</tspan><tspan
         sodipodi:role="line"
         style="font-size:45px;line-height:1.25"
         x="486.7991"
         y="619.51746"
         id="tspan4150">wil komen?</tspan></text>
    <text
       xml:space="preserve"
       style="font-style:normal;font-variant:normal;font-weight:normal;font-stretch:normal;line-height:0%;font-family:Lavi;-inkscape-font-specification:Lavi;text-align:center;letter-spacing:0px;word-spacing:0px;text-anchor:middle;fill:#000000;fill-opacity:1;stroke:none"
       x="592.04688"
       y="856.25879"
       id="text4246-2-3"><tspan
         sodipodi:role="line"
         style="font-size:45px;line-height:1.25"
         x="592.04688"
         y="856.25879"
         id="tspan4150-5">Zeker. Bij Chaosah doen</tspan><tspan
         sodipodi:role="line"
         style="font-size:45px;line-height:1.25"
         x="592.04688"
         y="912.50879"
         id="tspan4181">we aan hekserij, niet</tspan><tspan
         sodipodi:role="line"
         style="font-size:45px;line-height:1.25"
         x="592.04688"
         y="968.75879"
         id="tspan4187">aan vertoningen!</tspan></text>
    <text
       xml:space="preserve"
       style="font-style:normal;font-variant:normal;font-weight:normal;font-stretch:normal;line-height:0%;font-family:Lavi;-inkscape-font-specification:Lavi;text-align:center;letter-spacing:0px;word-spacing:0px;text-anchor:middle;display:inline;opacity:0.6;fill:#000000;fill-opacity:1;stroke:none;stroke-width:3.77099991;stroke-miterlimit:4;stroke-dasharray:none;filter:url(#filter4210)"
       x="1174.0292"
       y="1085.962"
       id="text4246-5"
       transform="matrix(0.89223285,-0.26389253,0.30573648,1.0303571,2.2077183e-5,6.5627487e-5)"><tspan
         sodipodi:role="line"
         style="font-style:normal;font-variant:normal;font-weight:normal;font-stretch:normal;font-size:45.00812149px;line-height:1.25;font-family:Fondamento;-inkscape-font-specification:Fondamento;stroke:#000000;stroke-width:3.39352751;stroke-miterlimit:4;stroke-dasharray:none;stroke-opacity:1"
         x="1174.0292"
         y="1085.962"
         id="tspan4217">De KOMONER</tspan><tspan
         sodipodi:role="line"
         style="font-style:normal;font-variant:normal;font-weight:normal;font-stretch:normal;font-size:45.00812149px;line-height:1.25;font-family:Fondamento;-inkscape-font-specification:Fondamento;stroke:#000000;stroke-width:3.39352751;stroke-miterlimit:4;stroke-dasharray:none;stroke-opacity:1"
         x="1179.5233"
         y="1142.2222"
         id="tspan4207"> </tspan><tspan
         sodipodi:role="line"
         style="font-style:normal;font-variant:normal;font-weight:normal;font-stretch:normal;font-size:45.00812149px;line-height:1.25;font-family:Fondamento;-inkscape-font-specification:Fondamento;stroke:#000000;stroke-width:3.39352751;stroke-miterlimit:4;stroke-dasharray:none;stroke-opacity:1"
         x="1179.5233"
         y="1198.4823"
         id="tspan4209"> </tspan></text>
    <text
       xml:space="preserve"
       style="font-style:normal;font-variant:normal;font-weight:normal;font-stretch:normal;line-height:0%;font-family:Lavi;-inkscape-font-specification:Lavi;text-align:center;letter-spacing:0px;word-spacing:0px;text-anchor:middle;display:inline;opacity:0.6;fill:#000000;fill-opacity:1;stroke:#000000;stroke-width:0.70955449;stroke-miterlimit:4;stroke-dasharray:none;stroke-opacity:1;filter:url(#filter4218)"
       x="1294.5164"
       y="1174.9954"
       id="text4246-5-1"
       transform="matrix(0.90128293,-0.29766095,0.18223745,1.0493431,2.2077183e-5,6.5627487e-5)"><tspan
         sodipodi:role="line"
         style="font-style:normal;font-variant:normal;font-weight:normal;font-stretch:normal;font-size:15.4427948px;line-height:1.25;font-family:Fondamento;-inkscape-font-specification:Fondamento;stroke:#000000;stroke-width:0.70955449;stroke-miterlimit:4;stroke-dasharray:none;stroke-opacity:1"
         x="1294.5164"
         y="1174.9954"
         id="tspan4222">VANDAAG PLECHTIGE OPENING</tspan><tspan
         sodipodi:role="line"
         style="font-style:normal;font-variant:normal;font-weight:normal;font-stretch:normal;font-size:15.4427948px;line-height:1.25;font-family:Fondamento;-inkscape-font-specification:Fondamento;stroke:#000000;stroke-width:0.70955449;stroke-miterlimit:4;stroke-dasharray:none;stroke-opacity:1"
         x="1294.5164"
         y="1194.2988"
         id="tspan886">NIEUWE ARENA</tspan></text>
    <text
       xml:space="preserve"
       style="font-style:normal;font-variant:normal;font-weight:normal;font-stretch:normal;line-height:0%;font-family:Lavi;-inkscape-font-specification:Lavi;text-align:start;letter-spacing:0px;word-spacing:0px;text-anchor:start;display:inline;opacity:0.6;fill:#000000;fill-opacity:1;stroke:#000000;stroke-width:0.49537376;stroke-miterlimit:4;stroke-dasharray:none;stroke-opacity:1;filter:url(#filter4202)"
       x="1131.04"
       y="1300.7131"
       id="text4246-5-1-3"
       transform="matrix(0.90128293,-0.29766095,0.18223745,1.0493431,-7.2837579,-35.713954)"><tspan
         sodipodi:role="line"
         style="font-style:normal;font-variant:normal;font-weight:normal;font-stretch:normal;font-size:10.78135014px;line-height:1.25;font-family:Fondamento;-inkscape-font-specification:Fondamento;text-align:start;text-anchor:start;stroke:#000000;stroke-width:0.49537376;stroke-miterlimit:4;stroke-dasharray:none;stroke-opacity:1"
         x="1131.04"
         y="1300.7131"
         id="tspan4209-0-6">INWONERS ONGERUST OVER</tspan><tspan
         sodipodi:role="line"
         style="font-style:normal;font-variant:normal;font-weight:normal;font-stretch:normal;font-size:10.78135014px;line-height:1.25;font-family:Fondamento;-inkscape-font-specification:Fondamento;text-align:start;text-anchor:start;stroke:#000000;stroke-width:0.49537376;stroke-miterlimit:4;stroke-dasharray:none;stroke-opacity:1"
         x="1131.04"
         y="1314.1898"
         id="tspan4196">BELASTINGEN</tspan></text>
    <text
       xml:space="preserve"
       style="font-style:normal;font-variant:normal;font-weight:normal;font-stretch:normal;line-height:0%;font-family:Fondamento;-inkscape-font-specification:'Fondamento, Normal';text-align:start;letter-spacing:0px;word-spacing:0px;writing-mode:lr-tb;text-anchor:start;display:inline;opacity:0.6;fill:#000000;fill-opacity:1;stroke:#000000;stroke-width:0.49537376;stroke-miterlimit:4;stroke-dasharray:none;stroke-opacity:1;filter:url(#filter4202-2)"
       x="1131.04"
       y="1300.7131"
       id="text4246-5-1-3-1"
       transform="matrix(0.81172816,-0.30643117,0.16412967,0.92516231,125.17724,215.40246)"><tspan
         sodipodi:role="line"
         id="tspan3409"
         x="1131.04"
         y="1300.7131"
         style="font-size:10.78128147px;line-height:1.25">TICKETS UITVERKOCHT: SUCCES</tspan><tspan
         sodipodi:role="line"
         id="tspan3411"
         x="1131.04"
         y="1314.1897"
         style="font-size:10.78128147px;line-height:1.25">GEGARANDEERD!</tspan></text>
    <text
       xml:space="preserve"
       style="font-style:normal;font-variant:normal;font-weight:normal;font-stretch:normal;line-height:0%;font-family:Lavi;-inkscape-font-specification:Lavi;text-align:start;letter-spacing:0px;word-spacing:0px;text-anchor:start;display:inline;opacity:0.6;fill:#000000;fill-opacity:1;stroke:#000000;stroke-width:0.49537376;stroke-miterlimit:4;stroke-dasharray:none;stroke-opacity:1;filter:url(#filter4325)"
       x="1131.04"
       y="1300.7131"
       id="text4246-5-1-3-6"
       transform="matrix(0.7407423,0.2965061,0.201955,1.3197427,-189.76704,-1334.7266)"><tspan
         sodipodi:role="line"
         style="font-style:normal;font-variant:normal;font-weight:normal;font-stretch:normal;font-size:10.78135014px;line-height:1.25;font-family:Fondamento;-inkscape-font-specification:Fondamento;text-align:start;text-anchor:start;stroke:#000000;stroke-width:0.49537376;stroke-miterlimit:4;stroke-dasharray:none;stroke-opacity:1"
         x="1131.04"
         y="1300.7131"
         id="tspan4196-6">POLITIEKE ONLUSTEN IN LAND VAN AH</tspan></text>
    <text
       xml:space="preserve"
       style="font-style:normal;font-variant:normal;font-weight:normal;font-stretch:normal;line-height:0%;font-family:Lavi;-inkscape-font-specification:Lavi;text-align:start;letter-spacing:0px;word-spacing:0px;text-anchor:start;display:inline;opacity:0.6;fill:#000000;fill-opacity:1;stroke:#000000;stroke-width:0.49537376;stroke-miterlimit:4;stroke-dasharray:none;stroke-opacity:1;filter:url(#filter4369)"
       x="1131.04"
       y="1300.7131"
       id="text4246-5-1-3-6-1"
       transform="matrix(0.7407423,0.2965061,0.201955,1.3197427,-141.01584,-1087.0536)"><tspan
         sodipodi:role="line"
         style="font-style:normal;font-variant:normal;font-weight:normal;font-stretch:normal;font-size:10.78135014px;line-height:1.25;font-family:Fondamento;-inkscape-font-specification:Fondamento;text-align:start;text-anchor:start;stroke:#000000;stroke-width:0.49537376;stroke-miterlimit:4;stroke-dasharray:none;stroke-opacity:1"
         x="1131.04"
         y="1300.7131"
         id="tspan4196-6-8">AH BEZET NU 80% VAN GRONDGEBIED</tspan></text>
    <text
       xml:space="preserve"
       style="font-style:normal;font-variant:normal;font-weight:normal;font-stretch:normal;line-height:0%;font-family:Lavi;-inkscape-font-specification:Lavi;text-align:start;letter-spacing:0px;word-spacing:0px;text-anchor:start;display:inline;opacity:0.6;fill:#000000;fill-opacity:1;stroke:#000000;stroke-width:0.49537376;stroke-miterlimit:4;stroke-dasharray:none;stroke-opacity:1;filter:url(#filter4369-7)"
       x="1131.04"
       y="1300.7131"
       id="text4246-5-1-3-6-1-2"
       transform="matrix(0.45709154,0.19808295,0.12462083,0.91251868,299.48835,-366.52798)"><tspan
         sodipodi:role="line"
         style="font-style:normal;font-variant:normal;font-weight:normal;font-stretch:normal;font-size:10.78135014px;line-height:1.25;font-family:Fondamento;-inkscape-font-specification:Fondamento;text-align:start;text-anchor:start;stroke:#000000;stroke-width:0.49537376;stroke-miterlimit:4;stroke-dasharray:none;stroke-opacity:1"
         x="1131.04"
         y="1300.7131"
         id="tspan4196-6-8-0">U HEEFT GOEDE OGEN!</tspan></text>
    <text
       xml:space="preserve"
       style="font-style:normal;font-variant:normal;font-weight:normal;font-stretch:normal;line-height:0%;font-family:Lavi;-inkscape-font-specification:Lavi;text-align:center;letter-spacing:0px;word-spacing:0px;text-anchor:middle;fill:#000000;fill-opacity:1;stroke:none"
       x="1131.7324"
       y="1981.7657"
       id="text4246-2-3-1"><tspan
         sodipodi:role="line"
         style="font-size:45px;line-height:1.25"
         x="1131.7324"
         y="1981.7657"
         id="tspan4187-9">Bedankt om me te</tspan><tspan
         sodipodi:role="line"
         style="font-size:45px;line-height:1.25"
         x="1131.7324"
         y="2038.0157"
         id="tspan4412">laten meedoen!</tspan></text>
    <text
       xml:space="preserve"
       style="font-style:normal;font-variant:normal;font-weight:normal;font-stretch:normal;line-height:0%;font-family:Lavi;-inkscape-font-specification:Lavi;text-align:center;letter-spacing:0px;word-spacing:0px;text-anchor:middle;fill:#000000;fill-opacity:1;stroke:none;stroke-width:1.20000005;stroke-miterlimit:4;stroke-dasharray:none"
       x="1261.5112"
       y="2114.9883"
       id="text4246-2-3-1-0"><tspan
         sodipodi:role="line"
         style="font-size:45px;line-height:1.25;stroke:#000000;stroke-width:1.20000005;stroke-miterlimit:4;stroke-dasharray:none;stroke-opacity:1"
         x="1261.5112"
         y="2114.9883"
         id="tspan4412-3">Ik ga winnen!</tspan><tspan
         sodipodi:role="line"
         style="font-size:45px;line-height:1.25;stroke:#000000;stroke-width:1.20000005;stroke-miterlimit:4;stroke-dasharray:none;stroke-opacity:1"
         x="1261.5112"
         y="2171.2383"
         id="tspan4452">Beloofd!</tspan></text>
    <text
       xml:space="preserve"
       style="font-style:normal;font-variant:normal;font-weight:normal;font-stretch:normal;line-height:0%;font-family:Lavi;-inkscape-font-specification:'Lavi, Normal';text-align:center;letter-spacing:0px;word-spacing:0px;writing-mode:lr-tb;text-anchor:middle;fill:#000000;fill-opacity:1;stroke:none"
       x="1411.5112"
       y="2241.4883"
       id="text4246-2-3-1-5"><tspan
         sodipodi:role="line"
         id="tspan3413"
         x="1411.5112"
         y="2241.4883"
         style="font-size:45px;line-height:1.25">Tot vanavond!</tspan></text>
    <text
       xml:space="preserve"
       style="font-style:normal;font-variant:normal;font-weight:normal;font-stretch:normal;line-height:0%;font-family:Lavi;-inkscape-font-specification:Lavi;text-align:center;letter-spacing:0px;word-spacing:0px;text-anchor:middle;fill:#000000;fill-opacity:1;stroke:none"
       x="2038.8628"
       y="2126.7307"
       id="text4246-2-3-6"><tspan
         sodipodi:role="line"
         style="font-size:45px;line-height:1.25"
         x="2038.8628"
         y="2126.7307"
         id="tspan4187-2">...</tspan></text>
    <text
       xml:space="preserve"
       style="font-style:normal;font-variant:normal;font-weight:normal;font-stretch:normal;line-height:0%;font-family:Lavi;-inkscape-font-specification:Lavi;letter-spacing:0px;word-spacing:0px;fill:#000000;fill-opacity:1;stroke:#000000;stroke-width:0.99236238;stroke-miterlimit:4;stroke-dasharray:none;stroke-opacity:1;filter:url(#filter4375-4-1-1-1-9)"
       x="787.65729"
       y="1584.5073"
       id="text4580"
       transform="matrix(0.66983444,-0.42899526,0.00573176,0.82056131,1671.7153,441.03315)"><tspan
         sodipodi:role="line"
         id="tspan4582"
         x="787.65729"
         y="1584.5073"
         style="font-size:70px;line-height:1.25;fill:#ffffff"><tspan
           style="font-size:80.40014648px"
           id="tspan4617">Vlam!</tspan></tspan></text>
  </g>
</svg>
