<?xml version="1.0" encoding="UTF-8" standalone="no"?>
<!-- Created with Inkscape (http://www.inkscape.org/) -->

<svg
   xmlns:dc="http://purl.org/dc/elements/1.1/"
   xmlns:cc="http://creativecommons.org/ns#"
   xmlns:rdf="http://www.w3.org/1999/02/22-rdf-syntax-ns#"
   xmlns:svg="http://www.w3.org/2000/svg"
   xmlns="http://www.w3.org/2000/svg"
   xmlns:xlink="http://www.w3.org/1999/xlink"
   xmlns:sodipodi="http://sodipodi.sourceforge.net/DTD/sodipodi-0.dtd"
   xmlns:inkscape="http://www.inkscape.org/namespaces/inkscape"
   id="svg2"
   version="1.1"
   inkscape:version="0.92.3 (2405546, 2018-03-11)"
   width="2481"
   height="3503"
   sodipodi:docname="E21P05.svg">
  <sodipodi:namedview
     pagecolor="#ffffff"
     bordercolor="#666666"
     inkscape:pageopacity="0"
     inkscape:pageshadow="2"
     inkscape:window-width="1920"
     inkscape:window-height="1022"
     id="namedview70"
     showgrid="false"
     inkscape:zoom="0.4"
     inkscape:cx="1512.403"
     inkscape:cy="919.96814"
     inkscape:current-layer="layer1"
     inkscape:window-x="0"
     inkscape:window-y="0"
     inkscape:window-maximized="1" />
  <metadata
     id="metadata8">
    <rdf:RDF>
      <cc:Work
         rdf:about="">
        <dc:format>image/svg+xml</dc:format>
        <dc:type
           rdf:resource="http://purl.org/dc/dcmitype/StillImage" />
        <dc:title />
      </cc:Work>
    </rdf:RDF>
  </metadata>
  <defs
     id="defs6">
    <filter
       style="color-interpolation-filters:sRGB"
       id="filter4375-4-1-1-1-9-6-9-2-2"
       inkscape:label="deevad outline effect">
      <feFlood
         id="feFlood4377-7-9-0-8-1-0-2-2-0"
         flood-opacity="1"
         flood-color="rgb(0,0,0)"
         result="flood" />
      <feComposite
         id="feComposite4379-3-8-8-2-77-6-0-8-6"
         in2="SourceGraphic"
         in="flood"
         operator="in"
         result="composite1" />
      <feMorphology
         id="feMorphology4393-1-0-49-8-9-2-2-9-1"
         operator="dilate"
         radius="4"
         result="result3" />
      <feComposite
         id="feComposite4385-9-5-7-0-8-6-3-7-5"
         in2="result3"
         in="SourceGraphic"
         operator="over"
         result="composite2" />
    </filter>
    <filter
       style="color-interpolation-filters:sRGB"
       id="filter4375-4-1-1-1-9-6-9-2"
       inkscape:label="deevad outline effect">
      <feFlood
         id="feFlood4377-7-9-0-8-1-0-2-2"
         flood-opacity="1"
         flood-color="rgb(0,0,0)"
         result="flood" />
      <feComposite
         id="feComposite4379-3-8-8-2-77-6-0-8"
         in2="SourceGraphic"
         in="flood"
         operator="in"
         result="composite1" />
      <feMorphology
         id="feMorphology4393-1-0-49-8-9-2-2-9"
         operator="dilate"
         radius="4"
         result="result3" />
      <feComposite
         id="feComposite4385-9-5-7-0-8-6-3-7"
         in2="result3"
         in="SourceGraphic"
         operator="over"
         result="composite2" />
    </filter>
    <filter
       style="color-interpolation-filters:sRGB"
       id="filter4375-4-1-1-1-9-6-9"
       inkscape:label="deevad outline effect">
      <feFlood
         id="feFlood4377-7-9-0-8-1-0-2"
         flood-opacity="1"
         flood-color="rgb(0,0,0)"
         result="flood" />
      <feComposite
         id="feComposite4379-3-8-8-2-77-6-0"
         in2="SourceGraphic"
         in="flood"
         operator="in"
         result="composite1" />
      <feMorphology
         id="feMorphology4393-1-0-49-8-9-2-2"
         operator="dilate"
         radius="4"
         result="result3" />
      <feComposite
         id="feComposite4385-9-5-7-0-8-6-3"
         in2="result3"
         in="SourceGraphic"
         operator="over"
         result="composite2" />
    </filter>
    <filter
       style="color-interpolation-filters:sRGB"
       id="filter4375-4-1-1-1-9"
       inkscape:label="deevad outline effect">
      <feFlood
         id="feFlood4377-7-9-0-8-1"
         flood-opacity="1"
         flood-color="rgb(0,0,0)"
         result="flood" />
      <feComposite
         id="feComposite4379-3-8-8-2-77"
         in2="SourceGraphic"
         in="flood"
         operator="in"
         result="composite1" />
      <feMorphology
         id="feMorphology4393-1-0-49-8-9"
         operator="dilate"
         radius="4"
         result="result3" />
      <feComposite
         id="feComposite4385-9-5-7-0-8"
         in2="result3"
         in="SourceGraphic"
         operator="over"
         result="composite2" />
    </filter>
    <filter
       style="color-interpolation-filters:sRGB"
       id="filter4375-4-1-1-1-9-6-9-2-3"
       inkscape:label="deevad outline effect">
      <feFlood
         id="feFlood4377-7-9-0-8-1-0-2-2-6"
         flood-opacity="1"
         flood-color="rgb(0,0,0)"
         result="flood" />
      <feComposite
         id="feComposite4379-3-8-8-2-77-6-0-8-7"
         in2="SourceGraphic"
         in="flood"
         operator="in"
         result="composite1" />
      <feMorphology
         id="feMorphology4393-1-0-49-8-9-2-2-9-5"
         operator="dilate"
         radius="4"
         result="result3" />
      <feComposite
         id="feComposite4385-9-5-7-0-8-6-3-7-3"
         in2="result3"
         in="SourceGraphic"
         operator="over"
         result="composite2" />
    </filter>
    <filter
       style="color-interpolation-filters:sRGB"
       id="filter4375-4-1-1-1-9-6-9-2-1"
       inkscape:label="deevad outline effect">
      <feFlood
         id="feFlood4377-7-9-0-8-1-0-2-2-2"
         flood-opacity="1"
         flood-color="rgb(0,0,0)"
         result="flood" />
      <feComposite
         id="feComposite4379-3-8-8-2-77-6-0-8-70"
         in2="SourceGraphic"
         in="flood"
         operator="in"
         result="composite1" />
      <feMorphology
         id="feMorphology4393-1-0-49-8-9-2-2-9-9"
         operator="dilate"
         radius="4"
         result="result3" />
      <feComposite
         id="feComposite4385-9-5-7-0-8-6-3-7-36"
         in2="result3"
         in="SourceGraphic"
         operator="over"
         result="composite2" />
    </filter>
    <filter
       style="color-interpolation-filters:sRGB"
       id="filter4375-4-1-1-1-9-6-9-2-2-0"
       inkscape:label="deevad outline effect">
      <feFlood
         id="feFlood4377-7-9-0-8-1-0-2-2-0-6"
         flood-opacity="1"
         flood-color="rgb(0,0,0)"
         result="flood" />
      <feComposite
         id="feComposite4379-3-8-8-2-77-6-0-8-6-2"
         in2="SourceGraphic"
         in="flood"
         operator="in"
         result="composite1" />
      <feMorphology
         id="feMorphology4393-1-0-49-8-9-2-2-9-1-6"
         operator="dilate"
         radius="4"
         result="result3" />
      <feComposite
         id="feComposite4385-9-5-7-0-8-6-3-7-5-1"
         in2="result3"
         in="SourceGraphic"
         operator="over"
         result="composite2" />
    </filter>
    <filter
       style="color-interpolation-filters:sRGB"
       id="filter4375-4-1-1-1-9-6-9-8"
       inkscape:label="deevad outline effect">
      <feFlood
         id="feFlood4377-7-9-0-8-1-0-2-7"
         flood-opacity="1"
         flood-color="rgb(0,0,0)"
         result="flood" />
      <feComposite
         id="feComposite4379-3-8-8-2-77-6-0-9"
         in2="SourceGraphic"
         in="flood"
         operator="in"
         result="composite1" />
      <feMorphology
         id="feMorphology4393-1-0-49-8-9-2-2-2"
         operator="dilate"
         radius="4"
         result="result3" />
      <feComposite
         id="feComposite4385-9-5-7-0-8-6-3-0"
         in2="result3"
         in="SourceGraphic"
         operator="over"
         result="composite2" />
    </filter>
    <filter
       style="color-interpolation-filters:sRGB"
       id="filter4375-4-1-1-1-9-6-9-2-3-2"
       inkscape:label="deevad outline effect">
      <feFlood
         id="feFlood4377-7-9-0-8-1-0-2-2-6-3"
         flood-opacity="1"
         flood-color="rgb(0,0,0)"
         result="flood" />
      <feComposite
         id="feComposite4379-3-8-8-2-77-6-0-8-7-7"
         in2="SourceGraphic"
         in="flood"
         operator="in"
         result="composite1" />
      <feMorphology
         id="feMorphology4393-1-0-49-8-9-2-2-9-5-5"
         operator="dilate"
         radius="4"
         result="result3" />
      <feComposite
         id="feComposite4385-9-5-7-0-8-6-3-7-3-9"
         in2="result3"
         in="SourceGraphic"
         operator="over"
         result="composite2" />
    </filter>
    <filter
       style="color-interpolation-filters:sRGB"
       id="filter4375-4-1-1-1-9-6-9-2-1-3"
       inkscape:label="deevad outline effect">
      <feFlood
         id="feFlood4377-7-9-0-8-1-0-2-2-06"
         flood-opacity="1"
         flood-color="rgb(0,0,0)"
         result="flood" />
      <feComposite
         id="feComposite4379-3-8-8-2-77-6-0-8-3"
         in2="SourceGraphic"
         in="flood"
         operator="in"
         result="composite1" />
      <feMorphology
         id="feMorphology4393-1-0-49-8-9-2-2-9-2"
         operator="dilate"
         radius="4"
         result="result3" />
      <feComposite
         id="feComposite4385-9-5-7-0-8-6-3-7-0"
         in2="result3"
         in="SourceGraphic"
         operator="over"
         result="composite2" />
    </filter>
  </defs>
  <sodipodi:namedview
     pagecolor="#ffffff"
     bordercolor="#666666"
     borderopacity="1"
     objecttolerance="10"
     gridtolerance="10"
     guidetolerance="10"
     inkscape:pageopacity="0"
     inkscape:pageshadow="2"
     inkscape:window-width="1920"
     inkscape:window-height="1025"
     id="namedview4"
     showgrid="false"
     inkscape:zoom="0.71817042"
     inkscape:cx="1437.3736"
     inkscape:cy="1138.574"
     inkscape:window-x="0"
     inkscape:window-y="26"
     inkscape:window-maximized="1"
     inkscape:current-layer="layer1"
     showguides="false" />
  <g
     inkscape:groupmode="layer"
     id="layer2"
     inkscape:label="artwork"
     sodipodi:insensitive="true">
    <image
       xlink:href="../gfx_Pepper-and-Carrot_by-David-Revoy_E21P05.png"
       width="2481"
       height="3503"
       id="image10"
       x="0"
       y="0" />
  </g>
  <g
     inkscape:groupmode="layer"
     id="layer4"
     inkscape:label="transla-notes">
    <path
       style="color:#000000;clip-rule:nonzero;display:inline;overflow:visible;visibility:visible;opacity:0.481;isolation:auto;mix-blend-mode:normal;color-interpolation:sRGB;color-interpolation-filters:linearRGB;solid-color:#000000;solid-opacity:1;fill:#ffe680;fill-opacity:1;fill-rule:nonzero;stroke:#565656;stroke-width:1.20000005;stroke-linecap:butt;stroke-linejoin:miter;stroke-miterlimit:4;stroke-dasharray:none;stroke-dashoffset:0;stroke-opacity:1;marker:none;color-rendering:auto;image-rendering:auto;shape-rendering:auto;text-rendering:auto;enable-background:accumulate"
       d="m -465.52729,1467.3488 0,189.0351 203.83,0 0,-90.9805 10,0 0,15.6308 30.9825,-26.9824 -30.9825,-26.9804 0,16.6171 -10,0 0,-76.3397 -203.83,0 z"
       id="rect4191-6"
       inkscape:connector-curvature="0" />
    <flowRoot
       xml:space="preserve"
       id="flowRoot4212-7"
       style="font-style:normal;font-variant:normal;font-weight:normal;font-stretch:normal;line-height:0.01%;font-family:Lavi;-inkscape-font-specification:'Lavi, Normal';text-align:center;letter-spacing:0px;word-spacing:0px;writing-mode:lr-tb;text-anchor:middle;display:inline;opacity:0.481;fill:#000000;fill-opacity:1;stroke:none;stroke-width:1px;stroke-linecap:butt;stroke-linejoin:miter;stroke-opacity:1"
       transform="translate(-235.83689,459.1052)"><flowRegion
         id="flowRegion4214-5"><rect
           id="rect4216-3"
           width="291.95547"
           height="247.52747"
           x="-275.14545"
           y="1061.6674" /></flowRegion><flowPara
         id="flowPara4218-5"
         style="font-size:25.3241539px;line-height:1.25">Edit this one,</flowPara><flowPara
         id="flowPara4562"
         style="font-size:25.3241539px;line-height:1.25">all other one</flowPara><flowPara
         id="flowPara4564"
         style="font-size:25.3241539px;line-height:1.25">are linked</flowPara></flowRoot>    <text
       xml:space="preserve"
       style="font-style:normal;font-variant:normal;font-weight:normal;font-stretch:normal;line-height:0%;font-family:Lavi;-inkscape-font-specification:Lavi;letter-spacing:0px;word-spacing:0px;display:inline;fill:#000000;fill-opacity:1;stroke:#000000;stroke-width:0.99236238;stroke-miterlimit:4;stroke-dasharray:none;stroke-opacity:1;filter:url(#filter4375-4-1-1-1-9-6-9-2-1-3)"
       x="787.65729"
       y="1584.5073"
       id="text4580-1-7-3-6"
       transform="matrix(0.96380061,-0.56217228,-0.1779318,1.4896521,-966.35295,-57.7468)"><tspan
         sodipodi:role="line"
         id="tspan4582-8-5-6-1"
         x="787.65729"
         y="1584.5073"
         style="font-size:70px;line-height:1.25;fill:#ffffff">Clapan</tspan></text>
  </g>
  <g
     inkscape:groupmode="layer"
     id="layer3"
     inkscape:label="speechbubbles"
     style="display:inline">
    <path
       style="fill:#ffffff;stroke:none"
       d="m 736.51191,1188.4171 c -45.48157,-7.8653 -49.80145,-21.3317 -53.4388,-37.0835 -3.6374,-15.7517 -5.16203,-30.4687 -14.32474,-35.8289 -9.16272,-5.3602 -23.37699,-6.6454 -34.06986,-6.2062 -10.69301,0.4392 -13.97989,-8.9853 -18.62286,-19.1174 -4.64306,-10.1321 -41.97641,-56.8354 -41.97641,-56.8354 0,0 -1.20376,45.2512 2.94367,59.0698 4.14744,13.8186 5.59223,18.8919 8.79041,23.9507 3.19826,5.0588 12.93629,16.3762 24.00316,18.7395 11.06682,2.3635 22.61467,-0.7131 31.38172,-0.7856 8.76701,-0.073 19.23906,8.8101 24.59357,20.1638 5.35451,11.3537 21.40439,35.2793 39.65729,37.2326 18.25291,1.9532 31.06285,-3.2994 31.06285,-3.2994 z"
       id="path3023"
       inkscape:connector-curvature="0"
       sodipodi:nodetypes="csssscssssssc" />
    <g
       transform="matrix(1.9785664,-0.5411099,0.65248062,1.7773709,-3074.8929,-2974.5361)"
       id="g3487">
      <g
         style="display:inline;opacity:1;fill:#ffffff;fill-opacity:1"
         transform="matrix(1.1175556,0.1528418,-0.22733454,1.1392281,200.31774,-1231.9554)"
         id="g5381">
        <path
           sodipodi:nodetypes="csccccccccsccccssccccccsssssscssscc"
           style="color:#000000;display:inline;overflow:visible;visibility:visible;fill:#ffffff;fill-opacity:1;fill-rule:nonzero;stroke:none;stroke-width:1px;marker:none;enable-background:accumulate"
           d="m 1225.2771,3157.962 c -4.7051,-6.6655 -4.7051,-15.2915 -4.7051,-16.8598 0,-1.5684 0.3921,-7.4497 0.3921,-7.4497 l -3.1367,-1.1763 2.7446,-5.0971 -3.1367,0.3921 c 0,0 7.4497,-9.0181 9.018,-11.7627 1.5684,-2.7446 4.313,-9.018 4.313,-9.018 0,0 14.5073,-1.9605 17.644,-3.1368 3.1367,-1.1762 12.5468,-11.3705 12.5468,-11.3705 0,0 11.3706,5.4892 15.6836,6.2734 4.3129,0.7842 24.3095,1.9604 27.8383,0 3.5288,-1.9605 7.0576,-4.7051 7.0576,-4.7051 0,0 9.018,-0.7841 11.3705,-1.9604 2.3526,-1.1763 6.6655,-3.9209 6.6655,-3.9209 0,0 7.4497,0.7842 10.5864,0.3921 3.1367,-0.3921 17.644,0 19.2124,0 1.5683,0 12.5468,6.6655 12.5468,6.6655 l 7.0576,6.6655 c 0,0 5.8813,-0.3921 8.626,-1.1763 2.7446,-0.7841 5.0971,3.1367 5.0971,3.1367 0,0 10.5864,23.9175 12.1548,28.6225 1.5683,4.7051 2.3525,14.1152 2.3525,14.1152 0,0 -4.313,7.4497 -6.6655,10.5864 -2.3525,3.1367 -9.018,10.5864 -12.5468,13.331 -3.5288,2.7446 -7.8418,7.0576 -12.1548,4.313 -4.313,-2.7446 -8.6259,-2.3525 -10.1943,-0.3921 -1.5684,1.9604 -11.8039,13.5779 -15.7248,12.0095 -3.9209,-1.5684 -10.9988,-3.9226 -14.9197,-7.4514 -3.9209,-3.5288 -17.5824,6.8125 -20.327,4.4599 -2.7446,-2.3525 -6.6655,-6.6655 -9.4102,-6.6655 -2.7446,0 -35.68,9.8023 -39.6009,8.2339 -3.9209,-1.5684 -24.7016,-14.5073 -27.0541,-16.0756 -2.3526,-1.5684 -8.2339,-10.9785 -8.2339,-10.9785 z"
           id="path5263"
           inkscape:connector-curvature="0" />
        <path
           sodipodi:nodetypes="cccccccccc"
           style="color:#000000;font-style:normal;font-variant:normal;font-weight:normal;font-stretch:normal;font-size:medium;line-height:normal;font-family:Sans;-inkscape-font-specification:Sans;text-indent:0;text-align:start;text-decoration:none;text-decoration-line:none;letter-spacing:normal;word-spacing:normal;text-transform:none;writing-mode:lr-tb;direction:ltr;baseline-shift:baseline;text-anchor:start;display:inline;overflow:visible;visibility:visible;fill:#ffffff;fill-opacity:1;fill-rule:nonzero;stroke:none;stroke-width:1px;marker:none;enable-background:accumulate"
           d="m 1236.8125,3095.4062 c -0.053,0.01 -0.1046,0.019 -0.1563,0.031 l -9.875,1.375 c -0.5664,0.074 -1.0819,0.3653 -1.4374,0.8125 l -12.9688,16.3438 c -1.8333,2.3125 1.6355,5.0625 3.4688,2.75 l 12.375,-15.6876 9.111,-3.4944 c 2.7893,-0.3937 2.2948,-2.297 -0.5173,-2.1306 z"
           id="path5271"
           inkscape:connector-curvature="0" />
        <path
           sodipodi:nodetypes="cccccccccccc"
           style="color:#000000;font-style:normal;font-variant:normal;font-weight:normal;font-stretch:normal;font-size:medium;line-height:normal;font-family:Sans;-inkscape-font-specification:Sans;text-indent:0;text-align:start;text-decoration:none;text-decoration-line:none;letter-spacing:normal;word-spacing:normal;text-transform:none;writing-mode:lr-tb;direction:ltr;baseline-shift:baseline;text-anchor:start;display:inline;overflow:visible;visibility:visible;fill:#ffffff;fill-opacity:1;fill-rule:nonzero;stroke:none;stroke-width:1px;marker:none;enable-background:accumulate"
           d="m 1252.1562,3077.3125 c -0.649,0.047 -1.244,0.3788 -1.625,0.9063 l -7.8124,10.5312 -11.3438,-5.0625 c -0.7671,-0.3468 -1.6649,-0.2255 -2.3125,0.3125 l -14.6563,12.2812 c -2.4947,1.8493 0.5439,5.4954 2.8126,3.375 l 13.5937,-11.4062 11.7187,5.25 c 0.9445,0.412 2.0484,0.1133 2.6563,-0.7188 l 8.037,-13.4205 c 1.1526,-1.5067 0.8237,-2.1851 -1.0683,-2.0482 z"
           id="path5273"
           inkscape:connector-curvature="0" />
        <path
           sodipodi:nodetypes="cccccccccccc"
           style="color:#000000;font-style:normal;font-variant:normal;font-weight:normal;font-stretch:normal;font-size:medium;line-height:normal;font-family:Sans;-inkscape-font-specification:Sans;text-indent:0;text-align:start;text-decoration:none;text-decoration-line:none;letter-spacing:normal;word-spacing:normal;text-transform:none;writing-mode:lr-tb;direction:ltr;baseline-shift:baseline;text-anchor:start;display:inline;overflow:visible;visibility:visible;fill:#ffffff;fill-opacity:1;fill-rule:nonzero;stroke:none;stroke-width:1px;marker:none;enable-background:accumulate"
           d="m 1267.9375,3079.7188 c -0.351,0.013 -0.6939,0.109 -1,0.2812 l -10.2187,5.4375 c -2.8742,1.2804 -0.605,5.544 2.0624,3.875 l 8.8126,-4.6563 6.3437,6.3438 c 0.3294,0.3327 0.7563,0.5516 1.2187,0.625 l 3.1345,-1.3807 c 3.0849,0.6795 3.0481,-2.4327 -0.1032,-2.6505 l -1.6875,-0.25 -6.9688,-6.9688 c -0.4199,-0.4264 -0.9953,-0.6633 -1.5937,-0.6562 z"
           id="path5275"
           inkscape:connector-curvature="0" />
        <path
           sodipodi:nodetypes="cccccccccc"
           style="color:#000000;font-style:normal;font-variant:normal;font-weight:normal;font-stretch:normal;font-size:medium;line-height:normal;font-family:Sans;-inkscape-font-specification:Sans;text-indent:0;text-align:start;text-decoration:none;text-decoration-line:none;letter-spacing:normal;word-spacing:normal;text-transform:none;writing-mode:lr-tb;direction:ltr;baseline-shift:baseline;text-anchor:start;display:inline;overflow:visible;visibility:visible;fill:#ffffff;fill-opacity:1;fill-rule:nonzero;stroke:none;stroke-width:1px;marker:none;enable-background:accumulate"
           d="m 1265.2812,3072.9062 c -2.5126,0.2333 -2.7193,3.8238 -0.25,4.3438 l 14.375,3.8438 6.8551,8.543 c 1.3125,2.6249 3.0824,1.4256 1.7699,-1.1993 l -5.125,-10.2187 c -0.2798,-0.5704 -0.7925,-0.992 -1.4062,-1.1563 L 1266.1562,3073 c -0.2824,-0.09 -0.58,-0.1219 -0.875,-0.094 z"
           id="path5277"
           inkscape:connector-curvature="0" />
        <path
           sodipodi:nodetypes="cccccc"
           style="color:#000000;font-style:normal;font-variant:normal;font-weight:normal;font-stretch:normal;font-size:medium;line-height:normal;font-family:Sans;-inkscape-font-specification:Sans;text-indent:0;text-align:start;text-decoration:none;text-decoration-line:none;letter-spacing:normal;word-spacing:normal;text-transform:none;writing-mode:lr-tb;direction:ltr;baseline-shift:baseline;text-anchor:start;display:inline;overflow:visible;visibility:visible;fill:#ffffff;fill-opacity:1;fill-rule:nonzero;stroke:none;stroke-width:1px;marker:none;enable-background:accumulate"
           d="m 1343.875,3078.6875 c -0.2717,0.024 -0.5366,0.098 -0.7812,0.2187 l -4.4376,2.0626 c -3.0843,1.0553 -1.8531,3.8515 0.9426,2.175 l 5.3387,-0.2376 c 2.3246,-0.9763 1.4472,-4.46 -1.0625,-4.2187 z"
           id="path5279"
           inkscape:connector-curvature="0" />
        <path
           sodipodi:nodetypes="sscccccs"
           style="color:#000000;font-style:normal;font-variant:normal;font-weight:normal;font-stretch:normal;font-size:medium;line-height:normal;font-family:Sans;-inkscape-font-specification:Sans;text-indent:0;text-align:start;text-decoration:none;text-decoration-line:none;letter-spacing:normal;word-spacing:normal;text-transform:none;writing-mode:lr-tb;direction:ltr;baseline-shift:baseline;text-anchor:start;display:inline;overflow:visible;visibility:visible;fill:#ffffff;fill-opacity:1;fill-rule:nonzero;stroke:none;stroke-width:1px;marker:none;enable-background:accumulate"
           d="m 1353.5625,3079.375 c -2.9375,0 -3.1534,5.1954 -0.2229,5.0779 l 16.7542,-0.6717 9.7927,7.1201 c 2.1875,1.9588 4.2702,-0.4741 2.0823,-2.4325 l -9.5626,-8.5313 c -0.4035,-0.362 -0.9266,-0.5624 -1.4687,-0.5625 z"
           id="path5281"
           inkscape:connector-curvature="0" />
        <path
           sodipodi:nodetypes="cccccccccc"
           style="color:#000000;font-style:normal;font-variant:normal;font-weight:normal;font-stretch:normal;font-size:medium;line-height:normal;font-family:Sans;-inkscape-font-specification:Sans;text-indent:0;text-align:start;text-decoration:none;text-decoration-line:none;letter-spacing:normal;word-spacing:normal;text-transform:none;writing-mode:lr-tb;direction:ltr;baseline-shift:baseline;text-anchor:start;display:inline;overflow:visible;visibility:visible;fill:#ffffff;fill-opacity:1;fill-rule:nonzero;stroke:none;stroke-width:1px;marker:none;enable-background:accumulate"
           d="m 1365,3069.8438 c -2.9378,0.062 -2.8438,4.4693 0.094,4.4062 l 10,0.3125 6.2206,4.1383 c 1.998,2.1997 3.8644,0.1343 1.8106,-2.0133 l -5.4688,-5.8125 c -0.3995,-0.4225 -0.95,-0.6697 -1.5312,-0.6875 l -10.9062,-0.3437 c -0.073,0 -0.1459,0 -0.2188,0 z"
           id="path5283"
           inkscape:connector-curvature="0" />
        <path
           sodipodi:nodetypes="cccccccccc"
           style="color:#000000;font-style:normal;font-variant:normal;font-weight:normal;font-stretch:normal;font-size:medium;line-height:normal;font-family:Sans;-inkscape-font-specification:Sans;text-indent:0;text-align:start;text-decoration:none;text-decoration-line:none;letter-spacing:normal;word-spacing:normal;text-transform:none;writing-mode:lr-tb;direction:ltr;baseline-shift:baseline;text-anchor:start;display:inline;overflow:visible;visibility:visible;fill:#ffffff;fill-opacity:1;fill-rule:nonzero;stroke:none;stroke-width:1px;marker:none;enable-background:accumulate"
           d="m 1397.4375,3095.0625 c -2.6759,0.091 -2.5495,2.1775 0.099,2.5732 l 15.1514,4.3018 2.125,12.0937 c 0.5208,2.8958 4.8645,2.1146 4.3437,-0.7812 l -2.4062,-13.625 c -0.1656,-0.9179 -0.8919,-1.6317 -1.8125,-1.7812 l -17.0625,-2.75 c -0.1444,-0.025 -0.291,-0.035 -0.4375,-0.031 z"
           id="path5285"
           inkscape:connector-curvature="0" />
        <path
           sodipodi:nodetypes="ccccccccc"
           style="color:#000000;font-style:normal;font-variant:normal;font-weight:normal;font-stretch:normal;font-size:medium;line-height:normal;font-family:Sans;-inkscape-font-specification:Sans;text-indent:0;text-align:start;text-decoration:none;text-decoration-line:none;letter-spacing:normal;word-spacing:normal;text-transform:none;writing-mode:lr-tb;direction:ltr;baseline-shift:baseline;text-anchor:start;display:inline;overflow:visible;visibility:visible;fill:#ffffff;fill-opacity:1;fill-rule:nonzero;stroke:none;stroke-width:1px;marker:none;enable-background:accumulate"
           d="m 1397.875,3101.1875 c -2.3206,-0.025 -3.0946,3.0941 -1.0312,4.1563 l 3.5937,1.9062 5.875,22.9688 c 0.7292,2.8542 3.3019,2.1492 2.5727,-0.705 l -4.4477,-24.2638 c -0.1578,-0.5903 -0.554,-1.0884 -1.0937,-1.375 l -4.4063,-2.4062 c -0.3247,-0.1821 -0.6902,-0.2789 -1.0625,-0.2813 z"
           id="path5287"
           inkscape:connector-curvature="0" />
        <path
           sodipodi:nodetypes="ccccccccc"
           style="color:#000000;font-style:normal;font-variant:normal;font-weight:normal;font-stretch:normal;font-size:medium;line-height:normal;font-family:Sans;-inkscape-font-specification:Sans;text-indent:0;text-align:start;text-decoration:none;text-decoration-line:none;letter-spacing:normal;word-spacing:normal;text-transform:none;writing-mode:lr-tb;direction:ltr;baseline-shift:baseline;text-anchor:start;display:inline;overflow:visible;visibility:visible;fill:#ffffff;fill-opacity:1;fill-rule:nonzero;stroke:none;stroke-width:1px;marker:none;enable-background:accumulate"
           d="m 1412.125,3144.4688 c -0.9591,0.041 -1.7811,0.6982 -2.0312,1.625 l -2.9688,10.1874 -3.875,5.5313 c -1.8826,2.4274 0.2658,3.9104 1.9173,1.3203 l 5.7702,-4.5703 c 0.1398,-0.1999 0.2454,-0.4217 0.3125,-0.6563 l 3.0625,-10.5937 c 0.4441,-1.4482 -0.6739,-2.9015 -2.1875,-2.8437 z"
           id="path5289"
           inkscape:connector-curvature="0" />
        <path
           sodipodi:nodetypes="ccccccccc"
           style="color:#000000;font-style:normal;font-variant:normal;font-weight:normal;font-stretch:normal;font-size:medium;line-height:normal;font-family:Sans;-inkscape-font-specification:Sans;text-indent:0;text-align:start;text-decoration:none;text-decoration-line:none;letter-spacing:normal;word-spacing:normal;text-transform:none;writing-mode:lr-tb;direction:ltr;baseline-shift:baseline;text-anchor:start;display:inline;overflow:visible;visibility:visible;fill:#ffffff;fill-opacity:1;fill-rule:nonzero;stroke:none;stroke-width:1px;marker:none;enable-background:accumulate"
           d="m 1417.4062,3142.0938 c -1.0392,0.1213 -1.8492,0.9575 -1.9374,2 l -1,9.5624 -3.2813,7.9063 c -1.2238,2.7484 0.9066,3.9744 1.9903,1.1678 l 5.4784,-7.6678 c 0.083,-0.1995 0.1351,-0.4101 0.1563,-0.625 l 1.0313,-9.875 c 0.1844,-1.4201 -1.0153,-2.6351 -2.4376,-2.4687 z"
           id="path5291"
           inkscape:connector-curvature="0" />
        <path
           sodipodi:nodetypes="ccccccccc"
           style="color:#000000;font-style:normal;font-variant:normal;font-weight:normal;font-stretch:normal;font-size:medium;line-height:normal;font-family:Sans;-inkscape-font-specification:Sans;text-indent:0;text-align:start;text-decoration:none;text-decoration-line:none;letter-spacing:normal;word-spacing:normal;text-transform:none;writing-mode:lr-tb;direction:ltr;baseline-shift:baseline;text-anchor:start;display:inline;overflow:visible;visibility:visible;fill:#ffffff;fill-opacity:1;fill-rule:nonzero;stroke:none;stroke-width:1px;marker:none;enable-background:accumulate"
           d="m 1390.5662,3179.5714 c -0.351,0.013 -1,0.2813 -1,0.2813 l -7.125,3.875 -7.3437,0.6562 c -3.1313,0.063 -2.7214,4.8457 0.375,4.375 l 7.8437,-0.6875 c 0.3059,-0.021 0.6039,-0.1066 0.875,-0.25 l 8.0065,-5.119 c 2.1196,-1.0821 0.7445,-3.2657 -1.6315,-3.131 z"
           id="path5293"
           inkscape:connector-curvature="0" />
        <path
           sodipodi:nodetypes="cccccccccccc"
           style="color:#000000;font-style:normal;font-variant:normal;font-weight:normal;font-stretch:normal;font-size:medium;line-height:normal;font-family:Sans;-inkscape-font-specification:Sans;text-indent:0;text-align:start;text-decoration:none;text-decoration-line:none;letter-spacing:normal;word-spacing:normal;text-transform:none;writing-mode:lr-tb;direction:ltr;baseline-shift:baseline;text-anchor:start;display:inline;overflow:visible;visibility:visible;fill:#ffffff;fill-opacity:1;fill-rule:nonzero;stroke:none;stroke-width:1px;marker:none;enable-background:accumulate"
           d="m 1280.7221,3188.5748 c -0.4982,-0.2647 -1.0898,0.1011 -1.6873,0.2377 l -9.4568,5.0098 -11.166,-4.9199 -7.8481,-7.3221 c -0.8757,-2.5874 -2.2771,-0.2485 -1.4013,2.3389 l 5.8014,8.0075 c 0.108,0.3279 0.5511,0.4423 0.829,0.6681 l 12.6908,5.6184 c 0.5337,0.4324 1.3256,0.06 2.0722,-0.1113 3.6662,-1.0699 3.4682,-3.4305 9.9622,-6.6196 2.0978,-0.4518 1.9543,-1.9874 0.2039,-2.9075 z"
           id="path5295"
           inkscape:connector-curvature="0" />
        <path
           sodipodi:nodetypes="cccccccccccc"
           style="color:#000000;font-style:normal;font-variant:normal;font-weight:normal;font-stretch:normal;font-size:medium;line-height:normal;font-family:Sans;-inkscape-font-specification:Sans;text-indent:0;text-align:start;text-decoration:none;text-decoration-line:none;letter-spacing:normal;word-spacing:normal;text-transform:none;writing-mode:lr-tb;direction:ltr;baseline-shift:baseline;text-anchor:start;display:inline;overflow:visible;visibility:visible;fill:#ffffff;fill-opacity:1;fill-rule:nonzero;stroke:none;stroke-width:1px;marker:none;enable-background:accumulate"
           d="m 1299.0938,3181.6562 c -1.9894,0.1923 -2.7125,2.7233 -1.125,3.9376 l 11.9374,9.5312 c 0.4208,0.3468 0.9553,0.525 1.5,0.5 l 5.4688,-0.3438 c 0.5905,-0.034 1.1423,-0.3044 1.5312,-0.75 l 2.375,-2.7187 c 1.9375,-2.2083 -0.191,-3.9463 -2.1285,-1.7381 l -2.9652,0.8631 -3.6875,0.2187 -11.2812,-9 c -0.4528,-0.3777 -1.0382,-0.5578 -1.625,-0.5 z"
           id="path5297"
           inkscape:connector-curvature="0" />
        <path
           style="color:#000000;font-style:normal;font-variant:normal;font-weight:normal;font-stretch:normal;font-size:medium;line-height:normal;font-family:Sans;-inkscape-font-specification:Sans;text-indent:0;text-align:start;text-decoration:none;text-decoration-line:none;letter-spacing:normal;word-spacing:normal;text-transform:none;writing-mode:lr-tb;direction:ltr;baseline-shift:baseline;text-anchor:start;display:inline;overflow:visible;visibility:visible;fill:#ffffff;fill-opacity:1;fill-rule:nonzero;stroke:none;stroke-width:1px;marker:none;enable-background:accumulate"
           d="m 1229.0625,3164.9375 a 2.20022,2.20022 0 0 0 -1.3125,3.9375 l 3.4062,2.75 a 2.201074,2.201074 0 1 0 2.75,-3.4375 l -3.4062,-2.75 a 2.20022,2.20022 0 0 0 -1.4375,-0.5 z"
           id="path5301"
           inkscape:connector-curvature="0" />
      </g>
      <path
         inkscape:connector-curvature="0"
         id="path4295"
         d="m 1040.7186,2593.0113 c -5.5317,9.4907 -18.0351,11.6413 -21.4746,15.2859 5.7949,6.8978 14.8495,-2.0477 20.5137,-5.6272 2.9757,-2.0944 5.2706,-7.1056 0.9609,-9.6587 z"
         style="color:#000000;clip-rule:nonzero;display:inline;overflow:visible;visibility:visible;opacity:1;isolation:auto;mix-blend-mode:normal;color-interpolation:sRGB;color-interpolation-filters:linearRGB;solid-color:#000000;solid-opacity:1;fill:#ffffff;fill-opacity:1;fill-rule:nonzero;stroke:none;stroke-width:2.80699992;stroke-linecap:round;stroke-linejoin:round;stroke-miterlimit:4;stroke-dasharray:none;stroke-dashoffset:0;stroke-opacity:1;marker:none;color-rendering:auto;image-rendering:auto;shape-rendering:auto;text-rendering:auto;enable-background:accumulate"
         sodipodi:nodetypes="cccc" />
      <path
         inkscape:connector-curvature="0"
         id="path4297"
         d="m 838.01363,2551.4901 c -3.91523,-6.7821 -5.95361,-15.045 -3.86702,-22.5868 2.65752,-5.6153 5.33509,-2.5587 4.02293,2.0566 0.10065,6.6089 1.23208,13.1512 1.85409,19.7253 -0.67001,0.2683 -1.34,0.5365 -2.01,0.8049 z"
         style="color:#000000;clip-rule:nonzero;display:inline;overflow:visible;visibility:visible;opacity:1;isolation:auto;mix-blend-mode:normal;color-interpolation:sRGB;color-interpolation-filters:linearRGB;solid-color:#000000;solid-opacity:1;fill:#ffffff;fill-opacity:1;fill-rule:nonzero;stroke:none;stroke-width:2.80699992;stroke-linecap:round;stroke-linejoin:round;stroke-miterlimit:4;stroke-dasharray:none;stroke-dashoffset:0;stroke-opacity:1;marker:none;color-rendering:auto;image-rendering:auto;shape-rendering:auto;text-rendering:auto;enable-background:accumulate" />
    </g>
    <path
       style="fill:#ffffff;fill-rule:evenodd;stroke:none"
       d="m 1294.4108,358.56645 c 24.5748,9.88924 46.7889,16.03766 39.2365,-24.97956 43.4993,55.68697 37.2593,17.54896 44.1413,4.16322 25.8618,39.33708 48.1138,33.73126 67.4378,-8.32646 10.9243,60.66629 33.7841,31.27308 53.9504,22.20406 -0.05,17.06031 -5.5555,36.62299 53.9504,26.36737 -17.0142,15.4084 -23.3607,29.3963 14.7136,37.46945 -26.4481,12.38886 -40.973,25.57153 -12.2614,41.63275 -15.2528,23.39738 -5.0511,37.30237 15.9399,47.18372 -49.1487,1.36837 -17.3125,19.24055 -9.4275,31.36736 -41.8448,-24.93267 -67.6994,-19.95056 -64.1412,-0.83676 -19.4763,-10.9646 -33.8718,-36.88054 -68.6639,-2.77542 -10.3476,-11.31897 -19.8859,-25.61489 -42.9151,9.71426 -1.6245,-30.81671 -26.1959,-21.03956 -50.6492,-3.87193 -6.4496,-28.90036 -16.6843,-39.71956 -42.4186,-21.32954 21.005,-28.20736 16.2771,-34.89733 -24.6421,-48.34961 39.6542,-16.13667 32.4335,-29.1526 17.166,-41.63268 15.0838,-11.73571 24.9186,-24.51967 -14.7137,-47.18378 23.172,3.52343 47.8448,8.06607 23.2968,-20.81645 z"
       id="path4582-1"
       inkscape:connector-curvature="0"
       sodipodi:nodetypes="ccccccccccccccccccc" />
    <path
       style="fill:#ffffff;fill-rule:evenodd;stroke:none;stroke-width:1.20364094px;stroke-linecap:butt;stroke-linejoin:miter;stroke-opacity:1"
       d="m 1203.9946,236.76845 c 40.4461,9.36845 64.2368,10.78362 51.807,-28.07349 71.5924,52.75433 61.3227,16.62476 72.6491,3.94397 42.5644,37.26547 79.1876,31.95488 110.9918,-7.88797 17.9794,57.47144 55.6028,29.62614 88.7932,21.03473 -0.082,16.16187 -9.1432,34.69431 88.7933,24.97879 -28.0024,14.59695 -38.4476,27.84821 24.2164,35.4962 -43.5291,11.73642 -75.0969,25.69468 -27.8423,40.91007 -56.1302,17.71473 -34.2234,30.71634 1.9719,41.02437 -40.0273,3.50102 -19.2699,19.36983 -6.2924,30.85801 -68.8698,-23.61965 -88.7211,-17.83774 -82.8648,0.26947 -32.055,-10.38719 -55.7476,-34.9383 -113.0097,-2.62926 -17.0304,-10.72288 -32.7287,-24.26593 -70.6312,9.20268 -2.6736,-29.19382 -30.385,-28.09558 -70.631,-11.83204 -10.6152,-27.37839 -50.4752,-13.47747 -92.8295,3.94407 34.5707,-26.72189 37.0759,-49.04587 -30.2704,-61.7897 65.2642,-15.28687 53.3801,-27.61735 28.2525,-39.44018 24.8253,-11.11769 41.0118,-23.22839 -24.2164,-44.69896 38.1374,3.33789 91.5146,12.05073 51.1125,-15.31076 z"
       id="path4582"
       inkscape:connector-curvature="0"
       sodipodi:nodetypes="ccccccccccccccccccc" />
    <path
       style="fill:#ffffff;fill-rule:evenodd;stroke:none;stroke-width:1.11725485px;stroke-linecap:butt;stroke-linejoin:miter;stroke-opacity:1"
       d="m 1573.973,270.27168 c -29.2506,-14.66154 -36.7195,-33.05801 -2.2165,-34.32778 -31.4996,-8.17295 -18.2551,-13.86879 -0.388,-16.6795 -32.5503,-35.86716 -9.129,-44.14989 10.7837,-64.2316 -49.1097,6.87382 -45.1347,-11.74021 -52.7853,-24.77245 -18.1109,23.9897 -18.1059,7.906 -13.0462,-19.35954 -20.6659,31.15541 -28.7194,33.24108 -25.2717,8.81791 -16.384,19.50995 -31.6889,26.45377 -45.7534,18.95347 -36.6031,16.886 -39.7845,-9.49347 -53.7683,-21.88882 -14.3244,20.57351 -28.4836,20.35845 -42.5897,13.51563 -10.7146,8.42052 -21.009,20.99277 -34.6277,0.72433 -10.7626,17.05008 -16.6675,4.16325 -24.065,0.47615 6.9147,10.44978 -12.0787,12.14009 -60.873,3.75463 17.7852,6.31963 13.8559,13.00572 -15.7013,20.12447 26.2602,10.88651 22.1733,21.56352 2.1441,32.13041 27.5767,19.24426 -1.4362,21.64549 -39.6113,36.44106 44.0908,0.62723 68.9671,9.01433 66.1052,34.71758 58.9616,-16.65688 47.362,-6.29326 38.9793,2.83849 40.7045,-21.86416 31.3526,-1.0831 36.9063,6.99914 98.8357,-24.07719 84.8868,5.67375 97.3229,22.83193 19.6331,-33.87534 33.4602,-19.60384 47.2633,-5.13328 9.7804,-29.02218 18.0011,-19.96382 26.2546,-11.70149 5.9327,-12.42549 18.1941,-15.46002 38.9885,-5.83271 -13.2875,-11.19659 -2.1543,-12.37824 45.9495,1.60203 z"
       id="path4289"
       inkscape:connector-curvature="0"
       sodipodi:nodetypes="ccccccccccccccccccccccccc"
       inkscape:transform-center-x="86.829926"
       inkscape:transform-center-y="39.986694" />
    <path
       style="fill:#ffffff;fill-rule:evenodd;stroke:none"
       d="m 1308.6334,665.32092 c 23.0371,2.70381 38.6275,-25.53739 21.472,-74.32929 63.6791,46.0444 87.5233,25.79487 165.7529,-23.27439 -6.5008,68.36955 28.4638,61.98177 59.9852,48.85565 -30.2517,23.00686 19.3075,46.83938 48.5178,48.13173 -25.9419,30.03664 -44.253,76.16549 -19.9051,94.90808 -40.4636,-4.0041 -30.4526,15.87376 -37.7059,31.76189 -52.094,-35.99851 -89.9784,-27.45483 -119.9083,6.02364 -15.6536,-18.20654 -20.5672,-55.8362 -78.2733,2.00784 21.22,-49.93606 -6.5947,-44.6946 -51.6272,-20.07865 7.0576,-17.0089 49.0039,-42.87337 -21.65,-40.15754 44.1317,-16.16955 47.7616,-49.86566 33.3419,-73.84896 z"
       id="path4584"
       inkscape:connector-curvature="0"
       sodipodi:nodetypes="cccccccccccc" />
    <path
       style="color:#000000;display:inline;overflow:visible;visibility:visible;fill:#ffffff;fill-opacity:1;fill-rule:nonzero;stroke:none;stroke-width:1px;marker:none;enable-background:accumulate"
       d="m 1377.144,675.73915 c 5.5403,-10.4024 29.4845,-40.898 25.9626,-3.098 38.4692,-43.6161 65.3028,-21.1504 92.7977,-2.4408 9.5286,-13.5107 13.287,-36.0725 37.4567,-26.6174 -1.647,-15.2365 26.1052,-22.668 45.7923,-25.501 -24.0567,-13.0401 -45.656,-24.1907 2.3013,-26.2464 -35.4372,-6.8651 -68.3719,-14.3367 -22.4597,-40.915 -12.9857,-2.988 -47.5375,19.8163 -22.8115,-59.6234 -25.7852,22.459 -51.5974,32.9257 -74.8351,-26.9701 -11.9681,20.1327 -27.6325,32.4653 -50.5506,-1.5323 -8.3872,20.5642 -40.7328,17.001 -52.0069,10.6621 20.8163,28.0281 18.1259,42.8398 -14.5187,39.7796 48.8273,52.3955 5.3069,38.4815 -4.8157,48.0242 40.731,22.0328 19.3434,37.4375 9.4399,54.6929 48.8879,8.7813 29.144,35.8023 28.2477,59.7856 z"
       id="path3549-3"
       inkscape:connector-curvature="0"
       sodipodi:nodetypes="ccccccccccccccc" />
    <path
       style="color:#000000;display:inline;overflow:visible;visibility:visible;fill:#ffffff;fill-opacity:1;fill-rule:nonzero;stroke:none;stroke-width:1px;marker:none;enable-background:accumulate"
       d="m 1344.1263,622.42535 c -24.799,-19.38207 -51.6203,-44.8622 -57.3837,-51.43281 10.7696,-2.65715 19.694,-6.82543 26.7223,-9.95499 -11.8306,-11.35372 -70.0488,-61.24849 -88.6803,-67.43551 46.6169,13.55518 93.6115,48.5209 111.4329,68.48268 -8.4189,5.6927 -14.3598,8.04667 -18.7084,11.14923 8.3672,10.36876 43.1768,38.31839 43.1768,38.31839 z"
       id="path5066"
       inkscape:connector-curvature="0" />
    <rect
       style="color:#000000;clip-rule:nonzero;display:inline;overflow:visible;visibility:visible;opacity:1;isolation:auto;mix-blend-mode:normal;color-interpolation:sRGB;color-interpolation-filters:linearRGB;solid-color:#000000;solid-opacity:1;fill:#fff6d5;fill-opacity:1;fill-rule:nonzero;stroke:none;stroke-width:2.91051388;stroke-linecap:butt;stroke-linejoin:miter;stroke-miterlimit:4;stroke-dasharray:none;stroke-dashoffset:0;stroke-opacity:1;marker:none;color-rendering:auto;image-rendering:auto;shape-rendering:auto;text-rendering:auto;enable-background:accumulate"
       id="rect4632-8"
       width="700.2887"
       height="262.55014"
       x="1660.0833"
       y="127.11808"
       ry="68.13073"
       rx="54.368874" />
    <path
       style="color:#000000;display:inline;overflow:visible;visibility:visible;fill:#fff6d5;fill-opacity:1;fill-rule:nonzero;stroke:none;stroke-width:1px;marker:none;enable-background:accumulate"
       d="m 1886.862,350.94642 c -7.7341,16.23212 -51.3553,17.59325 -67.4135,14.29379 32.3696,18.15861 31.2411,29.44085 -12.7076,31.19263 73.7027,32.72657 13.4738,27.77427 1.594,36.0728 57.8704,11.27829 31.9786,25.31442 21.6758,39.28713 66.5161,0.47994 44.7484,22.87774 47.552,40.71615 5.6389,-8.37058 32.4281,-33.85431 34.04,-5.47988 43.9966,-27.07074 96.9894,-44.55708 101.1972,2.81681 17.7269,-23.83251 35.4007,-33.9051 34.0401,-5.47988 43.9219,-36.97058 96.5496,-32.12149 140.0128,-4.75505 -22.4665,-20.55702 -5.2741,-36.76001 28.4629,-32.74268 -4.7303,-11.06017 6.6607,-18.66289 32.3855,-23.1777 -34.1841,-6.68113 -40.4841,-13.57256 22.9881,-20.9888 -48.2987,-0.71736 -93.3375,-2.18707 -36.6727,-27.47863 -17.7773,-0.61198 -59.9558,20.49198 -40.2906,-41.26923 -30.5691,19.77192 -63.1835,30.68462 -104.0851,-10.73251 -19.3566,20.69118 -52.9303,30.93 -67.5366,5.08507 -5.2497,11.01815 -27.0182,15.1619 -45.4978,15.66442 -7.1461,-4.37663 -14.5166,-10.32118 -22.208,-18.10951 -12.5708,16.35342 -31.3755,27.3978 -67.5365,5.08507 z"
       id="path3549-3-7"
       inkscape:connector-curvature="0"
       sodipodi:nodetypes="cccccccccccccccccccc" />
    <path
       style="display:inline;fill:#ffffff;fill-rule:evenodd;stroke:none;stroke-width:1.22723532px;stroke-linecap:butt;stroke-linejoin:miter;stroke-opacity:1"
       d="m 1061.724,2119.6996 c 58.8319,29.5875 68.1796,12.5838 19.8537,-46.1337 67.1819,55.9217 81.5864,58.5111 93.1383,21.8932 37.1605,31.4746 60.3706,22.6457 78.7977,0 6.8683,29.124 21.5973,17.3715 34.3445,15.9248 4.1984,6.5891 -10.2214,22.9593 48.0348,1.1484 3.7736,8.7213 8.857,16.232 42.9806,-3.1042 8.8404,35.399 37.2042,-1.9619 66.2616,-41.907 -18.1034,49.1091 -10.5966,56.0455 12.5362,37.2505 -10.5762,20.2237 -16.9019,35.879 23.2811,1.5523 -13.7567,37.3286 22.3337,11.7064 80.5885,-41.9069 -29.1399,39.6306 -106.4126,106.425 -55.5165,100.8871 -7.0977,11.6832 -32.415,21.8626 42.9805,40.3549 -41.8574,-4.3696 -90.28,-1.9705 -11.5726,17.7056 -86.3948,-14.1098 -33.6372,4.6897 9.7818,28.8576 -80.7477,-26.4865 -107.4696,-29.6185 -12.5361,17.0732 -77.0528,-27.7261 -20.6933,15.2258 3.5819,35.6985 -101.997,-59.5292 -77.7959,-33.4866 -51.9351,-6.2084 -60.0106,-35.8022 -92.4729,-29.1416 -83.2098,-10.9244 -18.8325,-15.8612 -46.9257,-10.378 -76.1764,29.5498 -7.6605,-24.834 -23.0185,-43.9498 -87.7519,-26.3859 28.423,-31.5933 -12.0124,-11.465 -42.9805,1.5521 16.9588,-39.4677 -26.0804,-13.5652 -80.5887,24.8338 30.5245,-43.5836 -4.1441,-27.8401 -55.5164,3.1042 33.549,-53.2473 17.3805,-85.3467 -87.75216,-65.1887 60.68056,-19.5143 92.23696,-40.6885 19.69958,-69.845 42.32778,10.2954 54.95358,0.7324 25.07178,-37.2505 46.1685,31.1761 85.0815,12.0584 44.6036,-28.5313 z"
       id="path4508"
       inkscape:connector-curvature="0"
       sodipodi:nodetypes="cccccccccccccccccccccccccccc" />
    <path
       style="display:inline;fill:#ffffff;fill-rule:evenodd;stroke:none;stroke-width:1px;stroke-linecap:butt;stroke-linejoin:miter;stroke-opacity:1"
       d="m 1610.1951,2421.5435 -100.338,-82.1467 24.9569,-11.5302 -67.6007,-58.2718 18.9483,-15.4563 76.6314,76.7395 -27.9374,14.3318 z"
       id="path4667"
       inkscape:connector-curvature="0" />
    <path
       style="color:#000000;display:inline;overflow:visible;visibility:visible;fill:#fff6d5;fill-opacity:1;fill-rule:nonzero;stroke:none;stroke-width:1px;marker:none;enable-background:accumulate"
       d="m 1598.615,107.53053 c 25.5976,6.24589 31.2912,12.86185 40.1634,18.5179 -3.4513,0.92732 -11.7678,5.06676 -11.7678,5.06676 0,0 34.4713,17.92982 38.1302,23.38411 3.6593,5.45436 -14.4691,9.50373 -14.4691,9.50373 0,0 -32.3622,-23.77029 -46.4224,-30.3366 2.4635,-2.48427 10.2324,-6.85233 15.7201,-9.67037 0,0 -4.4966,-11.9823 -21.3544,-16.46553 z"
       id="path4456-3-7-5"
       inkscape:connector-curvature="0"
       sodipodi:nodetypes="cccscccc" />
  </g>
  <g
     inkscape:groupmode="layer"
     id="layer1"
     inkscape:label="txt"
     style="display:inline">
    <text
       xml:space="preserve"
       style="color:#000000;font-style:normal;font-variant:normal;font-weight:normal;font-stretch:normal;line-height:0%;font-family:Arial;-inkscape-font-specification:Arial;letter-spacing:0px;word-spacing:0px;display:inline;overflow:visible;visibility:visible;opacity:1;fill:#000000;fill-opacity:1;fill-rule:nonzero;stroke:#000000;stroke-width:5.04432487;stroke-miterlimit:4;stroke-dasharray:none;stroke-opacity:1;marker:none;enable-background:accumulate"
       x="555.9162"
       y="1112.3296"
       id="text4190-8"
       transform="matrix(0.95367168,-0.22417593,-0.04967286,1.0602553,0,0)"><tspan
         sodipodi:role="line"
         id="tspan4192-5"
         x="559.8407"
         y="1112.3296"
         style="font-style:normal;font-variant:normal;font-weight:normal;font-stretch:normal;font-size:98.82511902px;line-height:1.25;font-family:Lavi;-inkscape-font-specification:Lavi;text-align:center;letter-spacing:7.84904623px;text-anchor:middle;fill:#000000;fill-opacity:1;stroke:#000000;stroke-width:5.04432487;stroke-miterlimit:4;stroke-dasharray:none;stroke-opacity:1">Rrùda<tspan
   style="font-size:81.25px"
   id="tspan4479">i</tspan><tspan
   id="tspan4483"
   style="font-size:74.66666412px">l</tspan></tspan></text>
    <text
       xml:space="preserve"
       style="font-style:normal;font-variant:normal;font-weight:normal;font-stretch:normal;line-height:0%;font-family:Lavi;-inkscape-font-specification:Lavi;text-align:center;letter-spacing:0px;word-spacing:0px;text-anchor:middle;fill:#000000;fill-opacity:1;stroke:#000000;stroke-width:3.29278421;stroke-miterlimit:4;stroke-dasharray:none;stroke-opacity:1"
       x="1537.9171"
       y="187.81017"
       id="text4246-2-3-1-3-9-3-7-9-9"
       transform="matrix(0.91522609,0,-0.12030087,1.0926262,0,0)"><tspan
         sodipodi:role="line"
         style="font-size:56.9905014px;line-height:1.25;stroke:#000000;stroke-width:3.29278421;stroke-miterlimit:4;stroke-dasharray:none;stroke-opacity:1"
         x="1537.9171"
         y="187.81017"
         id="tspan4814-3-4">A Churrain!</tspan></text>
    <text
       xml:space="preserve"
       style="font-style:normal;font-variant:normal;font-weight:normal;font-stretch:normal;line-height:0%;font-family:Lavi;-inkscape-font-specification:Lavi;text-align:center;letter-spacing:0px;word-spacing:0px;text-anchor:middle;fill:#000000;fill-opacity:1;stroke:none"
       x="1387.5325"
       y="294.17114"
       id="text4246-2-3-1-3-9-3-7-6-7"><tspan
         sodipodi:role="line"
         style="font-size:45px;line-height:1.25"
         x="1394.5637"
         y="294.17114"
         id="tspan4219">Tha an turas </tspan><tspan
         sodipodi:role="line"
         style="font-size:45px;line-height:1.25"
         x="1394.5637"
         y="350.42114"
         id="tspan4556">againne a’ tighinn! </tspan></text>
    <text
       xml:space="preserve"
       style="font-style:normal;font-variant:normal;font-weight:normal;font-stretch:normal;line-height:0%;font-family:Lavi;-inkscape-font-specification:Lavi;text-align:center;letter-spacing:0px;word-spacing:0px;text-anchor:middle;fill:#000000;fill-opacity:1;stroke:none"
       x="1425.0558"
       y="444.08887"
       id="text4246-2-3-1-3-9-3-7-6-7-0"><tspan
         sodipodi:role="line"
         style="font-size:45px;line-height:1.25"
         x="1432.087"
         y="444.08887"
         id="tspan4556-1">Dèan </tspan><tspan
         sodipodi:role="line"
         style="font-size:45px;line-height:1.25"
         x="1425.0558"
         y="500.33887"
         id="tspan148">foighidinn!</tspan></text>
    <text
       xml:space="preserve"
       style="font-style:normal;font-variant:normal;font-weight:normal;font-stretch:normal;line-height:0%;font-family:Lavi;-inkscape-font-specification:Lavi;text-align:center;letter-spacing:0px;word-spacing:0px;text-anchor:middle;fill:#000000;fill-opacity:1;stroke:none"
       x="1451.0759"
       y="595.01733"
       id="text4246-2-3-1-3-9-3-7-6-7-0-0"><tspan
         sodipodi:role="line"
         style="font-size:45px;line-height:1.25"
         x="1451.0759"
         y="595.01733"
         id="tspan4556-1-2">Feuch e</tspan></text>
    <text
       xml:space="preserve"
       style="font-style:normal;font-variant:normal;font-weight:normal;font-stretch:normal;line-height:0%;font-family:Lavi;-inkscape-font-specification:Lavi;text-align:center;letter-spacing:0px;word-spacing:0px;text-anchor:middle;fill:#000000;fill-opacity:1;stroke:#000000;stroke-width:2.78762341;stroke-miterlimit:4;stroke-dasharray:none;stroke-opacity:1"
       x="1555.5231"
       y="673.29266"
       id="text4246-2-3-1-3-9-3-7-9-9-0"
       transform="matrix(0.98883458,0,-0.12997626,1.0112915,0,0)"><tspan
         sodipodi:role="line"
         style="font-size:48.24732971px;line-height:1.25;stroke:#000000;stroke-width:2.78762341;stroke-miterlimit:4;stroke-dasharray:none;stroke-opacity:1"
         x="1563.0618"
         y="673.29266"
         id="tspan4229">airson </tspan><tspan
         sodipodi:role="line"
         style="font-size:48.24732971px;line-height:1.25;stroke:#000000;stroke-width:2.78762341;stroke-miterlimit:4;stroke-dasharray:none;stroke-opacity:1"
         x="1555.5231"
         y="733.60181"
         id="tspan144">an-diugh!</tspan></text>
    <text
       xml:space="preserve"
       style="font-style:normal;font-variant:normal;font-weight:normal;font-stretch:normal;line-height:0%;font-family:Lavi;-inkscape-font-specification:Lavi;text-align:center;letter-spacing:0px;word-spacing:0px;text-anchor:middle;fill:#000000;fill-opacity:1;stroke:none"
       x="2014.2786"
       y="192.92317"
       id="text4246-2-3-1-3-9-3-7-6"><tspan
         sodipodi:role="line"
         style="font-size:45px;line-height:1.25"
         x="2021.3098"
         y="192.92317"
         id="tspan4241">Seo bana-bhuidseach an <tspan
   style="-inkscape-font-specification:'Lavi Italic';font-family:Lavi;font-weight:normal;font-style:italic;font-stretch:normal;font-variant:normal"
   id="tspan136">Achd</tspan> </tspan><tspan
         sodipodi:role="line"
         style="font-size:45px;line-height:1.25"
         x="2021.3098"
         y="249.17317"
         id="tspan161">spioradail chràbhaich, tha e ’na </tspan><tspan
         sodipodi:role="line"
         style="font-size:45px;line-height:1.25"
         x="2021.3098"
         y="305.42316"
         id="tspan159">thoileachas mòr dhomh gu bheil i </tspan><tspan
         sodipodi:role="line"
         style="font-size:45px;line-height:1.25"
         x="2014.2786"
         y="361.67316"
         id="tspan173">’nar cuideachd an-diugh...</tspan></text>
    <text
       xml:space="preserve"
       style="font-style:normal;font-variant:normal;font-weight:normal;font-stretch:normal;line-height:0%;font-family:Lavi;-inkscape-font-specification:Lavi;text-align:center;letter-spacing:0px;word-spacing:0px;text-anchor:middle;fill:#000000;fill-opacity:1;stroke:#000000;stroke-width:3.5321846;stroke-miterlimit:4;stroke-dasharray:none;stroke-opacity:1"
       x="2203.2578"
       y="422.72647"
       id="text4246-2-3-1-3-9-3-7-9"
       transform="matrix(0.93835319,0,-0.12334078,1.0656968,0,0)"><tspan
         sodipodi:role="line"
         style="font-size:61.13397217px;line-height:1.25;stroke:#000000;stroke-width:3.5321846;stroke-miterlimit:4;stroke-dasharray:none;stroke-opacity:1"
         x="2203.2578"
         y="422.72647"
         id="tspan4814-3">SIDIMI!</tspan></text>
    <use
       x="0"
       y="0"
       xlink:href="#text4580-1-7-3-6"
       id="use4348"
       transform="matrix(0.76815873,-8.499295e-5,9.2939206e-5,0.83999533,532.94785,-17.045981)"
       width="100%"
       height="100%" />
    <use
       x="0"
       y="0"
       xlink:href="#use4348"
       id="use4352"
       transform="matrix(1.2869892,-0.13005214,0.1168656,1.1564957,-76.207524,-222.24102)"
       width="100%"
       height="100%" />
    <use
       x="0"
       y="0"
       xlink:href="#use4352"
       id="use4354"
       transform="matrix(0.90888933,0,0,0.92156478,-21.137187,247.94912)"
       width="100%"
       height="100%" />
    <use
       x="0"
       y="0"
       xlink:href="#use4354"
       id="use4356"
       transform="matrix(0.83539183,0,0,0.82928292,239.30084,203.37764)"
       width="100%"
       height="100%" />
    <use
       x="0"
       y="0"
       xlink:href="#use4356"
       id="use4358"
       transform="matrix(0.79958346,0,0,0.84858719,806.78988,355.07926)"
       width="100%"
       height="100%" />
    <use
       x="0"
       y="0"
       xlink:href="#use4358"
       id="use4360"
       transform="matrix(1.1302563,0,0,1.1533505,-112.88065,-192.07481)"
       width="100%"
       height="100%" />
    <text
       xml:space="preserve"
       style="font-style:normal;font-variant:normal;font-weight:normal;font-stretch:normal;line-height:0%;font-family:Lavi;-inkscape-font-specification:Lavi;text-align:center;letter-spacing:0px;word-spacing:0px;text-anchor:middle;fill:#000000;fill-opacity:1;stroke:#000000;stroke-width:3.16285157;stroke-miterlimit:4;stroke-dasharray:none;stroke-opacity:1"
       x="1625.3364"
       y="2057.2019"
       id="text4246-2-3-1-3-9-3-7-9-9-3"
       transform="matrix(0.94298727,0,-0.12394991,1.0604597,0,0)"><tspan
         sodipodi:role="line"
         style="font-size:54.74166489px;line-height:1.25;stroke:#000000;stroke-width:3.16285157;stroke-miterlimit:4;stroke-dasharray:none;stroke-opacity:1"
         x="1625.3364"
         y="2057.2019"
         id="tspan4814-3-4-7">A Churrain!</tspan><tspan
         sodipodi:role="line"
         style="font-size:54.74166489px;line-height:1.25;stroke:#000000;stroke-width:3.16285157;stroke-miterlimit:4;stroke-dasharray:none;stroke-opacity:1"
         x="1625.3364"
         y="2125.6289"
         id="tspan4769">Ri m’ CHOIS!!!</tspan></text>
  </g>
</svg>
