<?xml version="1.0" encoding="UTF-8" standalone="no"?>
<!-- Created with Inkscape (http://www.inkscape.org/) -->

<svg
   xmlns:dc="http://purl.org/dc/elements/1.1/"
   xmlns:cc="http://creativecommons.org/ns#"
   xmlns:rdf="http://www.w3.org/1999/02/22-rdf-syntax-ns#"
   xmlns:svg="http://www.w3.org/2000/svg"
   xmlns="http://www.w3.org/2000/svg"
   xmlns:xlink="http://www.w3.org/1999/xlink"
   xmlns:sodipodi="http://sodipodi.sourceforge.net/DTD/sodipodi-0.dtd"
   xmlns:inkscape="http://www.inkscape.org/namespaces/inkscape"
   id="svg2"
   version="1.1"
   inkscape:version="0.92.3 (2405546, 2018-03-11)"
   width="2481"
   height="3503"
   sodipodi:docname="E13P06.svg">
  <sodipodi:namedview
     pagecolor="#ffffff"
     bordercolor="#666666"
     inkscape:pageopacity="0"
     inkscape:pageshadow="2"
     inkscape:window-width="1920"
     inkscape:window-height="1022"
     id="namedview70"
     showgrid="false"
     inkscape:zoom="1.1313708"
     inkscape:cx="1283.7617"
     inkscape:cy="1139.1708"
     inkscape:current-layer="layer1"
     inkscape:window-x="0"
     inkscape:window-y="0"
     inkscape:window-maximized="1" />
  <metadata
     id="metadata8">
    <rdf:RDF>
      <cc:Work
         rdf:about="">
        <dc:format>image/svg+xml</dc:format>
        <dc:type
           rdf:resource="http://purl.org/dc/dcmitype/StillImage" />
        <dc:title />
      </cc:Work>
    </rdf:RDF>
  </metadata>
  <defs
     id="defs6">
    <filter
       style="color-interpolation-filters:sRGB"
       id="filter4375-5-4-9"
       inkscape:label="deevad outline effect">
      <feFlood
         id="feFlood4377-0-3-0"
         flood-opacity="1"
         flood-color="rgb(255,255,255)"
         result="flood" />
      <feComposite
         id="feComposite4379-6-6-2"
         in2="SourceGraphic"
         in="flood"
         operator="in"
         result="composite1" />
      <feMorphology
         id="feMorphology4393-0-9-2"
         operator="dilate"
         radius="4"
         result="result3" />
      <feComposite
         id="feComposite4385-7-5-85"
         in2="result3"
         in="SourceGraphic"
         operator="over"
         result="composite2" />
    </filter>
    <filter
       style="color-interpolation-filters:sRGB"
       id="filter4375-5-4-9-2"
       inkscape:label="deevad outline effect">
      <feFlood
         id="feFlood4377-0-3-0-0"
         flood-opacity="1"
         flood-color="rgb(255,255,255)"
         result="flood" />
      <feComposite
         id="feComposite4379-6-6-2-2"
         in2="SourceGraphic"
         in="flood"
         operator="in"
         result="composite1" />
      <feMorphology
         id="feMorphology4393-0-9-2-0"
         operator="dilate"
         radius="4"
         result="result3" />
      <feComposite
         id="feComposite4385-7-5-85-7"
         in2="result3"
         in="SourceGraphic"
         operator="over"
         result="composite2" />
    </filter>
    <filter
       style="color-interpolation-filters:sRGB"
       id="filter4375-5-4-9-3"
       inkscape:label="deevad outline effect">
      <feFlood
         id="feFlood4377-0-3-0-1"
         flood-opacity="1"
         flood-color="rgb(255,255,255)"
         result="flood" />
      <feComposite
         id="feComposite4379-6-6-2-26"
         in2="SourceGraphic"
         in="flood"
         operator="in"
         result="composite1" />
      <feMorphology
         id="feMorphology4393-0-9-2-8"
         operator="dilate"
         radius="4"
         result="result3" />
      <feComposite
         id="feComposite4385-7-5-85-2"
         in2="result3"
         in="SourceGraphic"
         operator="over"
         result="composite2" />
    </filter>
    <filter
       inkscape:collect="always"
       style="color-interpolation-filters:sRGB"
       id="filter4552-8-9-4"
       x="-0.010508748"
       width="1.0210176"
       y="-0.11101427"
       height="1.2220285">
      <feGaussianBlur
         inkscape:collect="always"
         stdDeviation="1.6224608"
         id="feGaussianBlur4554-6-3-2" />
    </filter>
    <filter
       inkscape:collect="always"
       style="color-interpolation-filters:sRGB"
       id="filter4552-8-9-4-6"
       x="-0.010508748"
       width="1.0210176"
       y="-0.11101427"
       height="1.2220285">
      <feGaussianBlur
         inkscape:collect="always"
         stdDeviation="1.6224608"
         id="feGaussianBlur4554-6-3-2-2" />
    </filter>
  </defs>
  <sodipodi:namedview
     pagecolor="#ffffff"
     bordercolor="#666666"
     borderopacity="1"
     objecttolerance="10"
     gridtolerance="10"
     guidetolerance="10"
     inkscape:pageopacity="0"
     inkscape:pageshadow="2"
     inkscape:window-width="1920"
     inkscape:window-height="1025"
     id="namedview4"
     showgrid="false"
     inkscape:zoom="0.49190037"
     inkscape:cx="1395.7482"
     inkscape:cy="638.29525"
     inkscape:window-x="0"
     inkscape:window-y="26"
     inkscape:window-maximized="1"
     inkscape:current-layer="layer1" />
  <g
     inkscape:groupmode="layer"
     id="layer2"
     inkscape:label="artwork"
     sodipodi:insensitive="true">
    <image
       xlink:href="../gfx_Pepper-and-Carrot_by-David-Revoy_E13P06.png"
       y="0"
       x="0"
       id="image10"
       height="3503"
       width="2481" />
  </g>
  <g
     inkscape:groupmode="layer"
     id="layer3"
     inkscape:label="speechbubbles" />
  <g
     inkscape:groupmode="layer"
     id="layer1"
     inkscape:label="txt">
    <path
       style="color:#000000;fill:#ffffff;fill-opacity:1;fill-rule:nonzero;stroke:none;stroke-width:1px;marker:none;visibility:visible;display:inline;overflow:visible;enable-background:accumulate"
       d="m 1876.9906,1720.7575 c -69.1064,15.4775 -126.2741,90.7678 -64.3829,148.0837 -44.4695,-72.6711 41.253,-110.6276 82.0461,-113.5987 25.7518,0.6306 -17.6632,-34.485 -17.6632,-34.485 z"
       id="path3978"
       inkscape:connector-curvature="0"
       sodipodi:nodetypes="cccc" />
    <text
       xml:space="preserve"
       style="color:#000000;font-style:normal;font-variant:normal;font-weight:normal;font-stretch:normal;line-height:0%;font-family:Lavi;-inkscape-font-specification:'Lavi, Normal';text-align:center;letter-spacing:0px;word-spacing:0px;writing-mode:lr-tb;text-anchor:middle;clip-rule:nonzero;display:inline;overflow:visible;visibility:visible;opacity:1;isolation:auto;mix-blend-mode:normal;color-interpolation:sRGB;color-interpolation-filters:linearRGB;solid-color:#000000;solid-opacity:1;fill:#000000;fill-opacity:1;fill-rule:nonzero;stroke:#000000;stroke-width:0.90000004;stroke-linecap:butt;stroke-linejoin:miter;stroke-miterlimit:4;stroke-dasharray:none;stroke-dashoffset:0;stroke-opacity:1;filter:url(#filter4375-5-4-9);color-rendering:auto;image-rendering:auto;shape-rendering:auto;text-rendering:auto;enable-background:accumulate"
       x="1367.1063"
       y="691.71692"
       id="text4136"
       transform="matrix(0.6322045,0.15033006,0,0.79645319,201.11125,-80.537932)"><tspan
         sodipodi:role="line"
         id="tspan4138"
         x="1367.1063"
         y="691.71692"
         style="font-size:47.00374985px;line-height:1.25">Smug</tspan></text>
    <flowRoot
       xml:space="preserve"
       id="flowRoot2987-4-9-3-6-3-8-7-2-7-2"
       style="font-style:normal;font-variant:normal;font-weight:normal;font-stretch:normal;line-height:0.01%;font-family:Lavi;-inkscape-font-specification:Lavi;text-align:center;letter-spacing:0px;word-spacing:0px;text-anchor:middle;fill:#ffffff;fill-opacity:1;stroke:none"
       transform="translate(347.26927,3347.8198)"><flowRegion
         id="flowRegion2989-5-4-5-5-3-0-6-76-8-1"><rect
           id="rect2991-7-9-6-21-9-8-0-3-1-7"
           width="2283.5913"
           height="41.535503"
           x="-248.6331"
           y="9.6225204"
           style="font-style:normal;font-variant:normal;font-weight:normal;font-stretch:normal;font-family:Lavi;-inkscape-font-specification:Lavi;text-align:center;text-anchor:middle;fill:#ffffff;fill-opacity:1" /></flowRegion><flowPara
         style="font-size:32.97025299px;line-height:1.25;text-align:center;text-anchor:middle;fill:#ffffff;fill-opacity:1"
         id="flowPara3272-6-3-1">11/2015 – Obair-ealain ⁊ sgeulachd: David Revoy – Eadar-theangachadh: GunChleoc</flowPara></flowRoot>    <path
       style="color:#000000;display:inline;overflow:visible;visibility:visible;fill:#ffffff;fill-opacity:1;fill-rule:nonzero;stroke:none;stroke-width:1.01159036px;marker:none;enable-background:accumulate"
       d="m 1778.5622,1434.9917 c 29.3648,-19.9015 238.8146,-38.9633 298.266,12.2046 49.6233,42.7087 46.4391,126.3791 0.9914,157.8253 -46.3013,32.0367 -222.7482,20.7215 -290.9457,5.3796 -64.2204,-14.4472 -63.0584,-49.367 -61.3068,-110.2337 0.7149,-24.8418 23.6306,-45.2745 52.9951,-65.1758 z"
       id="path4040-4-5-3"
       inkscape:connector-curvature="0"
       sodipodi:nodetypes="zssssz" />
    <text
       id="text4178"
       y="1482.2004"
       x="1918.4384"
       style="font-style:normal;font-variant:normal;font-weight:normal;font-stretch:normal;line-height:0%;font-family:Lavi;-inkscape-font-specification:Lavi;text-align:center;letter-spacing:0px;word-spacing:0px;text-anchor:middle;fill:#000000;fill-opacity:1;stroke:none"
       xml:space="preserve"><tspan
         y="1482.2004"
         x="1924.7941"
         style="font-size:40.67671585px;line-height:1.25"
         sodipodi:role="line"
         id="tspan3603">Tha fhios a’m </tspan><tspan
         y="1533.0464"
         x="1918.4384"
         style="font-size:40.67671585px;line-height:1.25"
         sodipodi:role="line"
         id="tspan73">gun robh thu airson</tspan><tspan
         y="1583.8922"
         x="1918.4384"
         style="font-size:40.67671585px;line-height:1.25"
         sodipodi:role="line"
         id="tspan75">mo dhìon ...</tspan></text>
    <path
       style="color:#000000;display:inline;overflow:visible;visibility:visible;fill:#ffffff;fill-opacity:1;fill-rule:nonzero;stroke:none;stroke-width:1.03735232px;marker:none;enable-background:accumulate"
       d="m 1700.4727,1305.4782 c 24.5977,-14.8086 200.0457,-28.9926 249.8456,9.0813 41.5675,31.7796 38.9004,94.0388 0.8306,117.4379 -38.7847,23.8385 -186.5875,15.4189 -243.7137,4.0029 -53.795,-10.75 -52.8217,-36.7338 -51.3544,-82.0248 0.599,-18.4848 19.7944,-33.6887 44.3919,-48.4973 z"
       id="path4040-4-5-3-6"
       inkscape:connector-curvature="0"
       sodipodi:nodetypes="zssssz" />
    <text
       id="text4178-1"
       y="1348.4341"
       x="1817.2318"
       style="font-style:normal;font-variant:normal;font-weight:normal;font-stretch:normal;line-height:0%;font-family:Lavi;-inkscape-font-specification:Lavi;text-align:center;letter-spacing:0px;word-spacing:0px;text-anchor:middle;fill:#000000;fill-opacity:1;stroke:none"
       xml:space="preserve"><tspan
         y="1348.4341"
         x="1817.2318"
         style="font-size:40.67671585px;line-height:1.25"
         sodipodi:role="line"
         id="tspan4239">Fire faire,</tspan><tspan
         y="1399.28"
         x="1817.2318"
         style="font-size:40.67671585px;line-height:1.25"
         sodipodi:role="line"
         id="tspan66">na cuir bèill ort!</tspan></text>
    <path
       style="color:#000000;display:inline;overflow:visible;visibility:visible;fill:#ffffff;fill-opacity:1;fill-rule:nonzero;stroke:none;stroke-width:1.08751976px;marker:none;enable-background:accumulate"
       d="m 1760.9197,1603.7816 c 41.9655,-16.7115 334.3829,-20.9365 426.2556,10.2484 82.3516,27.9531 66.3672,106.1222 1.4171,132.528 -66.1699,26.9018 -318.3325,17.4002 -415.7945,4.5174 -91.7782,-12.1315 -95.3337,-41.8284 -87.6144,-92.5647 5.1796,-34.0435 33.7707,-38.0176 75.7362,-54.7291 z"
       id="path4040-4-5-3-4"
       inkscape:connector-curvature="0"
       sodipodi:nodetypes="zssssz" />
    <text
       id="text4178-6"
       y="1662.9752"
       x="1961.9106"
       style="font-style:normal;font-variant:normal;font-weight:normal;font-stretch:normal;line-height:0%;font-family:Lavi;-inkscape-font-specification:Lavi;text-align:center;letter-spacing:0px;word-spacing:0px;text-anchor:middle;fill:#000000;fill-opacity:1;stroke:none"
       xml:space="preserve"><tspan
         y="1662.9752"
         x="1968.2664"
         style="font-size:40.67671585px;line-height:1.25"
         sodipodi:role="line"
         id="tspan3611">... ach cha robh feum air, </tspan><tspan
         y="1713.8212"
         x="1961.9106"
         style="font-size:40.67671585px;line-height:1.25"
         sodipodi:role="line"
         id="tspan79">bha sinn a’ cluich mas fhìor!</tspan></text>
    <text
       xml:space="preserve"
       style="color:#000000;font-style:normal;font-variant:normal;font-weight:normal;font-stretch:normal;line-height:0%;font-family:Lavi;-inkscape-font-specification:'Lavi, Normal';text-align:center;letter-spacing:0px;word-spacing:0px;writing-mode:lr-tb;text-anchor:middle;clip-rule:nonzero;display:inline;overflow:visible;visibility:visible;opacity:1;isolation:auto;mix-blend-mode:normal;color-interpolation:sRGB;color-interpolation-filters:linearRGB;solid-color:#000000;solid-opacity:1;fill:#000000;fill-opacity:1;fill-rule:nonzero;stroke:#000000;stroke-width:0.90000004;stroke-linecap:butt;stroke-linejoin:miter;stroke-miterlimit:4;stroke-dasharray:none;stroke-dashoffset:0;stroke-opacity:1;filter:url(#filter4375-5-4-9-3);color-rendering:auto;image-rendering:auto;shape-rendering:auto;text-rendering:auto;enable-background:accumulate"
       x="1367.1063"
       y="691.71692"
       id="text4136-1"
       transform="matrix(0.86619653,-0.09897381,-0.04163634,1.0337332,990.71602,2420.1286)"><tspan
         sodipodi:role="line"
         id="tspan4138-8"
         x="1367.1063"
         y="691.71692"
         style="font-size:47.00374985px;line-height:1.25">Grrrr</tspan></text>
    <text
       id="text4178-6-5-9-0-7"
       style="font-style:normal;font-variant:normal;font-weight:normal;font-stretch:normal;line-height:0%;font-family:Lavi;-inkscape-font-specification:Lavi;text-align:center;letter-spacing:0px;word-spacing:0px;text-anchor:middle;opacity:0.43399999;fill:#412525;fill-opacity:1;stroke:none;filter:url(#filter4552-8-9-4)"
       xml:space="preserve"
       y="3129.8394"
       x="1318.7137"
       transform="matrix(0.79399618,0.00599505,-0.16710117,0.70250588,566.35987,930.47685)"><tspan
         y="3129.8394"
         x="1318.7137"
         style="font-style:normal;font-variant:normal;font-weight:normal;font-stretch:normal;font-size:40.67671585px;line-height:1.25;font-family:Fondamento;-inkscape-font-specification:Fondamento;fill:#412525;fill-opacity:1"
         sodipodi:role="line"
         id="tspan4293-1-6-3-5">Tùir ⁊ ainneamhagan</tspan></text>
    <use
       x="0"
       y="0"
       xlink:href="#text4178-6-5-9-0-7"
       id="use4664"
       transform="matrix(-0.08333857,0.4312511,-1.1395718,0.00256786,4640.5157,2371.6815)"
       width="2481"
       height="3503" />
    <use
       x="0"
       y="0"
       xlink:href="#text4178-6-5-9-0-7"
       id="use4690"
       transform="matrix(-0.8491704,0.01629325,-0.01626883,-0.77654093,2306.6523,5181.0156)"
       width="2481"
       height="3503" />
    <use
       x="0"
       y="0"
       xlink:href="#use4664"
       id="use4692"
       transform="matrix(-0.76157318,0.78737844,-1.1562027,-0.81859716,5585.5693,4517.5604)"
       width="2481"
       height="3503" />
    <use
       x="0"
       y="0"
       xlink:href="#use4664"
       id="use4694"
       transform="matrix(0.2413678,0.96175958,-1.2866298,0.18042315,4666.0569,749.999)"
       width="2481"
       height="3503" />
    <text
       id="text4178-6-5-9-0-7-0"
       style="font-style:normal;font-variant:normal;font-weight:normal;font-stretch:normal;line-height:0%;font-family:Lavi;-inkscape-font-specification:Lavi;text-align:center;letter-spacing:0px;word-spacing:0px;text-anchor:middle;opacity:0.43399999;fill:#28220b;fill-opacity:1;stroke:none;filter:url(#filter4552-8-9-4-6)"
       xml:space="preserve"
       y="3129.8394"
       x="1318.7137"
       transform="matrix(0.79298761,0.00753598,0.0219157,0.88307326,108.80567,-1536.6899)"><tspan
         y="3129.8394"
         x="1318.7137"
         style="font-style:normal;font-variant:normal;font-weight:normal;font-stretch:normal;font-size:40.67671585px;line-height:1.25;font-family:Fondamento;-inkscape-font-specification:Fondamento;fill:#28220b;fill-opacity:1"
         sodipodi:role="line"
         id="tspan4293-1-6-3-5-4">A’ bhana-phrionnsa Costag</tspan></text>
    <text
       xml:space="preserve"
       style="font-style:normal;font-variant:normal;font-weight:bold;font-stretch:normal;line-height:0%;font-family:Lavi;-inkscape-font-specification:'Lavi Bold';text-align:center;letter-spacing:0px;word-spacing:0px;text-anchor:middle;fill:#000000;fill-opacity:1;stroke:none;stroke-width:3.82173181;stroke-miterlimit:4;stroke-dasharray:none;stroke-opacity:1;"
       x="2059.5447"
       y="2616.4343"
       id="text4213"
       transform="matrix(0.75304346,0,-0.11971288,1.3279446,0,0)"><tspan
         sodipodi:role="line"
         id="tspan4215"
         x="2059.5447"
         y="2616.4343"
         style="font-size:63.55184174px;line-height:1.25;stroke-width:3.82173181;stroke-miterlimit:4;stroke-dasharray:none;stroke:none;-inkscape-font-specification:'Lavi Bold';font-family:Lavi;font-weight:bold;font-style:normal;font-stretch:normal;font-variant:normal;">- Deireadh na sgeòil -</tspan></text>
    <text
       transform="matrix(0.28748374,0.14909896,-0.65903124,0.26591764,3000.6373,1537.8144)"
       x="1318.7137"
       y="3129.8394"
       xml:space="preserve"
       style="font-style:normal;font-variant:normal;font-weight:normal;font-stretch:normal;line-height:0%;font-family:Lavi;-inkscape-font-specification:Lavi;text-align:center;letter-spacing:0px;word-spacing:0px;text-anchor:middle;opacity:0.43399999;fill:#412525;fill-opacity:1;stroke:none;filter:url(#filter4552-8-9-4)"
       id="text4208"><tspan
         id="tspan4210"
         sodipodi:role="line"
         style="font-style:normal;font-variant:normal;font-weight:normal;font-stretch:normal;font-size:40.67671585px;line-height:1.25;font-family:Fondamento;-inkscape-font-specification:Fondamento;fill:#412525;fill-opacity:1"
         x="1318.7137"
         y="3129.8394">Tùir ⁊ ainneamhagan</tspan></text>
  </g>
</svg>
