<?xml version="1.0" encoding="UTF-8" standalone="no"?>
<svg
   xmlns:dc="http://purl.org/dc/elements/1.1/"
   xmlns:cc="http://creativecommons.org/ns#"
   xmlns:rdf="http://www.w3.org/1999/02/22-rdf-syntax-ns#"
   xmlns:svg="http://www.w3.org/2000/svg"
   xmlns="http://www.w3.org/2000/svg"
   xmlns:xlink="http://www.w3.org/1999/xlink"
   xmlns:sodipodi="http://sodipodi.sourceforge.net/DTD/sodipodi-0.dtd"
   xmlns:inkscape="http://www.inkscape.org/namespaces/inkscape"
   id="svg2"
   version="1.1"
   inkscape:version="1.0 (4035a4fb49, 2020-05-01)"
   width="2481"
   height="3503"
   sodipodi:docname="E35P03.svg">
  <metadata
     id="metadata8">
    <rdf:RDF>
      <cc:Work
         rdf:about="">
        <dc:format>image/svg+xml</dc:format>
        <dc:type
           rdf:resource="http://purl.org/dc/dcmitype/StillImage" />
        <dc:title />
      </cc:Work>
    </rdf:RDF>
  </metadata>
  <defs
     id="defs6">
    <filter
       style="color-interpolation-filters:sRGB"
       id="filter3018-7-5"
       inkscape:label="Lapping"
       inkscape:menu="Distort"
       inkscape:menu-tooltip="Something like a water noise"
       height="1.0484816"
       y="-0.024240738"
       width="1.030456"
       x="-0.015227396">
      <feTurbulence
         id="feTurbulence3020-0-6"
         numOctaves="5"
         seed="0"
         type="fractalNoise"
         baseFrequency="0.1"
         result="result1" />
      <feGaussianBlur
         id="feGaussianBlur3022-9-9"
         stdDeviation="2"
         result="result2" />
      <feDisplacementMap
         id="feDisplacementMap3024-3-3"
         in2="result2"
         scale="50"
         yChannelSelector="B"
         xChannelSelector="R"
         in="SourceGraphic" />
    </filter>
    <filter
       style="color-interpolation-filters:sRGB"
       id="filter3018-7-5-3"
       inkscape:label="Lapping"
       inkscape:menu="Distort"
       inkscape:menu-tooltip="Something like a water noise"
       height="1.0383743"
       y="-0.019186902"
       width="1.0296723"
       x="-0.014835256">
      <feTurbulence
         id="feTurbulence3020-0-6-6"
         numOctaves="5"
         seed="0"
         type="fractalNoise"
         baseFrequency="0.1"
         result="result1" />
      <feGaussianBlur
         id="feGaussianBlur3022-9-9-4"
         stdDeviation="2"
         result="result2" />
      <feDisplacementMap
         id="feDisplacementMap3024-3-3-0"
         in2="result2"
         scale="50"
         yChannelSelector="B"
         xChannelSelector="R"
         in="SourceGraphic" />
    </filter>
  </defs>
  <sodipodi:namedview
     pagecolor="#ffffff"
     bordercolor="#666666"
     borderopacity="1"
     objecttolerance="10"
     gridtolerance="10"
     guidetolerance="10"
     inkscape:pageopacity="0"
     inkscape:pageshadow="2"
     inkscape:window-width="1366"
     inkscape:window-height="715"
     id="namedview4"
     showgrid="false"
     inkscape:zoom="0.32343248"
     inkscape:cx="1259.5822"
     inkscape:cy="1502.632"
     inkscape:window-x="-8"
     inkscape:window-y="-8"
     inkscape:window-maximized="1"
     inkscape:current-layer="layer1"
     inkscape:document-rotation="0"
     inkscape:snap-global="false"
     inkscape:pagecheckerboard="0" />
  <g
     inkscape:groupmode="layer"
     id="layer2"
     inkscape:label="artwork"
     sodipodi:insensitive="true">
    <image
       sodipodi:absref="D:\Pepper&amp;Carrot translation\ep35_The-Reflection_lang-pack\lang\gfx_Pepper-and-Carrot_by-David-Revoy_E35P03.png"
       xlink:href="../gfx_Pepper-and-Carrot_by-David-Revoy_E35P03.png"
       width="2481"
       height="3503"
       id="image10"
       x="0"
       y="0" />
  </g>
  <g
     inkscape:groupmode="layer"
     id="layer3"
     inkscape:label="speechbubbles">
    <path
       style="color:#000000;font-variation-settings:normal;display:inline;overflow:visible;visibility:visible;vector-effect:none;fill:#000000;fill-opacity:1;fill-rule:nonzero;stroke:#000000;stroke-width:1.02241px;stroke-linecap:butt;stroke-linejoin:miter;stroke-miterlimit:4;stroke-dasharray:none;stroke-dashoffset:0;stroke-opacity:1;marker:none;filter:url(#filter3018-7-5-3);enable-background:accumulate;stop-color:#000000"
       d="m 952.97852,1586.5918 c -48.21167,0.5602 -97.28537,2.2904 -143.5844,17.0643 -16.74826,7.6749 -26.84779,25.24 -29.85771,42.8741 -8.50782,33.1718 -14.41833,67.8644 -9.50754,102.0915 5.46979,31.3705 22.17352,59.7939 43.10427,83.3747 8.371,9.4007 17.88764,18.1657 29.61837,23.1391 15.89735,7.2787 33.73097,9.1349 51.02542,7.9014 43.51481,-0.9807 87.05372,-1.8681 130.50007,-4.6189 20.8642,-1.5327 41.8213,-3.3468 62.2674,-7.9357 10.9935,-2.6689 22.6218,-7.8138 27.9839,-18.4345 7.5173,-13.6313 8.6767,-29.5011 10.6746,-44.6364 3.796,-39.8786 -3.4192,-79.6037 -5.091,-119.3789 -0.048,-18.3134 3.967,-36.6101 1.8626,-54.8965 -3.2992,-11.236 -15.0218,-17.7899 -26.1655,-18.5553 -16.5947,-2.5821 -33.3699,-3.7518 -50.0785,-5.3327 -30.8594,-2.272 -61.819,-2.7767 -92.75198,-2.6562 z"
       id="path3330-0-3"
       inkscape:connector-curvature="0"
       sodipodi:nodetypes="zsssssz"
       transform="matrix(1.1662857,0.01309564,-0.02441337,0.9819528,676.57265,-18.620313)" />
    <path
       style="color:#000000;display:inline;overflow:visible;visibility:visible;fill:#ffffff;fill-opacity:1;fill-rule:nonzero;stroke:none;stroke-width:0.786419px;marker:none;enable-background:accumulate"
       d="m 414.33878,1686.3584 c 3.54061,-57.4107 43.17834,-99.2597 145.58715,-88.03 54.8557,6.0151 121.30384,10.0699 116.75391,94.1751 -4.54998,84.1054 -74.17388,81.2619 -116.76996,83.4604 -18.53849,0.9568 -114.77649,-7.3317 -131.45655,-36.0172 -10.44133,-17.9564 -14.51892,-35.8049 -14.11455,-53.5883 z"
       id="path4546-6"
       inkscape:connector-curvature="0"
       sodipodi:nodetypes="cssssc" />
    <path
       style="color:#000000;display:inline;overflow:visible;visibility:visible;fill:#ffffff;fill-opacity:1;fill-rule:nonzero;stroke:none;stroke-width:1px;marker:none;enable-background:accumulate"
       d="m 634.54114,1906.0014 c 14.59712,-5.8706 26.29817,-25.6919 33.0509,-42.7644 1.81732,-4.8941 3.35817,-10.0845 3.44931,-15.3063 -1.11457,-5.4519 -6.12943,-9.0626 -11.35413,-10.1074 -7.44055,-2.0376 -16.10468,-1.0872 -22.43244,-6.159 6.62373,-30.7926 18.74668,-68.4402 -17.81815,-100.3755 -3.70155,-5.0208 -8.27562,-9.7554 -14.29935,-11.8512 -15.20805,-6.077 -34.1273,-3.517 -46.17318,7.9291 -6.99168,8.0303 -6.68349,22.0171 2.0681,28.6598 4.56751,3.5756 10.81069,3.4906 16.09434,1.8177 10.2879,-1.26 21.19532,-1.962 32.10285,4.7937 26.90502,21.3542 0.1543,60.804 6.34164,79.1456 4.62252,6.1074 12.88912,6.7863 19.94966,6.5539 7.28747,-0.052 15.73398,-0.9368 21.57373,4.3653 4.54779,3.1337 1.70824,8.9838 1.26798,13.3961 -3.27148,14.0224 -10.88009,26.8444 -20.66145,37.2985 -1.00695,0.926 -2.08089,1.7656 -3.15981,2.6041 z"
       id="path4496-2"
       inkscape:connector-curvature="0"
       sodipodi:nodetypes="ccccccccccccccccc" />
    <path
       style="color:#000000;font-variation-settings:normal;display:inline;overflow:visible;visibility:visible;opacity:1;vector-effect:none;fill:#000000;fill-opacity:1;fill-rule:nonzero;stroke:#000000;stroke-width:1.02241px;stroke-linecap:butt;stroke-linejoin:miter;stroke-miterlimit:4;stroke-dasharray:none;stroke-dashoffset:0;stroke-opacity:1;marker:none;filter:url(#filter3018-7-5);enable-background:accumulate;stop-color:#000000;stop-opacity:1"
       d="m 777.77605,1578.7499 c 31.97542,-17.3022 195.30977,-20.2429 269.47485,7.666 43.8378,16.4965 52.9774,46.4663 54.9826,88.3442 0.6193,12.9351 -9.7092,80.202 -31.7663,91.7496 -22.057,11.5468 -145.30106,18.1636 -167.35816,18.1636 -22.05703,0 -119.11217,1.0198 -136.93014,-15.8797 -17.04406,-16.1655 -20.37826,-172.7416 11.59715,-190.0437 z"
       id="path3330-0"
       inkscape:connector-curvature="0"
       sodipodi:nodetypes="zsssssz"
       transform="matrix(1.3180467,0,0,1.203773,-253.62155,-328.77625)" />
    <path
       style="color:#000000;display:inline;overflow:visible;visibility:visible;fill:#ffffff;fill-opacity:1;fill-rule:nonzero;stroke:none;stroke-width:0.724803px;marker:none;enable-background:accumulate"
       d="m 1992.8559,1572.1646 c 12.1093,-30.8117 69.411,-21.5747 187.5787,-15.8679 75.7732,3.6594 131.7131,-11.86 165.9368,5.1853 16.1651,8.0514 31.2593,78.5285 14.0352,110.6434 -17.2241,32.1148 -70.1755,48.1761 -186.425,48.0537 -103.3254,-0.109 -132.0863,-12.1134 -148.2584,-20.3353 -52.0972,-26.4866 -44.9765,-96.8673 -32.8673,-127.6792 z"
       id="path4530-1"
       inkscape:connector-curvature="0"
       sodipodi:nodetypes="zsssssz" />
    <path
       style="fill:#ffffff;fill-rule:evenodd;stroke:none;stroke-width:1.66048px;stroke-linecap:butt;stroke-linejoin:miter;stroke-opacity:1"
       d="m 2291.9651,1689.3397 c 0,0 1.1455,15.2829 18.5599,18.5871 25.0022,4.7439 49.3554,67.4676 36.9796,95.7568 20.9615,-42.7867 12.7402,-70.9857 7.3083,-83.7931 -5.4319,-12.8092 -39.1198,-60.7121 -39.1198,-60.7121 z"
       id="path1367"
       inkscape:connector-curvature="0"
       sodipodi:nodetypes="cscccc" />
    <rect
       style="color:#000000;overflow:visible;opacity:1;vector-effect:none;fill:#ffffff;fill-opacity:1;stroke:none;stroke-width:1.11214px;stroke-linecap:butt;stroke-linejoin:miter;stroke-miterlimit:4;stroke-dasharray:none;stroke-dashoffset:0;stroke-opacity:1;marker:none;paint-order:stroke fill markers;stop-color:#000000;stop-opacity:1"
       id="rect955"
       width="498.66214"
       height="45.576038"
       x="1475.4626"
       y="1533.1331" />
    <rect
       style="color:#000000;overflow:visible;vector-effect:none;fill:#ffffff;fill-opacity:1;stroke:none;stroke-width:1.25424px;stroke-linecap:butt;stroke-linejoin:miter;stroke-miterlimit:4;stroke-dasharray:none;stroke-dashoffset:0;stroke-opacity:1;marker:none;paint-order:stroke fill markers;stop-color:#000000"
       id="rect955-1"
       width="487.76147"
       height="32.770958"
       x="1550.2794"
       y="-1959.2345"
       transform="rotate(90)" />
    <rect
       style="color:#000000;overflow:visible;vector-effect:none;fill:#000000;fill-opacity:1;stroke:none;stroke-width:1.02241px;stroke-linecap:butt;stroke-linejoin:miter;stroke-miterlimit:4;stroke-dasharray:none;stroke-dashoffset:0;stroke-opacity:1;marker:none;paint-order:stroke fill markers;stop-color:#000000"
       id="rect955-1-9-5"
       width="215.94513"
       height="32.770958"
       x="1556.7144"
       y="-782.47455"
       transform="rotate(90)" />
    <rect
       style="color:#000000;overflow:visible;vector-effect:none;fill:#ffffff;fill-opacity:1;stroke:none;stroke-width:1.02241px;stroke-linecap:butt;stroke-linejoin:miter;stroke-miterlimit:4;stroke-dasharray:none;stroke-dashoffset:0;stroke-opacity:1;marker:none;paint-order:stroke fill markers;stop-color:#000000"
       id="rect955-7"
       width="421.44244"
       height="45.576038"
       x="724.89355"
       y="1533.1924" />
    <rect
       style="color:#000000;overflow:visible;vector-effect:none;fill:#ffffff;fill-opacity:1;stroke:none;stroke-width:1.02241px;stroke-linecap:butt;stroke-linejoin:miter;stroke-miterlimit:4;stroke-dasharray:none;stroke-dashoffset:0;stroke-opacity:1;marker:none;paint-order:stroke fill markers;stop-color:#000000"
       id="rect955-1-9"
       width="324.11044"
       height="32.770958"
       x="1571.7268"
       y="-757.57123"
       transform="rotate(90)" />
    <path
       style="color:#000000;display:inline;overflow:visible;visibility:visible;fill:#000000;fill-opacity:1;fill-rule:nonzero;stroke:none;stroke-width:0.900695px;marker:none;enable-background:accumulate"
       d="m 946.35011,1789.3312 c -9.44632,59.2056 7.29021,104.3022 43.61043,121.8505 -60.22225,-14.9162 -79.45997,-96.9634 -74.02289,-121.8959 5.32366,-24.4119 30.41246,0.045 30.41246,0.045 z"
       id="path5010-4"
       inkscape:connector-curvature="0"
       sodipodi:nodetypes="ccsc" />
    <path
       style="color:#000000;display:inline;overflow:visible;visibility:visible;fill:#000000;fill-opacity:1;fill-rule:nonzero;stroke:none;stroke-width:0.925107px;marker:none;enable-background:accumulate"
       d="m 1739.1032,1802.2798 c 28.985,43.0588 27.74,84.9496 -1.7932,112.5764 53.706,-34.6349 45.0442,-106.5896 31.4163,-124.1679 -13.3434,-17.2115 -29.6231,11.5915 -29.6231,11.5915 z"
       id="path5010-4-3"
       inkscape:connector-curvature="0"
       sodipodi:nodetypes="ccsc" />
  </g>
  <g
     inkscape:groupmode="layer"
     id="layer1"
     inkscape:label="txt">
    <text
       xml:space="preserve"
       style="font-style:normal;font-variant:normal;font-weight:normal;font-stretch:normal;font-size:45px;line-height:1.25;font-family:'Xiaolai SC';-inkscape-font-specification:'Xiaolai SC';text-align:center;letter-spacing:0px;word-spacing:0px;text-anchor:middle;fill:#000000;fill-opacity:1;stroke:none"
       x="545.69452"
       y="1671.2283"
       id="text4246-3-2-2"><tspan
         style="font-style:normal;font-variant:normal;font-weight:normal;font-stretch:normal;font-size:45px;font-family:'Xiaolai SC';-inkscape-font-specification:'Xiaolai SC'"
         sodipodi:role="line"
         x="545.69452"
         y="1671.2283"
         id="tspan873">你</tspan><tspan
         id="tspan50"
         style="font-style:normal;font-variant:normal;font-weight:normal;font-stretch:normal;font-size:45px;font-family:'Xiaolai SC';-inkscape-font-specification:'Xiaolai SC'"
         sodipodi:role="line"
         x="545.69452"
         y="1727.4783">看见了吗？</tspan></text>
    <text
       xml:space="preserve"
       style="font-style:normal;font-variant:normal;font-weight:normal;font-stretch:normal;font-size:51px;line-height:1.25;font-family:'Xiaolai SC';-inkscape-font-specification:'Xiaolai SC';text-align:center;letter-spacing:0px;word-spacing:0px;text-anchor:middle;fill:#000000;fill-opacity:1;stroke:none;stroke-width:0.900695"
       x="976.96283"
       y="1643.016"
       id="text4246-3-2-2-3"><tspan
         style="font-style:normal;font-variant:normal;font-weight:normal;font-stretch:normal;font-size:51px;font-family:'Xiaolai SC';-inkscape-font-specification:'Xiaolai SC';fill:#ffffff;stroke-width:0.900695"
         sodipodi:role="line"
         x="976.96283"
         y="1643.016"
         id="tspan882">看见了。</tspan><tspan
         id="tspan58"
         style="font-style:normal;font-variant:normal;font-weight:normal;font-stretch:normal;font-size:51px;font-family:'Xiaolai SC';-inkscape-font-specification:'Xiaolai SC';fill:#ffffff;stroke-width:0.900695"
         sodipodi:role="line"
         x="976.96283"
         y="1706.766">这场追逐游戏</tspan><tspan
         id="tspan56"
         style="font-style:normal;font-variant:normal;font-weight:normal;font-stretch:normal;font-size:51px;font-family:'Xiaolai SC';-inkscape-font-specification:'Xiaolai SC';fill:#ffffff;stroke-width:0.900695"
         sodipodi:role="line"
         x="976.96283"
         y="1770.516">马上就要结束了。</tspan></text>
    <text
       xml:space="preserve"
       style="font-style:normal;font-variant:normal;font-weight:normal;font-stretch:normal;font-size:51px;line-height:1.25;font-family:'Xiaolai SC';-inkscape-font-specification:'Xiaolai SC';text-align:center;letter-spacing:0px;word-spacing:0px;text-anchor:middle;fill:#000000;fill-opacity:1;stroke:none;stroke-width:0.907609"
       x="1753.6272"
       y="1642.578"
       id="text4246-3-2-2-3-3"><tspan
         style="font-style:normal;font-variant:normal;font-weight:normal;font-stretch:normal;font-size:51px;font-family:'Xiaolai SC';-inkscape-font-specification:'Xiaolai SC';fill:#ffffff;stroke-width:0.907609"
         sodipodi:role="line"
         x="1753.6272"
         y="1642.578"
         id="tspan899">过不了多久</tspan><tspan
         id="tspan68"
         style="font-style:normal;font-variant:normal;font-weight:normal;font-stretch:normal;font-size:51px;font-family:'Xiaolai SC';-inkscape-font-specification:'Xiaolai SC';fill:#ffffff;stroke-width:0.907609"
         sodipodi:role="line"
         x="1753.6272"
         y="1706.328">她的魔力就会</tspan><tspan
         id="tspan70"
         style="font-style:normal;font-variant:normal;font-weight:normal;font-stretch:normal;font-size:51px;font-family:'Xiaolai SC';-inkscape-font-specification:'Xiaolai SC';fill:#ffffff;stroke-width:0.907609"
         sodipodi:role="line"
         x="1753.6272"
         y="1770.078">用尽。</tspan></text>
    <text
       xml:space="preserve"
       style="font-style:normal;font-variant:normal;font-weight:normal;font-stretch:normal;font-size:45px;line-height:1.25;font-family:'Xiaolai SC';-inkscape-font-specification:'Xiaolai SC';text-align:center;letter-spacing:0px;word-spacing:0px;text-anchor:middle;fill:#000000;fill-opacity:1;stroke:none"
       x="2172.0164"
       y="1628.567"
       id="text4246-3-2-2-3-5"><tspan
         id="tspan76"
         style="font-style:normal;font-variant:normal;font-weight:normal;font-stretch:normal;font-size:45px;font-family:'Xiaolai SC';-inkscape-font-specification:'Xiaolai SC'"
         sodipodi:role="line"
         x="2172.0164"
         y="1628.567">我们以逸待劳</tspan><tspan
         id="tspan80"
         style="font-style:normal;font-variant:normal;font-weight:normal;font-stretch:normal;font-size:45px;font-family:'Xiaolai SC';-inkscape-font-specification:'Xiaolai SC'"
         sodipodi:role="line"
         x="2172.0164"
         y="1684.817">就好了。</tspan></text>
  </g>
</svg>
