<?xml version="1.0" encoding="UTF-8" standalone="no"?>
<svg
   xmlns:dc="http://purl.org/dc/elements/1.1/"
   xmlns:cc="http://creativecommons.org/ns#"
   xmlns:rdf="http://www.w3.org/1999/02/22-rdf-syntax-ns#"
   xmlns:svg="http://www.w3.org/2000/svg"
   xmlns="http://www.w3.org/2000/svg"
   xmlns:xlink="http://www.w3.org/1999/xlink"
   xmlns:sodipodi="http://sodipodi.sourceforge.net/DTD/sodipodi-0.dtd"
   xmlns:inkscape="http://www.inkscape.org/namespaces/inkscape"
   id="svg2"
   version="1.1"
   inkscape:version="1.0 (4035a4fb49, 2020-05-01)"
   width="2481"
   height="5000"
   sodipodi:docname="E21P08.svg">
  <sodipodi:namedview
     pagecolor="#ffffff"
     bordercolor="#666666"
     inkscape:pageopacity="0"
     inkscape:pageshadow="2"
     inkscape:window-width="1201"
     inkscape:window-height="955"
     id="namedview70"
     showgrid="false"
     inkscape:zoom="0.4"
     inkscape:cx="1284.4231"
     inkscape:cy="818.6204"
     inkscape:current-layer="layer2"
     inkscape:document-rotation="0"
     inkscape:window-x="0"
     inkscape:window-y="0"
     inkscape:window-maximized="0" />
  <metadata
     id="metadata8">
    <rdf:RDF>
      <cc:Work
         rdf:about="">
        <dc:format>image/svg+xml</dc:format>
        <dc:type
           rdf:resource="http://purl.org/dc/dcmitype/StillImage" />
        <dc:title />
      </cc:Work>
    </rdf:RDF>
  </metadata>
  <defs
     id="defs6">
    <filter
       color-interpolation-filters="sRGB"
       inkscape:label="Drop Shadow"
       id="filter5546">
      <feFlood
         flood-opacity="1"
         flood-color="rgb(0,0,0)"
         result="flood"
         id="feFlood5548" />
      <feComposite
         in="flood"
         in2="SourceGraphic"
         operator="in"
         result="composite1"
         id="feComposite5550" />
      <feGaussianBlur
         in="composite1"
         stdDeviation="1"
         result="blur"
         id="feGaussianBlur5552" />
      <feOffset
         dx="2.5"
         dy="2.5"
         result="offset"
         id="feOffset5554" />
      <feComposite
         in="SourceGraphic"
         in2="offset"
         operator="over"
         result="composite2"
         id="feComposite5556" />
    </filter>
  </defs>
  <sodipodi:namedview
     pagecolor="#ffffff"
     bordercolor="#666666"
     borderopacity="1"
     objecttolerance="10"
     gridtolerance="10"
     guidetolerance="10"
     inkscape:pageopacity="0"
     inkscape:pageshadow="2"
     inkscape:window-width="1920"
     inkscape:window-height="1025"
     id="namedview4"
     showgrid="false"
     inkscape:zoom="0.50528693"
     inkscape:cx="1358.9826"
     inkscape:cy="4743.6351"
     inkscape:window-x="0"
     inkscape:window-y="26"
     inkscape:window-maximized="1"
     inkscape:current-layer="layer2"
     inkscape:object-nodes="true"
     showguides="true"
     inkscape:guide-bbox="true">
    <sodipodi:guide
       position="1425.8203,4914.3274"
       orientation="0,1"
       id="guide4214"
       inkscape:locked="false" />
  </sodipodi:namedview>
  <g
     inkscape:groupmode="layer"
     id="layer1"
     inkscape:label="artwork"
     style="display:inline"
     transform="translate(0,1024)"
     sodipodi:insensitive="true">
    <image
       sodipodi:absref="C:\Users\stero\Documents\Kernewek\Pepper and Carrot\webcomics\ep21_The-Magic-Contest\lang\gfx_Pepper-and-Carrot_by-David-Revoy_E21P08.png"
       xlink:href="../gfx_Pepper-and-Carrot_by-David-Revoy_E21P08.png"
       y="-1023.3771"
       x="0.54707891"
       id="image4223"
       style="image-rendering:optimizeQuality"
       preserveAspectRatio="none"
       height="5000"
       width="2481" />
  </g>
  <g
     inkscape:groupmode="layer"
     id="layer3"
     inkscape:label="speechbubbles"
     style="display:inline"
     transform="translate(0,1024)" />
  <g
     inkscape:groupmode="layer"
     id="layer2"
     inkscape:label="text"
     style="display:inline;opacity:0.85500004"
     transform="translate(0,1024)">
    <text
       xml:space="preserve"
       style="font-style:normal;font-variant:normal;font-weight:normal;font-stretch:normal;line-height:0%;font-family:Lavi;-inkscape-font-specification:Lavi;text-align:center;letter-spacing:0px;word-spacing:0px;text-anchor:middle;fill:#241c1c;fill-opacity:1;stroke:none"
       x="1240.0964"
       y="-864.06586"
       id="text4246-42"><tspan
         sodipodi:role="line"
         style="font-size:36.7347px;line-height:1.25;fill:#241c1c;stroke:none"
         x="1240.0964"
         y="-864.06586"
         id="tspan4252-9">02/2017 - www.peppercarrot.com - Art &amp; Hwedhel: David Revoy - Treylyans: Steve Harris - Provredyans: Steve Penhaligon</tspan></text>
    <text
       xml:space="preserve"
       style="color:#000000;font-style:normal;font-variant:normal;font-weight:normal;font-stretch:normal;line-height:0%;font-family:Lavi;-inkscape-font-specification:Lavi;text-indent:0;text-align:center;text-decoration:none;text-decoration-line:none;letter-spacing:0px;word-spacing:0px;text-transform:none;writing-mode:lr-tb;direction:ltr;baseline-shift:baseline;text-anchor:middle;display:inline;overflow:visible;visibility:visible;opacity:0.855;fill:#241c1c;fill-opacity:1;fill-rule:nonzero;stroke:none;enable-background:accumulate"
       x="1242.4336"
       y="-819.31384"
       id="text4246-42-4-6"><tspan
         sodipodi:role="line"
         style="color:#000000;font-style:normal;font-variant:normal;font-weight:normal;font-stretch:normal;font-size:30px;line-height:125%;font-family:Lavi;-inkscape-font-specification:Lavi;text-indent:0;text-align:center;text-decoration:none;text-decoration-line:none;letter-spacing:0px;word-spacing:0px;text-transform:none;writing-mode:lr-tb;direction:ltr;baseline-shift:baseline;text-anchor:middle;display:inline;overflow:visible;visibility:visible;fill:#241c1c;fill-opacity:1;fill-rule:nonzero;stroke:none;enable-background:accumulate"
         x="1242.4336"
         y="-819.31384"
         id="tspan4252-9-9-2">Brainstorming: Craig Maloney, Quiralta, Nicolas Artance, Talime, Valvin.</tspan></text>
    <text
       id="text4151"
       y="-776.18884"
       x="1240.2729"
       style="color:#000000;font-style:normal;font-variant:normal;font-weight:normal;font-stretch:normal;line-height:0%;font-family:Lavi;-inkscape-font-specification:Lavi;text-indent:0;text-align:center;text-decoration:none;text-decoration-line:none;letter-spacing:0px;word-spacing:0px;text-transform:none;writing-mode:lr-tb;direction:ltr;baseline-shift:baseline;text-anchor:middle;display:inline;overflow:visible;visibility:visible;opacity:0.855;fill:#241c1c;fill-opacity:1;fill-rule:nonzero;stroke:none;enable-background:accumulate"
       xml:space="preserve"><tspan
         id="tspan4153"
         y="-776.18884"
         x="1244.9604"
         style="color:#000000;font-style:normal;font-variant:normal;font-weight:normal;font-stretch:normal;font-size:30px;line-height:125%;font-family:Lavi;-inkscape-font-specification:Lavi;text-indent:0;text-align:center;text-decoration:none;text-decoration-line:none;letter-spacing:0px;word-spacing:0px;text-transform:none;writing-mode:lr-tb;direction:ltr;baseline-shift:baseline;text-anchor:middle;display:inline;overflow:visible;visibility:visible;fill:#241c1c;fill-opacity:1;fill-rule:nonzero;stroke:none;enable-background:accumulate"
         sodipodi:role="line">Dialog Improvements: Craig Maloney, Jookia, Nicolas Artance and Valvin. </tspan></text>
    <text
       xml:space="preserve"
       style="font-style:normal;font-variant:normal;font-weight:normal;font-stretch:normal;line-height:0%;font-family:Arial;-inkscape-font-specification:Arial;text-align:center;letter-spacing:0px;word-spacing:0px;text-anchor:middle;display:inline;opacity:0.855;fill:#241c1c;fill-opacity:1;stroke:none"
       x="1240.7197"
       y="-736.52441"
       id="text4229-3"><tspan
         sodipodi:role="line"
         x="1240.7197"
         y="-736.52441"
         style="font-style:normal;font-variant:normal;font-weight:normal;font-stretch:normal;font-size:30px;line-height:1.25;font-family:Lavi;-inkscape-font-specification:Lavi;fill:#241c1c;stroke:none"
         id="tspan4175">Special Thanks: Inkscape team and especially Mc.</tspan></text>
    <text
       xml:space="preserve"
       style="color:#000000;font-style:normal;font-variant:normal;font-weight:normal;font-stretch:normal;line-height:0%;font-family:Lavi;-inkscape-font-specification:Lavi;text-indent:0;text-align:center;text-decoration:none;text-decoration-line:none;letter-spacing:0px;word-spacing:0px;text-transform:none;writing-mode:lr-tb;direction:ltr;baseline-shift:baseline;text-anchor:middle;display:inline;overflow:visible;visibility:visible;opacity:0.855;fill:#241c1c;fill-opacity:1;fill-rule:nonzero;stroke:none;enable-background:accumulate"
       x="1242.4336"
       y="-655.88531"
       id="text4246-42-4"><tspan
         sodipodi:role="line"
         style="color:#000000;font-style:normal;font-variant:normal;font-weight:normal;font-stretch:normal;font-size:30px;line-height:125%;font-family:Lavi;-inkscape-font-specification:Lavi;text-indent:0;text-align:center;text-decoration:none;text-decoration-line:none;letter-spacing:0px;word-spacing:0px;text-transform:none;writing-mode:lr-tb;direction:ltr;baseline-shift:baseline;text-anchor:middle;display:inline;overflow:visible;visibility:visible;fill:#241c1c;fill-opacity:1;fill-rule:nonzero;stroke:none;enable-background:accumulate"
         x="1242.4336"
         y="-655.88531"
         id="tspan4252-9-9">Based on the universe of Hereva created by David Revoy with contributions by Craig Maloney. Corrections by Willem Sonke, Moini, Hali, CGand and Alex Gryson.</tspan></text>
    <text
       xml:space="preserve"
       style="font-style:normal;font-variant:normal;font-weight:normal;font-stretch:normal;line-height:0%;font-family:Arial;-inkscape-font-specification:Arial;text-align:center;letter-spacing:0px;word-spacing:0px;text-anchor:middle;display:inline;opacity:0.855;fill:#241c1c;fill-opacity:1;stroke:none"
       x="1241.0786"
       y="-614.98932"
       id="text4229"><tspan
         sodipodi:role="line"
         x="1241.0786"
         y="-614.98932"
         style="font-style:normal;font-variant:normal;font-weight:normal;font-stretch:normal;font-size:30px;line-height:1.25;font-family:Lavi;-inkscape-font-specification:Lavi;fill:#241c1c;stroke:none"
         id="tspan4169">Software: Krita 3.2.1, Inkscape 0.91 on Linux Mint 18.1 XFCE</tspan></text>
    <text
       id="text4179"
       y="-570.45563"
       x="1241.3423"
       style="font-style:normal;font-variant:normal;font-weight:normal;font-stretch:normal;line-height:0%;font-family:Arial;-inkscape-font-specification:Arial;text-align:center;letter-spacing:0px;word-spacing:0px;text-anchor:middle;display:inline;opacity:0.855;fill:#241c1c;fill-opacity:1;stroke:none"
       xml:space="preserve"><tspan
         id="tspan4181"
         style="font-style:normal;font-variant:normal;font-weight:bold;font-stretch:normal;font-size:35px;line-height:1.25;font-family:Lavi;-inkscape-font-specification:'Lavi Bold';fill:#241c1c;stroke:none"
         y="-570.45563"
         x="1241.3423"
         sodipodi:role="line">Licence: Creative Commons Attribution 4.0</tspan></text>
    <text
       xml:space="preserve"
       style="font-style:normal;font-variant:normal;font-weight:normal;font-stretch:normal;line-height:0%;font-family:Arial;-inkscape-font-specification:Arial;text-align:center;letter-spacing:0px;word-spacing:0px;text-anchor:middle;display:inline;opacity:0.855;fill:#483e37;fill-opacity:1;stroke:none;filter:url(#filter4155)"
       x="1240.1191"
       y="3842.3586"
       id="text4221-3"><tspan
         sodipodi:role="line"
         id="tspan4223-6"
         x="1240.1191"
         y="3842.3586"
         style="font-style:normal;font-variant:normal;font-weight:normal;font-stretch:normal;font-size:40px;line-height:1.25;font-family:Lavi;-inkscape-font-specification:Lavi;fill:#483e37">Y hyllir dos ha bos tasek Pepper&amp;Carrot dhe www.patreon.com/davidrevoy</tspan></text>
    <text
       xml:space="preserve"
       style="font-style:normal;font-variant:normal;font-weight:normal;font-stretch:normal;line-height:0%;font-family:Arial;-inkscape-font-specification:Arial;text-align:center;letter-spacing:0px;word-spacing:0px;text-anchor:middle;display:inline;opacity:0.855;fill:#483e37;fill-opacity:1;stroke:none;filter:url(#filter4155)"
       x="1243.3711"
       y="-375.95468"
       id="text4162-7"><tspan
         sodipodi:role="line"
         x="1243.3711"
         y="-375.95468"
         style="font-style:normal;font-variant:normal;font-weight:normal;font-stretch:normal;font-size:40px;line-height:1.25;font-family:Lavi;-inkscape-font-specification:Lavi;fill:#483e37"
         id="tspan3382">Pepper&amp;Carrot yw rydh(libre), fenten ygor, ha skoodhys</tspan><tspan
         sodipodi:role="line"
         x="1243.3711"
         y="-325.95468"
         style="font-style:normal;font-variant:normal;font-weight:normal;font-stretch:normal;font-size:40px;line-height:1.25;font-family:Lavi;-inkscape-font-specification:Lavi;fill:#483e37"
         id="tspan43">dre weres kuv redyoryon.</tspan><tspan
         sodipodi:role="line"
         x="1243.3711"
         y="-275.95468"
         style="font-style:normal;font-variant:normal;font-weight:normal;font-stretch:normal;font-size:40px;line-height:1.25;font-family:Lavi;-inkscape-font-specification:Lavi;fill:#483e37"
         id="tspan45">Rag an dyllans ma, synsys ov dhe'n 816 tasek:</tspan></text>
  </g>
</svg>
