<?xml version="1.0" encoding="UTF-8" standalone="no"?>
<svg
   id="svg2"
   version="1.1"
   inkscape:version="1.1 (1:1.1+202105261517+ce6663b3b7)"
   width="2481"
   height="3503"
   sodipodi:docname="E35P10.svg"
   xmlns:inkscape="http://www.inkscape.org/namespaces/inkscape"
   xmlns:sodipodi="http://sodipodi.sourceforge.net/DTD/sodipodi-0.dtd"
   xmlns:xlink="http://www.w3.org/1999/xlink"
   xmlns="http://www.w3.org/2000/svg"
   xmlns:svg="http://www.w3.org/2000/svg"
   xmlns:rdf="http://www.w3.org/1999/02/22-rdf-syntax-ns#"
   xmlns:cc="http://creativecommons.org/ns#"
   xmlns:dc="http://purl.org/dc/elements/1.1/">
  <metadata
     id="metadata8">
    <rdf:RDF>
      <cc:Work
         rdf:about="">
        <dc:format>image/svg+xml</dc:format>
        <dc:type
           rdf:resource="http://purl.org/dc/dcmitype/StillImage" />
        <dc:title />
      </cc:Work>
    </rdf:RDF>
  </metadata>
  <defs
     id="defs6" />
  <sodipodi:namedview
     pagecolor="#ffffff"
     bordercolor="#666666"
     borderopacity="1"
     objecttolerance="10"
     gridtolerance="10"
     guidetolerance="10"
     inkscape:pageopacity="0"
     inkscape:pageshadow="2"
     inkscape:window-width="1276"
     inkscape:window-height="756"
     id="namedview4"
     showgrid="false"
     inkscape:zoom="0.43055393"
     inkscape:cx="1208.9078"
     inkscape:cy="3328.2706"
     inkscape:window-x="0"
     inkscape:window-y="0"
     inkscape:window-maximized="0"
     inkscape:current-layer="layer3"
     inkscape:document-rotation="0"
     inkscape:snap-global="false"
     inkscape:pagecheckerboard="0" />
  <g
     inkscape:groupmode="layer"
     id="layer2"
     inkscape:label="artwork"
     sodipodi:insensitive="true">
    <image
       xlink:href="../gfx_Pepper-and-Carrot_by-David-Revoy_E35P10.png"
       width="2481"
       height="3503"
       id="image10"
       x="0"
       y="0" />
  </g>
  <g
     inkscape:groupmode="layer"
     id="layer3"
     inkscape:label="speechbubbles">
    <path
       style="fill:#ffffff;stroke:none"
       d="m 1263.6345,157.25391 c -46.8149,0.29098 -94.1423,-0.47467 -140.1663,10.8164 -19.1366,4.56706 -38.6135,9.98485 -55.4225,21.85547 -19.9086,14.22857 -36.4321,35.8119 -43.4528,61.71319 -5.7355,22.55228 -2.1324,47.05188 6.5341,67.98492 10.2231,25.96015 28.8116,47.72975 51.8093,58.89989 23.59,12.67802 48.6601,21.30987 73.8874,28.54857 36.643,9.60291 74.3892,11.19293 111.8328,11.97595 45.2371,1.49972 90.7163,4.40377 135.7883,-1.8898 27.8616,-3.71944 55.6229,-8.70206 82.9998,-15.73301 27.3975,-7.2385 54.7013,-17.86124 77.7352,-36.77391 10.57,-8.36057 18.5082,-20.45188 23.9264,-33.6715 3.7361,-9.09672 6.4251,-18.69761 9.0456,-28.27201 4.7964,-18.74127 6.2239,-39.07366 1.385,-58.00714 -6.1352,-25.23075 -22.5585,-46.72418 -43.402,-57.45367 -21.1511,-11.90018 -44.5536,-16.87592 -67.5815,-21.5171 -33.5086,-6.08342 -67.508,-6.88313 -101.3569,-7.90491 -40.736,-0.70896 -81.4786,-0.54456 -122.2178,-0.58217 -0.448,0.004 -0.8961,0.007 -1.3441,0.0108 z"
       id="path3100-98"
       inkscape:connector-curvature="0"
       sodipodi:nodetypes="zsssssz" />
    <path
       style="color:#000000;display:inline;overflow:visible;visibility:visible;fill:#ffffff;fill-opacity:1;fill-rule:nonzero;stroke:none;stroke-width:0.83737px;marker:none;enable-background:accumulate"
       d="m 1448.7795,517.63055 c 2.403,-24.32977 -9.2766,-33.6163 -20.6628,-38.28253 -11.3869,-4.66626 -19.0826,-5.58729 -28.1978,-26.0826 -9.1142,-20.49521 -0.7357,-41.29642 -4.8853,-52.46499 -11.4569,-16.24953 -34.9307,-26.06627 -44.5289,-30.51513 -21.6856,-10.05119 11.3091,-23.29909 11.3091,-23.29909 8.77,-0.30545 47.7455,23.68713 57.7575,33.72157 14.4084,14.44054 -4.0636,48.20741 4.0399,65.52593 7.5675,16.17219 18.2749,17.40774 23.9472,28.63593 5.6729,11.22843 4.8219,31.66667 1.2211,42.76091 z"
       id="path4538-8"
       inkscape:connector-curvature="0"
       sodipodi:nodetypes="csscscsssc" />
    <path
       style="color:#000000;fill:#ffffff;fill-opacity:1;fill-rule:nonzero;stroke:none;stroke-width:1.21195996px;marker:none;visibility:visible;display:inline;overflow:visible;enable-background:accumulate"
       d="m 220.51842,1521.6618 c 2.75393,-52.835 3.14925,-103.8757 39.57548,-134.3848 36.42616,-30.5077 100.59926,-38.1731 181.20503,-29.2988 43.17674,4.7531 97.56828,11.1057 131.99836,33.0647 34.43008,21.9591 48.89878,59.5245 45.36558,136.9162 -3.53319,77.3916 -22.5999,110.9507 -62.37266,130.2669 -39.7727,19.3177 -100.25159,24.3928 -114.81482,26.3926 -14.56321,1.9996 -59.73189,-0.5587 -104.54579,-10.1499 -44.81383,-9.5912 -75.46633,-16.2888 -88.6104,-42.4256 -20.60549,-33.1568 -29.05385,-71.9148 -27.80078,-110.3813 z"
       id="path4546-6-2-0"
       inkscape:connector-curvature="0"
       sodipodi:nodetypes="cssssssscc" />
    <path
       style="fill:#ffffff;fill-rule:evenodd;stroke:none"
       d="m 566.83527,1651.6586 c 4.43847,-15.3188 61.8645,41.4938 43.56991,104.2767 2.42387,27.4208 22.18027,42.2423 21.12076,57.0045 -1.05963,24.2524 -9.53608,35.8508 -36.02508,55.8848 33.90594,-15.8168 54.23301,-33.7608 55.29264,-58.0121 1.05951,-24.2524 -17.71625,-25.1329 -17.14842,-60.0829 1.05952,-10.5449 17.58222,-85.0431 -34.9031,-140.4463 -21.98592,7.8853 -31.90671,41.3753 -31.90671,41.3753 z"
       id="path1303"
       inkscape:connector-curvature="0"
       sodipodi:nodetypes="cccccccc" />
    <path
       style="color:#000000;fill:#ffffff;fill-opacity:1;fill-rule:nonzero;stroke:none;stroke-width:0.79737997px;marker:none;visibility:visible;display:inline;overflow:visible;enable-background:accumulate"
       d="m 1324.4944,1541.7467 c 1.8628,-37.3903 2.1302,-73.5107 26.7709,-95.1015 24.6405,-21.5896 68.0506,-27.0143 122.5764,-20.7341 29.2072,3.3636 66.0003,7.8593 89.2908,23.3992 23.2902,15.54 33.0775,42.1243 30.6875,96.8929 -2.3899,54.7685 -15.2876,78.5176 -42.192,92.1873 -26.9045,13.6708 -67.8155,17.2623 -77.6668,18.6775 -9.8513,1.4151 -40.4059,-0.3954 -70.7203,-7.1829 -30.3145,-6.7874 -51.0494,-11.5272 -59.9406,-30.0237 -13.9386,-23.4644 -19.6537,-50.8927 -18.8059,-78.1147 z"
       id="path4546-6-2-0-3"
       inkscape:connector-curvature="0"
       sodipodi:nodetypes="cssssssscc" />
    <path
       style="color:#000000;fill:#ffffff;fill-opacity:1;fill-rule:nonzero;stroke:none;stroke-width:0.785671px;marker:none;visibility:visible;display:inline;overflow:visible;enable-background:accumulate"
       d="m 1393.9756,1749.4153 c 1.7752,-38.0028 2.03,-74.7149 25.5114,-96.6594 23.4811,-21.9434 64.8488,-27.4569 116.8091,-21.0739 27.8329,3.4188 62.8949,7.9881 85.0895,23.7827 22.1945,15.7944 31.5215,42.8144 29.2439,98.4801 -2.2776,55.6656 -14.5686,79.8037 -40.2071,93.6975 -25.6384,13.8947 -64.6246,17.5451 -74.0125,18.9834 -9.3877,1.4384 -38.5048,-0.4017 -67.3928,-7.3005 -28.8881,-6.8988 -48.6475,-11.716 -57.1204,-30.5156 -13.2829,-23.8487 -18.7288,-51.7263 -17.9211,-79.3943 z"
       id="path4546-6-2-0-3-6"
       inkscape:connector-curvature="0"
       sodipodi:nodetypes="cssssssscc" />
    <path
       style="color:#000000;fill:#ffffff;fill-opacity:1;fill-rule:nonzero;stroke:none;stroke-width:1.47843003px;marker:none;visibility:visible;display:inline;overflow:visible;enable-background:accumulate"
       d="m 1474.8245,1836.8292 c 6.1533,73.3287 -47.1663,130.4434 -118.01,146.3855 114.7363,-9.2052 166.2605,-106.0374 160.9588,-137.1332 -5.191,-30.4467 -42.9488,-9.2523 -42.9488,-9.2523 z"
       id="path5010-4"
       inkscape:connector-curvature="0"
       sodipodi:nodetypes="ccsc" />
  </g>
  <g
     inkscape:groupmode="layer"
     id="layer1"
     inkscape:label="txt">
    <text
       xml:space="preserve"
       style="font-style:normal;font-variant:normal;font-weight:normal;font-stretch:normal;line-height:0%;font-family:ComicSpice;-inkscape-font-specification:ComicSpice;text-align:center;letter-spacing:0px;word-spacing:0px;text-anchor:middle;fill:#000000;fill-opacity:1;stroke:none"
       x="1325.0667"
       y="244.98175"
       id="text4246-3-2-2"><tspan
         style="font-style:normal;font-variant:normal;font-weight:normal;font-stretch:normal;font-size:45px;line-height:1.25;font-family:ComicSpice;-inkscape-font-specification:ComicSpice"
         sodipodi:role="line"
         x="1325.0667"
         y="244.98175"
         id="tspan15985">Bạn biết không, nếu bạn</tspan><tspan
         style="font-style:normal;font-variant:normal;font-weight:normal;font-stretch:normal;font-size:45px;line-height:1.25;font-family:ComicSpice;-inkscape-font-specification:ComicSpice"
         sodipodi:role="line"
         x="1325.0667"
         y="301.23175"
         id="tspan20039">đầu hàng, Sư Phụ Cải</tspan><tspan
         style="font-style:normal;font-variant:normal;font-weight:normal;font-stretch:normal;font-size:45px;line-height:1.25;font-family:ComicSpice;-inkscape-font-specification:ComicSpice"
         sodipodi:role="line"
         x="1329.3623"
         y="357.48175"
         id="tspan8101">Ngựa sẽ không tha cho bạn? </tspan></text>
    <text
       xml:space="preserve"
       style="font-style:normal;font-variant:normal;font-weight:normal;font-stretch:normal;line-height:0%;font-family:ComicSpice;-inkscape-font-specification:ComicSpice;text-align:center;letter-spacing:0px;word-spacing:0px;text-anchor:middle;fill:#000000;fill-opacity:1;stroke:none"
       x="415.41315"
       y="1452.8612"
       id="text4246-3-2-2-3"><tspan
         style="font-style:normal;font-variant:normal;font-weight:normal;font-stretch:normal;font-size:45px;line-height:1.25;font-family:ComicSpice;-inkscape-font-specification:ComicSpice"
         sodipodi:role="line"
         x="415.41315"
         y="1452.8612"
         id="tspan892">Tôi biết, nhưng</tspan><tspan
         style="font-style:normal;font-variant:normal;font-weight:normal;font-stretch:normal;font-size:45px;line-height:1.25;font-family:ComicSpice;-inkscape-font-specification:ComicSpice"
         sodipodi:role="line"
         x="415.41315"
         y="1509.1112"
         id="tspan8093">tôi vẫn cảm giác phải</tspan><tspan
         style="font-style:normal;font-variant:normal;font-weight:normal;font-stretch:normal;font-size:45px;line-height:1.25;font-family:ComicSpice;-inkscape-font-specification:ComicSpice"
         sodipodi:role="line"
         x="415.41315"
         y="1565.3612"
         id="tspan8095">có một cách làm</tspan><tspan
         style="font-style:normal;font-variant:normal;font-weight:normal;font-stretch:normal;font-size:45px;line-height:1.25;font-family:ComicSpice;-inkscape-font-specification:ComicSpice"
         sodipodi:role="line"
         x="415.41315"
         y="1621.6112"
         id="tspan8097">cho bà ấy hiểu tôi.</tspan></text>
    <text
       xml:space="preserve"
       style="font-style:normal;font-variant:normal;font-weight:normal;font-stretch:normal;line-height:0%;font-family:ComicSpice;-inkscape-font-specification:ComicSpice;text-align:center;letter-spacing:0px;word-spacing:0px;text-anchor:middle;fill:#000000;fill-opacity:1;stroke:none"
       x="1460.6498"
       y="1490.1573"
       id="text4246-3-2-2-3-3"><tspan
         style="font-style:normal;font-variant:normal;font-weight:normal;font-stretch:normal;font-size:45px;line-height:1.25;font-family:ComicSpice;-inkscape-font-specification:ComicSpice"
         sodipodi:role="line"
         x="1460.6498"
         y="1490.1573"
         id="tspan967">Rốt cuộc, </tspan><tspan
         style="font-style:normal;font-variant:normal;font-weight:normal;font-stretch:normal;font-size:45px;line-height:1.25;font-family:ComicSpice;-inkscape-font-specification:ComicSpice"
         sodipodi:role="line"
         x="1460.6498"
         y="1546.4073"
         id="tspan896">chẳng có phá</tspan><tspan
         style="font-style:normal;font-variant:normal;font-weight:normal;font-stretch:normal;font-size:45px;line-height:1.25;font-family:ComicSpice;-inkscape-font-specification:ComicSpice"
         sodipodi:role="line"
         x="1460.6498"
         y="1602.6573"
         id="tspan8082">vỡ cái gì.</tspan></text>
    <text
       xml:space="preserve"
       style="font-style:normal;font-variant:normal;font-weight:normal;font-stretch:normal;line-height:0%;font-family:ComicSpice;-inkscape-font-specification:ComicSpice;text-align:center;letter-spacing:0px;word-spacing:0px;text-anchor:middle;fill:#000000;fill-opacity:1;stroke:none"
       x="1516.4325"
       y="1701.9688"
       id="text4246-3-2-2-3-3-1"><tspan
         style="font-style:normal;font-variant:normal;font-weight:normal;font-stretch:normal;font-size:45px;line-height:1.25;font-family:ComicSpice;-inkscape-font-specification:ComicSpice"
         sodipodi:role="line"
         x="1516.4325"
         y="1701.9688"
         id="tspan913">Tôi đã học</tspan><tspan
         style="font-style:normal;font-variant:normal;font-weight:normal;font-stretch:normal;font-size:45px;line-height:1.25;font-family:ComicSpice;-inkscape-font-specification:ComicSpice"
         sodipodi:role="line"
         x="1516.4325"
         y="1758.2188"
         id="tspan8076">cái đó từ</tspan><tspan
         style="font-style:normal;font-variant:normal;font-weight:normal;font-stretch:normal;font-size:45px;line-height:1.25;font-family:ComicSpice;-inkscape-font-specification:ComicSpice"
         sodipodi:role="line"
         x="1516.4325"
         y="1814.4688"
         id="tspan8078">một bạn cũ.</tspan></text>
  </g>
</svg>
