<?xml version="1.0" encoding="UTF-8" standalone="no"?>
<!-- Created with Inkscape (http://www.inkscape.org/) -->

<svg
   xmlns:dc="http://purl.org/dc/elements/1.1/"
   xmlns:cc="http://creativecommons.org/ns#"
   xmlns:rdf="http://www.w3.org/1999/02/22-rdf-syntax-ns#"
   xmlns:svg="http://www.w3.org/2000/svg"
   xmlns="http://www.w3.org/2000/svg"
   xmlns:xlink="http://www.w3.org/1999/xlink"
   xmlns:sodipodi="http://sodipodi.sourceforge.net/DTD/sodipodi-0.dtd"
   xmlns:inkscape="http://www.inkscape.org/namespaces/inkscape"
   id="svg2"
   version="1.1"
   inkscape:version="0.92.3 (2405546, 2018-03-11)"
   width="2481"
   height="3503"
   sodipodi:docname="E23P06.svg">
  <metadata
     id="metadata8">
    <rdf:RDF>
      <cc:Work
         rdf:about="">
        <dc:format>image/svg+xml</dc:format>
        <dc:type
           rdf:resource="http://purl.org/dc/dcmitype/StillImage" />
        <dc:title />
      </cc:Work>
    </rdf:RDF>
  </metadata>
  <defs
     id="defs6" />
  <sodipodi:namedview
     pagecolor="#ffffff"
     bordercolor="#666666"
     borderopacity="1"
     objecttolerance="10"
     gridtolerance="10"
     guidetolerance="10"
     inkscape:pageopacity="0"
     inkscape:pageshadow="2"
     inkscape:window-width="1920"
     inkscape:window-height="1017"
     id="namedview4"
     showgrid="false"
     inkscape:zoom="0.49469369"
     inkscape:cx="1186.0201"
     inkscape:cy="758.19794"
     inkscape:window-x="1672"
     inkscape:window-y="-8"
     inkscape:window-maximized="1"
     inkscape:current-layer="layer3"
     inkscape:document-rotation="0" />
  <g
     inkscape:groupmode="layer"
     id="layer2"
     inkscape:label="artwork"
     sodipodi:insensitive="true"
     style="display:inline">
    <image
       sodipodi:absref="C:\Users\ato\OneDrive - Høgskulen i Volda\Vevsida\Teikneseriesida\Pepar &amp; Gulrot\ep23_Take-a-Chance_lang-pack\lang\nn\../gfx_Pepper-and-Carrot_by-David-Revoy_E23P06.png"
       xlink:href="../gfx_Pepper-and-Carrot_by-David-Revoy_E23P06.png"
       y="0"
       x="0"
       id="image10"
       height="3503"
       width="2481" />
  </g>
  <g
     inkscape:groupmode="layer"
     id="layer3"
     inkscape:label="speechbubbles"
     style="display:inline">
    <path
       style="fill:#ffffff;fill-rule:evenodd;stroke:none;stroke-width:0.97646558px;stroke-linecap:butt;stroke-linejoin:miter;stroke-opacity:1"
       d="m 138.23592,2081.3114 c 6.20358,-58.4563 38.77236,-95.1613 71.34116,-99.2397 32.56877,-4.0783 350.50214,0 381.52003,9.5161 31.01791,9.5161 75.99384,48.9401 74.44294,78.848 -1.55091,29.9078 4.30904,74.9097 -43.42504,110.1152 -33.93117,25.0253 -229.53239,19.0323 -262.10119,19.0323 -32.56878,0 -122.32279,13.2272 -173.70018,-20.3917 -51.8515,-33.9291 -48.07772,-97.8802 -48.07772,-97.8802 z"
       id="path4272"
       inkscape:connector-curvature="0"
       sodipodi:nodetypes="cssssssc" />
    <path
       style="fill:#ffffff;fill-rule:evenodd;stroke:none;stroke-width:1.00163519px;stroke-linecap:butt;stroke-linejoin:miter;stroke-opacity:1"
       d="m 1374.8582,2089.9481 c -5.1625,62.4102 -44.4957,98.9803 -75.9935,103.8615 -31.4978,4.8811 -367.44573,8.8341 -397.63808,-0.8007 -30.19226,-9.6346 -71.43658,-52.4632 -70.36781,-84.3674 1.06888,-31.9042 1.66198,-78.2317 47.40227,-116.5397 32.51395,-27.2308 231.81882,-24.0495 263.37562,-24.5836 31.5572,-0.5339 137.7179,-0.6654 187.987,34.3268 50.7328,35.3148 45.2345,88.1031 45.2345,88.1031 z"
       id="path4272-6"
       inkscape:connector-curvature="0"
       sodipodi:nodetypes="cssssssc" />
    <path
       style="fill:#ffffff;fill-rule:evenodd;stroke:none;stroke-width:1px;stroke-linecap:butt;stroke-linejoin:miter;stroke-opacity:1"
       d="m 1174.8502,2374.625 c 53.2945,-58.4181 71.3886,-137.4736 64.8491,-196.709 -6.4438,-58.3689 -35.667,-20.5356 -35.667,-20.5356 0,0 -7.6853,2.1941 0,30.2629 7.8496,28.6688 31.1185,75.2067 -29.1821,186.9817 z"
       id="path4289"
       inkscape:connector-curvature="0"
       sodipodi:nodetypes="cscsc" />
    <path
       style="fill:#ffffff;fill-rule:evenodd;stroke:none;stroke-width:1.04457903px;stroke-linecap:butt;stroke-linejoin:miter;stroke-opacity:1"
       d="m 1743.8271,2037.9512 c 24.2433,-34.7886 69.9609,-57.859 118.4997,-68.2539 48.5336,-10.8764 99.7469,-11.7 149.817,-9.0076 75.8623,-2.1542 153.8287,-7.2969 227.6674,9.654 32.6826,7.8409 64.625,20.0613 88.9317,38.9119 32.4399,29.5471 44.4783,71.7412 31.854,109.1326 -7.9955,24.408 -17.8264,47.9559 -49.7649,54.8917 -61.6637,12.8503 -139.5597,16.9253 -203.3365,18.5896 -55.7024,1.4934 -111.4866,1.0293 -167.1864,0.075 -49.4048,-2.9384 -103.0082,-1.2177 -146.4228,-21.1277 -27.9086,-12.5716 -46.1183,-40.7249 -51.0135,-65.4384 -6.6123,-22.1208 -5.8594,-45.393 0.9543,-67.4271 z"
       id="path4291"
       inkscape:connector-curvature="0"
       sodipodi:nodetypes="ccccccccccccc" />
    <path
       style="fill:#ffffff;fill-rule:evenodd;stroke:none;stroke-width:1px;stroke-linecap:butt;stroke-linejoin:miter;stroke-opacity:1"
       d="m 2064.9587,2367.1575 c 85.5504,-62.8829 112.322,-138.9575 103.3436,-179.057 -8.9784,-40.0995 -31.8164,-49.0097 -31.7823,-17.5409 0.034,31.4688 34.0662,86.4163 -71.5613,196.5979 z"
       id="path4293"
       inkscape:connector-curvature="0" />
  </g>
  <g
     inkscape:groupmode="layer"
     id="layer1"
     inkscape:label="txt"
     style="display:inline">
    <text
       xml:space="preserve"
       style="font-style:normal;font-variant:normal;font-weight:normal;font-stretch:normal;line-height:0%;font-family:Lavi;-inkscape-font-specification:Lavi;text-align:center;letter-spacing:0px;word-spacing:0px;text-anchor:middle;fill:#000000;fill-opacity:1;stroke:#000000;stroke-width:0.41015574;stroke-miterlimit:4;stroke-dasharray:none;stroke-opacity:1"
       x="1952.7708"
       y="1485.6932"
       id="text4246-8"
       transform="matrix(0.76133526,-0.51280204,0.4098681,1.0374126,0,0)"><tspan
         sodipodi:role="line"
         style="font-size:41.48361969px;line-height:1.25;fill:#000000;stroke:#000000;stroke-width:0.41015574;stroke-miterlimit:4;stroke-dasharray:none;stroke-opacity:1"
         x="1952.7708"
         y="1485.6932"
         id="tspan4150-8">Kurr!</tspan></text>
    <text
       xml:space="preserve"
       style="font-style:normal;font-variant:normal;font-weight:normal;font-stretch:normal;line-height:0%;font-family:Lavi;-inkscape-font-specification:Lavi;text-align:center;letter-spacing:0px;word-spacing:0px;text-anchor:middle;fill:#000000;fill-opacity:1;stroke:#000000;stroke-width:0.41015574;stroke-miterlimit:4;stroke-dasharray:none;stroke-opacity:1"
       x="2095.8384"
       y="1367.7908"
       id="text4246-8-3"
       transform="matrix(0.8070703,-0.42305912,0.27884184,1.092883,0,0)"><tspan
         sodipodi:role="line"
         style="font-size:38.3127861px;line-height:1.25;fill:#000000;stroke:#000000;stroke-width:0.41015574;stroke-miterlimit:4;stroke-dasharray:none;stroke-opacity:1"
         x="2095.8384"
         y="1367.7908"
         id="tspan4150-8-6">Kurr!</tspan></text>
    <text
       xml:space="preserve"
       style="font-style:normal;font-variant:normal;font-weight:normal;font-stretch:normal;line-height:0%;font-family:Lavi;-inkscape-font-specification:Lavi;text-align:center;letter-spacing:0px;word-spacing:0px;text-anchor:middle;fill:#000000;fill-opacity:1;stroke:#000000;stroke-width:0.41015574;stroke-miterlimit:4;stroke-dasharray:none;stroke-opacity:1"
       x="2131.8132"
       y="1413.1631"
       id="text4246-8-3-7"
       transform="matrix(0.8070703,-0.42305912,0.27884184,1.092883,0,0)"><tspan
         sodipodi:role="line"
         style="font-size:38.3127861px;line-height:1.25;fill:#000000;stroke:#000000;stroke-width:0.41015574;stroke-miterlimit:4;stroke-dasharray:none;stroke-opacity:1"
         x="2131.8132"
         y="1413.1631"
         id="tspan4150-8-6-5">Kurr!</tspan></text>
    <text
       xml:space="preserve"
       style="font-style:normal;font-variant:normal;font-weight:normal;font-stretch:normal;line-height:0%;font-family:Lavi;-inkscape-font-specification:Lavi;text-align:center;letter-spacing:0px;word-spacing:0px;text-anchor:middle;fill:#000000;fill-opacity:1;stroke:#000000;stroke-width:0.41015574;stroke-miterlimit:4;stroke-dasharray:none;stroke-opacity:1"
       x="1868.1534"
       y="1659.7085"
       id="text4246-8-3-3"
       transform="matrix(0.73266151,-0.54180126,0.44311163,1.0372069,0,0)"><tspan
         sodipodi:role="line"
         style="font-size:38.3127861px;line-height:1.25;fill:#000000;stroke:#000000;stroke-width:0.41015574;stroke-miterlimit:4;stroke-dasharray:none;stroke-opacity:1"
         x="1868.1534"
         y="1659.7085"
         id="tspan4150-8-6-56">Kurr!</tspan></text>
    <text
       xml:space="preserve"
       style="font-style:normal;font-variant:normal;font-weight:normal;font-stretch:normal;line-height:0%;font-family:Lavi;-inkscape-font-specification:Lavi;text-align:center;letter-spacing:0px;word-spacing:0px;text-anchor:middle;fill:#000000;fill-opacity:1;stroke:none"
       x="398.71164"
       y="2048.1582"
       id="text4246"><tspan
         sodipodi:role="line"
         style="font-size:45px;line-height:1.25"
         x="405.74289"
         y="2048.1582"
         id="tspan47">Veit du, Gulrot, </tspan><tspan
         sodipodi:role="line"
         style="font-size:45px;line-height:1.25"
         x="405.74289"
         y="2104.4082"
         id="tspan6152">eg trur det er slik det </tspan><tspan
         sodipodi:role="line"
         style="font-size:45px;line-height:1.25"
         x="398.71164"
         y="2160.6582"
         id="tspan6154">er å verta vaksen.</tspan></text>
    <text
       xml:space="preserve"
       style="font-style:normal;font-variant:normal;font-weight:normal;font-stretch:normal;line-height:0%;font-family:Lavi;-inkscape-font-specification:Lavi;text-align:center;letter-spacing:0px;word-spacing:0px;text-anchor:middle;fill:#000000;fill-opacity:1;stroke:none"
       x="1106.4655"
       y="2049.0886"
       id="text4246-2"><tspan
         sodipodi:role="line"
         style="font-size:45px;line-height:1.25"
         x="1113.4967"
         y="2049.0886"
         id="tspan54">Å unngå snarvegar. </tspan><tspan
         sodipodi:role="line"
         style="font-size:45px;line-height:1.25"
         x="1113.4967"
         y="2105.3386"
         id="tspan4990">Å verdsetja det å gjera </tspan><tspan
         sodipodi:role="line"
         style="font-size:45px;line-height:1.25"
         x="1106.4655"
         y="2161.5886"
         id="tspan4994">ein innsats.</tspan></text>
    <text
       xml:space="preserve"
       style="font-style:normal;font-variant:normal;font-weight:normal;font-stretch:normal;line-height:0%;font-family:Lavi;-inkscape-font-specification:Lavi;text-align:center;letter-spacing:0px;word-spacing:0px;text-anchor:middle;fill:#000000;fill-opacity:1;stroke:none"
       x="2058.6455"
       y="2029.0656"
       id="text4246-2-7"><tspan
         sodipodi:role="line"
         style="font-size:45px;line-height:1.25"
         x="2065.6768"
         y="2029.0656"
         id="tspan6170">Det har ikkje noko </tspan><tspan
         sodipodi:role="line"
         style="font-size:45px;line-height:1.25"
         x="2065.6768"
         y="2085.3157"
         id="tspan6174">føre seg å vera misunneleg </tspan><tspan
         sodipodi:role="line"
         style="font-size:45px;line-height:1.25"
         x="2058.6455"
         y="2141.5657"
         id="tspan6176">på at andre gjer det bra!</tspan></text>
  </g>
</svg>
