<?xml version="1.0" encoding="UTF-8" standalone="no"?>
<!-- Created with Inkscape (http://www.inkscape.org/) -->

<svg
   id="svg2"
   version="1.1"
   inkscape:version="1.1 (c68e22c387, 2021-05-23)"
   width="2481"
   height="3503"
   sodipodi:docname="E36P11.svg"
   xmlns:inkscape="http://www.inkscape.org/namespaces/inkscape"
   xmlns:sodipodi="http://sodipodi.sourceforge.net/DTD/sodipodi-0.dtd"
   xmlns:xlink="http://www.w3.org/1999/xlink"
   xmlns="http://www.w3.org/2000/svg"
   xmlns:svg="http://www.w3.org/2000/svg"
   xmlns:rdf="http://www.w3.org/1999/02/22-rdf-syntax-ns#"
   xmlns:cc="http://creativecommons.org/ns#"
   xmlns:dc="http://purl.org/dc/elements/1.1/">
  <metadata
     id="metadata8">
    <rdf:RDF>
      <cc:Work
         rdf:about="">
        <dc:format>image/svg+xml</dc:format>
        <dc:type
           rdf:resource="http://purl.org/dc/dcmitype/StillImage" />
        <dc:title />
      </cc:Work>
    </rdf:RDF>
  </metadata>
  <defs
     id="defs6" />
  <sodipodi:namedview
     pagecolor="#1e1e1e"
     bordercolor="#111111"
     borderopacity="1"
     objecttolerance="10"
     gridtolerance="10"
     guidetolerance="10"
     inkscape:pageopacity="0"
     inkscape:pageshadow="2"
     inkscape:window-width="1920"
     inkscape:window-height="1056"
     id="namedview4"
     showgrid="false"
     inkscape:zoom="0.46000002"
     inkscape:cx="1043.4782"
     inkscape:cy="2872.826"
     inkscape:window-x="1920"
     inkscape:window-y="0"
     inkscape:window-maximized="1"
     inkscape:current-layer="layer1"
     inkscape:pagecheckerboard="0"
     inkscape:snap-global="false" />
  <g
     inkscape:groupmode="layer"
     id="layer2"
     inkscape:label="artwork"
     sodipodi:insensitive="true">
    <image
       xlink:href="../gfx_Pepper-and-Carrot_by-David-Revoy_E36P11.png"
       y="0"
       x="0"
       id="image10"
       height="3503"
       width="2481" />
  </g>
  <g
     inkscape:groupmode="layer"
     id="layer3"
     inkscape:label="speechbubbles"
     style="display:inline">
    <path
       style="color:#000000;display:inline;overflow:visible;visibility:visible;fill:#ffffff;fill-opacity:1;fill-rule:nonzero;stroke:none;stroke-width:0.649444px;marker:none;enable-background:accumulate"
       d="m 384.22008,282.95177 c -36.52082,21.41551 -81.08506,17.53589 -121.80587,16.52247 -42.52036,-3.44423 -93.06761,-16.67254 -112.2994,-58.54734 -17.96129,-38.78476 2.10016,-87.11707 40.45297,-105.22628 35.18838,-16.98124 75.64954,-18.66814 114.10065,-19.46171 49.92399,1.16875 104.76155,32.33519 112.49934,84.58625 4.21244,30.58574 -9.514,62.20135 -32.94769,82.12661 z"
       id="path4040-40"
       inkscape:connector-curvature="0"
       sodipodi:nodetypes="zssssz" />
    <path
       style="color:#000000;display:inline;overflow:visible;visibility:visible;fill:#ffffff;fill-opacity:1;fill-rule:nonzero;stroke:none;stroke-width:0.895703px;marker:none;enable-background:accumulate"
       d="m 617.61025,105.88672 c -27.34146,0.48289 -55.30789,1.99485 -81.01026,10.55273 -19.27663,6.28483 -36.60817,17.59434 -46.89078,32.88401 -10.78797,15.11503 -15.24648,32.66921 -17.99958,49.9598 -3.75274,20.5909 -5.45897,42.02901 1.14989,62.34728 10.14236,29.028 40.31222,51.93542 75.16053,58.49046 45.59561,10.88095 94.50308,13.37614 140.83587,4.25676 26.56867,-5.64189 52.37207,-15.47968 72.95579,-30.96068 13.87857,-11.91714 20.4242,-28.63021 21.90443,-45.0154 2.97723,-25.0214 3.57178,-50.80265 -4.83215,-75.17205 -8.00131,-22.85714 -29.42504,-41.60583 -55.43746,-50.51416 -20.18886,-7.20666 -41.79469,-10.9992 -63.31684,-14.11157 -14.05315,-1.87992 -28.28771,-2.85024 -42.51944,-2.71718 z"
       id="path3365-90"
       inkscape:connector-curvature="0"
       sodipodi:nodetypes="csssssc" />
    <path
       style="color:#000000;display:inline;overflow:visible;visibility:visible;fill:#ffffff;fill-opacity:1;fill-rule:nonzero;stroke:none;stroke-width:1.04709px;marker:none;enable-background:accumulate"
       d="m 841.7647,253.23429 c 0.69722,-53.37318 14.27874,-103.84716 134.6761,-102.10038 90.2745,1.30895 114.3152,42.43199 116.3152,96.38138 1.4096,38.01967 -47.4296,73.2116 -124.99085,71.34686 -74.13375,-1.78194 -120.5789,-24.9245 -126.00045,-65.62786 z"
       id="path5026-3"
       inkscape:connector-curvature="0"
       sodipodi:nodetypes="csssc" />
    <path
       style="color:#000000;display:inline;overflow:visible;visibility:visible;fill:#ffffff;fill-opacity:1;fill-rule:nonzero;stroke:none;stroke-width:1.06703px;marker:none;enable-background:accumulate"
       d="m 958.1944,309.83323 c -43.34053,0.0194 -52.18434,75.22752 -14.63328,128.2568 -16.5114,-21.59304 -72.61174,-61.13455 -7.77479,-172.66812 29.32893,-50.45175 14.74185,29.39163 14.74185,29.39163 z"
       id="path4035-4"
       inkscape:connector-curvature="0"
       sodipodi:nodetypes="ccscc" />
    <path
       style="color:#000000;display:inline;overflow:visible;visibility:visible;fill:#ffffff;fill-opacity:1;fill-rule:nonzero;stroke:none;stroke-width:0.949437px;marker:none;enable-background:accumulate"
       d="m 997.68365,1094.6247 c -28.32056,1.0029 -57.04205,6.7706 -81.71801,20.5504 -17.56982,10.8103 -28.85772,29.2081 -33.41697,48.4378 -8.50987,33.722 -11.46114,69.09 -5.51581,103.443 2.52522,14.018 6.34411,27.9883 13.03998,40.7455 4.45509,8.0641 11.26963,14.9526 19.70026,19.2706 11.43294,6.4988 23.80946,11.293 36.16973,15.8995 24.45131,8.3361 50.44219,11.3559 76.20807,13.0514 12.1757,0.7232 24.3808,-0.6605 36.2274,-3.3399 15.477,-3.4583 30.5184,-8.5983 45.0437,-14.738 19.1633,-8.6759 37.1093,-21.4297 47.9131,-39.2156 10.5585,-17.3125 13.9626,-37.54 15.5307,-57.2503 2.2268,-25.6082 1.3938,-52.0446 -7.6563,-76.484 -8.2668,-21.5968 -25.5232,-39.9866 -47.3857,-49.6577 -25.4613,-11.8236 -53.7617,-16.1409 -81.6052,-19.3281 -10.7988,-1.0909 -21.6762,-1.6584 -32.53495,-1.3846 z"
       id="path3365-90-4"
       inkscape:connector-curvature="0"
       sodipodi:nodetypes="csssssc" />
    <path
       style="fill:#ffffff;fill-rule:evenodd;stroke:none;stroke-width:1.18884px;stroke-linecap:butt;stroke-linejoin:miter;stroke-opacity:1"
       d="m 1051.5368,1104.645 c -7.0579,-18.4075 1.4646,-58.4739 28.7582,-72.4342 -20.0938,4.5574 -50.5407,19.6541 -55.3048,46.5586 -7.4355,41.9896 24.8168,27.8537 24.8168,27.8537 z"
       id="path4248"
       inkscape:connector-curvature="0"
       sodipodi:nodetypes="ccscc" />
    <path
       style="color:#000000;display:inline;overflow:visible;visibility:visible;fill:#ffffff;fill-opacity:1;fill-rule:nonzero;stroke:none;stroke-width:1.57963px;marker:none;enable-background:accumulate"
       d="m 1775.774,1162.7593 c -59.0513,1.2504 -117.9018,5.9054 -176.579,11.2584 -25.6937,2.707 -52.385,6.0999 -74.6154,17.743 -33.9173,17.7334 -56.2854,49.96 -55.7144,83.0804 -1.2421,24.6175 3.5855,50.5164 20.8387,71.2422 18.6677,22.045 49.4274,35.77 81.272,40.4528 44.0071,7.5176 89.0131,9.6759 133.3283,15.6091 70.2663,7.7288 140.3686,17.021 211.139,21.1463 68.7971,2.339 137.4657,-8.3822 202.4465,-26.3977 27.7106,-6.9604 56.1668,-14.8978 78.3362,-30.7916 21.3101,-15.0794 33.5511,-37.7544 34.8195,-60.6448 2.7788,-22.744 0.7395,-46.4268 -10.2932,-67.638 -10.0662,-17.5971 -28.6899,-31.4705 -50.4592,-38.992 -30.7766,-11.8597 -64.485,-16.9804 -97.5982,-22.4383 -58.6384,-8.7229 -118.348,-10.846 -177.8228,-11.6758 -39.6932,-0.8502 -79.3849,-2.036 -119.098,-1.954 z"
       id="path4546-6-5"
       inkscape:connector-curvature="0"
       sodipodi:nodetypes="cssssc" />
    <path
       style="color:#000000;display:inline;overflow:visible;visibility:visible;fill:#ffffff;fill-opacity:1;fill-rule:nonzero;stroke:none;stroke-width:1.08157px;marker:none;enable-background:accumulate"
       d="m 1689.5018,1378.7198 c -17.4508,0.7686 -35.1203,1.5531 -52.146,6.4878 -21.4842,6.7228 -41.6772,21.5376 -52.779,43.0811 -7.6744,15.3973 -8.0923,34.7592 -0.5263,49.9925 8.2374,17.3844 23.5273,29.2546 39.4449,37.5218 25.9509,13.303 55.0385,17.0248 83.5259,19.2006 34.5142,2.4153 69.1744,1.7256 103.7675,2.3266 65.4214,0.3822 130.8954,1.051 196.3243,-2.7314 25.1025,-1.8246 50.3556,-4.3611 74.8432,-11.3215 18.1349,-5.5469 36.2493,-14.8541 48.5341,-30.9849 13.4829,-18.2228 16.263,-44.8387 6.5736,-65.318 -8.1459,-18.297 -24.0535,-31.6625 -41.9387,-37.2899 -38.1407,-14.7003 -79.5288,-19.0046 -120.0169,-14.3817 -24.9065,2.5405 -49.8968,6.3149 -74.8949,4.5964 -28.1329,-1.2172 -56.2286,-3.4825 -84.4289,-3.1143 -40.6457,-0.3109 -81.31,0.9637 -121.9643,1.7698 -1.4395,0.055 -2.8789,0.1102 -4.3185,0.1654 z"
       id="path4546-6-5-7-9"
       inkscape:connector-curvature="0"
       sodipodi:nodetypes="cssssc" />
    <path
       style="color:#000000;display:inline;overflow:visible;visibility:visible;fill:#ffffff;fill-opacity:1;fill-rule:nonzero;stroke:none;stroke-width:1.16782px;marker:none;enable-background:accumulate"
       d="m 1834.6759,1063.9074 c -58.4661,16.7056 -74.2086,55.188 -42.9987,96.676 31.21,41.487 10.2962,43.1429 10.2962,43.1429 l -38.5277,-15.376 c 0,0 -61.7873,-122.5503 71.2302,-124.4429 z"
       id="path3072-56"
       inkscape:connector-curvature="0"
       sodipodi:nodetypes="ccccc" />
    <path
       style="color:#000000;display:inline;overflow:visible;visibility:visible;fill:#ffffff;fill-opacity:1;fill-rule:nonzero;stroke:none;stroke-width:0.531213px;marker:none;enable-background:accumulate"
       d="m 158.48854,1627.5134 c 13.03968,-13.7787 173.89537,-23.5914 211.05478,7.571 25.89645,21.7169 15.90638,63.3637 -6.29018,74.2047 -22.19657,10.8417 -129.36004,13.8952 -159.81775,8.3737 -27.38917,-4.9645 -56.13819,-15.6511 -57.65388,-44.0939 -0.6186,-11.6083 -0.33265,-32.2773 12.70703,-46.0555 z"
       id="path4040-5"
       inkscape:connector-curvature="0"
       sodipodi:nodetypes="zssssz" />
    <path
       style="color:#000000;display:inline;overflow:visible;visibility:visible;fill:#ffffff;fill-opacity:1;fill-rule:nonzero;stroke:none;stroke-width:0.82036px;marker:none;enable-background:accumulate"
       d="m 221.469,1712.5896 c 19.02981,-22.517 253.77893,-38.5528 308.00854,12.3724 37.79269,35.4896 23.2134,103.5483 -9.17974,121.2646 -32.39317,17.7174 -188.78511,22.7074 -233.23438,13.6842 -39.97115,-8.1128 -81.92681,-25.5768 -84.13878,-72.0577 -0.90274,-18.9703 -0.48545,-52.7473 18.54436,-75.2635 z"
       id="path4040-5-3"
       inkscape:connector-curvature="0"
       sodipodi:nodetypes="zssssz" />
    <path
       style="color:#000000;display:inline;overflow:visible;visibility:visible;fill:#ffffff;fill-opacity:1;fill-rule:nonzero;stroke:none;stroke-width:0.855677px;marker:none;enable-background:accumulate"
       d="m 467.32955,1948.136 c 13.3495,-41.5666 52.33232,-60.4288 7.51958,-104.8642 -33.47159,-33.1897 12.91326,-29.7973 12.91326,-29.7973 0,0 5.02259,-41.3782 24.01835,27.0751 18.99576,68.4534 -9.8869,64.3755 -44.45119,107.5864 z"
       id="path3072-6"
       inkscape:connector-curvature="0"
       sodipodi:nodetypes="csczc" />
    <path
       style="fill:#ffffff;stroke:none;stroke-width:1.06269"
       d="m 648.85732,1730.1201 c -11.22175,-76.5007 70.8139,-115.1924 131.15308,-112.723 88.78518,-8.7008 178.60453,-5.3418 267.0976,4.4695 66.501,10.7781 109.1027,94.2417 71.8849,156.3201 -42.1876,64.3363 -124.96626,56.6219 -190.17054,62.9721 -75.86992,1.7482 -155.17027,-0.035 -226.33463,-30.4452 -28.1094,-16.6843 -46.54473,-47.7754 -53.63041,-80.5935 z"
       id="path3286-6"
       inkscape:connector-curvature="0"
       sodipodi:nodetypes="csssssssc" />
    <path
       style="fill:#ffffff;stroke:none;stroke-width:1.06171"
       d="m 645.19437,1891.1592 c -12.14838,-70.5352 76.66136,-106.2095 141.98305,-103.9328 96.11663,-8.0223 193.35285,-4.9253 289.15308,4.121 71.9924,9.9376 118.112,86.8927 77.8209,144.1301 -45.6712,59.3193 -135.2853,52.2065 -205.87384,58.0615 -82.13486,1.6119 -167.98352,-0.032 -245.02424,-28.0711 -30.43054,-15.3831 -50.38817,-44.0497 -58.05895,-74.3087 z"
       id="path3286-6-7"
       inkscape:connector-curvature="0"
       sodipodi:nodetypes="csssssssc" />
    <path
       style="fill:#ffffff;stroke:none;stroke-width:0.934107"
       d="m 672.0249,1988.2364 c -4.3974,-53.9327 89.50627,-81.2101 155.38033,-79.4692 98.20338,-6.134 196.29447,-3.7659 292.26567,3.151 71.769,7.5985 109.8384,66.44 62.6378,110.205 -52.8806,45.3569 -142.8057,39.9181 -214.92247,44.3951 -83.33073,1.2324 -170.05635,-0.025 -244.90858,-21.4638 -29.08349,-11.7623 -46.07669,-33.6814 -50.45275,-56.8181 z"
       id="path3286-6-7-4"
       inkscape:connector-curvature="0"
       sodipodi:nodetypes="csssssssc" />
    <path
       style="fill:#ffffff;stroke:none;stroke-width:0.755494"
       d="m 1556.1078,2263.7186 c -40.5776,0.9856 -81.571,1.4285 -121.3541,8.2171 -23.4836,5.0646 -46.516,14.6572 -60.3222,30.3859 -12.0378,15.0743 -10.4346,34.6485 0.032,49.9505 8.638,14.5227 26.7065,25.5007 47.2516,28.7663 46.3375,10.8118 95.2925,11.8471 143.394,11.8441 44.0679,-0.2085 88.1393,-2.118 131.9173,-5.9578 24.2957,-2.6624 49.3393,-8.0568 67.8913,-20.8645 22.4519,-15.4056 32.2393,-41.4194 21.0864,-63.0951 -7.7078,-14.8343 -25.3174,-25.8059 -45.0785,-30.5955 -20.8526,-5.1627 -43.0509,-4.7949 -64.6804,-6.0981 -39.6502,-1.8463 -79.3882,-3.227 -119.119,-2.5776 -0.3394,0.011 -0.6788,0.016 -1.0182,0.025 z"
       id="path3286-6-7-4-2-5"
       inkscape:connector-curvature="0"
       sodipodi:nodetypes="csssssssc" />
    <path
       style="display:inline;fill:#ffffff;stroke:none;stroke-width:1.10592"
       d="m 1571.9645,2337.0157 c -45.5393,1.8818 -91.5454,2.7273 -136.193,15.6894 -26.3552,9.67 -52.204,27.9859 -67.6984,58.0176 -13.5098,28.7823 -11.7105,66.1564 0.036,95.3735 9.6942,27.7291 29.9722,48.69 53.0295,54.9252 52.0035,20.6436 106.9447,22.6204 160.9279,22.6148 49.4565,-0.3981 98.9169,-4.0442 148.048,-11.3756 27.2665,-5.0835 55.3723,-15.3833 76.1929,-39.8379 25.1972,-29.4149 36.1814,-79.0846 23.6649,-120.4713 -8.6505,-28.3241 -28.4132,-49.2728 -50.5908,-58.4179 -23.4023,-9.8576 -48.315,-9.1553 -72.5893,-11.6434 -44.4986,-3.5253 -89.0958,-6.1616 -133.6847,-4.9216 -0.3808,0.021 -0.7618,0.031 -1.1425,0.048 z"
       id="path3286-6-7-4-2-5-3"
       inkscape:connector-curvature="0"
       sodipodi:nodetypes="csssssssc" />
    <path
       style="color:#000000;display:inline;overflow:visible;visibility:visible;fill:#ffffff;fill-opacity:1;fill-rule:nonzero;stroke:none;stroke-width:1.03365px;marker:none;enable-background:accumulate"
       d="m 1137.317,1993.4501 c -8.1997,41.8065 59.3043,70.6591 115.2035,48.7714 -22.9931,10.09 -81.6027,63.8105 -171.9044,-28.8625 -40.8476,-41.9203 41.4313,-16.5735 41.4313,-16.5735 z"
       id="path4035-4-5"
       inkscape:connector-curvature="0"
       sodipodi:nodetypes="ccscc" />
    <path
       style="color:#000000;display:inline;overflow:visible;visibility:visible;fill:#ffffff;fill-opacity:1;fill-rule:nonzero;stroke:none;stroke-width:1.14715px;marker:none;enable-background:accumulate"
       d="m 1640.0206,2360.0065 c 85.321,-69.4317 155.0537,-160.9776 126.0876,-275.9291 50.0818,114.8531 -29.8722,233.4391 -50.2498,258.0963 -21.5049,26.0213 -75.8378,17.8328 -75.8378,17.8328 z"
       id="path4008-7"
       inkscape:connector-curvature="0"
       sodipodi:nodetypes="ccsc" />
    <path
       style="color:#000000;display:inline;overflow:visible;visibility:visible;fill:#ffffff;fill-opacity:1;fill-rule:nonzero;stroke:none;stroke-width:0.923908px;marker:none;enable-background:accumulate"
       d="m 1999.7453,2481.5298 c 2.3308,-54.303 42.207,-94.2785 147.9697,-84.7482 56.6523,5.1058 120.9338,8.2785 118.1755,87.8248 -2.7583,79.5464 -95.096,78.0975 -114.1175,80.0803 -19.0213,1.9828 -118.4149,-5.7151 -136.2571,-32.6526 -11.1688,-16.8627 -15.7793,-33.6902 -15.7706,-50.5043 z"
       id="path4546-6-89"
       inkscape:connector-curvature="0"
       sodipodi:nodetypes="cssssc" />
    <path
       style="fill:#ffffff;fill-rule:evenodd;stroke:none;stroke-width:1px;stroke-linecap:butt;stroke-linejoin:miter;stroke-opacity:1"
       d="m 2127.4405,2420.4639 c 0,0 -20.8561,-32.9672 -21.8804,-43.1562 -1.0243,-10.189 2.4576,-31.6896 11.9397,-43.6552 -22.2118,19.0145 -28.0641,35.9803 -27.9104,44.0276 0.1532,8.0482 12.5159,40.8376 12.5159,40.8376 z"
       id="path1367"
       inkscape:connector-curvature="0"
       inkscape:transform-center-x="-1.8067567"
       inkscape:transform-center-y="-52.12792"
       sodipodi:nodetypes="cscscc" />
    <path
       style="color:#000000;display:inline;overflow:visible;visibility:visible;fill:#ffffff;fill-opacity:1;fill-rule:nonzero;stroke:none;stroke-width:0.942339px;marker:none;enable-background:accumulate"
       d="m 344.6648,2688.4878 c -50.60513,0.5708 -102.02477,2.3063 -150.91773,20.2949 -24.12609,9.316 -47.03358,27.3632 -60.49879,54.6 -12.11064,24.5018 -15.32361,56.6281 -5.42591,83.1112 8.75364,24.5329 27.61742,42.3971 48.51963,47.9668 28.10941,10.2056 57.1283,15.7397 86.0694,20.7786 78.01441,12.397 157.66238,11.9336 235.13485,-5.7705 21.85061,-5.1737 43.84218,-13.5905 61.78001,-30.5738 14.41973,-13.2844 26.04566,-32.3192 29.75511,-54.5101 6.32949,-33.8827 -2.58454,-72.679 -24.7921,-94.5648 -16.09266,-15.7188 -36.4584,-21.9881 -56.17009,-26.5667 -32.93369,-7.3205 -66.38948,-9.7106 -99.71042,-12.6139 -21.2265,-1.4372 -42.48493,-2.2507 -63.74396,-2.1517 z"
       id="path4546-7"
       inkscape:connector-curvature="0"
       sodipodi:nodetypes="cssssc" />
    <path
       style="color:#000000;display:inline;overflow:visible;visibility:visible;fill:#ffffff;fill-opacity:1;fill-rule:nonzero;stroke:none;stroke-width:1.28003px;marker:none;enable-background:accumulate"
       d="m 305.45732,2871.5128 c -39.1385,0.8798 -78.71676,6.6292 -113.47076,27.7275 -21.32645,13.3078 -40.42204,34.2511 -50.26199,63.2745 -9.39363,26.9751 -11.45978,60.1059 -2.39198,90.1094 5.76962,19.749 14.847,38.4718 26.99721,52.8112 12.37784,12.49 27.19387,18.5449 41.51628,24.3042 31.13082,11.6767 62.90923,16.736 94.48071,20.8297 24.66076,2.934 49.34733,5.1501 73.91146,5.3373 21.30745,-0.5873 42.52666,-2.3205 63.52716,-5.4407 28.73712,-4.6484 57.38681,-13.4437 81.76737,-32.6752 17.00839,-13.7089 31.39301,-34.3859 36.66992,-60.8655 5.20721,-25.6238 3.46777,-54.0881 -3.11393,-80.5259 -6.29391,-23.9077 -19.35584,-45.1569 -35.78472,-58.5423 -23.20822,-19.616 -49.9181,-27.4689 -75.84619,-33.0457 -32.31084,-6.7488 -64.68524,-8.9794 -97.0059,-12.1022 -13.69311,-0.9779 -27.37041,-1.4233 -40.99464,-1.1963 z"
       id="path4546-6-5-4"
       inkscape:connector-curvature="0"
       sodipodi:nodetypes="cssssc" />
    <path
       style="color:#000000;display:inline;overflow:visible;visibility:visible;fill:#ffffff;fill-opacity:1;fill-rule:nonzero;stroke:none;stroke-width:0.94912px;marker:none;enable-background:accumulate"
       d="m 570.40008,2788.5105 c 0.70291,-20.5931 2.79564,-98.204 79.29359,-67.917 -12.96153,-15.3177 -101.3034,-57.4847 -117.55274,67.9555 -4.05901,31.3344 6.93857,21.4416 13.2428,23.8225 6.30431,2.3809 25.01635,-23.861 25.01635,-23.861 z"
       id="path4064-5"
       inkscape:connector-curvature="0"
       sodipodi:nodetypes="ccszc" />
    <path
       style="fill:#ffffff;stroke:none;stroke-width:0.817395"
       d="m 1425.463,2661.7448 c -65.771,0.9233 -131.8295,3.0072 -196.7943,13.7868 -24.5196,4.2349 -49.5863,9.6729 -70.8511,22.854 -12.2738,7.6153 -22.5415,18.2822 -29.0923,30.9504 -11.1135,20.4817 -15.2472,44.1433 -13.7785,67.129 1.7523,22.6463 10.9116,45.3697 28.2972,60.9924 18.3294,16.9557 42.4828,26.3212 66.5633,32.6695 32.2485,8.2434 65.6915,10.5336 98.8765,12.1032 48.14,1.8442 96.3274,0.5955 144.4698,-0.4765 54.0085,-1.6962 108.4488,-5.1368 160.9207,-18.4821 24.8818,-6.6438 49.8033,-15.6931 69.9926,-31.7281 13.0102,-10.6908 23.1372,-25.6331 24.7989,-42.3978 2.126,-16.1243 0.4882,-32.522 -2.7319,-48.399 -5.4024,-22.5265 -19.0121,-43.304 -38.5496,-56.7029 -23.7993,-17.2682 -52.8413,-25.7704 -81.5903,-31.476 -42.8121,-8.2674 -86.5833,-10.2803 -130.1299,-10.915 -10.1343,-0.1186 -20.2676,-0.073 -30.4011,0.092 z"
       id="path3280-8-0"
       inkscape:connector-curvature="0"
       sodipodi:nodetypes="csssc" />
    <path
       style="color:#000000;display:inline;overflow:visible;visibility:visible;fill:#ffffff;fill-opacity:1;fill-rule:nonzero;stroke:none;stroke-width:1px;marker:none;enable-background:accumulate"
       d="m 1190.5649,2938.1193 c 71.9512,20.8726 126.9981,-3.0998 138.6013,-80.4717 29.2254,-33.921 39.4944,-8.1295 39.4944,-8.1295 0,0 9.6333,15.8558 9.2,26.1866 -1.6876,40.2341 -97.4111,114.3526 -187.2957,62.4146 z"
       id="path3072-7"
       inkscape:connector-curvature="0"
       sodipodi:nodetypes="cccsc" />
    <path
       style="fill:#ffffff;fill-rule:evenodd;stroke:none;stroke-width:1px;stroke-linecap:butt;stroke-linejoin:miter;stroke-opacity:1"
       d="m 611.87816,457.91854 c -12.3953,-22.626 4.8341,-35.579 4.6846,-49.244 -0.1543,-14.107 -33.2797,-25.956 -34.0153,-39.032 -0.7356,-13.076 20.5032,-26.957 19.032,-47.388 -1.4712,-20.432 -25.011,-24.518 -22.8041,-0.818 2.2069,23.701 -15.6571,27.839 -11.7699,46.584 6.483,31.261 30.8848,30.638 38.523,39.431 5.057,5.822 -4.6847,18.594 -2.4778,32.487 2.2069,13.894 8.8275,17.98 8.8275,17.98 z"
       id="path4272-2"
       inkscape:connector-curvature="0"
       sodipodi:nodetypes="csssssssc" />
    <path
       style="display:inline;fill:#ffffff;stroke:none;stroke-width:0.877336"
       d="M 395.5572,452.67668 C 407.56611,407.77396 413.32098,333.81277 360.54542,296.86263 333.08948,277.6397 320.11233,262.96148 320.11233,262.96148 l 22.24546,-19.14958 c 105.35115,77.35453 72.21397,163.85407 53.19941,208.86478 z"
       id="path3063-1-0"
       inkscape:connector-curvature="0"
       sodipodi:nodetypes="csccc" />
  </g>
  <g
     inkscape:groupmode="layer"
     id="layer1"
     inkscape:label="txt">
    <text
       id="text4246-4-2-7"
       y="195.79843"
       x="276.44409"
       style="font-style:normal;font-variant:normal;font-weight:normal;font-stretch:normal;line-height:0%;font-family:Lavi;-inkscape-font-specification:Lavi;text-align:center;letter-spacing:0px;word-spacing:0px;text-anchor:middle;fill:#000000;fill-opacity:1;stroke:none"
       xml:space="preserve"><tspan
         y="195.79843"
         x="276.44409"
         style="font-size:45px;line-height:1.25;fill:#000000"
         sodipodi:role="line"
         id="tspan1639">Pyth eus</tspan><tspan
         y="252.04843"
         x="276.44409"
         style="font-size:45px;line-height:1.25;fill:#000000"
         sodipodi:role="line"
         id="tspan2967">gensi?</tspan></text>
    <text
       id="text4246-4-2-7-3"
       y="176.08881"
       x="630.43268"
       style="font-style:normal;font-variant:normal;font-weight:normal;font-stretch:normal;line-height:0%;font-family:Lavi;-inkscape-font-specification:Lavi;text-align:center;letter-spacing:0px;word-spacing:0px;text-anchor:middle;fill:#000000;fill-opacity:1;stroke:none"
       xml:space="preserve"><tspan
         y="176.08881"
         x="630.43268"
         style="font-size:45px;line-height:1.25;fill:#000000"
         sodipodi:role="line"
         id="tspan3727">Pepper?</tspan><tspan
         y="232.33881"
         x="630.43268"
         style="font-size:45px;line-height:1.25;fill:#000000"
         sodipodi:role="line"
         id="tspan7366">Yw puptra</tspan><tspan
         y="288.58881"
         x="630.43268"
         style="font-size:45px;line-height:1.25;fill:#000000"
         sodipodi:role="line"
         id="tspan10316">da lowr?</tspan></text>
    <text
       id="text4246-4-2-7-3-5"
       y="216.69748"
       x="970.14368"
       style="font-style:normal;font-variant:normal;font-weight:normal;font-stretch:normal;line-height:0%;font-family:Lavi;-inkscape-font-specification:Lavi;text-align:center;letter-spacing:0px;word-spacing:0px;text-anchor:middle;fill:#000000;fill-opacity:1;stroke:none"
       xml:space="preserve"><tspan
         y="216.69748"
         x="970.14368"
         style="font-size:45px;line-height:1.25;fill:#000000"
         sodipodi:role="line"
         id="tspan6111">Yw,</tspan><tspan
         y="272.94748"
         x="970.14368"
         style="font-size:45px;line-height:1.25;fill:#000000"
         sodipodi:role="line"
         id="tspan17268">splann ov.</tspan></text>
    <text
       id="text4246-4-2-7-3-5-2"
       y="1182.2913"
       x="1019.6119"
       style="font-style:normal;font-variant:normal;font-weight:normal;font-stretch:normal;line-height:0%;font-family:Lavi;-inkscape-font-specification:Lavi;text-align:center;letter-spacing:0px;word-spacing:0px;text-anchor:middle;fill:#000000;fill-opacity:1;stroke:none"
       xml:space="preserve"><tspan
         y="1182.2913"
         x="1019.6119"
         style="font-size:45px;line-height:1.25;fill:#000000"
         sodipodi:role="line"
         id="tspan9293">Y konvedhis</tspan><tspan
         y="1238.5413"
         x="1019.6119"
         style="font-size:45px;line-height:1.25;fill:#000000"
         sodipodi:role="line"
         id="tspan23627">neppyth</tspan><tspan
         y="1294.7913"
         x="1019.6119"
         style="font-size:45px;line-height:1.25;fill:#000000"
         sodipodi:role="line"
         id="tspan25929">namnygen.</tspan></text>
    <text
       id="text4246-4-2-7-3-5-2-2"
       y="1236.7903"
       x="1854.0396"
       style="font-style:normal;font-variant:normal;font-weight:normal;font-stretch:normal;line-height:0%;font-family:Lavi;-inkscape-font-specification:Lavi;text-align:center;letter-spacing:0px;word-spacing:0px;text-anchor:middle;fill:#000000;fill-opacity:1;stroke:none"
       xml:space="preserve"><tspan
         y="1236.7903"
         x="1854.0396"
         style="font-size:45px;line-height:1.25;fill:#000000"
         sodipodi:role="line"
         id="tspan10626">Puptra re hwarva yw,</tspan><tspan
         y="1293.0403"
         x="1854.0396"
         style="font-size:45px;line-height:1.25;fill:#000000"
         sodipodi:role="line"
         id="tspan5516">po yn tidro po yn andhidro,sewyans</tspan><tspan
         y="1349.2903"
         x="1854.0396"
         style="font-size:45px;line-height:1.25;fill:#000000"
         sodipodi:role="line"
         id="tspan10142"> ow gweythresow, ow erviransow...</tspan></text>
    <text
       id="text4246-4-2-7-3-5-2-2-6"
       y="1432.9945"
       x="1862.4454"
       style="font-style:normal;font-variant:normal;font-weight:normal;font-stretch:normal;line-height:0%;font-family:Lavi;-inkscape-font-specification:Lavi;text-align:center;letter-spacing:0px;word-spacing:0px;text-anchor:middle;fill:#000000;fill-opacity:1;stroke:none"
       xml:space="preserve"><tspan
         y="1432.9945"
         x="1862.4454"
         style="font-style:normal;font-variant:normal;font-weight:normal;font-stretch:normal;font-size:45px;line-height:1.25;font-family:Lavi;-inkscape-font-specification:Lavi;fill:#000000"
         sodipodi:role="line"
         id="tspan48292">...yn geryow erel</tspan><tspan
         y="1489.2445"
         x="1862.4454"
         style="font-style:normal;font-variant:normal;font-weight:bold;font-stretch:normal;font-size:45px;line-height:1.25;font-family:Lavi;-inkscape-font-specification:Lavi;fill:#000000"
         sodipodi:role="line"
         id="tspan16620">ow dasoberyans kadon!</tspan></text>
    <text
       id="text4246-4-2-7-3-5-2-2-6-7-2"
       y="1679.4132"
       x="256.14807"
       style="font-style:normal;font-variant:normal;font-weight:normal;font-stretch:normal;line-height:0%;font-family:Lavi;-inkscape-font-specification:Lavi;text-align:center;letter-spacing:0px;word-spacing:0px;text-anchor:middle;fill:#000000;fill-opacity:1;stroke:none"
       xml:space="preserve"><tspan
         y="1679.4132"
         x="256.14807"
         style="font-style:normal;font-variant:normal;font-weight:normal;font-stretch:normal;font-size:45px;line-height:1.25;font-family:Lavi;-inkscape-font-specification:Lavi;fill:#000000"
         sodipodi:role="line"
         id="tspan104696-2-8">Yn hwir?</tspan></text>
    <text
       id="text4246-4-2-7-3-5-2-2-6-7-2-9"
       y="1764.6151"
       x="378.92795"
       style="font-style:normal;font-variant:normal;font-weight:normal;font-stretch:normal;line-height:0%;font-family:Lavi;-inkscape-font-specification:Lavi;text-align:center;letter-spacing:0px;word-spacing:0px;text-anchor:middle;fill:#000000;fill-opacity:1;stroke:none"
       xml:space="preserve"><tspan
         y="1764.6151"
         x="378.92795"
         style="font-style:normal;font-variant:normal;font-weight:normal;font-stretch:normal;font-size:45px;line-height:1.25;font-family:Lavi;-inkscape-font-specification:Lavi;fill:#000000"
         sodipodi:role="line"
         id="tspan168035">Y tegoodh</tspan><tspan
         y="1820.8651"
         x="378.92795"
         style="font-style:normal;font-variant:normal;font-weight:normal;font-stretch:normal;font-size:45px;line-height:1.25;font-family:Lavi;-inkscape-font-specification:Lavi;fill:#000000"
         sodipodi:role="line"
         id="tspan55293">dhis displegya.</tspan></text>
    <text
       id="text4246-4-2-7-3-5-2-2-6-7-2-9-3"
       y="1676.4771"
       x="897.13013"
       style="font-style:normal;font-variant:normal;font-weight:normal;font-stretch:normal;line-height:0%;font-family:Lavi;-inkscape-font-specification:Lavi;text-align:center;letter-spacing:0px;word-spacing:0px;text-anchor:middle;fill:#000000;fill-opacity:1;stroke:none"
       xml:space="preserve"><tspan
         y="1676.4771"
         x="897.13013"
         style="font-style:normal;font-variant:normal;font-weight:normal;font-stretch:normal;font-size:45px;line-height:1.25;font-family:Lavi;-inkscape-font-specification:Lavi;fill:#000000"
         sodipodi:role="line"
         id="tspan64017">Klapp lowr, </tspan><tspan
         y="1732.7271"
         x="897.13013"
         style="font-style:normal;font-variant:normal;font-weight:normal;font-stretch:normal;font-size:45px;line-height:1.25;font-family:Lavi;-inkscape-font-specification:Lavi;fill:#000000"
         sodipodi:role="line"
         id="tspan68765">yth eson</tspan><tspan
         y="1788.9771"
         x="897.13013"
         style="font-style:normal;font-variant:normal;font-weight:normal;font-stretch:normal;font-size:45px;line-height:1.25;font-family:Lavi;-inkscape-font-specification:Lavi;fill:#000000"
         sodipodi:role="line"
         id="tspan72039">yn kres kaslan.</tspan></text>
    <text
       id="text4246-4-2-7-3-5-2-2-6-7-2-9-3-2"
       y="1868.5121"
       x="910.66687"
       style="font-style:normal;font-variant:normal;font-weight:normal;font-stretch:normal;line-height:0%;font-family:Lavi;-inkscape-font-specification:Lavi;text-align:center;letter-spacing:0px;word-spacing:0px;text-anchor:middle;fill:#000000;fill-opacity:1;stroke:none"
       xml:space="preserve"><tspan
         y="1868.5121"
         x="910.66687"
         style="font-style:normal;font-variant:normal;font-weight:normal;font-stretch:normal;font-size:45px;line-height:1.25;font-family:Lavi;-inkscape-font-specification:Lavi;fill:#000000"
         sodipodi:role="line"
         id="tspan184397">Ni a yll kewsel yn y</tspan><tspan
         y="1924.7621"
         x="910.66687"
         style="font-style:normal;font-variant:normal;font-weight:normal;font-stretch:normal;font-size:45px;line-height:1.25;font-family:Lavi;-inkscape-font-specification:Lavi;fill:#000000"
         sodipodi:role="line"
         id="tspan78621"> gever ha ni ow neyja.</tspan></text>
    <text
       id="text4246-4-2-7-3-5-2-2-6-7-2-9-3-2-9"
       y="2008.9945"
       x="945.51813"
       style="font-style:normal;font-variant:normal;font-weight:normal;font-stretch:normal;line-height:0%;font-family:Lavi;-inkscape-font-specification:Lavi;text-align:center;letter-spacing:0px;word-spacing:0px;text-anchor:middle;fill:#000000;fill-opacity:1;stroke:none"
       xml:space="preserve"><tspan
         y="2008.9945"
         x="945.51813"
         style="font-style:normal;font-variant:normal;font-weight:normal;font-stretch:normal;font-size:45px;line-height:1.25;font-family:Lavi;-inkscape-font-specification:Lavi;fill:#000000"
         sodipodi:role="line"
         id="tspan184397-7">Lamm omma, Pepper!</tspan></text>
    <text
       id="text4246-4-2-7-3-5-2-2-6-7-2-9-3-2-9-8"
       y="2333.4099"
       x="1578.2986"
       style="font-style:normal;font-variant:normal;font-weight:normal;font-stretch:normal;line-height:0%;font-family:Lavi;-inkscape-font-specification:Lavi;text-align:center;letter-spacing:0px;word-spacing:0px;text-anchor:middle;fill:#000000;fill-opacity:1;stroke:none"
       xml:space="preserve"><tspan
         y="2333.4099"
         x="1578.2986"
         style="font-style:normal;font-variant:normal;font-weight:normal;font-stretch:normal;font-size:45px;line-height:1.25;font-family:Lavi;-inkscape-font-specification:Lavi;fill:#000000"
         sodipodi:role="line"
         id="tspan189870">Ewn yw Torreya.</tspan></text>
    <text
       id="text4246-4-2-7-3-5-2-2-6-7-2-9-3-2-9-8-3"
       y="2416.0747"
       x="1606.6317"
       style="font-style:normal;font-variant:normal;font-weight:normal;font-stretch:normal;line-height:0%;font-family:Lavi;-inkscape-font-specification:Lavi;text-align:center;letter-spacing:0px;word-spacing:0px;text-anchor:middle;fill:#000000;fill-opacity:1;stroke:none"
       xml:space="preserve"><tspan
         y="2416.0747"
         x="1606.6317"
         style="font-style:normal;font-variant:normal;font-weight:normal;font-stretch:normal;font-size:45px;line-height:1.25;font-family:Lavi;-inkscape-font-specification:Lavi;fill:#000000"
         sodipodi:role="line"
         id="tspan88679">Res yw dhyn</tspan><tspan
         y="2472.3247"
         x="1606.6317"
         style="font-style:normal;font-variant:normal;font-weight:normal;font-stretch:normal;font-size:45px;line-height:1.25;font-family:Lavi;-inkscape-font-specification:Lavi;fill:#000000"
         sodipodi:role="line"
         id="tspan93587">drehedhes Qualicity, </tspan><tspan
         y="2528.5747"
         x="1606.6317"
         style="font-style:normal;font-variant:normal;font-weight:normal;font-stretch:normal;font-size:45px;line-height:1.25;font-family:Lavi;-inkscape-font-specification:Lavi;fill:#000000"
         sodipodi:role="line"
         id="tspan97393">pypynag a hwarvo.</tspan></text>
    <text
       id="text4246-4-2-7-3-5-2-2-6-7-2-9-3-2-9-8-5"
       y="2464.9375"
       x="2133.2007"
       style="font-style:normal;font-variant:normal;font-weight:normal;font-stretch:normal;line-height:0%;font-family:Lavi;-inkscape-font-specification:Lavi;text-align:center;letter-spacing:0px;word-spacing:0px;text-anchor:middle;fill:#000000;fill-opacity:1;stroke:none"
       xml:space="preserve"><tspan
         y="2464.9375"
         x="2133.2007"
         style="font-style:normal;font-variant:normal;font-weight:normal;font-stretch:normal;font-size:45px;line-height:1.25;font-family:Lavi;-inkscape-font-specification:Lavi;fill:#000000"
         sodipodi:role="line"
         id="tspan194276">Gortewgh</tspan><tspan
         y="2521.1875"
         x="2133.2007"
         style="font-style:normal;font-variant:normal;font-weight:normal;font-stretch:normal;font-size:45px;line-height:1.25;font-family:Lavi;-inkscape-font-specification:Lavi;fill:#000000"
         sodipodi:role="line"
         id="tspan106897">pols.</tspan></text>
    <text
       id="text4246-4-2-7-3-5-2-2-6-7-2-9-3-2-9-8-5-1"
       y="2749.7256"
       x="353.28015"
       style="font-style:normal;font-variant:normal;font-weight:normal;font-stretch:normal;line-height:0%;font-family:Lavi;-inkscape-font-specification:Lavi;text-align:center;letter-spacing:0px;word-spacing:0px;text-anchor:middle;fill:#000000;fill-opacity:1;stroke:none"
       xml:space="preserve"><tspan
         y="2749.7256"
         x="353.28015"
         style="font-style:normal;font-variant:normal;font-weight:normal;font-stretch:normal;font-size:45px;line-height:1.25;font-family:Lavi;-inkscape-font-specification:Lavi;fill:#000000"
         sodipodi:role="line"
         id="tspan132233">Lu Wasabi</tspan><tspan
         y="2805.9756"
         x="353.28015"
         style="font-style:normal;font-variant:normal;font-weight:normal;font-stretch:normal;font-size:45px;line-height:1.25;font-family:Lavi;-inkscape-font-specification:Lavi;fill:#000000"
         sodipodi:role="line"
         id="tspan143707">yw parys dhe </tspan><tspan
         y="2862.2256"
         x="353.28015"
         style="font-style:normal;font-variant:normal;font-weight:normal;font-stretch:normal;font-size:45px;line-height:1.25;font-family:Lavi;-inkscape-font-specification:Lavi;fill:#000000"
         sodipodi:role="line"
         id="tspan145655">worthomsettya.</tspan></text>
    <text
       id="text4246-4-2-7-3-5-2-2-6-7-2-9-3-2-9-8-5-1-3"
       y="2968.9463"
       x="356.77548"
       style="font-style:normal;font-variant:normal;font-weight:normal;font-stretch:normal;line-height:0%;font-family:Lavi;-inkscape-font-specification:Lavi;text-align:center;letter-spacing:0px;word-spacing:0px;text-anchor:middle;fill:#000000;fill-opacity:1;stroke:none"
       xml:space="preserve"><tspan
         y="2968.9463"
         x="356.77548"
         style="font-style:normal;font-variant:normal;font-weight:normal;font-stretch:normal;font-size:45px;line-height:1.25;font-family:Lavi;-inkscape-font-specification:Lavi;fill:#000000"
         sodipodi:role="line"
         id="tspan207740">Ny yllyn gasa</tspan><tspan
         y="3025.1963"
         x="356.77548"
         style="font-style:normal;font-variant:normal;font-weight:normal;font-stretch:normal;font-size:45px;line-height:1.25;font-family:Lavi;-inkscape-font-specification:Lavi;fill:#000000"
         sodipodi:role="line"
         id="tspan11644">an eyl dhe ladha y</tspan><tspan
         y="3081.4463"
         x="356.77548"
         style="font-style:normal;font-variant:normal;font-weight:normal;font-stretch:normal;font-size:45px;line-height:1.25;font-family:Lavi;-inkscape-font-specification:Lavi;fill:#000000"
         sodipodi:role="line"
         id="tspan166612">gila y'n fordh na.</tspan></text>
    <text
       id="text4246-4-2-7-3-5-2-2-6-7-2-9-3-2-9-8-5-1-3-6"
       y="2739.7092"
       x="1412.0334"
       style="font-style:normal;font-variant:normal;font-weight:normal;font-stretch:normal;line-height:0%;font-family:Lavi;-inkscape-font-specification:Lavi;text-align:center;letter-spacing:0px;word-spacing:0px;text-anchor:middle;fill:#000000;fill-opacity:1;stroke:none"
       xml:space="preserve"><tspan
         y="2739.7092"
         x="1412.0334"
         style="font-style:normal;font-variant:normal;font-weight:normal;font-stretch:normal;font-size:45px;line-height:1.25;font-family:Lavi;-inkscape-font-specification:Lavi;fill:#000000"
         sodipodi:role="line"
         id="tspan216256">Dell glewav yth yw ow</tspan><tspan
         y="2795.9592"
         x="1412.0334"
         style="font-style:normal;font-variant:normal;font-weight:normal;font-stretch:normal;font-size:45px;line-height:1.25;font-family:Lavi;-inkscape-font-specification:Lavi;fill:#000000"
         sodipodi:role="line"
         id="tspan174001"> omgemeryans dhe</tspan><tspan
         y="2852.2092"
         x="1412.0334"
         style="font-style:normal;font-variant:normal;font-weight:normal;font-stretch:normal;font-size:45px;line-height:1.25;font-family:Lavi;-inkscape-font-specification:Lavi;fill:#000000"
         sodipodi:role="line"
         id="tspan179595">worfenna an vatel ma.</tspan></text>
  </g>
</svg>
