<?xml version="1.0" encoding="UTF-8" standalone="no"?>
<!-- Created With Inkscape (http://www.inkscape.org/) -->

<svg
   id="svg2"
   version="1.1"
   inkscape:version="1.1.2 (1:1.1+202202050950+0a00cf5339)"
   width="2481"
   height="663"
   sodipodi:docname="E19P00.svg"
   xmlns:inkscape="http://www.inkscape.org/namespaces/inkscape"
   xmlns:sodipodi="http://sodipodi.sourceforge.net/DTD/sodipodi-0.dtd"
   xmlns:xlink="http://www.w3.org/1999/xlink"
   xmlns="http://www.w3.org/2000/svg"
   xmlns:svg="http://www.w3.org/2000/svg"
   xmlns:rdf="http://www.w3.org/1999/02/22-rdf-syntax-ns#"
   xmlns:cc="http://creativecommons.org/ns#"
   xmlns:dc="http://purl.org/dc/elements/1.1/">
  <metadata
     id="metadata8">
    <rdf:RDF>
      <cc:Work
         rdf:about="">
        <dc:format>image/svg+xml</dc:format>
        <dc:type
           rdf:resource="http://purl.org/dc/dcmitype/StillImage" />
        <dc:title />
      </cc:Work>
    </rdf:RDF>
  </metadata>
  <defs
     id="defs6" />
  <sodipodi:namedview
     pagecolor="#ffffff"
     bordercolor="#666666"
     borderopacity="1"
     objecttolerance="10"
     gridtolerance="10"
     guidetolerance="10"
     inkscape:pageopacity="0"
     inkscape:pageshadow="2"
     inkscape:window-width="1216"
     inkscape:window-height="704"
     id="namedview4"
     showgrid="false"
     inkscape:zoom="0.24639193"
     inkscape:cx="1290.6267"
     inkscape:cy="125.81581"
     inkscape:window-x="0"
     inkscape:window-y="0"
     inkscape:window-maximized="0"
     inkscape:current-layer="layer1"
     inkscape:pagecheckerboard="0" />
  <g
     inkscape:groupmode="layer"
     id="layer2"
     inkscape:label="artwork"
     sodipodi:insensitive="true">
    <image
       xlink:href="../gfx_Pepper-and-Carrot_by-David-Revoy_E19P00.png"
       width="2481"
       height="663"
       id="image10"
       x="0"
       y="0" />
  </g>
  <g
     inkscape:groupmode="layer"
     id="layer1"
     inkscape:label="txt"
     style="display:inline">
    <text
       xml:space="preserve"
       style="font-style:normal;font-variant:normal;font-weight:normal;font-stretch:normal;line-height:0%;font-family:Arial;-inkscape-font-specification:Arial;letter-spacing:0px;word-spacing:0px;display:inline;fill:#2b1100;fill-opacity:1;stroke:#000000;stroke-width:2;stroke-miterlimit:4;stroke-dasharray:none;stroke-opacity:1"
       x="927.27734"
       y="577.09418"
       id="episode-title"><tspan
         sodipodi:role="line"
         id="tspan4180"
         style="font-style:normal;font-variant:normal;font-weight:normal;font-stretch:normal;font-size:72.5px;line-height:1.25;font-family:Lavi;-inkscape-font-specification:Lavi;fill:#2b1100;stroke:none"
         x="927.27734"
         y="577.09418">Ĉapitro 19a : Poluo</tspan></text>
    <g
       inkscape:label="Layer 1"
       id="layer1-3"
       transform="translate(7.7159065,-406.88725)"
       style="fill:#301b0b;fill-opacity:1">
      <path
         style="color:#000000;display:inline;overflow:visible;visibility:visible;fill:#301b0b;fill-opacity:1;fill-rule:nonzero;stroke:none;stroke-width:3;marker:none;enable-background:accumulate"
         d="m 1975.125,601.42468 c -0.3723,0.003 -0.7105,0.0137 -1,0.0312 -9.8158,0.59531 -19.7547,5.36078 -19.625,14.5625 0.1429,10.14843 7.4874,14.12938 14.2188,14.21875 9.5836,0.12726 18.6851,-6.64284 21.6562,-14.90625 1.6239,-4.51639 0.6733,-7.59022 -1.4375,-9.6875 -4.4672,5.22033 -5.5784,7.59046 -13.0937,8.09375 0.1792,-2.15147 -2e-4,-6.96716 0.9062,-12.25 -0.5876,-0.03 -1.145,-0.0662 -1.625,-0.0625 z"
         id="path33785"
         inkscape:connector-curvature="0" />
      <path
         style="color:#000000;display:inline;overflow:visible;visibility:visible;fill:#301b0b;fill-opacity:1;fill-rule:nonzero;stroke:none;stroke-width:3;marker:none;enable-background:accumulate"
         d="m 1983.0938,637.48718 c -8.4496,0.34166 -24.7527,5.50553 -34.5313,13.875 -2.4971,2.13729 -10.8243,10.01579 1.6875,7.125 11.3034,-2.6116 16.9375,-0.61988 16.9375,8.125 v 57.875 c 2.2168,3.30535 5.0177,7.80779 7.6875,11.8125 -0.7298,6.41805 -4.6138,6.84046 -7.6875,8.34375 v 40.3125 c -4.0633,11.27071 -24.493,16.88965 -50.25,-3.875 -5.1905,-4.1844 -6.2332,0.25794 -3.3437,6.53125 1.4449,3.13712 6.389,8.50995 7.2812,9.9375 2.0648,9.41961 4.3569,11.2192 11.625,15.4375 9.5664,5.5522 23.6176,7.24344 35.3438,7.125 12.9645,-0.13094 27.9374,-14.78627 27.9374,-25.375 v -5.96875 c -8.8845,-5.00022 -9.7989,-10.83932 0,-20.96875 V 650.33093 c 0,-5.76118 -5.2453,-13.14466 -12.6874,-12.84375 z"
         id="path33775"
         inkscape:connector-curvature="0" />
      <path
         style="display:inline;fill:#301b0b;fill-opacity:1;stroke:none"
         d="m 419.875,127.53125 c -0.92417,0.0108 -1.85392,0.0228 -2.78125,0.0625 -6.82998,0.29249 -13.68692,0.71798 -20.4375,1.3125 0.49821,2.35665 0.48137,5.14333 0,8.8125 -12.29681,6.83157 -19.47179,7.10926 -25.71875,-5.375 -10.47787,1.9829 -20.28774,4.69786 -28.90625,8.5 -2.26231,1.03254 -4.73887,2.98086 -5.125,5.4375 -1.21925,7.75713 2.83455,22.23426 7.375,25.90625 3.8036,3.07608 10.88761,4.78311 19.71875,4.96875 L 363.90625,187 c 4.5273,2.41441 9.62796,6.26795 8,13.59375 -2.80459,0.77257 -5.75142,2.01757 -8.1875,3.59375 l -1.15625,104.40625 c 5.03156,1.91447 9.93309,4.22399 11.0625,7.125 2.31903,5.9567 -3.65561,13.43865 -11.34375,19.40625 L 362,360.8125 c -9.04456,-0.0938 -16.18033,-0.0894 -17.46875,0.0625 -2.641,0.3114 -5.54632,3.39221 -5.21875,6.03125 1.45299,11.70597 5.38188,28.45447 20.40625,28 39.96459,-1.20891 75.66428,-13.8533 115.875,-29.5 1.32509,-0.5156 4.08929,-3.70195 1.21875,-3.78125 -12.9961,-0.35885 -26.5261,-0.13102 -40.03125,0.0312 -9.71369,3.63391 -11.79866,6.42736 -17.65625,4.84375 -4.88359,-1.32027 -7.59761,-2.74425 -10.65625,-5 -4.26845,-0.0729 -8.32331,-0.13834 -13.25,-0.21875 0.0594,-6.7638 0.10265,-22.53676 0.1875,-42.125 1.06879,-0.17992 2.10951,-0.37468 3.125,-0.59375 27.22601,-5.87332 53.21667,-15.85544 74.46875,-28.90625 -2.94789,-7.79323 -3.858,-15.25383 0.5,-19.09375 5.90136,0.40297 11.48502,5.44208 14.96875,8.34375 19.76756,-15.51091 33.13772,-34.16719 35.8125,-54.71875 1.17114,-8.9984 -0.3648,-18.70407 -4.09375,-28.375 -2.35509,2.05081 -4.45991,3.64527 -7.4375,1.25 -4.28639,-3.4481 -2.47181,-8.62387 0.5,-15.25 -17.75306,-29.27562 -54.04511,-54.74102 -93.375,-54.28125 z m 26.625,34.6875 c 1.05447,4e-5 2.12572,0.0268 3.1875,0.0937 21.78975,1.37401 44.95686,13.90066 44.1875,40.0625 -1.48914,50.63785 -43.56345,69.42212 -91.59375,78.6875 -2.34809,0.45296 -4.5548,0.81871 -6.65625,1.1875 0.30342,-37.68121 0.91772,-80.24083 2.25,-110.6875 17.71673,-2.22306 32.80802,-9.34434 48.625,-9.34375 z"
         transform="translate(0,389.36218)"
         id="path12222" />
      <path
         style="display:inline;fill:#301b0b;fill-opacity:1;stroke:none"
         d="m 1739.6875,644.23718 c -2.5095,-0.0142 -4.6439,0.16238 -6.1875,0.53125 -20.0685,4.7958 -34.54,22.91012 -40.8125,43.75 13.522,5.77792 11.5471,17.10857 -3.3437,18.84375 -0.081,1.43658 -0.125,2.88242 -0.125,4.3125 0,21.23894 19.8215,57.46985 41.9687,63.1875 3.5878,0.92626 11.3179,2.5 15.2813,2.5 23.7805,0 58.5497,-18.66422 58,-67.75 -0.1694,-15.10402 -3.6249,-30.54874 -11.4063,-42.21875 -2.1665,0.17242 -4.8013,-0.61022 -8.3437,-3.21875 -5.0619,-3.72724 -10.8301,-0.36241 -13.2188,-2.90625 -1.9337,-2.05843 -2.4369,-5.58116 -1.3125,-11.46875 -9.8523,-3.48995 -22.2628,-5.51583 -30.5,-5.5625 z m 10.4375,20 c 16.5425,0 23.3858,8.61641 21.6875,49.15625 -0.883,21.07492 -9.4351,41.03222 -26.4687,41.28125 -19.3405,0.28271 -25.5313,-12.48086 -25.5313,-29.59375 0,-19.05515 9.126,-60.84375 30.3125,-60.84375 z"
         id="path11715"
         inkscape:connector-curvature="0" />
      <g
         id="g3948"
         style="fill:#301b0b;fill-opacity:1" />
      <path
         style="display:inline;fill:#301b0b;fill-opacity:1;stroke:none"
         d="m 1609.3125,639.73718 c -1.1866,0.001 -2.4283,0.0335 -3.6875,0.0937 -5.0167,7.88602 -12.4575,9.28863 -20.7812,4.4375 -4.2205,1.84364 -8.1243,4.37582 -11.2813,7.78125 -1.1708,1.26285 -1.1318,2.88888 0.7187,3.6875 9.6078,4.14584 16.3585,3.83091 22.9063,13.03125 0.189,10.06133 0.046,22.27328 -0.3437,35.09375 9.1771,3.56332 5.7769,11.04261 -0.5626,14.65625 -0.5806,13.2003 -1.374,26.49961 -2.375,38.4375 -2.512,0 -3.9403,0.23567 -4.5937,0.59375 -4.664,-0.19836 -9.3148,-0.37276 -13.9375,-0.5 -1.0993,-0.0303 -2.7188,0.51163 -2.7188,1.65625 0,9.20768 4.9237,19.95789 13.4688,24.1875 11.63,0 54.691,-2.3444 82.9375,-15.09375 3.6237,-1.63562 2.2883,-3.67312 -0.2187,-3.96875 -5.5036,-0.64899 -11.4188,-1.27304 -17.5313,-1.875 -1.0335,2.004 -2.3767,3.87803 -4.25,5.96875 -3.526,-0.35259 -6.0832,-3.28968 -7.9063,-7.09375 -4.7289,-0.41298 -9.5225,-0.81792 -14.4374,-1.1875 0.3081,-0.55746 0.5014,-1.18419 0.5937,-1.875 2.2863,-17.12156 -0.05,-48.46416 5.0625,-68.96875 2.9456,-10.02381 4.1865,-21.89988 16.3438,-21.28125 6.8891,0.35061 15.8479,7.12858 16.4374,13.84375 0.3748,4.26311 -3.3693,14.67848 -9.8437,14.5 -3.501,-0.0965 -4.7522,-1.49837 -6.7813,-4.3125 -0.7001,-0.97156 -2.3767,-0.0759 -1.8124,1.125 3.9893,8.49226 8.1694,11.0625 15.375,11.0625 9.5302,0 19.2677,-6.87815 19.375,-26.90625 0.1211,-22.711 -17.6178,-30.40179 -31.3126,-33.3125 -10.1304,-2.15318 -16.9967,9.41844 -24.9374,18.4375 l -0.094,-7.71875 c -0.091,-7.69855 -7.9067,-14.505 -13.8125,-14.5 z"
         id="path4398"
         inkscape:connector-curvature="0" />
      <path
         style="color:#000000;display:inline;overflow:visible;visibility:visible;fill:#301b0b;fill-opacity:1;fill-rule:nonzero;stroke:none;stroke-width:3;marker:none;enable-background:accumulate"
         d="m 1293.2188,128.28125 c -8.7056,0.22972 -25.233,3.09812 -32.4063,6.5625 -3.8604,1.86445 -6.2097,14.08481 -4.75,18.3125 2.1869,6.33355 4.2749,18.25926 14.3437,19.96875 2.66,0.45152 8.6465,-3.2288 13.9376,-6.9375 1.4864,25.16163 1.1437,61.71706 0.375,99.25 -5.1078,2.14701 -9.97,3.82994 -14.4688,4.9375 -4.676,1.15121 -6.8915,4.13167 -7.3125,8.09375 -2.3522,22.13884 6.3753,32.53967 10.3437,34.75 1.6297,0.90724 6.4316,0.75488 10.3126,0.1875 -0.095,3.77536 -0.1925,7.31705 -0.2813,11 4.8529,0.94882 7.8207,3.72584 11.75,7.09375 -2.4287,5.67697 -7.9824,6.97743 -12.0937,7.15625 -0.1675,7.55068 -0.2908,14.86012 -0.4063,21.75 -3.5126,0.19707 -6.7141,0.49527 -9.4063,1 -3.7655,0.7061 -11.1235,3.48843 -11.0937,8.09375 0.044,6.80368 7.5696,22.64746 12.0937,23.09375 25.1444,2.48022 80.7873,-16.82177 93.375,-20.1875 8.9744,-2.39947 6.2406,-6.4531 -2,-7.09375 -4.7113,-0.36633 -10.0523,-0.8489 -15.5937,-1.34375 2.3459,2.33862 3.4811,4.01756 2.0625,4.28125 -10.7819,2.00418 -4.4773,3.95229 -16.2188,-0.3125 -1.3253,-0.48156 -1.5425,-2.58712 -1.0937,-5.28125 -7.1077,-0.6098 -14.3251,-1.20998 -21.375,-1.65625 0.5722,-17.67628 1.7558,-41.41725 2.9375,-66.96875 7.4312,-5.70872 15.0791,-12.15821 22.75,-19.03125 15.182,45.03082 54.2337,97.28357 69.9375,106.65625 30.9184,18.45328 25.1568,9.86014 17.5313,2.1875 -18.8331,-18.94896 -32.8095,-51.04045 -44.0626,-84 -8.9132,1.99607 -9.6206,-5.31647 -5.25,-15.84375 -3.8416,-12.13233 -7.3336,-24.1182 -10.625,-35.34375 23.3505,-23.72314 44.279,-48.34171 56.0938,-64.78125 8.6513,-12.03817 10.1866,-16.32384 7.25,-19.25 5.1262,-6.80814 10.2098,-14.65452 12.1875,-18.5 0.9541,-1.85524 0.6946,-2.55276 -0.125,-2.59375 -1.8031,-0.0902 -6.3524,2.95216 -6.9375,3.59375 -13.7062,15.03009 -30.864,31.81234 -49.2812,48.09375 0.9268,0.83829 1.6809,2.0927 2.1562,3.875 1.5105,16.49518 -8.7736,13.3419 -17.5312,9.375 -17.3326,14.46479 -35.2512,27.97469 -52.125,38.78125 0.6268,-17.5443 1.0688,-34.78275 1.1562,-50.5 -7.4143,-7.28021 -4.8005,-10.70914 -0.094,-18.875 -0.2835,-16.04572 -1.1257,-29.46726 -2.8124,-38.4375 -0.6793,-10.50493 -11.0456,-10.97376 -21.625,-11.15625 -0.5067,-0.009 -1.0447,-0.0153 -1.625,0 z"
         id="path12976"
         transform="translate(0,389.36218)" />
      <path
         style="color:#000000;display:inline;overflow:visible;visibility:visible;fill:#301b0b;fill-opacity:1;fill-rule:nonzero;stroke:none;stroke-width:2.84041;marker:none;enable-background:accumulate"
         d="m 1887,643.86218 c -1.6975,3.53278 -3.7627,7.13881 -7.4375,9.75 -5.1895,-3.11376 -8.4448,-4.85113 -11.125,-8.84375 0,-0.004 -0.028,0.004 -0.031,0 -1.4589,0.38543 -2.8558,0.84725 -4.1874,1.375 -24.1661,9.57726 -45.3992,32.3333 -45.6563,58.28125 -0.223,22.53671 4.268,38.98347 13.5313,52 4.7006,-2.75266 5.792,-0.56576 11.4687,3.21875 0.5628,3.30057 0.6607,6.65529 0.875,10 2.8451,2.40883 5.9024,4.70749 9.2187,6.90625 6.9465,4.60542 22.431,2.49498 28.5626,1.3125 9.2101,-1.77627 21.6683,-2.51163 29.3437,-11.03125 4.597,-5.10264 4.6462,-12.28629 7.0313,-25.96875 0.8976,-5.15162 -1.1247,-5.41577 -4.9376,-2.84375 -21.6059,14.57433 -31.0538,20.125 -43.5312,20.125 -9.2781,0 -20.2003,-23.12475 -21.2812,-36.1875 -1.2912,-15.60397 0.763,-44.62628 23.2187,-51.375 18.9287,-5.68873 37.9157,7.48463 45.0625,18.03125 6.0805,8.9732 8.2273,1.55963 7.7812,0.25 -6.5876,-19.34016 -11.1312,-33.79783 -22.0937,-39.78125 -5.0503,-2.75647 -10.4468,-4.43488 -15.8125,-5.21875 z"
         id="path33681"
         inkscape:connector-curvature="0" />
      <path
         style="display:inline;fill:#301b0b;fill-opacity:1;stroke:none"
         d="m 2064.0625,644.23718 c -2.5095,-0.0142 -4.6126,0.16238 -6.1563,0.53125 -27.3208,6.52896 -44.2812,37.72178 -44.2812,66.90625 0,21.23894 19.8217,57.46985 41.9688,63.1875 3.5877,0.92626 11.2867,2.5 15.25,2.5 7.2338,0 15.4694,-1.7462 23.4374,-5.53125 2.2871,-4.48018 5.9897,-8.44052 13.875,-9.21875 12.0115,-10.76221 21.0001,-27.89172 20.7188,-53 -0.073,-6.50542 -0.744,-13.07391 -2.125,-19.375 -3.3722,1.919 -6.8402,2.62283 -12.7812,0.34375 1.0974,-1.82925 3.7472,-9.5048 8.4687,-13.875 -4.1765,-9.70608 -10.5146,-17.95766 -19.4063,-23.125 -9.929,-5.77025 -28.0941,-9.28214 -38.9687,-9.34375 z m 10.4375,20 c 16.5425,0 23.3858,8.61641 21.6875,49.15625 -0.8831,21.07492 -9.435,41.03222 -26.4687,41.28125 -19.1612,0.28009 -25.3861,-12.25181 -25.5,-29.125 -1.7806,1.47408 -4.1547,2.67271 -7.0938,2 -6.0558,-10.09305 -7.6449,-17.92614 8.5938,-18.46875 3.3507,-20.09013 12.4726,-44.84375 28.7812,-44.84375 z"
         id="path4962"
         inkscape:connector-curvature="0" />
      <path
         style="display:inline;fill:#301b0b;fill-opacity:1;stroke:none"
         d="m 1503.375,644.17468 c -14.7971,0.0834 -35.5746,10.20833 -39.7812,14.09375 -6.2001,5.72618 -13.2762,17.08506 -18.8438,31.21875 -0.5202,1.32084 0.9258,4.39215 2.5,2.4375 12.0285,-14.93622 34.2621,-24.23027 47.9375,-23.53125 9.7465,0.49823 12.8671,8.25263 13.875,17.03125 -2.0081,-0.91898 -4.2218,-1.27526 -6.625,-0.78125 -22.562,4.63761 -46.3867,29.52562 -54.5937,37.3125 -3.7105,3.52024 -10.1525,16.91485 -10.0626,28.28125 0.1232,15.63208 9.0603,24.94571 22.0938,26.3125 1.0544,0.11057 2.1564,0.16559 3.2812,0.1875 2.0472,-7.96158 1.36,-16.92746 14.9063,-10.59375 6.2553,2.92474 7.7357,5.08166 7.5313,7.09375 8.5528,-2.42402 17.2146,-5.84361 24.625,-9.46875 -0.017,2.34556 -0.01,4.68563 -0.031,7.03125 0.3573,3.37372 3.0145,5.14278 6.5,5.75 8.9945,1.56722 23.6953,-1.57529 32.4687,-8.1875 5.7934,-4.36616 7.9588,-8.75034 5.375,-12.125 4.5933,-1.18433 10.9744,-4.13974 13.6876,-6.71875 2.8517,-2.71097 4.9883,-10.71366 -1.5626,-6.75 -5.6265,3.40452 -15.6409,8.35026 -28.5624,1.625 -1.3594,-4.78963 0.3026,-49.10467 -0.25,-57.125 -0.5127,-7.43611 -4.018,-18.57427 -10.5,-27.84375 -0.7805,1.25727 -1.9851,2.54637 -4.2813,3.90625 -1.0133,-2.78637 -4.205,-8.4538 -4.375,-13.34375 -1.9443,-1.57233 -4.0439,-2.94454 -6.2813,-4.0625 -2.4986,-1.24865 -5.6165,-1.76925 -9.0312,-1.75 z m -0.25,74.34375 c 2.6911,-0.072 5.105,0.55979 6.9688,0.9375 0.08,5.4276 0.1209,10.85306 0.1562,16.28125 -12.457,10.11166 -25.8779,18.78125 -39.9375,18.78125 -6.1517,0 -8.9063,-1.50434 -8.9063,-5.0625 0,-4.67169 2.8399,-9.2068 6.4376,-12.21875 10.3712,-8.68307 21.1582,-15.02692 31.7812,-18.1875 1.203,-0.35792 2.3679,-0.50097 3.5,-0.53125 z"
         id="path33689"
         inkscape:connector-curvature="0" />
      <path
         style="color:#000000;display:inline;overflow:visible;visibility:visible;fill:#301b0b;fill-opacity:1;fill-rule:nonzero;stroke:none;stroke-width:3;marker:none;enable-background:accumulate"
         d="m 1866.6292,566.0303 c -2.7793,-0.0111 -5.4866,0.76229 -6.2505,1.95315 -10.5444,16.43571 -17.3456,24.37 -27.8003,31.4574 1.3,4.78293 2.6895,10.3748 2.4408,15.56595 -5.841,-3.87149 -9.4376,-4.48136 -10.1796,-10.80146 -2.342,1.3297 -4.8527,2.70114 -7.6198,4.14302 -6.8914,3.59127 -8.8041,3.27292 -8.7507,9.32181 0.066,7.50081 10.7332,16.85113 13.8108,18.11095 3.3484,1.37062 6.4881,2.60937 10.5366,0.76942 16.6959,-7.58787 23.6339,-19.69737 31.253,-40.0098 14.2248,17.05155 37.3017,27.5583 41.3728,23.02339 3.9751,2.47006 13.8657,6.29831 21.1924,6.89518 2.607,0.21235 3.2281,-4.00797 -1.0417,-6.09617 -16.8434,-8.23707 -35.4207,-21.13611 -52.2966,-51.66946 -1.0337,-1.87054 -3.8878,-2.65227 -6.6672,-2.66338 z"
         id="path13026"
         inkscape:connector-curvature="0" />
      <g
         id="g851"
         transform="translate(-6.9998134)"
         style="fill:#301b0b;fill-opacity:1">
        <path
           style="color:#000000;display:inline;overflow:visible;visibility:visible;fill:#301b0b;fill-opacity:1;fill-rule:nonzero;stroke:none;stroke-width:3;marker:none;enable-background:accumulate"
           d="m 1097.1875,234.875 c -0.9722,-0.01 -2.0574,0.0702 -3.2187,0.25 -12.0187,1.86027 -25.1368,7.00784 -33.8438,18.28125 -1.4277,1.84837 -4.6368,9.00015 8.125,3.375 3.8891,-1.71422 12.1875,-3.93824 12.1875,7.46875 v 48.5625 c 1.7672,3.27719 3.5518,6.35201 4.0313,11.625 -0.6628,7.99313 -2.001,17.0712 -4.0313,23.65625 v 54.3125 c 0,11.89066 -2.8084,28.26842 16.4063,26.5625 3.7308,-0.33132 7.989,-1.99337 12.7187,-8.96875 1.1669,-0.35011 8.5284,-3.12416 12.1563,-4.812 4.2653,-1.98464 7.1882,-7.36198 10.6245,-10.03188 5.4308,-4.2202 1.8861,-6.3189 -1.875,-4.40625 -3.6267,1.84394 -17.4999,5.73725 -22.9371,0.28138 V 384.5 c 3.171,-4.37465 8.0887,-11.03241 14.375,-18.96875 2.4284,7.32408 5.6985,15.11454 9.0313,22.375 11.2503,3.8722 11.4198,12.4794 11.3437,22.65625 2.2795,4.22365 3.8438,7 3.8438,7 1.4353,3.53092 4.0426,6.37787 8.0312,8.375 l -5,7.75 c 1.7943,5.44388 1.7564,9.82041 1.8438,15.375 -5.441,5.26903 -9.8459,3.46046 -13.875,3.34375 l -9.3438,14.5 c -13.2406,10.11874 -32.0173,0.0242 -40.125,-24.4375 -2.0969,-6.32855 -5.4068,-3.21358 -6.375,3.625 -0.4321,3.05591 0.7418,8.66048 0.7188,10.34375 -3.1783,8.53515 -1.888,9.76785 1.9378,17.25 4.4756,8.75288 15.4527,16.90579 25.3747,23.15625 10.97,6.91063 31.485,2.68298 37.2187,-6.21875 l 2.375,-3.6875 c -2.6802,-0.46541 -5.2647,-1.84613 -8.5624,-5.40625 0.387,-4.5851 10.2404,-8.91092 18.25,-9.65625 l 33.625,-52.1875 c 1.4393,-2.23507 1.7671,-4.17286 1.0624,-5.96875 3.0199,-3.60297 1.6166,-7.64319 5.875,-10.9375 3.9973,-3.09197 4.853,-10.00706 -3.5312,-2.65625 -4.1459,3.63472 -9.7301,6.62916 -16,6.40625 l -4.2812,-0.65625 c -1.7146,-0.46897 -3.4478,-1.17676 -5.2188,-2.21875 0,0 -17.8356,-27.28725 -26.375,-63.625 4.9405,-5.24635 9.9174,-10.15861 14.75,-14.25 2.0803,-1.76133 5.2754,-7.16518 10.5,-7 3.2339,0.1022 8.4313,5.40912 7.8438,9.34375 -0.4277,2.8569 -5.0073,8.85643 -11.9376,7.9375 -0.6169,-0.0819 -6.9686,0.42327 -2.3437,3.0625 2.8571,1.63037 10.5179,2.28616 12.8437,1.5 8.4856,-2.86789 12.8733,-16.4924 12.9063,-19.875 0.097,-10.02046 -5.8727,-24.41251 -18.9687,-26.40625 -0.654,-0.0995 -1.452,-0.18141 -2.375,-0.1875 -6.4629,-0.0426 -18.572,2.13702 -22.5938,5.5 -0.4003,0.33468 -0.7891,0.68982 -1.1875,1.03125 0.7231,7.51269 -1.0567,15.96778 -5.0625,16.84375 -4.5439,0.99368 -6.74,-0.23944 -7.4375,-4.90625 -9.5418,10.06095 -17.7655,20.74093 -23.1563,28.15625 V 250.6875 c 0,-7.28405 -0.9456,-15.7195 -10.3437,-15.8125 z"
           transform="translate(0,389.36218)"
           id="path33807"
           inkscape:connector-curvature="0"
           sodipodi:nodetypes="sccsscccscccccccccccccccccccssccccccccccccccccccccsccsccss" />
        <path
           sodipodi:nodetypes="sssss"
           inkscape:connector-curvature="0"
           id="path5028"
           d="m 1174.0941,763.52271 c -2.296,9.88635 3.881,15.51638 10.3944,17.21802 9.2732,2.42269 17.7454,-1.95543 22.6122,-9.26477 7.5848,-11.39144 -5.8842,-16.53823 -10.448,-17.37668 -9.672,-1.77691 -20.477,0.45935 -22.5586,9.42343 z"
           style="color:#000000;display:inline;overflow:visible;visibility:visible;fill:#301b0b;fill-opacity:1;fill-rule:nonzero;stroke:none;stroke-width:3;marker:none;enable-background:accumulate" />
      </g>
      <path
         sodipodi:nodetypes="ssss"
         inkscape:connector-curvature="0"
         id="path33797"
         d="m 549.41218,609.54948 c -14.46269,1.47647 -13.83633,18.33199 -7.4334,24.87503 9.50612,9.71375 23.86241,-2.6747 29.71855,-10.6396 11.48444,-15.61972 -11.88227,-15.29751 -22.28515,-14.23543 z"
         style="color:#000000;display:inline;overflow:visible;visibility:visible;fill:#301b0b;fill-opacity:1;fill-rule:nonzero;stroke:none;stroke-width:3;marker:none;enable-background:accumulate" />
      <path
         style="color:#000000;display:inline;overflow:visible;visibility:visible;fill:#301b0b;fill-opacity:1;fill-rule:nonzero;stroke:none;stroke-width:3;marker:none;enable-background:accumulate"
         d="m 557.84375,258.21875 c -5.9061,-0.0378 -17.72116,1.69951 -20.8125,4.5625 -2.83685,2.62731 -5.75135,4.08434 -9.4375,6.90625 -2.97823,2.28001 2.25481,3.39724 3.625,4.1875 5.79781,3.34409 12.96579,0.43867 13.53125,8.84375 1.88119,27.96837 0.94991,46.96895 -0.15625,66.46875 7.60137,10.22226 8.07121,18.74739 -4.75,22.59375 -0.40762,-2.24194 -0.77162,-4.59454 -1.0625,-6.96875 -7.49832,-0.2575 -13.7632,-0.57614 -17.40625,-0.90625 -7.2906,-0.66066 -6.56217,3.98979 -6.75,6.0625 -0.59019,6.51481 16.67315,22.24153 23.1875,22.40625 35.36306,0.89422 54.29487,-7.53518 83.75,-22.8125 3.84934,-1.99642 3.8122,-5.68027 -1.125,-5.21875 -10.0259,0.93739 -28.58894,1.19886 -47.1875,1.09375 0.15687,-19.32063 0.25543,-31.49577 0.34375,-41.875 -8.6167,-9.51449 -11.70554,-18.53683 0.1875,-27 -1.3e-4,-7.84421 -0.17272,-6.7736 -0.53125,-15.8125 -0.56826,-14.33191 -1.80182,-20.7961 -13.28125,-22.40625 -0.55974,-0.0785 -1.28127,-0.11961 -2.125,-0.125 z"
         transform="translate(0,389.36218)"
         id="path33799" />
      <path
         style="color:#000000;display:inline;overflow:visible;visibility:visible;fill:#301b0b;fill-opacity:1;fill-rule:nonzero;stroke:none;stroke-width:3;marker:none;enable-background:accumulate"
         d="m 658.125,250.15625 c -8.46857,-0.0287 -27.18055,15.32786 -35.34375,20.84375 -6.78699,4.58597 1.17667,4.99008 5.4375,5 6.2691,0.0146 10.64049,0.50217 13.125,1.125 3.48271,0.87308 6.59375,6.44974 6.59375,13.15625 l -0.53125,81.15625 c -4.59756,0.71065 -9.18741,1.23785 -13.75,1.5625 -1.93464,0.13766 -11.49824,-1.52832 -7.71875,5.90625 3.49006,6.86522 12.10724,9.74066 21.34375,10.8125 l -0.1875,29.40625 c 6.22225,8.58987 3.91122,13.95918 -0.125,18.5625 l -0.0937,14.59375 c -2.22853,0.1441 -4.42272,0.29157 -6.5,0.375 -6.51591,0.26169 -6.29528,1.39 -7.59375,6.21875 -3.10731,11.55543 8.71037,22.40625 13.78125,22.40625 25.40794,0 56.89934,-16.33726 78.46875,-30.5625 8.62233,-5.6865 2.9682,-6.10697 -3.40625,-5.65625 -15.50026,1.09597 -33.06704,3.22207 -49.53125,4.96875 0.0443,-16.64453 0.18865,-37.60284 0.375,-60.75 10.77307,-1.59298 21.0126,-5.05861 30.375,-9.75 0.35146,-1.41565 0.29588,-3.45605 -0.1875,-6.9375 0.55371,-6.09085 7.495,-17.58224 17.125,-3.53125 20.368,-15.25847 33.63528,-35.94124 34.03125,-52.28125 0.56985,-23.51541 -17.91193,-42.82845 -42.03125,-50.46875 -6.04031,6.38591 -10.90521,4.91203 -17.75,-3.34375 -2.73054,-0.18134 -5.47973,-0.24865 -8.25,-0.125 -4.39549,0.19618 -9.04013,0.40343 -13.46875,0.875 -1.55344,-6.97883 -6.44382,-13.53624 -14.1875,-13.5625 z m 35.53125,37.21875 c 2.59271,-0.0621 5.26502,0.0773 8,0.40625 12.29393,1.47873 31.28125,1.58978 31.28125,19.5 0,27.41574 -27.26029,47.79285 -60.28125,58.25 0.18566,-24.79337 0.32945,-49.90721 0.3125,-71.78125 5.63122,-4.13252 12.75862,-6.18512 20.6875,-6.375 z"
         transform="translate(0,389.36218)"
         id="path33664" />
      <path
         style="display:inline;fill:#301b0b;fill-opacity:1;stroke:none"
         d="m 922.53125,254.875 c -2.50952,-0.0142 -4.6439,0.16238 -6.1875,0.53125 -27.32101,6.52896 -44.28125,37.72178 -44.28125,66.90625 0,21.23894 19.82158,57.46985 41.96875,63.1875 3.5878,0.92626 11.31794,2.5 15.28125,2.5 7.98608,0 17.19548,-2.1262 25.90625,-6.78125 2.78203,-4.03379 5.32319,-8.23421 6.1875,-14.25 1.39608,-8.37647 5.91998,-10.33192 14.1875,-3.90625 7.21353,-10.45252 11.92378,-24.51254 11.71875,-42.8125 -0.25103,-22.40588 -7.79398,-45.54169 -25.84375,-56.03125 -9.9291,-5.77025 -28.06291,-9.28214 -38.9375,-9.34375 z m 10.4375,20 c 16.54251,0 23.35456,8.61641 21.65625,49.15625 -0.88305,21.07492 -9.43489,41.03222 -26.46875,41.28125 -18.37082,0.26854 -24.83324,-11.24348 -25.4375,-27.0625 -7.79517,-5.04979 -17.81806,-17.61692 1.9375,-21.34375 3.71266,-19.50877 12.76245,-42.03125 28.3125,-42.03125 z"
         transform="translate(0,389.36218)"
         id="path5104" />
      <path
         style="display:inline;fill:#301b0b;fill-opacity:1;stroke:none"
         d="m 794.15625,250.375 c -11.39118,0.0104 -26.68033,2.49557 -35.78125,12.3125 -1.17073,1.26285 -1.10066,2.88888 0.75,3.6875 9.6075,4.14584 16.35841,3.83091 22.90625,13.03125 0.45058,23.98443 -0.91207,59.92939 -3.28125,88.1875 -2.47853,0 -3.92716,0.21299 -4.59375,0.5625 -4.66352,-0.19833 -9.31526,-0.34153 -13.9375,-0.46875 -1.09936,-0.0303 -2.71875,0.51163 -2.71875,1.65625 0,9.20768 4.89243,19.95789 13.4375,24.1875 4.03709,0 11.91136,-0.28535 21.59375,-1.1875 3.48993,-9.66779 10.08272,-10.33565 17.46875,-2.15625 14.77592,-2.24555 30.90505,-5.88177 43.90625,-11.75 3.62376,-1.63562 2.28823,-3.67312 -0.21875,-3.96875 -13.12401,-1.54766 -28.23162,-2.9924 -44.125,-4.1875 0.30848,-0.55746 0.5015,-1.18419 0.59375,-1.875 0.78337,-5.86653 1.0039,-13.45861 1.1875,-21.65625 -3.44309,-0.65082 -7.74911,-1.40727 -10.5,-1.8125 0.76358,-8.39929 3.00167,-11.71074 10.84375,-11.875 0.36367,-11.86873 1.11901,-23.94975 3.53125,-33.625 2.94548,-10.02381 4.18658,-21.89988 16.34375,-21.28125 6.88944,0.35061 15.84774,7.12858 16.4375,13.84375 0.37427,4.26311 -3.36935,14.67848 -9.84375,14.5 -3.50092,-0.0965 -4.78342,-1.49837 -6.8125,-4.3125 -0.70038,-0.97156 -2.34547,-0.0759 -1.78125,1.125 3.98953,8.49226 8.16975,11.0625 15.375,11.0625 9.5305,0 19.26795,-6.87815 19.375,-26.90625 0.12146,-22.711 -17.61775,-30.40179 -31.3125,-33.3125 -10.1307,-2.15318 -16.99687,9.41844 -24.9375,18.4375 l -0.0937,-7.71875 c -0.0913,-7.69855 -7.90672,-14.505 -13.8125,-14.5 z"
         transform="translate(0,389.36218)"
         id="path5106" />
    </g>
  </g>
</svg>
