<?xml version="1.0" encoding="UTF-8" standalone="no"?>
<svg
   xmlns:dc="http://purl.org/dc/elements/1.1/"
   xmlns:cc="http://creativecommons.org/ns#"
   xmlns:rdf="http://www.w3.org/1999/02/22-rdf-syntax-ns#"
   xmlns:svg="http://www.w3.org/2000/svg"
   xmlns="http://www.w3.org/2000/svg"
   xmlns:xlink="http://www.w3.org/1999/xlink"
   xmlns:sodipodi="http://sodipodi.sourceforge.net/DTD/sodipodi-0.dtd"
   xmlns:inkscape="http://www.inkscape.org/namespaces/inkscape"
   id="svg2"
   version="1.1"
   inkscape:version="1.0 (4035a4fb49, 2020-05-01)"
   width="2481"
   height="3503"
   sodipodi:docname="E33P02.svg">
  <metadata
     id="metadata8">
    <rdf:RDF>
      <cc:Work
         rdf:about="">
        <dc:format>image/svg+xml</dc:format>
        <dc:type
           rdf:resource="http://purl.org/dc/dcmitype/StillImage" />
        <dc:title />
      </cc:Work>
    </rdf:RDF>
  </metadata>
  <defs
     id="defs6">
    <filter
       x="-0.15000001"
       width="1.3"
       y="-0.15000001"
       height="1.3"
       inkscape:menu-tooltip="Something like a water noise"
       inkscape:menu="Distort"
       inkscape:label="dark-magic-speech"
       id="filter3018-9-9"
       style="color-interpolation-filters:sRGB">
      <feTurbulence
         result="result1"
         baseFrequency="0.045999999999999999"
         type="fractalNoise"
         seed="0"
         numOctaves="5"
         id="feTurbulence3020-3-0" />
      <feGaussianBlur
         result="result2"
         stdDeviation="2"
         id="feGaussianBlur3022-77-9" />
      <feDisplacementMap
         in="SourceGraphic"
         xChannelSelector="R"
         yChannelSelector="B"
         scale="50"
         in2="result2"
         id="feDisplacementMap3024-6-9" />
    </filter>
    <filter
       inkscape:label="soundFX"
       id="filter4375-4-1-1-1-9-5-8-6"
       style="color-interpolation-filters:sRGB"
       width="1.1900001">
      <feFlood
         result="flood"
         flood-color="rgb(92,53,102)"
         flood-opacity="1"
         id="feFlood4377-7-9-0-8-1-7-3-7" />
      <feComposite
         result="composite1"
         operator="in"
         in="flood"
         in2="SourceGraphic"
         id="feComposite4379-3-8-8-2-77-4-1-5" />
      <feMorphology
         result="result3"
         radius="6.2000000000000002"
         operator="dilate"
         id="feMorphology4393-1-0-49-8-9-3-0-3" />
      <feComposite
         result="fbSourceGraphic"
         operator="over"
         in="SourceGraphic"
         in2="result3"
         id="feComposite4385-9-5-7-0-8-8-7-56" />
      <feColorMatrix
         id="feColorMatrix4544-2"
         values="0 0 0 -1 0 0 0 0 -1 0 0 0 0 -1 0 0 0 0 1 0"
         in="fbSourceGraphic"
         result="fbSourceGraphicAlpha" />
      <feTurbulence
         result="turbulence"
         baseFrequency="0.129 0.0050000000000000001"
         seed="37"
         numOctaves="3"
         type="fractalNoise"
         id="feTurbulence4546-9" />
      <feDisplacementMap
         result="fbSourceGraphic"
         xChannelSelector="B"
         yChannelSelector="A"
         scale="10"
         in="fbSourceGraphic"
         in2="turbulence"
         id="feDisplacementMap4548-1" />
      <feColorMatrix
         id="feColorMatrix4670-2"
         values="0 0 0 -1 0 0 0 0 -1 0 0 0 0 -1 0 0 0 0 1 0"
         in="fbSourceGraphic"
         result="fbSourceGraphicAlpha" />
      <feComposite
         result="composite1"
         operator="in"
         in="flood"
         in2="fbSourceGraphic"
         id="feComposite4674-0" />
      <feComposite
         result="composite2"
         operator="over"
         in="fbSourceGraphic"
         in2="composite1"
         id="feComposite4680-6" />
    </filter>
  </defs>
  <sodipodi:namedview
     pagecolor="#ffffff"
     bordercolor="#666666"
     borderopacity="1"
     objecttolerance="10"
     gridtolerance="10"
     guidetolerance="10"
     inkscape:pageopacity="0"
     inkscape:pageshadow="2"
     inkscape:window-width="1920"
     inkscape:window-height="967"
     id="namedview4"
     showgrid="false"
     inkscape:zoom="0.4511509"
     inkscape:cx="1007.9863"
     inkscape:cy="2127.1306"
     inkscape:window-x="0"
     inkscape:window-y="72"
     inkscape:window-maximized="1"
     inkscape:current-layer="layer3"
     inkscape:document-rotation="0"
     inkscape:snap-global="false" />
  <g
     inkscape:groupmode="layer"
     id="layer2"
     inkscape:label="artwork"
     sodipodi:insensitive="true">
    <image
       sodipodi:absref="/felles/omsetting/pepper-carrot/webcomics/new-ep33_Spell-of-War/lang/gfx_Pepper-and-Carrot_by-David-Revoy_E33P02.png"
       xlink:href="../gfx_Pepper-and-Carrot_by-David-Revoy_E33P02.png"
       y="0"
       x="0"
       id="image10"
       height="3503"
       width="2481" />
  </g>
  <g
     inkscape:groupmode="layer"
     id="layer3"
     inkscape:label="speechbubbles"
     style="display:inline">
    <path
       sodipodi:nodetypes="ccccsccccsccccc"
       inkscape:connector-curvature="0"
       id="path1295-3"
       d="m 1603.617,2900.7968 c 0,0 -27.3248,-23.7569 -41.3688,-35.7472 -14.043,-11.9899 -28.5234,-25.421 -51.5926,-37.4265 30.8469,13.6257 44.5534,17.6378 44.5534,17.6378 0,0 -30.7119,-30.2731 -78.5901,-47.7633 -24.6028,-8.9877 -65.2442,-10.0982 -90.2001,-8.8673 26.2546,-6.1035 46.8033,-9.281 46.8033,-9.281 0,0 -69.5507,-19.6686 -108.0388,-13.863 -38.4889,5.8053 -80.704,1.2939 -115.0144,43.7789 42.5625,-51.8884 78.9921,-52.8998 114.7823,-56.3237 50.6472,-4.8449 140.4415,8.5514 168.78,16.1899 -33.3821,2.0473 -42.6052,4.1201 -42.6052,4.1201 0,0 25.4783,0.4116 69.4951,23.1451 44.0157,22.7334 95.6203,69.3559 101.4489,78.2848 5.8296,8.9291 -18.453,26.1154 -18.453,26.1154 z"
       style="fill:#0f0f0f;fill-opacity:1;fill-rule:evenodd;stroke:none;stroke-width:0.999996px;stroke-linecap:butt;stroke-linejoin:miter;stroke-opacity:1" />
    <path
       transform="matrix(0.93497009,0,0,0.90016842,1250.2766,2805.4742)"
       sodipodi:nodetypes="csssssc"
       inkscape:connector-curvature="0"
       id="path3986-45"
       d="m 428.67969,53.949219 c -42.9455,2.206213 -86.51838,3.637631 -128.08166,15.746955 -23.49333,7.328264 -39.45999,31.049046 -40.665,55.167646 -0.4046,7.7912 0.90221,15.53043 1.45739,23.28513 2.55016,24.46915 7.18432,49.1848 3.46855,73.79367 -2.90562,24.54702 -11.54303,48.37071 -11.16067,73.28696 1.42366,17.0493 13.4606,32.79899 29.80529,38.13413 16.48909,6.33013 34.43531,3.7008 51.61308,5.68997 37.57918,3.49927 74.04102,14.07558 111.45088,18.68977 29.17951,2.20449 57.43742,-6.92586 85.37626,-13.91984 18.95134,-4.82587 38.90136,-9.2127 54.64389,-21.52563 18.9388,-14.5978 29.08533,-38.76161 28.68769,-62.41517 -0.72272,-19.63423 -1.43002,-39.28001 -3.13477,-58.86133 -1.92634,-22.38361 -4.38235,-44.73495 -7.55434,-66.973 C 601.27593,116.90057 594.74506,99.315489 581.24955,87.563759 568.03119,76.555412 550.63768,72.710668 533.96349,70.713705 498.93504,64.873836 464.49354,53.733654 428.67969,53.949219 Z"
       style="color:#000000;display:inline;overflow:visible;visibility:visible;fill:#0f0f0f;fill-opacity:1;fill-rule:nonzero;stroke:none;stroke-width:1px;marker:none;filter:url(#filter3018-9-9);enable-background:accumulate" />
    <path
       sodipodi:nodetypes="ccccccccccccccccccccccccccc"
       inkscape:connector-curvature="0"
       id="path4508-2"
       d="m 1867.2026,1280.1298 c 27.9418,18.4361 2.4392,35.4714 -32.7312,21.1251 36.6122,27.5168 16.3337,44.4292 -11.2811,43.4685 15.506,19.1732 30.6605,37.549 -9.4047,71.1536 24.9295,-2.9887 26.5729,-9.592 43.0747,-1.3166 8.2561,5.7695 8.3053,19.5545 1.8525,28.0112 -0.9698,2.9465 33.4557,18.0449 26.0659,15.9902 11.3219,-15.4524 23.1121,-16.5627 36.2988,-9.6223 4.0232,4.3374 -3.1342,22.0449 -9.3372,39.7852 13.9083,-17.0933 29.4457,-45.1105 50.0133,-33.567 6.4401,1.8574 13.9289,11.3305 14.3017,19.923 4.0695,-28.3283 74.0855,-42.7134 51.1682,-4.2265 37.2399,-26.3313 54.4092,-29.5985 84.6542,16.87 -1.6515,-19.0952 3.2525,-31.2264 16.4757,-33.0484 13.9749,-1.1155 32.3688,5.7952 49.0945,22.6849 -7.6726,-30.9755 8.2143,-46.4482 45.8598,-7.0416 -23.2221,-43.9688 25.3321,-24.6897 37.5896,-13.6179 l 8.2978,5.2123 c -12.2536,-13.3869 -41.6383,-37.7508 -0.1092,-47.5971 -28.5805,-23.8557 1.896,-25.3357 15.2539,-24.3845 -17.5706,-9.3773 -38.1586,-33.923 -7.2438,-47.7401 7.3804,-3.3442 15.1576,-4.9783 22.4652,-8.6193 -17.0529,-2.2315 -34.2992,-2.5869 -51.14,-7.0701 -4.0745,-5.2618 0.9951,-12.8733 15.3331,-23.6261 -16.7101,3.1717 -23.5653,3.6339 -27.5304,-0.5993 -2.201,-8.1731 1.6712,-16.7809 6.5858,-21.6863 36.1875,-32.4945 -428.9923,-66.6191 -375.6071,-0.4609 z"
       style="display:inline;fill:#ffffff;fill-rule:evenodd;stroke:none;stroke-width:1.00961px;stroke-linecap:butt;stroke-linejoin:miter;stroke-opacity:1" />
    <path
       sodipodi:nodetypes="zssssz"
       inkscape:connector-curvature="0"
       id="path4040-3"
       d="m 307.02844,1966.7395 c -34.36573,1.0036 -69.06047,4.4213 -102.10869,16.0181 -10.59909,5.5347 -16.36142,18.0818 -21.53257,29.4676 -6.0286,13.3848 -8.57247,30.2261 -2.52043,44.2174 6.71887,15.9678 20.73573,25.7149 34.84704,30.9655 22.23018,8.6215 45.72817,11.4808 68.99212,13.3663 33.06143,2.3099 66.21037,1.9093 99.30975,1.2414 34.01372,-0.8951 68.05085,-2.4679 101.9141,-6.4172 14.69898,-1.9466 29.52232,-4.2146 43.63002,-9.5435 13.38814,-6.8253 23.64528,-23.1848 22.47686,-40.5858 -0.62894,-19.7366 -11.70481,-37.2437 -25.70579,-47.5504 -18.07864,-14.1155 -39.99054,-18.6793 -61.10485,-22.5432 -52.30535,-9.4077 -105.42979,-8.6759 -158.19756,-8.6362 z"
       style="color:#000000;display:inline;overflow:visible;visibility:visible;opacity:1;fill:#ffffff;fill-opacity:1;fill-rule:nonzero;stroke:none;stroke-width:0.603336px;marker:none;enable-background:accumulate" />
    <path
       sodipodi:nodetypes="zsssszccacsccz"
       inkscape:connector-curvature="0"
       id="path4040-5"
       d="m 378.33573,2081.4243 c -64.38276,1.9409 -118.43881,-0.3114 -179.44074,12.8051 -29.04262,8.6476 -41.04707,18.4248 -50.84739,41.0864 -13.16078,29.7173 -13.34432,99.8911 2.00858,130.5223 13.56436,24.2133 19.57559,34.1335 51.13294,42.932 36.41188,11.4174 81.25787,12.9696 119.35287,15.604 62.18706,3.5265 124.10274,1.6153 186.0981,1.8212 35.61503,-0.2981 71.46552,0.2041 106.58992,-3.3225 35.65245,-4.6599 73.96929,-7.1153 99.29137,-30.3943 19.76221,-18.1678 29.90882,-44.0703 29.28083,-74.436 0.27253,-28.3961 -2.92018,-59.6882 -17.51793,-84.7688 -18.68801,-32.1082 -53.76638,-32.9058 -85.62796,-39.9974 -42.61125,-9.6093 -86.47061,-8.6375 -129.65211,-9.8988 -43.58159,-1.1287 -87.17115,-2.1423 -130.66848,-1.9532 z"
       style="color:#000000;display:inline;overflow:visible;visibility:visible;opacity:1;fill:#ffffff;fill-opacity:1;fill-rule:nonzero;stroke:none;stroke-width:1.09898px;marker:none;enable-background:accumulate" />
    <path
       inkscape:connector-curvature="0"
       id="path3072-6"
       d="m 624.13281,1991.9768 c 7.88518,11.9538 14.91587,25.5164 14.63617,40.2108 -0.36106,15.5888 -8.81149,29.7901 -19.45505,40.6931 -12.17127,12.9287 -28.69751,21.4925 -38.60365,36.5715 -3.38773,4.3818 -5.55844,10.7494 -2.64656,15.9242 1.47567,3.2044 5.39218,4.0443 8.53129,3.0926 10.38429,-3.2204 21.30385,-4.4672 31.54171,-8.2051 15.31225,-16.9807 28.78775,-36.6953 33.7222,-59.3564 5.03094,-21.6253 -1.14003,-45.8981 -17.1672,-61.5342 -3.89901,-3.9477 -8.24271,-7.4293 -12.75617,-10.6465 0.73242,1.0834 1.46484,2.1667 2.19726,3.25 z"
       style="color:#000000;display:inline;overflow:visible;visibility:visible;fill:#ffffff;fill-opacity:1;fill-rule:nonzero;stroke:none;stroke-width:1px;marker:none;enable-background:accumulate"
       sodipodi:nodetypes="csccc" />
    <path
       inkscape:connector-curvature="0"
       id="path3278-12"
       d="m 937.96022,1303.5059 c -19.3536,1.4393 -39.23109,3.8207 -56.76862,12.9511 -18.1031,13.9082 -28.4761,36.7235 -29.86026,59.6256 -1.76201,18.2999 7.83452,37.574 24.12069,45.706 12.19305,6.3622 26.01083,7.7145 39.19871,10.6572 25.01841,4.9661 50.71536,6.5487 76.09772,3.999 20.24474,-1.6311 40.49184,-3.5807 60.56084,-6.7892 8.7441,-1.8503 17.7135,-6.2514 22.1934,-14.5755 5.9628,-10.2692 7.8613,-22.292 9.697,-33.9133 2.7733,-23.0435 -6.3948,-47.4709 -24.109,-62.0613 -4.0368,-3.3932 -8.7208,-5.9221 -13.7992,-7.2012 -9.8725,-2.6647 -20.1536,-2.7533 -30.229,-4.094 -25.61787,-2.6216 -51.34224,-4.5223 -77.10228,-4.3044 z"
       style="display:inline;fill:#ffffff;stroke:none;stroke-width:0.987101" />
    <path
       sodipodi:nodetypes="zssssz"
       inkscape:connector-curvature="0"
       id="path4040-4-9"
       d="m 979.34095,1414.9921 c -19.68496,0.4132 -39.55971,3.0108 -58.01955,10.2783 -18.14328,6.1465 -36.24143,14.4764 -49.80711,28.5889 -11.32569,12.5198 -21.19417,27.2318 -24.76105,44.115 -3.67484,21.0832 -4.74324,43.2586 1.53829,63.9519 5.89833,18.7827 20.06997,34.1312 37.07941,43.1466 18.85717,10.2325 40.25824,13.9841 61.2705,16.3422 21.16466,2.2442 42.41197,3.7377 63.68066,4.4235 24.2737,0.6368 48.7431,-0.1229 72.6353,-4.858 15.3972,-3.3441 30.5976,-9.9082 41.8148,-21.4567 16.3463,-16.104 26.7597,-37.7621 31.5087,-60.2605 3.6408,-18.4574 2.7802,-38.4305 -5.5139,-55.5169 -8.2216,-16.3927 -22.0717,-28.8038 -36.0519,-40.0241 -13.5237,-10.7631 -28.9618,-19.8246 -46.0948,-22.7191 -29.3694,-5.8457 -59.4616,-6.2113 -89.27935,-6.0111 z"
       style="color:#000000;display:inline;overflow:visible;visibility:visible;fill:#ffffff;fill-opacity:1;fill-rule:nonzero;stroke:none;stroke-width:1.03982px;marker:none;enable-background:accumulate" />
    <path
       inkscape:connector-curvature="0"
       id="path1082"
       d="m 983.56641,1540.9258 c -1.54733,-0.2856 -2.05258,1.3831 -1.09808,2.3984 6.90218,10.2571 11.32953,22.9594 9.29144,35.4258 -3.18525,16.1922 -9.80459,32.0595 -8.65454,48.8368 1.11911,13.9602 9.60256,26.2073 19.77957,35.3316 12.7705,11.6847 29.4582,19.7033 46.9627,19.9417 8.0219,-0.01 15.9545,-1.4957 23.8661,-2.677 2.0122,-0.3242 4.0201,-0.6741 6.0305,-1.0093 -21.3519,-1.0383 -42.6896,-10.0313 -57.063,-26.075 -7.9751,-11.2144 -9.1501,-25.6661 -7.8037,-38.9741 1.2287,-16.4415 5.3972,-33.1322 1.5972,-49.5368 -2.2772,-8.038 -5.4772,-16.8645 -13.1016,-21.291 -6.15616,-2.9998 -13.18911,-2.2768 -19.80659,-2.3711 z"
       style="display:inline;fill:#ffffff;fill-rule:evenodd;stroke:none;stroke-width:1px;stroke-linecap:butt;stroke-linejoin:miter;stroke-opacity:1" />
    <path
       sodipodi:nodetypes="ccsccccsccccc"
       inkscape:connector-curvature="0"
       id="path1295"
       d="m 1933.254,1410.8683 c -17.4616,22.7763 -39.3723,39.5766 -57.282,62.0022 0,0 -28.8441,38.6564 -40.2395,96.5112 -5.8554,29.7294 -3.0199,76.4916 0.4632,104.8789 -8.0432,-29.0428 -12.8817,-52.0472 -12.8817,-52.0472 0,0 -11.3274,83.0625 -2.3977,126.1749 8.9296,43.1135 8.8172,92.2603 50.7527,124.3161 -51.2796,-39.9049 -61.596,-93.6872 -67.0642,-134.2683 -13.5488,-100.5489 -5.0623,-156.4951 -0.7888,-190.2746 5.0241,37.9036 7.7845,48.1184 7.7845,48.1184 0,0 -2.0367,-29.2668 14.4986,-83.5927 16.5353,-54.3249 54.1065,-121.429 61.6856,-129.6345 7.5793,-8.2066 45.4693,27.8156 45.4693,27.8156 z"
       style="fill:#ffffff;fill-rule:evenodd;stroke:none;stroke-width:1px;stroke-linecap:butt;stroke-linejoin:miter;stroke-opacity:1" />
  </g>
  <g
     inkscape:groupmode="layer"
     id="layer1"
     inkscape:label="txt">
    <text
       id="text4246-5-6"
       y="2048.4661"
       x="367.70966"
       style="font-style:normal;font-variant:normal;font-weight:normal;font-stretch:normal;font-size:45px;line-height:0%;font-family:Lavi;-inkscape-font-specification:Lavi;text-align:center;letter-spacing:0px;word-spacing:0px;text-anchor:middle;fill:#000000;fill-opacity:1;stroke:none;stroke-width:0.88255"
       xml:space="preserve"
       inkscape:label="king"><tspan
         id="tspan439-5"
         y="2048.4661"
         x="367.70966"
         style="font-size:45px;line-height:1.25;stroke-width:0.88255"
         sodipodi:role="line">Så, unge heks.</tspan></text>
    <text
       id="text4246-5-8"
       y="2164.8655"
       x="438.81219"
       style="font-style:normal;font-variant:normal;font-weight:normal;font-stretch:normal;font-size:45px;line-height:0%;font-family:Lavi;-inkscape-font-specification:Lavi;text-align:center;letter-spacing:0px;word-spacing:0px;text-anchor:middle;fill:#000000;fill-opacity:1;stroke:none;stroke-width:0.88255"
       xml:space="preserve"
       inkscape:label="kingB"><tspan
         y="2164.8655"
         x="438.81219"
         style="font-size:45px;line-height:1.25;stroke-width:0.88255"
         sodipodi:role="line"
         id="tspan858">Har du ein trylleformel</tspan><tspan
         y="2221.1155"
         x="438.81219"
         style="font-size:45px;line-height:1.25;stroke-width:0.88255"
         sodipodi:role="line"
         id="tspan1118">som kan hjelpa oss, er</tspan><tspan
         y="2277.3655"
         x="438.81219"
         style="font-size:45px;line-height:1.25;stroke-width:0.88255"
         sodipodi:role="line"
         id="tspan1124"><tspan
   style="font-style:normal;font-variant:normal;font-weight:bold;font-stretch:normal;font-family:Lavi;-inkscape-font-specification:'Lavi Bold'"
   id="tspan1126">no</tspan> rett tid å bruka han!</tspan></text>
    <text
       id="text4246-4-81"
       y="1385.1536"
       x="965.95917"
       style="font-style:normal;font-variant:normal;font-weight:normal;font-stretch:normal;line-height:0%;font-family:Lavi;-inkscape-font-specification:Lavi;text-align:center;letter-spacing:0px;word-spacing:0px;text-anchor:middle;fill:#000000;fill-opacity:1;stroke:none"
       xml:space="preserve"
       inkscape:label="pepper"><tspan
         id="tspan4466-1"
         y="1385.1536"
         x="965.95917"
         style="font-size:45px;line-height:1.25"
         sodipodi:role="line">Greitt!</tspan></text>
    <text
       id="text4246-4-2"
       y="1510.0085"
       x="1002.8471"
       style="font-style:normal;font-variant:normal;font-weight:normal;font-stretch:normal;line-height:0%;font-family:Lavi;-inkscape-font-specification:Lavi;text-align:center;letter-spacing:0px;word-spacing:0px;text-anchor:middle;fill:#000000;fill-opacity:1;stroke:none"
       xml:space="preserve"
       inkscape:label="pepperB"><tspan
         y="1510.0085"
         x="1002.8471"
         style="font-size:45px;line-height:1.25"
         sodipodi:role="line"
         id="tspan1130">Førebu deg</tspan><tspan
         y="1566.2585"
         x="1002.8471"
         style="font-size:45px;line-height:1.25"
         sodipodi:role="line"
         id="tspan1134">på å sjå ...</tspan></text>
    <text
       inkscape:label="soundfxA"
       xml:space="preserve"
       style="font-style:normal;font-variant:normal;font-weight:normal;font-stretch:normal;line-height:0%;font-family:Lavi;-inkscape-font-specification:Lavi;letter-spacing:0px;word-spacing:0px;fill:#ffffff;fill-opacity:1;stroke:#98b9ca;stroke-width:0.714935;stroke-miterlimit:4;stroke-dasharray:none;stroke-opacity:1;filter:url(#filter4375-4-1-1-1-9-5-8-6)"
       x="787.65729"
       y="1584.5073"
       id="text4580-6-0-06-7"
       transform="matrix(1.0019251,-0.40193321,-0.06372629,1.3310734,596.66821,487.07533)"><tspan
         sodipodi:role="line"
         id="tspan4582-1-1-2-0"
         x="787.65729"
         y="1584.5073"
         style="font-size:70px;line-height:1.25;fill:#ffffff;fill-opacity:1;stroke:#98b9ca;stroke-width:0.714935;stroke-opacity:1"><tspan
           style="font-size:93.1495px;fill:#ffffff;fill-opacity:1;stroke:#98b9ca;stroke-width:0.714935;stroke-opacity:1"
           id="tspan4315-8-6-9">Dzziii!</tspan><tspan
           style="font-size:114.732px;fill:#ffffff;fill-opacity:1;stroke:#98b9ca;stroke-width:0.714935;stroke-opacity:1"
           id="tspan4313-2-1-3">!</tspan></tspan></text>
    <text
       transform="matrix(0.95264897,0,-0.256133,1.0497046,0,0)"
       id="text4246-6-9-8-8"
       y="1288.725"
       x="2513.4883"
       style="font-style:normal;font-variant:normal;font-weight:normal;font-stretch:normal;font-size:12.7808px;line-height:0%;font-family:Lavi;-inkscape-font-specification:Lavi;text-align:center;letter-spacing:0px;word-spacing:0px;text-anchor:middle;fill:#000000;fill-opacity:1;stroke:none;stroke-width:2.4;stroke-miterlimit:4;stroke-dasharray:none;stroke-opacity:1"
       xml:space="preserve"
       inkscape:label="pepperC"><tspan
         y="1288.725"
         x="2513.4883"
         style="font-style:normal;font-variant:normal;font-weight:bold;font-stretch:normal;font-size:45.7425px;line-height:1.25;font-family:Lavi;-inkscape-font-specification:'Lavi Bold';stroke:none;stroke-width:2.4;stroke-miterlimit:4;stroke-dasharray:none;stroke-opacity:1"
         sodipodi:role="line"
         id="tspan945">... MEISTER-</tspan><tspan
         y="1345.9031"
         x="2513.4883"
         style="font-style:normal;font-variant:normal;font-weight:bold;font-stretch:normal;font-size:45.7425px;line-height:1.25;font-family:Lavi;-inkscape-font-specification:'Lavi Bold';stroke:none;stroke-width:2.4;stroke-miterlimit:4;stroke-dasharray:none;stroke-opacity:1"
         sodipodi:role="line"
         id="tspan1138">VERKET MITT!</tspan></text>
    <text
       transform="matrix(1.2585454,-0.51781675,-0.08004832,1.7148423,946.02626,2.1829806)"
       id="text4580-6-0-06-7-2"
       y="1584.5073"
       x="787.65729"
       style="font-style:normal;font-variant:normal;font-weight:normal;font-stretch:normal;line-height:0%;font-family:Lavi;-inkscape-font-specification:Lavi;letter-spacing:0px;word-spacing:0px;fill:#ffffff;fill-opacity:1;stroke:#98b9ca;stroke-width:0.562003;stroke-miterlimit:4;stroke-dasharray:none;stroke-opacity:1;filter:url(#filter4375-4-1-1-1-9-5-8-6)"
       xml:space="preserve"
       inkscape:label="soundfxB"><tspan
         style="font-size:70px;line-height:1.25;fill:#ffffff;fill-opacity:1;stroke:#98b9ca;stroke-width:0.562003;stroke-opacity:1"
         y="1584.5073"
         x="787.65729"
         id="tspan4582-1-1-2-0-3"
         sodipodi:role="line"><tspan
           id="tspan4315-8-6-9-7"
           style="font-size:93.1495px;fill:#ffffff;fill-opacity:1;stroke:#98b9ca;stroke-width:0.562003;stroke-opacity:1">Dzziiii!</tspan><tspan
           id="tspan4313-2-1-3-5"
           style="font-size:114.732px;fill:#ffffff;fill-opacity:1;stroke:#98b9ca;stroke-width:0.562003;stroke-opacity:1">!</tspan></tspan></text>
    <text
       transform="scale(0.99830099,1.0017019)"
       id="text4180"
       y="2934.5144"
       x="1656.5211"
       style="font-style:normal;font-variant:normal;font-weight:normal;font-stretch:normal;line-height:0%;font-family:Lavi;-inkscape-font-specification:Lavi;text-align:center;letter-spacing:0px;word-spacing:0px;text-anchor:middle;opacity:1;fill:#ffffff;fill-opacity:1;stroke:none"
       xml:space="preserve"
       inkscape:label="magic"><tspan
         style="font-style:normal;font-variant:normal;font-weight:normal;font-stretch:normal;font-size:50.4467px;line-height:1.25;font-family:'Drukaatie burti';-inkscape-font-specification:'Drukaatie burti'"
         y="2934.5144"
         x="1656.5211"
         id="tspan4182"
         sodipodi:role="line">Realitas</tspan><tspan
         style="font-style:normal;font-variant:normal;font-weight:normal;font-stretch:normal;font-size:50.4467px;line-height:1.25;font-family:'Drukaatie burti';-inkscape-font-specification:'Drukaatie burti'"
         y="2997.5728"
         x="1656.5211"
         sodipodi:role="line"
         id="tspan965"> Hackeris</tspan><tspan
         style="font-style:normal;font-variant:normal;font-weight:normal;font-stretch:normal;font-size:50.4467px;line-height:1.25;font-family:'Drukaatie burti';-inkscape-font-specification:'Drukaatie burti'"
         y="3060.6311"
         x="1656.5211"
         sodipodi:role="line"
         id="tspan967"> Pepperus!</tspan></text>
    <text
       transform="matrix(1.4073064,-0.76647412,-0.0895101,2.5383155,748.27548,-72.167442)"
       id="text4580-6-0-06"
       y="1584.5073"
       x="787.65729"
       style="font-style:normal;font-variant:normal;font-weight:normal;font-stretch:normal;line-height:0%;font-family:Lavi;-inkscape-font-specification:Lavi;letter-spacing:0px;word-spacing:0px;fill:#ffffff;fill-opacity:1;stroke:#98b9ca;stroke-width:0.436835;stroke-miterlimit:4;stroke-dasharray:none;stroke-opacity:1;filter:url(#filter4375-4-1-1-1-9-5-8-6)"
       xml:space="preserve"
       inkscape:label="soundfxC"><tspan
         style="font-size:70px;line-height:1.25;fill:#ffffff;fill-opacity:1;stroke:#98b9ca;stroke-width:0.436835;stroke-opacity:1"
         y="1584.5073"
         x="787.65729"
         id="tspan4582-1-1-2"
         sodipodi:role="line"><tspan
           id="tspan4315-8-6"
           style="font-size:93.1495px;fill:#ffffff;fill-opacity:1;stroke:#98b9ca;stroke-width:0.436835;stroke-opacity:1">Dzziooo!</tspan><tspan
           id="tspan4313-2-1"
           style="font-size:114.732px;fill:#ffffff;fill-opacity:1;stroke:#98b9ca;stroke-width:0.436835;stroke-opacity:1">!</tspan></tspan></text>
  </g>
</svg>
