<?xml version="1.0" encoding="UTF-8" standalone="no"?>
<!-- Created with Inkscape (http://www.inkscape.org/) -->

<svg
   id="svg2"
   version="1.1"
   inkscape:version="1.1.1 (3bf5ae0d25, 2021-09-20, custom)"
   width="2481"
   height="3503"
   sodipodi:docname="E32P05.svg"
   xmlns:inkscape="http://www.inkscape.org/namespaces/inkscape"
   xmlns:sodipodi="http://sodipodi.sourceforge.net/DTD/sodipodi-0.dtd"
   xmlns:xlink="http://www.w3.org/1999/xlink"
   xmlns="http://www.w3.org/2000/svg"
   xmlns:svg="http://www.w3.org/2000/svg"
   xmlns:rdf="http://www.w3.org/1999/02/22-rdf-syntax-ns#"
   xmlns:cc="http://creativecommons.org/ns#"
   xmlns:dc="http://purl.org/dc/elements/1.1/">
  <metadata
     id="metadata8">
    <rdf:RDF>
      <cc:Work
         rdf:about="">
        <dc:format>image/svg+xml</dc:format>
        <dc:type
           rdf:resource="http://purl.org/dc/dcmitype/StillImage" />
        <dc:title />
      </cc:Work>
    </rdf:RDF>
  </metadata>
  <defs
     id="defs6">
    <filter
       style="color-interpolation-filters:sRGB"
       id="filter4375-4-1-1-1-9-6-9-2-1-7-1"
       inkscape:label="deevad outline effect"
       x="-0.0013645637"
       y="-0.0079611455"
       width="1.0027291"
       height="1.0159223">
      <feFlood
         id="feFlood4377-7-9-0-8-1-0-2-2-06-3-9"
         flood-opacity="1"
         flood-color="rgb(0,0,0)"
         result="flood" />
      <feComposite
         id="feComposite4379-3-8-8-2-77-6-0-8-3-6-4"
         in2="SourceGraphic"
         in="flood"
         operator="in"
         result="composite1" />
      <feMorphology
         id="feMorphology4393-1-0-49-8-9-2-2-9-2-1-7"
         operator="dilate"
         radius="4"
         result="result3" />
      <feComposite
         id="feComposite4385-9-5-7-0-8-6-3-7-0-2-8"
         in2="result3"
         in="SourceGraphic"
         operator="over"
         result="composite2" />
    </filter>
    <filter
       style="color-interpolation-filters:sRGB"
       id="filter4375-4-1-1-1-9-6-9-2-1-7-1-2"
       inkscape:label="deevad outline effect">
      <feFlood
         id="feFlood4377-7-9-0-8-1-0-2-2-06-3-9-7"
         flood-opacity="1"
         flood-color="rgb(0,0,0)"
         result="flood" />
      <feComposite
         id="feComposite4379-3-8-8-2-77-6-0-8-3-6-4-0"
         in2="SourceGraphic"
         in="flood"
         operator="in"
         result="composite1" />
      <feMorphology
         id="feMorphology4393-1-0-49-8-9-2-2-9-2-1-7-9"
         operator="dilate"
         radius="4"
         result="result3" />
      <feComposite
         id="feComposite4385-9-5-7-0-8-6-3-7-0-2-8-3"
         in2="result3"
         in="SourceGraphic"
         operator="over"
         result="composite2" />
    </filter>
    <filter
       style="color-interpolation-filters:sRGB"
       id="filter4375-4-1-1-1-9"
       inkscape:label="deevad outline effect"
       x="-0.0034735362"
       y="-0.0093507598"
       width="1.0069471"
       height="1.0187015">
      <feFlood
         id="feFlood4377-7-9-0-8-1"
         flood-opacity="1"
         flood-color="rgb(0,0,0)"
         result="flood" />
      <feComposite
         id="feComposite4379-3-8-8-2-77"
         in2="SourceGraphic"
         in="flood"
         operator="in"
         result="composite1" />
      <feMorphology
         id="feMorphology4393-1-0-49-8-9"
         operator="dilate"
         radius="4"
         result="result3" />
      <feComposite
         id="feComposite4385-9-5-7-0-8"
         in2="result3"
         in="SourceGraphic"
         operator="over"
         result="composite2" />
    </filter>
    <filter
       inkscape:collect="always"
       style="color-interpolation-filters:sRGB"
       id="filter1101"
       x="-0.12972304"
       width="1.2594461"
       y="-0.36928496"
       height="1.7385699">
      <feGaussianBlur
         inkscape:collect="always"
         stdDeviation="22.559027"
         id="feGaussianBlur1103" />
    </filter>
  </defs>
  <sodipodi:namedview
     pagecolor="#ffffff"
     bordercolor="#666666"
     borderopacity="1"
     objecttolerance="10"
     gridtolerance="10"
     guidetolerance="10"
     inkscape:pageopacity="0"
     inkscape:pageshadow="2"
     inkscape:window-width="1888"
     inkscape:window-height="1146"
     id="namedview4"
     showgrid="false"
     inkscape:zoom="0.2645"
     inkscape:cx="820.41587"
     inkscape:cy="1922.4953"
     inkscape:window-x="32"
     inkscape:window-y="0"
     inkscape:window-maximized="1"
     inkscape:current-layer="layer1"
     inkscape:snap-global="false"
     inkscape:pagecheckerboard="0" />
  <g
     inkscape:groupmode="layer"
     id="layer2"
     inkscape:label="artwork"
     sodipodi:insensitive="true">
    <image
       xlink:href="../gfx_Pepper-and-Carrot_by-David-Revoy_E32P05.png"
       width="2481"
       height="3503.4727"
       id="image10"
       x="0"
       y="0" />
  </g>
  <g
     inkscape:groupmode="layer"
     id="layer3"
     inkscape:label="speechbubbles"
     style="display:inline">
    <path
       style="display:inline;fill:#ffffff;fill-rule:evenodd;stroke:none;stroke-width:0.725325px;stroke-linecap:butt;stroke-linejoin:miter;stroke-opacity:1"
       d="m 1243.4141,1484.526 c -0.5647,9.9281 -0.1854,20.4787 -3.2344,29.5653 -3.9893,9.9202 -11.5538,15.0814 -18.8567,15.5097 -6.8858,0.4919 -13.8184,-1.214 -20.3083,-4.8256 -1.8975,1.7034 -1.417,6.2093 0.168,8.0014 3.7058,8.4084 7.4227,17.6368 7.6635,28.1581 0.4328,7.2739 -1.7746,15.4789 -6.2876,18.3746 -3.4154,2.3182 -7.2261,1.8305 -10.8481,1.5286 0.9638,2.9237 2.9339,4.5245 4.1616,7.1328 2.583,4.1225 5.1495,9.4806 4.6627,15.591 -0.7092,8.3808 -5.2288,15.0411 -10.3229,17.1316 -1.9139,1.5388 -3.8277,3.0777 -5.7417,4.6166 9.4496,-0.74 19.1437,-2.4634 28.4022,1.5628 5.1988,3.0433 6.5786,15.3825 2.3625,21.0213 -3.1573,5.7646 -7.0996,10.2596 -10.723,15.2534 13.5686,-3.1112 27.12,-8.4909 40.934,-7.0514 3.7405,0.3499 7.7271,1.324 10.6337,5.3558 2.4199,3.0025 4.3366,6.9542 5.6184,11.3424 4.3169,2.3668 8.8152,-0.3209 12.9529,-2.3284 9.5319,-4.9334 18.69,-11.7902 28.5791,-14.9133 2.0809,0.7066 3.8197,3.2185 4.5745,6.3049 4.6476,2.0333 9.2684,-1.1882 13.7973,-2.5014 3.6185,-1.2212 7.2669,-2.513 10.9875,-2.5417 1.7972,3.3006 4.2022,6.7841 7.195,6.2619 8.9468,0.7575 18.1804,-0.5988 26.8081,3.9744 5.3658,3.7375 9.5483,10.7794 12.3774,18.7129 9.1669,-8.1571 17.0374,-20.0046 27.1575,-25.4124 6.9568,-3.9359 15.4766,-2.4477 20.9922,5.6725 1.5552,2.2919 2.8947,4.9092 4.1629,7.591 4.0435,-4.7007 7.5099,-11.3401 12.6304,-13.166 7.454,-3.6256 15.3702,-1.5036 22.8301,0.9233 6.5996,1.9605 13.1585,4.246 19.6826,6.7477 -3.5463,-4.6985 -6.5168,-11.3599 -6.52,-18.8825 0.9518,-6.1016 4.9979,-10.5748 8.9924,-9.9214 -1.1428,-3.8787 -1.6781,-9.2173 0.4621,-12.5199 3.3977,-5.1046 8.3317,-5.9264 12.7987,-6.6131 1.1797,-0.2467 2.3591,-0.4933 3.5385,-0.7399 -7.9138,-6.8926 -10.0789,-25.5898 -4.1735,-36.3545 3.8834,-6.4258 8.7166,-11.1956 13.6643,-15.3562 -7.1014,-0.6145 -14.3023,2.0769 -21.3238,-0.5299 -3.9208,-3.8924 -5.554,-11.0957 -8.5251,-16.3687 -1.646,-5.2621 0.047,-11.7985 2.9887,-14.9956 6.3466,-10.0082 12.4184,-20.5414 17.3613,-32.3698 2.8691,-6.5203 5.5099,-13.2786 8.0537,-20.1188 -8.3978,17.8566 -20.1196,32.452 -33.8448,38.7152 -4.5524,2.2348 -9.231,5.0401 -14.0895,4.1567 -2.4232,-1.7842 -4.4859,-5.4364 -7.3615,-5.2027 -5.1204,3.0449 -10.2406,6.0898 -15.361,9.1347 -1.5096,-1.8378 -2.638,-4.4313 -3.1655,-7.3095 -4.9383,0.3728 -10.0582,-0.997 -14.3155,-5.0927 -2.1083,-5.3962 -2.4,-12.3534 -0.8721,-18.188 -6.8879,7.7054 -12.8463,17.1764 -19.2829,25.7367 -6.5673,-1.9897 -11.9906,-9.794 -18.848,-9.9728 -18.5005,-2.4276 -37.1106,-4.9372 -55.6738,-2.7833 -8.9702,2.2246 -18.009,6.2979 -27.1603,4.25 -8.9599,-1.4534 -18.1513,-4.0268 -27.0639,-0.6243 -4.4576,1.6295 -9.5452,2.4885 -13.6208,-1.4854 -6.498,-5.8635 -10.6199,-15.9964 -15.4502,-24.633 -1.3273,-2.5182 -2.6912,-4.9888 -4.0774,-7.4281 -0.047,0.6343 -0.094,1.2687 -0.1415,1.903 z"
       id="path4508-9"
       inkscape:connector-curvature="0"
       sodipodi:nodetypes="cccccccccccccccccccccccccccccccccccccccccccccccccccc" />
    <path
       style="display:inline;fill:#ffffff;fill-rule:evenodd;stroke:none;stroke-width:0.941076px;stroke-linecap:butt;stroke-linejoin:miter;stroke-opacity:1"
       d="m 1255.7899,1551.6001 c -0.5392,14.9763 -2.8927,30.4744 -10.3266,43.1992 -13.1817,9.9032 -32.1045,8.0436 -43.7813,-3.9336 -3.123,1.0549 -2.5289,5.9619 -0.5821,7.9977 4.0432,13.7745 8.1854,27.5385 11.2113,41.6546 -3.9757,4.279 -11.381,2.8847 -13.9139,-2.6171 1.2106,8.6577 8.0586,15.0735 8.2214,24.0527 -2.8717,6.8509 -8.016,8.5402 -17.8208,10.7721 4.7047,6.4634 10.2982,13.6119 9.9152,22.5472 -0.3216,10.3506 -7.9468,18.5756 -16.1885,21.838 -1.0832,0.4177 -0.6092,1.3365 0.3725,1.0804 14.4346,2.5904 29.749,0.1279 43.4457,6.9673 9.7629,3.8318 18.1466,14.403 17.7385,26.5313 -0.1614,2.4172 -1.0985,4.6955 -1.1191,7.1289 8.8426,-3.685 17.5553,-8.7143 27.155,-9.1211 3.8147,2.217 4.6344,8.9238 1.427,12.1739 10.9564,-0.8761 18.6146,-12.6591 29.7646,-12.661 3.6024,-0.2209 7.0006,3.728 6.2905,7.7668 1.6891,2.4778 5.0607,-3.4752 7.2906,-3.6732 6.333,-1.7096 5.341,-2.3202 11.9528,-2.6628 2.3601,1.0566 5.3522,1.9214 8.1483,6.7575 4.6801,-1.6599 6.8194,-3.2964 9.8083,-3.2618 9.6859,-1.9429 15.8015,-9.5681 29.3873,-4.0373 9.0457,2.6901 13.6281,11.4501 18.693,16.5363 2.8455,-4.9904 6.224,-8.3773 9.1556,-11.6886 5.2776,-9.0484 15.1048,-11.7554 24.4517,-13.0204 8.008,-2.4924 16.2887,1.1364 24.3902,4.914 4.9532,2.837 9.3554,6.8716 14.6205,9.009 4.1268,-2.9935 8.6113,-7.6176 13.913,-5.8788 5.4827,1.2629 10.2837,4.7237 15.5859,6.6014 -3.1195,-5.2749 -7.9939,-9.9378 -8.3304,-16.6953 2.0373,-4.1426 6.2967,-5.7219 10.0999,-6.8906 -0.1751,-5.8386 3.994,-10.7273 8.6245,-12.6035 0.9749,-4.2932 -3.4312,-6.3524 -4.8505,-9.6772 -3.4927,-6.1856 -2.0094,-16.333 4.5887,-18.9876 3.7997,-1.6863 8.0995,-1.1902 11.8112,-3.2024 -0.1594,-3.6135 -4.0902,-3.559 -6.3705,-4.4551 -6.6198,-2.3525 -14.0542,-5.8666 -16.9123,-13.6003 -1.1428,-4.5717 2.192,-8.5977 2.2836,-12.9751 -1.6779,-3.1602 -5.7716,-5.5187 -4.7776,-9.8157 2.4448,-12.6493 11.1019,-21.8467 17.1975,-32.3092 9.1169,-14.1637 18.2336,-28.3274 27.3504,-42.4911 -14.9229,16.7767 -29.7888,33.8856 -47.182,47.4531 -4.1806,-0.2747 -6.5459,-6.8783 -3.7103,-10.3574 -6.2583,1.8352 -10.5415,7.7663 -16.1366,11.041 -2.2232,-3.2623 -1.9266,-8.188 0.3788,-11.2968 -2.9099,-2.8821 -6.8816,2.6571 -9.6416,-0.7012 -3.6513,-4.4836 -1.899,-10.9601 -1.0805,-16.2618 0.9472,-5.1539 2.3448,-10.1858 3.3223,-15.332 -9.7229,12.8442 -16.5415,28.756 -28.8308,38.929 -2.0806,1.8328 -5.203,2.7874 -7.3677,0.5686 -2.0532,-1.538 -3.5049,-4.1363 -3.6839,-6.9312 -7.4576,0.8047 -14.0465,7.2402 -21.774,5.5059 -8.1461,-4.4956 -17.8094,-2.5912 -25.7506,1.5215 -7.6607,-0.014 -13.4301,-8.2277 -21.2549,-7.1392 -4.8797,-0.9398 -8.0063,-5.8572 -10.6809,-9.9732 -4.8195,-0.6012 -7.3561,5.1911 -11.4149,6.9807 -9.9182,5.829 -22.4086,2.6338 -30.8577,-4.9761 -1.9634,-2.1426 -4.8392,-4.8476 -7.6376,-2.7953 -3.1785,1.7483 -4.4198,6.6255 -8.0393,7.4051 -5.8897,0.772 -10.9248,-5.2245 -11.6567,-11.485 -6.3832,-15.108 -11.3463,-30.9005 -16.8687,-46.4174 -0.017,0.9974 -0.035,1.9948 -0.054,2.9922 z"
       id="path4508-9-6"
       inkscape:connector-curvature="0"
       sodipodi:nodetypes="cccccccccccccccccccccccccccccccccccccccccccccccccccccccccccccccc" />
    <path
       style="color:#000000;display:inline;overflow:visible;visibility:visible;fill:#ffffff;fill-opacity:1;fill-rule:nonzero;stroke:none;stroke-width:0.99999994px;marker:none;enable-background:accumulate"
       d="m 1322.5586,1728.1016 c -11.0094,9.9702 -17.1146,23.8053 -25.197,35.9928 -5.7365,9.1028 -17.9114,24.8135 -26.046,32.2016 7.6812,0.2097 5.7344,0.8326 10.9478,2.0534 3.3706,1.3513 7.7807,2.3941 9.3038,6.0235 -1.4478,7.677 -8.2527,12.4101 -13.2117,17.8317 -21.2393,19.7738 -50.3466,30.4414 -79.2715,30.188 30.5673,5.5836 63.676,0.269 89.5548,-17.4158 15.5847,-11.4657 31.0045,-29.6098 44.4036,-43.4287 -3.8521,-0.6581 -8.7325,-0.5391 -12.6274,-0.7071 -7.2015,-0.9549 -9.1708,-6.0664 -6.2213,-10.4154 3.8653,-10.2383 12.9809,-16.9751 20.7567,-24.1405 4.6114,-3.9349 9.2499,-7.8384 13.8074,-11.8359 -7.5773,-6.8137 -16.4342,-11.9448 -25.0566,-17.289 -0.3809,0.3138 -0.7617,0.6276 -1.1426,0.9414 z"
       id="path5066-6"
       inkscape:connector-curvature="0"
       sodipodi:nodetypes="ccccccccccccccc" />
    <path
       style="color:#000000;display:inline;overflow:visible;visibility:visible;fill:#ffffff;fill-opacity:1;fill-rule:nonzero;stroke:none;stroke-width:0.998361px;marker:none;enable-background:accumulate"
       d="m 1447.9789,355.47571 c -34.3814,1.83549 -69.1068,10.57751 -99.5688,30.92119 -12.2778,9.03749 -22.8948,23.36516 -25.8116,41.0351 -1.0967,17.39357 1.7564,38.44573 11.7831,50.36455 14.0267,16.67351 26.4855,19.53157 41.4911,22.87761 54.281,12.10393 92.1624,10.05785 139.3091,10.05142 28.1822,1.31831 93.6949,3.11182 121.4921,-3.64622 18.3936,-6.22712 22.0987,-5.83352 35.7853,-20.16712 7.0415,-10.37291 8.74,-21.88225 10.9651,-42.70275 2.5222,-14.03032 0.3929,-29.00839 -4.7894,-41.75206 -4.7841,-10.599 -13.246,-18.28077 -22.6742,-21.50392 -16.8904,-7.29501 -34.75,-9.94832 -52.2733,-13.90705 -51.5002,-9.55902 -103.7108,-11.37236 -155.7085,-11.57075 z"
       id="path3365-74"
       inkscape:connector-curvature="0"
       sodipodi:nodetypes="csssssccccccc" />
    <path
       style="display:inline;fill:#ffffff;fill-rule:evenodd;stroke:none;stroke-width:1.14395452px;stroke-linecap:butt;stroke-linejoin:miter;stroke-opacity:1"
       d="m 1458.5132,124.9505 c -38.0721,0.38599 -76.8259,-1.22989 -114.0255,6.98826 -24.8306,5.52943 -48.0017,19.43318 -58.9078,39.54702 -7.6614,15.81305 -1.3279,34.66567 12.403,46.63739 7.6046,6.76206 16.0485,13.60859 26.8137,16.42522 9.9422,2.54143 20.3908,0.99986 30.5806,1.29424 18.6961,-0.14066 37.3888,0.44407 56.0382,1.51249 73.8837,2.41748 147.8463,1.62733 221.7534,0.57368 24.3799,-0.7183 49.5014,-1.89015 72.1755,-10.24833 14.4946,-5.74789 26.7353,-16.63156 30.1843,-30.14875 4.6563,-14.82251 1.2429,-32.22842 -12.1552,-43.13396 -12.5292,-10.48285 -29.08,-16.54769 -45.4739,-21.35899 -21.6573,-5.79725 -44.6062,-6.40673 -67.1305,-6.02763 -29.6819,-0.37607 -59.3601,-0.89413 -89.033,-1.61992 -21.0708,-0.44807 -42.1469,-0.48431 -63.2228,-0.44072 z"
       id="path1297"
       inkscape:connector-curvature="0" />
    <path
       style="display:inline;fill:#ffffff;fill-rule:evenodd;stroke:none;stroke-width:1.07321656px;stroke-linecap:butt;stroke-linejoin:miter;stroke-opacity:1"
       d="m 1594.7951,208.38604 c -59.4535,2.36382 -118.9263,4.31977 -178.3505,7.3593 -15.2519,0.93053 -30.5879,1.35654 -45.6544,4.11747 -17.2843,3.01229 -34.4922,7.62554 -50.1846,15.60331 -13.9091,8.42151 -23.2386,22.23959 -31.9609,35.57617 -4.3674,6.6825 -7.3464,14.37755 -7.4755,22.43246 -0.6404,13.87734 3.4044,27.43167 7.7407,40.45484 3.991,11.01406 10.7386,21.14699 20.1341,28.26521 11.1108,8.98912 23.6673,16.62526 37.5161,20.4878 9.5103,2.67817 19.4529,2.98826 29.2649,2.68808 23.9941,-0.0612 47.9875,0.0476 71.981,0.12782 66.6507,-0.009 133.4225,0.0867 199.8777,-5.67886 14.0611,-1.26073 28.0855,-4.26979 41.1133,-9.79302 10.7078,-4.42698 19.7494,-11.97797 27.7566,-20.20679 7.4397,-7.83016 13.1722,-17.65192 14.4524,-28.51841 2.4302,-15.53143 0.9422,-31.30416 1.7055,-46.93465 -0.6883,-12.50531 -7.974,-23.83333 -17.6481,-31.44112 -14.3921,-13.0573 -31.8062,-23.27715 -51.0242,-27.05856 -15.0784,-3.31752 -30.4498,-5.09184 -45.7851,-6.72014 -7.8015,-0.63527 -15.633,-0.87333 -23.459,-0.76091 z"
       id="path1299"
       inkscape:connector-curvature="0" />
    <path
       style="display:inline;fill:#ffffff;fill-rule:evenodd;stroke:none;stroke-width:1px;stroke-linecap:butt;stroke-linejoin:miter;stroke-opacity:1"
       d="m 1516.8322,467.18878 c -6.6131,0.47706 -14.4131,0.53134 -19.0606,6.05273 -9.2681,15.84095 -16.7496,33.90699 -15.1611,52.61768 2.1917,20.11622 13.9704,37.89228 28.3815,51.53834 8.5346,8.09616 15.6793,18.09456 18.3938,29.69937 4.3317,16.40289 0.7816,35.11834 -10.8279,47.78415 -2.1207,2.52133 -4.4197,4.88481 -6.7453,7.21593 17.3235,-9.37091 31.4532,-26.25408 34.2349,-46.13162 1.2634,-15.92483 -6.122,-31.08454 -15.4694,-43.50249 -9.5013,-13.2266 -21.135,-25.79068 -25.2403,-41.97989 -3.1205,-17.66298 3.3092,-35.58183 12.9847,-50.18689 1.9316,-3.08666 4.9581,-6.76026 3.4836,-10.5888 -1.0225,-1.66362 -3.0088,-2.74768 -4.9739,-2.51851 z"
       id="path1303"
       inkscape:connector-curvature="0"
       sodipodi:nodetypes="cccccccc" />
    <path
       style="color:#000000;display:inline;overflow:visible;visibility:visible;fill:#ffffff;fill-opacity:1;fill-rule:nonzero;stroke:none;stroke-width:1px;marker:none;filter:url(#filter1101);enable-background:accumulate"
       d="m 2064.5541,245.38398 c -39.6392,1.7245 -79.6747,9.93788 -114.7951,29.05136 -14.1553,8.49097 -26.3959,21.95224 -29.7587,38.55366 -1.2644,16.34177 6.3065,32.47141 17.7626,43.76686 11.5765,10.64183 27.1161,15.33349 42.2658,17.94208 53.0817,12.13776 107.6486,16.55384 162.005,16.5478 32.4919,1.23859 65.3456,1.67653 97.3937,-4.67284 21.8628,-3.05112 43.8441,-8.01871 63.3983,-18.65986 15.5501,-7.93618 28.7562,-21.93251 33.1784,-39.16111 2.9079,-13.18188 0.453,-27.25422 -5.5218,-39.22726 -5.5156,-9.95807 -15.2715,-17.17531 -26.1416,-20.20356 -19.4733,-6.85388 -40.064,-9.34673 -60.267,-13.06608 -59.3757,-8.98097 -119.5704,-10.68466 -179.5196,-10.87105 z"
       id="path3365-74-3"
       inkscape:connector-curvature="0"
       sodipodi:nodetypes="csssssc"
       transform="matrix(1.0118692,0,0,0.99688645,-37.274329,0.99225939)" />
  </g>
  <g
     inkscape:groupmode="layer"
     id="layer1"
     inkscape:label="txt"
     style="display:inline">
    <text
       xml:space="preserve"
       style="font-style:normal;font-variant:normal;font-weight:normal;font-stretch:normal;line-height:0%;font-family:Lavi;-inkscape-font-specification:Lavi;text-align:center;letter-spacing:0px;word-spacing:0px;text-anchor:middle;fill:#000000;fill-opacity:1;stroke:none"
       x="1509.0961"
       y="197.70142"
       id="text4246-86"><tspan
         sodipodi:role="line"
         style="font-size:45px;line-height:1.2"
         x="1509.0961"
         y="197.70142"
         id="tspan1167">Resno, Korenček?</tspan></text>
    <text
       xml:space="preserve"
       style="font-style:normal;font-variant:normal;font-weight:normal;font-stretch:normal;line-height:0%;font-family:Lavi;-inkscape-font-specification:Lavi;text-align:center;letter-spacing:0px;word-spacing:0px;text-anchor:middle;fill:#000000;fill-opacity:1;stroke:none"
       x="1509.1937"
       y="281.34268"
       id="text4246-86-3"><tspan
         sodipodi:role="line"
         style="font-size:45px;line-height:1.2"
         x="1509.1937"
         y="281.34268"
         id="tspan855">Upam da je bila</tspan><tspan
         sodipodi:role="line"
         style="font-size:45px;line-height:1.2"
         x="1509.1937"
         y="335.34268"
         id="tspan4432">hrana tega vredna.</tspan></text>
    <text
       xml:space="preserve"
       style="font-style:normal;font-variant:normal;font-weight:normal;font-stretch:normal;line-height:0%;font-family:Lavi;-inkscape-font-specification:Lavi;text-align:center;letter-spacing:0px;word-spacing:0px;text-anchor:middle;fill:#000000;fill-opacity:1;stroke:none"
       x="1506.0621"
       y="427.0108"
       id="text4246-86-3-7"><tspan
         sodipodi:role="line"
         style="font-size:45px;line-height:1.2"
         x="1506.0621"
         y="427.0108"
         id="tspan25668">Ker izgledaš</tspan><tspan
         sodipodi:role="line"
         style="font-size:45px;line-height:1.2"
         x="1506.0621"
         y="481.0108"
         id="tspan28834">grozno...</tspan></text>
    <text
       xml:space="preserve"
       style="font-style:normal;font-variant:normal;font-weight:normal;font-stretch:normal;line-height:0%;font-family:Lavi;-inkscape-font-specification:Lavi;letter-spacing:0px;word-spacing:0px;display:inline;fill:#ffffff;fill-opacity:1;stroke:#ffffff;stroke-width:1.14998;stroke-miterlimit:4;stroke-dasharray:none;stroke-opacity:1;filter:url(#filter4375-4-1-1-1-9-6-9-2-1-7-1)"
       x="787.65729"
       y="1584.5073"
       id="text4580-1-7-3-6-9-4"
       transform="matrix(0.8084187,0.00200213,-0.18183537,0.93491494,1588.0184,-1147.577)"><tspan
         sodipodi:role="line"
         id="tspan4582-8-5-6-1-3-5"
         x="787.65729"
         y="1584.5073"
         style="font-size:70px;line-height:1.25;letter-spacing:3.44995px;fill:#ffffff;fill-opacity:1;stroke:#ffffff;stroke-width:1.14998;stroke-miterlimit:4;stroke-dasharray:none;stroke-opacity:1">...izgledaš...</tspan></text>
    <text
       xml:space="preserve"
       style="font-style:normal;font-variant:normal;font-weight:normal;font-stretch:normal;font-size:13.859px;line-height:0%;font-family:Lavi;-inkscape-font-specification:Lavi;text-align:center;letter-spacing:0px;word-spacing:0px;text-anchor:middle;display:inline;fill:#000000;fill-opacity:1;stroke:none;stroke-width:3.6;stroke-miterlimit:4;stroke-dasharray:none"
       x="1774.1447"
       y="1410.8529"
       id="text4246-2-3-1-3-9-0-5-3-3-6-9-3-7-3-9-4"
       transform="matrix(0.87552817,0,-0.14342897,1.1421677,0,0)"><tspan
         sodipodi:role="line"
         style="font-style:normal;font-variant:normal;font-weight:bold;font-stretch:normal;font-size:64.9779px;line-height:1.25;font-family:Lavi;-inkscape-font-specification:'Lavi Bold';stroke:none;stroke-width:3.6;stroke-miterlimit:4;stroke-dasharray:none;stroke-opacity:1"
         x="1774.1447"
         y="1410.8529"
         id="tspan4579-4">Izgled!</tspan></text>
    <text
       xml:space="preserve"
       style="font-style:normal;font-variant:normal;font-weight:normal;font-stretch:normal;font-size:12.5182px;line-height:0%;font-family:Lavi;-inkscape-font-specification:Lavi;text-align:center;letter-spacing:0px;word-spacing:0px;text-anchor:middle;display:inline;fill:#000000;fill-opacity:1;stroke:none;stroke-width:3.6;stroke-miterlimit:4;stroke-dasharray:none"
       x="1625.8811"
       y="1577.9111"
       id="text4246-2-3-1-3-9-0-5-3-3-6-9-3-7-3-9-4-6"
       transform="matrix(0.92759422,0,-0.09976132,1.0780576,0,0)"><tspan
         sodipodi:role="line"
         style="font-style:normal;font-variant:normal;font-weight:bold;font-stretch:normal;font-size:58.6919px;line-height:1.25;font-family:Lavi;-inkscape-font-specification:'Lavi Bold';stroke:none;stroke-width:3.6;stroke-miterlimit:4;stroke-dasharray:none;stroke-opacity:1"
         x="1625.8811"
         y="1577.9111"
         id="tspan4579-4-2">Seveda!</tspan></text>
    <text
       xml:space="preserve"
       style="font-style:normal;font-variant:normal;font-weight:normal;font-stretch:normal;line-height:0%;font-family:Lavi;-inkscape-font-specification:Lavi;letter-spacing:0px;word-spacing:0px;fill:#000000;fill-opacity:1;stroke:#000000;stroke-width:1.19005;stroke-miterlimit:4;stroke-dasharray:none;stroke-opacity:1;filter:url(#filter4375-4-1-1-1-9)"
       x="787.65729"
       y="1584.5073"
       id="text4580"
       transform="matrix(0.81821305,-0.33688634,-0.15105419,1.1716012,481.86174,1568.9719)"><tspan
         sodipodi:role="line"
         id="tspan4582"
         x="787.65729"
         y="1584.5073"
         style="font-size:70px;line-height:1.25;fill:#ffffff;stroke-width:1.19005">Krak<tspan
   style="font-size:80.4001px;stroke-width:1.19005"
   id="tspan4617">!</tspan></tspan></text>
  </g>
</svg>
