<?xml version="1.0" encoding="UTF-8" standalone="no"?>
<!-- Created with Inkscape (http://www.inkscape.org/) -->

<svg
   id="svg2"
   version="1.1"
   inkscape:version="1.1.1 (3bf5ae0d25, 2021-09-20, custom)"
   width="2481"
   height="3503"
   sodipodi:docname="E32P07.svg"
   xmlns:inkscape="http://www.inkscape.org/namespaces/inkscape"
   xmlns:sodipodi="http://sodipodi.sourceforge.net/DTD/sodipodi-0.dtd"
   xmlns:xlink="http://www.w3.org/1999/xlink"
   xmlns="http://www.w3.org/2000/svg"
   xmlns:svg="http://www.w3.org/2000/svg"
   xmlns:rdf="http://www.w3.org/1999/02/22-rdf-syntax-ns#"
   xmlns:cc="http://creativecommons.org/ns#"
   xmlns:dc="http://purl.org/dc/elements/1.1/">
  <metadata
     id="metadata8">
    <rdf:RDF>
      <cc:Work
         rdf:about="">
        <dc:format>image/svg+xml</dc:format>
        <dc:type
           rdf:resource="http://purl.org/dc/dcmitype/StillImage" />
        <dc:title />
      </cc:Work>
    </rdf:RDF>
  </metadata>
  <defs
     id="defs6">
    <rect
       x="389.72554"
       y="1974.3797"
       width="119.19578"
       height="52.150359"
       id="rect14366" />
  </defs>
  <sodipodi:namedview
     pagecolor="#ffffff"
     bordercolor="#666666"
     borderopacity="1"
     objecttolerance="10"
     gridtolerance="10"
     guidetolerance="10"
     inkscape:pageopacity="0"
     inkscape:pageshadow="2"
     inkscape:window-width="1888"
     inkscape:window-height="1146"
     id="namedview4"
     showgrid="false"
     inkscape:zoom="0.46000002"
     inkscape:cx="1220.6521"
     inkscape:cy="2485.8695"
     inkscape:window-x="32"
     inkscape:window-y="0"
     inkscape:window-maximized="1"
     inkscape:current-layer="layer1"
     inkscape:pagecheckerboard="0" />
  <g
     inkscape:groupmode="layer"
     id="layer2"
     inkscape:label="artwork"
     sodipodi:insensitive="true">
    <image
       xlink:href="../gfx_Pepper-and-Carrot_by-David-Revoy_E32P07.png"
       y="0"
       x="0"
       id="image10"
       height="3503"
       width="2481" />
  </g>
  <g
     inkscape:groupmode="layer"
     id="layer3"
     inkscape:label="speechbubbles" />
  <g
     inkscape:groupmode="layer"
     id="layer1"
     inkscape:label="txt">
    <path
       style="color:#000000;display:inline;overflow:visible;visibility:visible;opacity:1;fill:#ffffff;fill-opacity:1;fill-rule:nonzero;stroke:none;stroke-width:1px;marker:none;enable-background:accumulate"
       d="m 1056.8386,2202.0169 c -10.399,3.1097 -19.0647,10.6359 -24.862,19.6711 -4.6138,7.2893 -17.2509,15.4965 -15.9508,24.1556 0.9045,6.2645 3.4885,12.2114 7.0602,17.4088 4.9823,4.1786 10.7717,7.2309 16.4747,10.2898 13.956,7.1808 39.0329,12.0634 54.1262,16.1118 11.6919,3.244 23.3837,6.488 35.0756,9.732 5.0949,3.3041 6.8782,10.3837 4.7324,15.9258 -2.5523,8.028 -5.7927,15.981 -6.4238,24.4649 0.469,8.3691 7.2362,15.6672 15.3278,17.4183 23.1263,6.8834 46.95,10.9935 70.7295,14.8666 16.8553,2.5917 33.8211,4.4192 50.6435,7.2326 8.6937,1.344 17.4528,2.335 26.2503,2.6075 -14.7027,-2.9835 -29.0454,-7.4415 -43.6031,-11.0191 -17.5491,-3.9894 -35.2233,-7.6141 -52.357,-13.1989 -12.1385,-3.8263 -24.3458,-7.4273 -36.5828,-10.9238 -2.1361,-0.6181 -4.2722,-1.2362 -6.4082,-1.8543 -3.8086,-2.8565 -4.791,-8.4047 -3.0215,-12.6797 3.1112,-10.0301 7.2356,-19.7537 9.5683,-30.0176 0.1907,-7.1989 -5.0046,-13.8258 -11.6328,-16.2568 -8.1859,-3.2713 -16.7215,-5.5386 -25.1516,-8.0754 -10.6728,-3.1009 -17.6074,-6.3044 -28.2511,-9.5031 -1.634,-0.5123 -3.3158,-0.9349 -4.8985,-1.5745 -6.4463,-4.0275 -11.4798,-10.04 -14.9988,-16.7269 -0.6308,-10.1283 2.4237,-19.9428 4.0156,-29.8414 0.7111,-3.8042 0.5769,-8.0798 -1.8053,-11.3085 -2.8415,-4.4602 -11.7784,-7.3612 -17.0919,-7.1782 -0.3216,0.091 -0.6432,0.1823 -0.9649,0.2734 z m 241.4961,179.3652 c 1.4323,-0.5267 2.8646,-1.0533 4.2969,-1.58 -1.4323,0.5267 -2.8646,1.0533 -4.2969,1.58 z"
       id="path4496-04"
       inkscape:connector-curvature="0"
       sodipodi:nodetypes="ccccccccccccccccccccccccccccccc" />
    <path
       style="display:inline;fill:#ffffff;stroke:none;stroke-width:1.0108"
       d="m 591.75726,1945.0119 c -57.58753,0.4576 -115.89384,2.7441 -171.49121,14.7728 -27.14348,5.847 -53.66585,16.2085 -71.13852,33.1266 -12.83418,12.5975 -16.15241,28.9982 -15.50895,44.4111 0.51953,13.295 2.21877,27.2637 11.89713,38.831 7.3436,9.0361 18.93666,15.6846 31.01146,20.9912 22.47567,9.5108 48.097,13.5422 73.12804,17.5585 62.86632,9.436 127.27782,10.5152 191.20423,10.702 65.02463,-0.023 130.16486,-1.0537 194.87844,-6.0832 33.49452,-2.9808 67.51582,-8.6634 96.34532,-22.2221 21.79651,-10.4821 38.32765,-27.8411 40.97242,-47.283 2.0265,-13.5933 -0.2876,-27.5392 -6.34177,-40.4407 -8.19181,-16.8601 -24.55029,-31.7154 -46.24625,-39.8596 -25.59246,-10.1879 -54.81514,-13.3074 -83.27216,-15.8555 -38.44853,-3.1206 -77.14203,-3.9042 -115.71295,-5.8237 -43.20269,-1.6969 -86.45543,-2.9144 -129.72523,-2.8254 z"
       id="path3280-8-1"
       inkscape:connector-curvature="0"
       sodipodi:nodetypes="csssc" />
    <path
       style="color:#000000;display:inline;overflow:visible;visibility:visible;fill:#ffffff;fill-opacity:1;fill-rule:nonzero;stroke:none;stroke-width:0.868616px;marker:none;enable-background:accumulate"
       d="m 946.49773,2079.9446 c -39.66386,0.5713 -79.71467,7.7573 -117.01924,27.2666 -12.45562,6.7004 -25.03703,15.1632 -33.81742,29.6661 -15.98471,26.051 -20.41551,65.3512 -9.76418,96.5209 9.91513,30.3976 31.0865,52.4667 54.41677,58.8624 38.52081,14.938 78.69352,19.9885 118.57212,19.3181 24.52904,0.097 49.55132,-0.1158 73.20512,-10.3346 16.687,-7.1104 32.8565,-18.4482 45.2176,-35.9335 16.8341,-24.1573 25.8301,-59.2923 22.1632,-92.8479 -1.905,-16.8564 -8.1045,-32.6448 -17.264,-43.9426 -9.4951,-12.1971 -21.4756,-19.7638 -33.6358,-25.2345 -22.8967,-10.9507 -46.8033,-17.2611 -70.79018,-21.2907 -10.39071,-1.4899 -20.83932,-2.1587 -31.28399,-2.0503 z"
       id="path4546-1"
       inkscape:connector-curvature="0"
       sodipodi:nodetypes="cssssc" />
    <text
       xml:space="preserve"
       style="font-style:normal;font-variant:normal;font-weight:normal;font-stretch:normal;line-height:0%;font-family:Lavi;-inkscape-font-specification:Lavi;text-align:center;letter-spacing:0px;word-spacing:0px;text-anchor:middle;display:inline;fill:#000000;fill-opacity:1;stroke:none"
       x="660.51379"
       y="2012.3909"
       id="text4246-7-6-1-7-6-3-5-6"><tspan
         sodipodi:role="line"
         style="font-size:45px;line-height:1.25"
         x="660.51379"
         y="2012.3909"
         id="tspan848">Če bolje pomislim,</tspan><tspan
         sodipodi:role="line"
         style="font-size:45px;line-height:1.25"
         x="660.51379"
         y="2068.6409"
         id="tspan19484">raje pokličite tisto punčaro.</tspan></text>
    <text
       xml:space="preserve"
       style="font-style:normal;font-variant:normal;font-weight:normal;font-stretch:normal;line-height:0%;font-family:Lavi;-inkscape-font-specification:Lavi;text-align:center;letter-spacing:0px;word-spacing:0px;text-anchor:middle;display:inline;fill:#000000;fill-opacity:1;stroke:none"
       x="940.07159"
       y="2146.5623"
       id="text4246-7-6-1-7-6-3-5-6-4"><tspan
         sodipodi:role="line"
         style="font-size:45px;line-height:1.25"
         x="940.07159"
         y="2146.5623"
         id="tspan40">Ta tukaj</tspan><tspan
         sodipodi:role="line"
         style="font-size:45px;line-height:1.25"
         x="940.07159"
         y="2202.8123"
         id="tspan49">je verjetno</tspan><tspan
         sodipodi:role="line"
         style="font-size:45px;line-height:1.25"
         x="940.07159"
         y="2259.0623"
         id="tspan3768">predraga.</tspan></text>
    <text
       xml:space="preserve"
       style="font-style:normal;font-variant:normal;font-weight:normal;font-stretch:normal;font-size:43.8573px;line-height:0%;font-family:Lavi;-inkscape-font-specification:'Lavi, Normal';font-variant-ligatures:normal;font-variant-caps:normal;font-variant-numeric:normal;font-feature-settings:normal;text-align:center;letter-spacing:0px;word-spacing:0px;writing-mode:lr-tb;text-anchor:middle;display:inline;fill:#241c1c;fill-opacity:1;stroke:#000000;stroke-width:0.822;stroke-miterlimit:4;stroke-dasharray:none;stroke-opacity:1"
       x="3429.043"
       y="3317.343"
       id="text4213"
       transform="matrix(0.96049651,0,-0.32716292,1.0411282,0,0)"><tspan
         sodipodi:role="line"
         id="tspan3562"
         x="3429.043"
         y="3317.343"
         style="font-style:normal;font-variant:normal;font-weight:normal;font-stretch:normal;font-size:43.8573px;line-height:1.25;font-family:Lavi;-inkscape-font-specification:'Lavi, Normal';font-variant-ligatures:normal;font-variant-caps:normal;font-variant-numeric:normal;font-feature-settings:normal;text-align:center;writing-mode:lr-tb;text-anchor:middle;stroke-width:0.822">SE NADALJUJE…</tspan><tspan
         sodipodi:role="line"
         x="3429.043"
         y="3344.7539"
         id="tspan856" /><tspan
         sodipodi:role="line"
         x="3429.043"
         y="3344.7539"
         id="tspan858" /></text>
    <text
       xml:space="preserve"
       id="text14364"
       style="fill:black;fill-opacity:1;line-height:1.25;stroke:none;font-family:sans-serif;font-style:normal;font-weight:normal;font-size:40px;white-space:pre;shape-inside:url(#rect14366)" />
  </g>
</svg>
