<?xml version="1.0" encoding="UTF-8" standalone="no"?>
<!-- Created With Inkscape (http://www.inkscape.org/) -->

<svg
   xmlns:dc="http://purl.org/dc/elements/1.1/"
   xmlns:cc="http://creativecommons.org/ns#"
   xmlns:rdf="http://www.w3.org/1999/02/22-rdf-syntax-ns#"
   xmlns:svg="http://www.w3.org/2000/svg"
   xmlns="http://www.w3.org/2000/svg"
   xmlns:xlink="http://www.w3.org/1999/xlink"
   xmlns:sodipodi="http://sodipodi.sourceforge.net/DTD/sodipodi-0.dtd"
   xmlns:inkscape="http://www.inkscape.org/namespaces/inkscape"
   id="svg2"
   version="1.1"
   inkscape:version="0.92.1 r15371"
   width="2646.3999"
   height="3736.5334"
   sodipodi:docname="E14P04.svg"
   viewBox="0 0 2481 3503">
  <metadata
     id="metadata8">
    <rdf:RDF>
      <cc:Work
         rdf:about="">
        <dc:format>image/svg+xml</dc:format>
        <dc:type
           rdf:resource="http://purl.org/dc/dcmitype/StillImage" />
        <dc:title />
      </cc:Work>
    </rdf:RDF>
  </metadata>
  <defs
     id="defs6" />
  <sodipodi:namedview
     pagecolor="#ffffff"
     bordercolor="#666666"
     borderopacity="1"
     objecttolerance="10"
     gridtolerance="10"
     guidetolerance="10"
     inkscape:pageopacity="0"
     inkscape:pageshadow="2"
     inkscape:window-width="1858"
     inkscape:window-height="1057"
     id="namedview4"
     showgrid="false"
     inkscape:zoom="0.3478261"
     inkscape:cx="1416.2268"
     inkscape:cy="1148.1451"
     inkscape:window-x="54"
     inkscape:window-y="-8"
     inkscape:window-maximized="1"
     inkscape:current-layer="layer1"
     showguides="false" />
  <g
     inkscape:groupmode="layer"
     id="layer2"
     inkscape:label="artwork"
     sodipodi:insensitive="true">
    <image
       sodipodi:absref="../gfx_Pepper-and-Carrot_by-David-Revoy_E14P04.png"
       xlink:href="../gfx_Pepper-and-Carrot_by-David-Revoy_E14P04.png"
       y="0"
       x="0"
       id="image10"
       height="3503"
       width="2481" />
  </g>
  <g
     inkscape:groupmode="layer"
     id="layer3"
     inkscape:label="speechbubbles">
    <path
       style="color:#000000;display:inline;overflow:visible;visibility:visible;fill:#ffffff;fill-opacity:1;fill-rule:nonzero;stroke:none;stroke-width:1.09824419px;marker:none;enable-background:accumulate"
       d="m 1605.0874,358.98599 c 12.7223,-20.326 66.3733,-17.6728 85.3609,-11.75341 -35.9646,-26.89811 -32.3189,-41.4565 21.8113,-39.27815 -83.6184,-50.03545 -10.9124,-37.4874 5.2904,-47.07518 -68.5503,-20.53598 -34.0498,-36.16477 -18.6376,-53.29185 -81.2976,-7.3692 -50.1651,-34.29072 -50.0151,-57.77429 -8.5803,10.31432 -46.4768,40.73998 -42.7537,3.67491 -59.271,30.74469 -127.6267,48.1124 -123.2663,-13.92516 -26.4758,29.19715 -50.1245,40.50459 -42.7538,3.67491 -61.1669,43.62724 -106.7937,22.31788 -153.2805,4.70221 -15.0003,13.45458 -19.9282,35.62602 -60.4047,26.98031 3.5682,14.86369 -11.8968,23.59611 -44.2817,26.85913 40.489,12.15538 46.8148,21.7567 -32.3428,24.96534 58.9575,5.83063 113.775,12.30915 39.3593,39.45537 21.6306,2.5986 77.4795,-20.57052 41.0182,57.75726 41.3753,-22.61401 83.4753,-33.499 125.2114,24.51255 27.8395,-24.94651 70.9778,-34.85784 83.6631,0.23525 8.6356,-13.79701 36.1046,-16.97865 58.8186,-15.75827 7.8659,6.41655 15.6916,14.89498 23.54,25.80383 18.6652,-19.99328 43.8928,-32.44989 83.663,0.23524 z"
       id="path3549-3-7"
       inkscape:connector-curvature="0"
       sodipodi:nodetypes="cccccccccccccccccccc" />
    <path
       style="fill:#ffffff;fill-rule:evenodd;stroke:none;stroke-width:0.9090358px;stroke-linecap:butt;stroke-linejoin:miter;stroke-opacity:1"
       d="m 1531.4827,333.23881 c -12.6557,-2.75755 -24.2072,5.52359 -34.8577,12.07893 -6.8586,3.93838 -14.2138,7.60882 -18.9212,14.87533 -4.6483,5.73841 -6.2583,15.9276 -0.2197,21.24242 4.2974,2.76075 10.5145,7.97375 6.4778,14.25838 -2.3252,5.32331 -8.5994,7.01313 -9.6247,13.1085 -2.5006,8.49796 3.7265,16.17783 10.1551,19.25645 4.7643,2.03439 9.1657,2.80096 9.8002,9.29875 4.8556,9.76609 15.5462,11.34577 24.4251,12.19411 7.6221,0.44992 15.3145,1.81986 22.8588,-0.24661 8.4587,-1.707 18.6659,-4.58685 25.6453,2.99641 12.2783,8.48643 27.1244,10.30023 41.2191,11.07215 7.0924,0.0565 14.2629,0.95629 21.3106,0.12757 14.885,-2.8175 30.1072,-3.75591 45.1119,-1.71264 15.6511,-0.095 26.9745,-16.69364 42.711,-16.25915 12.9603,-3.33988 27.3588,-6.59382 36.5295,-18.5539 3.9977,-4.36517 3.7284,-11.66902 8.8359,-14.45037 3.9165,-6.16102 -1.5262,-14.45989 -7.1467,-15.99606 -5.4434,-0.32119 4.842,-2.213 5.9476,-5.01905 5.6231,-4.59011 9.6404,-14.65891 4.3108,-21.34731 -11.9948,-12.80871 -30.2045,-13.59931 -42.2626,-26.36988 -10.0384,-5.50852 -20.7108,1.08434 -30.8912,2.33379 -5.0159,-1.26427 -7.1559,-10.50793 -13.4516,-11.5648 -8.0802,-3.81615 -17.0005,-3.95541 -25.6099,-4.03777 -8.3427,6.39721 -18.9275,3.94985 -27.737,0.29467 -7.6881,-3.10334 -15.8884,-5.53554 -24.0555,-3.50688 -6.0204,0.53179 -12.867,3.98461 -18.5081,1.19596 -7.9359,-7.44542 -18.801,-3.72347 -28.1427,-4.54728 -6.4198,-2.01053 -12.2841,2.57428 -17.9452,5.36572 -2.2636,1.11665 -9.3382,5.89786 -1.7214,3.91252"
       id="path4220"
       inkscape:connector-curvature="0" />
    <path
       style="color:#000000;display:inline;overflow:visible;visibility:visible;fill:#ffffff;fill-opacity:1;fill-rule:nonzero;stroke:none;stroke-width:0.90184003px;marker:none;enable-background:accumulate"
       d="m 1280.8534,548.8848 c 21.2486,-33.62376 65.9441,-61.89829 124.561,-73.36094 58.617,-11.46265 167.0584,-8.40598 186.109,-4.58504 19.0504,3.82085 123.8282,17.57598 146.5422,36.68042 22.7142,19.10445 53.4881,42.79393 60.0825,67.24751 6.5945,24.45368 0.7327,83.29531 -20.5159,96.28633 -21.2487,12.99103 -117.9667,41.26556 -174.3856,42.79385 -56.4188,1.52837 -187.5742,-10.69847 -224.9425,-19.10436 -37.3683,-8.40599 -76.9348,-19.10445 -88.6581,-45.85059 -11.7235,-26.74625 -33.7048,-61.89839 -8.7926,-100.10718 z"
       id="path3533"
       inkscape:connector-curvature="0" />
    <path
       style="color:#000000;display:inline;overflow:visible;visibility:visible;fill:#ffffff;fill-opacity:1;fill-rule:nonzero;stroke:none;stroke-width:1px;marker:none;enable-background:accumulate"
       d="m 1678.4528,528.49189 c 30.5923,52.37324 -103.4044,94.84893 -110.4621,125.45674 -2.3684,10.27079 -5.582,32.22619 0.4801,42.42915 10.2279,17.21496 39.4486,19.14791 -24.0871,109.8658 -15.4603,19.92013 12.0481,56.95066 47.151,66.90119 28.0513,17.10155 -7.3932,123.12378 -37.4741,172.62433 43.7979,-42.6678 77.2922,-149.02168 64.215,-140.15631 4.5835,-35.53698 -13.701,-44.07469 -23.5467,-53.21369 -9.8457,-9.13907 -29.5569,-14.98259 -28.3948,-30.06869 1.1623,-15.08705 39.8018,-58.24357 44.8599,-85.55656 5.0578,-27.31218 -22.1531,-43.05915 -16.0064,-68.06815 6.1465,-25.00909 83.9624,-57.20023 102.0984,-79.91604 20.9522,-23.39323 25.1007,-60.90229 25.1007,-60.90229 z"
       id="path3153"
       inkscape:connector-curvature="0"
       sodipodi:nodetypes="cssccccscssccc" />
    <path
       style="color:#000000;display:inline;overflow:visible;visibility:visible;fill:#ffffff;fill-opacity:1;fill-rule:nonzero;stroke:none;stroke-width:1.05401886px;marker:none;enable-background:accumulate"
       d="m 1438.3982,926.34512 c 0.8244,-48.54939 16.8859,-94.46231 159.2682,-92.87344 106.7589,1.19134 135.1894,38.59757 137.5547,87.67122 1.667,34.58313 -56.0903,66.59398 -147.8146,64.89829 -87.6707,-1.62074 -142.5969,-22.67233 -149.0083,-59.69607 z"
       id="path5026"
       inkscape:connector-curvature="0"
       sodipodi:nodetypes="csssc" />
    <path
       style="color:#000000;display:inline;overflow:visible;visibility:visible;fill:#ffffff;fill-opacity:1;fill-rule:nonzero;stroke:none;stroke-width:0.90001178px;marker:none;enable-background:accumulate"
       d="m 237.04366,1926.9898 c 9.40382,-42.8367 29.00956,-87.5671 208.02976,-78.8366 179.02023,8.7303 218.91987,47.4427 219.34605,91.9085 0.55824,58.2475 -46.20735,67.4676 -72.46538,74.4672 -26.25789,6.9996 -87.71146,14.4551 -131.89593,16.3017 -23.75705,0.9929 -167.74079,-6.8063 -194.67748,-29.2761 -26.84063,-22.3898 -30.89184,-43.7385 -28.33702,-74.5647 z"
       id="path3365"
       inkscape:connector-curvature="0"
       sodipodi:nodetypes="csssssc" />
    <path
       style="fill:#ffffff;stroke:none"
       d="m 822.15272,2218.8389 c -8.72758,85.5065 -132.14228,98.7311 -189.1148,101.2582 -56.97246,2.5271 -208.49774,13.5551 -259.83324,-57.9686 -51.33552,-71.5236 -28.78782,-104.3326 4.59766,-139.1863 28.46993,-29.7221 95.40268,-44.1015 153.99263,-51.1407 72.75112,-8.7405 193.53448,11.5765 243.97646,48.1556 26.90014,19.507 55.10893,13.3754 46.38129,98.8818 z"
       id="path3100"
       inkscape:connector-curvature="0"
       sodipodi:nodetypes="zsssssz" />
    <path
       style="fill:#ffffff;fill-rule:evenodd;stroke:none;stroke-width:1px;stroke-linecap:butt;stroke-linejoin:miter;stroke-opacity:1"
       d="m 534.12829,1990.1588 c 25.7289,58.6047 40.02273,101.4862 22.87013,151.5146 -17.15259,50.0284 1.42939,104.345 -12.86445,141.509 -14.29383,37.1639 -38.54491,47.2584 -11.43506,107.2037 19.79941,43.7805 -85.08462,39.3605 -44.31895,127.2554 -63.78914,-78.8501 40.07923,-99.8873 25.7289,-127.2151 -28.88282,-55.0024 -7.13885,-80.0858 2.86684,-105.8147 10.00568,-25.7289 -6.87995,-119.2204 10.00568,-151.5146 18.13588,-34.6853 -17.29178,-107.4567 -22.87013,-131.5032 -7.17205,-30.9164 30.01704,-11.4351 30.01704,-11.4351 z"
       id="path4313"
       inkscape:connector-curvature="0"
       sodipodi:nodetypes="cssscssssc" />
  </g>
  <g
     inkscape:groupmode="layer"
     id="layer1"
     inkscape:label="txt">
    <text
       xml:space="preserve"
       style="font-style:normal;font-variant:normal;font-weight:normal;font-stretch:normal;line-height:0%;font-family:Lavi;-inkscape-font-specification:Lavi;text-align:center;letter-spacing:0px;word-spacing:0px;text-anchor:middle;fill:#000000;fill-opacity:1;stroke:none"
       x="1444.8196"
       y="260.59164"
       id="text4246"><tspan
         sodipodi:role="line"
         style="font-size:62.89629364px;line-height:1.25"
         x="1444.8196"
         y="260.59164"
         id="tspan3736">i doi la karot</tspan></text>
    <text
       xml:space="preserve"
       style="font-style:normal;font-variant:normal;font-weight:normal;font-stretch:normal;line-height:0%;font-family:Lavi;-inkscape-font-specification:Lavi;text-align:center;letter-spacing:0px;word-spacing:0px;text-anchor:middle;fill:#000000;fill-opacity:1;stroke:none"
       x="1625.382"
       y="408.19888"
       id="text4246-1"><tspan
         sodipodi:role="line"
         style="font-size:45px;line-height:1.25"
         x="1625.382"
         y="408.19888"
         id="tspan4252-8">ko ti klama</tspan></text>
    <text
       xml:space="preserve"
       style="font-style:normal;font-variant:normal;font-weight:normal;font-stretch:normal;line-height:0%;font-family:Lavi;-inkscape-font-specification:Lavi;text-align:center;letter-spacing:0px;word-spacing:0px;text-anchor:middle;fill:#000000;fill-opacity:1;stroke:none"
       x="1538.5493"
       y="559.84924"
       id="text4246-1-3"><tspan
         sodipodi:role="line"
         style="font-size:45px;line-height:1.25"
         x="1538.5493"
         y="559.84924"
         id="tspan3510">i lo'e cilmydrakono</tspan><tspan
         sodipodi:role="line"
         style="font-size:45px;line-height:1.25"
         x="1538.5493"
         y="616.09924"
         id="tspan3747">cu jai misno</tspan><tspan
         sodipodi:role="line"
         style="font-size:45px;line-height:1.25"
         x="1538.5493"
         y="672.34924"
         id="tspan3745">fai le ka tinbe</tspan></text>
    <text
       xml:space="preserve"
       style="font-style:normal;font-variant:normal;font-weight:normal;font-stretch:normal;line-height:0%;font-family:Lavi;-inkscape-font-specification:Lavi;text-align:center;letter-spacing:0px;word-spacing:0px;text-anchor:middle;fill:#000000;fill-opacity:1;stroke:none"
       x="1586.5629"
       y="904.18646"
       id="text4246-1-3-6"><tspan
         sodipodi:role="line"
         style="font-size:35.54689407px;line-height:1.25"
         x="1586.5629"
         y="904.18646"
         id="tspan3506">i ja mi pu jinvi</tspan><tspan
         sodipodi:role="line"
         style="font-size:35.54689407px;line-height:1.25"
         x="1586.5629"
         y="948.62006"
         id="tspan3751">lo simsa</tspan></text>
    <text
       xml:space="preserve"
       style="font-style:normal;font-variant:normal;font-weight:normal;font-stretch:normal;line-height:0%;font-family:Lavi;-inkscape-font-specification:Lavi;text-align:center;letter-spacing:0px;word-spacing:0px;text-anchor:middle;fill:#000000;fill-opacity:1;stroke:none"
       x="443.2666"
       y="1917.0948"
       id="text4246-10"><tspan
         sodipodi:role="line"
         style="font-size:45px;line-height:1.25"
         x="443.2666"
         y="1917.0948"
         id="tspan3514">i y ra'a</tspan><tspan
         sodipodi:role="line"
         style="font-size:45px;line-height:1.25"
         x="443.2666"
         y="1973.3448"
         id="tspan3755">lo'e lindydrakono</tspan></text>
    <text
       xml:space="preserve"
       style="font-style:normal;font-variant:normal;font-weight:normal;font-stretch:normal;line-height:0%;font-family:Lavi;-inkscape-font-specification:Lavi;text-align:center;letter-spacing:0px;word-spacing:0px;text-anchor:middle;fill:#000000;fill-opacity:1;stroke:none"
       x="581.8111"
       y="2173.9912"
       id="text4246-10-5"><tspan
         sodipodi:role="line"
         style="font-size:45px;line-height:1.25"
         x="581.8111"
         y="2173.9912"
         id="tspan3531">mi na birti le du'u</tspan><tspan
         sodipodi:role="line"
         style="font-size:45px;line-height:1.25"
         x="581.8111"
         y="2230.2412"
         id="tspan3766">ti voi tutci cu mapti</tspan></text>
  </g>
</svg>
