<?xml version="1.0" encoding="UTF-8" standalone="no"?>
<!-- Created with Inkscape (http://www.inkscape.org/) -->

<svg
   xmlns:dc="http://purl.org/dc/elements/1.1/"
   xmlns:cc="http://creativecommons.org/ns#"
   xmlns:rdf="http://www.w3.org/1999/02/22-rdf-syntax-ns#"
   xmlns:svg="http://www.w3.org/2000/svg"
   xmlns="http://www.w3.org/2000/svg"
   xmlns:xlink="http://www.w3.org/1999/xlink"
   xmlns:sodipodi="http://sodipodi.sourceforge.net/DTD/sodipodi-0.dtd"
   xmlns:inkscape="http://www.inkscape.org/namespaces/inkscape"
   id="svg2"
   version="1.1"
   inkscape:version="0.92.2 (5c3e80d, 2017-08-06)"
   width="2481"
   height="3503"
   sodipodi:docname="E37P06.svg">
  <metadata
     id="metadata8">
    <rdf:RDF>
      <cc:Work
         rdf:about="">
        <dc:format>image/svg+xml</dc:format>
        <dc:type
           rdf:resource="http://purl.org/dc/dcmitype/StillImage" />
        <dc:title />
      </cc:Work>
    </rdf:RDF>
  </metadata>
  <defs
     id="defs6" />
  <sodipodi:namedview
     pagecolor="#ffffff"
     bordercolor="#666666"
     borderopacity="1"
     objecttolerance="10"
     gridtolerance="10"
     guidetolerance="10"
     inkscape:pageopacity="0"
     inkscape:pageshadow="2"
     inkscape:window-width="1294"
     inkscape:window-height="1037"
     id="namedview4"
     showgrid="false"
     inkscape:zoom="0.49469369"
     inkscape:cx="1305.4826"
     inkscape:cy="1276.5024"
     inkscape:window-x="625"
     inkscape:window-y="3"
     inkscape:window-maximized="0"
     inkscape:current-layer="layer1"
     inkscape:pagecheckerboard="0"
     inkscape:showpageshadow="0"
     inkscape:deskcolor="#d1d1d1" />
  <g
     inkscape:groupmode="layer"
     id="layer2"
     inkscape:label="artwork"
     sodipodi:insensitive="true">
    <image
       sodipodi:absref="C:\Users\Kari\Documents\Pepper and Carrot\Episode 37\fi\../lang/en/./../gfx_Pepper-and-Carrot_by-David-Revoy_E37P06.png"
       xlink:href="../gfx_Pepper-and-Carrot_by-David-Revoy_E37P06.png"
       y="0"
       x="0"
       id="image10"
       height="3503"
       width="2481" />
  </g>
  <g
     inkscape:groupmode="layer"
     id="layer3"
     inkscape:label="speechbubbles">
    <path
       style="fill:#ffffff;fill-rule:evenodd;stroke:none;stroke-width:1.70940042px;stroke-linecap:butt;stroke-linejoin:miter;stroke-opacity:1"
       d="m 114.9538,234.6388 c -1.71939,-66.38441 42.98823,-78.0979 67.06146,-82.00397 24.07344,-3.90372 123.80582,-23.42938 161.63538,7.80977 37.82957,31.23917 48.14688,83.95585 30.95151,103.4815 -17.19516,19.52329 -72.22012,48.81059 -106.61064,50.76245 -34.39034,1.95184 -108.33006,-9.76165 -132.4033,-37.09711 C 111.51477,250.25839 114.9538,234.6388 114.9538,234.6388 Z"
       id="path1365"
       inkscape:connector-curvature="0" />
    <path
       style="fill:#ffffff;fill-rule:evenodd;stroke:none;stroke-width:1.18625px;stroke-linecap:butt;stroke-linejoin:miter;stroke-opacity:1"
       d="m 276.57128,286.65867 c 0,0 -8.31854,14.71485 -3.94644,34.32306 4.3721,19.60821 13.90542,39.57744 34.7933,54.14841 -41.89702,-20.22752 -65.69947,-37.55159 -66.67128,-74.5854 -0.97218,-37.03494 35.82442,-13.88607 35.82442,-13.88607 z"
       id="path1357"
       inkscape:connector-curvature="0" />
    <path
       style="fill:#ffffff;fill-rule:evenodd;stroke:none;stroke-width:0.785069px;stroke-linecap:butt;stroke-linejoin:miter;stroke-opacity:1"
       d="m 993.26171,186.69449 c -40.63103,1.19933 -81.73707,1.06407 -121.60006,7.17005 -17.92906,3.00488 -36.14035,7.33198 -49.90747,15.91505 -14.81571,9.96483 -22.77784,23.4875 -27.43469,36.97735 -8.87885,25.3834 -8.20968,52.74566 6.14029,77.18691 6.96681,11.80298 17.70936,23.15357 33.85608,30.17922 16.64296,7.03635 35.65567,10.91293 54.40237,14.57496 32.00518,5.31467 65.28633,4.83621 97.98087,3.84562 29.1145,-0.93525 58.7033,-3.13143 85.8474,-10.68482 15.013,-4.07172 29.8947,-9.24132 41.0504,-17.2826 11.9221,-9.16557 17.9964,-21.02196 21.4554,-32.78302 5.6692,-20.11772 3.7795,-40.79732 -0.5528,-60.94206 -1.9382,-10.05474 -3.4905,-20.58654 -11.3687,-29.48613 -7.8118,-8.41882 -20.8665,-13.75329 -33.7782,-18.10981 -29.6592,-10.12528 -62.5692,-16.84501 -96.09089,-16.56072 z"
       id="path1353"
       inkscape:connector-curvature="0"
       sodipodi:nodetypes="csssscscsscsc" />
    <path
       style="color:#000000;display:inline;overflow:visible;visibility:visible;fill:#ffffff;fill-opacity:1;fill-rule:nonzero;stroke:none;stroke-width:0.861851px;marker:none;enable-background:accumulate"
       d="m 953.70508,340.64258 c -7.89156,5.93196 -11.59104,16.28682 -10.73276,25.94957 0.42223,4.4898 2.07058,8.76171 2.48862,13.25746 1.01197,7.55227 1.05293,15.42171 -1.40821,22.71484 -1.20442,1.72882 -3.79048,1.05453 -5.01568,-0.29626 -10.07465,-6.60916 -20.06188,-13.83162 -31.69135,-17.45527 -3.79347,-0.92218 -7.49599,1.78526 -9.23632,5.00153 -1.4402,2.77657 -2.01316,5.92993 -2.32924,9.01606 -0.55273,6.5806 1.28554,13.1049 3.96106,19.05818 3.14714,8.05533 6.31422,16.4571 5.93458,25.25193 -0.84545,6.13098 -8.24835,10.22802 -13.88693,7.6472 -6.28697,-1.87961 -10.73205,-6.98767 -15.56562,-11.11151 -8.86497,-7.84865 -17.5953,-16.18188 -28.30526,-21.49467 -7.38254,-2.49937 -15.71863,0.24411 -21.23633,5.4668 -3.28278,2.9805 -6.07223,6.44058 -8.94141,9.80664 5.8814,-4.02407 11.87998,-8.29236 18.92579,-9.9668 5.92728,0.27474 10.83062,3.99283 15.65346,7.04174 9.22342,6.01627 16.39972,14.65414 22.20637,23.90936 3.76567,5.4691 7.51953,11.12941 12.67093,15.3981 3.2658,1.63675 6.90342,2.34098 10.46142,3.03947 5.33481,0.86184 10.93374,1.00049 16.1436,-0.58041 5.05084,-2.68449 7.63974,-8.48655 7.90731,-14.00736 1.31557,-10.50648 -1.34041,-20.96489 -4.32747,-30.9597 -1.34044,-4.77497 -2.55206,-9.60437 -3.14531,-14.53651 1.14339,-2.41987 4.68319,-2.64674 6.56055,-0.98047 7.59492,3.4498 13.00439,10.01681 19.08789,15.47852 8.59672,6.12612 21.82202,3.74033 27.89071,-4.84806 5.2193,-6.70376 6.94821,-15.35423 7.43486,-23.65494 0.82894,-10.02392 1.61175,-20.28559 5.5879,-29.65192 1.16442,-3.02572 2.64205,-5.92432 4.30918,-8.70251 -0.35144,-1.98682 -2.65366,-2.40619 -4.00685,-3.52799 -9.0205,-5.41384 -18.041,-10.82769 -27.06151,-16.24154 l -0.16601,-0.0293 z m 33.15039,19.79687 c -0.62158,0.68067 0.23902,-0.002 0,0 z"
       id="path5058-2"
       inkscape:connector-curvature="0"
       sodipodi:nodetypes="cscsssssscssssccscccc" />
    <path
       style="display:inline;fill:#ffffff;fill-rule:evenodd;stroke:none;stroke-width:1.03215349px;stroke-linecap:butt;stroke-linejoin:miter;stroke-opacity:1"
       d="m 1173.2361,85.397215 c 47.8486,-0.463414 63.9725,0.344733 75.0536,1.354983 -2.0575,-2.470478 65.4795,-1.417509 141.3802,0.05891 -22.5827,-1.809131 37.6066,-1.928643 112.5321,-0.916818 -8.4743,-0.872767 10.8833,58.90568 90.716,22.77656 -24.1193,45.96681 -61.379,76.28253 111.8563,21.06561 -50.721,30.80918 -130.5682,69.74115 -19.8903,97.02039 -99.6672,12.02554 -125.1493,68.3397 -99.1514,95.0235 -47.483,-54.00492 -88.661,-45.12274 -70.1558,41.03095 -47.7618,-40.90446 -86.9026,-68.53391 -95.9989,-21.98864 -18.8304,-26.16528 -63.4477,-27.42913 -85.6591,29.64513 -33.8299,-54.69918 -70.787,-67.60153 -108.0841,1.96349 -0.5276,-44.63382 -18.8532,-76.51256 -54.1084,-53.59717 z"
       id="path1100"
       inkscape:connector-curvature="0"
       sodipodi:nodetypes="cccccccccccccc" />
    <path
       style="display:inline;fill:#ffffff;fill-rule:evenodd;stroke:none;stroke-width:1.15027714px;stroke-linecap:butt;stroke-linejoin:miter;stroke-opacity:1"
       d="m 2436.0436,802.66902 c -53.8745,0.57491 -72.0292,-0.42767 -84.5058,-1.68097 2.3165,3.06484 -73.7261,1.75854 -159.1856,-0.0731 25.4266,2.24438 -123.3011,12.60536 -207.6626,11.35011 7.6283,-10.18279 -60.7396,-10.17152 -92.8808,-0.15757 92.2988,-32.45072 124.8111,-98.5348 9.76,-124.01874 81.7767,-4.85589 101.4114,-55.87849 -11.4301,-87.15318 103.7225,7.45346 98.9742,-15.36555 23.6987,-63.01035 88.2739,29.93175 161.6567,4.51295 110.3645,-58.17298 67.3642,35.31915 169.5271,77.20862 128.3376,-24.06269 71.668,74.78739 97.6938,84.93972 122.7027,14.13424 38.0903,67.85899 90.1825,59.05285 111.8412,15.25449 -4.0146,45.57622 13.4223,72.74359 53.1175,44.31509 z"
       id="path1100-1"
       inkscape:connector-curvature="0"
       sodipodi:nodetypes="cccccccccccccc" />
    <path
       style="display:inline;fill:#ffffff;fill-rule:evenodd;stroke:none;stroke-width:1.21129px;stroke-linecap:butt;stroke-linejoin:miter;stroke-opacity:1"
       d="m 1418.7386,299.99278 c 32.8791,33.53516 56.7879,77.06946 103.0231,108.5417 l -39.4041,4.85315 c 33.1236,33.29864 86.1701,72.49084 86.1701,72.49084 0,0 -36.1582,-9.1905 -137.95,-87.08512 l 35.6661,-4.58596 c -28.5603,-35.78999 -82.3648,-65.49689 -123.704,-98.20746 z"
       id="path957"
       sodipodi:nodetypes="cccccccc" />
    <path
       style="display:inline;fill:#ffffff;fill-rule:evenodd;stroke:none;stroke-width:1.15094px;stroke-linecap:butt;stroke-linejoin:miter;stroke-opacity:1"
       d="m 2135.3316,677.94435 c -94.5252,-53.78313 -255.9511,-97.55437 -255.9511,-97.55437 0,0 30.8361,-7.14437 136.3682,19.77436 l 147.9944,28.48852 c 276.9342,105.20644 -79.315,87.53799 -28.4115,49.29149 z"
       id="path957-2"
       sodipodi:nodetypes="ccccc" />
    <path
       style="fill:#ffffff;fill-rule:evenodd;stroke:none;stroke-width:2.10347629px;stroke-linecap:butt;stroke-linejoin:miter;stroke-opacity:1"
       d="m 1344.4209,982.24085 c 9.0665,-54.88618 47.5992,-82.32837 99.7321,-88.21 52.1327,-5.87982 276.5299,-1.95873 305.996,11.76145 29.4667,13.722 90.6656,45.08528 63.4662,109.7723 -27.1999,64.6872 -122.3987,54.8863 -169.9982,54.8863 -47.5992,0 -228.9303,5.8816 -258.3965,-19.6018 -29.4664,-25.4835 -38.5328,-5.8799 -40.7996,-68.60825 z"
       id="path1297"
       inkscape:connector-curvature="0" />
    <path
       style="fill:#ffffff;fill-rule:evenodd;stroke:none;stroke-width:1.02357805px;stroke-linecap:butt;stroke-linejoin:miter;stroke-opacity:1"
       d="m 1778.083,1028.0138 c -47.2922,0.4776 -94.4363,4.4721 -141.6588,6.3997 -19.0905,3.2608 -38.2648,8.5253 -54.5071,18.6533 -12.7635,11.8857 -20.2066,27.5524 -27.1179,42.7933 -6.0679,17.9917 -1.7875,37.0434 2.2627,54.9799 3.3184,13.4516 10.1526,26.4406 21.3616,35.7311 9.6803,9.0827 21.6683,17.1447 35.7679,18.3904 13.3469,1.7647 26.8272,2.5188 40.1469,4.482 27.3884,2.9413 54.9254,7.2967 82.5763,5.3437 37.7007,-3.4753 75.1725,-9.046 112.2749,-16.1266 9.8425,-2.1013 19.7982,-6.6801 24.8331,-15.2103 5.3685,-7.7973 10.1192,-16.0168 14.0876,-24.4921 4.761,-13.6935 2.5066,-28.2568 3.0089,-42.3754 -0.2053,-11.669 0.2324,-24.209 -6.7161,-34.4855 -6.7791,-10.6355 -16.6933,-19.1342 -26.3217,-27.5061 -10.446,-8.49 -23.0721,-14.2286 -36.1277,-18.3694 -13.9938,-4.9184 -28.7944,-8.5816 -43.8706,-8.208 z"
       id="path1299"
       inkscape:connector-curvature="0"
       sodipodi:nodetypes="ccssssssscscc" />
    <path
       style="display:inline;fill:#ffffff;fill-rule:evenodd;stroke:none;stroke-width:1.76114917px;stroke-linecap:butt;stroke-linejoin:miter;stroke-opacity:1"
       d="m 1609.9822,1104.8533 c 50.3754,28.0244 96.8134,20.719 95.9486,-41.5587 24.0339,67.8687 40.7121,83.3262 50.6034,50.4227 31.8193,29.2755 51.6931,21.7729 67.4715,1.663 5.881,26.5082 18.4928,16.1809 29.4078,15.14 3.5948,6.0539 -8.752,20.5676 41.1303,2.0539 3.2312,7.9738 7.5839,14.88 36.8024,-1.9029 7.5699,32.2303 31.8567,-0.9912 56.7374,-36.5365 -15.5014,44.0717 -9.0737,50.5097 10.7342,33.985 -9.0561,18.0831 -14.4725,32.1212 19.9346,1.8957 -11.7793,33.4997 19.1235,11.0684 69.0046,-36.2339 -37.2681,40.0399 -70.9529,100.4028 14.5761,80.1845 -23.9042,13.8495 -64.1201,57.4215 0.4381,75.7521 -12.0521,6.8802 -48.8471,-4.5144 -18.1534,26.6281 4.1123,3.6533 -9.6546,5.4832 16.62,15.4846 -15.5102,-1.0192 -25.0222,1.0202 -10.734,15.1897 -28.3121,-1.4443 -40.8061,31.5725 -20.0201,50.6163 -40.9999,-24.7823 -43.2561,-16.1982 -44.47,-6.7155 -51.3847,-33.6759 -54.4011,-23.5463 -61.3374,-16.967 -25.0462,-0.3648 -50.0924,-5.0629 -75.1386,30.4627 -6.5594,-22.6416 -19.71,-40.2697 -75.1385,-25.7365 24.3374,-27.9995 -10.2857,-10.632 -36.8025,0.4974 14.5211,-35.3691 -22.3314,-12.83 -69.0047,20.779 26.1368,-38.8082 -3.5486,-25.2884 -47.5366,1.6383 33.5251,-70.1549 2.4584,-82.0411 -75.1385,-60.8623 30.9632,-13.2166 50.8468,-65.0048 18.6956,-97.4474 36.2438,10.2123 48.982,-17.9837 7.9967,-36.2022 54.2891,13.9749 36.2482,-33.6292 -2.627,-62.2301 z"
       id="path4508-2"
       inkscape:connector-curvature="0"
       sodipodi:nodetypes="cccccccccccccccccccccccccccc" />
    <path
       style="display:inline;fill:#ffffff;fill-rule:evenodd;stroke:none;stroke-width:1.50229216px;stroke-linecap:butt;stroke-linejoin:miter;stroke-opacity:1"
       d="m 1710.713,1228.435 c 53.5804,27.5102 102.9729,20.3389 102.0532,-40.7962 25.5631,66.6234 43.3024,81.7973 53.8231,49.4975 33.8439,28.7383 54.982,21.3734 71.7642,1.6325 6.2553,26.0218 19.6694,15.884 31.2788,14.8622 3.8237,5.9429 -9.3087,20.1902 43.7472,2.0162 3.4369,7.8275 8.0665,14.607 39.144,-1.868 8.0515,31.639 33.8835,-0.973 60.3473,-35.8661 -16.4878,43.2631 -9.6511,49.5829 11.417,33.3614 -9.6323,17.7514 -15.3932,31.5319 21.2031,1.861 -12.5288,32.885 20.3401,10.8652 73.3949,-35.5691 -39.6391,39.3052 -75.4672,98.5606 15.5034,78.7133 -25.425,13.5954 -68.1997,56.3678 0.466,74.3621 -12.8188,6.754 -51.9549,-4.4316 -19.3083,26.1396 4.3739,3.5862 -10.2688,5.3825 17.6775,15.2004 -16.4971,-1.0005 -26.6143,1.0015 -11.4172,14.911 -30.1133,-1.4178 -43.4022,30.9932 -21.2938,49.6875 -43.6085,-24.3275 -46.0082,-15.9009 -47.2993,-6.5922 -54.654,-33.058 -57.8622,-23.1142 -65.2399,-16.6557 -26.6398,-0.3581 -53.2796,-4.97 -79.9194,29.9038 -6.9765,-22.2262 -20.9638,-39.5309 -79.919,-25.2643 25.8859,-27.4858 -10.9402,-10.4369 -39.1439,0.4882 15.4449,-34.72 -23.7524,-12.5946 -73.3951,20.3978 27.7997,-38.0962 -3.7744,-24.8244 -50.5612,1.6082 35.6583,-68.8676 2.6148,-80.5358 -79.9192,-59.7455 32.9334,-12.9741 54.0821,-63.8121 19.8852,-95.6594 38.5497,10.0249 52.0985,-17.6537 8.5055,-35.5379 57.7432,13.7184 38.5544,-33.0122 -2.7941,-61.0883 z"
       id="path4508-2-3"
       inkscape:connector-curvature="0"
       sodipodi:nodetypes="cccccccccccccccccccccccccccc" />
    <path
       style="color:#000000;display:inline;overflow:visible;visibility:visible;fill:#ffffff;fill-opacity:1;fill-rule:nonzero;stroke:none;stroke-width:0.969926px;marker:none;enable-background:accumulate"
       d="m 1246.2312,1001.9329 c 22.2211,-34.14103 39.9857,-36.59103 52.6492,-39.61603 1.7643,3.396 6.1135,8.794 6.1135,8.794 1.3611,-5.44434 56.7367,-23.68633 64.0338,-12.39927 10.1747,-0.224 10.4078,17.98503 10.4078,17.98503 -1.59,-7.94978 -77.0372,12.13063 -85.791,20.76224 -4.4313,-9.518 -7.9052,-13.563 -7.9875,-17.682 -7.6447,-0.519 -31.1799,10.299 -39.4258,22.15603 z"
       id="path4456-5"
       inkscape:connector-curvature="0"
       sodipodi:nodetypes="cccccccc" />
    <path
       style="display:inline;fill:#ffffff;fill-rule:evenodd;stroke:none;stroke-width:0.86029798px;stroke-linecap:butt;stroke-linejoin:miter;stroke-opacity:1"
       d="m 226.24891,2049.9977 c 48.07176,1.9562 117.33532,5.8779 62.76302,-1.6857 35.356,1.8313 80.56746,5.4214 93.41011,2.504 12.49979,1.0885 19.9305,0.7184 13.66222,-1.5634 34.12992,2.8416 51.29378,1.7361 71.53913,1.3475 23.05245,2.0346 39.64887,1.6171 50.22307,-1.0877 -7.68711,5.6406 54.43476,1.5728 103.51643,-0.7951 -3.32876,1.2879 -32.90943,4.8783 17.51578,1.4514 -4.75983,1.8574 -4.26768,3.3811 108.39238,-2.2207 -49.75503,5.0275 -26.28421,3.8873 -0.013,2.5113 -42.02172,5.4257 32.23452,9.4415 60.43502,8.9116 -84.32405,15.1943 -122.99849,42.3338 13.25387,88.4165 -53.09496,0.2837 -133.85132,-22.422 -107.15774,77.9462 -79.64187,-54.7599 -117.91739,-5.4464 -101.53546,40.6583 -47.58227,-62.393 -77.55782,-62.0197 -87.59967,9.4158 -27.42576,-60.767 -56.50864,-72.9244 -88.05066,-12.945 11.86137,-89.6863 -61.25884,-63.2022 -96.83813,-23.7851 27.87183,-41.6566 -21.99514,-48.5646 -78.56128,-9.3964 69.17478,-63.2583 20.06767,-58.536 -61.08876,-35.3941 96.7581,-46.0158 82.54493,-65.3801 -16.01001,-64.4883 120.23922,-6.0948 96.69044,-76.0106 42.14371,-79.8011 z"
       id="path740849"
       sodipodi:nodetypes="cccccccccccccccccccccc"
       inkscape:connector-curvature="0" />
    <path
       style="color:#000000;display:inline;overflow:visible;visibility:visible;fill:#ffffff;fill-opacity:1;fill-rule:nonzero;stroke:none;stroke-width:1px;marker:none;enable-background:accumulate"
       d="m 625.17576,2198.464 c 32.4119,11.8493 68.59806,43.3077 68.15392,52.5243 2.57923,-9.5085 6.6039,-17.4308 9.62749,-23.6657 13.04254,7.2714 43.8298,44.5047 61.80037,65.0819 -15.05247,-42.9 -51.67758,-88.1131 -70.34793,-102.0634 -0.43359,10.3146 -2.88747,18.5199 -5.87724,22.4034 -19.74556,7.9495 -28.17774,-60.2326 -25.11612,-64.3964 z"
       id="path5066-6"
       inkscape:connector-curvature="0"
       sodipodi:nodetypes="cccccccc" />
    <path
       style="color:#000000;display:inline;overflow:visible;visibility:visible;fill:#ffffff;fill-opacity:1;fill-rule:nonzero;stroke:none;stroke-width:1.90206778px;marker:none;enable-background:accumulate"
       d="m 1816.1954,2268.1362 c 14.4138,76.7939 -98.9021,46.5565 -137.0901,31.507 77.2786,40.8155 115.8228,69.9248 -27.6987,68.0358 141.7462,58.0789 25.3511,60.3091 0.8699,78.5943 115.2053,11.6338 64.4257,93.5064 42.8097,96.2133 134.3159,0.03 88.8909,2.1424 93.3916,3.8204 11.9343,-0.789 67.7023,-3.1932 69.1095,-0.5235 90.6257,-2.5576 198.7977,-4.2154 204.2102,0.2415 37.3569,-2.2467 120.2615,0.9233 69.11,-0.5235 91.1198,-3.4891 169.9723,-2.246 249.4839,-1.2719 21.7889,-1.0525 25.3597,-2.6659 93.2387,-2.2956 -8.8336,-1.0397 -15.5956,-66.3049 -9.741,-76.2806 -7.6872,-14.3738 -9.0626,-29.3556 5.3554,-45.8568 -10.9248,-1.3044 -21.1065,-4.2642 -8.0985,-59.6777 -17.9035,2.9472 -128.6244,10.7526 -25.3558,-87.0778 -78.1424,45.3282 -230.4922,81.096 -209.5276,-22.8262 -43.6696,61.4705 -113.018,88.3576 -136.739,11.4433 -46.1695,69.8993 -103.0506,43.9845 -136.5897,-4.9652 -26.6937,36.7737 -71.8308,89.9323 -136.7385,11.4432 z"
       id="path3549-3-7-5"
       inkscape:connector-curvature="0"
       sodipodi:nodetypes="ccccccccccccccccccc" />
    <path
       style="display:inline;fill:#ffffff;fill-rule:evenodd;stroke:none;stroke-width:1.25741184px;stroke-linecap:butt;stroke-linejoin:miter;stroke-opacity:1"
       d="m 1638.1702,2851.0879 c 23.3518,-17.5421 21.8479,-56.2808 -6.7585,-68.6302 62.0683,-6.8043 13.9672,-36.2852 -17.6264,-70.6616 47.2254,20.9428 105.0955,59.1249 80.8536,-44.1382 33.501,29.3266 60.8629,54.8915 81.8506,10.9689 10.6522,20.5299 32.5018,39.644 56.4845,5.748 8.4113,16.8092 17.9878,10.2693 28.7849,-20.7305 9.8048,38.2507 33.1101,37.7324 57.4281,-3.0234 17.0378,41.8271 35.8194,76.5636 77.2426,19.2446 -6.3677,42.8166 15.0892,40.9106 49.1226,18.7903 -5.1282,18.5992 0.6099,24.7809 40.7433,9.9228 -10.6719,17.9945 -25.1214,28.8096 13.5733,23.41 -17.1952,16.3572 -36.0626,52.5399 22.5275,43.5697 -45.9668,27.6514 -19.8038,38.7879 -18.8148,54.8278 -32.8936,-9.6423 -48.1206,-5.4783 -15.172,36.3353 -17.0832,-0.6819 -62.1547,-46.4501 -41.6193,13.4668 -26.1436,-33.6181 -55.5037,6.8157 -40.5894,8.3712 l -62.1058,11.8883 -97.1277,-11.5149 -69.1459,-0.1188 -58.0275,7.2007 c 9.4927,-26.0708 -10.528,-17.0264 -26.1392,-13.2285 -4.6183,-7.7029 7.2424,-26.1596 -26.7599,-14.6865 1.8582,-18.9066 -14.652,-16.5481 -28.7246,-17.0118 z"
       id="path1058"
       sodipodi:nodetypes="cccccccccccccccccccccccc"
       inkscape:connector-curvature="0" />
    <path
       style="display:inline;fill:#ffffff;fill-rule:evenodd;stroke:none;stroke-width:1.63183022px;stroke-linecap:butt;stroke-linejoin:miter;stroke-opacity:1"
       d="m 1746.9506,2964.7212 c 51.1293,-0.5825 44.3552,25.1211 25.9422,56.1081 14.1648,-2.5793 47.2933,-31.8994 27.6496,13.1946 42.892,-17.7526 16.4675,15.8546 12.982,32.3774 17.2897,-4.1122 27.8739,10.3273 6.8455,66.3481 21.2345,-13.8076 53.6831,-63.8358 51.2651,-1.2467 17.1905,-8.4161 39.7767,-39.1703 42.6432,11.7153 28.6892,-44.3356 54.9491,-49.506 60.6282,29.9854 21.1179,-52.0871 39.5071,-62.3489 53.9502,-12.1101 20.1108,-34.4734 48.8025,-44.3548 74.084,19.1568 -7.3807,-50.7943 3.8236,-82.9111 86.5309,-43.1701 -0.5999,-44.9451 16.6584,-65.7223 85.6294,-16.5146 -14.6586,-29.367 -50.0995,-75.659 32.4027,-25.8987 -43.3897,-62.0503 3.6881,-103.0987 39.8167,-146.6891 -43.9927,31.1181 -48.6524,19.8062 -32.0772,-14.4129 -69.956,42.0069 -62.6191,-17.995 -44.0045,-92.8809 -51.2255,41.2157 -43.8771,18.0913 -31.5963,-3.2564 -91.0451,44.738 -53.0731,-22.0051 -44.6661,-47.7773 -65.9531,116.8676 -46.5621,45.5195 -39.2816,0.8802 -37.4425,69.5897 -53.2259,70.1223 -46.0812,2.8224 -62.7906,84.2327 -34.9967,6.6372 -55.4963,10.4049 l -256.9709,82.0931 -28.3632,32.4733 c 26.3284,10.0402 25.1238,37.6944 -21.8324,46.3972 z"
       id="path961"
       sodipodi:nodetypes="cccccccccccccccccccccccc"
       inkscape:connector-curvature="0" />
    <path
       style="display:inline;fill:#ffffff;fill-rule:evenodd;stroke:none;stroke-width:1px;stroke-linecap:butt;stroke-linejoin:miter;stroke-opacity:1"
       d="m 1487.7373,2719.1203 100.518,94.2706 6.505,-33.2379 70.6075,62.6158 11.5455,-27.2884 -90.5705,-67.709 -8.6863,37.6437 z"
       id="path4667-2"
       inkscape:connector-curvature="0" />
  </g>
  <g
     inkscape:groupmode="layer"
     id="layer1"
     inkscape:label="txt"
     style="display:inline">
    <text
       xml:space="preserve"
       style="font-style:normal;font-variant:normal;font-weight:normal;font-stretch:normal;font-size:45.33330154px;line-height:125%;font-family:Lavi;-inkscape-font-specification:Lavi;text-align:center;letter-spacing:0px;word-spacing:0px;text-anchor:middle;fill:#000000;fill-opacity:1;stroke:none"
       x="248.18468"
       y="212.4789"
       id="text4246-70-2-2-2-7-4-9-9-6-1-2-3-9-2-7-9"><tspan
         sodipodi:role="line"
         style="font-size:45.33330154px"
         x="248.18468"
         y="212.4789"
         id="tspan1721">No,</tspan><tspan
         sodipodi:role="line"
         style="font-size:45.33330154px"
         x="248.18468"
         y="269.14551"
         id="tspan66">miten on?</tspan></text>
    <text
       xml:space="preserve"
       style="font-style:normal;font-variant:normal;font-weight:normal;font-stretch:normal;font-size:45.33330154px;line-height:125%;font-family:Lavi;-inkscape-font-specification:Lavi;text-align:center;letter-spacing:0px;word-spacing:0px;text-anchor:middle;fill:#000000;fill-opacity:1;stroke:none"
       x="971.63519"
       y="258.15771"
       id="text4246-70-2-2-2-7-4-9-9-6-1-2-3-9-2-7-9-3"><tspan
         sodipodi:role="line"
         style="font-size:45.33330154px"
         x="971.63519"
         y="258.15771"
         id="tspan1010">Eikö se saa</tspan><tspan
         sodipodi:role="line"
         style="font-size:45.33330154px"
         x="971.63519"
         y="314.82434"
         id="tspan1018">sinua itkemään?</tspan></text>
    <text
       xml:space="preserve"
       style="font-style:normal;font-variant:normal;font-weight:normal;font-stretch:normal;font-size:62.72869873px;line-height:125%;font-family:Lavi;-inkscape-font-specification:Lavi;text-align:center;letter-spacing:0px;word-spacing:0px;text-anchor:middle;fill:#000000;fill-opacity:1;stroke:none;stroke-width:0.80792803"
       x="1378.2051"
       y="189.3369"
       id="text4246-70-2-2-2-7-4-9-9-6-1-2-3-9-2-7-9-3-7"><tspan
         sodipodi:role="line"
         style="font-style:normal;font-variant:normal;font-weight:bold;font-stretch:normal;font-size:62.72869873px;font-family:Lavi;-inkscape-font-specification:'Lavi Bold';stroke-width:0.80792803"
         x="1378.2051"
         y="189.3369"
         id="tspan15564">OLETKO</tspan><tspan
         sodipodi:role="line"
         style="font-style:normal;font-variant:normal;font-weight:bold;font-stretch:normal;font-size:62.72869873px;font-family:Lavi;-inkscape-font-specification:'Lavi Bold';stroke-width:0.80792803"
         x="1378.2051"
         y="267.74777"
         id="tspan1088">TOSISSASI?!</tspan></text>
    <text
       xml:space="preserve"
       style="font-style:normal;font-variant:normal;font-weight:normal;font-stretch:normal;font-size:62.2419014px;line-height:125%;font-family:Lavi;-inkscape-font-specification:Lavi;text-align:center;letter-spacing:0px;word-spacing:0px;text-anchor:middle;fill:#000000;fill-opacity:1;stroke:none;stroke-width:0.83074999"
       x="2174.5444"
       y="623.25543"
       id="text4246-70-2-2-2-7-4-9-9-6-1-2-3-9-2-7-9-3-7-6"><tspan
         sodipodi:role="line"
         style="font-style:normal;font-variant:normal;font-weight:bold;font-stretch:normal;font-size:62.2419014px;font-family:Lavi;-inkscape-font-specification:'Lavi Bold';stroke-width:0.83074999"
         x="2174.5444"
         y="623.25543"
         id="tspan19636">OLIKO SIINÄ</tspan><tspan
         sodipodi:role="line"
         style="font-style:normal;font-variant:normal;font-weight:bold;font-stretch:normal;font-size:62.2419014px;font-family:Lavi;-inkscape-font-specification:'Lavi Bold';stroke-width:0.83074999"
         x="2174.5444"
         y="701.0578"
         id="tspan76">KAIKKI MITÄ</tspan><tspan
         sodipodi:role="line"
         style="font-style:normal;font-variant:normal;font-weight:bold;font-stretch:normal;font-size:62.2419014px;font-family:Lavi;-inkscape-font-specification:'Lavi Bold';stroke-width:0.83074999"
         x="2174.5444"
         y="778.86017"
         id="tspan1163">KEKSIT?!</tspan></text>
    <text
       xml:space="preserve"
       style="font-style:normal;font-variant:normal;font-weight:normal;font-stretch:normal;font-size:49.90200043px;line-height:125%;font-family:Lavi;-inkscape-font-specification:Lavi;text-align:center;letter-spacing:0px;word-spacing:0px;text-anchor:middle;fill:#000000;fill-opacity:1;stroke:none;stroke-width:1.10078001"
       x="1581.8022"
       y="957.97223"
       id="text4246-70-2-2-2-7-4-9-9-6-1-2-3-9-2-7-9-3-2"><tspan
         sodipodi:role="line"
         style="font-style:normal;font-variant:normal;font-weight:normal;font-stretch:normal;font-size:49.90200043px;font-family:Lavi;-inkscape-font-specification:Lavi;stroke-width:1.10078001"
         x="1581.8022"
         y="957.97223"
         id="tspan24188">Nuo sentään</tspan><tspan
         sodipodi:role="line"
         style="font-style:normal;font-variant:normal;font-weight:normal;font-stretch:normal;font-size:49.90200043px;font-family:Lavi;-inkscape-font-specification:Lavi;stroke-width:1.10078001"
         x="1581.8022"
         y="1020.3497"
         id="tspan1229">yrittivät runoutta!</tspan></text>
    <text
       xml:space="preserve"
       style="font-style:normal;font-variant:normal;font-weight:normal;font-stretch:normal;font-size:49.90200043px;line-height:125%;font-family:Lavi;-inkscape-font-specification:Lavi;text-align:center;letter-spacing:0px;word-spacing:0px;text-anchor:middle;fill:#000000;fill-opacity:1;stroke:none;stroke-width:1.10078001"
       x="1722.0437"
       y="1101.7063"
       id="text4246-70-2-2-2-7-4-9-9-6-1-2-3-9-2-7-9-3-2-3"><tspan
         sodipodi:role="line"
         style="font-style:normal;font-variant:normal;font-weight:normal;font-stretch:normal;font-size:49.90200043px;font-family:Lavi;-inkscape-font-specification:Lavi;stroke-width:1.10078001"
         x="1730.8156"
         y="1101.7063"
         id="tspan1233">Kirjoittivat </tspan><tspan
         sodipodi:role="line"
         style="font-style:normal;font-variant:normal;font-weight:normal;font-stretch:normal;font-size:49.90200043px;font-family:Lavi;-inkscape-font-specification:Lavi;stroke-width:1.10078001"
         x="1722.0437"
         y="1164.0837"
         id="tspan1237">tragedioita!</tspan></text>
    <text
       xml:space="preserve"
       style="font-style:normal;font-variant:normal;font-weight:normal;font-stretch:normal;font-size:83.92310333px;line-height:125%;font-family:Lavi;-inkscape-font-specification:Lavi;text-align:center;letter-spacing:0px;word-spacing:0px;text-anchor:middle;fill:#000000;fill-opacity:1;stroke:none;stroke-width:1.54330003"
       x="1838.3158"
       y="1268.1646"
       id="text4246-70-2-2-2-7-4-9-9-6-1-2-3-9-2-7-9-3-2-3-6-1"><tspan
         sodipodi:role="line"
         style="font-style:normal;font-variant:normal;font-weight:bold;font-stretch:normal;font-size:83.92310333px;font-family:Lavi;-inkscape-font-specification:'Lavi Bold';stroke-width:1.54330003"
         x="1838.3158"
         y="1268.1646"
         id="tspan37654-7">TAIDETTA!</tspan></text>
    <text
       xml:space="preserve"
       style="font-style:normal;font-variant:normal;font-weight:normal;font-stretch:normal;font-size:85.71430206px;line-height:125%;font-family:Lavi;-inkscape-font-specification:Lavi;text-align:center;letter-spacing:0px;word-spacing:0px;text-anchor:middle;fill:#000000;fill-opacity:1;stroke:none;stroke-width:1.57622004"
       x="1949.1381"
       y="1391.4756"
       id="text4246-70-2-2-2-7-4-9-9-6-1-2-3-9-2-7-9-3-2-3-6-1-9"><tspan
         sodipodi:role="line"
         style="font-style:normal;font-variant:normal;font-weight:bold;font-stretch:normal;font-size:85.71430206px;font-family:Lavi;-inkscape-font-specification:'Lavi Bold';stroke-width:1.57622004"
         x="1949.1381"
         y="1391.4756"
         id="tspan37654-7-2">DRAAMAA!</tspan></text>
    <text
       xml:space="preserve"
       style="font-style:normal;font-variant:normal;font-weight:normal;font-stretch:normal;font-size:63.24029922px;line-height:125%;font-family:Lavi;-inkscape-font-specification:Lavi;text-align:center;letter-spacing:0px;word-spacing:0px;text-anchor:middle;fill:#000000;fill-opacity:1;stroke:none;stroke-width:1.39500999"
       x="483.78723"
       y="2154.6296"
       id="text4246-70-2-2-2-7-4-9-9-6-1-2-3-9-2-7-9-3-2-3-0-7"><tspan
         sodipodi:role="line"
         style="font-style:normal;font-variant:normal;font-weight:bold;font-stretch:normal;font-size:63.24029922px;font-family:Lavi;-inkscape-font-specification:'Lavi Bold';stroke-width:1.39500999"
         x="483.78723"
         y="2154.6296"
         id="tspan100735-9">MUTTA SINÄ?!</tspan></text>
    <text
       xml:space="preserve"
       style="font-style:normal;font-variant:normal;font-weight:normal;font-stretch:normal;font-size:63.24029922px;line-height:125%;font-family:Lavi;-inkscape-font-specification:Lavi;text-align:center;letter-spacing:0px;word-spacing:0px;text-anchor:middle;fill:#000000;fill-opacity:1;stroke:none;stroke-width:1.39500999"
       x="2065.7561"
       y="2409.459"
       id="text4246-70-2-2-2-7-4-9-9-6-1-2-3-9-2-7-9-3-2-3-0"><tspan
         sodipodi:role="line"
         style="font-style:normal;font-variant:normal;font-weight:bold;font-stretch:normal;font-size:63.24029922px;font-family:Lavi;-inkscape-font-specification:'Lavi Bold';stroke-width:1.39500999"
         x="2065.7561"
         y="2409.459"
         id="tspan100735">SINÄ TULET VALMIS-</tspan><tspan
         sodipodi:role="line"
         style="font-style:normal;font-variant:normal;font-weight:bold;font-stretch:normal;font-size:63.24029922px;font-family:Lavi;-inkscape-font-specification:'Lavi Bold';stroke-width:1.39500999"
         x="2065.7561"
         y="2488.5093"
         id="tspan1360">TAUTUMATTOMANA!</tspan></text>
    <text
       xml:space="preserve"
       style="font-style:normal;font-variant:normal;font-weight:normal;font-stretch:normal;font-size:51.08089828px;line-height:125%;font-family:Lavi;-inkscape-font-specification:Lavi;text-align:center;letter-spacing:0px;word-spacing:0px;text-anchor:middle;fill:#000000;fill-opacity:1;stroke:none;stroke-width:1.01681006"
       x="1876.1288"
       y="2777.1143"
       id="text4246-70-2-2-2-7-4-9-9-6-1-2-3-9-2-7-9-3-2-3-0-2"><tspan
         sodipodi:role="line"
         style="font-style:normal;font-variant:normal;font-weight:bold;font-stretch:normal;font-size:51.08089828px;font-family:Lavi;-inkscape-font-specification:'Lavi Bold';stroke-width:1.01681006"
         x="1876.1288"
         y="2777.1143"
         id="tspan1426">SE OLI SIINÄ;</tspan><tspan
         sodipodi:role="line"
         style="font-style:normal;font-variant:normal;font-weight:bold;font-stretch:normal;font-size:51.08089828px;font-family:Lavi;-inkscape-font-specification:'Lavi Bold';stroke-width:1.01681006"
         x="1876.1288"
         y="2840.9653"
         id="tspan1430"> HÄIVY NYT!</tspan></text>
    <text
       xml:space="preserve"
       style="font-style:normal;font-variant:normal;font-weight:normal;font-stretch:normal;font-size:49.68650055px;line-height:125%;font-family:Lavi;-inkscape-font-specification:Lavi;text-align:center;letter-spacing:0px;word-spacing:0px;text-anchor:middle;fill:#000000;fill-opacity:1;stroke:none;stroke-width:0.94633698"
       x="2042.4871"
       y="2936.5046"
       id="text4246-70-2-2-2-7-4-9-9-6-1-2-3-9-2-7-9-3-2-3-0-2-9"><tspan
         sodipodi:role="line"
         style="font-style:normal;font-variant:normal;font-weight:bold;font-stretch:normal;font-size:49.68650055px;font-family:Lavi;-inkscape-font-specification:'Lavi Bold';stroke-width:0.94633698"
         x="2042.4871"
         y="2936.5046"
         id="tspan571">MENE KOTIISI</tspan><tspan
         sodipodi:role="line"
         style="font-style:normal;font-variant:normal;font-weight:bold;font-stretch:normal;font-size:49.68650055px;font-family:Lavi;-inkscape-font-specification:'Lavi Bold';stroke-width:0.94633698"
         x="2042.4871"
         y="2998.6128"
         id="tspan1505">JA PALAA, KUN</tspan><tspan
         sodipodi:role="line"
         style="font-style:normal;font-variant:normal;font-weight:bold;font-stretch:normal;font-size:49.68650055px;font-family:Lavi;-inkscape-font-specification:'Lavi Bold';stroke-width:0.94633698"
         x="2042.4871"
         y="3060.7209"
         id="tspan100">OLET VALMIS!</tspan></text>
  </g>
</svg>
