<?xml version="1.0" encoding="UTF-8" standalone="no"?>
<!-- Created with Inkscape (http://www.inkscape.org/) -->

<svg
   xmlns:dc="http://purl.org/dc/elements/1.1/"
   xmlns:cc="http://creativecommons.org/ns#"
   xmlns:rdf="http://www.w3.org/1999/02/22-rdf-syntax-ns#"
   xmlns:svg="http://www.w3.org/2000/svg"
   xmlns="http://www.w3.org/2000/svg"
   xmlns:xlink="http://www.w3.org/1999/xlink"
   xmlns:sodipodi="http://sodipodi.sourceforge.net/DTD/sodipodi-0.dtd"
   xmlns:inkscape="http://www.inkscape.org/namespaces/inkscape"
   id="svg2"
   version="1.1"
   inkscape:version="0.92.4 (5da689c313, 2019-01-14)"
   width="2481"
   height="3503"
   sodipodi:docname="E06P07.svg">
  <sodipodi:namedview
     pagecolor="#ffffff"
     bordercolor="#666666"
     inkscape:pageopacity="0"
     inkscape:pageshadow="2"
     inkscape:window-width="1179"
     inkscape:window-height="900"
     id="namedview70"
     showgrid="false"
     inkscape:zoom="0.19887069"
     inkscape:cx="1167.2305"
     inkscape:cy="302.37201"
     inkscape:current-layer="layer3"
     inkscape:window-x="0"
     inkscape:window-y="26"
     inkscape:window-maximized="0" />
  <metadata
     id="metadata8">
    <rdf:RDF>
      <cc:Work
         rdf:about="">
        <dc:format>image/svg+xml</dc:format>
        <dc:type
           rdf:resource="http://purl.org/dc/dcmitype/StillImage" />
        <dc:title />
      </cc:Work>
    </rdf:RDF>
  </metadata>
  <defs
     id="defs6">
    <filter
       color-interpolation-filters="sRGB"
       id="filter4375-4-1-1-15-1-3"
       inkscape:label="deevad outline effect">
      <feFlood
         id="feFlood4377-7-9-0-4-4-4"
         flood-opacity="1"
         flood-color="rgb(0,0,0)"
         result="flood" />
      <feComposite
         id="feComposite4379-3-8-8-6-0-7"
         in2="SourceGraphic"
         in="flood"
         operator="in"
         result="composite1" />
      <feMorphology
         id="feMorphology4393-1-0-49-8-2-7"
         operator="dilate"
         radius="0.69999999999999996"
         result="result3" />
      <feComposite
         id="feComposite4385-9-5-7-2-1-2"
         in2="result3"
         in="SourceGraphic"
         operator="over"
         result="composite2" />
    </filter>
    <filter
       color-interpolation-filters="sRGB"
       id="filter6713"
       inkscape:label="deevad outline effect">
      <feFlood
         id="feFlood6715"
         flood-opacity="1"
         flood-color="rgb(0,0,0)"
         result="flood" />
      <feComposite
         id="feComposite6717"
         in2="SourceGraphic"
         in="flood"
         operator="in"
         result="composite1" />
      <feMorphology
         id="feMorphology6719"
         operator="dilate"
         radius="0.321"
         result="result3" />
      <feComposite
         id="feComposite6721"
         in2="result3"
         in="SourceGraphic"
         operator="over"
         result="composite2" />
    </filter>
    <filter
       color-interpolation-filters="sRGB"
       id="filter6723"
       inkscape:label="deevad outline effect">
      <feFlood
         id="feFlood6725"
         flood-opacity="1"
         flood-color="rgb(0,0,0)"
         result="flood" />
      <feComposite
         id="feComposite6727"
         in2="SourceGraphic"
         in="flood"
         operator="in"
         result="composite1" />
      <feMorphology
         id="feMorphology6729"
         operator="dilate"
         radius="0.321"
         result="result3" />
      <feComposite
         id="feComposite6731"
         in2="result3"
         in="SourceGraphic"
         operator="over"
         result="composite2" />
    </filter>
    <filter
       color-interpolation-filters="sRGB"
       id="filter6733"
       inkscape:label="deevad outline effect">
      <feFlood
         id="feFlood6735"
         flood-opacity="1"
         flood-color="rgb(0,0,0)"
         result="flood" />
      <feComposite
         id="feComposite6737"
         in2="SourceGraphic"
         in="flood"
         operator="in"
         result="composite1" />
      <feMorphology
         id="feMorphology6739"
         operator="dilate"
         radius="0.321"
         result="result3" />
      <feComposite
         id="feComposite6741"
         in2="result3"
         in="SourceGraphic"
         operator="over"
         result="composite2" />
    </filter>
    <filter
       color-interpolation-filters="sRGB"
       id="filter6743"
       inkscape:label="deevad outline effect">
      <feFlood
         id="feFlood6745"
         flood-opacity="1"
         flood-color="rgb(0,0,0)"
         result="flood" />
      <feComposite
         id="feComposite6747"
         in2="SourceGraphic"
         in="flood"
         operator="in"
         result="composite1" />
      <feMorphology
         id="feMorphology6749"
         operator="dilate"
         radius="0.321"
         result="result3" />
      <feComposite
         id="feComposite6751"
         in2="result3"
         in="SourceGraphic"
         operator="over"
         result="composite2" />
    </filter>
    <filter
       color-interpolation-filters="sRGB"
       id="filter6753"
       inkscape:label="deevad outline effect">
      <feFlood
         id="feFlood6755"
         flood-opacity="1"
         flood-color="rgb(0,0,0)"
         result="flood" />
      <feComposite
         id="feComposite6757"
         in2="SourceGraphic"
         in="flood"
         operator="in"
         result="composite1" />
      <feMorphology
         id="feMorphology6759"
         operator="dilate"
         radius="0.321"
         result="result3" />
      <feComposite
         id="feComposite6761"
         in2="result3"
         in="SourceGraphic"
         operator="over"
         result="composite2" />
    </filter>
    <filter
       color-interpolation-filters="sRGB"
       id="filter6763"
       inkscape:label="deevad outline effect">
      <feFlood
         id="feFlood6765"
         flood-opacity="1"
         flood-color="rgb(0,0,0)"
         result="flood" />
      <feComposite
         id="feComposite6767"
         in2="SourceGraphic"
         in="flood"
         operator="in"
         result="composite1" />
      <feMorphology
         id="feMorphology6769"
         operator="dilate"
         radius="0.321"
         result="result3" />
      <feComposite
         id="feComposite6771"
         in2="result3"
         in="SourceGraphic"
         operator="over"
         result="composite2" />
    </filter>
    <filter
       color-interpolation-filters="sRGB"
       id="filter6773"
       inkscape:label="deevad outline effect">
      <feFlood
         id="feFlood6775"
         flood-opacity="1"
         flood-color="rgb(0,0,0)"
         result="flood" />
      <feComposite
         id="feComposite6777"
         in2="SourceGraphic"
         in="flood"
         operator="in"
         result="composite1" />
      <feMorphology
         id="feMorphology6779"
         operator="dilate"
         radius="0.321"
         result="result3" />
      <feComposite
         id="feComposite6781"
         in2="result3"
         in="SourceGraphic"
         operator="over"
         result="composite2" />
    </filter>
    <filter
       color-interpolation-filters="sRGB"
       id="filter4375-4-1-1-1-1"
       inkscape:label="deevad outline effect">
      <feFlood
         id="feFlood4377-7-9-0-8-5"
         flood-opacity="1"
         flood-color="rgb(0,0,0)"
         result="flood" />
      <feComposite
         id="feComposite4379-3-8-8-2-7"
         in2="SourceGraphic"
         in="flood"
         operator="in"
         result="composite1" />
      <feMorphology
         id="feMorphology4393-1-0-49-8-7"
         operator="dilate"
         radius="4"
         result="result3" />
      <feComposite
         id="feComposite4385-9-5-7-0-3"
         in2="result3"
         in="SourceGraphic"
         operator="over"
         result="composite2" />
    </filter>
    <filter
       color-interpolation-filters="sRGB"
       id="filter4375-4-1-1-1-1-3"
       inkscape:label="deevad outline effect">
      <feFlood
         id="feFlood4377-7-9-0-8-5-5"
         flood-opacity="1"
         flood-color="rgb(0,0,0)"
         result="flood" />
      <feComposite
         id="feComposite4379-3-8-8-2-7-8"
         in2="SourceGraphic"
         in="flood"
         operator="in"
         result="composite1" />
      <feMorphology
         id="feMorphology4393-1-0-49-8-7-1"
         operator="dilate"
         radius="4"
         result="result3" />
      <feComposite
         id="feComposite4385-9-5-7-0-3-6"
         in2="result3"
         in="SourceGraphic"
         operator="over"
         result="composite2" />
    </filter>
    <filter
       color-interpolation-filters="sRGB"
       id="filter4375-4-1-1-15-1-3-3"
       inkscape:label="deevad outline effect">
      <feFlood
         id="feFlood4377-7-9-0-4-4-4-9"
         flood-opacity="1"
         flood-color="rgb(0,0,0)"
         result="flood" />
      <feComposite
         id="feComposite4379-3-8-8-6-0-7-6"
         in2="SourceGraphic"
         in="flood"
         operator="in"
         result="composite1" />
      <feMorphology
         id="feMorphology4393-1-0-49-8-2-7-6"
         operator="dilate"
         radius="0.321"
         result="result3" />
      <feComposite
         id="feComposite4385-9-5-7-2-1-2-4"
         in2="result3"
         in="SourceGraphic"
         operator="over"
         result="composite2" />
    </filter>
    <filter
       color-interpolation-filters="sRGB"
       id="filter6892"
       inkscape:label="deevad outline effect">
      <feFlood
         id="feFlood6894"
         flood-opacity="1"
         flood-color="rgb(0,0,0)"
         result="flood" />
      <feComposite
         id="feComposite6896"
         in2="SourceGraphic"
         in="flood"
         operator="in"
         result="composite1" />
      <feMorphology
         id="feMorphology6898"
         operator="dilate"
         radius="0.321"
         result="result3" />
      <feComposite
         id="feComposite6900"
         in2="result3"
         in="SourceGraphic"
         operator="over"
         result="composite2" />
    </filter>
    <filter
       color-interpolation-filters="sRGB"
       id="filter6902"
       inkscape:label="deevad outline effect">
      <feFlood
         id="feFlood6904"
         flood-opacity="1"
         flood-color="rgb(0,0,0)"
         result="flood" />
      <feComposite
         id="feComposite6906"
         in2="SourceGraphic"
         in="flood"
         operator="in"
         result="composite1" />
      <feMorphology
         id="feMorphology6908"
         operator="dilate"
         radius="0.321"
         result="result3" />
      <feComposite
         id="feComposite6910"
         in2="result3"
         in="SourceGraphic"
         operator="over"
         result="composite2" />
    </filter>
    <filter
       color-interpolation-filters="sRGB"
       id="filter6912"
       inkscape:label="deevad outline effect">
      <feFlood
         id="feFlood6914"
         flood-opacity="1"
         flood-color="rgb(0,0,0)"
         result="flood" />
      <feComposite
         id="feComposite6916"
         in2="SourceGraphic"
         in="flood"
         operator="in"
         result="composite1" />
      <feMorphology
         id="feMorphology6918"
         operator="dilate"
         radius="0.321"
         result="result3" />
      <feComposite
         id="feComposite6920"
         in2="result3"
         in="SourceGraphic"
         operator="over"
         result="composite2" />
    </filter>
    <filter
       color-interpolation-filters="sRGB"
       id="filter6922"
       inkscape:label="deevad outline effect">
      <feFlood
         id="feFlood6924"
         flood-opacity="1"
         flood-color="rgb(0,0,0)"
         result="flood" />
      <feComposite
         id="feComposite6926"
         in2="SourceGraphic"
         in="flood"
         operator="in"
         result="composite1" />
      <feMorphology
         id="feMorphology6928"
         operator="dilate"
         radius="0.321"
         result="result3" />
      <feComposite
         id="feComposite6930"
         in2="result3"
         in="SourceGraphic"
         operator="over"
         result="composite2" />
    </filter>
    <filter
       color-interpolation-filters="sRGB"
       id="filter6932"
       inkscape:label="deevad outline effect">
      <feFlood
         id="feFlood6934"
         flood-opacity="1"
         flood-color="rgb(0,0,0)"
         result="flood" />
      <feComposite
         id="feComposite6936"
         in2="SourceGraphic"
         in="flood"
         operator="in"
         result="composite1" />
      <feMorphology
         id="feMorphology6938"
         operator="dilate"
         radius="0.321"
         result="result3" />
      <feComposite
         id="feComposite6940"
         in2="result3"
         in="SourceGraphic"
         operator="over"
         result="composite2" />
    </filter>
    <filter
       color-interpolation-filters="sRGB"
       id="filter6942"
       inkscape:label="deevad outline effect">
      <feFlood
         id="feFlood6944"
         flood-opacity="1"
         flood-color="rgb(0,0,0)"
         result="flood" />
      <feComposite
         id="feComposite6946"
         in2="SourceGraphic"
         in="flood"
         operator="in"
         result="composite1" />
      <feMorphology
         id="feMorphology6948"
         operator="dilate"
         radius="0.321"
         result="result3" />
      <feComposite
         id="feComposite6950"
         in2="result3"
         in="SourceGraphic"
         operator="over"
         result="composite2" />
    </filter>
    <filter
       color-interpolation-filters="sRGB"
       id="filter6952"
       inkscape:label="deevad outline effect">
      <feFlood
         id="feFlood6954"
         flood-opacity="1"
         flood-color="rgb(0,0,0)"
         result="flood" />
      <feComposite
         id="feComposite6956"
         in2="SourceGraphic"
         in="flood"
         operator="in"
         result="composite1" />
      <feMorphology
         id="feMorphology6958"
         operator="dilate"
         radius="0.321"
         result="result3" />
      <feComposite
         id="feComposite6960"
         in2="result3"
         in="SourceGraphic"
         operator="over"
         result="composite2" />
    </filter>
  </defs>
  <sodipodi:namedview
     pagecolor="#ffffff"
     bordercolor="#666666"
     borderopacity="1"
     objecttolerance="10"
     gridtolerance="10"
     guidetolerance="10"
     inkscape:pageopacity="0"
     inkscape:pageshadow="2"
     inkscape:window-width="519"
     inkscape:window-height="420"
     id="namedview4"
     showgrid="false"
     inkscape:zoom="0.46000002"
     inkscape:cx="902.19673"
     inkscape:cy="409.28024"
     inkscape:window-x="0"
     inkscape:window-y="27"
     inkscape:window-maximized="0"
     inkscape:current-layer="layer3" />
  <g
     inkscape:groupmode="layer"
     id="layer2"
     inkscape:label="artwork"
     sodipodi:insensitive="true">
    <image
       sodipodi:absref="D:\Pepper&amp;Carrot\ep06_The-Potion-Contest_lang-pack\lang\ro\../gfx_Pepper-and-Carrot_by-David-Revoy_E06P07.png"
       xlink:href="../gfx_Pepper-and-Carrot_by-David-Revoy_E06P07.png"
       y="0"
       x="0"
       id="image10"
       height="3503"
       width="2481" />
  </g>
  <g
     inkscape:groupmode="layer"
     id="layer3"
     inkscape:label="speechbubbles">
    <path
       style="fill:#ffffff;fill-opacity:1;stroke:none;stroke-width:0.9438566"
       d="m 1816.6812,3287.0144 c 27.7415,7.241 38.4114,13.9645 33.432,18.1021 11.3813,2.069 15.6493,55.8584 4.9794,65.6853 -0.7113,1.0346 -5.6907,4.1378 -3.5566,4.6549 2.1339,0.5174 14.9378,-1.0342 17.0717,1.0344 2.1341,2.0691 -19.2058,31.5497 -16.3605,32.5843 2.8454,1.0343 68.2873,-18.6196 77.5344,-13.9647 9.2471,4.6548 4.2681,16.5505 7.1133,17.068 2.845,0.5171 29.1644,-2.5862 32.7209,-2.069 3.5566,0.5172 9.9585,16.0334 13.515,16.5506 3.5567,0.5173 19.9172,-6.7235 22.7624,-6.2065 2.8455,0.5174 1.4227,13.4473 4.9794,13.9646 3.5565,0.5173 19.2058,-10.8612 21.3397,-10.3441 2.134,0.5173 9.9585,26.3776 13.5152,27.9291 3.5566,1.5518 26.319,-28.4462 28.453,-28.9635 2.134,-0.5173 15.649,35.17 18.4945,35.6873 2.8452,0.5172 17.0718,-24.3088 19.2057,-23.7915 2.1341,0.517 15.6491,14.9992 18.4943,16.0333 2.8455,1.0344 21.3398,-32.0669 24.1851,-32.0669 2.8454,0 27.0303,13.9646 29.1644,16.5506 2.1339,2.5861 4.2678,-13.4472 7.1131,-13.4472 2.8453,0 35.5663,9.3097 36.2777,8.7926 0.7112,-0.5174 -4.9793,-10.3443 -2.8453,-10.3443 2.1339,0 35.5662,12.9303 36.9888,10.3443 1.4227,-2.5861 72.5551,12.9301 77.5344,10.8613 4.9794,-2.0689 -32.0096,-42.411 -28.4532,-45.5142 3.5567,-3.1034 16.3607,0.5171 17.072,-1.0345 0.7113,-1.5516 -7.8247,-8.2754 -5.6908,-10.3441 2.1341,-2.069 26.3191,-10.3441 28.4531,-12.9302 2.134,-2.5859 -10.6699,-9.3098 -7.8247,-10.8615 2.8455,-1.5515 44.8138,-11.3785 45.5251,-13.9644 0.7112,-2.5862 -21.3398,-14.9988 -18.4947,-18.6194 2.8455,-3.6205 10.6701,-5.1721 9.9586,-7.7582 -0.7113,-2.586 -14.2264,-5.6893 -13.5153,-8.2753 0.7116,-2.5862 7.8247,-15.5162 9.9586,-17.5851 2.1341,-2.0687 -14.9377,-1.0343 -14.9377,-3.1033 0,-2.0686 62.5968,-57.41 61.1739,-72.9262 -22.051,9.8271 -97.4515,27.412 -120.925,23.2745 -23.4739,-4.1378 -14.2265,-29.998 -17.7832,-31.5497 -3.5566,-1.5518 -29.8759,8.7925 -33.4324,5.172 -3.5566,-3.6203 -4.9791,-10.3442 -7.8244,-10.3442 -2.8452,0 -19.206,14.4818 -22.7623,13.9647 -3.5567,-0.5173 -36.9889,-23.2742 -41.9683,-23.7915 -4.9792,-0.5172 -24.185,8.7926 -28.453,9.3097 -4.2681,0.5171 -7.8245,-12.4129 -11.3812,-11.3785 -3.5567,1.0343 -25.5285,15.1161 -28.8947,13.5611 -18.8686,-10.4551 -24.8904,-14.1815 -39.5774,-24.3972 0.7971,8.3835 2.3791,14.673 3.1931,22.2455 0,0 -23.6798,-12.768 -27.9476,-12.768 -4.268,0 -8.4926,25.6674 -12.0494,26.7016 -3.5566,1.0344 -57.3814,-24.144 -55.2474,-27.2473 2.1342,-3.1031 -6.4895,22.9946 -11.4688,24.5462 -4.9793,1.5515 -43.7903,-27.3606 -45.2129,-25.8091 -1.4227,1.5516 14.1887,35.2768 9.9208,35.794 -4.2682,0.5173 -12.515,6.1636 -12.515,6.1636 l -1.6596,-0.5352 c 0,0 -62.7744,-41.03 -66.3309,-44.1331 -3.5566,-3.1032 38.1151,49.8403 40.249,53.978 -12.8037,-4.1377 -50.5043,-12.93 -53.3492,-15.5162 -2.8456,-2.586 4.979,9.3098 9.2472,12.9303 -5.6907,-1.5518 -10.67,-2.069 -10.67,-2.069 l 16.3605,12.4132 -4.9793,1.0344 c 0,0 10.6697,5.6892 10.6697,8.2752 0,2.586 -27.7415,5.6893 -27.7415,5.6893 0,0 11.3812,4.6548 8.536,7.2409 -2.8454,2.5859 -9.9588,4.1376 -9.9588,4.1376 l -1.4225,6.7238 z"
       id="path5888"
       inkscape:connector-curvature="0"
       sodipodi:nodetypes="ccccccccccccccscccscscscccccccccsccscscssccsccccsccccsccsccccccsccccc" />
    <path
       style="color:#000000;display:inline;overflow:visible;visibility:visible;fill:#ffffff;fill-opacity:1;fill-rule:nonzero;stroke:none;stroke-width:1.13981044px;marker:none;enable-background:accumulate"
       d="m 1919.6524,2988.3864 c 83.4265,-38.6236 149.9307,-75.6236 142.1865,-31.9598 84.5902,-50.3821 143.5948,-24.4314 204.0536,-2.8195 20.9527,-15.6066 29.2169,-41.6682 82.364,-30.7464 -3.6215,-17.6001 17.5477,-27.6283 60.8379,-30.9008 -52.8985,-15.0629 -60.5381,-26.4993 44.9157,-28.8739 -77.9233,-7.93 -150.3437,-16.5606 -49.3868,-47.2619 -28.5544,-3.4515 -104.5309,22.8902 -50.1605,-68.8725 -56.6995,25.943 -113.4581,38.0334 -164.5558,-31.1538 -26.3168,23.2558 -60.7613,37.5014 -111.1562,-1.77 -18.4426,23.7543 -89.5677,19.6383 -114.3584,12.316 45.7731,32.376 39.8572,49.4853 -31.9254,45.9505 107.3669,60.5232 11.6695,44.4508 -10.5893,55.4738 89.5639,25.4507 42.5345,43.2451 20.7576,63.1771 107.5,10.1436 38.358,44.9039 -22.9829,97.4412 z"
       id="path3549-3"
       inkscape:connector-curvature="0"
       sodipodi:nodetypes="ccccccccccccccc" />
    <path
       style="font-size:medium;font-style:normal;font-variant:normal;font-weight:normal;font-stretch:normal;text-indent:0;text-align:start;text-decoration:none;line-height:normal;letter-spacing:normal;word-spacing:normal;text-transform:none;direction:ltr;block-progression:tb;writing-mode:lr-tb;text-anchor:start;baseline-shift:baseline;color:#000000;fill:#ffffff;fill-opacity:1;fill-rule:nonzero;stroke:none;stroke-width:31.89999962;marker:none;visibility:visible;display:inline;overflow:visible;enable-background:accumulate;font-family:Sans;-inkscape-font-specification:Sans"
       d="m 474.97795,3335.9786 24.83976,-5.1644 c -7.52154,-36.3794 -13.68595,-61.4776 -23.72462,-81.0826 -10.03874,-19.6049 -24.78048,-32.9577 -45.01348,-42.6286 -36.41666,-17.4064 -81.45734,-43.8096 -98.20961,-81.2528 -9.61408,-21.4887 -22.76449,-50.8123 -27.78998,-78.1209 -5.02531,-27.3087 -2.60105,-50.1072 16.31939,-65.7124 21.65864,-17.864 37.8212,-21.9983 54.99629,-30.0165 17.17499,-8.0183 34.11021,-21.3877 47.0396,-51.6191 l -23.31225,-9.9869 c -11.16692,26.1102 -20.11927,31.9206 -34.46319,38.6172 -14.34395,6.6965 -35.34811,12.7782 -60.39708,33.4383 -27.78728,22.9188 -30.96496,58.119 -25.12384,89.8598 5.84096,31.7408 20.02505,62.525 29.58101,83.8835 21.58785,48.2512 72.67834,75.742 110.42217,93.7827 16.84727,8.0525 25.51902,15.9996 33.37048,31.333 7.8515,15.3334 14.04893,38.7986 21.46535,74.6697 z"
       id="path3381"
       inkscape:connector-curvature="0" />
    <path
       style="color:#000000;fill:#ffffff;fill-opacity:1;fill-rule:nonzero;stroke:none;stroke-width:1px;marker:none;visibility:visible;display:inline;overflow:visible;enable-background:accumulate"
       d="m 640.14442,3225.1944 c 31.90532,21.8232 91.48732,27.3927 175.59217,-36.4776 -62.83193,74.6779 -138.38416,82.5141 -160.72924,83.0755 -22.34519,0.5613 -14.86293,-46.5979 -14.86293,-46.5979 z"
       id="path4008"
       inkscape:connector-curvature="0" />
    <path
       style="color:#000000;display:inline;overflow:visible;visibility:visible;fill:#ffffff;fill-opacity:1;fill-rule:nonzero;stroke:none;stroke-width:1.06235301px;marker:none;enable-background:accumulate"
       d="m 123.93897,2953.1238 c 9.90761,-41.9805 93.00818,-71.2547 302.18324,-59.3516 112.04545,6.3759 239.43466,11.5808 226.22454,73.1038 -13.21025,61.523 -196.50154,56.4565 -234.4809,57.1802 -37.97937,0.724 -234.67986,-9.4872 -267.50639,-31.1234 -20.54866,-13.5437 -28.07175,-26.7806 -26.42049,-39.809 z"
       id="path4546"
       inkscape:connector-curvature="0"
       sodipodi:nodetypes="cssssc" />
    <flowRoot
       xml:space="preserve"
       id="flowRoot4133-6-9-4-8-5"
       style="color:#000000;font-style:normal;font-variant:normal;font-weight:normal;font-stretch:normal;line-height:0.01%;font-family:Arial;-inkscape-font-specification:Arial;letter-spacing:0.00204969px;word-spacing:0px;display:inline;overflow:visible;visibility:visible;fill:#ffffff;fill-opacity:1;fill-rule:nonzero;stroke:#ffffff;stroke-width:0.0836072;stroke-linecap:butt;stroke-linejoin:miter;stroke-miterlimit:4;stroke-dasharray:none;stroke-dashoffset:0;stroke-opacity:1;marker:none;filter:url(#filter4375-4-1-1-15-1-3);enable-background:accumulate"
       transform="matrix(7.6482385,-5.1449885,-0.24346263,15.163814,-8182.3884,-9737.3574)"><flowRegion
         id="flowRegion4135-2-9-3-5-2"
         style="stroke-width:0.86646658"><rect
           id="rect4137-1-7-1-2-1"
           width="200.00224"
           height="39.051064"
           x="1125.3193"
           y="1078.5308"
           style="color:#000000;letter-spacing:0.00204969px;display:inline;overflow:visible;visibility:visible;fill:#ffffff;fill-opacity:1;fill-rule:nonzero;stroke:#ffffff;stroke-width:0.0836072;stroke-linecap:butt;stroke-linejoin:miter;stroke-miterlimit:4;stroke-dasharray:none;stroke-dashoffset:0;stroke-opacity:1;marker:none;filter:url(#filter4375-4-1-1-15-1-3);enable-background:accumulate" /></flowRegion><flowPara
         id="flowPara4139-2-8-6-8-6"
         style="color:#000000;font-style:normal;font-variant:normal;font-weight:normal;font-stretch:normal;font-size:17.85409164px;line-height:125%;font-family:Lavi;-inkscape-font-specification:Lavi;letter-spacing:0.00204969px;word-spacing:0.00204969px;display:inline;overflow:visible;visibility:visible;fill:#ffffff;fill-opacity:1;fill-rule:nonzero;stroke:#ffffff;stroke-width:0.0836072;stroke-linecap:butt;stroke-linejoin:miter;stroke-miterlimit:4;stroke-dasharray:none;stroke-dashoffset:0;stroke-opacity:1;marker:none;enable-background:accumulate"><flowSpan
           style="font-size:15.71809769px"
           id="flowSpan3145">CRA-CRA-Cr</flowSpan><flowSpan
           style="font-size:15.0060997px"
           id="flowSpan3141">a</flowSpan><flowSpan
           style="font-size:13.58210468px"
           id="flowSpan3139">aa</flowSpan><flowSpan
           style="font-size:10.73411274px"
           id="flowSpan3137">aa</flowSpan><flowSpan
           style="font-size:9.31011772px"
           id="flowSpan3135">aaa</flowSpan><flowSpan
           style="font-size:7.88612223px"
           id="flowSpan3133">a</flowSpan><flowSpan
           style="font-size:6.46212626px"
           id="flowSpan3127">a</flowSpan><flowSpan
           style="font-size:5.03813076px"
           id="flowSpan3125">a</flowSpan></flowPara></flowRoot>    <flowRoot
       xml:space="preserve"
       id="flowRoot4133-6-9-4-8-5-3"
       style="color:#000000;font-style:normal;font-variant:normal;font-weight:normal;font-stretch:normal;line-height:0.01%;font-family:Arial;-inkscape-font-specification:Arial;letter-spacing:0.00204969px;word-spacing:0px;display:inline;overflow:visible;visibility:visible;fill:#ffffff;fill-opacity:1;fill-rule:nonzero;stroke:#ffffff;stroke-width:0.0836072;stroke-linecap:butt;stroke-linejoin:miter;stroke-miterlimit:4;stroke-dasharray:none;stroke-dashoffset:0;stroke-opacity:1;marker:none;filter:url(#filter4375-4-1-1-15-1-3-3);enable-background:accumulate"
       transform="matrix(8.2641452,-1.3438843,-5.2137327,13.33714,-1953.353,-10705.818)"><flowRegion
         id="flowRegion4135-2-9-3-5-2-5"
         style="stroke-width:0.86646658"><rect
           id="rect4137-1-7-1-2-1-3"
           width="99.622368"
           height="30.005394"
           x="1125.3193"
           y="1078.5308"
           style="color:#000000;letter-spacing:0.00204969px;display:inline;overflow:visible;visibility:visible;fill:#ffffff;fill-opacity:1;fill-rule:nonzero;stroke:#ffffff;stroke-width:0.0836072;stroke-linecap:butt;stroke-linejoin:miter;stroke-miterlimit:4;stroke-dasharray:none;stroke-dashoffset:0;stroke-opacity:1;marker:none;filter:url(#filter4375-4-1-1-15-1-3-3);enable-background:accumulate" /></flowRegion><flowPara
         id="flowPara4139-2-8-6-8-6-3"
         style="color:#000000;font-style:normal;font-variant:normal;font-weight:normal;font-stretch:normal;font-size:12px;line-height:125%;font-family:Lavi;-inkscape-font-specification:Lavi;letter-spacing:0.00204969px;word-spacing:0.00204969px;display:inline;overflow:visible;visibility:visible;fill:#ffffff;fill-opacity:1;fill-rule:nonzero;stroke:#ffffff;stroke-width:0.0836072;stroke-linecap:butt;stroke-linejoin:miter;stroke-miterlimit:4;stroke-dasharray:none;stroke-dashoffset:0;stroke-opacity:1;marker:none;filter:url(#filter4375-4-1-1-15-1-3-3);enable-background:accumulate"><flowSpan
           id="flowSpan4277-2"
           style="color:#000000;font-size:17.85409164px;display:inline;overflow:visible;visibility:visible;fill:#ffffff;fill-opacity:1;fill-rule:nonzero;stroke:#ffffff;stroke-width:0.0836072;stroke-linecap:butt;stroke-linejoin:miter;stroke-miterlimit:4;stroke-dasharray:none;stroke-dashoffset:0;stroke-opacity:1;marker:none;filter:url(#filter4375-4-1-1-15-1-3-3);enable-background:accumulate">BAM!</flowSpan></flowPara></flowRoot>    <path
       style="color:#000000;fill:#ffffff;fill-opacity:1;fill-rule:nonzero;stroke:none;stroke-width:1px;marker:none;visibility:visible;display:inline;overflow:visible;enable-background:accumulate"
       d="m 69.497434,2869.3681 c -6.82553,-70.4477 53.019506,-92.8941 178.782896,-92.3501 169.34697,0.7326 165.84117,43.7737 167.11329,85.2452 2.14923,70.0656 -86.80268,83.7178 -173.6869,80.7916 -103.60538,-3.4893 -163.207706,2.0204 -172.209286,-73.6867 z"
       id="path5026"
       inkscape:connector-curvature="0"
       sodipodi:nodetypes="csssc" />
    <flowRoot
       xml:space="preserve"
       id="flowRoot2987-4-9-3"
       style="font-style:normal;font-variant:normal;font-weight:normal;font-stretch:normal;line-height:0.01%;font-family:Lavi;-inkscape-font-specification:Lavi;text-align:center;letter-spacing:0px;word-spacing:0px;text-anchor:middle;fill:#000000;fill-opacity:1;stroke:none"
       transform="translate(-174.19924,2571.3262)"><flowRegion
         id="flowRegion2989-5-4-5"><rect
           id="rect2991-7-9-6"
           width="602.40173"
           height="310.73996"
           x="120.55251"
           y="265.53046"
           style="font-style:normal;font-variant:normal;font-weight:normal;font-stretch:normal;font-family:Lavi;-inkscape-font-specification:Lavi;text-align:center;text-anchor:middle" /></flowRegion><flowPara
         style="font-size:48px;line-height:1.25;text-align:center;text-anchor:middle"
         id="flowPara3443">...hah, tare ! </flowPara></flowRoot>    <path
       style="color:#000000;display:inline;overflow:visible;visibility:visible;fill:#ffffff;fill-opacity:1;fill-rule:nonzero;stroke:none;stroke-width:0.89070743px;marker:none;enable-background:accumulate"
       d="M 51.900363,3266.3276 C 63.953088,3181.012 165.04591,3121.5188 419.50979,3145.709 c 136.30457,12.9576 291.27504,23.5354 275.20476,148.5668 -16.07043,125.0312 -239.04641,114.7346 -285.24872,116.2055 -46.20235,1.4713 -285.49077,-19.2805 -325.424643,-63.2512 -24.997681,-27.5243 -34.149599,-54.4253 -32.140824,-80.9025 z"
       id="path4546-6"
       inkscape:connector-curvature="0"
       sodipodi:nodetypes="cssssc" />
    <flowRoot
       xml:space="preserve"
       id="flowRoot3482"
       style="font-style:normal;font-variant:normal;font-weight:normal;font-stretch:normal;line-height:0.01%;font-family:Lavi;-inkscape-font-specification:Lavi;text-align:center;letter-spacing:0px;word-spacing:0px;text-anchor:middle;fill:#000000;fill-opacity:1;stroke:none"
       transform="translate(0.8007555,2856.3262)"><flowRegion
         id="flowRegion3484"><rect
           id="rect3486"
           width="514.90173"
           height="288.23993"
           x="120.55251"
           y="265.53046"
           style="font-style:normal;font-variant:normal;font-weight:normal;font-stretch:normal;font-family:Lavi;-inkscape-font-specification:Lavi;text-align:center;text-anchor:middle" /></flowRegion><flowPara
         id="flowPara3490"
         style="font-size:48px;line-height:1.25;text-align:center;text-anchor:middle"> </flowPara><flowPara
         style="font-size:48px;line-height:1.25;text-align:center;text-anchor:middle"
         id="flowPara3494">...poțiunea mea o să stârnească vreo câteva hohote, pentru că... </flowPara></flowRoot>    <flowRoot
       transform="matrix(0.85222813,0,0,0.85222813,21.079885,2701.879)"
       style="font-style:normal;font-variant:normal;font-weight:normal;font-stretch:normal;line-height:0.01%;font-family:Lavi;-inkscape-font-specification:Lavi;text-align:center;letter-spacing:0px;word-spacing:0px;text-anchor:middle;fill:#000000;fill-opacity:1;stroke:none"
       id="flowRoot3447"
       xml:space="preserve"><flowRegion
         id="flowRegion3449"><rect
           style="font-style:normal;font-variant:normal;font-weight:normal;font-stretch:normal;font-family:Lavi;-inkscape-font-specification:Lavi;text-align:center;text-anchor:middle"
           y="265.53046"
           x="120.55251"
           height="310.73996"
           width="602.40173"
           id="rect3451" /></flowRegion><flowPara
         style="font-size:48px;line-height:1.25;text-align:center;text-anchor:middle"
         id="flowPara3455">deci acum e rândul meu? </flowPara></flowRoot>    <flowRoot
       transform="matrix(1.0193371,0,0,1,1860.874,2563.4669)"
       style="font-style:normal;font-variant:normal;font-weight:normal;font-stretch:normal;line-height:0.01%;font-family:Lavi;-inkscape-font-specification:Lavi;text-align:center;letter-spacing:0px;word-spacing:0px;text-anchor:middle;fill:#000000;fill-opacity:1;stroke:none"
       id="flowRoot3447-0"
       xml:space="preserve"><flowRegion
         id="flowRegion3449-7"><rect
           style="font-style:normal;font-variant:normal;font-weight:normal;font-stretch:normal;font-family:Lavi;-inkscape-font-specification:Lavi;text-align:center;text-anchor:middle"
           y="265.53046"
           x="120.55251"
           height="93.863342"
           width="357.5842"
           id="rect3451-7" /></flowRegion><flowPara
         style="font-size:48px;line-height:1.25;text-align:center;text-anchor:middle"
         id="flowPara3455-8">Fugi, idioato!</flowPara></flowRoot>    <flowRoot
       transform="matrix(0.92023172,0,0,0.83938721,1739.5665,3011.9672)"
       style="font-style:normal;font-variant:normal;font-weight:normal;font-stretch:normal;line-height:0.01%;font-family:Lavi;-inkscape-font-specification:Lavi;text-align:center;letter-spacing:0px;word-spacing:0px;text-anchor:middle;fill:#000000;fill-opacity:1;stroke:none"
       id="flowRoot3447-0-3"
       xml:space="preserve"><flowRegion
         id="flowRegion3449-7-4"><rect
           style="font-style:normal;font-variant:normal;font-weight:normal;font-stretch:normal;font-family:Lavi;-inkscape-font-specification:Lavi;text-align:center;text-anchor:middle"
           y="265.53046"
           x="120.55251"
           height="178.23993"
           width="472.40173"
           id="rect3451-7-5" /></flowRegion><flowPara
         style="font-size:48px;line-height:1.25;text-align:center;text-anchor:middle"
         id="flowPara4647">Competiția s-a terminat!</flowPara><flowPara
         style="font-size:48px;line-height:1.25;text-align:center;text-anchor:middle"
         id="flowPara3597">...salvează-te!</flowPara></flowRoot>  </g>
  <g
     inkscape:groupmode="layer"
     id="layer1"
     inkscape:label="txt" />
</svg>
